{
    "@context": "http://iiif.io/api/presentation/2/context.json", 
    "@id": "https://manifests.teklia.com/HIMANIS/JJ077/words_annotations/FRCHANJJ_JJ077_0025R.json", 
    "@type": "sc:AnnotationList", 
    "resources": [
        {
            "@id": "https://manifests.teklia.com/HIMANIS/JJ077/words_annotations/FRCHANJJ_JJ077_0025R.json/0/line", 
            "@type": "oa:Annotation", 
            "motivation": "oa:painting", 
            "on": "http://bvmm.irht.cnrs.fr/iiif/23659/canvas/canvas-2289407#xywh=1172,1809,439,80", 
            "resource": {
                "@type": "cnt:ContentAsText", 
                "chars": "FAITE", 
                "format": "text/plain"
            }
        }, 
        {
            "@id": "https://manifests.teklia.com/HIMANIS/JJ077/words_annotations/FRCHANJJ_JJ077_0025R.json/1/line", 
            "@type": "oa:Annotation", 
            "motivation": "oa:painting", 
            "on": "http://bvmm.irht.cnrs.fr/iiif/23659/canvas/canvas-2289407#xywh=1225,1898,147,46", 
            "resource": {
                "@type": "cnt:ContentAsText", 
                "chars": "REN", 
                "format": "text/plain"
            }
        }, 
        {
            "@id": "https://manifests.teklia.com/HIMANIS/JJ077/words_annotations/FRCHANJJ_JJ077_0025R.json/2/line", 
            "@type": "oa:Annotation", 
            "motivation": "oa:painting", 
            "on": "http://bvmm.irht.cnrs.fr/iiif/23659/canvas/canvas-2289407#xywh=1240,1652,168,36", 
            "resource": {
                "@type": "cnt:ContentAsText", 
                "chars": "ROY", 
                "format": "text/plain"
            }
        }, 
        {
            "@id": "https://manifests.teklia.com/HIMANIS/JJ077/words_annotations/FRCHANJJ_JJ077_0025R.json/3/line", 
            "@type": "oa:Annotation", 
            "motivation": "oa:painting", 
            "on": "http://bvmm.irht.cnrs.fr/iiif/23659/canvas/canvas-2289407#xywh=1240,1652,177,36", 
            "resource": {
                "@type": "cnt:ContentAsText", 
                "chars": "ROYS", 
                "format": "text/plain"
            }
        }, 
        {
            "@id": "https://manifests.teklia.com/HIMANIS/JJ077/words_annotations/FRCHANJJ_JJ077_0025R.json/4/line", 
            "@type": "oa:Annotation", 
            "motivation": "oa:painting", 
            "on": "http://bvmm.irht.cnrs.fr/iiif/23659/canvas/canvas-2289407#xywh=2561,1553,65,54", 
            "resource": {
                "@type": "cnt:ContentAsText", 
                "chars": "SA", 
                "format": "text/plain"
            }
        }, 
        {
            "@id": "https://manifests.teklia.com/HIMANIS/JJ077/words_annotations/FRCHANJJ_JJ077_0025R.json/5/line", 
            "@type": "oa:Annotation", 
            "motivation": "oa:painting", 
            "on": "http://bvmm.irht.cnrs.fr/iiif/23659/canvas/canvas-2289407#xywh=2561,1553,65,54", 
            "resource": {
                "@type": "cnt:ContentAsText", 
                "chars": "SI", 
                "format": "text/plain"
            }
        }, 
        {
            "@id": "https://manifests.teklia.com/HIMANIS/JJ077/words_annotations/FRCHANJJ_JJ077_0025R.json/6/line", 
            "@type": "oa:Annotation", 
            "motivation": "oa:painting", 
            "on": "http://bvmm.irht.cnrs.fr/iiif/23659/canvas/canvas-2289407#xywh=925,1809,192,80", 
            "resource": {
                "@type": "cnt:ContentAsText", 
                "chars": "SINE", 
                "format": "text/plain"
            }
        }, 
        {
            "@id": "https://manifests.teklia.com/HIMANIS/JJ077/words_annotations/FRCHANJJ_JJ077_0025R.json/7/line", 
            "@type": "oa:Annotation", 
            "motivation": "oa:painting", 
            "on": "http://bvmm.irht.cnrs.fr/iiif/23659/canvas/canvas-2289407#xywh=1989,1809,46,80", 
            "resource": {
                "@type": "cnt:ContentAsText", 
                "chars": "ITEM", 
                "format": "text/plain"
            }
        }, 
        {
            "@id": "https://manifests.teklia.com/HIMANIS/JJ077/words_annotations/FRCHANJJ_JJ077_0025R.json/8/line", 
            "@type": "oa:Annotation", 
            "motivation": "oa:painting", 
            "on": "http://bvmm.irht.cnrs.fr/iiif/23659/canvas/canvas-2289407#xywh=1240,1652,325,36", 
            "resource": {
                "@type": "cnt:ContentAsText", 
                "chars": "LES", 
                "format": "text/plain"
            }
        }, 
        {
            "@id": "https://manifests.teklia.com/HIMANIS/JJ077/words_annotations/FRCHANJJ_JJ077_0025R.json/9/line", 
            "@type": "oa:Annotation", 
            "motivation": "oa:painting", 
            "on": "http://bvmm.irht.cnrs.fr/iiif/23659/canvas/canvas-2289407#xywh=2098,0,526,57", 
            "resource": {
                "@type": "cnt:ContentAsText", 
                "chars": "CONTEN", 
                "format": "text/plain"
            }
        }, 
        {
            "@id": "https://manifests.teklia.com/HIMANIS/JJ077/words_annotations/FRCHANJJ_JJ077_0025R.json/10/line", 
            "@type": "oa:Annotation", 
            "motivation": "oa:painting", 
            "on": "http://bvmm.irht.cnrs.fr/iiif/23659/canvas/canvas-2289407#xywh=1313,1898,352,46", 
            "resource": {
                "@type": "cnt:ContentAsText", 
                "chars": "APPARTE", 
                "format": "text/plain"
            }
        }, 
        {
            "@id": "https://manifests.teklia.com/HIMANIS/JJ077/words_annotations/FRCHANJJ_JJ077_0025R.json/11/line", 
            "@type": "oa:Annotation", 
            "motivation": "oa:painting", 
            "on": "http://bvmm.irht.cnrs.fr/iiif/23659/canvas/canvas-2289407#xywh=880,2047,280,30", 
            "resource": {
                "@type": "cnt:ContentAsText", 
                "chars": "CCC", 
                "format": "text/plain"
            }
        }, 
        {
            "@id": "https://manifests.teklia.com/HIMANIS/JJ077/words_annotations/FRCHANJJ_JJ077_0025R.json/12/line", 
            "@type": "oa:Annotation", 
            "motivation": "oa:painting", 
            "on": "http://bvmm.irht.cnrs.fr/iiif/23659/canvas/canvas-2289407#xywh=1551,1809,363,80", 
            "resource": {
                "@type": "cnt:ContentAsText", 
                "chars": "ROCATUR", 
                "format": "text/plain"
            }
        }, 
        {
            "@id": "https://manifests.teklia.com/HIMANIS/JJ077/words_annotations/FRCHANJJ_JJ077_0025R.json/13/line", 
            "@type": "oa:Annotation", 
            "motivation": "oa:painting", 
            "on": "http://bvmm.irht.cnrs.fr/iiif/23659/canvas/canvas-2289407#xywh=2098,0,522,57", 
            "resource": {
                "@type": "cnt:ContentAsText", 
                "chars": "DICTE", 
                "format": "text/plain"
            }
        }, 
        {
            "@id": "https://manifests.teklia.com/HIMANIS/JJ077/words_annotations/FRCHANJJ_JJ077_0025R.json/14/line", 
            "@type": "oa:Annotation", 
            "motivation": "oa:painting", 
            "on": "http://bvmm.irht.cnrs.fr/iiif/23659/canvas/canvas-2289407#xywh=1418,1976,158,47", 
            "resource": {
                "@type": "cnt:ContentAsText", 
                "chars": "SALUT", 
                "format": "text/plain"
            }
        }, 
        {
            "@id": "https://manifests.teklia.com/HIMANIS/JJ077/words_annotations/FRCHANJJ_JJ077_0025R.json/15/line", 
            "@type": "oa:Annotation", 
            "motivation": "oa:painting", 
            "on": "http://bvmm.irht.cnrs.fr/iiif/23659/canvas/canvas-2289407#xywh=1427,1898,238,46", 
            "resource": {
                "@type": "cnt:ContentAsText", 
                "chars": "CHAPITE", 
                "format": "text/plain"
            }
        }, 
        {
            "@id": "https://manifests.teklia.com/HIMANIS/JJ077/words_annotations/FRCHANJJ_JJ077_0025R.json/16/line", 
            "@type": "oa:Annotation", 
            "motivation": "oa:painting", 
            "on": "http://bvmm.irht.cnrs.fr/iiif/23659/canvas/canvas-2289407#xywh=1762,1898,258,46", 
            "resource": {
                "@type": "cnt:ContentAsText", 
                "chars": "QUESTE", 
                "format": "text/plain"
            }
        }, 
        {
            "@id": "https://manifests.teklia.com/HIMANIS/JJ077/words_annotations/FRCHANJJ_JJ077_0025R.json/17/line", 
            "@type": "oa:Annotation", 
            "motivation": "oa:painting", 
            "on": "http://bvmm.irht.cnrs.fr/iiif/23659/canvas/canvas-2289407#xywh=3605,2827,35,65", 
            "resource": {
                "@type": "cnt:ContentAsText", 
                "chars": "QU", 
                "format": "text/plain"
            }
        }, 
        {
            "@id": "https://manifests.teklia.com/HIMANIS/JJ077/words_annotations/FRCHANJJ_JJ077_0025R.json/18/line", 
            "@type": "oa:Annotation", 
            "motivation": "oa:painting", 
            "on": "http://bvmm.irht.cnrs.fr/iiif/23659/canvas/canvas-2289407#xywh=1897,1334,155,29", 
            "resource": {
                "@type": "cnt:ContentAsText", 
                "chars": "DE", 
                "format": "text/plain"
            }
        }, 
        {
            "@id": "https://manifests.teklia.com/HIMANIS/JJ077/words_annotations/FRCHANJJ_JJ077_0025R.json/19/line", 
            "@type": "oa:Annotation", 
            "motivation": "oa:painting", 
            "on": "http://bvmm.irht.cnrs.fr/iiif/23659/canvas/canvas-2289407#xywh=2210,1898,396,46", 
            "resource": {
                "@type": "cnt:ContentAsText", 
                "chars": "DICEBA", 
                "format": "text/plain"
            }
        }, 
        {
            "@id": "https://manifests.teklia.com/HIMANIS/JJ077/words_annotations/FRCHANJJ_JJ077_0025R.json/20/line", 
            "@type": "oa:Annotation", 
            "motivation": "oa:painting", 
            "on": "http://bvmm.irht.cnrs.fr/iiif/23659/canvas/canvas-2289407#xywh=3083,0,565,147", 
            "resource": {
                "@type": "cnt:ContentAsText", 
                "chars": "DE", 
                "format": "text/plain"
            }
        }, 
        {
            "@id": "https://manifests.teklia.com/HIMANIS/JJ077/words_annotations/FRCHANJJ_JJ077_0025R.json/21/line", 
            "@type": "oa:Annotation", 
            "motivation": "oa:painting", 
            "on": "http://bvmm.irht.cnrs.fr/iiif/23659/canvas/canvas-2289407#xywh=1172,1809,237,80", 
            "resource": {
                "@type": "cnt:ContentAsText", 
                "chars": "TOURS", 
                "format": "text/plain"
            }
        }, 
        {
            "@id": "https://manifests.teklia.com/HIMANIS/JJ077/words_annotations/FRCHANJJ_JJ077_0025R.json/22/line", 
            "@type": "oa:Annotation", 
            "motivation": "oa:painting", 
            "on": "http://bvmm.irht.cnrs.fr/iiif/23659/canvas/canvas-2289407#xywh=1762,1898,258,46", 
            "resource": {
                "@type": "cnt:ContentAsText", 
                "chars": "QUESTIE", 
                "format": "text/plain"
            }
        }, 
        {
            "@id": "https://manifests.teklia.com/HIMANIS/JJ077/words_annotations/FRCHANJJ_JJ077_0025R.json/23/line", 
            "@type": "oa:Annotation", 
            "motivation": "oa:painting", 
            "on": "http://bvmm.irht.cnrs.fr/iiif/23659/canvas/canvas-2289407#xywh=2079,1553,120,54", 
            "resource": {
                "@type": "cnt:ContentAsText", 
                "chars": "DE", 
                "format": "text/plain"
            }
        }, 
        {
            "@id": "https://manifests.teklia.com/HIMANIS/JJ077/words_annotations/FRCHANJJ_JJ077_0025R.json/24/line", 
            "@type": "oa:Annotation", 
            "motivation": "oa:painting", 
            "on": "http://bvmm.irht.cnrs.fr/iiif/23659/canvas/canvas-2289407#xywh=1021,1809,151,80", 
            "resource": {
                "@type": "cnt:ContentAsText", 
                "chars": "DE", 
                "format": "text/plain"
            }
        }, 
        {
            "@id": "https://manifests.teklia.com/HIMANIS/JJ077/words_annotations/FRCHANJJ_JJ077_0025R.json/25/line", 
            "@type": "oa:Annotation", 
            "motivation": "oa:painting", 
            "on": "http://bvmm.irht.cnrs.fr/iiif/23659/canvas/canvas-2289407#xywh=1418,1898,150,46", 
            "resource": {
                "@type": "cnt:ContentAsText", 
                "chars": "LA", 
                "format": "text/plain"
            }
        }, 
        {
            "@id": "https://manifests.teklia.com/HIMANIS/JJ077/words_annotations/FRCHANJJ_JJ077_0025R.json/26/line", 
            "@type": "oa:Annotation", 
            "motivation": "oa:painting", 
            "on": "http://bvmm.irht.cnrs.fr/iiif/23659/canvas/canvas-2289407#xywh=1240,1652,376,36", 
            "resource": {
                "@type": "cnt:ContentAsText", 
                "chars": "LA", 
                "format": "text/plain"
            }
        }, 
        {
            "@id": "https://manifests.teklia.com/HIMANIS/JJ077/words_annotations/FRCHANJJ_JJ077_0025R.json/27/line", 
            "@type": "oa:Annotation", 
            "motivation": "oa:painting", 
            "on": "http://bvmm.irht.cnrs.fr/iiif/23659/canvas/canvas-2289407#xywh=2098,0,526,57", 
            "resource": {
                "@type": "cnt:ContentAsText", 
                "chars": "CONTRE", 
                "format": "text/plain"
            }
        }, 
        {
            "@id": "https://manifests.teklia.com/HIMANIS/JJ077/words_annotations/FRCHANJJ_JJ077_0025R.json/28/line", 
            "@type": "oa:Annotation", 
            "motivation": "oa:painting", 
            "on": "http://bvmm.irht.cnrs.fr/iiif/23659/canvas/canvas-2289407#xywh=1240,1652,523,36", 
            "resource": {
                "@type": "cnt:ContentAsText", 
                "chars": "LE", 
                "format": "text/plain"
            }
        }, 
        {
            "@id": "https://manifests.teklia.com/HIMANIS/JJ077/words_annotations/FRCHANJJ_JJ077_0025R.json/29/line", 
            "@type": "oa:Annotation", 
            "motivation": "oa:painting", 
            "on": "http://bvmm.irht.cnrs.fr/iiif/23659/canvas/canvas-2289407#xywh=2210,1898,9,46", 
            "resource": {
                "@type": "cnt:ContentAsText", 
                "chars": "DE", 
                "format": "text/plain"
            }
        }, 
        {
            "@id": "https://manifests.teklia.com/HIMANIS/JJ077/words_annotations/FRCHANJJ_JJ077_0025R.json/30/line", 
            "@type": "oa:Annotation", 
            "motivation": "oa:painting", 
            "on": "http://bvmm.irht.cnrs.fr/iiif/23659/canvas/canvas-2289407#xywh=1240,1652,542,36", 
            "resource": {
                "@type": "cnt:ContentAsText", 
                "chars": "DE", 
                "format": "text/plain"
            }
        }, 
        {
            "@id": "https://manifests.teklia.com/HIMANIS/JJ077/words_annotations/FRCHANJJ_JJ077_0025R.json/31/line", 
            "@type": "oa:Annotation", 
            "motivation": "oa:painting", 
            "on": "http://bvmm.irht.cnrs.fr/iiif/23659/canvas/canvas-2289407#xywh=1688,1898,106,46", 
            "resource": {
                "@type": "cnt:ContentAsText", 
                "chars": "RELIS", 
                "format": "text/plain"
            }
        }, 
        {
            "@id": "https://manifests.teklia.com/HIMANIS/JJ077/words_annotations/FRCHANJJ_JJ077_0025R.json/32/line", 
            "@type": "oa:Annotation", 
            "motivation": "oa:painting", 
            "on": "http://bvmm.irht.cnrs.fr/iiif/23659/canvas/canvas-2289407#xywh=1240,1652,698,36", 
            "resource": {
                "@type": "cnt:ContentAsText", 
                "chars": "CCC", 
                "format": "text/plain"
            }
        }, 
        {
            "@id": "https://manifests.teklia.com/HIMANIS/JJ077/words_annotations/FRCHANJJ_JJ077_0025R.json/33/line", 
            "@type": "oa:Annotation", 
            "motivation": "oa:painting", 
            "on": "http://bvmm.irht.cnrs.fr/iiif/23659/canvas/canvas-2289407#xywh=1162,1976,268,47", 
            "resource": {
                "@type": "cnt:ContentAsText", 
                "chars": "DICTIS", 
                "format": "text/plain"
            }
        }, 
        {
            "@id": "https://manifests.teklia.com/HIMANIS/JJ077/words_annotations/FRCHANJJ_JJ077_0025R.json/34/line", 
            "@type": "oa:Annotation", 
            "motivation": "oa:painting", 
            "on": "http://bvmm.irht.cnrs.fr/iiif/23659/canvas/canvas-2289407#xywh=1970,1334,255,29", 
            "resource": {
                "@type": "cnt:ContentAsText", 
                "chars": "CCC", 
                "format": "text/plain"
            }
        }, 
        {
            "@id": "https://manifests.teklia.com/HIMANIS/JJ077/words_annotations/FRCHANJJ_JJ077_0025R.json/35/line", 
            "@type": "oa:Annotation", 
            "motivation": "oa:painting", 
            "on": "http://bvmm.irht.cnrs.fr/iiif/23659/canvas/canvas-2289407#xywh=2055,1898,0,46", 
            "resource": {
                "@type": "cnt:ContentAsText", 
                "chars": "A", 
                "format": "text/plain"
            }
        }, 
        {
            "@id": "https://manifests.teklia.com/HIMANIS/JJ077/words_annotations/FRCHANJJ_JJ077_0025R.json/36/line", 
            "@type": "oa:Annotation", 
            "motivation": "oa:painting", 
            "on": "http://bvmm.irht.cnrs.fr/iiif/23659/canvas/canvas-2289407#xywh=1465,1809,449,80", 
            "resource": {
                "@type": "cnt:ContentAsText", 
                "chars": "DATUR", 
                "format": "text/plain"
            }
        }, 
        {
            "@id": "https://manifests.teklia.com/HIMANIS/JJ077/words_annotations/FRCHANJJ_JJ077_0025R.json/37/line", 
            "@type": "oa:Annotation", 
            "motivation": "oa:painting", 
            "on": "http://bvmm.irht.cnrs.fr/iiif/23659/canvas/canvas-2289407#xywh=1240,1652,549,36", 
            "resource": {
                "@type": "cnt:ContentAsText", 
                "chars": "DES", 
                "format": "text/plain"
            }
        }, 
        {
            "@id": "https://manifests.teklia.com/HIMANIS/JJ077/words_annotations/FRCHANJJ_JJ077_0025R.json/38/line", 
            "@type": "oa:Annotation", 
            "motivation": "oa:painting", 
            "on": "http://bvmm.irht.cnrs.fr/iiif/23659/canvas/canvas-2289407#xywh=1418,1976,137,47", 
            "resource": {
                "@type": "cnt:ContentAsText", 
                "chars": "SALVO", 
                "format": "text/plain"
            }
        }, 
        {
            "@id": "https://manifests.teklia.com/HIMANIS/JJ077/words_annotations/FRCHANJJ_JJ077_0025R.json/39/line", 
            "@type": "oa:Annotation", 
            "motivation": "oa:painting", 
            "on": "http://bvmm.irht.cnrs.fr/iiif/23659/canvas/canvas-2289407#xywh=1418,1898,247,46", 
            "resource": {
                "@type": "cnt:ContentAsText", 
                "chars": "CAPITE", 
                "format": "text/plain"
            }
        }, 
        {
            "@id": "https://manifests.teklia.com/HIMANIS/JJ077/words_annotations/FRCHANJJ_JJ077_0025R.json/40/line", 
            "@type": "oa:Annotation", 
            "motivation": "oa:painting", 
            "on": "http://bvmm.irht.cnrs.fr/iiif/23659/canvas/canvas-2289407#xywh=1688,1898,147,46", 
            "resource": {
                "@type": "cnt:ContentAsText", 
                "chars": "DELICE", 
                "format": "text/plain"
            }
        }, 
        {
            "@id": "https://manifests.teklia.com/HIMANIS/JJ077/words_annotations/FRCHANJJ_JJ077_0025R.json/41/line", 
            "@type": "oa:Annotation", 
            "motivation": "oa:painting", 
            "on": "http://bvmm.irht.cnrs.fr/iiif/23659/canvas/canvas-2289407#xywh=3578,4577,71,32", 
            "resource": {
                "@type": "cnt:ContentAsText", 
                "chars": "LES", 
                "format": "text/plain"
            }
        }, 
        {
            "@id": "https://manifests.teklia.com/HIMANIS/JJ077/words_annotations/FRCHANJJ_JJ077_0025R.json/42/line", 
            "@type": "oa:Annotation", 
            "motivation": "oa:painting", 
            "on": "http://bvmm.irht.cnrs.fr/iiif/23659/canvas/canvas-2289407#xywh=1897,1334,84,29", 
            "resource": {
                "@type": "cnt:ContentAsText", 
                "chars": "ET", 
                "format": "text/plain"
            }
        }, 
        {
            "@id": "https://manifests.teklia.com/HIMANIS/JJ077/words_annotations/FRCHANJJ_JJ077_0025R.json/43/line", 
            "@type": "oa:Annotation", 
            "motivation": "oa:painting", 
            "on": "http://bvmm.irht.cnrs.fr/iiif/23659/canvas/canvas-2289407#xywh=3641,4577,33,32", 
            "resource": {
                "@type": "cnt:ContentAsText", 
                "chars": "DE", 
                "format": "text/plain"
            }
        }, 
        {
            "@id": "https://manifests.teklia.com/HIMANIS/JJ077/words_annotations/FRCHANJJ_JJ077_0025R.json/44/line", 
            "@type": "oa:Annotation", 
            "motivation": "oa:painting", 
            "on": "http://bvmm.irht.cnrs.fr/iiif/23659/canvas/canvas-2289407#xywh=1688,1898,118,46", 
            "resource": {
                "@type": "cnt:ContentAsText", 
                "chars": "DELIS", 
                "format": "text/plain"
            }
        }, 
        {
            "@id": "https://manifests.teklia.com/HIMANIS/JJ077/words_annotations/FRCHANJJ_JJ077_0025R.json/45/line", 
            "@type": "oa:Annotation", 
            "motivation": "oa:painting", 
            "on": "http://bvmm.irht.cnrs.fr/iiif/23659/canvas/canvas-2289407#xywh=3083,0,474,147", 
            "resource": {
                "@type": "cnt:ContentAsText", 
                "chars": "ET", 
                "format": "text/plain"
            }
        }, 
        {
            "@id": "https://manifests.teklia.com/HIMANIS/JJ077/words_annotations/FRCHANJJ_JJ077_0025R.json/46/line", 
            "@type": "oa:Annotation", 
            "motivation": "oa:painting", 
            "on": "http://bvmm.irht.cnrs.fr/iiif/23659/canvas/canvas-2289407#xywh=2036,1476,204,76", 
            "resource": {
                "@type": "cnt:ContentAsText", 
                "chars": "FAIRE", 
                "format": "text/plain"
            }
        }, 
        {
            "@id": "https://manifests.teklia.com/HIMANIS/JJ077/words_annotations/FRCHANJJ_JJ077_0025R.json/47/line", 
            "@type": "oa:Annotation", 
            "motivation": "oa:painting", 
            "on": "http://bvmm.irht.cnrs.fr/iiif/23659/canvas/canvas-2289407#xywh=1225,1898,147,46", 
            "resource": {
                "@type": "cnt:ContentAsText", 
                "chars": "EN", 
                "format": "text/plain"
            }
        }, 
        {
            "@id": "https://manifests.teklia.com/HIMANIS/JJ077/words_annotations/FRCHANJJ_JJ077_0025R.json/48/line", 
            "@type": "oa:Annotation", 
            "motivation": "oa:painting", 
            "on": "http://bvmm.irht.cnrs.fr/iiif/23659/canvas/canvas-2289407#xywh=1240,1652,258,36", 
            "resource": {
                "@type": "cnt:ContentAsText", 
                "chars": "ET", 
                "format": "text/plain"
            }
        }, 
        {
            "@id": "https://manifests.teklia.com/HIMANIS/JJ077/words_annotations/FRCHANJJ_JJ077_0025R.json/49/line", 
            "@type": "oa:Annotation", 
            "motivation": "oa:painting", 
            "on": "http://bvmm.irht.cnrs.fr/iiif/23659/canvas/canvas-2289407#xywh=1240,1652,260,36", 
            "resource": {
                "@type": "cnt:ContentAsText", 
                "chars": "AU", 
                "format": "text/plain"
            }
        }, 
        {
            "@id": "https://manifests.teklia.com/HIMANIS/JJ077/words_annotations/FRCHANJJ_JJ077_0025R.json/50/line", 
            "@type": "oa:Annotation", 
            "motivation": "oa:painting", 
            "on": "http://bvmm.irht.cnrs.fr/iiif/23659/canvas/canvas-2289407#xywh=1465,1809,777,80", 
            "resource": {
                "@type": "cnt:ContentAsText", 
                "chars": "PROFIT", 
                "format": "text/plain"
            }
        }, 
        {
            "@id": "https://manifests.teklia.com/HIMANIS/JJ077/words_annotations/FRCHANJJ_JJ077_0025R.json/51/line", 
            "@type": "oa:Annotation", 
            "motivation": "oa:painting", 
            "on": "http://bvmm.irht.cnrs.fr/iiif/23659/canvas/canvas-2289407#xywh=1313,1898,352,46", 
            "resource": {
                "@type": "cnt:ContentAsText", 
                "chars": "DAMPNITE", 
                "format": "text/plain"
            }
        }, 
        {
            "@id": "https://manifests.teklia.com/HIMANIS/JJ077/words_annotations/FRCHANJJ_JJ077_0025R.json/52/line", 
            "@type": "oa:Annotation", 
            "motivation": "oa:painting", 
            "on": "http://bvmm.irht.cnrs.fr/iiif/23659/canvas/canvas-2289407#xywh=880,2047,295,30", 
            "resource": {
                "@type": "cnt:ContentAsText", 
                "chars": "CE", 
                "format": "text/plain"
            }
        }, 
        {
            "@id": "https://manifests.teklia.com/HIMANIS/JJ077/words_annotations/FRCHANJJ_JJ077_0025R.json/53/line", 
            "@type": "oa:Annotation", 
            "motivation": "oa:painting", 
            "on": "http://bvmm.irht.cnrs.fr/iiif/23659/canvas/canvas-2289407#xywh=2210,1898,396,46", 
            "resource": {
                "@type": "cnt:ContentAsText", 
                "chars": "DILECT", 
                "format": "text/plain"
            }
        }, 
        {
            "@id": "https://manifests.teklia.com/HIMANIS/JJ077/words_annotations/FRCHANJJ_JJ077_0025R.json/54/line", 
            "@type": "oa:Annotation", 
            "motivation": "oa:painting", 
            "on": "http://bvmm.irht.cnrs.fr/iiif/23659/canvas/canvas-2289407#xywh=1172,1809,308,80", 
            "resource": {
                "@type": "cnt:ContentAsText", 
                "chars": "FRA", 
                "format": "text/plain"
            }
        }, 
        {
            "@id": "https://manifests.teklia.com/HIMANIS/JJ077/words_annotations/FRCHANJJ_JJ077_0025R.json/55/line", 
            "@type": "oa:Annotation", 
            "motivation": "oa:painting", 
            "on": "http://bvmm.irht.cnrs.fr/iiif/23659/canvas/canvas-2289407#xywh=2343,1652,0,36", 
            "resource": {
                "@type": "cnt:ContentAsText", 
                "chars": "G", 
                "format": "text/plain"
            }
        }, 
        {
            "@id": "https://manifests.teklia.com/HIMANIS/JJ077/words_annotations/FRCHANJJ_JJ077_0025R.json/56/line", 
            "@type": "oa:Annotation", 
            "motivation": "oa:painting", 
            "on": "http://bvmm.irht.cnrs.fr/iiif/23659/canvas/canvas-2289407#xywh=2096,1898,47,46", 
            "resource": {
                "@type": "cnt:ContentAsText", 
                "chars": "REDES", 
                "format": "text/plain"
            }
        }, 
        {
            "@id": "https://manifests.teklia.com/HIMANIS/JJ077/words_annotations/FRCHANJJ_JJ077_0025R.json/57/line", 
            "@type": "oa:Annotation", 
            "motivation": "oa:painting", 
            "on": "http://bvmm.irht.cnrs.fr/iiif/23659/canvas/canvas-2289407#xywh=2343,1652,0,36", 
            "resource": {
                "@type": "cnt:ContentAsText", 
                "chars": "S", 
                "format": "text/plain"
            }
        }, 
        {
            "@id": "https://manifests.teklia.com/HIMANIS/JJ077/words_annotations/FRCHANJJ_JJ077_0025R.json/58/line", 
            "@type": "oa:Annotation", 
            "motivation": "oa:painting", 
            "on": "http://bvmm.irht.cnrs.fr/iiif/23659/canvas/canvas-2289407#xywh=965,3183,0,32", 
            "resource": {
                "@type": "cnt:ContentAsText", 
                "chars": "J", 
                "format": "text/plain"
            }
        }, 
        {
            "@id": "https://manifests.teklia.com/HIMANIS/JJ077/words_annotations/FRCHANJJ_JJ077_0025R.json/59/line", 
            "@type": "oa:Annotation", 
            "motivation": "oa:painting", 
            "on": "http://bvmm.irht.cnrs.fr/iiif/23659/canvas/canvas-2289407#xywh=965,3183,0,32", 
            "resource": {
                "@type": "cnt:ContentAsText", 
                "chars": "P", 
                "format": "text/plain"
            }
        }, 
        {
            "@id": "https://manifests.teklia.com/HIMANIS/JJ077/words_annotations/FRCHANJJ_JJ077_0025R.json/60/line", 
            "@type": "oa:Annotation", 
            "motivation": "oa:painting", 
            "on": "http://bvmm.irht.cnrs.fr/iiif/23659/canvas/canvas-2289407#xywh=1162,1976,268,47", 
            "resource": {
                "@type": "cnt:ContentAsText", 
                "chars": "PETRIS", 
                "format": "text/plain"
            }
        }, 
        {
            "@id": "https://manifests.teklia.com/HIMANIS/JJ077/words_annotations/FRCHANJJ_JJ077_0025R.json/61/line", 
            "@type": "oa:Annotation", 
            "motivation": "oa:painting", 
            "on": "http://bvmm.irht.cnrs.fr/iiif/23659/canvas/canvas-2289407#xywh=1225,1898,147,46", 
            "resource": {
                "@type": "cnt:ContentAsText", 
                "chars": "PREN", 
                "format": "text/plain"
            }
        }, 
        {
            "@id": "https://manifests.teklia.com/HIMANIS/JJ077/words_annotations/FRCHANJJ_JJ077_0025R.json/62/line", 
            "@type": "oa:Annotation", 
            "motivation": "oa:painting", 
            "on": "http://bvmm.irht.cnrs.fr/iiif/23659/canvas/canvas-2289407#xywh=1172,1809,742,80", 
            "resource": {
                "@type": "cnt:ContentAsText", 
                "chars": "FRAUDEATUR", 
                "format": "text/plain"
            }
        }, 
        {
            "@id": "https://manifests.teklia.com/HIMANIS/JJ077/words_annotations/FRCHANJJ_JJ077_0025R.json/63/line", 
            "@type": "oa:Annotation", 
            "motivation": "oa:painting", 
            "on": "http://bvmm.irht.cnrs.fr/iiif/23659/canvas/canvas-2289407#xywh=925,1809,454,80", 
            "resource": {
                "@type": "cnt:ContentAsText", 
                "chars": "SYMONT", 
                "format": "text/plain"
            }
        }, 
        {
            "@id": "https://manifests.teklia.com/HIMANIS/JJ077/words_annotations/FRCHANJJ_JJ077_0025R.json/64/line", 
            "@type": "oa:Annotation", 
            "motivation": "oa:painting", 
            "on": "http://bvmm.irht.cnrs.fr/iiif/23659/canvas/canvas-2289407#xywh=3578,4577,57,32", 
            "resource": {
                "@type": "cnt:ContentAsText", 
                "chars": "ET", 
                "format": "text/plain"
            }
        }, 
        {
            "@id": "https://manifests.teklia.com/HIMANIS/JJ077/words_annotations/FRCHANJJ_JJ077_0025R.json/65/line", 
            "@type": "oa:Annotation", 
            "motivation": "oa:painting", 
            "on": "http://bvmm.irht.cnrs.fr/iiif/23659/canvas/canvas-2289407#xywh=2001,676,0,37", 
            "resource": {
                "@type": "cnt:ContentAsText", 
                "chars": "P", 
                "format": "text/plain"
            }
        }, 
        {
            "@id": "https://manifests.teklia.com/HIMANIS/JJ077/words_annotations/FRCHANJJ_JJ077_0025R.json/66/line", 
            "@type": "oa:Annotation", 
            "motivation": "oa:painting", 
            "on": "http://bvmm.irht.cnrs.fr/iiif/23659/canvas/canvas-2289407#xywh=3578,4577,98,32", 
            "resource": {
                "@type": "cnt:ContentAsText", 
                "chars": "DILEC", 
                "format": "text/plain"
            }
        }, 
        {
            "@id": "https://manifests.teklia.com/HIMANIS/JJ077/words_annotations/FRCHANJJ_JJ077_0025R.json/67/line", 
            "@type": "oa:Annotation", 
            "motivation": "oa:painting", 
            "on": "http://bvmm.irht.cnrs.fr/iiif/23659/canvas/canvas-2289407#xywh=1225,1898,147,46", 
            "resource": {
                "@type": "cnt:ContentAsText", 
                "chars": "PREDI", 
                "format": "text/plain"
            }
        }, 
        {
            "@id": "https://manifests.teklia.com/HIMANIS/JJ077/words_annotations/FRCHANJJ_JJ077_0025R.json/68/line", 
            "@type": "oa:Annotation", 
            "motivation": "oa:painting", 
            "on": "http://bvmm.irht.cnrs.fr/iiif/23659/canvas/canvas-2289407#xywh=925,1809,0,80", 
            "resource": {
                "@type": "cnt:ContentAsText", 
                "chars": "J", 
                "format": "text/plain"
            }
        }, 
        {
            "@id": "https://manifests.teklia.com/HIMANIS/JJ077/words_annotations/FRCHANJJ_JJ077_0025R.json/69/line", 
            "@type": "oa:Annotation", 
            "motivation": "oa:painting", 
            "on": "http://bvmm.irht.cnrs.fr/iiif/23659/canvas/canvas-2289407#xywh=2961,2080,0,23", 
            "resource": {
                "@type": "cnt:ContentAsText", 
                "chars": "C", 
                "format": "text/plain"
            }
        }, 
        {
            "@id": "https://manifests.teklia.com/HIMANIS/JJ077/words_annotations/FRCHANJJ_JJ077_0025R.json/70/line", 
            "@type": "oa:Annotation", 
            "motivation": "oa:painting", 
            "on": "http://bvmm.irht.cnrs.fr/iiif/23659/canvas/canvas-2289407#xywh=1162,1976,268,47", 
            "resource": {
                "@type": "cnt:ContentAsText", 
                "chars": "PARIS", 
                "format": "text/plain"
            }
        }, 
        {
            "@id": "https://manifests.teklia.com/HIMANIS/JJ077/words_annotations/FRCHANJJ_JJ077_0025R.json/71/line", 
            "@type": "oa:Annotation", 
            "motivation": "oa:painting", 
            "on": "http://bvmm.irht.cnrs.fr/iiif/23659/canvas/canvas-2289407#xywh=417,4085,0,52", 
            "resource": {
                "@type": "cnt:ContentAsText", 
                "chars": "C", 
                "format": "text/plain"
            }
        }, 
        {
            "@id": "https://manifests.teklia.com/HIMANIS/JJ077/words_annotations/FRCHANJJ_JJ077_0025R.json/72/line", 
            "@type": "oa:Annotation", 
            "motivation": "oa:painting", 
            "on": "http://bvmm.irht.cnrs.fr/iiif/23659/canvas/canvas-2289407#xywh=2230,1553,270,54", 
            "resource": {
                "@type": "cnt:ContentAsText", 
                "chars": "GRATI", 
                "format": "text/plain"
            }
        }, 
        {
            "@id": "https://manifests.teklia.com/HIMANIS/JJ077/words_annotations/FRCHANJJ_JJ077_0025R.json/73/line", 
            "@type": "oa:Annotation", 
            "motivation": "oa:painting", 
            "on": "http://bvmm.irht.cnrs.fr/iiif/23659/canvas/canvas-2289407#xywh=2446,1652,30,36", 
            "resource": {
                "@type": "cnt:ContentAsText", 
                "chars": "CCC", 
                "format": "text/plain"
            }
        }, 
        {
            "@id": "https://manifests.teklia.com/HIMANIS/JJ077/words_annotations/FRCHANJJ_JJ077_0025R.json/74/line", 
            "@type": "oa:Annotation", 
            "motivation": "oa:painting", 
            "on": "http://bvmm.irht.cnrs.fr/iiif/23659/canvas/canvas-2289407#xywh=417,4085,0,52", 
            "resource": {
                "@type": "cnt:ContentAsText", 
                "chars": "S", 
                "format": "text/plain"
            }
        }, 
        {
            "@id": "https://manifests.teklia.com/HIMANIS/JJ077/words_annotations/FRCHANJJ_JJ077_0025R.json/75/line", 
            "@type": "oa:Annotation", 
            "motivation": "oa:painting", 
            "on": "http://bvmm.irht.cnrs.fr/iiif/23659/canvas/canvas-2289407#xywh=417,4085,0,52", 
            "resource": {
                "@type": "cnt:ContentAsText", 
                "chars": "Y", 
                "format": "text/plain"
            }
        }, 
        {
            "@id": "https://manifests.teklia.com/HIMANIS/JJ077/words_annotations/FRCHANJJ_JJ077_0025R.json/76/line", 
            "@type": "oa:Annotation", 
            "motivation": "oa:painting", 
            "on": "http://bvmm.irht.cnrs.fr/iiif/23659/canvas/canvas-2289407#xywh=507,3693,177,52", 
            "resource": {
                "@type": "cnt:ContentAsText", 
                "chars": "CCC", 
                "format": "text/plain"
            }
        }, 
        {
            "@id": "https://manifests.teklia.com/HIMANIS/JJ077/words_annotations/FRCHANJJ_JJ077_0025R.json/77/line", 
            "@type": "oa:Annotation", 
            "motivation": "oa:painting", 
            "on": "http://bvmm.irht.cnrs.fr/iiif/23659/canvas/canvas-2289407#xywh=2096,1898,85,46", 
            "resource": {
                "@type": "cnt:ContentAsText", 
                "chars": "REDDERE", 
                "format": "text/plain"
            }
        }, 
        {
            "@id": "https://manifests.teklia.com/HIMANIS/JJ077/words_annotations/FRCHANJJ_JJ077_0025R.json/78/line", 
            "@type": "oa:Annotation", 
            "motivation": "oa:painting", 
            "on": "http://bvmm.irht.cnrs.fr/iiif/23659/canvas/canvas-2289407#xywh=1688,1898,147,46", 
            "resource": {
                "@type": "cnt:ContentAsText", 
                "chars": "RELICE", 
                "format": "text/plain"
            }
        }, 
        {
            "@id": "https://manifests.teklia.com/HIMANIS/JJ077/words_annotations/FRCHANJJ_JJ077_0025R.json/79/line", 
            "@type": "oa:Annotation", 
            "motivation": "oa:painting", 
            "on": "http://bvmm.irht.cnrs.fr/iiif/23659/canvas/canvas-2289407#xywh=2230,1553,171,54", 
            "resource": {
                "@type": "cnt:ContentAsText", 
                "chars": "GRAT", 
                "format": "text/plain"
            }
        }, 
        {
            "@id": "https://manifests.teklia.com/HIMANIS/JJ077/words_annotations/FRCHANJJ_JJ077_0025R.json/80/line", 
            "@type": "oa:Annotation", 
            "motivation": "oa:painting", 
            "on": "http://bvmm.irht.cnrs.fr/iiif/23659/canvas/canvas-2289407#xywh=1970,1334,82,29", 
            "resource": {
                "@type": "cnt:ContentAsText", 
                "chars": "DITE", 
                "format": "text/plain"
            }
        }
    ]
}