{
    "@context": "http://iiif.io/api/presentation/2/context.json", 
    "@id": "https://manifests.teklia.com/HIMANIS/JJ077/words_annotations/FRCHANJJ_JJ077_0080R.json", 
    "@type": "sc:AnnotationList", 
    "resources": [
        {
            "@id": "https://manifests.teklia.com/HIMANIS/JJ077/words_annotations/FRCHANJJ_JJ077_0080R.json/0/line", 
            "@type": "oa:Annotation", 
            "motivation": "oa:painting", 
            "on": "http://bvmm.irht.cnrs.fr/iiif/23659/canvas/canvas-2289516#xywh=2198,1631,47,74", 
            "resource": {
                "@type": "cnt:ContentAsText", 
                "chars": "DU", 
                "format": "text/plain"
            }
        }, 
        {
            "@id": "https://manifests.teklia.com/HIMANIS/JJ077/words_annotations/FRCHANJJ_JJ077_0080R.json/1/line", 
            "@type": "oa:Annotation", 
            "motivation": "oa:painting", 
            "on": "http://bvmm.irht.cnrs.fr/iiif/23659/canvas/canvas-2289516#xywh=1984,2288,179,136", 
            "resource": {
                "@type": "cnt:ContentAsText", 
                "chars": "SERGENZ", 
                "format": "text/plain"
            }
        }, 
        {
            "@id": "https://manifests.teklia.com/HIMANIS/JJ077/words_annotations/FRCHANJJ_JJ077_0080R.json/2/line", 
            "@type": "oa:Annotation", 
            "motivation": "oa:painting", 
            "on": "http://bvmm.irht.cnrs.fr/iiif/23659/canvas/canvas-2289516#xywh=1835,1714,77,64", 
            "resource": {
                "@type": "cnt:ContentAsText", 
                "chars": "DE", 
                "format": "text/plain"
            }
        }, 
        {
            "@id": "https://manifests.teklia.com/HIMANIS/JJ077/words_annotations/FRCHANJJ_JJ077_0080R.json/3/line", 
            "@type": "oa:Annotation", 
            "motivation": "oa:painting", 
            "on": "http://bvmm.irht.cnrs.fr/iiif/23659/canvas/canvas-2289516#xywh=1768,2140,152,47", 
            "resource": {
                "@type": "cnt:ContentAsText", 
                "chars": "LETTRES", 
                "format": "text/plain"
            }
        }, 
        {
            "@id": "https://manifests.teklia.com/HIMANIS/JJ077/words_annotations/FRCHANJJ_JJ077_0080R.json/4/line", 
            "@type": "oa:Annotation", 
            "motivation": "oa:painting", 
            "on": "http://bvmm.irht.cnrs.fr/iiif/23659/canvas/canvas-2289516#xywh=1835,1714,65,64", 
            "resource": {
                "@type": "cnt:ContentAsText", 
                "chars": "DU", 
                "format": "text/plain"
            }
        }, 
        {
            "@id": "https://manifests.teklia.com/HIMANIS/JJ077/words_annotations/FRCHANJJ_JJ077_0080R.json/5/line", 
            "@type": "oa:Annotation", 
            "motivation": "oa:painting", 
            "on": "http://bvmm.irht.cnrs.fr/iiif/23659/canvas/canvas-2289516#xywh=574,3424,240,100", 
            "resource": {
                "@type": "cnt:ContentAsText", 
                "chars": "ACCORDUM", 
                "format": "text/plain"
            }
        }, 
        {
            "@id": "https://manifests.teklia.com/HIMANIS/JJ077/words_annotations/FRCHANJJ_JJ077_0080R.json/6/line", 
            "@type": "oa:Annotation", 
            "motivation": "oa:painting", 
            "on": "http://bvmm.irht.cnrs.fr/iiif/23659/canvas/canvas-2289516#xywh=1546,1314,406,40", 
            "resource": {
                "@type": "cnt:ContentAsText", 
                "chars": "QUEL", 
                "format": "text/plain"
            }
        }, 
        {
            "@id": "https://manifests.teklia.com/HIMANIS/JJ077/words_annotations/FRCHANJJ_JJ077_0080R.json/7/line", 
            "@type": "oa:Annotation", 
            "motivation": "oa:painting", 
            "on": "http://bvmm.irht.cnrs.fr/iiif/23659/canvas/canvas-2289516#xywh=1034,2288,137,136", 
            "resource": {
                "@type": "cnt:ContentAsText", 
                "chars": "PAIS", 
                "format": "text/plain"
            }
        }, 
        {
            "@id": "https://manifests.teklia.com/HIMANIS/JJ077/words_annotations/FRCHANJJ_JJ077_0080R.json/8/line", 
            "@type": "oa:Annotation", 
            "motivation": "oa:painting", 
            "on": "http://bvmm.irht.cnrs.fr/iiif/23659/canvas/canvas-2289516#xywh=2260,2437,66,70", 
            "resource": {
                "@type": "cnt:ContentAsText", 
                "chars": "LES", 
                "format": "text/plain"
            }
        }, 
        {
            "@id": "https://manifests.teklia.com/HIMANIS/JJ077/words_annotations/FRCHANJJ_JJ077_0080R.json/9/line", 
            "@type": "oa:Annotation", 
            "motivation": "oa:painting", 
            "on": "http://bvmm.irht.cnrs.fr/iiif/23659/canvas/canvas-2289516#xywh=738,3499,207,122", 
            "resource": {
                "@type": "cnt:ContentAsText", 
                "chars": "DEFFUNCTI", 
                "format": "text/plain"
            }
        }, 
        {
            "@id": "https://manifests.teklia.com/HIMANIS/JJ077/words_annotations/FRCHANJJ_JJ077_0080R.json/10/line", 
            "@type": "oa:Annotation", 
            "motivation": "oa:painting", 
            "on": "http://bvmm.irht.cnrs.fr/iiif/23659/canvas/canvas-2289516#xywh=1348,355,182,107", 
            "resource": {
                "@type": "cnt:ContentAsText", 
                "chars": "ANCHON", 
                "format": "text/plain"
            }
        }, 
        {
            "@id": "https://manifests.teklia.com/HIMANIS/JJ077/words_annotations/FRCHANJJ_JJ077_0080R.json/11/line", 
            "@type": "oa:Annotation", 
            "motivation": "oa:painting", 
            "on": "http://bvmm.irht.cnrs.fr/iiif/23659/canvas/canvas-2289516#xywh=1646,1631,112,74", 
            "resource": {
                "@type": "cnt:ContentAsText", 
                "chars": "LEURS", 
                "format": "text/plain"
            }
        }, 
        {
            "@id": "https://manifests.teklia.com/HIMANIS/JJ077/words_annotations/FRCHANJJ_JJ077_0080R.json/12/line", 
            "@type": "oa:Annotation", 
            "motivation": "oa:painting", 
            "on": "http://bvmm.irht.cnrs.fr/iiif/23659/canvas/canvas-2289516#xywh=360,355,161,107", 
            "resource": {
                "@type": "cnt:ContentAsText", 
                "chars": "SALVA", 
                "format": "text/plain"
            }
        }, 
        {
            "@id": "https://manifests.teklia.com/HIMANIS/JJ077/words_annotations/FRCHANJJ_JJ077_0080R.json/13/line", 
            "@type": "oa:Annotation", 
            "motivation": "oa:painting", 
            "on": "http://bvmm.irht.cnrs.fr/iiif/23659/canvas/canvas-2289516#xywh=1214,1469,195,63", 
            "resource": {
                "@type": "cnt:ContentAsText", 
                "chars": "OPPOSSIONE", 
                "format": "text/plain"
            }
        }, 
        {
            "@id": "https://manifests.teklia.com/HIMANIS/JJ077/words_annotations/FRCHANJJ_JJ077_0080R.json/14/line", 
            "@type": "oa:Annotation", 
            "motivation": "oa:painting", 
            "on": "http://bvmm.irht.cnrs.fr/iiif/23659/canvas/canvas-2289516#xywh=1713,1885,32,64", 
            "resource": {
                "@type": "cnt:ContentAsText", 
                "chars": "DES", 
                "format": "text/plain"
            }
        }, 
        {
            "@id": "https://manifests.teklia.com/HIMANIS/JJ077/words_annotations/FRCHANJJ_JJ077_0080R.json/15/line", 
            "@type": "oa:Annotation", 
            "motivation": "oa:painting", 
            "on": "http://bvmm.irht.cnrs.fr/iiif/23659/canvas/canvas-2289516#xywh=1983,1631,56,74", 
            "resource": {
                "@type": "cnt:ContentAsText", 
                "chars": "SIRE", 
                "format": "text/plain"
            }
        }, 
        {
            "@id": "https://manifests.teklia.com/HIMANIS/JJ077/words_annotations/FRCHANJJ_JJ077_0080R.json/16/line", 
            "@type": "oa:Annotation", 
            "motivation": "oa:painting", 
            "on": "http://bvmm.irht.cnrs.fr/iiif/23659/canvas/canvas-2289516#xywh=1983,1631,56,74", 
            "resource": {
                "@type": "cnt:ContentAsText", 
                "chars": "SINE", 
                "format": "text/plain"
            }
        }, 
        {
            "@id": "https://manifests.teklia.com/HIMANIS/JJ077/words_annotations/FRCHANJJ_JJ077_0080R.json/17/line", 
            "@type": "oa:Annotation", 
            "motivation": "oa:painting", 
            "on": "http://bvmm.irht.cnrs.fr/iiif/23659/canvas/canvas-2289516#xywh=117,355,196,107", 
            "resource": {
                "@type": "cnt:ContentAsText", 
                "chars": "XXXVIII", 
                "format": "text/plain"
            }
        }, 
        {
            "@id": "https://manifests.teklia.com/HIMANIS/JJ077/words_annotations/FRCHANJJ_JJ077_0080R.json/18/line", 
            "@type": "oa:Annotation", 
            "motivation": "oa:painting", 
            "on": "http://bvmm.irht.cnrs.fr/iiif/23659/canvas/canvas-2289516#xywh=1307,2288,95,136", 
            "resource": {
                "@type": "cnt:ContentAsText", 
                "chars": "DITES", 
                "format": "text/plain"
            }
        }, 
        {
            "@id": "https://manifests.teklia.com/HIMANIS/JJ077/words_annotations/FRCHANJJ_JJ077_0080R.json/19/line", 
            "@type": "oa:Annotation", 
            "motivation": "oa:painting", 
            "on": "http://bvmm.irht.cnrs.fr/iiif/23659/canvas/canvas-2289516#xywh=40,1465,157,61", 
            "resource": {
                "@type": "cnt:ContentAsText", 
                "chars": "NOUS", 
                "format": "text/plain"
            }
        }, 
        {
            "@id": "https://manifests.teklia.com/HIMANIS/JJ077/words_annotations/FRCHANJJ_JJ077_0080R.json/20/line", 
            "@type": "oa:Annotation", 
            "motivation": "oa:painting", 
            "on": "http://bvmm.irht.cnrs.fr/iiif/23659/canvas/canvas-2289516#xywh=972,355,40,107", 
            "resource": {
                "@type": "cnt:ContentAsText", 
                "chars": "PRO", 
                "format": "text/plain"
            }
        }, 
        {
            "@id": "https://manifests.teklia.com/HIMANIS/JJ077/words_annotations/FRCHANJJ_JJ077_0080R.json/21/line", 
            "@type": "oa:Annotation", 
            "motivation": "oa:painting", 
            "on": "http://bvmm.irht.cnrs.fr/iiif/23659/canvas/canvas-2289516#xywh=1958,1244,87,18", 
            "resource": {
                "@type": "cnt:ContentAsText", 
                "chars": "CE", 
                "format": "text/plain"
            }
        }, 
        {
            "@id": "https://manifests.teklia.com/HIMANIS/JJ077/words_annotations/FRCHANJJ_JJ077_0080R.json/22/line", 
            "@type": "oa:Annotation", 
            "motivation": "oa:painting", 
            "on": "http://bvmm.irht.cnrs.fr/iiif/23659/canvas/canvas-2289516#xywh=1771,1269,265,13", 
            "resource": {
                "@type": "cnt:ContentAsText", 
                "chars": "EST", 
                "format": "text/plain"
            }
        }, 
        {
            "@id": "https://manifests.teklia.com/HIMANIS/JJ077/words_annotations/FRCHANJJ_JJ077_0080R.json/23/line", 
            "@type": "oa:Annotation", 
            "motivation": "oa:painting", 
            "on": "http://bvmm.irht.cnrs.fr/iiif/23659/canvas/canvas-2289516#xywh=1749,1531,140,97", 
            "resource": {
                "@type": "cnt:ContentAsText", 
                "chars": "JUSTEZ", 
                "format": "text/plain"
            }
        }, 
        {
            "@id": "https://manifests.teklia.com/HIMANIS/JJ077/words_annotations/FRCHANJJ_JJ077_0080R.json/24/line", 
            "@type": "oa:Annotation", 
            "motivation": "oa:painting", 
            "on": "http://bvmm.irht.cnrs.fr/iiif/23659/canvas/canvas-2289516#xywh=1596,1800,176,58", 
            "resource": {
                "@type": "cnt:ContentAsText", 
                "chars": "PAR", 
                "format": "text/plain"
            }
        }, 
        {
            "@id": "https://manifests.teklia.com/HIMANIS/JJ077/words_annotations/FRCHANJJ_JJ077_0080R.json/25/line", 
            "@type": "oa:Annotation", 
            "motivation": "oa:painting", 
            "on": "http://bvmm.irht.cnrs.fr/iiif/23659/canvas/canvas-2289516#xywh=1604,355,67,107", 
            "resource": {
                "@type": "cnt:ContentAsText", 
                "chars": "JUXTA", 
                "format": "text/plain"
            }
        }, 
        {
            "@id": "https://manifests.teklia.com/HIMANIS/JJ077/words_annotations/FRCHANJJ_JJ077_0080R.json/26/line", 
            "@type": "oa:Annotation", 
            "motivation": "oa:painting", 
            "on": "http://bvmm.irht.cnrs.fr/iiif/23659/canvas/canvas-2289516#xywh=2189,2288,17,136", 
            "resource": {
                "@type": "cnt:ContentAsText", 
                "chars": "NE", 
                "format": "text/plain"
            }
        }, 
        {
            "@id": "https://manifests.teklia.com/HIMANIS/JJ077/words_annotations/FRCHANJJ_JJ077_0080R.json/27/line", 
            "@type": "oa:Annotation", 
            "motivation": "oa:painting", 
            "on": "http://bvmm.irht.cnrs.fr/iiif/23659/canvas/canvas-2289516#xywh=1926,3499,69,122", 
            "resource": {
                "@type": "cnt:ContentAsText", 
                "chars": "ALI", 
                "format": "text/plain"
            }
        }, 
        {
            "@id": "https://manifests.teklia.com/HIMANIS/JJ077/words_annotations/FRCHANJJ_JJ077_0080R.json/28/line", 
            "@type": "oa:Annotation", 
            "motivation": "oa:painting", 
            "on": "http://bvmm.irht.cnrs.fr/iiif/23659/canvas/canvas-2289516#xywh=1876,2437,159,70", 
            "resource": {
                "@type": "cnt:ContentAsText", 
                "chars": "DENIE", 
                "format": "text/plain"
            }
        }, 
        {
            "@id": "https://manifests.teklia.com/HIMANIS/JJ077/words_annotations/FRCHANJJ_JJ077_0080R.json/29/line", 
            "@type": "oa:Annotation", 
            "motivation": "oa:painting", 
            "on": "http://bvmm.irht.cnrs.fr/iiif/23659/canvas/canvas-2289516#xywh=0,4839,0,152", 
            "resource": {
                "@type": "cnt:ContentAsText", 
                "chars": "P", 
                "format": "text/plain"
            }
        }, 
        {
            "@id": "https://manifests.teklia.com/HIMANIS/JJ077/words_annotations/FRCHANJJ_JJ077_0080R.json/30/line", 
            "@type": "oa:Annotation", 
            "motivation": "oa:painting", 
            "on": "http://bvmm.irht.cnrs.fr/iiif/23659/canvas/canvas-2289516#xywh=1806,1885,89,64", 
            "resource": {
                "@type": "cnt:ContentAsText", 
                "chars": "DICTES", 
                "format": "text/plain"
            }
        }, 
        {
            "@id": "https://manifests.teklia.com/HIMANIS/JJ077/words_annotations/FRCHANJJ_JJ077_0080R.json/31/line", 
            "@type": "oa:Annotation", 
            "motivation": "oa:painting", 
            "on": "http://bvmm.irht.cnrs.fr/iiif/23659/canvas/canvas-2289516#xywh=1343,3424,252,100", 
            "resource": {
                "@type": "cnt:ContentAsText", 
                "chars": "ROCHERVERA", 
                "format": "text/plain"
            }
        }, 
        {
            "@id": "https://manifests.teklia.com/HIMANIS/JJ077/words_annotations/FRCHANJJ_JJ077_0080R.json/32/line", 
            "@type": "oa:Annotation", 
            "motivation": "oa:painting", 
            "on": "http://bvmm.irht.cnrs.fr/iiif/23659/canvas/canvas-2289516#xywh=1746,832,157,21", 
            "resource": {
                "@type": "cnt:ContentAsText", 
                "chars": "AUS", 
                "format": "text/plain"
            }
        }, 
        {
            "@id": "https://manifests.teklia.com/HIMANIS/JJ077/words_annotations/FRCHANJJ_JJ077_0080R.json/33/line", 
            "@type": "oa:Annotation", 
            "motivation": "oa:painting", 
            "on": "http://bvmm.irht.cnrs.fr/iiif/23659/canvas/canvas-2289516#xywh=1454,1631,103,74", 
            "resource": {
                "@type": "cnt:ContentAsText", 
                "chars": "ESTRE", 
                "format": "text/plain"
            }
        }, 
        {
            "@id": "https://manifests.teklia.com/HIMANIS/JJ077/words_annotations/FRCHANJJ_JJ077_0080R.json/34/line", 
            "@type": "oa:Annotation", 
            "motivation": "oa:painting", 
            "on": "http://bvmm.irht.cnrs.fr/iiif/23659/canvas/canvas-2289516#xywh=2035,2437,194,70", 
            "resource": {
                "@type": "cnt:ContentAsText", 
                "chars": "QUELLES", 
                "format": "text/plain"
            }
        }, 
        {
            "@id": "https://manifests.teklia.com/HIMANIS/JJ077/words_annotations/FRCHANJJ_JJ077_0080R.json/35/line", 
            "@type": "oa:Annotation", 
            "motivation": "oa:painting", 
            "on": "http://bvmm.irht.cnrs.fr/iiif/23659/canvas/canvas-2289516#xywh=1205,2288,77,136", 
            "resource": {
                "@type": "cnt:ContentAsText", 
                "chars": "DES", 
                "format": "text/plain"
            }
        }, 
        {
            "@id": "https://manifests.teklia.com/HIMANIS/JJ077/words_annotations/FRCHANJJ_JJ077_0080R.json/36/line", 
            "@type": "oa:Annotation", 
            "motivation": "oa:painting", 
            "on": "http://bvmm.irht.cnrs.fr/iiif/23659/canvas/canvas-2289516#xywh=1452,1404,298,46", 
            "resource": {
                "@type": "cnt:ContentAsText", 
                "chars": "AUTREMENT", 
                "format": "text/plain"
            }
        }, 
        {
            "@id": "https://manifests.teklia.com/HIMANIS/JJ077/words_annotations/FRCHANJJ_JJ077_0080R.json/37/line", 
            "@type": "oa:Annotation", 
            "motivation": "oa:painting", 
            "on": "http://bvmm.irht.cnrs.fr/iiif/23659/canvas/canvas-2289516#xywh=2055,3424,44,100", 
            "resource": {
                "@type": "cnt:ContentAsText", 
                "chars": "DE", 
                "format": "text/plain"
            }
        }, 
        {
            "@id": "https://manifests.teklia.com/HIMANIS/JJ077/words_annotations/FRCHANJJ_JJ077_0080R.json/38/line", 
            "@type": "oa:Annotation", 
            "motivation": "oa:painting", 
            "on": "http://bvmm.irht.cnrs.fr/iiif/23659/canvas/canvas-2289516#xywh=2801,3349,31,35", 
            "resource": {
                "@type": "cnt:ContentAsText", 
                "chars": "DE", 
                "format": "text/plain"
            }
        }, 
        {
            "@id": "https://manifests.teklia.com/HIMANIS/JJ077/words_annotations/FRCHANJJ_JJ077_0080R.json/39/line", 
            "@type": "oa:Annotation", 
            "motivation": "oa:painting", 
            "on": "http://bvmm.irht.cnrs.fr/iiif/23659/canvas/canvas-2289516#xywh=1034,3424,63,100", 
            "resource": {
                "@type": "cnt:ContentAsText", 
                "chars": "VENT", 
                "format": "text/plain"
            }
        }, 
        {
            "@id": "https://manifests.teklia.com/HIMANIS/JJ077/words_annotations/FRCHANJJ_JJ077_0080R.json/40/line", 
            "@type": "oa:Annotation", 
            "motivation": "oa:painting", 
            "on": "http://bvmm.irht.cnrs.fr/iiif/23659/canvas/canvas-2289516#xywh=1710,1714,125,64", 
            "resource": {
                "@type": "cnt:ContentAsText", 
                "chars": "ALEZ", 
                "format": "text/plain"
            }
        }, 
        {
            "@id": "https://manifests.teklia.com/HIMANIS/JJ077/words_annotations/FRCHANJJ_JJ077_0080R.json/41/line", 
            "@type": "oa:Annotation", 
            "motivation": "oa:painting", 
            "on": "http://bvmm.irht.cnrs.fr/iiif/23659/canvas/canvas-2289516#xywh=689,1714,134,64", 
            "resource": {
                "@type": "cnt:ContentAsText", 
                "chars": "SANT", 
                "format": "text/plain"
            }
        }, 
        {
            "@id": "https://manifests.teklia.com/HIMANIS/JJ077/words_annotations/FRCHANJJ_JJ077_0080R.json/42/line", 
            "@type": "oa:Annotation", 
            "motivation": "oa:painting", 
            "on": "http://bvmm.irht.cnrs.fr/iiif/23659/canvas/canvas-2289516#xywh=1646,1631,112,74", 
            "resource": {
                "@type": "cnt:ContentAsText", 
                "chars": "BOIS", 
                "format": "text/plain"
            }
        }, 
        {
            "@id": "https://manifests.teklia.com/HIMANIS/JJ077/words_annotations/FRCHANJJ_JJ077_0080R.json/43/line", 
            "@type": "oa:Annotation", 
            "motivation": "oa:painting", 
            "on": "http://bvmm.irht.cnrs.fr/iiif/23659/canvas/canvas-2289516#xywh=1546,1314,235,40", 
            "resource": {
                "@type": "cnt:ContentAsText", 
                "chars": "QUE", 
                "format": "text/plain"
            }
        }, 
        {
            "@id": "https://manifests.teklia.com/HIMANIS/JJ077/words_annotations/FRCHANJJ_JJ077_0080R.json/44/line", 
            "@type": "oa:Annotation", 
            "motivation": "oa:painting", 
            "on": "http://bvmm.irht.cnrs.fr/iiif/23659/canvas/canvas-2289516#xywh=1806,1885,89,64", 
            "resource": {
                "@type": "cnt:ContentAsText", 
                "chars": "DITES", 
                "format": "text/plain"
            }
        }, 
        {
            "@id": "https://manifests.teklia.com/HIMANIS/JJ077/words_annotations/FRCHANJJ_JJ077_0080R.json/45/line", 
            "@type": "oa:Annotation", 
            "motivation": "oa:painting", 
            "on": "http://bvmm.irht.cnrs.fr/iiif/23659/canvas/canvas-2289516#xywh=1005,1631,37,74", 
            "resource": {
                "@type": "cnt:ContentAsText", 
                "chars": "IL", 
                "format": "text/plain"
            }
        }, 
        {
            "@id": "https://manifests.teklia.com/HIMANIS/JJ077/words_annotations/FRCHANJJ_JJ077_0080R.json/46/line", 
            "@type": "oa:Annotation", 
            "motivation": "oa:painting", 
            "on": "http://bvmm.irht.cnrs.fr/iiif/23659/canvas/canvas-2289516#xywh=733,1631,38,74", 
            "resource": {
                "@type": "cnt:ContentAsText", 
                "chars": "ES", 
                "format": "text/plain"
            }
        }, 
        {
            "@id": "https://manifests.teklia.com/HIMANIS/JJ077/words_annotations/FRCHANJJ_JJ077_0080R.json/47/line", 
            "@type": "oa:Annotation", 
            "motivation": "oa:painting", 
            "on": "http://bvmm.irht.cnrs.fr/iiif/23659/canvas/canvas-2289516#xywh=1599,1631,28,74", 
            "resource": {
                "@type": "cnt:ContentAsText", 
                "chars": "ET", 
                "format": "text/plain"
            }
        }, 
        {
            "@id": "https://manifests.teklia.com/HIMANIS/JJ077/words_annotations/FRCHANJJ_JJ077_0080R.json/48/line", 
            "@type": "oa:Annotation", 
            "motivation": "oa:painting", 
            "on": "http://bvmm.irht.cnrs.fr/iiif/23659/canvas/canvas-2289516#xywh=1596,3499,77,122", 
            "resource": {
                "@type": "cnt:ContentAsText", 
                "chars": "DICTI", 
                "format": "text/plain"
            }
        }, 
        {
            "@id": "https://manifests.teklia.com/HIMANIS/JJ077/words_annotations/FRCHANJJ_JJ077_0080R.json/49/line", 
            "@type": "oa:Annotation", 
            "motivation": "oa:painting", 
            "on": "http://bvmm.irht.cnrs.fr/iiif/23659/canvas/canvas-2289516#xywh=259,3424,277,100", 
            "resource": {
                "@type": "cnt:ContentAsText", 
                "chars": "CORTUM", 
                "format": "text/plain"
            }
        }, 
        {
            "@id": "https://manifests.teklia.com/HIMANIS/JJ077/words_annotations/FRCHANJJ_JJ077_0080R.json/50/line", 
            "@type": "oa:Annotation", 
            "motivation": "oa:painting", 
            "on": "http://bvmm.irht.cnrs.fr/iiif/23659/canvas/canvas-2289516#xywh=1872,3424,126,100", 
            "resource": {
                "@type": "cnt:ContentAsText", 
                "chars": "DOMINUM", 
                "format": "text/plain"
            }
        }, 
        {
            "@id": "https://manifests.teklia.com/HIMANIS/JJ077/words_annotations/FRCHANJJ_JJ077_0080R.json/51/line", 
            "@type": "oa:Annotation", 
            "motivation": "oa:painting", 
            "on": "http://bvmm.irht.cnrs.fr/iiif/23659/canvas/canvas-2289516#xywh=1160,3424,114,100", 
            "resource": {
                "@type": "cnt:ContentAsText", 
                "chars": "DOMINAM", 
                "format": "text/plain"
            }
        }, 
        {
            "@id": "https://manifests.teklia.com/HIMANIS/JJ077/words_annotations/FRCHANJJ_JJ077_0080R.json/52/line", 
            "@type": "oa:Annotation", 
            "motivation": "oa:painting", 
            "on": "http://bvmm.irht.cnrs.fr/iiif/23659/canvas/canvas-2289516#xywh=1876,2437,159,70", 
            "resource": {
                "@type": "cnt:ContentAsText", 
                "chars": "REMIS", 
                "format": "text/plain"
            }
        }, 
        {
            "@id": "https://manifests.teklia.com/HIMANIS/JJ077/words_annotations/FRCHANJJ_JJ077_0080R.json/53/line", 
            "@type": "oa:Annotation", 
            "motivation": "oa:painting", 
            "on": "http://bvmm.irht.cnrs.fr/iiif/23659/canvas/canvas-2289516#xywh=1727,2288,222,136", 
            "resource": {
                "@type": "cnt:ContentAsText", 
                "chars": "QUELX", 
                "format": "text/plain"
            }
        }, 
        {
            "@id": "https://manifests.teklia.com/HIMANIS/JJ077/words_annotations/FRCHANJJ_JJ077_0080R.json/54/line", 
            "@type": "oa:Annotation", 
            "motivation": "oa:painting", 
            "on": "http://bvmm.irht.cnrs.fr/iiif/23659/canvas/canvas-2289516#xywh=1936,1885,8,64", 
            "resource": {
                "@type": "cnt:ContentAsText", 
                "chars": "ET", 
                "format": "text/plain"
            }
        }, 
        {
            "@id": "https://manifests.teklia.com/HIMANIS/JJ077/words_annotations/FRCHANJJ_JJ077_0080R.json/55/line", 
            "@type": "oa:Annotation", 
            "motivation": "oa:painting", 
            "on": "http://bvmm.irht.cnrs.fr/iiif/23659/canvas/canvas-2289516#xywh=1427,2288,274,136", 
            "resource": {
                "@type": "cnt:ContentAsText", 
                "chars": "RELIGIEUSES", 
                "format": "text/plain"
            }
        }, 
        {
            "@id": "https://manifests.teklia.com/HIMANIS/JJ077/words_annotations/FRCHANJJ_JJ077_0080R.json/56/line", 
            "@type": "oa:Annotation", 
            "motivation": "oa:painting", 
            "on": "http://bvmm.irht.cnrs.fr/iiif/23659/canvas/canvas-2289516#xywh=57,3424,183,100", 
            "resource": {
                "@type": "cnt:ContentAsText", 
                "chars": "VIII", 
                "format": "text/plain"
            }
        }, 
        {
            "@id": "https://manifests.teklia.com/HIMANIS/JJ077/words_annotations/FRCHANJJ_JJ077_0080R.json/57/line", 
            "@type": "oa:Annotation", 
            "motivation": "oa:painting", 
            "on": "http://bvmm.irht.cnrs.fr/iiif/23659/canvas/canvas-2289516#xywh=57,3424,183,100", 
            "resource": {
                "@type": "cnt:ContentAsText", 
                "chars": "VIIJ", 
                "format": "text/plain"
            }
        }, 
        {
            "@id": "https://manifests.teklia.com/HIMANIS/JJ077/words_annotations/FRCHANJJ_JJ077_0080R.json/58/line", 
            "@type": "oa:Annotation", 
            "motivation": "oa:painting", 
            "on": "http://bvmm.irht.cnrs.fr/iiif/23659/canvas/canvas-2289516#xywh=1926,3499,107,122", 
            "resource": {
                "@type": "cnt:ContentAsText", 
                "chars": "ALTA", 
                "format": "text/plain"
            }
        }, 
        {
            "@id": "https://manifests.teklia.com/HIMANIS/JJ077/words_annotations/FRCHANJJ_JJ077_0080R.json/59/line", 
            "@type": "oa:Annotation", 
            "motivation": "oa:painting", 
            "on": "http://bvmm.irht.cnrs.fr/iiif/23659/canvas/canvas-2289516#xywh=1585,1531,140,97", 
            "resource": {
                "@type": "cnt:ContentAsText", 
                "chars": "LEURS", 
                "format": "text/plain"
            }
        }, 
        {
            "@id": "https://manifests.teklia.com/HIMANIS/JJ077/words_annotations/FRCHANJJ_JJ077_0080R.json/60/line", 
            "@type": "oa:Annotation", 
            "motivation": "oa:painting", 
            "on": "http://bvmm.irht.cnrs.fr/iiif/23659/canvas/canvas-2289516#xywh=1034,2288,128,136", 
            "resource": {
                "@type": "cnt:ContentAsText", 
                "chars": "PANS", 
                "format": "text/plain"
            }
        }, 
        {
            "@id": "https://manifests.teklia.com/HIMANIS/JJ077/words_annotations/FRCHANJJ_JJ077_0080R.json/61/line", 
            "@type": "oa:Annotation", 
            "motivation": "oa:painting", 
            "on": "http://bvmm.irht.cnrs.fr/iiif/23659/canvas/canvas-2289516#xywh=1771,1269,54,13", 
            "resource": {
                "@type": "cnt:ContentAsText", 
                "chars": "DE", 
                "format": "text/plain"
            }
        }, 
        {
            "@id": "https://manifests.teklia.com/HIMANIS/JJ077/words_annotations/FRCHANJJ_JJ077_0080R.json/62/line", 
            "@type": "oa:Annotation", 
            "motivation": "oa:painting", 
            "on": "http://bvmm.irht.cnrs.fr/iiif/23659/canvas/canvas-2289516#xywh=1418,1314,0,40", 
            "resource": {
                "@type": "cnt:ContentAsText", 
                "chars": "J", 
                "format": "text/plain"
            }
        }, 
        {
            "@id": "https://manifests.teklia.com/HIMANIS/JJ077/words_annotations/FRCHANJJ_JJ077_0080R.json/63/line", 
            "@type": "oa:Annotation", 
            "motivation": "oa:painting", 
            "on": "http://bvmm.irht.cnrs.fr/iiif/23659/canvas/canvas-2289516#xywh=1305,1714,243,64", 
            "resource": {
                "@type": "cnt:ContentAsText", 
                "chars": "GAUDERES", 
                "format": "text/plain"
            }
        }, 
        {
            "@id": "https://manifests.teklia.com/HIMANIS/JJ077/words_annotations/FRCHANJJ_JJ077_0080R.json/64/line", 
            "@type": "oa:Annotation", 
            "motivation": "oa:painting", 
            "on": "http://bvmm.irht.cnrs.fr/iiif/23659/canvas/canvas-2289516#xywh=1546,1314,153,40", 
            "resource": {
                "@type": "cnt:ContentAsText", 
                "chars": "LA", 
                "format": "text/plain"
            }
        }, 
        {
            "@id": "https://manifests.teklia.com/HIMANIS/JJ077/words_annotations/FRCHANJJ_JJ077_0080R.json/65/line", 
            "@type": "oa:Annotation", 
            "motivation": "oa:painting", 
            "on": "http://bvmm.irht.cnrs.fr/iiif/23659/canvas/canvas-2289516#xywh=1286,2201,375,61", 
            "resource": {
                "@type": "cnt:ContentAsText", 
                "chars": "PINANCIE", 
                "format": "text/plain"
            }
        }, 
        {
            "@id": "https://manifests.teklia.com/HIMANIS/JJ077/words_annotations/FRCHANJJ_JJ077_0080R.json/66/line", 
            "@type": "oa:Annotation", 
            "motivation": "oa:painting", 
            "on": "http://bvmm.irht.cnrs.fr/iiif/23659/canvas/canvas-2289516#xywh=2132,2437,97,70", 
            "resource": {
                "@type": "cnt:ContentAsText", 
                "chars": "CEULS", 
                "format": "text/plain"
            }
        }, 
        {
            "@id": "https://manifests.teklia.com/HIMANIS/JJ077/words_annotations/FRCHANJJ_JJ077_0080R.json/67/line", 
            "@type": "oa:Annotation", 
            "motivation": "oa:painting", 
            "on": "http://bvmm.irht.cnrs.fr/iiif/23659/canvas/canvas-2289516#xywh=1546,1314,161,40", 
            "resource": {
                "@type": "cnt:ContentAsText", 
                "chars": "LES", 
                "format": "text/plain"
            }
        }, 
        {
            "@id": "https://manifests.teklia.com/HIMANIS/JJ077/words_annotations/FRCHANJJ_JJ077_0080R.json/68/line", 
            "@type": "oa:Annotation", 
            "motivation": "oa:painting", 
            "on": "http://bvmm.irht.cnrs.fr/iiif/23659/canvas/canvas-2289516#xywh=2121,1531,219,97", 
            "resource": {
                "@type": "cnt:ContentAsText", 
                "chars": "FAICHISES", 
                "format": "text/plain"
            }
        }, 
        {
            "@id": "https://manifests.teklia.com/HIMANIS/JJ077/words_annotations/FRCHANJJ_JJ077_0080R.json/69/line", 
            "@type": "oa:Annotation", 
            "motivation": "oa:painting", 
            "on": "http://bvmm.irht.cnrs.fr/iiif/23659/canvas/canvas-2289516#xywh=672,2141,208,43", 
            "resource": {
                "@type": "cnt:ContentAsText", 
                "chars": "DIT", 
                "format": "text/plain"
            }
        }, 
        {
            "@id": "https://manifests.teklia.com/HIMANIS/JJ077/words_annotations/FRCHANJJ_JJ077_0080R.json/70/line", 
            "@type": "oa:Annotation", 
            "motivation": "oa:painting", 
            "on": "http://bvmm.irht.cnrs.fr/iiif/23659/canvas/canvas-2289516#xywh=355,3499,84,122", 
            "resource": {
                "@type": "cnt:ContentAsText", 
                "chars": "PARTE", 
                "format": "text/plain"
            }
        }, 
        {
            "@id": "https://manifests.teklia.com/HIMANIS/JJ077/words_annotations/FRCHANJJ_JJ077_0080R.json/71/line", 
            "@type": "oa:Annotation", 
            "motivation": "oa:painting", 
            "on": "http://bvmm.irht.cnrs.fr/iiif/23659/canvas/canvas-2289516#xywh=1935,1244,105,18", 
            "resource": {
                "@type": "cnt:ContentAsText", 
                "chars": "DE", 
                "format": "text/plain"
            }
        }, 
        {
            "@id": "https://manifests.teklia.com/HIMANIS/JJ077/words_annotations/FRCHANJJ_JJ077_0080R.json/72/line", 
            "@type": "oa:Annotation", 
            "motivation": "oa:painting", 
            "on": "http://bvmm.irht.cnrs.fr/iiif/23659/canvas/canvas-2289516#xywh=1788,1404,85,46", 
            "resource": {
                "@type": "cnt:ContentAsText", 
                "chars": "DE", 
                "format": "text/plain"
            }
        }, 
        {
            "@id": "https://manifests.teklia.com/HIMANIS/JJ077/words_annotations/FRCHANJJ_JJ077_0080R.json/73/line", 
            "@type": "oa:Annotation", 
            "motivation": "oa:painting", 
            "on": "http://bvmm.irht.cnrs.fr/iiif/23659/canvas/canvas-2289516#xywh=1709,2140,205,47", 
            "resource": {
                "@type": "cnt:ContentAsText", 
                "chars": "DILECTIS", 
                "format": "text/plain"
            }
        }, 
        {
            "@id": "https://manifests.teklia.com/HIMANIS/JJ077/words_annotations/FRCHANJJ_JJ077_0080R.json/74/line", 
            "@type": "oa:Annotation", 
            "motivation": "oa:painting", 
            "on": "http://bvmm.irht.cnrs.fr/iiif/23659/canvas/canvas-2289516#xywh=1328,3499,107,122", 
            "resource": {
                "@type": "cnt:ContentAsText", 
                "chars": "NUPER", 
                "format": "text/plain"
            }
        }, 
        {
            "@id": "https://manifests.teklia.com/HIMANIS/JJ077/words_annotations/FRCHANJJ_JJ077_0080R.json/75/line", 
            "@type": "oa:Annotation", 
            "motivation": "oa:painting", 
            "on": "http://bvmm.irht.cnrs.fr/iiif/23659/canvas/canvas-2289516#xywh=1746,832,147,21", 
            "resource": {
                "@type": "cnt:ContentAsText", 
                "chars": "DU", 
                "format": "text/plain"
            }
        }, 
        {
            "@id": "https://manifests.teklia.com/HIMANIS/JJ077/words_annotations/FRCHANJJ_JJ077_0080R.json/76/line", 
            "@type": "oa:Annotation", 
            "motivation": "oa:painting", 
            "on": "http://bvmm.irht.cnrs.fr/iiif/23659/canvas/canvas-2289516#xywh=1935,1244,94,18", 
            "resource": {
                "@type": "cnt:ContentAsText", 
                "chars": "QUE", 
                "format": "text/plain"
            }
        }, 
        {
            "@id": "https://manifests.teklia.com/HIMANIS/JJ077/words_annotations/FRCHANJJ_JJ077_0080R.json/77/line", 
            "@type": "oa:Annotation", 
            "motivation": "oa:painting", 
            "on": "http://bvmm.irht.cnrs.fr/iiif/23659/canvas/canvas-2289516#xywh=1046,355,154,107", 
            "resource": {
                "@type": "cnt:ContentAsText", 
                "chars": "RELIGIOSIS", 
                "format": "text/plain"
            }
        }, 
        {
            "@id": "https://manifests.teklia.com/HIMANIS/JJ077/words_annotations/FRCHANJJ_JJ077_0080R.json/78/line", 
            "@type": "oa:Annotation", 
            "motivation": "oa:painting", 
            "on": "http://bvmm.irht.cnrs.fr/iiif/23659/canvas/canvas-2289516#xywh=808,1631,164,74", 
            "resource": {
                "@type": "cnt:ContentAsText", 
                "chars": "QUELLES", 
                "format": "text/plain"
            }
        }, 
        {
            "@id": "https://manifests.teklia.com/HIMANIS/JJ077/words_annotations/FRCHANJJ_JJ077_0080R.json/79/line", 
            "@type": "oa:Annotation", 
            "motivation": "oa:painting", 
            "on": "http://bvmm.irht.cnrs.fr/iiif/23659/canvas/canvas-2289516#xywh=2255,2437,216,70", 
            "resource": {
                "@type": "cnt:ContentAsText", 
                "chars": "LETTR", 
                "format": "text/plain"
            }
        }, 
        {
            "@id": "https://manifests.teklia.com/HIMANIS/JJ077/words_annotations/FRCHANJJ_JJ077_0080R.json/80/line", 
            "@type": "oa:Annotation", 
            "motivation": "oa:painting", 
            "on": "http://bvmm.irht.cnrs.fr/iiif/23659/canvas/canvas-2289516#xywh=777,355,154,107", 
            "resource": {
                "@type": "cnt:ContentAsText", 
                "chars": "SPECIALIS", 
                "format": "text/plain"
            }
        }, 
        {
            "@id": "https://manifests.teklia.com/HIMANIS/JJ077/words_annotations/FRCHANJJ_JJ077_0080R.json/81/line", 
            "@type": "oa:Annotation", 
            "motivation": "oa:painting", 
            "on": "http://bvmm.irht.cnrs.fr/iiif/23659/canvas/canvas-2289516#xywh=1805,1631,178,74", 
            "resource": {
                "@type": "cnt:ContentAsText", 
                "chars": "PREDENS", 
                "format": "text/plain"
            }
        }, 
        {
            "@id": "https://manifests.teklia.com/HIMANIS/JJ077/words_annotations/FRCHANJJ_JJ077_0080R.json/82/line", 
            "@type": "oa:Annotation", 
            "motivation": "oa:painting", 
            "on": "http://bvmm.irht.cnrs.fr/iiif/23659/canvas/canvas-2289516#xywh=1746,832,214,21", 
            "resource": {
                "@type": "cnt:ContentAsText", 
                "chars": "AVE", 
                "format": "text/plain"
            }
        }, 
        {
            "@id": "https://manifests.teklia.com/HIMANIS/JJ077/words_annotations/FRCHANJJ_JJ077_0080R.json/83/line", 
            "@type": "oa:Annotation", 
            "motivation": "oa:painting", 
            "on": "http://bvmm.irht.cnrs.fr/iiif/23659/canvas/canvas-2289516#xywh=1696,1469,128,63", 
            "resource": {
                "@type": "cnt:ContentAsText", 
                "chars": "DE", 
                "format": "text/plain"
            }
        }, 
        {
            "@id": "https://manifests.teklia.com/HIMANIS/JJ077/words_annotations/FRCHANJJ_JJ077_0080R.json/84/line", 
            "@type": "oa:Annotation", 
            "motivation": "oa:painting", 
            "on": "http://bvmm.irht.cnrs.fr/iiif/23659/canvas/canvas-2289516#xywh=1792,1469,223,63", 
            "resource": {
                "@type": "cnt:ContentAsText", 
                "chars": "FUISSE", 
                "format": "text/plain"
            }
        }, 
        {
            "@id": "https://manifests.teklia.com/HIMANIS/JJ077/words_annotations/FRCHANJJ_JJ077_0080R.json/85/line", 
            "@type": "oa:Annotation", 
            "motivation": "oa:painting", 
            "on": "http://bvmm.irht.cnrs.fr/iiif/23659/canvas/canvas-2289516#xywh=1792,1469,223,63", 
            "resource": {
                "@type": "cnt:ContentAsText", 
                "chars": "DIVISSE", 
                "format": "text/plain"
            }
        }, 
        {
            "@id": "https://manifests.teklia.com/HIMANIS/JJ077/words_annotations/FRCHANJJ_JJ077_0080R.json/86/line", 
            "@type": "oa:Annotation", 
            "motivation": "oa:painting", 
            "on": "http://bvmm.irht.cnrs.fr/iiif/23659/canvas/canvas-2289516#xywh=1584,1469,88,63", 
            "resource": {
                "@type": "cnt:ContentAsText", 
                "chars": "D'AN", 
                "format": "text/plain"
            }
        }, 
        {
            "@id": "https://manifests.teklia.com/HIMANIS/JJ077/words_annotations/FRCHANJJ_JJ077_0080R.json/87/line", 
            "@type": "oa:Annotation", 
            "motivation": "oa:painting", 
            "on": "http://bvmm.irht.cnrs.fr/iiif/23659/canvas/canvas-2289516#xywh=2198,1631,262,74", 
            "resource": {
                "@type": "cnt:ContentAsText", 
                "chars": "PAISIBLEM", 
                "format": "text/plain"
            }
        }, 
        {
            "@id": "https://manifests.teklia.com/HIMANIS/JJ077/words_annotations/FRCHANJJ_JJ077_0080R.json/88/line", 
            "@type": "oa:Annotation", 
            "motivation": "oa:painting", 
            "on": "http://bvmm.irht.cnrs.fr/iiif/23659/canvas/canvas-2289516#xywh=2013,575,106,69", 
            "resource": {
                "@type": "cnt:ContentAsText", 
                "chars": "AFFECT", 
                "format": "text/plain"
            }
        }, 
        {
            "@id": "https://manifests.teklia.com/HIMANIS/JJ077/words_annotations/FRCHANJJ_JJ077_0080R.json/89/line", 
            "@type": "oa:Annotation", 
            "motivation": "oa:painting", 
            "on": "http://bvmm.irht.cnrs.fr/iiif/23659/canvas/canvas-2289516#xywh=672,2141,120,43", 
            "resource": {
                "@type": "cnt:ContentAsText", 
                "chars": "DICTIS", 
                "format": "text/plain"
            }
        }, 
        {
            "@id": "https://manifests.teklia.com/HIMANIS/JJ077/words_annotations/FRCHANJJ_JJ077_0080R.json/90/line", 
            "@type": "oa:Annotation", 
            "motivation": "oa:painting", 
            "on": "http://bvmm.irht.cnrs.fr/iiif/23659/canvas/canvas-2289516#xywh=1305,1714,219,64", 
            "resource": {
                "@type": "cnt:ContentAsText", 
                "chars": "GAUDERE", 
                "format": "text/plain"
            }
        }, 
        {
            "@id": "https://manifests.teklia.com/HIMANIS/JJ077/words_annotations/FRCHANJJ_JJ077_0080R.json/91/line", 
            "@type": "oa:Annotation", 
            "motivation": "oa:painting", 
            "on": "http://bvmm.irht.cnrs.fr/iiif/23659/canvas/canvas-2289516#xywh=2452,3424,51,100", 
            "resource": {
                "@type": "cnt:ContentAsText", 
                "chars": "EX", 
                "format": "text/plain"
            }
        }, 
        {
            "@id": "https://manifests.teklia.com/HIMANIS/JJ077/words_annotations/FRCHANJJ_JJ077_0080R.json/92/line", 
            "@type": "oa:Annotation", 
            "motivation": "oa:painting", 
            "on": "http://bvmm.irht.cnrs.fr/iiif/23659/canvas/canvas-2289516#xywh=1639,3424,196,100", 
            "resource": {
                "@type": "cnt:ContentAsText", 
                "chars": "AUSTRIE", 
                "format": "text/plain"
            }
        }, 
        {
            "@id": "https://manifests.teklia.com/HIMANIS/JJ077/words_annotations/FRCHANJJ_JJ077_0080R.json/93/line", 
            "@type": "oa:Annotation", 
            "motivation": "oa:painting", 
            "on": "http://bvmm.irht.cnrs.fr/iiif/23659/canvas/canvas-2289516#xywh=1710,1714,125,64", 
            "resource": {
                "@type": "cnt:ContentAsText", 
                "chars": "CONTEZ", 
                "format": "text/plain"
            }
        }, 
        {
            "@id": "https://manifests.teklia.com/HIMANIS/JJ077/words_annotations/FRCHANJJ_JJ077_0080R.json/94/line", 
            "@type": "oa:Annotation", 
            "motivation": "oa:painting", 
            "on": "http://bvmm.irht.cnrs.fr/iiif/23659/canvas/canvas-2289516#xywh=998,3499,100,122", 
            "resource": {
                "@type": "cnt:ContentAsText", 
                "chars": "DOMINI", 
                "format": "text/plain"
            }
        }, 
        {
            "@id": "https://manifests.teklia.com/HIMANIS/JJ077/words_annotations/FRCHANJJ_JJ077_0080R.json/95/line", 
            "@type": "oa:Annotation", 
            "motivation": "oa:painting", 
            "on": "http://bvmm.irht.cnrs.fr/iiif/23659/canvas/canvas-2289516#xywh=1639,3424,196,100", 
            "resource": {
                "@type": "cnt:ContentAsText", 
                "chars": "AUSTRIS", 
                "format": "text/plain"
            }
        }, 
        {
            "@id": "https://manifests.teklia.com/HIMANIS/JJ077/words_annotations/FRCHANJJ_JJ077_0080R.json/96/line", 
            "@type": "oa:Annotation", 
            "motivation": "oa:painting", 
            "on": "http://bvmm.irht.cnrs.fr/iiif/23659/canvas/canvas-2289516#xywh=1732,355,81,107", 
            "resource": {
                "@type": "cnt:ContentAsText", 
                "chars": "PARIS", 
                "format": "text/plain"
            }
        }, 
        {
            "@id": "https://manifests.teklia.com/HIMANIS/JJ077/words_annotations/FRCHANJJ_JJ077_0080R.json/97/line", 
            "@type": "oa:Annotation", 
            "motivation": "oa:painting", 
            "on": "http://bvmm.irht.cnrs.fr/iiif/23659/canvas/canvas-2289516#xywh=508,3499,46,122", 
            "resource": {
                "@type": "cnt:ContentAsText", 
                "chars": "ET", 
                "format": "text/plain"
            }
        }, 
        {
            "@id": "https://manifests.teklia.com/HIMANIS/JJ077/words_annotations/FRCHANJJ_JJ077_0080R.json/98/line", 
            "@type": "oa:Annotation", 
            "motivation": "oa:painting", 
            "on": "http://bvmm.irht.cnrs.fr/iiif/23659/canvas/canvas-2289516#xywh=1841,3499,54,122", 
            "resource": {
                "@type": "cnt:ContentAsText", 
                "chars": "EX", 
                "format": "text/plain"
            }
        }, 
        {
            "@id": "https://manifests.teklia.com/HIMANIS/JJ077/words_annotations/FRCHANJJ_JJ077_0080R.json/99/line", 
            "@type": "oa:Annotation", 
            "motivation": "oa:painting", 
            "on": "http://bvmm.irht.cnrs.fr/iiif/23659/canvas/canvas-2289516#xywh=1348,355,182,107", 
            "resource": {
                "@type": "cnt:ContentAsText", 
                "chars": "AUCHON", 
                "format": "text/plain"
            }
        }, 
        {
            "@id": "https://manifests.teklia.com/HIMANIS/JJ077/words_annotations/FRCHANJJ_JJ077_0080R.json/100/line", 
            "@type": "oa:Annotation", 
            "motivation": "oa:painting", 
            "on": "http://bvmm.irht.cnrs.fr/iiif/23659/canvas/canvas-2289516#xywh=1584,1469,180,63", 
            "resource": {
                "@type": "cnt:ContentAsText", 
                "chars": "D'AUTRES", 
                "format": "text/plain"
            }
        }, 
        {
            "@id": "https://manifests.teklia.com/HIMANIS/JJ077/words_annotations/FRCHANJJ_JJ077_0080R.json/101/line", 
            "@type": "oa:Annotation", 
            "motivation": "oa:painting", 
            "on": "http://bvmm.irht.cnrs.fr/iiif/23659/canvas/canvas-2289516#xywh=1926,3499,107,122", 
            "resource": {
                "@type": "cnt:ContentAsText", 
                "chars": "ALTER", 
                "format": "text/plain"
            }
        }, 
        {
            "@id": "https://manifests.teklia.com/HIMANIS/JJ077/words_annotations/FRCHANJJ_JJ077_0080R.json/102/line", 
            "@type": "oa:Annotation", 
            "motivation": "oa:painting", 
            "on": "http://bvmm.irht.cnrs.fr/iiif/23659/canvas/canvas-2289516#xywh=1546,1314,383,40", 
            "resource": {
                "@type": "cnt:ContentAsText", 
                "chars": "QUOD", 
                "format": "text/plain"
            }
        }, 
        {
            "@id": "https://manifests.teklia.com/HIMANIS/JJ077/words_annotations/FRCHANJJ_JJ077_0080R.json/103/line", 
            "@type": "oa:Annotation", 
            "motivation": "oa:painting", 
            "on": "http://bvmm.irht.cnrs.fr/iiif/23659/canvas/canvas-2289516#xywh=1034,3424,57,100", 
            "resource": {
                "@type": "cnt:ContentAsText", 
                "chars": "VINT", 
                "format": "text/plain"
            }
        }, 
        {
            "@id": "https://manifests.teklia.com/HIMANIS/JJ077/words_annotations/FRCHANJJ_JJ077_0080R.json/104/line", 
            "@type": "oa:Annotation", 
            "motivation": "oa:painting", 
            "on": "http://bvmm.irht.cnrs.fr/iiif/23659/canvas/canvas-2289516#xywh=770,2141,249,43", 
            "resource": {
                "@type": "cnt:ContentAsText", 
                "chars": "LA", 
                "format": "text/plain"
            }
        }, 
        {
            "@id": "https://manifests.teklia.com/HIMANIS/JJ077/words_annotations/FRCHANJJ_JJ077_0080R.json/105/line", 
            "@type": "oa:Annotation", 
            "motivation": "oa:painting", 
            "on": "http://bvmm.irht.cnrs.fr/iiif/23659/canvas/canvas-2289516#xywh=1118,1469,88,63", 
            "resource": {
                "@type": "cnt:ContentAsText", 
                "chars": "ESSE", 
                "format": "text/plain"
            }
        }, 
        {
            "@id": "https://manifests.teklia.com/HIMANIS/JJ077/words_annotations/FRCHANJJ_JJ077_0080R.json/106/line", 
            "@type": "oa:Annotation", 
            "motivation": "oa:painting", 
            "on": "http://bvmm.irht.cnrs.fr/iiif/23659/canvas/canvas-2289516#xywh=1000,2201,201,61", 
            "resource": {
                "@type": "cnt:ContentAsText", 
                "chars": "LAN", 
                "format": "text/plain"
            }
        }, 
        {
            "@id": "https://manifests.teklia.com/HIMANIS/JJ077/words_annotations/FRCHANJJ_JJ077_0080R.json/107/line", 
            "@type": "oa:Annotation", 
            "motivation": "oa:painting", 
            "on": "http://bvmm.irht.cnrs.fr/iiif/23659/canvas/canvas-2289516#xywh=770,2141,268,43", 
            "resource": {
                "@type": "cnt:ContentAsText", 
                "chars": "LE", 
                "format": "text/plain"
            }
        }, 
        {
            "@id": "https://manifests.teklia.com/HIMANIS/JJ077/words_annotations/FRCHANJJ_JJ077_0080R.json/108/line", 
            "@type": "oa:Annotation", 
            "motivation": "oa:painting", 
            "on": "http://bvmm.irht.cnrs.fr/iiif/23659/canvas/canvas-2289516#xywh=995,2141,202,43", 
            "resource": {
                "@type": "cnt:ContentAsText", 
                "chars": "DE", 
                "format": "text/plain"
            }
        }, 
        {
            "@id": "https://manifests.teklia.com/HIMANIS/JJ077/words_annotations/FRCHANJJ_JJ077_0080R.json/109/line", 
            "@type": "oa:Annotation", 
            "motivation": "oa:painting", 
            "on": "http://bvmm.irht.cnrs.fr/iiif/23659/canvas/canvas-2289516#xywh=1112,2201,89,61", 
            "resource": {
                "@type": "cnt:ContentAsText", 
                "chars": "LUY", 
                "format": "text/plain"
            }
        }, 
        {
            "@id": "https://manifests.teklia.com/HIMANIS/JJ077/words_annotations/FRCHANJJ_JJ077_0080R.json/110/line", 
            "@type": "oa:Annotation", 
            "motivation": "oa:painting", 
            "on": "http://bvmm.irht.cnrs.fr/iiif/23659/canvas/canvas-2289516#xywh=2008,1244,0,18", 
            "resource": {
                "@type": "cnt:ContentAsText", 
                "chars": "A", 
                "format": "text/plain"
            }
        }, 
        {
            "@id": "https://manifests.teklia.com/HIMANIS/JJ077/words_annotations/FRCHANJJ_JJ077_0080R.json/111/line", 
            "@type": "oa:Annotation", 
            "motivation": "oa:painting", 
            "on": "http://bvmm.irht.cnrs.fr/iiif/23659/canvas/canvas-2289516#xywh=574,3424,277,100", 
            "resource": {
                "@type": "cnt:ContentAsText", 
                "chars": "ACCORDINI", 
                "format": "text/plain"
            }
        }, 
        {
            "@id": "https://manifests.teklia.com/HIMANIS/JJ077/words_annotations/FRCHANJJ_JJ077_0080R.json/112/line", 
            "@type": "oa:Annotation", 
            "motivation": "oa:painting", 
            "on": "http://bvmm.irht.cnrs.fr/iiif/23659/canvas/canvas-2289516#xywh=2077,1244,0,18", 
            "resource": {
                "@type": "cnt:ContentAsText", 
                "chars": "M", 
                "format": "text/plain"
            }
        }, 
        {
            "@id": "https://manifests.teklia.com/HIMANIS/JJ077/words_annotations/FRCHANJJ_JJ077_0080R.json/113/line", 
            "@type": "oa:Annotation", 
            "motivation": "oa:painting", 
            "on": "http://bvmm.irht.cnrs.fr/iiif/23659/canvas/canvas-2289516#xywh=1771,1269,256,13", 
            "resource": {
                "@type": "cnt:ContentAsText", 
                "chars": "ET", 
                "format": "text/plain"
            }
        }, 
        {
            "@id": "https://manifests.teklia.com/HIMANIS/JJ077/words_annotations/FRCHANJJ_JJ077_0080R.json/114/line", 
            "@type": "oa:Annotation", 
            "motivation": "oa:painting", 
            "on": "http://bvmm.irht.cnrs.fr/iiif/23659/canvas/canvas-2289516#xywh=259,3424,277,100", 
            "resource": {
                "@type": "cnt:ContentAsText", 
                "chars": "CARTUM", 
                "format": "text/plain"
            }
        }, 
        {
            "@id": "https://manifests.teklia.com/HIMANIS/JJ077/words_annotations/FRCHANJJ_JJ077_0080R.json/115/line", 
            "@type": "oa:Annotation", 
            "motivation": "oa:painting", 
            "on": "http://bvmm.irht.cnrs.fr/iiif/23659/canvas/canvas-2289516#xywh=1804,2201,65,61", 
            "resource": {
                "@type": "cnt:ContentAsText", 
                "chars": "LA", 
                "format": "text/plain"
            }
        }, 
        {
            "@id": "https://manifests.teklia.com/HIMANIS/JJ077/words_annotations/FRCHANJJ_JJ077_0080R.json/116/line", 
            "@type": "oa:Annotation", 
            "motivation": "oa:painting", 
            "on": "http://bvmm.irht.cnrs.fr/iiif/23659/canvas/canvas-2289516#xywh=843,1714,446,64", 
            "resource": {
                "@type": "cnt:ContentAsText", 
                "chars": "AUCUNQUELLES", 
                "format": "text/plain"
            }
        }, 
        {
            "@id": "https://manifests.teklia.com/HIMANIS/JJ077/words_annotations/FRCHANJJ_JJ077_0080R.json/117/line", 
            "@type": "oa:Annotation", 
            "motivation": "oa:painting", 
            "on": "http://bvmm.irht.cnrs.fr/iiif/23659/canvas/canvas-2289516#xywh=1709,2140,104,47", 
            "resource": {
                "@type": "cnt:ContentAsText", 
                "chars": "DILECTI", 
                "format": "text/plain"
            }
        }, 
        {
            "@id": "https://manifests.teklia.com/HIMANIS/JJ077/words_annotations/FRCHANJJ_JJ077_0080R.json/118/line", 
            "@type": "oa:Annotation", 
            "motivation": "oa:painting", 
            "on": "http://bvmm.irht.cnrs.fr/iiif/23659/canvas/canvas-2289516#xywh=2255,2437,40,70", 
            "resource": {
                "@type": "cnt:ContentAsText", 
                "chars": "LE", 
                "format": "text/plain"
            }
        }, 
        {
            "@id": "https://manifests.teklia.com/HIMANIS/JJ077/words_annotations/FRCHANJJ_JJ077_0080R.json/119/line", 
            "@type": "oa:Annotation", 
            "motivation": "oa:painting", 
            "on": "http://bvmm.irht.cnrs.fr/iiif/23659/canvas/canvas-2289516#xywh=1000,2201,139,61", 
            "resource": {
                "@type": "cnt:ContentAsText", 
                "chars": "LE", 
                "format": "text/plain"
            }
        }, 
        {
            "@id": "https://manifests.teklia.com/HIMANIS/JJ077/words_annotations/FRCHANJJ_JJ077_0080R.json/120/line", 
            "@type": "oa:Annotation", 
            "motivation": "oa:painting", 
            "on": "http://bvmm.irht.cnrs.fr/iiif/23659/canvas/canvas-2289516#xywh=1835,1714,154,64", 
            "resource": {
                "@type": "cnt:ContentAsText", 
                "chars": "PAR", 
                "format": "text/plain"
            }
        }, 
        {
            "@id": "https://manifests.teklia.com/HIMANIS/JJ077/words_annotations/FRCHANJJ_JJ077_0080R.json/121/line", 
            "@type": "oa:Annotation", 
            "motivation": "oa:painting", 
            "on": "http://bvmm.irht.cnrs.fr/iiif/23659/canvas/canvas-2289516#xywh=1804,2201,15,61", 
            "resource": {
                "@type": "cnt:ContentAsText", 
                "chars": "DE", 
                "format": "text/plain"
            }
        }, 
        {
            "@id": "https://manifests.teklia.com/HIMANIS/JJ077/words_annotations/FRCHANJJ_JJ077_0080R.json/122/line", 
            "@type": "oa:Annotation", 
            "motivation": "oa:painting", 
            "on": "http://bvmm.irht.cnrs.fr/iiif/23659/canvas/canvas-2289516#xywh=1815,2201,182,61", 
            "resource": {
                "@type": "cnt:ContentAsText", 
                "chars": "LO", 
                "format": "text/plain"
            }
        }, 
        {
            "@id": "https://manifests.teklia.com/HIMANIS/JJ077/words_annotations/FRCHANJJ_JJ077_0080R.json/123/line", 
            "@type": "oa:Annotation", 
            "motivation": "oa:painting", 
            "on": "http://bvmm.irht.cnrs.fr/iiif/23659/canvas/canvas-2289516#xywh=1815,2201,263,61", 
            "resource": {
                "@type": "cnt:ContentAsText", 
                "chars": "LU", 
                "format": "text/plain"
            }
        }, 
        {
            "@id": "https://manifests.teklia.com/HIMANIS/JJ077/words_annotations/FRCHANJJ_JJ077_0080R.json/124/line", 
            "@type": "oa:Annotation", 
            "motivation": "oa:painting", 
            "on": "http://bvmm.irht.cnrs.fr/iiif/23659/canvas/canvas-2289516#xywh=1815,2201,259,61", 
            "resource": {
                "@type": "cnt:ContentAsText", 
                "chars": "LX", 
                "format": "text/plain"
            }
        }, 
        {
            "@id": "https://manifests.teklia.com/HIMANIS/JJ077/words_annotations/FRCHANJJ_JJ077_0080R.json/125/line", 
            "@type": "oa:Annotation", 
            "motivation": "oa:painting", 
            "on": "http://bvmm.irht.cnrs.fr/iiif/23659/canvas/canvas-2289516#xywh=1112,2201,89,61", 
            "resource": {
                "@type": "cnt:ContentAsText", 
                "chars": "LY", 
                "format": "text/plain"
            }
        }, 
        {
            "@id": "https://manifests.teklia.com/HIMANIS/JJ077/words_annotations/FRCHANJJ_JJ077_0080R.json/126/line", 
            "@type": "oa:Annotation", 
            "motivation": "oa:painting", 
            "on": "http://bvmm.irht.cnrs.fr/iiif/23659/canvas/canvas-2289516#xywh=1066,1631,51,74", 
            "resource": {
                "@type": "cnt:ContentAsText", 
                "chars": "LES", 
                "format": "text/plain"
            }
        }, 
        {
            "@id": "https://manifests.teklia.com/HIMANIS/JJ077/words_annotations/FRCHANJJ_JJ077_0080R.json/127/line", 
            "@type": "oa:Annotation", 
            "motivation": "oa:painting", 
            "on": "http://bvmm.irht.cnrs.fr/iiif/23659/canvas/canvas-2289516#xywh=689,1714,134,64", 
            "resource": {
                "@type": "cnt:ContentAsText", 
                "chars": "SSANT", 
                "format": "text/plain"
            }
        }, 
        {
            "@id": "https://manifests.teklia.com/HIMANIS/JJ077/words_annotations/FRCHANJJ_JJ077_0080R.json/128/line", 
            "@type": "oa:Annotation", 
            "motivation": "oa:painting", 
            "on": "http://bvmm.irht.cnrs.fr/iiif/23659/canvas/canvas-2289516#xywh=1118,1469,40,63", 
            "resource": {
                "@type": "cnt:ContentAsText", 
                "chars": "EST", 
                "format": "text/plain"
            }
        }, 
        {
            "@id": "https://manifests.teklia.com/HIMANIS/JJ077/words_annotations/FRCHANJJ_JJ077_0080R.json/129/line", 
            "@type": "oa:Annotation", 
            "motivation": "oa:painting", 
            "on": "http://bvmm.irht.cnrs.fr/iiif/23659/canvas/canvas-2289516#xywh=1983,1631,220,74", 
            "resource": {
                "@type": "cnt:ContentAsText", 
                "chars": "AVOIE", 
                "format": "text/plain"
            }
        }, 
        {
            "@id": "https://manifests.teklia.com/HIMANIS/JJ077/words_annotations/FRCHANJJ_JJ077_0080R.json/130/line", 
            "@type": "oa:Annotation", 
            "motivation": "oa:painting", 
            "on": "http://bvmm.irht.cnrs.fr/iiif/23659/canvas/canvas-2289516#xywh=1646,1631,112,74", 
            "resource": {
                "@type": "cnt:ContentAsText", 
                "chars": "BONIS", 
                "format": "text/plain"
            }
        }, 
        {
            "@id": "https://manifests.teklia.com/HIMANIS/JJ077/words_annotations/FRCHANJJ_JJ077_0080R.json/131/line", 
            "@type": "oa:Annotation", 
            "motivation": "oa:painting", 
            "on": "http://bvmm.irht.cnrs.fr/iiif/23659/canvas/canvas-2289516#xywh=1711,2201,73,61", 
            "resource": {
                "@type": "cnt:ContentAsText", 
                "chars": "JOUR", 
                "format": "text/plain"
            }
        }, 
        {
            "@id": "https://manifests.teklia.com/HIMANIS/JJ077/words_annotations/FRCHANJJ_JJ077_0080R.json/132/line", 
            "@type": "oa:Annotation", 
            "motivation": "oa:painting", 
            "on": "http://bvmm.irht.cnrs.fr/iiif/23659/canvas/canvas-2289516#xywh=672,2141,126,43", 
            "resource": {
                "@type": "cnt:ContentAsText", 
                "chars": "DICTE", 
                "format": "text/plain"
            }
        }, 
        {
            "@id": "https://manifests.teklia.com/HIMANIS/JJ077/words_annotations/FRCHANJJ_JJ077_0080R.json/133/line", 
            "@type": "oa:Annotation", 
            "motivation": "oa:painting", 
            "on": "http://bvmm.irht.cnrs.fr/iiif/23659/canvas/canvas-2289516#xywh=672,2141,120,43", 
            "resource": {
                "@type": "cnt:ContentAsText", 
                "chars": "DICTI", 
                "format": "text/plain"
            }
        }, 
        {
            "@id": "https://manifests.teklia.com/HIMANIS/JJ077/words_annotations/FRCHANJJ_JJ077_0080R.json/134/line", 
            "@type": "oa:Annotation", 
            "motivation": "oa:painting", 
            "on": "http://bvmm.irht.cnrs.fr/iiif/23659/canvas/canvas-2289516#xywh=1935,1244,58,18", 
            "resource": {
                "@type": "cnt:ContentAsText", 
                "chars": "ET", 
                "format": "text/plain"
            }
        }, 
        {
            "@id": "https://manifests.teklia.com/HIMANIS/JJ077/words_annotations/FRCHANJJ_JJ077_0080R.json/135/line", 
            "@type": "oa:Annotation", 
            "motivation": "oa:painting", 
            "on": "http://bvmm.irht.cnrs.fr/iiif/23659/canvas/canvas-2289516#xywh=1983,1631,182,74", 
            "resource": {
                "@type": "cnt:ContentAsText", 
                "chars": "AVOIR", 
                "format": "text/plain"
            }
        }, 
        {
            "@id": "https://manifests.teklia.com/HIMANIS/JJ077/words_annotations/FRCHANJJ_JJ077_0080R.json/136/line", 
            "@type": "oa:Annotation", 
            "motivation": "oa:painting", 
            "on": "http://bvmm.irht.cnrs.fr/iiif/23659/canvas/canvas-2289516#xywh=1454,1631,131,74", 
            "resource": {
                "@type": "cnt:ContentAsText", 
                "chars": "ESTRES", 
                "format": "text/plain"
            }
        }, 
        {
            "@id": "https://manifests.teklia.com/HIMANIS/JJ077/words_annotations/FRCHANJJ_JJ077_0080R.json/137/line", 
            "@type": "oa:Annotation", 
            "motivation": "oa:painting", 
            "on": "http://bvmm.irht.cnrs.fr/iiif/23659/canvas/canvas-2289516#xywh=1983,1631,215,74", 
            "resource": {
                "@type": "cnt:ContentAsText", 
                "chars": "AVOIT", 
                "format": "text/plain"
            }
        }, 
        {
            "@id": "https://manifests.teklia.com/HIMANIS/JJ077/words_annotations/FRCHANJJ_JJ077_0080R.json/138/line", 
            "@type": "oa:Annotation", 
            "motivation": "oa:painting", 
            "on": "http://bvmm.irht.cnrs.fr/iiif/23659/canvas/canvas-2289516#xywh=2540,3424,347,100", 
            "resource": {
                "@type": "cnt:ContentAsText", 
                "chars": "UNA", 
                "format": "text/plain"
            }
        }, 
        {
            "@id": "https://manifests.teklia.com/HIMANIS/JJ077/words_annotations/FRCHANJJ_JJ077_0080R.json/139/line", 
            "@type": "oa:Annotation", 
            "motivation": "oa:painting", 
            "on": "http://bvmm.irht.cnrs.fr/iiif/23659/canvas/canvas-2289516#xywh=1746,832,72,21", 
            "resource": {
                "@type": "cnt:ContentAsText", 
                "chars": "ET", 
                "format": "text/plain"
            }
        }, 
        {
            "@id": "https://manifests.teklia.com/HIMANIS/JJ077/words_annotations/FRCHANJJ_JJ077_0080R.json/140/line", 
            "@type": "oa:Annotation", 
            "motivation": "oa:painting", 
            "on": "http://bvmm.irht.cnrs.fr/iiif/23659/canvas/canvas-2289516#xywh=672,2141,126,43", 
            "resource": {
                "@type": "cnt:ContentAsText", 
                "chars": "DICTO", 
                "format": "text/plain"
            }
        }, 
        {
            "@id": "https://manifests.teklia.com/HIMANIS/JJ077/words_annotations/FRCHANJJ_JJ077_0080R.json/141/line", 
            "@type": "oa:Annotation", 
            "motivation": "oa:painting", 
            "on": "http://bvmm.irht.cnrs.fr/iiif/23659/canvas/canvas-2289516#xywh=689,1714,134,64", 
            "resource": {
                "@type": "cnt:ContentAsText", 
                "chars": "STANT", 
                "format": "text/plain"
            }
        }, 
        {
            "@id": "https://manifests.teklia.com/HIMANIS/JJ077/words_annotations/FRCHANJJ_JJ077_0080R.json/142/line", 
            "@type": "oa:Annotation", 
            "motivation": "oa:painting", 
            "on": "http://bvmm.irht.cnrs.fr/iiif/23659/canvas/canvas-2289516#xywh=1709,2140,50,47", 
            "resource": {
                "@type": "cnt:ContentAsText", 
                "chars": "DE", 
                "format": "text/plain"
            }
        }, 
        {
            "@id": "https://manifests.teklia.com/HIMANIS/JJ077/words_annotations/FRCHANJJ_JJ077_0080R.json/143/line", 
            "@type": "oa:Annotation", 
            "motivation": "oa:painting", 
            "on": "http://bvmm.irht.cnrs.fr/iiif/23659/canvas/canvas-2289516#xywh=889,3424,88,100", 
            "resource": {
                "@type": "cnt:ContentAsText", 
                "chars": "FACTUM", 
                "format": "text/plain"
            }
        }, 
        {
            "@id": "https://manifests.teklia.com/HIMANIS/JJ077/words_annotations/FRCHANJJ_JJ077_0080R.json/144/line", 
            "@type": "oa:Annotation", 
            "motivation": "oa:painting", 
            "on": "http://bvmm.irht.cnrs.fr/iiif/23659/canvas/canvas-2289516#xywh=1711,2201,73,61", 
            "resource": {
                "@type": "cnt:ContentAsText", 
                "chars": "POUR", 
                "format": "text/plain"
            }
        }, 
        {
            "@id": "https://manifests.teklia.com/HIMANIS/JJ077/words_annotations/FRCHANJJ_JJ077_0080R.json/145/line", 
            "@type": "oa:Annotation", 
            "motivation": "oa:painting", 
            "on": "http://bvmm.irht.cnrs.fr/iiif/23659/canvas/canvas-2289516#xywh=1713,1885,73,64", 
            "resource": {
                "@type": "cnt:ContentAsText", 
                "chars": "EUS", 
                "format": "text/plain"
            }
        }, 
        {
            "@id": "https://manifests.teklia.com/HIMANIS/JJ077/words_annotations/FRCHANJJ_JJ077_0080R.json/146/line", 
            "@type": "oa:Annotation", 
            "motivation": "oa:painting", 
            "on": "http://bvmm.irht.cnrs.fr/iiif/23659/canvas/canvas-2289516#xywh=0,2284,257,121", 
            "resource": {
                "@type": "cnt:ContentAsText", 
                "chars": "UNA", 
                "format": "text/plain"
            }
        }, 
        {
            "@id": "https://manifests.teklia.com/HIMANIS/JJ077/words_annotations/FRCHANJJ_JJ077_0080R.json/147/line", 
            "@type": "oa:Annotation", 
            "motivation": "oa:painting", 
            "on": "http://bvmm.irht.cnrs.fr/iiif/23659/canvas/canvas-2289516#xywh=1150,1631,262,74", 
            "resource": {
                "@type": "cnt:ContentAsText", 
                "chars": "DONNERONS", 
                "format": "text/plain"
            }
        }, 
        {
            "@id": "https://manifests.teklia.com/HIMANIS/JJ077/words_annotations/FRCHANJJ_JJ077_0080R.json/148/line", 
            "@type": "oa:Annotation", 
            "motivation": "oa:painting", 
            "on": "http://bvmm.irht.cnrs.fr/iiif/23659/canvas/canvas-2289516#xywh=584,3499,108,122", 
            "resource": {
                "@type": "cnt:ContentAsText", 
                "chars": "LIBRAS", 
                "format": "text/plain"
            }
        }, 
        {
            "@id": "https://manifests.teklia.com/HIMANIS/JJ077/words_annotations/FRCHANJJ_JJ077_0080R.json/149/line", 
            "@type": "oa:Annotation", 
            "motivation": "oa:painting", 
            "on": "http://bvmm.irht.cnrs.fr/iiif/23659/canvas/canvas-2289516#xywh=1445,1469,108,63", 
            "resource": {
                "@type": "cnt:ContentAsText", 
                "chars": "FORCE", 
                "format": "text/plain"
            }
        }, 
        {
            "@id": "https://manifests.teklia.com/HIMANIS/JJ077/words_annotations/FRCHANJJ_JJ077_0080R.json/150/line", 
            "@type": "oa:Annotation", 
            "motivation": "oa:painting", 
            "on": "http://bvmm.irht.cnrs.fr/iiif/23659/canvas/canvas-2289516#xywh=1958,1244,186,18", 
            "resource": {
                "@type": "cnt:ContentAsText", 
                "chars": "QUANT", 
                "format": "text/plain"
            }
        }, 
        {
            "@id": "https://manifests.teklia.com/HIMANIS/JJ077/words_annotations/FRCHANJJ_JJ077_0080R.json/151/line", 
            "@type": "oa:Annotation", 
            "motivation": "oa:painting", 
            "on": "http://bvmm.irht.cnrs.fr/iiif/23659/canvas/canvas-2289516#xywh=2198,1631,80,74", 
            "resource": {
                "@type": "cnt:ContentAsText", 
                "chars": "SA", 
                "format": "text/plain"
            }
        }, 
        {
            "@id": "https://manifests.teklia.com/HIMANIS/JJ077/words_annotations/FRCHANJJ_JJ077_0080R.json/152/line", 
            "@type": "oa:Annotation", 
            "motivation": "oa:painting", 
            "on": "http://bvmm.irht.cnrs.fr/iiif/23659/canvas/canvas-2289516#xywh=1214,1469,195,63", 
            "resource": {
                "@type": "cnt:ContentAsText", 
                "chars": "OPPRESSIONE", 
                "format": "text/plain"
            }
        }, 
        {
            "@id": "https://manifests.teklia.com/HIMANIS/JJ077/words_annotations/FRCHANJJ_JJ077_0080R.json/153/line", 
            "@type": "oa:Annotation", 
            "motivation": "oa:painting", 
            "on": "http://bvmm.irht.cnrs.fr/iiif/23659/canvas/canvas-2289516#xywh=1545,573,92,70", 
            "resource": {
                "@type": "cnt:ContentAsText", 
                "chars": "NOUS", 
                "format": "text/plain"
            }
        }, 
        {
            "@id": "https://manifests.teklia.com/HIMANIS/JJ077/words_annotations/FRCHANJJ_JJ077_0080R.json/154/line", 
            "@type": "oa:Annotation", 
            "motivation": "oa:painting", 
            "on": "http://bvmm.irht.cnrs.fr/iiif/23659/canvas/canvas-2289516#xywh=2284,1885,113,64", 
            "resource": {
                "@type": "cnt:ContentAsText", 
                "chars": "CESTE", 
                "format": "text/plain"
            }
        }, 
        {
            "@id": "https://manifests.teklia.com/HIMANIS/JJ077/words_annotations/FRCHANJJ_JJ077_0080R.json/155/line", 
            "@type": "oa:Annotation", 
            "motivation": "oa:painting", 
            "on": "http://bvmm.irht.cnrs.fr/iiif/23659/canvas/canvas-2289516#xywh=1121,3499,176,122", 
            "resource": {
                "@type": "cnt:ContentAsText", 
                "chars": "GUILLELMI", 
                "format": "text/plain"
            }
        }, 
        {
            "@id": "https://manifests.teklia.com/HIMANIS/JJ077/words_annotations/FRCHANJJ_JJ077_0080R.json/156/line", 
            "@type": "oa:Annotation", 
            "motivation": "oa:painting", 
            "on": "http://bvmm.irht.cnrs.fr/iiif/23659/canvas/canvas-2289516#xywh=1936,1885,242,64", 
            "resource": {
                "@type": "cnt:ContentAsText", 
                "chars": "LIGIEUSES", 
                "format": "text/plain"
            }
        }, 
        {
            "@id": "https://manifests.teklia.com/HIMANIS/JJ077/words_annotations/FRCHANJJ_JJ077_0080R.json/157/line", 
            "@type": "oa:Annotation", 
            "motivation": "oa:painting", 
            "on": "http://bvmm.irht.cnrs.fr/iiif/23659/canvas/canvas-2289516#xywh=1713,1885,69,64", 
            "resource": {
                "@type": "cnt:ContentAsText", 
                "chars": "LES", 
                "format": "text/plain"
            }
        }, 
        {
            "@id": "https://manifests.teklia.com/HIMANIS/JJ077/words_annotations/FRCHANJJ_JJ077_0080R.json/158/line", 
            "@type": "oa:Annotation", 
            "motivation": "oa:painting", 
            "on": "http://bvmm.irht.cnrs.fr/iiif/23659/canvas/canvas-2289516#xywh=1769,2090,0,56", 
            "resource": {
                "@type": "cnt:ContentAsText", 
                "chars": "H", 
                "format": "text/plain"
            }
        }, 
        {
            "@id": "https://manifests.teklia.com/HIMANIS/JJ077/words_annotations/FRCHANJJ_JJ077_0080R.json/159/line", 
            "@type": "oa:Annotation", 
            "motivation": "oa:painting", 
            "on": "http://bvmm.irht.cnrs.fr/iiif/23659/canvas/canvas-2289516#xywh=1769,2090,0,56", 
            "resource": {
                "@type": "cnt:ContentAsText", 
                "chars": "J", 
                "format": "text/plain"
            }
        }, 
        {
            "@id": "https://manifests.teklia.com/HIMANIS/JJ077/words_annotations/FRCHANJJ_JJ077_0080R.json/160/line", 
            "@type": "oa:Annotation", 
            "motivation": "oa:painting", 
            "on": "http://bvmm.irht.cnrs.fr/iiif/23659/canvas/canvas-2289516#xywh=2801,3349,77,35", 
            "resource": {
                "@type": "cnt:ContentAsText", 
                "chars": "LES", 
                "format": "text/plain"
            }
        }, 
        {
            "@id": "https://manifests.teklia.com/HIMANIS/JJ077/words_annotations/FRCHANJJ_JJ077_0080R.json/161/line", 
            "@type": "oa:Annotation", 
            "motivation": "oa:painting", 
            "on": "http://bvmm.irht.cnrs.fr/iiif/23659/canvas/canvas-2289516#xywh=1769,2090,0,56", 
            "resource": {
                "@type": "cnt:ContentAsText", 
                "chars": "P", 
                "format": "text/plain"
            }
        }, 
        {
            "@id": "https://manifests.teklia.com/HIMANIS/JJ077/words_annotations/FRCHANJJ_JJ077_0080R.json/162/line", 
            "@type": "oa:Annotation", 
            "motivation": "oa:painting", 
            "on": "http://bvmm.irht.cnrs.fr/iiif/23659/canvas/canvas-2289516#xywh=117,355,196,107", 
            "resource": {
                "@type": "cnt:ContentAsText", 
                "chars": "XXVIII", 
                "format": "text/plain"
            }
        }, 
        {
            "@id": "https://manifests.teklia.com/HIMANIS/JJ077/words_annotations/FRCHANJJ_JJ077_0080R.json/163/line", 
            "@type": "oa:Annotation", 
            "motivation": "oa:painting", 
            "on": "http://bvmm.irht.cnrs.fr/iiif/23659/canvas/canvas-2289516#xywh=2266,2288,625,136", 
            "resource": {
                "@type": "cnt:ContentAsText", 
                "chars": "SECRE", 
                "format": "text/plain"
            }
        }, 
        {
            "@id": "https://manifests.teklia.com/HIMANIS/JJ077/words_annotations/FRCHANJJ_JJ077_0080R.json/164/line", 
            "@type": "oa:Annotation", 
            "motivation": "oa:painting", 
            "on": "http://bvmm.irht.cnrs.fr/iiif/23659/canvas/canvas-2289516#xywh=1914,1531,176,97", 
            "resource": {
                "@type": "cnt:ContentAsText", 
                "chars": "POSSESSIONS", 
                "format": "text/plain"
            }
        }, 
        {
            "@id": "https://manifests.teklia.com/HIMANIS/JJ077/words_annotations/FRCHANJJ_JJ077_0080R.json/165/line", 
            "@type": "oa:Annotation", 
            "motivation": "oa:painting", 
            "on": "http://bvmm.irht.cnrs.fr/iiif/23659/canvas/canvas-2289516#xywh=1935,1244,205,18", 
            "resource": {
                "@type": "cnt:ContentAsText", 
                "chars": "QUATRE", 
                "format": "text/plain"
            }
        }, 
        {
            "@id": "https://manifests.teklia.com/HIMANIS/JJ077/words_annotations/FRCHANJJ_JJ077_0080R.json/166/line", 
            "@type": "oa:Annotation", 
            "motivation": "oa:painting", 
            "on": "http://bvmm.irht.cnrs.fr/iiif/23659/canvas/canvas-2289516#xywh=2132,2437,97,70", 
            "resource": {
                "@type": "cnt:ContentAsText", 
                "chars": "CES", 
                "format": "text/plain"
            }
        }, 
        {
            "@id": "https://manifests.teklia.com/HIMANIS/JJ077/words_annotations/FRCHANJJ_JJ077_0080R.json/167/line", 
            "@type": "oa:Annotation", 
            "motivation": "oa:painting", 
            "on": "http://bvmm.irht.cnrs.fr/iiif/23659/canvas/canvas-2289516#xywh=770,2141,285,43", 
            "resource": {
                "@type": "cnt:ContentAsText", 
                "chars": "BELLES", 
                "format": "text/plain"
            }
        }, 
        {
            "@id": "https://manifests.teklia.com/HIMANIS/JJ077/words_annotations/FRCHANJJ_JJ077_0080R.json/168/line", 
            "@type": "oa:Annotation", 
            "motivation": "oa:painting", 
            "on": "http://bvmm.irht.cnrs.fr/iiif/23659/canvas/canvas-2289516#xywh=1835,1714,203,64", 
            "resource": {
                "@type": "cnt:ContentAsText", 
                "chars": "PRI", 
                "format": "text/plain"
            }
        }, 
        {
            "@id": "https://manifests.teklia.com/HIMANIS/JJ077/words_annotations/FRCHANJJ_JJ077_0080R.json/169/line", 
            "@type": "oa:Annotation", 
            "motivation": "oa:painting", 
            "on": "http://bvmm.irht.cnrs.fr/iiif/23659/canvas/canvas-2289516#xywh=1685,1157,0,63", 
            "resource": {
                "@type": "cnt:ContentAsText", 
                "chars": "C", 
                "format": "text/plain"
            }
        }, 
        {
            "@id": "https://manifests.teklia.com/HIMANIS/JJ077/words_annotations/FRCHANJJ_JJ077_0080R.json/170/line", 
            "@type": "oa:Annotation", 
            "motivation": "oa:painting", 
            "on": "http://bvmm.irht.cnrs.fr/iiif/23659/canvas/canvas-2289516#xywh=1835,1714,154,64", 
            "resource": {
                "@type": "cnt:ContentAsText", 
                "chars": "PRO", 
                "format": "text/plain"
            }
        }, 
        {
            "@id": "https://manifests.teklia.com/HIMANIS/JJ077/words_annotations/FRCHANJJ_JJ077_0080R.json/171/line", 
            "@type": "oa:Annotation", 
            "motivation": "oa:painting", 
            "on": "http://bvmm.irht.cnrs.fr/iiif/23659/canvas/canvas-2289516#xywh=1685,1157,0,63", 
            "resource": {
                "@type": "cnt:ContentAsText", 
                "chars": "J", 
                "format": "text/plain"
            }
        }, 
        {
            "@id": "https://manifests.teklia.com/HIMANIS/JJ077/words_annotations/FRCHANJJ_JJ077_0080R.json/172/line", 
            "@type": "oa:Annotation", 
            "motivation": "oa:painting", 
            "on": "http://bvmm.irht.cnrs.fr/iiif/23659/canvas/canvas-2289516#xywh=561,355,175,107", 
            "resource": {
                "@type": "cnt:ContentAsText", 
                "chars": "GARDIA", 
                "format": "text/plain"
            }
        }, 
        {
            "@id": "https://manifests.teklia.com/HIMANIS/JJ077/words_annotations/FRCHANJJ_JJ077_0080R.json/173/line", 
            "@type": "oa:Annotation", 
            "motivation": "oa:painting", 
            "on": "http://bvmm.irht.cnrs.fr/iiif/23659/canvas/canvas-2289516#xywh=2150,3424,245,100", 
            "resource": {
                "@type": "cnt:ContentAsText", 
                "chars": "BOUCINTO", 
                "format": "text/plain"
            }
        }, 
        {
            "@id": "https://manifests.teklia.com/HIMANIS/JJ077/words_annotations/FRCHANJJ_JJ077_0080R.json/174/line", 
            "@type": "oa:Annotation", 
            "motivation": "oa:painting", 
            "on": "http://bvmm.irht.cnrs.fr/iiif/23659/canvas/canvas-2289516#xywh=1727,2288,68,136", 
            "resource": {
                "@type": "cnt:ContentAsText", 
                "chars": "LES", 
                "format": "text/plain"
            }
        }, 
        {
            "@id": "https://manifests.teklia.com/HIMANIS/JJ077/words_annotations/FRCHANJJ_JJ077_0080R.json/175/line", 
            "@type": "oa:Annotation", 
            "motivation": "oa:painting", 
            "on": "http://bvmm.irht.cnrs.fr/iiif/23659/canvas/canvas-2289516#xywh=2121,1531,219,97", 
            "resource": {
                "@type": "cnt:ContentAsText", 
                "chars": "FAUCHISES", 
                "format": "text/plain"
            }
        }, 
        {
            "@id": "https://manifests.teklia.com/HIMANIS/JJ077/words_annotations/FRCHANJJ_JJ077_0080R.json/176/line", 
            "@type": "oa:Annotation", 
            "motivation": "oa:painting", 
            "on": "http://bvmm.irht.cnrs.fr/iiif/23659/canvas/canvas-2289516#xywh=972,355,33,107", 
            "resource": {
                "@type": "cnt:ContentAsText", 
                "chars": "PER", 
                "format": "text/plain"
            }
        }, 
        {
            "@id": "https://manifests.teklia.com/HIMANIS/JJ077/words_annotations/FRCHANJJ_JJ077_0080R.json/177/line", 
            "@type": "oa:Annotation", 
            "motivation": "oa:painting", 
            "on": "http://bvmm.irht.cnrs.fr/iiif/23659/canvas/canvas-2289516#xywh=259,3424,0,100", 
            "resource": {
                "@type": "cnt:ContentAsText", 
                "chars": "J", 
                "format": "text/plain"
            }
        }, 
        {
            "@id": "https://manifests.teklia.com/HIMANIS/JJ077/words_annotations/FRCHANJJ_JJ077_0080R.json/178/line", 
            "@type": "oa:Annotation", 
            "motivation": "oa:painting", 
            "on": "http://bvmm.irht.cnrs.fr/iiif/23659/canvas/canvas-2289516#xywh=1835,1714,252,64", 
            "resource": {
                "@type": "cnt:ContentAsText", 
                "chars": "PRED", 
                "format": "text/plain"
            }
        }, 
        {
            "@id": "https://manifests.teklia.com/HIMANIS/JJ077/words_annotations/FRCHANJJ_JJ077_0080R.json/179/line", 
            "@type": "oa:Annotation", 
            "motivation": "oa:painting", 
            "on": "http://bvmm.irht.cnrs.fr/iiif/23659/canvas/canvas-2289516#xywh=495,1631,206,74", 
            "resource": {
                "@type": "cnt:ContentAsText", 
                "chars": "SAISINES", 
                "format": "text/plain"
            }
        }, 
        {
            "@id": "https://manifests.teklia.com/HIMANIS/JJ077/words_annotations/FRCHANJJ_JJ077_0080R.json/180/line", 
            "@type": "oa:Annotation", 
            "motivation": "oa:painting", 
            "on": "http://bvmm.irht.cnrs.fr/iiif/23659/canvas/canvas-2289516#xywh=259,3424,0,100", 
            "resource": {
                "@type": "cnt:ContentAsText", 
                "chars": "P", 
                "format": "text/plain"
            }
        }, 
        {
            "@id": "https://manifests.teklia.com/HIMANIS/JJ077/words_annotations/FRCHANJJ_JJ077_0080R.json/181/line", 
            "@type": "oa:Annotation", 
            "motivation": "oa:painting", 
            "on": "http://bvmm.irht.cnrs.fr/iiif/23659/canvas/canvas-2289516#xywh=1711,3499,115,122", 
            "resource": {
                "@type": "cnt:ContentAsText", 
                "chars": "LOCI", 
                "format": "text/plain"
            }
        }, 
        {
            "@id": "https://manifests.teklia.com/HIMANIS/JJ077/words_annotations/FRCHANJJ_JJ077_0080R.json/182/line", 
            "@type": "oa:Annotation", 
            "motivation": "oa:painting", 
            "on": "http://bvmm.irht.cnrs.fr/iiif/23659/canvas/canvas-2289516#xywh=1343,3424,252,100", 
            "resource": {
                "@type": "cnt:ContentAsText", 
                "chars": "ROCHERVERRA", 
                "format": "text/plain"
            }
        }, 
        {
            "@id": "https://manifests.teklia.com/HIMANIS/JJ077/words_annotations/FRCHANJJ_JJ077_0080R.json/183/line", 
            "@type": "oa:Annotation", 
            "motivation": "oa:painting", 
            "on": "http://bvmm.irht.cnrs.fr/iiif/23659/canvas/canvas-2289516#xywh=1835,1714,252,64", 
            "resource": {
                "@type": "cnt:ContentAsText", 
                "chars": "PRES", 
                "format": "text/plain"
            }
        }, 
        {
            "@id": "https://manifests.teklia.com/HIMANIS/JJ077/words_annotations/FRCHANJJ_JJ077_0080R.json/184/line", 
            "@type": "oa:Annotation", 
            "motivation": "oa:painting", 
            "on": "http://bvmm.irht.cnrs.fr/iiif/23659/canvas/canvas-2289516#xywh=1046,355,154,107", 
            "resource": {
                "@type": "cnt:ContentAsText", 
                "chars": "RELIGIOSOS", 
                "format": "text/plain"
            }
        }, 
        {
            "@id": "https://manifests.teklia.com/HIMANIS/JJ077/words_annotations/FRCHANJJ_JJ077_0080R.json/185/line", 
            "@type": "oa:Annotation", 
            "motivation": "oa:painting", 
            "on": "http://bvmm.irht.cnrs.fr/iiif/23659/canvas/canvas-2289516#xywh=1348,355,236,107", 
            "resource": {
                "@type": "cnt:ContentAsText", 
                "chars": "ANCHONI", 
                "format": "text/plain"
            }
        }, 
        {
            "@id": "https://manifests.teklia.com/HIMANIS/JJ077/words_annotations/FRCHANJJ_JJ077_0080R.json/186/line", 
            "@type": "oa:Annotation", 
            "motivation": "oa:painting", 
            "on": "http://bvmm.irht.cnrs.fr/iiif/23659/canvas/canvas-2289516#xywh=1746,832,70,21", 
            "resource": {
                "@type": "cnt:ContentAsText", 
                "chars": "PER", 
                "format": "text/plain"
            }
        }, 
        {
            "@id": "https://manifests.teklia.com/HIMANIS/JJ077/words_annotations/FRCHANJJ_JJ077_0080R.json/187/line", 
            "@type": "oa:Annotation", 
            "motivation": "oa:painting", 
            "on": "http://bvmm.irht.cnrs.fr/iiif/23659/canvas/canvas-2289516#xywh=1221,355,87,107", 
            "resource": {
                "@type": "cnt:ContentAsText", 
                "chars": "SANCTI", 
                "format": "text/plain"
            }
        }, 
        {
            "@id": "https://manifests.teklia.com/HIMANIS/JJ077/words_annotations/FRCHANJJ_JJ077_0080R.json/188/line", 
            "@type": "oa:Annotation", 
            "motivation": "oa:painting", 
            "on": "http://bvmm.irht.cnrs.fr/iiif/23659/canvas/canvas-2289516#xywh=1596,1800,224,58", 
            "resource": {
                "@type": "cnt:ContentAsText", 
                "chars": "SUPER", 
                "format": "text/plain"
            }
        }, 
        {
            "@id": "https://manifests.teklia.com/HIMANIS/JJ077/words_annotations/FRCHANJJ_JJ077_0080R.json/189/line", 
            "@type": "oa:Annotation", 
            "motivation": "oa:painting", 
            "on": "http://bvmm.irht.cnrs.fr/iiif/23659/canvas/canvas-2289516#xywh=1792,1469,223,63", 
            "resource": {
                "@type": "cnt:ContentAsText", 
                "chars": "PUISSE", 
                "format": "text/plain"
            }
        }, 
        {
            "@id": "https://manifests.teklia.com/HIMANIS/JJ077/words_annotations/FRCHANJJ_JJ077_0080R.json/190/line", 
            "@type": "oa:Annotation", 
            "motivation": "oa:painting", 
            "on": "http://bvmm.irht.cnrs.fr/iiif/23659/canvas/canvas-2289516#xywh=1842,1800,209,58", 
            "resource": {
                "@type": "cnt:ContentAsText", 
                "chars": "LA", 
                "format": "text/plain"
            }
        }, 
        {
            "@id": "https://manifests.teklia.com/HIMANIS/JJ077/words_annotations/FRCHANJJ_JJ077_0080R.json/191/line", 
            "@type": "oa:Annotation", 
            "motivation": "oa:painting", 
            "on": "http://bvmm.irht.cnrs.fr/iiif/23659/canvas/canvas-2289516#xywh=1590,2140,0,47", 
            "resource": {
                "@type": "cnt:ContentAsText", 
                "chars": "G", 
                "format": "text/plain"
            }
        }, 
        {
            "@id": "https://manifests.teklia.com/HIMANIS/JJ077/words_annotations/FRCHANJJ_JJ077_0080R.json/192/line", 
            "@type": "oa:Annotation", 
            "motivation": "oa:painting", 
            "on": "http://bvmm.irht.cnrs.fr/iiif/23659/canvas/canvas-2289516#xywh=1590,2140,0,47", 
            "resource": {
                "@type": "cnt:ContentAsText", 
                "chars": "J", 
                "format": "text/plain"
            }
        }, 
        {
            "@id": "https://manifests.teklia.com/HIMANIS/JJ077/words_annotations/FRCHANJJ_JJ077_0080R.json/193/line", 
            "@type": "oa:Annotation", 
            "motivation": "oa:painting", 
            "on": "http://bvmm.irht.cnrs.fr/iiif/23659/canvas/canvas-2289516#xywh=1710,1714,121,64", 
            "resource": {
                "@type": "cnt:ContentAsText", 
                "chars": "FAITER", 
                "format": "text/plain"
            }
        }, 
        {
            "@id": "https://manifests.teklia.com/HIMANIS/JJ077/words_annotations/FRCHANJJ_JJ077_0080R.json/194/line", 
            "@type": "oa:Annotation", 
            "motivation": "oa:painting", 
            "on": "http://bvmm.irht.cnrs.fr/iiif/23659/canvas/canvas-2289516#xywh=1150,1631,262,74", 
            "resource": {
                "@type": "cnt:ContentAsText", 
                "chars": "DONNERRONT", 
                "format": "text/plain"
            }
        }, 
        {
            "@id": "https://manifests.teklia.com/HIMANIS/JJ077/words_annotations/FRCHANJJ_JJ077_0080R.json/195/line", 
            "@type": "oa:Annotation", 
            "motivation": "oa:painting", 
            "on": "http://bvmm.irht.cnrs.fr/iiif/23659/canvas/canvas-2289516#xywh=1590,2140,0,47", 
            "resource": {
                "@type": "cnt:ContentAsText", 
                "chars": "S", 
                "format": "text/plain"
            }
        }, 
        {
            "@id": "https://manifests.teklia.com/HIMANIS/JJ077/words_annotations/FRCHANJJ_JJ077_0080R.json/196/line", 
            "@type": "oa:Annotation", 
            "motivation": "oa:painting", 
            "on": "http://bvmm.irht.cnrs.fr/iiif/23659/canvas/canvas-2289516#xywh=2035,2437,97,70", 
            "resource": {
                "@type": "cnt:ContentAsText", 
                "chars": "QUE", 
                "format": "text/plain"
            }
        }, 
        {
            "@id": "https://manifests.teklia.com/HIMANIS/JJ077/words_annotations/FRCHANJJ_JJ077_0080R.json/197/line", 
            "@type": "oa:Annotation", 
            "motivation": "oa:painting", 
            "on": "http://bvmm.irht.cnrs.fr/iiif/23659/canvas/canvas-2289516#xywh=1805,1631,229,74", 
            "resource": {
                "@type": "cnt:ContentAsText", 
                "chars": "PREDENSIUS", 
                "format": "text/plain"
            }
        }, 
        {
            "@id": "https://manifests.teklia.com/HIMANIS/JJ077/words_annotations/FRCHANJJ_JJ077_0080R.json/198/line", 
            "@type": "oa:Annotation", 
            "motivation": "oa:painting", 
            "on": "http://bvmm.irht.cnrs.fr/iiif/23659/canvas/canvas-2289516#xywh=0,2284,265,121", 
            "resource": {
                "@type": "cnt:ContentAsText", 
                "chars": "QUAM", 
                "format": "text/plain"
            }
        }, 
        {
            "@id": "https://manifests.teklia.com/HIMANIS/JJ077/words_annotations/FRCHANJJ_JJ077_0080R.json/199/line", 
            "@type": "oa:Annotation", 
            "motivation": "oa:painting", 
            "on": "http://bvmm.irht.cnrs.fr/iiif/23659/canvas/canvas-2289516#xywh=0,2284,265,121", 
            "resource": {
                "@type": "cnt:ContentAsText", 
                "chars": "QUAR", 
                "format": "text/plain"
            }
        }, 
        {
            "@id": "https://manifests.teklia.com/HIMANIS/JJ077/words_annotations/FRCHANJJ_JJ077_0080R.json/200/line", 
            "@type": "oa:Annotation", 
            "motivation": "oa:painting", 
            "on": "http://bvmm.irht.cnrs.fr/iiif/23659/canvas/canvas-2289516#xywh=1445,1469,84,63", 
            "resource": {
                "@type": "cnt:ContentAsText", 
                "chars": "FORTE", 
                "format": "text/plain"
            }
        }, 
        {
            "@id": "https://manifests.teklia.com/HIMANIS/JJ077/words_annotations/FRCHANJJ_JJ077_0080R.json/201/line", 
            "@type": "oa:Annotation", 
            "motivation": "oa:painting", 
            "on": "http://bvmm.irht.cnrs.fr/iiif/23659/canvas/canvas-2289516#xywh=2370,1531,31,97", 
            "resource": {
                "@type": "cnt:ContentAsText", 
                "chars": "LI", 
                "format": "text/plain"
            }
        }, 
        {
            "@id": "https://manifests.teklia.com/HIMANIS/JJ077/words_annotations/FRCHANJJ_JJ077_0080R.json/202/line", 
            "@type": "oa:Annotation", 
            "motivation": "oa:painting", 
            "on": "http://bvmm.irht.cnrs.fr/iiif/23659/canvas/canvas-2289516#xywh=1584,1714,102,64", 
            "resource": {
                "@type": "cnt:ContentAsText", 
                "chars": "ESTRE", 
                "format": "text/plain"
            }
        }, 
        {
            "@id": "https://manifests.teklia.com/HIMANIS/JJ077/words_annotations/FRCHANJJ_JJ077_0080R.json/203/line", 
            "@type": "oa:Annotation", 
            "motivation": "oa:painting", 
            "on": "http://bvmm.irht.cnrs.fr/iiif/23659/canvas/canvas-2289516#xywh=2198,1631,47,74", 
            "resource": {
                "@type": "cnt:ContentAsText", 
                "chars": "LA", 
                "format": "text/plain"
            }
        }
    ]
}