{
    "@context": "http://iiif.io/api/presentation/2/context.json", 
    "@id": "https://manifests.teklia.com/HIMANIS/JJ195/words_annotations/FRAN_0200_09740.json", 
    "@type": "sc:AnnotationList", 
    "resources": [
        {
            "@id": "https://manifests.teklia.com/HIMANIS/JJ195/words_annotations/FRAN_0200_09740.json/0/line", 
            "@type": "oa:Annotation", 
            "motivation": "oa:painting", 
            "on": "http://bvmm.irht.cnrs.fr/iiif/23801/canvas/canvas-2347626#xywh=3426,3728,277,261", 
            "resource": {
                "@type": "cnt:ContentAsText", 
                "chars": "HABERE", 
                "format": "text/plain"
            }
        }, 
        {
            "@id": "https://manifests.teklia.com/HIMANIS/JJ195/words_annotations/FRAN_0200_09740.json/1/line", 
            "@type": "oa:Annotation", 
            "motivation": "oa:painting", 
            "on": "http://bvmm.irht.cnrs.fr/iiif/23801/canvas/canvas-2347626#xywh=0,1110,0,655", 
            "resource": {
                "@type": "cnt:ContentAsText", 
                "chars": "L", 
                "format": "text/plain"
            }
        }, 
        {
            "@id": "https://manifests.teklia.com/HIMANIS/JJ195/words_annotations/FRAN_0200_09740.json/2/line", 
            "@type": "oa:Annotation", 
            "motivation": "oa:painting", 
            "on": "http://bvmm.irht.cnrs.fr/iiif/23801/canvas/canvas-2347626#xywh=0,1110,0,655", 
            "resource": {
                "@type": "cnt:ContentAsText", 
                "chars": "R", 
                "format": "text/plain"
            }
        }, 
        {
            "@id": "https://manifests.teklia.com/HIMANIS/JJ195/words_annotations/FRAN_0200_09740.json/3/line", 
            "@type": "oa:Annotation", 
            "motivation": "oa:painting", 
            "on": "http://bvmm.irht.cnrs.fr/iiif/23801/canvas/canvas-2347626#xywh=3088,3738,324,289", 
            "resource": {
                "@type": "cnt:ContentAsText", 
                "chars": "GUILLA", 
                "format": "text/plain"
            }
        }, 
        {
            "@id": "https://manifests.teklia.com/HIMANIS/JJ195/words_annotations/FRAN_0200_09740.json/4/line", 
            "@type": "oa:Annotation", 
            "motivation": "oa:painting", 
            "on": "http://bvmm.irht.cnrs.fr/iiif/23801/canvas/canvas-2347626#xywh=1061,437,1848,785", 
            "resource": {
                "@type": "cnt:ContentAsText", 
                "chars": "NOUS", 
                "format": "text/plain"
            }
        }, 
        {
            "@id": "https://manifests.teklia.com/HIMANIS/JJ195/words_annotations/FRAN_0200_09740.json/5/line", 
            "@type": "oa:Annotation", 
            "motivation": "oa:painting", 
            "on": "http://bvmm.irht.cnrs.fr/iiif/23801/canvas/canvas-2347626#xywh=3088,3738,324,289", 
            "resource": {
                "@type": "cnt:ContentAsText", 
                "chars": "GUILLE", 
                "format": "text/plain"
            }
        }, 
        {
            "@id": "https://manifests.teklia.com/HIMANIS/JJ195/words_annotations/FRAN_0200_09740.json/6/line", 
            "@type": "oa:Annotation", 
            "motivation": "oa:painting", 
            "on": "http://bvmm.irht.cnrs.fr/iiif/23801/canvas/canvas-2347626#xywh=1085,3874,1416,222", 
            "resource": {
                "@type": "cnt:ContentAsText", 
                "chars": "CAPITAINE", 
                "format": "text/plain"
            }
        }, 
        {
            "@id": "https://manifests.teklia.com/HIMANIS/JJ195/words_annotations/FRAN_0200_09740.json/7/line", 
            "@type": "oa:Annotation", 
            "motivation": "oa:painting", 
            "on": "http://bvmm.irht.cnrs.fr/iiif/23801/canvas/canvas-2347626#xywh=3621,3728,407,261", 
            "resource": {
                "@type": "cnt:ContentAsText", 
                "chars": "LETTRES", 
                "format": "text/plain"
            }
        }, 
        {
            "@id": "https://manifests.teklia.com/HIMANIS/JJ195/words_annotations/FRAN_0200_09740.json/8/line", 
            "@type": "oa:Annotation", 
            "motivation": "oa:painting", 
            "on": "http://bvmm.irht.cnrs.fr/iiif/23801/canvas/canvas-2347626#xywh=334,2757,3743,592", 
            "resource": {
                "@type": "cnt:ContentAsText", 
                "chars": "DE", 
                "format": "text/plain"
            }
        }, 
        {
            "@id": "https://manifests.teklia.com/HIMANIS/JJ195/words_annotations/FRAN_0200_09740.json/9/line", 
            "@type": "oa:Annotation", 
            "motivation": "oa:painting", 
            "on": "http://bvmm.irht.cnrs.fr/iiif/23801/canvas/canvas-2347626#xywh=3088,3738,324,289", 
            "resource": {
                "@type": "cnt:ContentAsText", 
                "chars": "GUILLI", 
                "format": "text/plain"
            }
        }, 
        {
            "@id": "https://manifests.teklia.com/HIMANIS/JJ195/words_annotations/FRAN_0200_09740.json/10/line", 
            "@type": "oa:Annotation", 
            "motivation": "oa:painting", 
            "on": "http://bvmm.irht.cnrs.fr/iiif/23801/canvas/canvas-2347626#xywh=2898,1953,84,224", 
            "resource": {
                "@type": "cnt:ContentAsText", 
                "chars": "POUR", 
                "format": "text/plain"
            }
        }, 
        {
            "@id": "https://manifests.teklia.com/HIMANIS/JJ195/words_annotations/FRAN_0200_09740.json/11/line", 
            "@type": "oa:Annotation", 
            "motivation": "oa:painting", 
            "on": "http://bvmm.irht.cnrs.fr/iiif/23801/canvas/canvas-2347626#xywh=1998,2017,354,353", 
            "resource": {
                "@type": "cnt:ContentAsText", 
                "chars": "MISSUS", 
                "format": "text/plain"
            }
        }, 
        {
            "@id": "https://manifests.teklia.com/HIMANIS/JJ195/words_annotations/FRAN_0200_09740.json/12/line", 
            "@type": "oa:Annotation", 
            "motivation": "oa:painting", 
            "on": "http://bvmm.irht.cnrs.fr/iiif/23801/canvas/canvas-2347626#xywh=1224,2017,1194,353", 
            "resource": {
                "@type": "cnt:ContentAsText", 
                "chars": "DITE", 
                "format": "text/plain"
            }
        }, 
        {
            "@id": "https://manifests.teklia.com/HIMANIS/JJ195/words_annotations/FRAN_0200_09740.json/13/line", 
            "@type": "oa:Annotation", 
            "motivation": "oa:painting", 
            "on": "http://bvmm.irht.cnrs.fr/iiif/23801/canvas/canvas-2347626#xywh=693,2017,619,353", 
            "resource": {
                "@type": "cnt:ContentAsText", 
                "chars": "PHILIPPUM", 
                "format": "text/plain"
            }
        }, 
        {
            "@id": "https://manifests.teklia.com/HIMANIS/JJ195/words_annotations/FRAN_0200_09740.json/14/line", 
            "@type": "oa:Annotation", 
            "motivation": "oa:painting", 
            "on": "http://bvmm.irht.cnrs.fr/iiif/23801/canvas/canvas-2347626#xywh=705,372,1115,498", 
            "resource": {
                "@type": "cnt:ContentAsText", 
                "chars": "PHILIPPUM", 
                "format": "text/plain"
            }
        }, 
        {
            "@id": "https://manifests.teklia.com/HIMANIS/JJ195/words_annotations/FRAN_0200_09740.json/15/line", 
            "@type": "oa:Annotation", 
            "motivation": "oa:painting", 
            "on": "http://bvmm.irht.cnrs.fr/iiif/23801/canvas/canvas-2347626#xywh=1998,2017,420,353", 
            "resource": {
                "@type": "cnt:ContentAsText", 
                "chars": "DIT", 
                "format": "text/plain"
            }
        }, 
        {
            "@id": "https://manifests.teklia.com/HIMANIS/JJ195/words_annotations/FRAN_0200_09740.json/16/line", 
            "@type": "oa:Annotation", 
            "motivation": "oa:painting", 
            "on": "http://bvmm.irht.cnrs.fr/iiif/23801/canvas/canvas-2347626#xywh=693,2017,531,353", 
            "resource": {
                "@type": "cnt:ContentAsText", 
                "chars": "PHILIPPES", 
                "format": "text/plain"
            }
        }, 
        {
            "@id": "https://manifests.teklia.com/HIMANIS/JJ195/words_annotations/FRAN_0200_09740.json/17/line", 
            "@type": "oa:Annotation", 
            "motivation": "oa:painting", 
            "on": "http://bvmm.irht.cnrs.fr/iiif/23801/canvas/canvas-2347626#xywh=1061,437,1411,785", 
            "resource": {
                "@type": "cnt:ContentAsText", 
                "chars": "SOIT", 
                "format": "text/plain"
            }
        }, 
        {
            "@id": "https://manifests.teklia.com/HIMANIS/JJ195/words_annotations/FRAN_0200_09740.json/18/line", 
            "@type": "oa:Annotation", 
            "motivation": "oa:painting", 
            "on": "http://bvmm.irht.cnrs.fr/iiif/23801/canvas/canvas-2347626#xywh=705,372,836,498", 
            "resource": {
                "@type": "cnt:ContentAsText", 
                "chars": "PHILIPPUS", 
                "format": "text/plain"
            }
        }, 
        {
            "@id": "https://manifests.teklia.com/HIMANIS/JJ195/words_annotations/FRAN_0200_09740.json/19/line", 
            "@type": "oa:Annotation", 
            "motivation": "oa:painting", 
            "on": "http://bvmm.irht.cnrs.fr/iiif/23801/canvas/canvas-2347626#xywh=705,372,775,498", 
            "resource": {
                "@type": "cnt:ContentAsText", 
                "chars": "PHILIPPES", 
                "format": "text/plain"
            }
        }, 
        {
            "@id": "https://manifests.teklia.com/HIMANIS/JJ195/words_annotations/FRAN_0200_09740.json/20/line", 
            "@type": "oa:Annotation", 
            "motivation": "oa:painting", 
            "on": "http://bvmm.irht.cnrs.fr/iiif/23801/canvas/canvas-2347626#xywh=931,1953,407,224", 
            "resource": {
                "@type": "cnt:ContentAsText", 
                "chars": "NOUS", 
                "format": "text/plain"
            }
        }, 
        {
            "@id": "https://manifests.teklia.com/HIMANIS/JJ195/words_annotations/FRAN_0200_09740.json/21/line", 
            "@type": "oa:Annotation", 
            "motivation": "oa:painting", 
            "on": "http://bvmm.irht.cnrs.fr/iiif/23801/canvas/canvas-2347626#xywh=1071,3874,264,222", 
            "resource": {
                "@type": "cnt:ContentAsText", 
                "chars": "CAUSE", 
                "format": "text/plain"
            }
        }, 
        {
            "@id": "https://manifests.teklia.com/HIMANIS/JJ195/words_annotations/FRAN_0200_09740.json/22/line", 
            "@type": "oa:Annotation", 
            "motivation": "oa:painting", 
            "on": "http://bvmm.irht.cnrs.fr/iiif/23801/canvas/canvas-2347626#xywh=1071,3874,111,222", 
            "resource": {
                "@type": "cnt:ContentAsText", 
                "chars": "COMME", 
                "format": "text/plain"
            }
        }, 
        {
            "@id": "https://manifests.teklia.com/HIMANIS/JJ195/words_annotations/FRAN_0200_09740.json/23/line", 
            "@type": "oa:Annotation", 
            "motivation": "oa:painting", 
            "on": "http://bvmm.irht.cnrs.fr/iiif/23801/canvas/canvas-2347626#xywh=1061,437,2189,785", 
            "resource": {
                "@type": "cnt:ContentAsText", 
                "chars": "DITE", 
                "format": "text/plain"
            }
        }, 
        {
            "@id": "https://manifests.teklia.com/HIMANIS/JJ195/words_annotations/FRAN_0200_09740.json/24/line", 
            "@type": "oa:Annotation", 
            "motivation": "oa:painting", 
            "on": "http://bvmm.irht.cnrs.fr/iiif/23801/canvas/canvas-2347626#xywh=1061,437,1362,785", 
            "resource": {
                "@type": "cnt:ContentAsText", 
                "chars": "DONT", 
                "format": "text/plain"
            }
        }, 
        {
            "@id": "https://manifests.teklia.com/HIMANIS/JJ195/words_annotations/FRAN_0200_09740.json/25/line", 
            "@type": "oa:Annotation", 
            "motivation": "oa:painting", 
            "on": "http://bvmm.irht.cnrs.fr/iiif/23801/canvas/canvas-2347626#xywh=2706,2017,155,353", 
            "resource": {
                "@type": "cnt:ContentAsText", 
                "chars": "PREDICTI", 
                "format": "text/plain"
            }
        }, 
        {
            "@id": "https://manifests.teklia.com/HIMANIS/JJ195/words_annotations/FRAN_0200_09740.json/26/line", 
            "@type": "oa:Annotation", 
            "motivation": "oa:painting", 
            "on": "http://bvmm.irht.cnrs.fr/iiif/23801/canvas/canvas-2347626#xywh=1956,1953,577,224", 
            "resource": {
                "@type": "cnt:ContentAsText", 
                "chars": "DICTUM", 
                "format": "text/plain"
            }
        }, 
        {
            "@id": "https://manifests.teklia.com/HIMANIS/JJ195/words_annotations/FRAN_0200_09740.json/27/line", 
            "@type": "oa:Annotation", 
            "motivation": "oa:painting", 
            "on": "http://bvmm.irht.cnrs.fr/iiif/23801/canvas/canvas-2347626#xywh=874,1953,492,224", 
            "resource": {
                "@type": "cnt:ContentAsText", 
                "chars": "SEU", 
                "format": "text/plain"
            }
        }, 
        {
            "@id": "https://manifests.teklia.com/HIMANIS/JJ195/words_annotations/FRAN_0200_09740.json/28/line", 
            "@type": "oa:Annotation", 
            "motivation": "oa:painting", 
            "on": "http://bvmm.irht.cnrs.fr/iiif/23801/canvas/canvas-2347626#xywh=3410,3728,260,261", 
            "resource": {
                "@type": "cnt:ContentAsText", 
                "chars": "JOHANNIS", 
                "format": "text/plain"
            }
        }, 
        {
            "@id": "https://manifests.teklia.com/HIMANIS/JJ195/words_annotations/FRAN_0200_09740.json/29/line", 
            "@type": "oa:Annotation", 
            "motivation": "oa:painting", 
            "on": "http://bvmm.irht.cnrs.fr/iiif/23801/canvas/canvas-2347626#xywh=3410,3728,260,261", 
            "resource": {
                "@type": "cnt:ContentAsText", 
                "chars": "JOHANNES", 
                "format": "text/plain"
            }
        }, 
        {
            "@id": "https://manifests.teklia.com/HIMANIS/JJ195/words_annotations/FRAN_0200_09740.json/30/line", 
            "@type": "oa:Annotation", 
            "motivation": "oa:painting", 
            "on": "http://bvmm.irht.cnrs.fr/iiif/23801/canvas/canvas-2347626#xywh=1563,1953,745,224", 
            "resource": {
                "@type": "cnt:ContentAsText", 
                "chars": "DESSUS", 
                "format": "text/plain"
            }
        }, 
        {
            "@id": "https://manifests.teklia.com/HIMANIS/JJ195/words_annotations/FRAN_0200_09740.json/31/line", 
            "@type": "oa:Annotation", 
            "motivation": "oa:painting", 
            "on": "http://bvmm.irht.cnrs.fr/iiif/23801/canvas/canvas-2347626#xywh=1061,437,2432,785", 
            "resource": {
                "@type": "cnt:ContentAsText", 
                "chars": "DITES", 
                "format": "text/plain"
            }
        }, 
        {
            "@id": "https://manifests.teklia.com/HIMANIS/JJ195/words_annotations/FRAN_0200_09740.json/32/line", 
            "@type": "oa:Annotation", 
            "motivation": "oa:painting", 
            "on": "http://bvmm.irht.cnrs.fr/iiif/23801/canvas/canvas-2347626#xywh=2143,78,193,31", 
            "resource": {
                "@type": "cnt:ContentAsText", 
                "chars": "OU", 
                "format": "text/plain"
            }
        }, 
        {
            "@id": "https://manifests.teklia.com/HIMANIS/JJ195/words_annotations/FRAN_0200_09740.json/33/line", 
            "@type": "oa:Annotation", 
            "motivation": "oa:painting", 
            "on": "http://bvmm.irht.cnrs.fr/iiif/23801/canvas/canvas-2347626#xywh=1879,3772,316,187", 
            "resource": {
                "@type": "cnt:ContentAsText", 
                "chars": "PROTEM", 
                "format": "text/plain"
            }
        }, 
        {
            "@id": "https://manifests.teklia.com/HIMANIS/JJ195/words_annotations/FRAN_0200_09740.json/34/line", 
            "@type": "oa:Annotation", 
            "motivation": "oa:painting", 
            "on": "http://bvmm.irht.cnrs.fr/iiif/23801/canvas/canvas-2347626#xywh=1344,4343,548,82", 
            "resource": {
                "@type": "cnt:ContentAsText", 
                "chars": "TR", 
                "format": "text/plain"
            }
        }, 
        {
            "@id": "https://manifests.teklia.com/HIMANIS/JJ195/words_annotations/FRAN_0200_09740.json/35/line", 
            "@type": "oa:Annotation", 
            "motivation": "oa:painting", 
            "on": "http://bvmm.irht.cnrs.fr/iiif/23801/canvas/canvas-2347626#xywh=884,2172,2616,545", 
            "resource": {
                "@type": "cnt:ContentAsText", 
                "chars": "DICTUS", 
                "format": "text/plain"
            }
        }, 
        {
            "@id": "https://manifests.teklia.com/HIMANIS/JJ195/words_annotations/FRAN_0200_09740.json/36/line", 
            "@type": "oa:Annotation", 
            "motivation": "oa:painting", 
            "on": "http://bvmm.irht.cnrs.fr/iiif/23801/canvas/canvas-2347626#xywh=1071,3874,264,222", 
            "resource": {
                "@type": "cnt:ContentAsText", 
                "chars": "POITOU", 
                "format": "text/plain"
            }
        }, 
        {
            "@id": "https://manifests.teklia.com/HIMANIS/JJ195/words_annotations/FRAN_0200_09740.json/37/line", 
            "@type": "oa:Annotation", 
            "motivation": "oa:painting", 
            "on": "http://bvmm.irht.cnrs.fr/iiif/23801/canvas/canvas-2347626#xywh=3621,3728,407,261", 
            "resource": {
                "@type": "cnt:ContentAsText", 
                "chars": "PLUS", 
                "format": "text/plain"
            }
        }, 
        {
            "@id": "https://manifests.teklia.com/HIMANIS/JJ195/words_annotations/FRAN_0200_09740.json/38/line", 
            "@type": "oa:Annotation", 
            "motivation": "oa:painting", 
            "on": "http://bvmm.irht.cnrs.fr/iiif/23801/canvas/canvas-2347626#xywh=1061,437,1848,785", 
            "resource": {
                "@type": "cnt:ContentAsText", 
                "chars": "AUS", 
                "format": "text/plain"
            }
        }, 
        {
            "@id": "https://manifests.teklia.com/HIMANIS/JJ195/words_annotations/FRAN_0200_09740.json/39/line", 
            "@type": "oa:Annotation", 
            "motivation": "oa:painting", 
            "on": "http://bvmm.irht.cnrs.fr/iiif/23801/canvas/canvas-2347626#xywh=1352,3772,199,187", 
            "resource": {
                "@type": "cnt:ContentAsText", 
                "chars": "DELIVRE", 
                "format": "text/plain"
            }
        }, 
        {
            "@id": "https://manifests.teklia.com/HIMANIS/JJ195/words_annotations/FRAN_0200_09740.json/40/line", 
            "@type": "oa:Annotation", 
            "motivation": "oa:painting", 
            "on": "http://bvmm.irht.cnrs.fr/iiif/23801/canvas/canvas-2347626#xywh=2706,2017,155,353", 
            "resource": {
                "@type": "cnt:ContentAsText", 
                "chars": "PREDIMUS", 
                "format": "text/plain"
            }
        }, 
        {
            "@id": "https://manifests.teklia.com/HIMANIS/JJ195/words_annotations/FRAN_0200_09740.json/41/line", 
            "@type": "oa:Annotation", 
            "motivation": "oa:painting", 
            "on": "http://bvmm.irht.cnrs.fr/iiif/23801/canvas/canvas-2347626#xywh=954,3772,70,187", 
            "resource": {
                "@type": "cnt:ContentAsText", 
                "chars": "PAR", 
                "format": "text/plain"
            }
        }, 
        {
            "@id": "https://manifests.teklia.com/HIMANIS/JJ195/words_annotations/FRAN_0200_09740.json/42/line", 
            "@type": "oa:Annotation", 
            "motivation": "oa:painting", 
            "on": "http://bvmm.irht.cnrs.fr/iiif/23801/canvas/canvas-2347626#xywh=3277,1953,352,224", 
            "resource": {
                "@type": "cnt:ContentAsText", 
                "chars": "HABITUM", 
                "format": "text/plain"
            }
        }, 
        {
            "@id": "https://manifests.teklia.com/HIMANIS/JJ195/words_annotations/FRAN_0200_09740.json/43/line", 
            "@type": "oa:Annotation", 
            "motivation": "oa:painting", 
            "on": "http://bvmm.irht.cnrs.fr/iiif/23801/canvas/canvas-2347626#xywh=2617,1953,548,224", 
            "resource": {
                "@type": "cnt:ContentAsText", 
                "chars": "MANUM", 
                "format": "text/plain"
            }
        }, 
        {
            "@id": "https://manifests.teklia.com/HIMANIS/JJ195/words_annotations/FRAN_0200_09740.json/44/line", 
            "@type": "oa:Annotation", 
            "motivation": "oa:painting", 
            "on": "http://bvmm.irht.cnrs.fr/iiif/23801/canvas/canvas-2347626#xywh=1480,372,805,498", 
            "resource": {
                "@type": "cnt:ContentAsText", 
                "chars": "DICTI", 
                "format": "text/plain"
            }
        }, 
        {
            "@id": "https://manifests.teklia.com/HIMANIS/JJ195/words_annotations/FRAN_0200_09740.json/45/line", 
            "@type": "oa:Annotation", 
            "motivation": "oa:painting", 
            "on": "http://bvmm.irht.cnrs.fr/iiif/23801/canvas/canvas-2347626#xywh=3277,1953,352,224", 
            "resource": {
                "@type": "cnt:ContentAsText", 
                "chars": "CHOSES", 
                "format": "text/plain"
            }
        }, 
        {
            "@id": "https://manifests.teklia.com/HIMANIS/JJ195/words_annotations/FRAN_0200_09740.json/46/line", 
            "@type": "oa:Annotation", 
            "motivation": "oa:painting", 
            "on": "http://bvmm.irht.cnrs.fr/iiif/23801/canvas/canvas-2347626#xywh=3849,3728,179,261", 
            "resource": {
                "@type": "cnt:ContentAsText", 
                "chars": "ILLUM", 
                "format": "text/plain"
            }
        }, 
        {
            "@id": "https://manifests.teklia.com/HIMANIS/JJ195/words_annotations/FRAN_0200_09740.json/47/line", 
            "@type": "oa:Annotation", 
            "motivation": "oa:painting", 
            "on": "http://bvmm.irht.cnrs.fr/iiif/23801/canvas/canvas-2347626#xywh=1024,3132,2435,586", 
            "resource": {
                "@type": "cnt:ContentAsText", 
                "chars": "ET", 
                "format": "text/plain"
            }
        }, 
        {
            "@id": "https://manifests.teklia.com/HIMANIS/JJ195/words_annotations/FRAN_0200_09740.json/48/line", 
            "@type": "oa:Annotation", 
            "motivation": "oa:painting", 
            "on": "http://bvmm.irht.cnrs.fr/iiif/23801/canvas/canvas-2347626#xywh=852,2757,2817,592", 
            "resource": {
                "@type": "cnt:ContentAsText", 
                "chars": "DROIT", 
                "format": "text/plain"
            }
        }, 
        {
            "@id": "https://manifests.teklia.com/HIMANIS/JJ195/words_annotations/FRAN_0200_09740.json/49/line", 
            "@type": "oa:Annotation", 
            "motivation": "oa:painting", 
            "on": "http://bvmm.irht.cnrs.fr/iiif/23801/canvas/canvas-2347626#xywh=832,1953,295,224", 
            "resource": {
                "@type": "cnt:ContentAsText", 
                "chars": "DITE", 
                "format": "text/plain"
            }
        }, 
        {
            "@id": "https://manifests.teklia.com/HIMANIS/JJ195/words_annotations/FRAN_0200_09740.json/50/line", 
            "@type": "oa:Annotation", 
            "motivation": "oa:painting", 
            "on": "http://bvmm.irht.cnrs.fr/iiif/23801/canvas/canvas-2347626#xywh=334,2757,3002,592", 
            "resource": {
                "@type": "cnt:ContentAsText", 
                "chars": "DITE", 
                "format": "text/plain"
            }
        }, 
        {
            "@id": "https://manifests.teklia.com/HIMANIS/JJ195/words_annotations/FRAN_0200_09740.json/51/line", 
            "@type": "oa:Annotation", 
            "motivation": "oa:painting", 
            "on": "http://bvmm.irht.cnrs.fr/iiif/23801/canvas/canvas-2347626#xywh=1224,2017,531,353", 
            "resource": {
                "@type": "cnt:ContentAsText", 
                "chars": "PARISSIMI", 
                "format": "text/plain"
            }
        }, 
        {
            "@id": "https://manifests.teklia.com/HIMANIS/JJ195/words_annotations/FRAN_0200_09740.json/52/line", 
            "@type": "oa:Annotation", 
            "motivation": "oa:painting", 
            "on": "http://bvmm.irht.cnrs.fr/iiif/23801/canvas/canvas-2347626#xywh=2111,1953,787,224", 
            "resource": {
                "@type": "cnt:ContentAsText", 
                "chars": "INSTRUM", 
                "format": "text/plain"
            }
        }, 
        {
            "@id": "https://manifests.teklia.com/HIMANIS/JJ195/words_annotations/FRAN_0200_09740.json/53/line", 
            "@type": "oa:Annotation", 
            "motivation": "oa:painting", 
            "on": "http://bvmm.irht.cnrs.fr/iiif/23801/canvas/canvas-2347626#xywh=1352,3772,211,187", 
            "resource": {
                "@type": "cnt:ContentAsText", 
                "chars": "DELIBERE", 
                "format": "text/plain"
            }
        }, 
        {
            "@id": "https://manifests.teklia.com/HIMANIS/JJ195/words_annotations/FRAN_0200_09740.json/54/line", 
            "@type": "oa:Annotation", 
            "motivation": "oa:painting", 
            "on": "http://bvmm.irht.cnrs.fr/iiif/23801/canvas/canvas-2347626#xywh=1061,437,1411,785", 
            "resource": {
                "@type": "cnt:ContentAsText", 
                "chars": "SONT", 
                "format": "text/plain"
            }
        }, 
        {
            "@id": "https://manifests.teklia.com/HIMANIS/JJ195/words_annotations/FRAN_0200_09740.json/55/line", 
            "@type": "oa:Annotation", 
            "motivation": "oa:painting", 
            "on": "http://bvmm.irht.cnrs.fr/iiif/23801/canvas/canvas-2347626#xywh=3462,372,341,498", 
            "resource": {
                "@type": "cnt:ContentAsText", 
                "chars": "SALVO", 
                "format": "text/plain"
            }
        }, 
        {
            "@id": "https://manifests.teklia.com/HIMANIS/JJ195/words_annotations/FRAN_0200_09740.json/56/line", 
            "@type": "oa:Annotation", 
            "motivation": "oa:painting", 
            "on": "http://bvmm.irht.cnrs.fr/iiif/23801/canvas/canvas-2347626#xywh=1738,3772,94,187", 
            "resource": {
                "@type": "cnt:ContentAsText", 
                "chars": "FUISSEMUS", 
                "format": "text/plain"
            }
        }, 
        {
            "@id": "https://manifests.teklia.com/HIMANIS/JJ195/words_annotations/FRAN_0200_09740.json/57/line", 
            "@type": "oa:Annotation", 
            "motivation": "oa:painting", 
            "on": "http://bvmm.irht.cnrs.fr/iiif/23801/canvas/canvas-2347626#xywh=1024,3132,1454,586", 
            "resource": {
                "@type": "cnt:ContentAsText", 
                "chars": "DICTE", 
                "format": "text/plain"
            }
        }, 
        {
            "@id": "https://manifests.teklia.com/HIMANIS/JJ195/words_annotations/FRAN_0200_09740.json/58/line", 
            "@type": "oa:Annotation", 
            "motivation": "oa:painting", 
            "on": "http://bvmm.irht.cnrs.fr/iiif/23801/canvas/canvas-2347626#xywh=334,2757,2186,592", 
            "resource": {
                "@type": "cnt:ContentAsText", 
                "chars": "DEDENDUZ", 
                "format": "text/plain"
            }
        }, 
        {
            "@id": "https://manifests.teklia.com/HIMANIS/JJ195/words_annotations/FRAN_0200_09740.json/59/line", 
            "@type": "oa:Annotation", 
            "motivation": "oa:painting", 
            "on": "http://bvmm.irht.cnrs.fr/iiif/23801/canvas/canvas-2347626#xywh=1879,3772,152,187", 
            "resource": {
                "@type": "cnt:ContentAsText", 
                "chars": "PRESENT", 
                "format": "text/plain"
            }
        }, 
        {
            "@id": "https://manifests.teklia.com/HIMANIS/JJ195/words_annotations/FRAN_0200_09740.json/60/line", 
            "@type": "oa:Annotation", 
            "motivation": "oa:painting", 
            "on": "http://bvmm.irht.cnrs.fr/iiif/23801/canvas/canvas-2347626#xywh=1738,3772,70,187", 
            "resource": {
                "@type": "cnt:ContentAsText", 
                "chars": "FUTURUM", 
                "format": "text/plain"
            }
        }, 
        {
            "@id": "https://manifests.teklia.com/HIMANIS/JJ195/words_annotations/FRAN_0200_09740.json/61/line", 
            "@type": "oa:Annotation", 
            "motivation": "oa:painting", 
            "on": "http://bvmm.irht.cnrs.fr/iiif/23801/canvas/canvas-2347626#xywh=1224,2017,155,353", 
            "resource": {
                "@type": "cnt:ContentAsText", 
                "chars": "DE", 
                "format": "text/plain"
            }
        }, 
        {
            "@id": "https://manifests.teklia.com/HIMANIS/JJ195/words_annotations/FRAN_0200_09740.json/62/line", 
            "@type": "oa:Annotation", 
            "motivation": "oa:painting", 
            "on": "http://bvmm.irht.cnrs.fr/iiif/23801/canvas/canvas-2347626#xywh=94,79,341,76", 
            "resource": {
                "@type": "cnt:ContentAsText", 
                "chars": "PH", 
                "format": "text/plain"
            }
        }, 
        {
            "@id": "https://manifests.teklia.com/HIMANIS/JJ195/words_annotations/FRAN_0200_09740.json/63/line", 
            "@type": "oa:Annotation", 
            "motivation": "oa:painting", 
            "on": "http://bvmm.irht.cnrs.fr/iiif/23801/canvas/canvas-2347626#xywh=2347,3772,105,187", 
            "resource": {
                "@type": "cnt:ContentAsText", 
                "chars": "FUTURIS", 
                "format": "text/plain"
            }
        }, 
        {
            "@id": "https://manifests.teklia.com/HIMANIS/JJ195/words_annotations/FRAN_0200_09740.json/64/line", 
            "@type": "oa:Annotation", 
            "motivation": "oa:painting", 
            "on": "http://bvmm.irht.cnrs.fr/iiif/23801/canvas/canvas-2347626#xywh=2861,2017,398,353", 
            "resource": {
                "@type": "cnt:ContentAsText", 
                "chars": "UNUM", 
                "format": "text/plain"
            }
        }, 
        {
            "@id": "https://manifests.teklia.com/HIMANIS/JJ195/words_annotations/FRAN_0200_09740.json/65/line", 
            "@type": "oa:Annotation", 
            "motivation": "oa:painting", 
            "on": "http://bvmm.irht.cnrs.fr/iiif/23801/canvas/canvas-2347626#xywh=884,2172,2514,545", 
            "resource": {
                "@type": "cnt:ContentAsText", 
                "chars": "DIT", 
                "format": "text/plain"
            }
        }, 
        {
            "@id": "https://manifests.teklia.com/HIMANIS/JJ195/words_annotations/FRAN_0200_09740.json/66/line", 
            "@type": "oa:Annotation", 
            "motivation": "oa:painting", 
            "on": "http://bvmm.irht.cnrs.fr/iiif/23801/canvas/canvas-2347626#xywh=680,2172,2344,545", 
            "resource": {
                "@type": "cnt:ContentAsText", 
                "chars": "DES", 
                "format": "text/plain"
            }
        }, 
        {
            "@id": "https://manifests.teklia.com/HIMANIS/JJ195/words_annotations/FRAN_0200_09740.json/67/line", 
            "@type": "oa:Annotation", 
            "motivation": "oa:painting", 
            "on": "http://bvmm.irht.cnrs.fr/iiif/23801/canvas/canvas-2347626#xywh=884,2172,2616,545", 
            "resource": {
                "@type": "cnt:ContentAsText", 
                "chars": "DIZ", 
                "format": "text/plain"
            }
        }, 
        {
            "@id": "https://manifests.teklia.com/HIMANIS/JJ195/words_annotations/FRAN_0200_09740.json/68/line", 
            "@type": "oa:Annotation", 
            "motivation": "oa:painting", 
            "on": "http://bvmm.irht.cnrs.fr/iiif/23801/canvas/canvas-2347626#xywh=1998,2017,354,353", 
            "resource": {
                "@type": "cnt:ContentAsText", 
                "chars": "SUIS", 
                "format": "text/plain"
            }
        }, 
        {
            "@id": "https://manifests.teklia.com/HIMANIS/JJ195/words_annotations/FRAN_0200_09740.json/69/line", 
            "@type": "oa:Annotation", 
            "motivation": "oa:painting", 
            "on": "http://bvmm.irht.cnrs.fr/iiif/23801/canvas/canvas-2347626#xywh=747,3678,0,111", 
            "resource": {
                "@type": "cnt:ContentAsText", 
                "chars": "J", 
                "format": "text/plain"
            }
        }, 
        {
            "@id": "https://manifests.teklia.com/HIMANIS/JJ195/words_annotations/FRAN_0200_09740.json/70/line", 
            "@type": "oa:Annotation", 
            "motivation": "oa:painting", 
            "on": "http://bvmm.irht.cnrs.fr/iiif/23801/canvas/canvas-2347626#xywh=680,2172,1698,545", 
            "resource": {
                "@type": "cnt:ContentAsText", 
                "chars": "LA", 
                "format": "text/plain"
            }
        }, 
        {
            "@id": "https://manifests.teklia.com/HIMANIS/JJ195/words_annotations/FRAN_0200_09740.json/71/line", 
            "@type": "oa:Annotation", 
            "motivation": "oa:painting", 
            "on": "http://bvmm.irht.cnrs.fr/iiif/23801/canvas/canvas-2347626#xywh=627,1594,3322,513", 
            "resource": {
                "@type": "cnt:ContentAsText", 
                "chars": "TE", 
                "format": "text/plain"
            }
        }, 
        {
            "@id": "https://manifests.teklia.com/HIMANIS/JJ195/words_annotations/FRAN_0200_09740.json/72/line", 
            "@type": "oa:Annotation", 
            "motivation": "oa:painting", 
            "on": "http://bvmm.irht.cnrs.fr/iiif/23801/canvas/canvas-2347626#xywh=747,3678,0,111", 
            "resource": {
                "@type": "cnt:ContentAsText", 
                "chars": "P", 
                "format": "text/plain"
            }
        }, 
        {
            "@id": "https://manifests.teklia.com/HIMANIS/JJ195/words_annotations/FRAN_0200_09740.json/73/line", 
            "@type": "oa:Annotation", 
            "motivation": "oa:painting", 
            "on": "http://bvmm.irht.cnrs.fr/iiif/23801/canvas/canvas-2347626#xywh=680,2172,917,545", 
            "resource": {
                "@type": "cnt:ContentAsText", 
                "chars": "LE", 
                "format": "text/plain"
            }
        }, 
        {
            "@id": "https://manifests.teklia.com/HIMANIS/JJ195/words_annotations/FRAN_0200_09740.json/74/line", 
            "@type": "oa:Annotation", 
            "motivation": "oa:painting", 
            "on": "http://bvmm.irht.cnrs.fr/iiif/23801/canvas/canvas-2347626#xywh=884,2172,2310,545", 
            "resource": {
                "@type": "cnt:ContentAsText", 
                "chars": "DE", 
                "format": "text/plain"
            }
        }, 
        {
            "@id": "https://manifests.teklia.com/HIMANIS/JJ195/words_annotations/FRAN_0200_09740.json/75/line", 
            "@type": "oa:Annotation", 
            "motivation": "oa:painting", 
            "on": "http://bvmm.irht.cnrs.fr/iiif/23801/canvas/canvas-2347626#xywh=627,1594,3322,513", 
            "resource": {
                "@type": "cnt:ContentAsText", 
                "chars": "DE", 
                "format": "text/plain"
            }
        }, 
        {
            "@id": "https://manifests.teklia.com/HIMANIS/JJ195/words_annotations/FRAN_0200_09740.json/76/line", 
            "@type": "oa:Annotation", 
            "motivation": "oa:painting", 
            "on": "http://bvmm.irht.cnrs.fr/iiif/23801/canvas/canvas-2347626#xywh=1061,437,2432,785", 
            "resource": {
                "@type": "cnt:ContentAsText", 
                "chars": "DE", 
                "format": "text/plain"
            }
        }, 
        {
            "@id": "https://manifests.teklia.com/HIMANIS/JJ195/words_annotations/FRAN_0200_09740.json/77/line", 
            "@type": "oa:Annotation", 
            "motivation": "oa:painting", 
            "on": "http://bvmm.irht.cnrs.fr/iiif/23801/canvas/canvas-2347626#xywh=680,2172,2242,545", 
            "resource": {
                "@type": "cnt:ContentAsText", 
                "chars": "DU", 
                "format": "text/plain"
            }
        }, 
        {
            "@id": "https://manifests.teklia.com/HIMANIS/JJ195/words_annotations/FRAN_0200_09740.json/78/line", 
            "@type": "oa:Annotation", 
            "motivation": "oa:painting", 
            "on": "http://bvmm.irht.cnrs.fr/iiif/23801/canvas/canvas-2347626#xywh=1061,437,2238,785", 
            "resource": {
                "@type": "cnt:ContentAsText", 
                "chars": "DU", 
                "format": "text/plain"
            }
        }, 
        {
            "@id": "https://manifests.teklia.com/HIMANIS/JJ195/words_annotations/FRAN_0200_09740.json/79/line", 
            "@type": "oa:Annotation", 
            "motivation": "oa:painting", 
            "on": "http://bvmm.irht.cnrs.fr/iiif/23801/canvas/canvas-2347626#xywh=1352,3772,47,187", 
            "resource": {
                "@type": "cnt:ContentAsText", 
                "chars": "OU", 
                "format": "text/plain"
            }
        }, 
        {
            "@id": "https://manifests.teklia.com/HIMANIS/JJ195/words_annotations/FRAN_0200_09740.json/80/line", 
            "@type": "oa:Annotation", 
            "motivation": "oa:painting", 
            "on": "http://bvmm.irht.cnrs.fr/iiif/23801/canvas/canvas-2347626#xywh=1085,3874,513,222", 
            "resource": {
                "@type": "cnt:ContentAsText", 
                "chars": "DIT", 
                "format": "text/plain"
            }
        }, 
        {
            "@id": "https://manifests.teklia.com/HIMANIS/JJ195/words_annotations/FRAN_0200_09740.json/81/line", 
            "@type": "oa:Annotation", 
            "motivation": "oa:painting", 
            "on": "http://bvmm.irht.cnrs.fr/iiif/23801/canvas/canvas-2347626#xywh=1738,3772,94,187", 
            "resource": {
                "@type": "cnt:ContentAsText", 
                "chars": "FUISSIMUS", 
                "format": "text/plain"
            }
        }, 
        {
            "@id": "https://manifests.teklia.com/HIMANIS/JJ195/words_annotations/FRAN_0200_09740.json/82/line", 
            "@type": "oa:Annotation", 
            "motivation": "oa:painting", 
            "on": "http://bvmm.irht.cnrs.fr/iiif/23801/canvas/canvas-2347626#xywh=2688,372,681,498", 
            "resource": {
                "@type": "cnt:ContentAsText", 
                "chars": "FAIRE", 
                "format": "text/plain"
            }
        }, 
        {
            "@id": "https://manifests.teklia.com/HIMANIS/JJ195/words_annotations/FRAN_0200_09740.json/83/line", 
            "@type": "oa:Annotation", 
            "motivation": "oa:painting", 
            "on": "http://bvmm.irht.cnrs.fr/iiif/23801/canvas/canvas-2347626#xywh=1879,3772,316,187", 
            "resource": {
                "@type": "cnt:ContentAsText", 
                "chars": "AURENTUM", 
                "format": "text/plain"
            }
        }, 
        {
            "@id": "https://manifests.teklia.com/HIMANIS/JJ195/words_annotations/FRAN_0200_09740.json/84/line", 
            "@type": "oa:Annotation", 
            "motivation": "oa:painting", 
            "on": "http://bvmm.irht.cnrs.fr/iiif/23801/canvas/canvas-2347626#xywh=884,2172,2514,545", 
            "resource": {
                "@type": "cnt:ContentAsText", 
                "chars": "DITE", 
                "format": "text/plain"
            }
        }, 
        {
            "@id": "https://manifests.teklia.com/HIMANIS/JJ195/words_annotations/FRAN_0200_09740.json/85/line", 
            "@type": "oa:Annotation", 
            "motivation": "oa:painting", 
            "on": "http://bvmm.irht.cnrs.fr/iiif/23801/canvas/canvas-2347626#xywh=1224,2017,708,353", 
            "resource": {
                "@type": "cnt:ContentAsText", 
                "chars": "DOMINI", 
                "format": "text/plain"
            }
        }, 
        {
            "@id": "https://manifests.teklia.com/HIMANIS/JJ195/words_annotations/FRAN_0200_09740.json/86/line", 
            "@type": "oa:Annotation", 
            "motivation": "oa:painting", 
            "on": "http://bvmm.irht.cnrs.fr/iiif/23801/canvas/canvas-2347626#xywh=1024,3132,2617,586", 
            "resource": {
                "@type": "cnt:ContentAsText", 
                "chars": "DITES", 
                "format": "text/plain"
            }
        }, 
        {
            "@id": "https://manifests.teklia.com/HIMANIS/JJ195/words_annotations/FRAN_0200_09740.json/87/line", 
            "@type": "oa:Annotation", 
            "motivation": "oa:painting", 
            "on": "http://bvmm.irht.cnrs.fr/iiif/23801/canvas/canvas-2347626#xywh=1480,372,867,498", 
            "resource": {
                "@type": "cnt:ContentAsText", 
                "chars": "DICTIS", 
                "format": "text/plain"
            }
        }, 
        {
            "@id": "https://manifests.teklia.com/HIMANIS/JJ195/words_annotations/FRAN_0200_09740.json/88/line", 
            "@type": "oa:Annotation", 
            "motivation": "oa:painting", 
            "on": "http://bvmm.irht.cnrs.fr/iiif/23801/canvas/canvas-2347626#xywh=832,1953,281,224", 
            "resource": {
                "@type": "cnt:ContentAsText", 
                "chars": "DIT", 
                "format": "text/plain"
            }
        }, 
        {
            "@id": "https://manifests.teklia.com/HIMANIS/JJ195/words_annotations/FRAN_0200_09740.json/89/line", 
            "@type": "oa:Annotation", 
            "motivation": "oa:painting", 
            "on": "http://bvmm.irht.cnrs.fr/iiif/23801/canvas/canvas-2347626#xywh=660,3132,218,586", 
            "resource": {
                "@type": "cnt:ContentAsText", 
                "chars": "LIVRES", 
                "format": "text/plain"
            }
        }, 
        {
            "@id": "https://manifests.teklia.com/HIMANIS/JJ195/words_annotations/FRAN_0200_09740.json/90/line", 
            "@type": "oa:Annotation", 
            "motivation": "oa:painting", 
            "on": "http://bvmm.irht.cnrs.fr/iiif/23801/canvas/canvas-2347626#xywh=2143,78,416,31", 
            "resource": {
                "@type": "cnt:ContentAsText", 
                "chars": "FACIAN", 
                "format": "text/plain"
            }
        }, 
        {
            "@id": "https://manifests.teklia.com/HIMANIS/JJ195/words_annotations/FRAN_0200_09740.json/91/line", 
            "@type": "oa:Annotation", 
            "motivation": "oa:painting", 
            "on": "http://bvmm.irht.cnrs.fr/iiif/23801/canvas/canvas-2347626#xywh=1071,3772,117,187", 
            "resource": {
                "@type": "cnt:ContentAsText", 
                "chars": "GRACE", 
                "format": "text/plain"
            }
        }, 
        {
            "@id": "https://manifests.teklia.com/HIMANIS/JJ195/words_annotations/FRAN_0200_09740.json/92/line", 
            "@type": "oa:Annotation", 
            "motivation": "oa:painting", 
            "on": "http://bvmm.irht.cnrs.fr/iiif/23801/canvas/canvas-2347626#xywh=1071,3874,305,222", 
            "resource": {
                "@type": "cnt:ContentAsText", 
                "chars": "PARISIUS", 
                "format": "text/plain"
            }
        }, 
        {
            "@id": "https://manifests.teklia.com/HIMANIS/JJ195/words_annotations/FRAN_0200_09740.json/93/line", 
            "@type": "oa:Annotation", 
            "motivation": "oa:painting", 
            "on": "http://bvmm.irht.cnrs.fr/iiif/23801/canvas/canvas-2347626#xywh=488,3874,472,222", 
            "resource": {
                "@type": "cnt:ContentAsText", 
                "chars": "DOMINAL", 
                "format": "text/plain"
            }
        }, 
        {
            "@id": "https://manifests.teklia.com/HIMANIS/JJ195/words_annotations/FRAN_0200_09740.json/94/line", 
            "@type": "oa:Annotation", 
            "motivation": "oa:painting", 
            "on": "http://bvmm.irht.cnrs.fr/iiif/23801/canvas/canvas-2347626#xywh=334,2757,2891,592", 
            "resource": {
                "@type": "cnt:ContentAsText", 
                "chars": "DEDENZ", 
                "format": "text/plain"
            }
        }, 
        {
            "@id": "https://manifests.teklia.com/HIMANIS/JJ195/words_annotations/FRAN_0200_09740.json/95/line", 
            "@type": "oa:Annotation", 
            "motivation": "oa:painting", 
            "on": "http://bvmm.irht.cnrs.fr/iiif/23801/canvas/canvas-2347626#xywh=2167,1953,998,224", 
            "resource": {
                "@type": "cnt:ContentAsText", 
                "chars": "QUAM", 
                "format": "text/plain"
            }
        }, 
        {
            "@id": "https://manifests.teklia.com/HIMANIS/JJ195/words_annotations/FRAN_0200_09740.json/96/line", 
            "@type": "oa:Annotation", 
            "motivation": "oa:painting", 
            "on": "http://bvmm.irht.cnrs.fr/iiif/23801/canvas/canvas-2347626#xywh=1563,1953,646,224", 
            "resource": {
                "@type": "cnt:ContentAsText", 
                "chars": "LETTRES", 
                "format": "text/plain"
            }
        }, 
        {
            "@id": "https://manifests.teklia.com/HIMANIS/JJ195/words_annotations/FRAN_0200_09740.json/97/line", 
            "@type": "oa:Annotation", 
            "motivation": "oa:painting", 
            "on": "http://bvmm.irht.cnrs.fr/iiif/23801/canvas/canvas-2347626#xywh=790,1953,42,224", 
            "resource": {
                "@type": "cnt:ContentAsText", 
                "chars": "PHILIPPES", 
                "format": "text/plain"
            }
        }, 
        {
            "@id": "https://manifests.teklia.com/HIMANIS/JJ195/words_annotations/FRAN_0200_09740.json/98/line", 
            "@type": "oa:Annotation", 
            "motivation": "oa:painting", 
            "on": "http://bvmm.irht.cnrs.fr/iiif/23801/canvas/canvas-2347626#xywh=3410,3728,130,261", 
            "resource": {
                "@type": "cnt:ContentAsText", 
                "chars": "DE", 
                "format": "text/plain"
            }
        }, 
        {
            "@id": "https://manifests.teklia.com/HIMANIS/JJ195/words_annotations/FRAN_0200_09740.json/99/line", 
            "@type": "oa:Annotation", 
            "motivation": "oa:painting", 
            "on": "http://bvmm.irht.cnrs.fr/iiif/23801/canvas/canvas-2347626#xywh=1024,3132,2508,586", 
            "resource": {
                "@type": "cnt:ContentAsText", 
                "chars": "DITE", 
                "format": "text/plain"
            }
        }, 
        {
            "@id": "https://manifests.teklia.com/HIMANIS/JJ195/words_annotations/FRAN_0200_09740.json/100/line", 
            "@type": "oa:Annotation", 
            "motivation": "oa:painting", 
            "on": "http://bvmm.irht.cnrs.fr/iiif/23801/canvas/canvas-2347626#xywh=1071,3874,208,222", 
            "resource": {
                "@type": "cnt:ContentAsText", 
                "chars": "POITIERS", 
                "format": "text/plain"
            }
        }, 
        {
            "@id": "https://manifests.teklia.com/HIMANIS/JJ195/words_annotations/FRAN_0200_09740.json/101/line", 
            "@type": "oa:Annotation", 
            "motivation": "oa:painting", 
            "on": "http://bvmm.irht.cnrs.fr/iiif/23801/canvas/canvas-2347626#xywh=1061,437,1362,785", 
            "resource": {
                "@type": "cnt:ContentAsText", 
                "chars": "ONT", 
                "format": "text/plain"
            }
        }, 
        {
            "@id": "https://manifests.teklia.com/HIMANIS/JJ195/words_annotations/FRAN_0200_09740.json/102/line", 
            "@type": "oa:Annotation", 
            "motivation": "oa:painting", 
            "on": "http://bvmm.irht.cnrs.fr/iiif/23801/canvas/canvas-2347626#xywh=1998,2017,0,353", 
            "resource": {
                "@type": "cnt:ContentAsText", 
                "chars": "ET", 
                "format": "text/plain"
            }
        }, 
        {
            "@id": "https://manifests.teklia.com/HIMANIS/JJ195/words_annotations/FRAN_0200_09740.json/103/line", 
            "@type": "oa:Annotation", 
            "motivation": "oa:painting", 
            "on": "http://bvmm.irht.cnrs.fr/iiif/23801/canvas/canvas-2347626#xywh=1085,3874,444,222", 
            "resource": {
                "@type": "cnt:ContentAsText", 
                "chars": "LA", 
                "format": "text/plain"
            }
        }, 
        {
            "@id": "https://manifests.teklia.com/HIMANIS/JJ195/words_annotations/FRAN_0200_09740.json/104/line", 
            "@type": "oa:Annotation", 
            "motivation": "oa:painting", 
            "on": "http://bvmm.irht.cnrs.fr/iiif/23801/canvas/canvas-2347626#xywh=1071,3874,208,222", 
            "resource": {
                "@type": "cnt:ContentAsText", 
                "chars": "DE", 
                "format": "text/plain"
            }
        }, 
        {
            "@id": "https://manifests.teklia.com/HIMANIS/JJ195/words_annotations/FRAN_0200_09740.json/105/line", 
            "@type": "oa:Annotation", 
            "motivation": "oa:painting", 
            "on": "http://bvmm.irht.cnrs.fr/iiif/23801/canvas/canvas-2347626#xywh=2424,3738,197,289", 
            "resource": {
                "@type": "cnt:ContentAsText", 
                "chars": "DE", 
                "format": "text/plain"
            }
        }, 
        {
            "@id": "https://manifests.teklia.com/HIMANIS/JJ195/words_annotations/FRAN_0200_09740.json/106/line", 
            "@type": "oa:Annotation", 
            "motivation": "oa:painting", 
            "on": "http://bvmm.irht.cnrs.fr/iiif/23801/canvas/canvas-2347626#xywh=2334,3738,682,289", 
            "resource": {
                "@type": "cnt:ContentAsText", 
                "chars": "FAIRE", 
                "format": "text/plain"
            }
        }, 
        {
            "@id": "https://manifests.teklia.com/HIMANIS/JJ195/words_annotations/FRAN_0200_09740.json/107/line", 
            "@type": "oa:Annotation", 
            "motivation": "oa:painting", 
            "on": "http://bvmm.irht.cnrs.fr/iiif/23801/canvas/canvas-2347626#xywh=3635,2017,442,353", 
            "resource": {
                "@type": "cnt:ContentAsText", 
                "chars": "QUI", 
                "format": "text/plain"
            }
        }, 
        {
            "@id": "https://manifests.teklia.com/HIMANIS/JJ195/words_annotations/FRAN_0200_09740.json/108/line", 
            "@type": "oa:Annotation", 
            "motivation": "oa:painting", 
            "on": "http://bvmm.irht.cnrs.fr/iiif/23801/canvas/canvas-2347626#xywh=884,2172,2616,545", 
            "resource": {
                "@type": "cnt:ContentAsText", 
                "chars": "DITES", 
                "format": "text/plain"
            }
        }, 
        {
            "@id": "https://manifests.teklia.com/HIMANIS/JJ195/words_annotations/FRAN_0200_09740.json/109/line", 
            "@type": "oa:Annotation", 
            "motivation": "oa:painting", 
            "on": "http://bvmm.irht.cnrs.fr/iiif/23801/canvas/canvas-2347626#xywh=3348,1953,140,224", 
            "resource": {
                "@type": "cnt:ContentAsText", 
                "chars": "SUIS", 
                "format": "text/plain"
            }
        }, 
        {
            "@id": "https://manifests.teklia.com/HIMANIS/JJ195/words_annotations/FRAN_0200_09740.json/110/line", 
            "@type": "oa:Annotation", 
            "motivation": "oa:painting", 
            "on": "http://bvmm.irht.cnrs.fr/iiif/23801/canvas/canvas-2347626#xywh=2409,372,589,498", 
            "resource": {
                "@type": "cnt:ContentAsText", 
                "chars": "PARISIE", 
                "format": "text/plain"
            }
        }, 
        {
            "@id": "https://manifests.teklia.com/HIMANIS/JJ195/words_annotations/FRAN_0200_09740.json/111/line", 
            "@type": "oa:Annotation", 
            "motivation": "oa:painting", 
            "on": "http://bvmm.irht.cnrs.fr/iiif/23801/canvas/canvas-2347626#xywh=2688,372,681,498", 
            "resource": {
                "@type": "cnt:ContentAsText", 
                "chars": "PARIS", 
                "format": "text/plain"
            }
        }, 
        {
            "@id": "https://manifests.teklia.com/HIMANIS/JJ195/words_annotations/FRAN_0200_09740.json/112/line", 
            "@type": "oa:Annotation", 
            "motivation": "oa:painting", 
            "on": "http://bvmm.irht.cnrs.fr/iiif/23801/canvas/canvas-2347626#xywh=3052,3738,0,289", 
            "resource": {
                "@type": "cnt:ContentAsText", 
                "chars": "DU", 
                "format": "text/plain"
            }
        }, 
        {
            "@id": "https://manifests.teklia.com/HIMANIS/JJ195/words_annotations/FRAN_0200_09740.json/113/line", 
            "@type": "oa:Annotation", 
            "motivation": "oa:painting", 
            "on": "http://bvmm.irht.cnrs.fr/iiif/23801/canvas/canvas-2347626#xywh=334,2757,3372,592", 
            "resource": {
                "@type": "cnt:ContentAsText", 
                "chars": "DES", 
                "format": "text/plain"
            }
        }, 
        {
            "@id": "https://manifests.teklia.com/HIMANIS/JJ195/words_annotations/FRAN_0200_09740.json/114/line", 
            "@type": "oa:Annotation", 
            "motivation": "oa:painting", 
            "on": "http://bvmm.irht.cnrs.fr/iiif/23801/canvas/canvas-2347626#xywh=334,2757,2965,592", 
            "resource": {
                "@type": "cnt:ContentAsText", 
                "chars": "DIZ", 
                "format": "text/plain"
            }
        }, 
        {
            "@id": "https://manifests.teklia.com/HIMANIS/JJ195/words_annotations/FRAN_0200_09740.json/115/line", 
            "@type": "oa:Annotation", 
            "motivation": "oa:painting", 
            "on": "http://bvmm.irht.cnrs.fr/iiif/23801/canvas/canvas-2347626#xywh=1001,3874,361,222", 
            "resource": {
                "@type": "cnt:ContentAsText", 
                "chars": "POUR", 
                "format": "text/plain"
            }
        }, 
        {
            "@id": "https://manifests.teklia.com/HIMANIS/JJ195/words_annotations/FRAN_0200_09740.json/116/line", 
            "@type": "oa:Annotation", 
            "motivation": "oa:painting", 
            "on": "http://bvmm.irht.cnrs.fr/iiif/23801/canvas/canvas-2347626#xywh=884,2172,1562,545", 
            "resource": {
                "@type": "cnt:ContentAsText", 
                "chars": "MANIE", 
                "format": "text/plain"
            }
        }, 
        {
            "@id": "https://manifests.teklia.com/HIMANIS/JJ195/words_annotations/FRAN_0200_09740.json/117/line", 
            "@type": "oa:Annotation", 
            "motivation": "oa:painting", 
            "on": "http://bvmm.irht.cnrs.fr/iiif/23801/canvas/canvas-2347626#xywh=3412,3738,215,289", 
            "resource": {
                "@type": "cnt:ContentAsText", 
                "chars": "NOUS", 
                "format": "text/plain"
            }
        }, 
        {
            "@id": "https://manifests.teklia.com/HIMANIS/JJ195/words_annotations/FRAN_0200_09740.json/118/line", 
            "@type": "oa:Annotation", 
            "motivation": "oa:painting", 
            "on": "http://bvmm.irht.cnrs.fr/iiif/23801/canvas/canvas-2347626#xywh=627,1594,1629,513", 
            "resource": {
                "@type": "cnt:ContentAsText", 
                "chars": "ET", 
                "format": "text/plain"
            }
        }, 
        {
            "@id": "https://manifests.teklia.com/HIMANIS/JJ195/words_annotations/FRAN_0200_09740.json/119/line", 
            "@type": "oa:Annotation", 
            "motivation": "oa:painting", 
            "on": "http://bvmm.irht.cnrs.fr/iiif/23801/canvas/canvas-2347626#xywh=1024,3772,47,187", 
            "resource": {
                "@type": "cnt:ContentAsText", 
                "chars": "LA", 
                "format": "text/plain"
            }
        }, 
        {
            "@id": "https://manifests.teklia.com/HIMANIS/JJ195/words_annotations/FRAN_0200_09740.json/120/line", 
            "@type": "oa:Annotation", 
            "motivation": "oa:painting", 
            "on": "http://bvmm.irht.cnrs.fr/iiif/23801/canvas/canvas-2347626#xywh=672,437,2529,785", 
            "resource": {
                "@type": "cnt:ContentAsText", 
                "chars": "ET", 
                "format": "text/plain"
            }
        }, 
        {
            "@id": "https://manifests.teklia.com/HIMANIS/JJ195/words_annotations/FRAN_0200_09740.json/121/line", 
            "@type": "oa:Annotation", 
            "motivation": "oa:painting", 
            "on": "http://bvmm.irht.cnrs.fr/iiif/23801/canvas/canvas-2347626#xywh=2617,1953,745,224", 
            "resource": {
                "@type": "cnt:ContentAsText", 
                "chars": "PREMITTIMUS", 
                "format": "text/plain"
            }
        }, 
        {
            "@id": "https://manifests.teklia.com/HIMANIS/JJ195/words_annotations/FRAN_0200_09740.json/122/line", 
            "@type": "oa:Annotation", 
            "motivation": "oa:painting", 
            "on": "http://bvmm.irht.cnrs.fr/iiif/23801/canvas/canvas-2347626#xywh=2241,3772,94,187", 
            "resource": {
                "@type": "cnt:ContentAsText", 
                "chars": "LE", 
                "format": "text/plain"
            }
        }, 
        {
            "@id": "https://manifests.teklia.com/HIMANIS/JJ195/words_annotations/FRAN_0200_09740.json/123/line", 
            "@type": "oa:Annotation", 
            "motivation": "oa:painting", 
            "on": "http://bvmm.irht.cnrs.fr/iiif/23801/canvas/canvas-2347626#xywh=2464,3772,105,187", 
            "resource": {
                "@type": "cnt:ContentAsText", 
                "chars": "DE", 
                "format": "text/plain"
            }
        }, 
        {
            "@id": "https://manifests.teklia.com/HIMANIS/JJ195/words_annotations/FRAN_0200_09740.json/124/line", 
            "@type": "oa:Annotation", 
            "motivation": "oa:painting", 
            "on": "http://bvmm.irht.cnrs.fr/iiif/23801/canvas/canvas-2347626#xywh=1998,2017,663,353", 
            "resource": {
                "@type": "cnt:ContentAsText", 
                "chars": "JEHAN", 
                "format": "text/plain"
            }
        }, 
        {
            "@id": "https://manifests.teklia.com/HIMANIS/JJ195/words_annotations/FRAN_0200_09740.json/125/line", 
            "@type": "oa:Annotation", 
            "motivation": "oa:painting", 
            "on": "http://bvmm.irht.cnrs.fr/iiif/23801/canvas/canvas-2347626#xywh=1130,3772,175,187", 
            "resource": {
                "@type": "cnt:ContentAsText", 
                "chars": "DEDIER", 
                "format": "text/plain"
            }
        }, 
        {
            "@id": "https://manifests.teklia.com/HIMANIS/JJ195/words_annotations/FRAN_0200_09740.json/126/line", 
            "@type": "oa:Annotation", 
            "motivation": "oa:painting", 
            "on": "http://bvmm.irht.cnrs.fr/iiif/23801/canvas/canvas-2347626#xywh=1598,3772,117,187", 
            "resource": {
                "@type": "cnt:ContentAsText", 
                "chars": "TANTUM", 
                "format": "text/plain"
            }
        }, 
        {
            "@id": "https://manifests.teklia.com/HIMANIS/JJ195/words_annotations/FRAN_0200_09740.json/127/line", 
            "@type": "oa:Annotation", 
            "motivation": "oa:painting", 
            "on": "http://bvmm.irht.cnrs.fr/iiif/23801/canvas/canvas-2347626#xywh=2143,78,195,31", 
            "resource": {
                "@type": "cnt:ContentAsText", 
                "chars": "EN", 
                "format": "text/plain"
            }
        }, 
        {
            "@id": "https://manifests.teklia.com/HIMANIS/JJ195/words_annotations/FRAN_0200_09740.json/128/line", 
            "@type": "oa:Annotation", 
            "motivation": "oa:painting", 
            "on": "http://bvmm.irht.cnrs.fr/iiif/23801/canvas/canvas-2347626#xywh=3277,1953,408,224", 
            "resource": {
                "@type": "cnt:ContentAsText", 
                "chars": "ET", 
                "format": "text/plain"
            }
        }, 
        {
            "@id": "https://manifests.teklia.com/HIMANIS/JJ195/words_annotations/FRAN_0200_09740.json/129/line", 
            "@type": "oa:Annotation", 
            "motivation": "oa:painting", 
            "on": "http://bvmm.irht.cnrs.fr/iiif/23801/canvas/canvas-2347626#xywh=832,1953,534,224", 
            "resource": {
                "@type": "cnt:ContentAsText", 
                "chars": "AU", 
                "format": "text/plain"
            }
        }, 
        {
            "@id": "https://manifests.teklia.com/HIMANIS/JJ195/words_annotations/FRAN_0200_09740.json/130/line", 
            "@type": "oa:Annotation", 
            "motivation": "oa:painting", 
            "on": "http://bvmm.irht.cnrs.fr/iiif/23801/canvas/canvas-2347626#xywh=2861,2017,663,353", 
            "resource": {
                "@type": "cnt:ContentAsText", 
                "chars": "IMPOSITUM", 
                "format": "text/plain"
            }
        }, 
        {
            "@id": "https://manifests.teklia.com/HIMANIS/JJ195/words_annotations/FRAN_0200_09740.json/131/line", 
            "@type": "oa:Annotation", 
            "motivation": "oa:painting", 
            "on": "http://bvmm.irht.cnrs.fr/iiif/23801/canvas/canvas-2347626#xywh=2143,78,175,31", 
            "resource": {
                "@type": "cnt:ContentAsText", 
                "chars": "ET", 
                "format": "text/plain"
            }
        }, 
        {
            "@id": "https://manifests.teklia.com/HIMANIS/JJ195/words_annotations/FRAN_0200_09740.json/132/line", 
            "@type": "oa:Annotation", 
            "motivation": "oa:painting", 
            "on": "http://bvmm.irht.cnrs.fr/iiif/23801/canvas/canvas-2347626#xywh=2055,1953,843,224", 
            "resource": {
                "@type": "cnt:ContentAsText", 
                "chars": "IPSORUM", 
                "format": "text/plain"
            }
        }, 
        {
            "@id": "https://manifests.teklia.com/HIMANIS/JJ195/words_annotations/FRAN_0200_09740.json/133/line", 
            "@type": "oa:Annotation", 
            "motivation": "oa:painting", 
            "on": "http://bvmm.irht.cnrs.fr/iiif/23801/canvas/canvas-2347626#xywh=1563,1953,309,224", 
            "resource": {
                "@type": "cnt:ContentAsText", 
                "chars": "IPSIUSQUE", 
                "format": "text/plain"
            }
        }, 
        {
            "@id": "https://manifests.teklia.com/HIMANIS/JJ195/words_annotations/FRAN_0200_09740.json/134/line", 
            "@type": "oa:Annotation", 
            "motivation": "oa:painting", 
            "on": "http://bvmm.irht.cnrs.fr/iiif/23801/canvas/canvas-2347626#xywh=2861,2017,729,353", 
            "resource": {
                "@type": "cnt:ContentAsText", 
                "chars": "IMPOSITUME", 
                "format": "text/plain"
            }
        }, 
        {
            "@id": "https://manifests.teklia.com/HIMANIS/JJ195/words_annotations/FRAN_0200_09740.json/135/line", 
            "@type": "oa:Annotation", 
            "motivation": "oa:painting", 
            "on": "http://bvmm.irht.cnrs.fr/iiif/23801/canvas/canvas-2347626#xywh=1169,1953,970,224", 
            "resource": {
                "@type": "cnt:ContentAsText", 
                "chars": "IPSUM", 
                "format": "text/plain"
            }
        }, 
        {
            "@id": "https://manifests.teklia.com/HIMANIS/JJ195/words_annotations/FRAN_0200_09740.json/136/line", 
            "@type": "oa:Annotation", 
            "motivation": "oa:painting", 
            "on": "http://bvmm.irht.cnrs.fr/iiif/23801/canvas/canvas-2347626#xywh=2424,3738,539,289", 
            "resource": {
                "@type": "cnt:ContentAsText", 
                "chars": "FACIMUS", 
                "format": "text/plain"
            }
        }, 
        {
            "@id": "https://manifests.teklia.com/HIMANIS/JJ195/words_annotations/FRAN_0200_09740.json/137/line", 
            "@type": "oa:Annotation", 
            "motivation": "oa:painting", 
            "on": "http://bvmm.irht.cnrs.fr/iiif/23801/canvas/canvas-2347626#xywh=2861,2017,398,353", 
            "resource": {
                "@type": "cnt:ContentAsText", 
                "chars": "INIME", 
                "format": "text/plain"
            }
        }, 
        {
            "@id": "https://manifests.teklia.com/HIMANIS/JJ195/words_annotations/FRAN_0200_09740.json/138/line", 
            "@type": "oa:Annotation", 
            "motivation": "oa:painting", 
            "on": "http://bvmm.irht.cnrs.fr/iiif/23801/canvas/canvas-2347626#xywh=1224,2017,531,353", 
            "resource": {
                "@type": "cnt:ContentAsText", 
                "chars": "PUISSIMI", 
                "format": "text/plain"
            }
        }, 
        {
            "@id": "https://manifests.teklia.com/HIMANIS/JJ195/words_annotations/FRAN_0200_09740.json/139/line", 
            "@type": "oa:Annotation", 
            "motivation": "oa:painting", 
            "on": "http://bvmm.irht.cnrs.fr/iiif/23801/canvas/canvas-2347626#xywh=1480,372,619,498", 
            "resource": {
                "@type": "cnt:ContentAsText", 
                "chars": "ET", 
                "format": "text/plain"
            }
        }, 
        {
            "@id": "https://manifests.teklia.com/HIMANIS/JJ195/words_annotations/FRAN_0200_09740.json/140/line", 
            "@type": "oa:Annotation", 
            "motivation": "oa:painting", 
            "on": "http://bvmm.irht.cnrs.fr/iiif/23801/canvas/canvas-2347626#xywh=1352,3772,199,187", 
            "resource": {
                "@type": "cnt:ContentAsText", 
                "chars": "DELIVRES", 
                "format": "text/plain"
            }
        }, 
        {
            "@id": "https://manifests.teklia.com/HIMANIS/JJ195/words_annotations/FRAN_0200_09740.json/141/line", 
            "@type": "oa:Annotation", 
            "motivation": "oa:painting", 
            "on": "http://bvmm.irht.cnrs.fr/iiif/23801/canvas/canvas-2347626#xywh=3412,3738,179,289", 
            "resource": {
                "@type": "cnt:ContentAsText", 
                "chars": "VOUS", 
                "format": "text/plain"
            }
        }, 
        {
            "@id": "https://manifests.teklia.com/HIMANIS/JJ195/words_annotations/FRAN_0200_09740.json/142/line", 
            "@type": "oa:Annotation", 
            "motivation": "oa:painting", 
            "on": "http://bvmm.irht.cnrs.fr/iiif/23801/canvas/canvas-2347626#xywh=693,2017,531,353", 
            "resource": {
                "@type": "cnt:ContentAsText", 
                "chars": "PHILIPPE", 
                "format": "text/plain"
            }
        }, 
        {
            "@id": "https://manifests.teklia.com/HIMANIS/JJ195/words_annotations/FRAN_0200_09740.json/143/line", 
            "@type": "oa:Annotation", 
            "motivation": "oa:painting", 
            "on": "http://bvmm.irht.cnrs.fr/iiif/23801/canvas/canvas-2347626#xywh=116,2808,372,81", 
            "resource": {
                "@type": "cnt:ContentAsText", 
                "chars": "PHILIPPUS", 
                "format": "text/plain"
            }
        }, 
        {
            "@id": "https://manifests.teklia.com/HIMANIS/JJ195/words_annotations/FRAN_0200_09740.json/144/line", 
            "@type": "oa:Annotation", 
            "motivation": "oa:painting", 
            "on": "http://bvmm.irht.cnrs.fr/iiif/23801/canvas/canvas-2347626#xywh=3277,1953,352,224", 
            "resource": {
                "@type": "cnt:ContentAsText", 
                "chars": "AUS", 
                "format": "text/plain"
            }
        }, 
        {
            "@id": "https://manifests.teklia.com/HIMANIS/JJ195/words_annotations/FRAN_0200_09740.json/145/line", 
            "@type": "oa:Annotation", 
            "motivation": "oa:painting", 
            "on": "http://bvmm.irht.cnrs.fr/iiif/23801/canvas/canvas-2347626#xywh=1563,1953,393,224", 
            "resource": {
                "@type": "cnt:ContentAsText", 
                "chars": "FUTURUM", 
                "format": "text/plain"
            }
        }, 
        {
            "@id": "https://manifests.teklia.com/HIMANIS/JJ195/words_annotations/FRAN_0200_09740.json/146/line", 
            "@type": "oa:Annotation", 
            "motivation": "oa:painting", 
            "on": "http://bvmm.irht.cnrs.fr/iiif/23801/canvas/canvas-2347626#xywh=3088,3738,324,289", 
            "resource": {
                "@type": "cnt:ContentAsText", 
                "chars": "GUILLIS", 
                "format": "text/plain"
            }
        }, 
        {
            "@id": "https://manifests.teklia.com/HIMANIS/JJ195/words_annotations/FRAN_0200_09740.json/147/line", 
            "@type": "oa:Annotation", 
            "motivation": "oa:painting", 
            "on": "http://bvmm.irht.cnrs.fr/iiif/23801/canvas/canvas-2347626#xywh=3088,3738,377,289", 
            "resource": {
                "@type": "cnt:ContentAsText", 
                "chars": "GUILLES", 
                "format": "text/plain"
            }
        }, 
        {
            "@id": "https://manifests.teklia.com/HIMANIS/JJ195/words_annotations/FRAN_0200_09740.json/148/line", 
            "@type": "oa:Annotation", 
            "motivation": "oa:painting", 
            "on": "http://bvmm.irht.cnrs.fr/iiif/23801/canvas/canvas-2347626#xywh=1563,1953,393,224", 
            "resource": {
                "@type": "cnt:ContentAsText", 
                "chars": "FUTURIS", 
                "format": "text/plain"
            }
        }, 
        {
            "@id": "https://manifests.teklia.com/HIMANIS/JJ195/words_annotations/FRAN_0200_09740.json/149/line", 
            "@type": "oa:Annotation", 
            "motivation": "oa:painting", 
            "on": "http://bvmm.irht.cnrs.fr/iiif/23801/canvas/canvas-2347626#xywh=1998,2017,354,353", 
            "resource": {
                "@type": "cnt:ContentAsText", 
                "chars": "SUS", 
                "format": "text/plain"
            }
        }, 
        {
            "@id": "https://manifests.teklia.com/HIMANIS/JJ195/words_annotations/FRAN_0200_09740.json/150/line", 
            "@type": "oa:Annotation", 
            "motivation": "oa:painting", 
            "on": "http://bvmm.irht.cnrs.fr/iiif/23801/canvas/canvas-2347626#xywh=488,3874,486,222", 
            "resource": {
                "@type": "cnt:ContentAsText", 
                "chars": "DOMINALI", 
                "format": "text/plain"
            }
        }, 
        {
            "@id": "https://manifests.teklia.com/HIMANIS/JJ195/words_annotations/FRAN_0200_09740.json/151/line", 
            "@type": "oa:Annotation", 
            "motivation": "oa:painting", 
            "on": "http://bvmm.irht.cnrs.fr/iiif/23801/canvas/canvas-2347626#xywh=1563,1953,408,224", 
            "resource": {
                "@type": "cnt:ContentAsText", 
                "chars": "SUMMAM", 
                "format": "text/plain"
            }
        }, 
        {
            "@id": "https://manifests.teklia.com/HIMANIS/JJ195/words_annotations/FRAN_0200_09740.json/152/line", 
            "@type": "oa:Annotation", 
            "motivation": "oa:painting", 
            "on": "http://bvmm.irht.cnrs.fr/iiif/23801/canvas/canvas-2347626#xywh=94,79,0,76", 
            "resource": {
                "@type": "cnt:ContentAsText", 
                "chars": "A", 
                "format": "text/plain"
            }
        }, 
        {
            "@id": "https://manifests.teklia.com/HIMANIS/JJ195/words_annotations/FRAN_0200_09740.json/153/line", 
            "@type": "oa:Annotation", 
            "motivation": "oa:painting", 
            "on": "http://bvmm.irht.cnrs.fr/iiif/23801/canvas/canvas-2347626#xywh=94,79,0,76", 
            "resource": {
                "@type": "cnt:ContentAsText", 
                "chars": "P", 
                "format": "text/plain"
            }
        }, 
        {
            "@id": "https://manifests.teklia.com/HIMANIS/JJ195/words_annotations/FRAN_0200_09740.json/154/line", 
            "@type": "oa:Annotation", 
            "motivation": "oa:painting", 
            "on": "http://bvmm.irht.cnrs.fr/iiif/23801/canvas/canvas-2347626#xywh=1024,3132,1999,586", 
            "resource": {
                "@type": "cnt:ContentAsText", 
                "chars": "RENT", 
                "format": "text/plain"
            }
        }, 
        {
            "@id": "https://manifests.teklia.com/HIMANIS/JJ195/words_annotations/FRAN_0200_09740.json/155/line", 
            "@type": "oa:Annotation", 
            "motivation": "oa:painting", 
            "on": "http://bvmm.irht.cnrs.fr/iiif/23801/canvas/canvas-2347626#xywh=3621,3728,196,261", 
            "resource": {
                "@type": "cnt:ContentAsText", 
                "chars": "TAMQUE", 
                "format": "text/plain"
            }
        }, 
        {
            "@id": "https://manifests.teklia.com/HIMANIS/JJ195/words_annotations/FRAN_0200_09740.json/156/line", 
            "@type": "oa:Annotation", 
            "motivation": "oa:painting", 
            "on": "http://bvmm.irht.cnrs.fr/iiif/23801/canvas/canvas-2347626#xywh=3735,3728,0,261", 
            "resource": {
                "@type": "cnt:ContentAsText", 
                "chars": "ET", 
                "format": "text/plain"
            }
        }, 
        {
            "@id": "https://manifests.teklia.com/HIMANIS/JJ195/words_annotations/FRAN_0200_09740.json/157/line", 
            "@type": "oa:Annotation", 
            "motivation": "oa:painting", 
            "on": "http://bvmm.irht.cnrs.fr/iiif/23801/canvas/canvas-2347626#xywh=201,4343,1127,82", 
            "resource": {
                "@type": "cnt:ContentAsText", 
                "chars": "DIZ", 
                "format": "text/plain"
            }
        }, 
        {
            "@id": "https://manifests.teklia.com/HIMANIS/JJ195/words_annotations/FRAN_0200_09740.json/158/line", 
            "@type": "oa:Annotation", 
            "motivation": "oa:painting", 
            "on": "http://bvmm.irht.cnrs.fr/iiif/23801/canvas/canvas-2347626#xywh=113,3874,375,222", 
            "resource": {
                "@type": "cnt:ContentAsText", 
                "chars": "PHILIPPUS", 
                "format": "text/plain"
            }
        }, 
        {
            "@id": "https://manifests.teklia.com/HIMANIS/JJ195/words_annotations/FRAN_0200_09740.json/159/line", 
            "@type": "oa:Annotation", 
            "motivation": "oa:painting", 
            "on": "http://bvmm.irht.cnrs.fr/iiif/23801/canvas/canvas-2347626#xywh=113,3874,472,222", 
            "resource": {
                "@type": "cnt:ContentAsText", 
                "chars": "PHILIPPES", 
                "format": "text/plain"
            }
        }, 
        {
            "@id": "https://manifests.teklia.com/HIMANIS/JJ195/words_annotations/FRAN_0200_09740.json/160/line", 
            "@type": "oa:Annotation", 
            "motivation": "oa:painting", 
            "on": "http://bvmm.irht.cnrs.fr/iiif/23801/canvas/canvas-2347626#xywh=2617,1953,548,224", 
            "resource": {
                "@type": "cnt:ContentAsText", 
                "chars": "ANNUM", 
                "format": "text/plain"
            }
        }, 
        {
            "@id": "https://manifests.teklia.com/HIMANIS/JJ195/words_annotations/FRAN_0200_09740.json/161/line", 
            "@type": "oa:Annotation", 
            "motivation": "oa:painting", 
            "on": "http://bvmm.irht.cnrs.fr/iiif/23801/canvas/canvas-2347626#xywh=884,3772,58,187", 
            "resource": {
                "@type": "cnt:ContentAsText", 
                "chars": "ORE", 
                "format": "text/plain"
            }
        }, 
        {
            "@id": "https://manifests.teklia.com/HIMANIS/JJ195/words_annotations/FRAN_0200_09740.json/162/line", 
            "@type": "oa:Annotation", 
            "motivation": "oa:painting", 
            "on": "http://bvmm.irht.cnrs.fr/iiif/23801/canvas/canvas-2347626#xywh=488,3874,277,222", 
            "resource": {
                "@type": "cnt:ContentAsText", 
                "chars": "IN", 
                "format": "text/plain"
            }
        }, 
        {
            "@id": "https://manifests.teklia.com/HIMANIS/JJ195/words_annotations/FRAN_0200_09740.json/163/line", 
            "@type": "oa:Annotation", 
            "motivation": "oa:painting", 
            "on": "http://bvmm.irht.cnrs.fr/iiif/23801/canvas/canvas-2347626#xywh=1085,3874,361,222", 
            "resource": {
                "@type": "cnt:ContentAsText", 
                "chars": "EN", 
                "format": "text/plain"
            }
        }, 
        {
            "@id": "https://manifests.teklia.com/HIMANIS/JJ195/words_annotations/FRAN_0200_09740.json/164/line", 
            "@type": "oa:Annotation", 
            "motivation": "oa:painting", 
            "on": "http://bvmm.irht.cnrs.fr/iiif/23801/canvas/canvas-2347626#xywh=3621,3728,196,261", 
            "resource": {
                "@type": "cnt:ContentAsText", 
                "chars": "TANQUE", 
                "format": "text/plain"
            }
        }, 
        {
            "@id": "https://manifests.teklia.com/HIMANIS/JJ195/words_annotations/FRAN_0200_09740.json/165/line", 
            "@type": "oa:Annotation", 
            "motivation": "oa:painting", 
            "on": "http://bvmm.irht.cnrs.fr/iiif/23801/canvas/canvas-2347626#xywh=2424,3738,215,289", 
            "resource": {
                "@type": "cnt:ContentAsText", 
                "chars": "ET", 
                "format": "text/plain"
            }
        }, 
        {
            "@id": "https://manifests.teklia.com/HIMANIS/JJ195/words_annotations/FRAN_0200_09740.json/166/line", 
            "@type": "oa:Annotation", 
            "motivation": "oa:painting", 
            "on": "http://bvmm.irht.cnrs.fr/iiif/23801/canvas/canvas-2347626#xywh=3052,3738,126,289", 
            "resource": {
                "@type": "cnt:ContentAsText", 
                "chars": "AU", 
                "format": "text/plain"
            }
        }, 
        {
            "@id": "https://manifests.teklia.com/HIMANIS/JJ195/words_annotations/FRAN_0200_09740.json/167/line", 
            "@type": "oa:Annotation", 
            "motivation": "oa:painting", 
            "on": "http://bvmm.irht.cnrs.fr/iiif/23801/canvas/canvas-2347626#xywh=495,3784,0,53", 
            "resource": {
                "@type": "cnt:ContentAsText", 
                "chars": "P", 
                "format": "text/plain"
            }
        }, 
        {
            "@id": "https://manifests.teklia.com/HIMANIS/JJ195/words_annotations/FRAN_0200_09740.json/168/line", 
            "@type": "oa:Annotation", 
            "motivation": "oa:painting", 
            "on": "http://bvmm.irht.cnrs.fr/iiif/23801/canvas/canvas-2347626#xywh=1998,2017,619,353", 
            "resource": {
                "@type": "cnt:ContentAsText", 
                "chars": "CHOSES", 
                "format": "text/plain"
            }
        }, 
        {
            "@id": "https://manifests.teklia.com/HIMANIS/JJ195/words_annotations/FRAN_0200_09740.json/169/line", 
            "@type": "oa:Annotation", 
            "motivation": "oa:painting", 
            "on": "http://bvmm.irht.cnrs.fr/iiif/23801/canvas/canvas-2347626#xywh=2143,78,307,31", 
            "resource": {
                "@type": "cnt:ContentAsText", 
                "chars": "FAISON", 
                "format": "text/plain"
            }
        }, 
        {
            "@id": "https://manifests.teklia.com/HIMANIS/JJ195/words_annotations/FRAN_0200_09740.json/170/line", 
            "@type": "oa:Annotation", 
            "motivation": "oa:painting", 
            "on": "http://bvmm.irht.cnrs.fr/iiif/23801/canvas/canvas-2347626#xywh=852,2757,2817,592", 
            "resource": {
                "@type": "cnt:ContentAsText", 
                "chars": "DOUZE", 
                "format": "text/plain"
            }
        }, 
        {
            "@id": "https://manifests.teklia.com/HIMANIS/JJ195/words_annotations/FRAN_0200_09740.json/171/line", 
            "@type": "oa:Annotation", 
            "motivation": "oa:painting", 
            "on": "http://bvmm.irht.cnrs.fr/iiif/23801/canvas/canvas-2347626#xywh=2143,78,424,31", 
            "resource": {
                "@type": "cnt:ContentAsText", 
                "chars": "FAISONS", 
                "format": "text/plain"
            }
        }, 
        {
            "@id": "https://manifests.teklia.com/HIMANIS/JJ195/words_annotations/FRAN_0200_09740.json/172/line", 
            "@type": "oa:Annotation", 
            "motivation": "oa:painting", 
            "on": "http://bvmm.irht.cnrs.fr/iiif/23801/canvas/canvas-2347626#xywh=916,1953,450,224", 
            "resource": {
                "@type": "cnt:ContentAsText", 
                "chars": "CUM", 
                "format": "text/plain"
            }
        }, 
        {
            "@id": "https://manifests.teklia.com/HIMANIS/JJ195/words_annotations/FRAN_0200_09740.json/173/line", 
            "@type": "oa:Annotation", 
            "motivation": "oa:painting", 
            "on": "http://bvmm.irht.cnrs.fr/iiif/23801/canvas/canvas-2347626#xywh=1879,3772,58,187", 
            "resource": {
                "@type": "cnt:ContentAsText", 
                "chars": "ET", 
                "format": "text/plain"
            }
        }, 
        {
            "@id": "https://manifests.teklia.com/HIMANIS/JJ195/words_annotations/FRAN_0200_09740.json/174/line", 
            "@type": "oa:Annotation", 
            "motivation": "oa:painting", 
            "on": "http://bvmm.irht.cnrs.fr/iiif/23801/canvas/canvas-2347626#xywh=1879,3772,210,187", 
            "resource": {
                "@type": "cnt:ContentAsText", 
                "chars": "AU", 
                "format": "text/plain"
            }
        }, 
        {
            "@id": "https://manifests.teklia.com/HIMANIS/JJ195/words_annotations/FRAN_0200_09740.json/175/line", 
            "@type": "oa:Annotation", 
            "motivation": "oa:painting", 
            "on": "http://bvmm.irht.cnrs.fr/iiif/23801/canvas/canvas-2347626#xywh=3052,3738,108,289", 
            "resource": {
                "@type": "cnt:ContentAsText", 
                "chars": "DIT", 
                "format": "text/plain"
            }
        }, 
        {
            "@id": "https://manifests.teklia.com/HIMANIS/JJ195/words_annotations/FRAN_0200_09740.json/176/line", 
            "@type": "oa:Annotation", 
            "motivation": "oa:painting", 
            "on": "http://bvmm.irht.cnrs.fr/iiif/23801/canvas/canvas-2347626#xywh=672,437,535,785", 
            "resource": {
                "@type": "cnt:ContentAsText", 
                "chars": "PER", 
                "format": "text/plain"
            }
        }, 
        {
            "@id": "https://manifests.teklia.com/HIMANIS/JJ195/words_annotations/FRAN_0200_09740.json/177/line", 
            "@type": "oa:Annotation", 
            "motivation": "oa:painting", 
            "on": "http://bvmm.irht.cnrs.fr/iiif/23801/canvas/canvas-2347626#xywh=3621,3728,293,261", 
            "resource": {
                "@type": "cnt:ContentAsText", 
                "chars": "QUE", 
                "format": "text/plain"
            }
        }, 
        {
            "@id": "https://manifests.teklia.com/HIMANIS/JJ195/words_annotations/FRAN_0200_09740.json/178/line", 
            "@type": "oa:Annotation", 
            "motivation": "oa:painting", 
            "on": "http://bvmm.irht.cnrs.fr/iiif/23801/canvas/canvas-2347626#xywh=884,2172,2140,545", 
            "resource": {
                "@type": "cnt:ContentAsText", 
                "chars": "DEPUTEZ", 
                "format": "text/plain"
            }
        }, 
        {
            "@id": "https://manifests.teklia.com/HIMANIS/JJ195/words_annotations/FRAN_0200_09740.json/179/line", 
            "@type": "oa:Annotation", 
            "motivation": "oa:painting", 
            "on": "http://bvmm.irht.cnrs.fr/iiif/23801/canvas/canvas-2347626#xywh=1956,1953,942,224", 
            "resource": {
                "@type": "cnt:ContentAsText", 
                "chars": "NOSTRUM", 
                "format": "text/plain"
            }
        }, 
        {
            "@id": "https://manifests.teklia.com/HIMANIS/JJ195/words_annotations/FRAN_0200_09740.json/180/line", 
            "@type": "oa:Annotation", 
            "motivation": "oa:painting", 
            "on": "http://bvmm.irht.cnrs.fr/iiif/23801/canvas/canvas-2347626#xywh=1061,437,2530,785", 
            "resource": {
                "@type": "cnt:ContentAsText", 
                "chars": "DIT", 
                "format": "text/plain"
            }
        }, 
        {
            "@id": "https://manifests.teklia.com/HIMANIS/JJ195/words_annotations/FRAN_0200_09740.json/181/line", 
            "@type": "oa:Annotation", 
            "motivation": "oa:painting", 
            "on": "http://bvmm.irht.cnrs.fr/iiif/23801/canvas/canvas-2347626#xywh=1061,437,2530,785", 
            "resource": {
                "@type": "cnt:ContentAsText", 
                "chars": "DES", 
                "format": "text/plain"
            }
        }, 
        {
            "@id": "https://manifests.teklia.com/HIMANIS/JJ195/words_annotations/FRAN_0200_09740.json/182/line", 
            "@type": "oa:Annotation", 
            "motivation": "oa:painting", 
            "on": "http://bvmm.irht.cnrs.fr/iiif/23801/canvas/canvas-2347626#xywh=113,3874,375,222", 
            "resource": {
                "@type": "cnt:ContentAsText", 
                "chars": "PHILIPPE", 
                "format": "text/plain"
            }
        }, 
        {
            "@id": "https://manifests.teklia.com/HIMANIS/JJ195/words_annotations/FRAN_0200_09740.json/183/line", 
            "@type": "oa:Annotation", 
            "motivation": "oa:painting", 
            "on": "http://bvmm.irht.cnrs.fr/iiif/23801/canvas/canvas-2347626#xywh=1563,1953,492,224", 
            "resource": {
                "@type": "cnt:ContentAsText", 
                "chars": "QUE", 
                "format": "text/plain"
            }
        }, 
        {
            "@id": "https://manifests.teklia.com/HIMANIS/JJ195/words_annotations/FRAN_0200_09740.json/184/line", 
            "@type": "oa:Annotation", 
            "motivation": "oa:painting", 
            "on": "http://bvmm.irht.cnrs.fr/iiif/23801/canvas/canvas-2347626#xywh=1563,1953,534,224", 
            "resource": {
                "@type": "cnt:ContentAsText", 
                "chars": "QUI", 
                "format": "text/plain"
            }
        }, 
        {
            "@id": "https://manifests.teklia.com/HIMANIS/JJ195/words_annotations/FRAN_0200_09740.json/185/line", 
            "@type": "oa:Annotation", 
            "motivation": "oa:painting", 
            "on": "http://bvmm.irht.cnrs.fr/iiif/23801/canvas/canvas-2347626#xywh=705,372,775,498", 
            "resource": {
                "@type": "cnt:ContentAsText", 
                "chars": "PHILIPPE", 
                "format": "text/plain"
            }
        }, 
        {
            "@id": "https://manifests.teklia.com/HIMANIS/JJ195/words_annotations/FRAN_0200_09740.json/186/line", 
            "@type": "oa:Annotation", 
            "motivation": "oa:painting", 
            "on": "http://bvmm.irht.cnrs.fr/iiif/23801/canvas/canvas-2347626#xywh=2706,2017,862,353", 
            "resource": {
                "@type": "cnt:ContentAsText", 
                "chars": "PREDICTUM", 
                "format": "text/plain"
            }
        }, 
        {
            "@id": "https://manifests.teklia.com/HIMANIS/JJ195/words_annotations/FRAN_0200_09740.json/187/line", 
            "@type": "oa:Annotation", 
            "motivation": "oa:painting", 
            "on": "http://bvmm.irht.cnrs.fr/iiif/23801/canvas/canvas-2347626#xywh=2617,1953,717,224", 
            "resource": {
                "@type": "cnt:ContentAsText", 
                "chars": "PARTENANS", 
                "format": "text/plain"
            }
        }, 
        {
            "@id": "https://manifests.teklia.com/HIMANIS/JJ195/words_annotations/FRAN_0200_09740.json/188/line", 
            "@type": "oa:Annotation", 
            "motivation": "oa:painting", 
            "on": "http://bvmm.irht.cnrs.fr/iiif/23801/canvas/canvas-2347626#xywh=2617,1953,717,224", 
            "resource": {
                "@type": "cnt:ContentAsText", 
                "chars": "PARTENANT", 
                "format": "text/plain"
            }
        }, 
        {
            "@id": "https://manifests.teklia.com/HIMANIS/JJ195/words_annotations/FRAN_0200_09740.json/189/line", 
            "@type": "oa:Annotation", 
            "motivation": "oa:painting", 
            "on": "http://bvmm.irht.cnrs.fr/iiif/23801/canvas/canvas-2347626#xywh=135,3772,164,187", 
            "resource": {
                "@type": "cnt:ContentAsText", 
                "chars": "PHILIPPUS", 
                "format": "text/plain"
            }
        }, 
        {
            "@id": "https://manifests.teklia.com/HIMANIS/JJ195/words_annotations/FRAN_0200_09740.json/190/line", 
            "@type": "oa:Annotation", 
            "motivation": "oa:painting", 
            "on": "http://bvmm.irht.cnrs.fr/iiif/23801/canvas/canvas-2347626#xywh=488,3874,222,222", 
            "resource": {
                "@type": "cnt:ContentAsText", 
                "chars": "QUE", 
                "format": "text/plain"
            }
        }, 
        {
            "@id": "https://manifests.teklia.com/HIMANIS/JJ195/words_annotations/FRAN_0200_09740.json/191/line", 
            "@type": "oa:Annotation", 
            "motivation": "oa:painting", 
            "on": "http://bvmm.irht.cnrs.fr/iiif/23801/canvas/canvas-2347626#xywh=135,3772,164,187", 
            "resource": {
                "@type": "cnt:ContentAsText", 
                "chars": "PHILIPPES", 
                "format": "text/plain"
            }
        }, 
        {
            "@id": "https://manifests.teklia.com/HIMANIS/JJ195/words_annotations/FRAN_0200_09740.json/192/line", 
            "@type": "oa:Annotation", 
            "motivation": "oa:painting", 
            "on": "http://bvmm.irht.cnrs.fr/iiif/23801/canvas/canvas-2347626#xywh=2706,2017,155,353", 
            "resource": {
                "@type": "cnt:ContentAsText", 
                "chars": "PREDICTIS", 
                "format": "text/plain"
            }
        }, 
        {
            "@id": "https://manifests.teklia.com/HIMANIS/JJ195/words_annotations/FRAN_0200_09740.json/193/line", 
            "@type": "oa:Annotation", 
            "motivation": "oa:painting", 
            "on": "http://bvmm.irht.cnrs.fr/iiif/23801/canvas/canvas-2347626#xywh=488,3874,222,222", 
            "resource": {
                "@type": "cnt:ContentAsText", 
                "chars": "QUI", 
                "format": "text/plain"
            }
        }, 
        {
            "@id": "https://manifests.teklia.com/HIMANIS/JJ195/words_annotations/FRAN_0200_09740.json/194/line", 
            "@type": "oa:Annotation", 
            "motivation": "oa:painting", 
            "on": "http://bvmm.irht.cnrs.fr/iiif/23801/canvas/canvas-2347626#xywh=2334,3738,198,289", 
            "resource": {
                "@type": "cnt:ContentAsText", 
                "chars": "PHILIPPES", 
                "format": "text/plain"
            }
        }, 
        {
            "@id": "https://manifests.teklia.com/HIMANIS/JJ195/words_annotations/FRAN_0200_09740.json/195/line", 
            "@type": "oa:Annotation", 
            "motivation": "oa:painting", 
            "on": "http://bvmm.irht.cnrs.fr/iiif/23801/canvas/canvas-2347626#xywh=1563,1953,1054,224", 
            "resource": {
                "@type": "cnt:ContentAsText", 
                "chars": "IPSIUS", 
                "format": "text/plain"
            }
        }, 
        {
            "@id": "https://manifests.teklia.com/HIMANIS/JJ195/words_annotations/FRAN_0200_09740.json/196/line", 
            "@type": "oa:Annotation", 
            "motivation": "oa:painting", 
            "on": "http://bvmm.irht.cnrs.fr/iiif/23801/canvas/canvas-2347626#xywh=2241,3772,211,187", 
            "resource": {
                "@type": "cnt:ContentAsText", 
                "chars": "SINGULIS", 
                "format": "text/plain"
            }
        }, 
        {
            "@id": "https://manifests.teklia.com/HIMANIS/JJ195/words_annotations/FRAN_0200_09740.json/197/line", 
            "@type": "oa:Annotation", 
            "motivation": "oa:painting", 
            "on": "http://bvmm.irht.cnrs.fr/iiif/23801/canvas/canvas-2347626#xywh=1024,3132,2544,586", 
            "resource": {
                "@type": "cnt:ContentAsText", 
                "chars": "LA", 
                "format": "text/plain"
            }
        }, 
        {
            "@id": "https://manifests.teklia.com/HIMANIS/JJ195/words_annotations/FRAN_0200_09740.json/198/line", 
            "@type": "oa:Annotation", 
            "motivation": "oa:painting", 
            "on": "http://bvmm.irht.cnrs.fr/iiif/23801/canvas/canvas-2347626#xywh=1024,3132,2544,586", 
            "resource": {
                "@type": "cnt:ContentAsText", 
                "chars": "LE", 
                "format": "text/plain"
            }
        }, 
        {
            "@id": "https://manifests.teklia.com/HIMANIS/JJ195/words_annotations/FRAN_0200_09740.json/199/line", 
            "@type": "oa:Annotation", 
            "motivation": "oa:painting", 
            "on": "http://bvmm.irht.cnrs.fr/iiif/23801/canvas/canvas-2347626#xywh=1024,3132,2544,586", 
            "resource": {
                "@type": "cnt:ContentAsText", 
                "chars": "DE", 
                "format": "text/plain"
            }
        }, 
        {
            "@id": "https://manifests.teklia.com/HIMANIS/JJ195/words_annotations/FRAN_0200_09740.json/200/line", 
            "@type": "oa:Annotation", 
            "motivation": "oa:painting", 
            "on": "http://bvmm.irht.cnrs.fr/iiif/23801/canvas/canvas-2347626#xywh=0,1110,0,655", 
            "resource": {
                "@type": "cnt:ContentAsText", 
                "chars": "H", 
                "format": "text/plain"
            }
        }, 
        {
            "@id": "https://manifests.teklia.com/HIMANIS/JJ195/words_annotations/FRAN_0200_09740.json/201/line", 
            "@type": "oa:Annotation", 
            "motivation": "oa:painting", 
            "on": "http://bvmm.irht.cnrs.fr/iiif/23801/canvas/canvas-2347626#xywh=680,2172,204,545", 
            "resource": {
                "@type": "cnt:ContentAsText", 
                "chars": "LES", 
                "format": "text/plain"
            }
        }
    ]
}