{
    "@context": "http://iiif.io/api/presentation/2/context.json", 
    "@id": "https://manifests.teklia.com/HIMANIS/JJ207/words_annotations/FRAN_0021_33560.json", 
    "@type": "sc:AnnotationList", 
    "resources": [
        {
            "@id": "https://manifests.teklia.com/HIMANIS/JJ207/words_annotations/FRAN_0021_33560.json/0/line", 
            "@type": "oa:Annotation", 
            "motivation": "oa:painting", 
            "on": "http://bvmm.irht.cnrs.fr/iiif/23775/canvas/canvas-2336719#xywh=20,42,166,115", 
            "resource": {
                "@type": "cnt:ContentAsText", 
                "chars": "LETTR", 
                "format": "text/plain"
            }
        }, 
        {
            "@id": "https://manifests.teklia.com/HIMANIS/JJ207/words_annotations/FRAN_0021_33560.json/1/line", 
            "@type": "oa:Annotation", 
            "motivation": "oa:painting", 
            "on": "http://bvmm.irht.cnrs.fr/iiif/23775/canvas/canvas-2336719#xywh=3608,4145,532,89", 
            "resource": {
                "@type": "cnt:ContentAsText", 
                "chars": "COMM", 
                "format": "text/plain"
            }
        }, 
        {
            "@id": "https://manifests.teklia.com/HIMANIS/JJ207/words_annotations/FRAN_0021_33560.json/2/line", 
            "@type": "oa:Annotation", 
            "motivation": "oa:painting", 
            "on": "http://bvmm.irht.cnrs.fr/iiif/23775/canvas/canvas-2336719#xywh=3999,1773,60,35", 
            "resource": {
                "@type": "cnt:ContentAsText", 
                "chars": "ET", 
                "format": "text/plain"
            }
        }, 
        {
            "@id": "https://manifests.teklia.com/HIMANIS/JJ207/words_annotations/FRAN_0021_33560.json/3/line", 
            "@type": "oa:Annotation", 
            "motivation": "oa:painting", 
            "on": "http://bvmm.irht.cnrs.fr/iiif/23775/canvas/canvas-2336719#xywh=3964,1641,96,70", 
            "resource": {
                "@type": "cnt:ContentAsText", 
                "chars": "LES", 
                "format": "text/plain"
            }
        }, 
        {
            "@id": "https://manifests.teklia.com/HIMANIS/JJ207/words_annotations/FRAN_0021_33560.json/4/line", 
            "@type": "oa:Annotation", 
            "motivation": "oa:painting", 
            "on": "http://bvmm.irht.cnrs.fr/iiif/23775/canvas/canvas-2336719#xywh=3538,1247,208,79", 
            "resource": {
                "@type": "cnt:ContentAsText", 
                "chars": "ROY", 
                "format": "text/plain"
            }
        }, 
        {
            "@id": "https://manifests.teklia.com/HIMANIS/JJ207/words_annotations/FRAN_0021_33560.json/5/line", 
            "@type": "oa:Annotation", 
            "motivation": "oa:painting", 
            "on": "http://bvmm.irht.cnrs.fr/iiif/23775/canvas/canvas-2336719#xywh=3538,1247,0,79", 
            "resource": {
                "@type": "cnt:ContentAsText", 
                "chars": "DE", 
                "format": "text/plain"
            }
        }, 
        {
            "@id": "https://manifests.teklia.com/HIMANIS/JJ207/words_annotations/FRAN_0021_33560.json/6/line", 
            "@type": "oa:Annotation", 
            "motivation": "oa:painting", 
            "on": "http://bvmm.irht.cnrs.fr/iiif/23775/canvas/canvas-2336719#xywh=3538,1247,143,79", 
            "resource": {
                "@type": "cnt:ContentAsText", 
                "chars": "DU", 
                "format": "text/plain"
            }
        }, 
        {
            "@id": "https://manifests.teklia.com/HIMANIS/JJ207/words_annotations/FRAN_0021_33560.json/7/line", 
            "@type": "oa:Annotation", 
            "motivation": "oa:painting", 
            "on": "http://bvmm.irht.cnrs.fr/iiif/23775/canvas/canvas-2336719#xywh=3847,2813,98,63", 
            "resource": {
                "@type": "cnt:ContentAsText", 
                "chars": "CE", 
                "format": "text/plain"
            }
        }, 
        {
            "@id": "https://manifests.teklia.com/HIMANIS/JJ207/words_annotations/FRAN_0021_33560.json/8/line", 
            "@type": "oa:Annotation", 
            "motivation": "oa:painting", 
            "on": "http://bvmm.irht.cnrs.fr/iiif/23775/canvas/canvas-2336719#xywh=130,161,0,34", 
            "resource": {
                "@type": "cnt:ContentAsText", 
                "chars": "S", 
                "format": "text/plain"
            }
        }, 
        {
            "@id": "https://manifests.teklia.com/HIMANIS/JJ207/words_annotations/FRAN_0021_33560.json/9/line", 
            "@type": "oa:Annotation", 
            "motivation": "oa:painting", 
            "on": "http://bvmm.irht.cnrs.fr/iiif/23775/canvas/canvas-2336719#xywh=3538,1247,371,79", 
            "resource": {
                "@type": "cnt:ContentAsText", 
                "chars": "ROYER", 
                "format": "text/plain"
            }
        }, 
        {
            "@id": "https://manifests.teklia.com/HIMANIS/JJ207/words_annotations/FRAN_0021_33560.json/10/line", 
            "@type": "oa:Annotation", 
            "motivation": "oa:painting", 
            "on": "http://bvmm.irht.cnrs.fr/iiif/23775/canvas/canvas-2336719#xywh=3538,1247,371,79", 
            "resource": {
                "@type": "cnt:ContentAsText", 
                "chars": "BOYER", 
                "format": "text/plain"
            }
        }, 
        {
            "@id": "https://manifests.teklia.com/HIMANIS/JJ207/words_annotations/FRAN_0021_33560.json/11/line", 
            "@type": "oa:Annotation", 
            "motivation": "oa:painting", 
            "on": "http://bvmm.irht.cnrs.fr/iiif/23775/canvas/canvas-2336719#xywh=2669,3843,526,95", 
            "resource": {
                "@type": "cnt:ContentAsText", 
                "chars": "ET", 
                "format": "text/plain"
            }
        }, 
        {
            "@id": "https://manifests.teklia.com/HIMANIS/JJ207/words_annotations/FRAN_0021_33560.json/12/line", 
            "@type": "oa:Annotation", 
            "motivation": "oa:painting", 
            "on": "http://bvmm.irht.cnrs.fr/iiif/23775/canvas/canvas-2336719#xywh=20,42,108,115", 
            "resource": {
                "@type": "cnt:ContentAsText", 
                "chars": "ET", 
                "format": "text/plain"
            }
        }, 
        {
            "@id": "https://manifests.teklia.com/HIMANIS/JJ207/words_annotations/FRAN_0021_33560.json/13/line", 
            "@type": "oa:Annotation", 
            "motivation": "oa:painting", 
            "on": "http://bvmm.irht.cnrs.fr/iiif/23775/canvas/canvas-2336719#xywh=3999,1773,89,35", 
            "resource": {
                "@type": "cnt:ContentAsText", 
                "chars": "LES", 
                "format": "text/plain"
            }
        }, 
        {
            "@id": "https://manifests.teklia.com/HIMANIS/JJ207/words_annotations/FRAN_0021_33560.json/14/line", 
            "@type": "oa:Annotation", 
            "motivation": "oa:painting", 
            "on": "http://bvmm.irht.cnrs.fr/iiif/23775/canvas/canvas-2336719#xywh=3949,2813,106,63", 
            "resource": {
                "@type": "cnt:ContentAsText", 
                "chars": "QUE", 
                "format": "text/plain"
            }
        }, 
        {
            "@id": "https://manifests.teklia.com/HIMANIS/JJ207/words_annotations/FRAN_0021_33560.json/15/line", 
            "@type": "oa:Annotation", 
            "motivation": "oa:painting", 
            "on": "http://bvmm.irht.cnrs.fr/iiif/23775/canvas/canvas-2336719#xywh=3847,2813,90,63", 
            "resource": {
                "@type": "cnt:ContentAsText", 
                "chars": "DE", 
                "format": "text/plain"
            }
        }, 
        {
            "@id": "https://manifests.teklia.com/HIMANIS/JJ207/words_annotations/FRAN_0021_33560.json/16/line", 
            "@type": "oa:Annotation", 
            "motivation": "oa:painting", 
            "on": "http://bvmm.irht.cnrs.fr/iiif/23775/canvas/canvas-2336719#xywh=2928,229,251,34", 
            "resource": {
                "@type": "cnt:ContentAsText", 
                "chars": "ET", 
                "format": "text/plain"
            }
        }, 
        {
            "@id": "https://manifests.teklia.com/HIMANIS/JJ207/words_annotations/FRAN_0021_33560.json/17/line", 
            "@type": "oa:Annotation", 
            "motivation": "oa:painting", 
            "on": "http://bvmm.irht.cnrs.fr/iiif/23775/canvas/canvas-2336719#xywh=2928,229,262,34", 
            "resource": {
                "@type": "cnt:ContentAsText", 
                "chars": "LES", 
                "format": "text/plain"
            }
        }, 
        {
            "@id": "https://manifests.teklia.com/HIMANIS/JJ207/words_annotations/FRAN_0021_33560.json/18/line", 
            "@type": "oa:Annotation", 
            "motivation": "oa:painting", 
            "on": "http://bvmm.irht.cnrs.fr/iiif/23775/canvas/canvas-2336719#xywh=3311,4222,0,66", 
            "resource": {
                "@type": "cnt:ContentAsText", 
                "chars": "S", 
                "format": "text/plain"
            }
        }, 
        {
            "@id": "https://manifests.teklia.com/HIMANIS/JJ207/words_annotations/FRAN_0021_33560.json/19/line", 
            "@type": "oa:Annotation", 
            "motivation": "oa:painting", 
            "on": "http://bvmm.irht.cnrs.fr/iiif/23775/canvas/canvas-2336719#xywh=3847,2813,90,63", 
            "resource": {
                "@type": "cnt:ContentAsText", 
                "chars": "ET", 
                "format": "text/plain"
            }
        }, 
        {
            "@id": "https://manifests.teklia.com/HIMANIS/JJ207/words_annotations/FRAN_0021_33560.json/20/line", 
            "@type": "oa:Annotation", 
            "motivation": "oa:painting", 
            "on": "http://bvmm.irht.cnrs.fr/iiif/23775/canvas/canvas-2336719#xywh=20,42,130,115", 
            "resource": {
                "@type": "cnt:ContentAsText", 
                "chars": "LES", 
                "format": "text/plain"
            }
        }, 
        {
            "@id": "https://manifests.teklia.com/HIMANIS/JJ207/words_annotations/FRAN_0021_33560.json/21/line", 
            "@type": "oa:Annotation", 
            "motivation": "oa:painting", 
            "on": "http://bvmm.irht.cnrs.fr/iiif/23775/canvas/canvas-2336719#xywh=3964,1641,78,70", 
            "resource": {
                "@type": "cnt:ContentAsText", 
                "chars": "DE", 
                "format": "text/plain"
            }
        }, 
        {
            "@id": "https://manifests.teklia.com/HIMANIS/JJ207/words_annotations/FRAN_0021_33560.json/22/line", 
            "@type": "oa:Annotation", 
            "motivation": "oa:painting", 
            "on": "http://bvmm.irht.cnrs.fr/iiif/23775/canvas/canvas-2336719#xywh=3999,1773,51,35", 
            "resource": {
                "@type": "cnt:ContentAsText", 
                "chars": "DE", 
                "format": "text/plain"
            }
        }
    ]
}