{
    "@context": "http://iiif.io/api/presentation/2/context.json", 
    "@id": "https://manifests.teklia.com/HIMANIS/FR18674/words_annotations/http_gallica.bnf.fr_iiif_ark:_12148_btv1b9062281q_f126_full_full_0_native.jpg.json", 
    "@type": "sc:AnnotationList", 
    "resources": [
        {
            "@id": "https://manifests.teklia.com/HIMANIS/FR18674/words_annotations/http_gallica.bnf.fr_iiif_ark:_12148_btv1b9062281q_f126_full_full_0_native.jpg.json/0/line", 
            "@type": "oa:Annotation", 
            "motivation": "oa:painting", 
            "on": "http://gallica.bnf.fr/iiif/ark:/12148/btv1b9062281q/canvas/f126#xywh=3680,1429,84,54", 
            "resource": {
                "@type": "cnt:ContentAsText", 
                "chars": "LI", 
                "format": "text/plain"
            }
        }, 
        {
            "@id": "https://manifests.teklia.com/HIMANIS/FR18674/words_annotations/http_gallica.bnf.fr_iiif_ark:_12148_btv1b9062281q_f126_full_full_0_native.jpg.json/1/line", 
            "@type": "oa:Annotation", 
            "motivation": "oa:painting", 
            "on": "http://gallica.bnf.fr/iiif/ark:/12148/btv1b9062281q/canvas/f126#xywh=3680,1429,0,54", 
            "resource": {
                "@type": "cnt:ContentAsText", 
                "chars": "L", 
                "format": "text/plain"
            }
        }, 
        {
            "@id": "https://manifests.teklia.com/HIMANIS/FR18674/words_annotations/http_gallica.bnf.fr_iiif_ark:_12148_btv1b9062281q_f126_full_full_0_native.jpg.json/2/line", 
            "@type": "oa:Annotation", 
            "motivation": "oa:painting", 
            "on": "http://gallica.bnf.fr/iiif/ark:/12148/btv1b9062281q/canvas/f126#xywh=3672,2771,0,40", 
            "resource": {
                "@type": "cnt:ContentAsText", 
                "chars": "R", 
                "format": "text/plain"
            }
        }
    ]
}