{
    "@context": "http://iiif.io/api/presentation/2/context.json", 
    "@id": "https://manifests.teklia.com/HIMANIS/FR10187/words_annotations/http_gallica.bnf.fr_iiif_ark:_12148_btv1b90611100_f145_full_full_0_native.jpg.json", 
    "@type": "sc:AnnotationList", 
    "resources": [
        {
            "@id": "https://manifests.teklia.com/HIMANIS/FR10187/words_annotations/http_gallica.bnf.fr_iiif_ark:_12148_btv1b90611100_f145_full_full_0_native.jpg.json/0/line", 
            "@type": "oa:Annotation", 
            "motivation": "oa:painting", 
            "on": "http://gallica.bnf.fr/iiif/ark:/12148/btv1b90611100/canvas/f145#xywh=1964,971,167,157", 
            "resource": {
                "@type": "cnt:ContentAsText", 
                "chars": "ADAM", 
                "format": "text/plain"
            }
        }, 
        {
            "@id": "https://manifests.teklia.com/HIMANIS/FR10187/words_annotations/http_gallica.bnf.fr_iiif_ark:_12148_btv1b90611100_f145_full_full_0_native.jpg.json/1/line", 
            "@type": "oa:Annotation", 
            "motivation": "oa:painting", 
            "on": "http://gallica.bnf.fr/iiif/ark:/12148/btv1b90611100/canvas/f145#xywh=2326,315,1021,229", 
            "resource": {
                "@type": "cnt:ContentAsText", 
                "chars": "ORDIA", 
                "format": "text/plain"
            }
        }, 
        {
            "@id": "https://manifests.teklia.com/HIMANIS/FR10187/words_annotations/http_gallica.bnf.fr_iiif_ark:_12148_btv1b90611100_f145_full_full_0_native.jpg.json/2/line", 
            "@type": "oa:Annotation", 
            "motivation": "oa:painting", 
            "on": "http://gallica.bnf.fr/iiif/ark:/12148/btv1b90611100/canvas/f145#xywh=2273,587,266,177", 
            "resource": {
                "@type": "cnt:ContentAsText", 
                "chars": "D'AINE", 
                "format": "text/plain"
            }
        }, 
        {
            "@id": "https://manifests.teklia.com/HIMANIS/FR10187/words_annotations/http_gallica.bnf.fr_iiif_ark:_12148_btv1b90611100_f145_full_full_0_native.jpg.json/3/line", 
            "@type": "oa:Annotation", 
            "motivation": "oa:painting", 
            "on": "http://gallica.bnf.fr/iiif/ark:/12148/btv1b90611100/canvas/f145#xywh=1429,1081,262,123", 
            "resource": {
                "@type": "cnt:ContentAsText", 
                "chars": "KAR", 
                "format": "text/plain"
            }
        }, 
        {
            "@id": "https://manifests.teklia.com/HIMANIS/FR10187/words_annotations/http_gallica.bnf.fr_iiif_ark:_12148_btv1b90611100_f145_full_full_0_native.jpg.json/4/line", 
            "@type": "oa:Annotation", 
            "motivation": "oa:painting", 
            "on": "http://gallica.bnf.fr/iiif/ark:/12148/btv1b90611100/canvas/f145#xywh=1497,1171,342,147", 
            "resource": {
                "@type": "cnt:ContentAsText", 
                "chars": "SAUVEUR", 
                "format": "text/plain"
            }
        }, 
        {
            "@id": "https://manifests.teklia.com/HIMANIS/FR10187/words_annotations/http_gallica.bnf.fr_iiif_ark:_12148_btv1b90611100_f145_full_full_0_native.jpg.json/5/line", 
            "@type": "oa:Annotation", 
            "motivation": "oa:painting", 
            "on": "http://gallica.bnf.fr/iiif/ark:/12148/btv1b90611100/canvas/f145#xywh=1497,1171,333,147", 
            "resource": {
                "@type": "cnt:ContentAsText", 
                "chars": "SAUVEIR", 
                "format": "text/plain"
            }
        }, 
        {
            "@id": "https://manifests.teklia.com/HIMANIS/FR10187/words_annotations/http_gallica.bnf.fr_iiif_ark:_12148_btv1b90611100_f145_full_full_0_native.jpg.json/6/line", 
            "@type": "oa:Annotation", 
            "motivation": "oa:painting", 
            "on": "http://gallica.bnf.fr/iiif/ark:/12148/btv1b90611100/canvas/f145#xywh=3302,856,158,157", 
            "resource": {
                "@type": "cnt:ContentAsText", 
                "chars": "CESTEZ", 
                "format": "text/plain"
            }
        }, 
        {
            "@id": "https://manifests.teklia.com/HIMANIS/FR10187/words_annotations/http_gallica.bnf.fr_iiif_ark:_12148_btv1b90611100_f145_full_full_0_native.jpg.json/7/line", 
            "@type": "oa:Annotation", 
            "motivation": "oa:painting", 
            "on": "http://gallica.bnf.fr/iiif/ark:/12148/btv1b90611100/canvas/f145#xywh=558,4942,0,54", 
            "resource": {
                "@type": "cnt:ContentAsText", 
                "chars": "J", 
                "format": "text/plain"
            }
        }, 
        {
            "@id": "https://manifests.teklia.com/HIMANIS/FR10187/words_annotations/http_gallica.bnf.fr_iiif_ark:_12148_btv1b90611100_f145_full_full_0_native.jpg.json/8/line", 
            "@type": "oa:Annotation", 
            "motivation": "oa:painting", 
            "on": "http://gallica.bnf.fr/iiif/ark:/12148/btv1b90611100/canvas/f145#xywh=3224,856,49,157", 
            "resource": {
                "@type": "cnt:ContentAsText", 
                "chars": "SE", 
                "format": "text/plain"
            }
        }, 
        {
            "@id": "https://manifests.teklia.com/HIMANIS/FR10187/words_annotations/http_gallica.bnf.fr_iiif_ark:_12148_btv1b90611100_f145_full_full_0_native.jpg.json/9/line", 
            "@type": "oa:Annotation", 
            "motivation": "oa:painting", 
            "on": "http://gallica.bnf.fr/iiif/ark:/12148/btv1b90611100/canvas/f145#xywh=3224,856,49,157", 
            "resource": {
                "@type": "cnt:ContentAsText", 
                "chars": "SI", 
                "format": "text/plain"
            }
        }, 
        {
            "@id": "https://manifests.teklia.com/HIMANIS/FR10187/words_annotations/http_gallica.bnf.fr_iiif_ark:_12148_btv1b90611100_f145_full_full_0_native.jpg.json/10/line", 
            "@type": "oa:Annotation", 
            "motivation": "oa:painting", 
            "on": "http://gallica.bnf.fr/iiif/ark:/12148/btv1b90611100/canvas/f145#xywh=3489,856,69,157", 
            "resource": {
                "@type": "cnt:ContentAsText", 
                "chars": "ALII", 
                "format": "text/plain"
            }
        }, 
        {
            "@id": "https://manifests.teklia.com/HIMANIS/FR10187/words_annotations/http_gallica.bnf.fr_iiif_ark:_12148_btv1b90611100_f145_full_full_0_native.jpg.json/11/line", 
            "@type": "oa:Annotation", 
            "motivation": "oa:painting", 
            "on": "http://gallica.bnf.fr/iiif/ark:/12148/btv1b90611100/canvas/f145#xywh=1417,730,565,164", 
            "resource": {
                "@type": "cnt:ContentAsText", 
                "chars": "PHONOTARE", 
                "format": "text/plain"
            }
        }, 
        {
            "@id": "https://manifests.teklia.com/HIMANIS/FR10187/words_annotations/http_gallica.bnf.fr_iiif_ark:_12148_btv1b90611100_f145_full_full_0_native.jpg.json/12/line", 
            "@type": "oa:Annotation", 
            "motivation": "oa:painting", 
            "on": "http://gallica.bnf.fr/iiif/ark:/12148/btv1b90611100/canvas/f145#xywh=3577,315,302,229", 
            "resource": {
                "@type": "cnt:ContentAsText", 
                "chars": "SPECIAL", 
                "format": "text/plain"
            }
        }, 
        {
            "@id": "https://manifests.teklia.com/HIMANIS/FR10187/words_annotations/http_gallica.bnf.fr_iiif_ark:_12148_btv1b90611100_f145_full_full_0_native.jpg.json/13/line", 
            "@type": "oa:Annotation", 
            "motivation": "oa:painting", 
            "on": "http://gallica.bnf.fr/iiif/ark:/12148/btv1b90611100/canvas/f145#xywh=2294,1317,126,111", 
            "resource": {
                "@type": "cnt:ContentAsText", 
                "chars": "SI", 
                "format": "text/plain"
            }
        }, 
        {
            "@id": "https://manifests.teklia.com/HIMANIS/FR10187/words_annotations/http_gallica.bnf.fr_iiif_ark:_12148_btv1b90611100_f145_full_full_0_native.jpg.json/14/line", 
            "@type": "oa:Annotation", 
            "motivation": "oa:painting", 
            "on": "http://gallica.bnf.fr/iiif/ark:/12148/btv1b90611100/canvas/f145#xywh=2527,730,195,164", 
            "resource": {
                "@type": "cnt:ContentAsText", 
                "chars": "CES", 
                "format": "text/plain"
            }
        }, 
        {
            "@id": "https://manifests.teklia.com/HIMANIS/FR10187/words_annotations/http_gallica.bnf.fr_iiif_ark:_12148_btv1b90611100_f145_full_full_0_native.jpg.json/15/line", 
            "@type": "oa:Annotation", 
            "motivation": "oa:painting", 
            "on": "http://gallica.bnf.fr/iiif/ark:/12148/btv1b90611100/canvas/f145#xywh=3492,1246,0,74", 
            "resource": {
                "@type": "cnt:ContentAsText", 
                "chars": "G", 
                "format": "text/plain"
            }
        }, 
        {
            "@id": "https://manifests.teklia.com/HIMANIS/FR10187/words_annotations/http_gallica.bnf.fr_iiif_ark:_12148_btv1b90611100_f145_full_full_0_native.jpg.json/16/line", 
            "@type": "oa:Annotation", 
            "motivation": "oa:painting", 
            "on": "http://gallica.bnf.fr/iiif/ark:/12148/btv1b90611100/canvas/f145#xywh=1429,1081,347,123", 
            "resource": {
                "@type": "cnt:ContentAsText", 
                "chars": "KARI", 
                "format": "text/plain"
            }
        }, 
        {
            "@id": "https://manifests.teklia.com/HIMANIS/FR10187/words_annotations/http_gallica.bnf.fr_iiif_ark:_12148_btv1b90611100_f145_full_full_0_native.jpg.json/17/line", 
            "@type": "oa:Annotation", 
            "motivation": "oa:painting", 
            "on": "http://gallica.bnf.fr/iiif/ark:/12148/btv1b90611100/canvas/f145#xywh=2200,971,187,157", 
            "resource": {
                "@type": "cnt:ContentAsText", 
                "chars": "FUNE", 
                "format": "text/plain"
            }
        }, 
        {
            "@id": "https://manifests.teklia.com/HIMANIS/FR10187/words_annotations/http_gallica.bnf.fr_iiif_ark:_12148_btv1b90611100_f145_full_full_0_native.jpg.json/18/line", 
            "@type": "oa:Annotation", 
            "motivation": "oa:painting", 
            "on": "http://gallica.bnf.fr/iiif/ark:/12148/btv1b90611100/canvas/f145#xywh=3617,1246,0,74", 
            "resource": {
                "@type": "cnt:ContentAsText", 
                "chars": "P", 
                "format": "text/plain"
            }
        }, 
        {
            "@id": "https://manifests.teklia.com/HIMANIS/FR10187/words_annotations/http_gallica.bnf.fr_iiif_ark:_12148_btv1b90611100_f145_full_full_0_native.jpg.json/19/line", 
            "@type": "oa:Annotation", 
            "motivation": "oa:painting", 
            "on": "http://gallica.bnf.fr/iiif/ark:/12148/btv1b90611100/canvas/f145#xywh=3020,730,246,164", 
            "resource": {
                "@type": "cnt:ContentAsText", 
                "chars": "BRESSIN", 
                "format": "text/plain"
            }
        }, 
        {
            "@id": "https://manifests.teklia.com/HIMANIS/FR10187/words_annotations/http_gallica.bnf.fr_iiif_ark:_12148_btv1b90611100_f145_full_full_0_native.jpg.json/20/line", 
            "@type": "oa:Annotation", 
            "motivation": "oa:painting", 
            "on": "http://gallica.bnf.fr/iiif/ark:/12148/btv1b90611100/canvas/f145#xywh=2200,971,148,157", 
            "resource": {
                "@type": "cnt:ContentAsText", 
                "chars": "FINE", 
                "format": "text/plain"
            }
        }, 
        {
            "@id": "https://manifests.teklia.com/HIMANIS/FR10187/words_annotations/http_gallica.bnf.fr_iiif_ark:_12148_btv1b90611100_f145_full_full_0_native.jpg.json/21/line", 
            "@type": "oa:Annotation", 
            "motivation": "oa:painting", 
            "on": "http://gallica.bnf.fr/iiif/ark:/12148/btv1b90611100/canvas/f145#xywh=2855,730,62,164", 
            "resource": {
                "@type": "cnt:ContentAsText", 
                "chars": "CE", 
                "format": "text/plain"
            }
        }, 
        {
            "@id": "https://manifests.teklia.com/HIMANIS/FR10187/words_annotations/http_gallica.bnf.fr_iiif_ark:_12148_btv1b90611100_f145_full_full_0_native.jpg.json/22/line", 
            "@type": "oa:Annotation", 
            "motivation": "oa:painting", 
            "on": "http://gallica.bnf.fr/iiif/ark:/12148/btv1b90611100/canvas/f145#xywh=2946,1171,185,147", 
            "resource": {
                "@type": "cnt:ContentAsText", 
                "chars": "CHAUVE", 
                "format": "text/plain"
            }
        }, 
        {
            "@id": "https://manifests.teklia.com/HIMANIS/FR10187/words_annotations/http_gallica.bnf.fr_iiif_ark:_12148_btv1b90611100_f145_full_full_0_native.jpg.json/23/line", 
            "@type": "oa:Annotation", 
            "motivation": "oa:painting", 
            "on": "http://gallica.bnf.fr/iiif/ark:/12148/btv1b90611100/canvas/f145#xywh=2136,730,247,164", 
            "resource": {
                "@type": "cnt:ContentAsText", 
                "chars": "CLIQUE", 
                "format": "text/plain"
            }
        }, 
        {
            "@id": "https://manifests.teklia.com/HIMANIS/FR10187/words_annotations/http_gallica.bnf.fr_iiif_ark:_12148_btv1b90611100_f145_full_full_0_native.jpg.json/24/line", 
            "@type": "oa:Annotation", 
            "motivation": "oa:painting", 
            "on": "http://gallica.bnf.fr/iiif/ark:/12148/btv1b90611100/canvas/f145#xywh=3392,587,177,177", 
            "resource": {
                "@type": "cnt:ContentAsText", 
                "chars": "AUNOY", 
                "format": "text/plain"
            }
        }, 
        {
            "@id": "https://manifests.teklia.com/HIMANIS/FR10187/words_annotations/http_gallica.bnf.fr_iiif_ark:_12148_btv1b90611100_f145_full_full_0_native.jpg.json/25/line", 
            "@type": "oa:Annotation", 
            "motivation": "oa:painting", 
            "on": "http://gallica.bnf.fr/iiif/ark:/12148/btv1b90611100/canvas/f145#xywh=2284,587,554,177", 
            "resource": {
                "@type": "cnt:ContentAsText", 
                "chars": "D'AGE", 
                "format": "text/plain"
            }
        }, 
        {
            "@id": "https://manifests.teklia.com/HIMANIS/FR10187/words_annotations/http_gallica.bnf.fr_iiif_ark:_12148_btv1b90611100_f145_full_full_0_native.jpg.json/26/line", 
            "@type": "oa:Annotation", 
            "motivation": "oa:painting", 
            "on": "http://gallica.bnf.fr/iiif/ark:/12148/btv1b90611100/canvas/f145#xywh=2136,730,237,164", 
            "resource": {
                "@type": "cnt:ContentAsText", 
                "chars": "CLIQUO", 
                "format": "text/plain"
            }
        }, 
        {
            "@id": "https://manifests.teklia.com/HIMANIS/FR10187/words_annotations/http_gallica.bnf.fr_iiif_ark:_12148_btv1b90611100_f145_full_full_0_native.jpg.json/27/line", 
            "@type": "oa:Annotation", 
            "motivation": "oa:painting", 
            "on": "http://gallica.bnf.fr/iiif/ark:/12148/btv1b90611100/canvas/f145#xywh=3491,1171,388,147", 
            "resource": {
                "@type": "cnt:ContentAsText", 
                "chars": "SUPPLICA", 
                "format": "text/plain"
            }
        }, 
        {
            "@id": "https://manifests.teklia.com/HIMANIS/FR10187/words_annotations/http_gallica.bnf.fr_iiif_ark:_12148_btv1b90611100_f145_full_full_0_native.jpg.json/28/line", 
            "@type": "oa:Annotation", 
            "motivation": "oa:painting", 
            "on": "http://gallica.bnf.fr/iiif/ark:/12148/btv1b90611100/canvas/f145#xywh=645,315,1552,229", 
            "resource": {
                "@type": "cnt:ContentAsText", 
                "chars": "DAME", 
                "format": "text/plain"
            }
        }, 
        {
            "@id": "https://manifests.teklia.com/HIMANIS/FR10187/words_annotations/http_gallica.bnf.fr_iiif_ark:_12148_btv1b90611100_f145_full_full_0_native.jpg.json/29/line", 
            "@type": "oa:Annotation", 
            "motivation": "oa:painting", 
            "on": "http://gallica.bnf.fr/iiif/ark:/12148/btv1b90611100/canvas/f145#xywh=2916,587,321,177", 
            "resource": {
                "@type": "cnt:ContentAsText", 
                "chars": "RENIR", 
                "format": "text/plain"
            }
        }, 
        {
            "@id": "https://manifests.teklia.com/HIMANIS/FR10187/words_annotations/http_gallica.bnf.fr_iiif_ark:_12148_btv1b90611100_f145_full_full_0_native.jpg.json/30/line", 
            "@type": "oa:Annotation", 
            "motivation": "oa:painting", 
            "on": "http://gallica.bnf.fr/iiif/ark:/12148/btv1b90611100/canvas/f145#xywh=3710,2133,77,22", 
            "resource": {
                "@type": "cnt:ContentAsText", 
                "chars": "ET", 
                "format": "text/plain"
            }
        }, 
        {
            "@id": "https://manifests.teklia.com/HIMANIS/FR10187/words_annotations/http_gallica.bnf.fr_iiif_ark:_12148_btv1b90611100_f145_full_full_0_native.jpg.json/31/line", 
            "@type": "oa:Annotation", 
            "motivation": "oa:painting", 
            "on": "http://gallica.bnf.fr/iiif/ark:/12148/btv1b90611100/canvas/f145#xywh=2742,730,144,164", 
            "resource": {
                "@type": "cnt:ContentAsText", 
                "chars": "SIRE", 
                "format": "text/plain"
            }
        }, 
        {
            "@id": "https://manifests.teklia.com/HIMANIS/FR10187/words_annotations/http_gallica.bnf.fr_iiif_ark:_12148_btv1b90611100_f145_full_full_0_native.jpg.json/32/line", 
            "@type": "oa:Annotation", 
            "motivation": "oa:painting", 
            "on": "http://gallica.bnf.fr/iiif/ark:/12148/btv1b90611100/canvas/f145#xywh=2441,1081,239,123", 
            "resource": {
                "@type": "cnt:ContentAsText", 
                "chars": "POSLIEU", 
                "format": "text/plain"
            }
        }, 
        {
            "@id": "https://manifests.teklia.com/HIMANIS/FR10187/words_annotations/http_gallica.bnf.fr_iiif_ark:_12148_btv1b90611100_f145_full_full_0_native.jpg.json/33/line", 
            "@type": "oa:Annotation", 
            "motivation": "oa:painting", 
            "on": "http://gallica.bnf.fr/iiif/ark:/12148/btv1b90611100/canvas/f145#xywh=1501,971,394,157", 
            "resource": {
                "@type": "cnt:ContentAsText", 
                "chars": "MAISTIES", 
                "format": "text/plain"
            }
        }, 
        {
            "@id": "https://manifests.teklia.com/HIMANIS/FR10187/words_annotations/http_gallica.bnf.fr_iiif_ark:_12148_btv1b90611100_f145_full_full_0_native.jpg.json/34/line", 
            "@type": "oa:Annotation", 
            "motivation": "oa:painting", 
            "on": "http://gallica.bnf.fr/iiif/ark:/12148/btv1b90611100/canvas/f145#xywh=3302,856,158,157", 
            "resource": {
                "@type": "cnt:ContentAsText", 
                "chars": "RESTEZ", 
                "format": "text/plain"
            }
        }, 
        {
            "@id": "https://manifests.teklia.com/HIMANIS/FR10187/words_annotations/http_gallica.bnf.fr_iiif_ark:_12148_btv1b90611100_f145_full_full_0_native.jpg.json/35/line", 
            "@type": "oa:Annotation", 
            "motivation": "oa:painting", 
            "on": "http://gallica.bnf.fr/iiif/ark:/12148/btv1b90611100/canvas/f145#xywh=3509,856,374,157", 
            "resource": {
                "@type": "cnt:ContentAsText", 
                "chars": "POIER", 
                "format": "text/plain"
            }
        }, 
        {
            "@id": "https://manifests.teklia.com/HIMANIS/FR10187/words_annotations/http_gallica.bnf.fr_iiif_ark:_12148_btv1b90611100_f145_full_full_0_native.jpg.json/36/line", 
            "@type": "oa:Annotation", 
            "motivation": "oa:painting", 
            "on": "http://gallica.bnf.fr/iiif/ark:/12148/btv1b90611100/canvas/f145#xywh=3767,1742,0,65", 
            "resource": {
                "@type": "cnt:ContentAsText", 
                "chars": "J", 
                "format": "text/plain"
            }
        }, 
        {
            "@id": "https://manifests.teklia.com/HIMANIS/FR10187/words_annotations/http_gallica.bnf.fr_iiif_ark:_12148_btv1b90611100_f145_full_full_0_native.jpg.json/37/line", 
            "@type": "oa:Annotation", 
            "motivation": "oa:painting", 
            "on": "http://gallica.bnf.fr/iiif/ark:/12148/btv1b90611100/canvas/f145#xywh=2845,1171,65,147", 
            "resource": {
                "@type": "cnt:ContentAsText", 
                "chars": "LA", 
                "format": "text/plain"
            }
        }, 
        {
            "@id": "https://manifests.teklia.com/HIMANIS/FR10187/words_annotations/http_gallica.bnf.fr_iiif_ark:_12148_btv1b90611100_f145_full_full_0_native.jpg.json/38/line", 
            "@type": "oa:Annotation", 
            "motivation": "oa:painting", 
            "on": "http://gallica.bnf.fr/iiif/ark:/12148/btv1b90611100/canvas/f145#xywh=3767,1742,0,65", 
            "resource": {
                "@type": "cnt:ContentAsText", 
                "chars": "P", 
                "format": "text/plain"
            }
        }, 
        {
            "@id": "https://manifests.teklia.com/HIMANIS/FR10187/words_annotations/http_gallica.bnf.fr_iiif_ark:_12148_btv1b90611100_f145_full_full_0_native.jpg.json/39/line", 
            "@type": "oa:Annotation", 
            "motivation": "oa:painting", 
            "on": "http://gallica.bnf.fr/iiif/ark:/12148/btv1b90611100/canvas/f145#xywh=1885,1171,65,147", 
            "resource": {
                "@type": "cnt:ContentAsText", 
                "chars": "LE", 
                "format": "text/plain"
            }
        }, 
        {
            "@id": "https://manifests.teklia.com/HIMANIS/FR10187/words_annotations/http_gallica.bnf.fr_iiif_ark:_12148_btv1b90611100_f145_full_full_0_native.jpg.json/40/line", 
            "@type": "oa:Annotation", 
            "motivation": "oa:painting", 
            "on": "http://gallica.bnf.fr/iiif/ark:/12148/btv1b90611100/canvas/f145#xywh=3710,2133,182,22", 
            "resource": {
                "@type": "cnt:ContentAsText", 
                "chars": "LETTRE", 
                "format": "text/plain"
            }
        }, 
        {
            "@id": "https://manifests.teklia.com/HIMANIS/FR10187/words_annotations/http_gallica.bnf.fr_iiif_ark:_12148_btv1b90611100_f145_full_full_0_native.jpg.json/41/line", 
            "@type": "oa:Annotation", 
            "motivation": "oa:painting", 
            "on": "http://gallica.bnf.fr/iiif/ark:/12148/btv1b90611100/canvas/f145#xywh=2328,587,709,177", 
            "resource": {
                "@type": "cnt:ContentAsText", 
                "chars": "LE", 
                "format": "text/plain"
            }
        }, 
        {
            "@id": "https://manifests.teklia.com/HIMANIS/FR10187/words_annotations/http_gallica.bnf.fr_iiif_ark:_12148_btv1b90611100_f145_full_full_0_native.jpg.json/42/line", 
            "@type": "oa:Annotation", 
            "motivation": "oa:painting", 
            "on": "http://gallica.bnf.fr/iiif/ark:/12148/btv1b90611100/canvas/f145#xywh=2171,856,59,157", 
            "resource": {
                "@type": "cnt:ContentAsText", 
                "chars": "DE", 
                "format": "text/plain"
            }
        }, 
        {
            "@id": "https://manifests.teklia.com/HIMANIS/FR10187/words_annotations/http_gallica.bnf.fr_iiif_ark:_12148_btv1b90611100_f145_full_full_0_native.jpg.json/43/line", 
            "@type": "oa:Annotation", 
            "motivation": "oa:painting", 
            "on": "http://gallica.bnf.fr/iiif/ark:/12148/btv1b90611100/canvas/f145#xywh=3281,587,67,177", 
            "resource": {
                "@type": "cnt:ContentAsText", 
                "chars": "DE", 
                "format": "text/plain"
            }
        }, 
        {
            "@id": "https://manifests.teklia.com/HIMANIS/FR10187/words_annotations/http_gallica.bnf.fr_iiif_ark:_12148_btv1b90611100_f145_full_full_0_native.jpg.json/44/line", 
            "@type": "oa:Annotation", 
            "motivation": "oa:painting", 
            "on": "http://gallica.bnf.fr/iiif/ark:/12148/btv1b90611100/canvas/f145#xywh=2034,730,61,164", 
            "resource": {
                "@type": "cnt:ContentAsText", 
                "chars": "DE", 
                "format": "text/plain"
            }
        }, 
        {
            "@id": "https://manifests.teklia.com/HIMANIS/FR10187/words_annotations/http_gallica.bnf.fr_iiif_ark:_12148_btv1b90611100_f145_full_full_0_native.jpg.json/45/line", 
            "@type": "oa:Annotation", 
            "motivation": "oa:painting", 
            "on": "http://gallica.bnf.fr/iiif/ark:/12148/btv1b90611100/canvas/f145#xywh=2946,1171,259,147", 
            "resource": {
                "@type": "cnt:ContentAsText", 
                "chars": "CHANNES", 
                "format": "text/plain"
            }
        }, 
        {
            "@id": "https://manifests.teklia.com/HIMANIS/FR10187/words_annotations/http_gallica.bnf.fr_iiif_ark:_12148_btv1b90611100_f145_full_full_0_native.jpg.json/46/line", 
            "@type": "oa:Annotation", 
            "motivation": "oa:painting", 
            "on": "http://gallica.bnf.fr/iiif/ark:/12148/btv1b90611100/canvas/f145#xywh=3510,971,0,157", 
            "resource": {
                "@type": "cnt:ContentAsText", 
                "chars": "A", 
                "format": "text/plain"
            }
        }, 
        {
            "@id": "https://manifests.teklia.com/HIMANIS/FR10187/words_annotations/http_gallica.bnf.fr_iiif_ark:_12148_btv1b90611100_f145_full_full_0_native.jpg.json/47/line", 
            "@type": "oa:Annotation", 
            "motivation": "oa:painting", 
            "on": "http://gallica.bnf.fr/iiif/ark:/12148/btv1b90611100/canvas/f145#xywh=3048,587,189,177", 
            "resource": {
                "@type": "cnt:ContentAsText", 
                "chars": "TENIR", 
                "format": "text/plain"
            }
        }, 
        {
            "@id": "https://manifests.teklia.com/HIMANIS/FR10187/words_annotations/http_gallica.bnf.fr_iiif_ark:_12148_btv1b90611100_f145_full_full_0_native.jpg.json/48/line", 
            "@type": "oa:Annotation", 
            "motivation": "oa:painting", 
            "on": "http://gallica.bnf.fr/iiif/ark:/12148/btv1b90611100/canvas/f145#xywh=2734,1081,317,123", 
            "resource": {
                "@type": "cnt:ContentAsText", 
                "chars": "CONSERTIS", 
                "format": "text/plain"
            }
        }, 
        {
            "@id": "https://manifests.teklia.com/HIMANIS/FR10187/words_annotations/http_gallica.bnf.fr_iiif_ark:_12148_btv1b90611100_f145_full_full_0_native.jpg.json/49/line", 
            "@type": "oa:Annotation", 
            "motivation": "oa:painting", 
            "on": "http://gallica.bnf.fr/iiif/ark:/12148/btv1b90611100/canvas/f145#xywh=567,5008,69,55", 
            "resource": {
                "@type": "cnt:ContentAsText", 
                "chars": "PHILIPPES", 
                "format": "text/plain"
            }
        }, 
        {
            "@id": "https://manifests.teklia.com/HIMANIS/FR10187/words_annotations/http_gallica.bnf.fr_iiif_ark:_12148_btv1b90611100_f145_full_full_0_native.jpg.json/50/line", 
            "@type": "oa:Annotation", 
            "motivation": "oa:painting", 
            "on": "http://gallica.bnf.fr/iiif/ark:/12148/btv1b90611100/canvas/f145#xywh=3533,730,360,164", 
            "resource": {
                "@type": "cnt:ContentAsText", 
                "chars": "SUR", 
                "format": "text/plain"
            }
        }, 
        {
            "@id": "https://manifests.teklia.com/HIMANIS/FR10187/words_annotations/http_gallica.bnf.fr_iiif_ark:_12148_btv1b90611100_f145_full_full_0_native.jpg.json/51/line", 
            "@type": "oa:Annotation", 
            "motivation": "oa:painting", 
            "on": "http://gallica.bnf.fr/iiif/ark:/12148/btv1b90611100/canvas/f145#xywh=2279,856,364,157", 
            "resource": {
                "@type": "cnt:ContentAsText", 
                "chars": "NORMANDRE", 
                "format": "text/plain"
            }
        }, 
        {
            "@id": "https://manifests.teklia.com/HIMANIS/FR10187/words_annotations/http_gallica.bnf.fr_iiif_ark:_12148_btv1b90611100_f145_full_full_0_native.jpg.json/52/line", 
            "@type": "oa:Annotation", 
            "motivation": "oa:painting", 
            "on": "http://gallica.bnf.fr/iiif/ark:/12148/btv1b90611100/canvas/f145#xywh=2273,587,565,177", 
            "resource": {
                "@type": "cnt:ContentAsText", 
                "chars": "D'ADE", 
                "format": "text/plain"
            }
        }, 
        {
            "@id": "https://manifests.teklia.com/HIMANIS/FR10187/words_annotations/http_gallica.bnf.fr_iiif_ark:_12148_btv1b90611100_f145_full_full_0_native.jpg.json/53/line", 
            "@type": "oa:Annotation", 
            "motivation": "oa:painting", 
            "on": "http://gallica.bnf.fr/iiif/ark:/12148/btv1b90611100/canvas/f145#xywh=3703,1943,179,59", 
            "resource": {
                "@type": "cnt:ContentAsText", 
                "chars": "SALU", 
                "format": "text/plain"
            }
        }, 
        {
            "@id": "https://manifests.teklia.com/HIMANIS/FR10187/words_annotations/http_gallica.bnf.fr_iiif_ark:_12148_btv1b90611100_f145_full_full_0_native.jpg.json/54/line", 
            "@type": "oa:Annotation", 
            "motivation": "oa:painting", 
            "on": "http://gallica.bnf.fr/iiif/ark:/12148/btv1b90611100/canvas/f145#xywh=2446,971,276,157", 
            "resource": {
                "@type": "cnt:ContentAsText", 
                "chars": "MAISTRE", 
                "format": "text/plain"
            }
        }, 
        {
            "@id": "https://manifests.teklia.com/HIMANIS/FR10187/words_annotations/http_gallica.bnf.fr_iiif_ark:_12148_btv1b90611100_f145_full_full_0_native.jpg.json/55/line", 
            "@type": "oa:Annotation", 
            "motivation": "oa:painting", 
            "on": "http://gallica.bnf.fr/iiif/ark:/12148/btv1b90611100/canvas/f145#xywh=1501,971,394,157", 
            "resource": {
                "@type": "cnt:ContentAsText", 
                "chars": "MAISTRES", 
                "format": "text/plain"
            }
        }, 
        {
            "@id": "https://manifests.teklia.com/HIMANIS/FR10187/words_annotations/http_gallica.bnf.fr_iiif_ark:_12148_btv1b90611100_f145_full_full_0_native.jpg.json/56/line", 
            "@type": "oa:Annotation", 
            "motivation": "oa:painting", 
            "on": "http://gallica.bnf.fr/iiif/ark:/12148/btv1b90611100/canvas/f145#xywh=3509,856,305,157", 
            "resource": {
                "@type": "cnt:ContentAsText", 
                "chars": "POINE", 
                "format": "text/plain"
            }
        }, 
        {
            "@id": "https://manifests.teklia.com/HIMANIS/FR10187/words_annotations/http_gallica.bnf.fr_iiif_ark:_12148_btv1b90611100_f145_full_full_0_native.jpg.json/57/line", 
            "@type": "oa:Annotation", 
            "motivation": "oa:painting", 
            "on": "http://gallica.bnf.fr/iiif/ark:/12148/btv1b90611100/canvas/f145#xywh=3167,1081,46,123", 
            "resource": {
                "@type": "cnt:ContentAsText", 
                "chars": "IN", 
                "format": "text/plain"
            }
        }, 
        {
            "@id": "https://manifests.teklia.com/HIMANIS/FR10187/words_annotations/http_gallica.bnf.fr_iiif_ark:_12148_btv1b90611100_f145_full_full_0_native.jpg.json/58/line", 
            "@type": "oa:Annotation", 
            "motivation": "oa:painting", 
            "on": "http://gallica.bnf.fr/iiif/ark:/12148/btv1b90611100/canvas/f145#xywh=3167,1081,46,123", 
            "resource": {
                "@type": "cnt:ContentAsText", 
                "chars": "EN", 
                "format": "text/plain"
            }
        }, 
        {
            "@id": "https://manifests.teklia.com/HIMANIS/FR10187/words_annotations/http_gallica.bnf.fr_iiif_ark:_12148_btv1b90611100_f145_full_full_0_native.jpg.json/59/line", 
            "@type": "oa:Annotation", 
            "motivation": "oa:painting", 
            "on": "http://gallica.bnf.fr/iiif/ark:/12148/btv1b90611100/canvas/f145#xywh=2273,587,565,177", 
            "resource": {
                "@type": "cnt:ContentAsText", 
                "chars": "D'AUDE", 
                "format": "text/plain"
            }
        }, 
        {
            "@id": "https://manifests.teklia.com/HIMANIS/FR10187/words_annotations/http_gallica.bnf.fr_iiif_ark:_12148_btv1b90611100_f145_full_full_0_native.jpg.json/60/line", 
            "@type": "oa:Annotation", 
            "motivation": "oa:painting", 
            "on": "http://gallica.bnf.fr/iiif/ark:/12148/btv1b90611100/canvas/f145#xywh=2309,1081,23,123", 
            "resource": {
                "@type": "cnt:ContentAsText", 
                "chars": "AN", 
                "format": "text/plain"
            }
        }, 
        {
            "@id": "https://manifests.teklia.com/HIMANIS/FR10187/words_annotations/http_gallica.bnf.fr_iiif_ark:_12148_btv1b90611100_f145_full_full_0_native.jpg.json/61/line", 
            "@type": "oa:Annotation", 
            "motivation": "oa:painting", 
            "on": "http://gallica.bnf.fr/iiif/ark:/12148/btv1b90611100/canvas/f145#xywh=3290,1081,139,123", 
            "resource": {
                "@type": "cnt:ContentAsText", 
                "chars": "AU", 
                "format": "text/plain"
            }
        }, 
        {
            "@id": "https://manifests.teklia.com/HIMANIS/FR10187/words_annotations/http_gallica.bnf.fr_iiif_ark:_12148_btv1b90611100_f145_full_full_0_native.jpg.json/62/line", 
            "@type": "oa:Annotation", 
            "motivation": "oa:painting", 
            "on": "http://gallica.bnf.fr/iiif/ark:/12148/btv1b90611100/canvas/f145#xywh=2434,1317,508,111", 
            "resource": {
                "@type": "cnt:ContentAsText", 
                "chars": "SOURE", 
                "format": "text/plain"
            }
        }, 
        {
            "@id": "https://manifests.teklia.com/HIMANIS/FR10187/words_annotations/http_gallica.bnf.fr_iiif_ark:_12148_btv1b90611100_f145_full_full_0_native.jpg.json/63/line", 
            "@type": "oa:Annotation", 
            "motivation": "oa:painting", 
            "on": "http://gallica.bnf.fr/iiif/ark:/12148/btv1b90611100/canvas/f145#xywh=2441,1081,239,123", 
            "resource": {
                "@type": "cnt:ContentAsText", 
                "chars": "PELIER", 
                "format": "text/plain"
            }
        }, 
        {
            "@id": "https://manifests.teklia.com/HIMANIS/FR10187/words_annotations/http_gallica.bnf.fr_iiif_ark:_12148_btv1b90611100_f145_full_full_0_native.jpg.json/64/line", 
            "@type": "oa:Annotation", 
            "motivation": "oa:painting", 
            "on": "http://gallica.bnf.fr/iiif/ark:/12148/btv1b90611100/canvas/f145#xywh=2441,1081,239,123", 
            "resource": {
                "@type": "cnt:ContentAsText", 
                "chars": "PELIEU", 
                "format": "text/plain"
            }
        }, 
        {
            "@id": "https://manifests.teklia.com/HIMANIS/FR10187/words_annotations/http_gallica.bnf.fr_iiif_ark:_12148_btv1b90611100_f145_full_full_0_native.jpg.json/65/line", 
            "@type": "oa:Annotation", 
            "motivation": "oa:painting", 
            "on": "http://gallica.bnf.fr/iiif/ark:/12148/btv1b90611100/canvas/f145#xywh=2434,1317,515,111", 
            "resource": {
                "@type": "cnt:ContentAsText", 
                "chars": "SOURS", 
                "format": "text/plain"
            }
        }, 
        {
            "@id": "https://manifests.teklia.com/HIMANIS/FR10187/words_annotations/http_gallica.bnf.fr_iiif_ark:_12148_btv1b90611100_f145_full_full_0_native.jpg.json/66/line", 
            "@type": "oa:Annotation", 
            "motivation": "oa:painting", 
            "on": "http://gallica.bnf.fr/iiif/ark:/12148/btv1b90611100/canvas/f145#xywh=2434,1317,174,111", 
            "resource": {
                "@type": "cnt:ContentAsText", 
                "chars": "SOURT", 
                "format": "text/plain"
            }
        }, 
        {
            "@id": "https://manifests.teklia.com/HIMANIS/FR10187/words_annotations/http_gallica.bnf.fr_iiif_ark:_12148_btv1b90611100_f145_full_full_0_native.jpg.json/67/line", 
            "@type": "oa:Annotation", 
            "motivation": "oa:painting", 
            "on": "http://gallica.bnf.fr/iiif/ark:/12148/btv1b90611100/canvas/f145#xywh=2734,1081,348,123", 
            "resource": {
                "@type": "cnt:ContentAsText", 
                "chars": "CONSERTIES", 
                "format": "text/plain"
            }
        }, 
        {
            "@id": "https://manifests.teklia.com/HIMANIS/FR10187/words_annotations/http_gallica.bnf.fr_iiif_ark:_12148_btv1b90611100_f145_full_full_0_native.jpg.json/68/line", 
            "@type": "oa:Annotation", 
            "motivation": "oa:painting", 
            "on": "http://gallica.bnf.fr/iiif/ark:/12148/btv1b90611100/canvas/f145#xywh=2716,1171,74,147", 
            "resource": {
                "@type": "cnt:ContentAsText", 
                "chars": "IN", 
                "format": "text/plain"
            }
        }, 
        {
            "@id": "https://manifests.teklia.com/HIMANIS/FR10187/words_annotations/http_gallica.bnf.fr_iiif_ark:_12148_btv1b90611100_f145_full_full_0_native.jpg.json/69/line", 
            "@type": "oa:Annotation", 
            "motivation": "oa:painting", 
            "on": "http://gallica.bnf.fr/iiif/ark:/12148/btv1b90611100/canvas/f145#xywh=558,4942,127,54", 
            "resource": {
                "@type": "cnt:ContentAsText", 
                "chars": "PHIL", 
                "format": "text/plain"
            }
        }, 
        {
            "@id": "https://manifests.teklia.com/HIMANIS/FR10187/words_annotations/http_gallica.bnf.fr_iiif_ark:_12148_btv1b90611100_f145_full_full_0_native.jpg.json/70/line", 
            "@type": "oa:Annotation", 
            "motivation": "oa:painting", 
            "on": "http://gallica.bnf.fr/iiif/ark:/12148/btv1b90611100/canvas/f145#xywh=2136,730,257,164", 
            "resource": {
                "@type": "cnt:ContentAsText", 
                "chars": "CLIQUOY", 
                "format": "text/plain"
            }
        }, 
        {
            "@id": "https://manifests.teklia.com/HIMANIS/FR10187/words_annotations/http_gallica.bnf.fr_iiif_ark:_12148_btv1b90611100_f145_full_full_0_native.jpg.json/71/line", 
            "@type": "oa:Annotation", 
            "motivation": "oa:painting", 
            "on": "http://gallica.bnf.fr/iiif/ark:/12148/btv1b90611100/canvas/f145#xywh=3703,1943,183,59", 
            "resource": {
                "@type": "cnt:ContentAsText", 
                "chars": "PHILI", 
                "format": "text/plain"
            }
        }, 
        {
            "@id": "https://manifests.teklia.com/HIMANIS/FR10187/words_annotations/http_gallica.bnf.fr_iiif_ark:_12148_btv1b90611100_f145_full_full_0_native.jpg.json/72/line", 
            "@type": "oa:Annotation", 
            "motivation": "oa:painting", 
            "on": "http://gallica.bnf.fr/iiif/ark:/12148/btv1b90611100/canvas/f145#xywh=3710,2133,182,22", 
            "resource": {
                "@type": "cnt:ContentAsText", 
                "chars": "LITTER", 
                "format": "text/plain"
            }
        }, 
        {
            "@id": "https://manifests.teklia.com/HIMANIS/FR10187/words_annotations/http_gallica.bnf.fr_iiif_ark:_12148_btv1b90611100_f145_full_full_0_native.jpg.json/73/line", 
            "@type": "oa:Annotation", 
            "motivation": "oa:painting", 
            "on": "http://gallica.bnf.fr/iiif/ark:/12148/btv1b90611100/canvas/f145#xywh=1863,587,366,177", 
            "resource": {
                "@type": "cnt:ContentAsText", 
                "chars": "SALUT", 
                "format": "text/plain"
            }
        }, 
        {
            "@id": "https://manifests.teklia.com/HIMANIS/FR10187/words_annotations/http_gallica.bnf.fr_iiif_ark:_12148_btv1b90611100_f145_full_full_0_native.jpg.json/74/line", 
            "@type": "oa:Annotation", 
            "motivation": "oa:painting", 
            "on": "http://gallica.bnf.fr/iiif/ark:/12148/btv1b90611100/canvas/f145#xywh=3489,856,30,157", 
            "resource": {
                "@type": "cnt:ContentAsText", 
                "chars": "AL", 
                "format": "text/plain"
            }
        }, 
        {
            "@id": "https://manifests.teklia.com/HIMANIS/FR10187/words_annotations/http_gallica.bnf.fr_iiif_ark:_12148_btv1b90611100_f145_full_full_0_native.jpg.json/75/line", 
            "@type": "oa:Annotation", 
            "motivation": "oa:painting", 
            "on": "http://gallica.bnf.fr/iiif/ark:/12148/btv1b90611100/canvas/f145#xywh=3048,587,189,177", 
            "resource": {
                "@type": "cnt:ContentAsText", 
                "chars": "VENIR", 
                "format": "text/plain"
            }
        }, 
        {
            "@id": "https://manifests.teklia.com/HIMANIS/FR10187/words_annotations/http_gallica.bnf.fr_iiif_ark:_12148_btv1b90611100_f145_full_full_0_native.jpg.json/76/line", 
            "@type": "oa:Annotation", 
            "motivation": "oa:painting", 
            "on": "http://gallica.bnf.fr/iiif/ark:/12148/btv1b90611100/canvas/f145#xywh=1777,856,355,157", 
            "resource": {
                "@type": "cnt:ContentAsText", 
                "chars": "SENESCHAL", 
                "format": "text/plain"
            }
        }, 
        {
            "@id": "https://manifests.teklia.com/HIMANIS/FR10187/words_annotations/http_gallica.bnf.fr_iiif_ark:_12148_btv1b90611100_f145_full_full_0_native.jpg.json/77/line", 
            "@type": "oa:Annotation", 
            "motivation": "oa:painting", 
            "on": "http://gallica.bnf.fr/iiif/ark:/12148/btv1b90611100/canvas/f145#xywh=2132,1081,123,123", 
            "resource": {
                "@type": "cnt:ContentAsText", 
                "chars": "LES", 
                "format": "text/plain"
            }
        }, 
        {
            "@id": "https://manifests.teklia.com/HIMANIS/FR10187/words_annotations/http_gallica.bnf.fr_iiif_ark:_12148_btv1b90611100_f145_full_full_0_native.jpg.json/78/line", 
            "@type": "oa:Annotation", 
            "motivation": "oa:painting", 
            "on": "http://gallica.bnf.fr/iiif/ark:/12148/btv1b90611100/canvas/f145#xywh=3224,856,236,157", 
            "resource": {
                "@type": "cnt:ContentAsText", 
                "chars": "SENESCHEZ", 
                "format": "text/plain"
            }
        }, 
        {
            "@id": "https://manifests.teklia.com/HIMANIS/FR10187/words_annotations/http_gallica.bnf.fr_iiif_ark:_12148_btv1b90611100_f145_full_full_0_native.jpg.json/79/line", 
            "@type": "oa:Annotation", 
            "motivation": "oa:painting", 
            "on": "http://gallica.bnf.fr/iiif/ark:/12148/btv1b90611100/canvas/f145#xywh=1792,1081,232,123", 
            "resource": {
                "@type": "cnt:ContentAsText", 
                "chars": "PRION", 
                "format": "text/plain"
            }
        }, 
        {
            "@id": "https://manifests.teklia.com/HIMANIS/FR10187/words_annotations/http_gallica.bnf.fr_iiif_ark:_12148_btv1b90611100_f145_full_full_0_native.jpg.json/80/line", 
            "@type": "oa:Annotation", 
            "motivation": "oa:painting", 
            "on": "http://gallica.bnf.fr/iiif/ark:/12148/btv1b90611100/canvas/f145#xywh=2771,856,384,157", 
            "resource": {
                "@type": "cnt:ContentAsText", 
                "chars": "SAUGONION", 
                "format": "text/plain"
            }
        }, 
        {
            "@id": "https://manifests.teklia.com/HIMANIS/FR10187/words_annotations/http_gallica.bnf.fr_iiif_ark:_12148_btv1b90611100_f145_full_full_0_native.jpg.json/81/line", 
            "@type": "oa:Annotation", 
            "motivation": "oa:painting", 
            "on": "http://gallica.bnf.fr/iiif/ark:/12148/btv1b90611100/canvas/f145#xywh=2441,1081,239,123", 
            "resource": {
                "@type": "cnt:ContentAsText", 
                "chars": "PESLIEU", 
                "format": "text/plain"
            }
        }, 
        {
            "@id": "https://manifests.teklia.com/HIMANIS/FR10187/words_annotations/http_gallica.bnf.fr_iiif_ark:_12148_btv1b90611100_f145_full_full_0_native.jpg.json/82/line", 
            "@type": "oa:Annotation", 
            "motivation": "oa:painting", 
            "on": "http://gallica.bnf.fr/iiif/ark:/12148/btv1b90611100/canvas/f145#xywh=3205,1171,194,147", 
            "resource": {
                "@type": "cnt:ContentAsText", 
                "chars": "LEUR", 
                "format": "text/plain"
            }
        }, 
        {
            "@id": "https://manifests.teklia.com/HIMANIS/FR10187/words_annotations/http_gallica.bnf.fr_iiif_ark:_12148_btv1b90611100_f145_full_full_0_native.jpg.json/83/line", 
            "@type": "oa:Annotation", 
            "motivation": "oa:painting", 
            "on": "http://gallica.bnf.fr/iiif/ark:/12148/btv1b90611100/canvas/f145#xywh=2781,971,69,157", 
            "resource": {
                "@type": "cnt:ContentAsText", 
                "chars": "ES", 
                "format": "text/plain"
            }
        }, 
        {
            "@id": "https://manifests.teklia.com/HIMANIS/FR10187/words_annotations/http_gallica.bnf.fr_iiif_ark:_12148_btv1b90611100_f145_full_full_0_native.jpg.json/84/line", 
            "@type": "oa:Annotation", 
            "motivation": "oa:painting", 
            "on": "http://gallica.bnf.fr/iiif/ark:/12148/btv1b90611100/canvas/f145#xywh=2527,730,174,164", 
            "resource": {
                "@type": "cnt:ContentAsText", 
                "chars": "ES", 
                "format": "text/plain"
            }
        }, 
        {
            "@id": "https://manifests.teklia.com/HIMANIS/FR10187/words_annotations/http_gallica.bnf.fr_iiif_ark:_12148_btv1b90611100_f145_full_full_0_native.jpg.json/85/line", 
            "@type": "oa:Annotation", 
            "motivation": "oa:painting", 
            "on": "http://gallica.bnf.fr/iiif/ark:/12148/btv1b90611100/canvas/f145#xywh=2781,971,79,157", 
            "resource": {
                "@type": "cnt:ContentAsText", 
                "chars": "ET", 
                "format": "text/plain"
            }
        }, 
        {
            "@id": "https://manifests.teklia.com/HIMANIS/FR10187/words_annotations/http_gallica.bnf.fr_iiif_ark:_12148_btv1b90611100_f145_full_full_0_native.jpg.json/86/line", 
            "@type": "oa:Annotation", 
            "motivation": "oa:painting", 
            "on": "http://gallica.bnf.fr/iiif/ark:/12148/btv1b90611100/canvas/f145#xywh=3349,730,20,164", 
            "resource": {
                "@type": "cnt:ContentAsText", 
                "chars": "ET", 
                "format": "text/plain"
            }
        }, 
        {
            "@id": "https://manifests.teklia.com/HIMANIS/FR10187/words_annotations/http_gallica.bnf.fr_iiif_ark:_12148_btv1b90611100_f145_full_full_0_native.jpg.json/87/line", 
            "@type": "oa:Annotation", 
            "motivation": "oa:painting", 
            "on": "http://gallica.bnf.fr/iiif/ark:/12148/btv1b90611100/canvas/f145#xywh=2236,1171,360,147", 
            "resource": {
                "@type": "cnt:ContentAsText", 
                "chars": "CORRECTUM", 
                "format": "text/plain"
            }
        }, 
        {
            "@id": "https://manifests.teklia.com/HIMANIS/FR10187/words_annotations/http_gallica.bnf.fr_iiif_ark:_12148_btv1b90611100_f145_full_full_0_native.jpg.json/88/line", 
            "@type": "oa:Annotation", 
            "motivation": "oa:painting", 
            "on": "http://gallica.bnf.fr/iiif/ark:/12148/btv1b90611100/canvas/f145#xywh=2527,730,195,164", 
            "resource": {
                "@type": "cnt:ContentAsText", 
                "chars": "DES", 
                "format": "text/plain"
            }
        }, 
        {
            "@id": "https://manifests.teklia.com/HIMANIS/FR10187/words_annotations/http_gallica.bnf.fr_iiif_ark:_12148_btv1b90611100_f145_full_full_0_native.jpg.json/89/line", 
            "@type": "oa:Annotation", 
            "motivation": "oa:painting", 
            "on": "http://gallica.bnf.fr/iiif/ark:/12148/btv1b90611100/canvas/f145#xywh=3510,971,374,157", 
            "resource": {
                "@type": "cnt:ContentAsText", 
                "chars": "L'OSTES", 
                "format": "text/plain"
            }
        }, 
        {
            "@id": "https://manifests.teklia.com/HIMANIS/FR10187/words_annotations/http_gallica.bnf.fr_iiif_ark:_12148_btv1b90611100_f145_full_full_0_native.jpg.json/90/line", 
            "@type": "oa:Annotation", 
            "motivation": "oa:painting", 
            "on": "http://gallica.bnf.fr/iiif/ark:/12148/btv1b90611100/canvas/f145#xywh=3491,1171,397,147", 
            "resource": {
                "@type": "cnt:ContentAsText", 
                "chars": "SUPPLIAL", 
                "format": "text/plain"
            }
        }, 
        {
            "@id": "https://manifests.teklia.com/HIMANIS/FR10187/words_annotations/http_gallica.bnf.fr_iiif_ark:_12148_btv1b90611100_f145_full_full_0_native.jpg.json/91/line", 
            "@type": "oa:Annotation", 
            "motivation": "oa:painting", 
            "on": "http://gallica.bnf.fr/iiif/ark:/12148/btv1b90611100/canvas/f145#xywh=3491,1171,351,147", 
            "resource": {
                "@type": "cnt:ContentAsText", 
                "chars": "SUPPLIAN", 
                "format": "text/plain"
            }
        }, 
        {
            "@id": "https://manifests.teklia.com/HIMANIS/FR10187/words_annotations/http_gallica.bnf.fr_iiif_ark:_12148_btv1b90611100_f145_full_full_0_native.jpg.json/92/line", 
            "@type": "oa:Annotation", 
            "motivation": "oa:painting", 
            "on": "http://gallica.bnf.fr/iiif/ark:/12148/btv1b90611100/canvas/f145#xywh=3776,1642,0,60", 
            "resource": {
                "@type": "cnt:ContentAsText", 
                "chars": "J", 
                "format": "text/plain"
            }
        }, 
        {
            "@id": "https://manifests.teklia.com/HIMANIS/FR10187/words_annotations/http_gallica.bnf.fr_iiif_ark:_12148_btv1b90611100_f145_full_full_0_native.jpg.json/93/line", 
            "@type": "oa:Annotation", 
            "motivation": "oa:painting", 
            "on": "http://gallica.bnf.fr/iiif/ark:/12148/btv1b90611100/canvas/f145#xywh=3776,1642,0,60", 
            "resource": {
                "@type": "cnt:ContentAsText", 
                "chars": "P", 
                "format": "text/plain"
            }
        }, 
        {
            "@id": "https://manifests.teklia.com/HIMANIS/FR10187/words_annotations/http_gallica.bnf.fr_iiif_ark:_12148_btv1b90611100_f145_full_full_0_native.jpg.json/94/line", 
            "@type": "oa:Annotation", 
            "motivation": "oa:painting", 
            "on": "http://gallica.bnf.fr/iiif/ark:/12148/btv1b90611100/canvas/f145#xywh=3302,856,158,157", 
            "resource": {
                "@type": "cnt:ContentAsText", 
                "chars": "NOSTRE", 
                "format": "text/plain"
            }
        }, 
        {
            "@id": "https://manifests.teklia.com/HIMANIS/FR10187/words_annotations/http_gallica.bnf.fr_iiif_ark:_12148_btv1b90611100_f145_full_full_0_native.jpg.json/95/line", 
            "@type": "oa:Annotation", 
            "motivation": "oa:painting", 
            "on": "http://gallica.bnf.fr/iiif/ark:/12148/btv1b90611100/canvas/f145#xywh=2742,730,175,164", 
            "resource": {
                "@type": "cnt:ContentAsText", 
                "chars": "SIRES", 
                "format": "text/plain"
            }
        }, 
        {
            "@id": "https://manifests.teklia.com/HIMANIS/FR10187/words_annotations/http_gallica.bnf.fr_iiif_ark:_12148_btv1b90611100_f145_full_full_0_native.jpg.json/96/line", 
            "@type": "oa:Annotation", 
            "motivation": "oa:painting", 
            "on": "http://gallica.bnf.fr/iiif/ark:/12148/btv1b90611100/canvas/f145#xywh=2771,856,384,157", 
            "resource": {
                "@type": "cnt:ContentAsText", 
                "chars": "SAUGENTON", 
                "format": "text/plain"
            }
        }, 
        {
            "@id": "https://manifests.teklia.com/HIMANIS/FR10187/words_annotations/http_gallica.bnf.fr_iiif_ark:_12148_btv1b90611100_f145_full_full_0_native.jpg.json/97/line", 
            "@type": "oa:Annotation", 
            "motivation": "oa:painting", 
            "on": "http://gallica.bnf.fr/iiif/ark:/12148/btv1b90611100/canvas/f145#xywh=1442,587,366,177", 
            "resource": {
                "@type": "cnt:ContentAsText", 
                "chars": "JOHANNEURS", 
                "format": "text/plain"
            }
        }, 
        {
            "@id": "https://manifests.teklia.com/HIMANIS/FR10187/words_annotations/http_gallica.bnf.fr_iiif_ark:_12148_btv1b90611100_f145_full_full_0_native.jpg.json/98/line", 
            "@type": "oa:Annotation", 
            "motivation": "oa:painting", 
            "on": "http://gallica.bnf.fr/iiif/ark:/12148/btv1b90611100/canvas/f145#xywh=2734,1081,325,123", 
            "resource": {
                "@type": "cnt:ContentAsText", 
                "chars": "CONSERTIRIS", 
                "format": "text/plain"
            }
        }, 
        {
            "@id": "https://manifests.teklia.com/HIMANIS/FR10187/words_annotations/http_gallica.bnf.fr_iiif_ark:_12148_btv1b90611100_f145_full_full_0_native.jpg.json/99/line", 
            "@type": "oa:Annotation", 
            "motivation": "oa:painting", 
            "on": "http://gallica.bnf.fr/iiif/ark:/12148/btv1b90611100/canvas/f145#xywh=2781,971,561,157", 
            "resource": {
                "@type": "cnt:ContentAsText", 
                "chars": "BRDINANS", 
                "format": "text/plain"
            }
        }, 
        {
            "@id": "https://manifests.teklia.com/HIMANIS/FR10187/words_annotations/http_gallica.bnf.fr_iiif_ark:_12148_btv1b90611100_f145_full_full_0_native.jpg.json/100/line", 
            "@type": "oa:Annotation", 
            "motivation": "oa:painting", 
            "on": "http://gallica.bnf.fr/iiif/ark:/12148/btv1b90611100/canvas/f145#xywh=3509,856,374,157", 
            "resource": {
                "@type": "cnt:ContentAsText", 
                "chars": "POISS", 
                "format": "text/plain"
            }
        }, 
        {
            "@id": "https://manifests.teklia.com/HIMANIS/FR10187/words_annotations/http_gallica.bnf.fr_iiif_ark:_12148_btv1b90611100_f145_full_full_0_native.jpg.json/101/line", 
            "@type": "oa:Annotation", 
            "motivation": "oa:painting", 
            "on": "http://gallica.bnf.fr/iiif/ark:/12148/btv1b90611100/canvas/f145#xywh=2273,587,565,177", 
            "resource": {
                "@type": "cnt:ContentAsText", 
                "chars": "D'ARDE", 
                "format": "text/plain"
            }
        }, 
        {
            "@id": "https://manifests.teklia.com/HIMANIS/FR10187/words_annotations/http_gallica.bnf.fr_iiif_ark:_12148_btv1b90611100_f145_full_full_0_native.jpg.json/102/line", 
            "@type": "oa:Annotation", 
            "motivation": "oa:painting", 
            "on": "http://gallica.bnf.fr/iiif/ark:/12148/btv1b90611100/canvas/f145#xywh=3703,1943,175,59", 
            "resource": {
                "@type": "cnt:ContentAsText", 
                "chars": "LES", 
                "format": "text/plain"
            }
        }, 
        {
            "@id": "https://manifests.teklia.com/HIMANIS/FR10187/words_annotations/http_gallica.bnf.fr_iiif_ark:_12148_btv1b90611100_f145_full_full_0_native.jpg.json/103/line", 
            "@type": "oa:Annotation", 
            "motivation": "oa:painting", 
            "on": "http://gallica.bnf.fr/iiif/ark:/12148/btv1b90611100/canvas/f145#xywh=3509,856,354,157", 
            "resource": {
                "@type": "cnt:ContentAsText", 
                "chars": "PAIE", 
                "format": "text/plain"
            }
        }, 
        {
            "@id": "https://manifests.teklia.com/HIMANIS/FR10187/words_annotations/http_gallica.bnf.fr_iiif_ark:_12148_btv1b90611100_f145_full_full_0_native.jpg.json/104/line", 
            "@type": "oa:Annotation", 
            "motivation": "oa:painting", 
            "on": "http://gallica.bnf.fr/iiif/ark:/12148/btv1b90611100/canvas/f145#xywh=3703,1943,171,59", 
            "resource": {
                "@type": "cnt:ContentAsText", 
                "chars": "SAL", 
                "format": "text/plain"
            }
        }, 
        {
            "@id": "https://manifests.teklia.com/HIMANIS/FR10187/words_annotations/http_gallica.bnf.fr_iiif_ark:_12148_btv1b90611100_f145_full_full_0_native.jpg.json/105/line", 
            "@type": "oa:Annotation", 
            "motivation": "oa:painting", 
            "on": "http://gallica.bnf.fr/iiif/ark:/12148/btv1b90611100/canvas/f145#xywh=1852,587,388,177", 
            "resource": {
                "@type": "cnt:ContentAsText", 
                "chars": "SALVO", 
                "format": "text/plain"
            }
        }, 
        {
            "@id": "https://manifests.teklia.com/HIMANIS/FR10187/words_annotations/http_gallica.bnf.fr_iiif_ark:_12148_btv1b90611100_f145_full_full_0_native.jpg.json/106/line", 
            "@type": "oa:Annotation", 
            "motivation": "oa:painting", 
            "on": "http://gallica.bnf.fr/iiif/ark:/12148/btv1b90611100/canvas/f145#xywh=3510,971,374,157", 
            "resource": {
                "@type": "cnt:ContentAsText", 
                "chars": "L'OSES", 
                "format": "text/plain"
            }
        }, 
        {
            "@id": "https://manifests.teklia.com/HIMANIS/FR10187/words_annotations/http_gallica.bnf.fr_iiif_ark:_12148_btv1b90611100_f145_full_full_0_native.jpg.json/107/line", 
            "@type": "oa:Annotation", 
            "motivation": "oa:painting", 
            "on": "http://gallica.bnf.fr/iiif/ark:/12148/btv1b90611100/canvas/f145#xywh=2136,730,257,164", 
            "resource": {
                "@type": "cnt:ContentAsText", 
                "chars": "TOUQUOY", 
                "format": "text/plain"
            }
        }, 
        {
            "@id": "https://manifests.teklia.com/HIMANIS/FR10187/words_annotations/http_gallica.bnf.fr_iiif_ark:_12148_btv1b90611100_f145_full_full_0_native.jpg.json/108/line", 
            "@type": "oa:Annotation", 
            "motivation": "oa:painting", 
            "on": "http://gallica.bnf.fr/iiif/ark:/12148/btv1b90611100/canvas/f145#xywh=2236,1171,424,147", 
            "resource": {
                "@type": "cnt:ContentAsText", 
                "chars": "CORPETUUM", 
                "format": "text/plain"
            }
        }, 
        {
            "@id": "https://manifests.teklia.com/HIMANIS/FR10187/words_annotations/http_gallica.bnf.fr_iiif_ark:_12148_btv1b90611100_f145_full_full_0_native.jpg.json/109/line", 
            "@type": "oa:Annotation", 
            "motivation": "oa:painting", 
            "on": "http://gallica.bnf.fr/iiif/ark:/12148/btv1b90611100/canvas/f145#xywh=2273,587,266,177", 
            "resource": {
                "@type": "cnt:ContentAsText", 
                "chars": "D'AGNE", 
                "format": "text/plain"
            }
        }, 
        {
            "@id": "https://manifests.teklia.com/HIMANIS/FR10187/words_annotations/http_gallica.bnf.fr_iiif_ark:_12148_btv1b90611100_f145_full_full_0_native.jpg.json/110/line", 
            "@type": "oa:Annotation", 
            "motivation": "oa:painting", 
            "on": "http://gallica.bnf.fr/iiif/ark:/12148/btv1b90611100/canvas/f145#xywh=1821,1317,223,111", 
            "resource": {
                "@type": "cnt:ContentAsText", 
                "chars": "ESLON", 
                "format": "text/plain"
            }
        }, 
        {
            "@id": "https://manifests.teklia.com/HIMANIS/FR10187/words_annotations/http_gallica.bnf.fr_iiif_ark:_12148_btv1b90611100_f145_full_full_0_native.jpg.json/111/line", 
            "@type": "oa:Annotation", 
            "motivation": "oa:painting", 
            "on": "http://gallica.bnf.fr/iiif/ark:/12148/btv1b90611100/canvas/f145#xywh=3762,1859,0,48", 
            "resource": {
                "@type": "cnt:ContentAsText", 
                "chars": "J", 
                "format": "text/plain"
            }
        }, 
        {
            "@id": "https://manifests.teklia.com/HIMANIS/FR10187/words_annotations/http_gallica.bnf.fr_iiif_ark:_12148_btv1b90611100_f145_full_full_0_native.jpg.json/112/line", 
            "@type": "oa:Annotation", 
            "motivation": "oa:painting", 
            "on": "http://gallica.bnf.fr/iiif/ark:/12148/btv1b90611100/canvas/f145#xywh=3762,1859,0,48", 
            "resource": {
                "@type": "cnt:ContentAsText", 
                "chars": "P", 
                "format": "text/plain"
            }
        }, 
        {
            "@id": "https://manifests.teklia.com/HIMANIS/FR10187/words_annotations/http_gallica.bnf.fr_iiif_ark:_12148_btv1b90611100_f145_full_full_0_native.jpg.json/113/line", 
            "@type": "oa:Annotation", 
            "motivation": "oa:painting", 
            "on": "http://gallica.bnf.fr/iiif/ark:/12148/btv1b90611100/canvas/f145#xywh=2200,971,138,157", 
            "resource": {
                "@type": "cnt:ContentAsText", 
                "chars": "FUIT", 
                "format": "text/plain"
            }
        }, 
        {
            "@id": "https://manifests.teklia.com/HIMANIS/FR10187/words_annotations/http_gallica.bnf.fr_iiif_ark:_12148_btv1b90611100_f145_full_full_0_native.jpg.json/114/line", 
            "@type": "oa:Annotation", 
            "motivation": "oa:painting", 
            "on": "http://gallica.bnf.fr/iiif/ark:/12148/btv1b90611100/canvas/f145#xywh=3489,856,50,157", 
            "resource": {
                "@type": "cnt:ContentAsText", 
                "chars": "ALI", 
                "format": "text/plain"
            }
        }, 
        {
            "@id": "https://manifests.teklia.com/HIMANIS/FR10187/words_annotations/http_gallica.bnf.fr_iiif_ark:_12148_btv1b90611100_f145_full_full_0_native.jpg.json/115/line", 
            "@type": "oa:Annotation", 
            "motivation": "oa:painting", 
            "on": "http://gallica.bnf.fr/iiif/ark:/12148/btv1b90611100/canvas/f145#xywh=1968,1171,129,147", 
            "resource": {
                "@type": "cnt:ContentAsText", 
                "chars": "VISTE", 
                "format": "text/plain"
            }
        }, 
        {
            "@id": "https://manifests.teklia.com/HIMANIS/FR10187/words_annotations/http_gallica.bnf.fr_iiif_ark:_12148_btv1b90611100_f145_full_full_0_native.jpg.json/116/line", 
            "@type": "oa:Annotation", 
            "motivation": "oa:painting", 
            "on": "http://gallica.bnf.fr/iiif/ark:/12148/btv1b90611100/canvas/f145#xywh=3290,1081,541,123", 
            "resource": {
                "@type": "cnt:ContentAsText", 
                "chars": "COMI", 
                "format": "text/plain"
            }
        }, 
        {
            "@id": "https://manifests.teklia.com/HIMANIS/FR10187/words_annotations/http_gallica.bnf.fr_iiif_ark:_12148_btv1b90611100_f145_full_full_0_native.jpg.json/117/line", 
            "@type": "oa:Annotation", 
            "motivation": "oa:painting", 
            "on": "http://gallica.bnf.fr/iiif/ark:/12148/btv1b90611100/canvas/f145#xywh=1502,856,226,157", 
            "resource": {
                "@type": "cnt:ContentAsText", 
                "chars": "POUR", 
                "format": "text/plain"
            }
        }, 
        {
            "@id": "https://manifests.teklia.com/HIMANIS/FR10187/words_annotations/http_gallica.bnf.fr_iiif_ark:_12148_btv1b90611100_f145_full_full_0_native.jpg.json/118/line", 
            "@type": "oa:Annotation", 
            "motivation": "oa:painting", 
            "on": "http://gallica.bnf.fr/iiif/ark:/12148/btv1b90611100/canvas/f145#xywh=1630,587,277,177", 
            "resource": {
                "@type": "cnt:ContentAsText", 
                "chars": "QUE", 
                "format": "text/plain"
            }
        }, 
        {
            "@id": "https://manifests.teklia.com/HIMANIS/FR10187/words_annotations/http_gallica.bnf.fr_iiif_ark:_12148_btv1b90611100_f145_full_full_0_native.jpg.json/119/line", 
            "@type": "oa:Annotation", 
            "motivation": "oa:painting", 
            "on": "http://gallica.bnf.fr/iiif/ark:/12148/btv1b90611100/canvas/f145#xywh=3275,1081,15,123", 
            "resource": {
                "@type": "cnt:ContentAsText", 
                "chars": "PAR", 
                "format": "text/plain"
            }
        }, 
        {
            "@id": "https://manifests.teklia.com/HIMANIS/FR10187/words_annotations/http_gallica.bnf.fr_iiif_ark:_12148_btv1b90611100_f145_full_full_0_native.jpg.json/120/line", 
            "@type": "oa:Annotation", 
            "motivation": "oa:painting", 
            "on": "http://gallica.bnf.fr/iiif/ark:/12148/btv1b90611100/canvas/f145#xywh=1442,587,366,177", 
            "resource": {
                "@type": "cnt:ContentAsText", 
                "chars": "JOHANNEUR", 
                "format": "text/plain"
            }
        }, 
        {
            "@id": "https://manifests.teklia.com/HIMANIS/FR10187/words_annotations/http_gallica.bnf.fr_iiif_ark:_12148_btv1b90611100_f145_full_full_0_native.jpg.json/121/line", 
            "@type": "oa:Annotation", 
            "motivation": "oa:painting", 
            "on": "http://gallica.bnf.fr/iiif/ark:/12148/btv1b90611100/canvas/f145#xywh=3854,2133,38,22", 
            "resource": {
                "@type": "cnt:ContentAsText", 
                "chars": "DE", 
                "format": "text/plain"
            }
        }, 
        {
            "@id": "https://manifests.teklia.com/HIMANIS/FR10187/words_annotations/http_gallica.bnf.fr_iiif_ark:_12148_btv1b90611100_f145_full_full_0_native.jpg.json/122/line", 
            "@type": "oa:Annotation", 
            "motivation": "oa:painting", 
            "on": "http://gallica.bnf.fr/iiif/ark:/12148/btv1b90611100/canvas/f145#xywh=1535,1317,209,111", 
            "resource": {
                "@type": "cnt:ContentAsText", 
                "chars": "AUTRES", 
                "format": "text/plain"
            }
        }
    ]
}