{
    "@context": "http://iiif.io/api/presentation/2/context.json", 
    "@id": "https://manifests.teklia.com/HIMANIS/JJ074/words_annotations/FRCHANJJ_JJ074_0318R.json", 
    "@type": "sc:AnnotationList", 
    "resources": [
        {
            "@id": "https://manifests.teklia.com/HIMANIS/JJ074/words_annotations/FRCHANJJ_JJ074_0318R.json/0/line", 
            "@type": "oa:Annotation", 
            "motivation": "oa:painting", 
            "on": "http://bvmm.irht.cnrs.fr/iiif/23656/canvas/canvas-2287859#xywh=846,2239,170,36", 
            "resource": {
                "@type": "cnt:ContentAsText", 
                "chars": "QUA", 
                "format": "text/plain"
            }
        }, 
        {
            "@id": "https://manifests.teklia.com/HIMANIS/JJ074/words_annotations/FRCHANJJ_JJ074_0318R.json/1/line", 
            "@type": "oa:Annotation", 
            "motivation": "oa:painting", 
            "on": "http://bvmm.irht.cnrs.fr/iiif/23656/canvas/canvas-2287859#xywh=483,1134,238,42", 
            "resource": {
                "@type": "cnt:ContentAsText", 
                "chars": "TOUT", 
                "format": "text/plain"
            }
        }, 
        {
            "@id": "https://manifests.teklia.com/HIMANIS/JJ074/words_annotations/FRCHANJJ_JJ074_0318R.json/2/line", 
            "@type": "oa:Annotation", 
            "motivation": "oa:painting", 
            "on": "http://bvmm.irht.cnrs.fr/iiif/23656/canvas/canvas-2287859#xywh=846,2239,142,36", 
            "resource": {
                "@type": "cnt:ContentAsText", 
                "chars": "QUE", 
                "format": "text/plain"
            }
        }, 
        {
            "@id": "https://manifests.teklia.com/HIMANIS/JJ074/words_annotations/FRCHANJJ_JJ074_0318R.json/3/line", 
            "@type": "oa:Annotation", 
            "motivation": "oa:painting", 
            "on": "http://bvmm.irht.cnrs.fr/iiif/23656/canvas/canvas-2287859#xywh=510,1981,102,91", 
            "resource": {
                "@type": "cnt:ContentAsText", 
                "chars": "SAI", 
                "format": "text/plain"
            }
        }, 
        {
            "@id": "https://manifests.teklia.com/HIMANIS/JJ074/words_annotations/FRCHANJJ_JJ074_0318R.json/4/line", 
            "@type": "oa:Annotation", 
            "motivation": "oa:painting", 
            "on": "http://bvmm.irht.cnrs.fr/iiif/23656/canvas/canvas-2287859#xywh=333,1134,110,42", 
            "resource": {
                "@type": "cnt:ContentAsText", 
                "chars": "DANZ", 
                "format": "text/plain"
            }
        }, 
        {
            "@id": "https://manifests.teklia.com/HIMANIS/JJ074/words_annotations/FRCHANJJ_JJ074_0318R.json/5/line", 
            "@type": "oa:Annotation", 
            "motivation": "oa:painting", 
            "on": "http://bvmm.irht.cnrs.fr/iiif/23656/canvas/canvas-2287859#xywh=483,1134,128,42", 
            "resource": {
                "@type": "cnt:ContentAsText", 
                "chars": "DE", 
                "format": "text/plain"
            }
        }, 
        {
            "@id": "https://manifests.teklia.com/HIMANIS/JJ074/words_annotations/FRCHANJJ_JJ074_0318R.json/6/line", 
            "@type": "oa:Annotation", 
            "motivation": "oa:painting", 
            "on": "http://bvmm.irht.cnrs.fr/iiif/23656/canvas/canvas-2287859#xywh=510,1981,119,91", 
            "resource": {
                "@type": "cnt:ContentAsText", 
                "chars": "SAU", 
                "format": "text/plain"
            }
        }, 
        {
            "@id": "https://manifests.teklia.com/HIMANIS/JJ074/words_annotations/FRCHANJJ_JJ074_0318R.json/7/line", 
            "@type": "oa:Annotation", 
            "motivation": "oa:painting", 
            "on": "http://bvmm.irht.cnrs.fr/iiif/23656/canvas/canvas-2287859#xywh=1378,2549,203,32", 
            "resource": {
                "@type": "cnt:ContentAsText", 
                "chars": "TES", 
                "format": "text/plain"
            }
        }, 
        {
            "@id": "https://manifests.teklia.com/HIMANIS/JJ074/words_annotations/FRCHANJJ_JJ074_0318R.json/8/line", 
            "@type": "oa:Annotation", 
            "motivation": "oa:painting", 
            "on": "http://bvmm.irht.cnrs.fr/iiif/23656/canvas/canvas-2287859#xywh=333,1134,110,42", 
            "resource": {
                "@type": "cnt:ContentAsText", 
                "chars": "SANZ", 
                "format": "text/plain"
            }
        }, 
        {
            "@id": "https://manifests.teklia.com/HIMANIS/JJ074/words_annotations/FRCHANJJ_JJ074_0318R.json/9/line", 
            "@type": "oa:Annotation", 
            "motivation": "oa:painting", 
            "on": "http://bvmm.irht.cnrs.fr/iiif/23656/canvas/canvas-2287859#xywh=483,1134,265,42", 
            "resource": {
                "@type": "cnt:ContentAsText", 
                "chars": "TOUTE", 
                "format": "text/plain"
            }
        }, 
        {
            "@id": "https://manifests.teklia.com/HIMANIS/JJ074/words_annotations/FRCHANJJ_JJ074_0318R.json/10/line", 
            "@type": "oa:Annotation", 
            "motivation": "oa:painting", 
            "on": "http://bvmm.irht.cnrs.fr/iiif/23656/canvas/canvas-2287859#xywh=940,2239,200,36", 
            "resource": {
                "@type": "cnt:ContentAsText", 
                "chars": "CCC", 
                "format": "text/plain"
            }
        }, 
        {
            "@id": "https://manifests.teklia.com/HIMANIS/JJ074/words_annotations/FRCHANJJ_JJ074_0318R.json/11/line", 
            "@type": "oa:Annotation", 
            "motivation": "oa:painting", 
            "on": "http://bvmm.irht.cnrs.fr/iiif/23656/canvas/canvas-2287859#xywh=510,1981,119,91", 
            "resource": {
                "@type": "cnt:ContentAsText", 
                "chars": "SIN", 
                "format": "text/plain"
            }
        }, 
        {
            "@id": "https://manifests.teklia.com/HIMANIS/JJ074/words_annotations/FRCHANJJ_JJ074_0318R.json/12/line", 
            "@type": "oa:Annotation", 
            "motivation": "oa:painting", 
            "on": "http://bvmm.irht.cnrs.fr/iiif/23656/canvas/canvas-2287859#xywh=516,1182,0,25", 
            "resource": {
                "@type": "cnt:ContentAsText", 
                "chars": "J", 
                "format": "text/plain"
            }
        }, 
        {
            "@id": "https://manifests.teklia.com/HIMANIS/JJ074/words_annotations/FRCHANJJ_JJ074_0318R.json/13/line", 
            "@type": "oa:Annotation", 
            "motivation": "oa:painting", 
            "on": "http://bvmm.irht.cnrs.fr/iiif/23656/canvas/canvas-2287859#xywh=763,2239,94,36", 
            "resource": {
                "@type": "cnt:ContentAsText", 
                "chars": "GRACE", 
                "format": "text/plain"
            }
        }, 
        {
            "@id": "https://manifests.teklia.com/HIMANIS/JJ074/words_annotations/FRCHANJJ_JJ074_0318R.json/14/line", 
            "@type": "oa:Annotation", 
            "motivation": "oa:painting", 
            "on": "http://bvmm.irht.cnrs.fr/iiif/23656/canvas/canvas-2287859#xywh=480,1134,62,42", 
            "resource": {
                "@type": "cnt:ContentAsText", 
                "chars": "AGE", 
                "format": "text/plain"
            }
        }, 
        {
            "@id": "https://manifests.teklia.com/HIMANIS/JJ074/words_annotations/FRCHANJJ_JJ074_0318R.json/15/line", 
            "@type": "oa:Annotation", 
            "motivation": "oa:painting", 
            "on": "http://bvmm.irht.cnrs.fr/iiif/23656/canvas/canvas-2287859#xywh=483,1134,128,42", 
            "resource": {
                "@type": "cnt:ContentAsText", 
                "chars": "ET", 
                "format": "text/plain"
            }
        }
    ]
}