{
    "@context": "http://iiif.io/api/presentation/2/context.json", 
    "@id": "https://manifests.teklia.com/HIMANIS/JJ074/words_annotations/FRCHANJJ_JJ074_0230V.json", 
    "@type": "sc:AnnotationList", 
    "resources": [
        {
            "@id": "https://manifests.teklia.com/HIMANIS/JJ074/words_annotations/FRCHANJJ_JJ074_0230V.json/0/line", 
            "@type": "oa:Annotation", 
            "motivation": "oa:painting", 
            "on": "http://bvmm.irht.cnrs.fr/iiif/23656/canvas/canvas-2287684#xywh=2686,1562,81,80", 
            "resource": {
                "@type": "cnt:ContentAsText", 
                "chars": "NOSTRE", 
                "format": "text/plain"
            }
        }, 
        {
            "@id": "https://manifests.teklia.com/HIMANIS/JJ074/words_annotations/FRCHANJJ_JJ074_0230V.json/1/line", 
            "@type": "oa:Annotation", 
            "motivation": "oa:painting", 
            "on": "http://bvmm.irht.cnrs.fr/iiif/23656/canvas/canvas-2287684#xywh=2630,901,0,35", 
            "resource": {
                "@type": "cnt:ContentAsText", 
                "chars": "P", 
                "format": "text/plain"
            }
        }, 
        {
            "@id": "https://manifests.teklia.com/HIMANIS/JJ074/words_annotations/FRCHANJJ_JJ074_0230V.json/2/line", 
            "@type": "oa:Annotation", 
            "motivation": "oa:painting", 
            "on": "http://bvmm.irht.cnrs.fr/iiif/23656/canvas/canvas-2287684#xywh=539,1884,166,56", 
            "resource": {
                "@type": "cnt:ContentAsText", 
                "chars": "SANZ", 
                "format": "text/plain"
            }
        }, 
        {
            "@id": "https://manifests.teklia.com/HIMANIS/JJ074/words_annotations/FRCHANJJ_JJ074_0230V.json/3/line", 
            "@type": "oa:Annotation", 
            "motivation": "oa:painting", 
            "on": "http://bvmm.irht.cnrs.fr/iiif/23656/canvas/canvas-2287684#xywh=2388,573,89,118", 
            "resource": {
                "@type": "cnt:ContentAsText", 
                "chars": "FAIT", 
                "format": "text/plain"
            }
        }, 
        {
            "@id": "https://manifests.teklia.com/HIMANIS/JJ074/words_annotations/FRCHANJJ_JJ074_0230V.json/4/line", 
            "@type": "oa:Annotation", 
            "motivation": "oa:painting", 
            "on": "http://bvmm.irht.cnrs.fr/iiif/23656/canvas/canvas-2287684#xywh=2403,1562,35,80", 
            "resource": {
                "@type": "cnt:ContentAsText", 
                "chars": "LA", 
                "format": "text/plain"
            }
        }, 
        {
            "@id": "https://manifests.teklia.com/HIMANIS/JJ074/words_annotations/FRCHANJJ_JJ074_0230V.json/5/line", 
            "@type": "oa:Annotation", 
            "motivation": "oa:painting", 
            "on": "http://bvmm.irht.cnrs.fr/iiif/23656/canvas/canvas-2287684#xywh=634,1632,79,90", 
            "resource": {
                "@type": "cnt:ContentAsText", 
                "chars": "FIER", 
                "format": "text/plain"
            }
        }, 
        {
            "@id": "https://manifests.teklia.com/HIMANIS/JJ074/words_annotations/FRCHANJJ_JJ074_0230V.json/6/line", 
            "@type": "oa:Annotation", 
            "motivation": "oa:painting", 
            "on": "http://bvmm.irht.cnrs.fr/iiif/23656/canvas/canvas-2287684#xywh=2964,1562,30,80", 
            "resource": {
                "@type": "cnt:ContentAsText", 
                "chars": "DE", 
                "format": "text/plain"
            }
        }, 
        {
            "@id": "https://manifests.teklia.com/HIMANIS/JJ074/words_annotations/FRCHANJJ_JJ074_0230V.json/7/line", 
            "@type": "oa:Annotation", 
            "motivation": "oa:painting", 
            "on": "http://bvmm.irht.cnrs.fr/iiif/23656/canvas/canvas-2287684#xywh=1103,1884,42,56", 
            "resource": {
                "@type": "cnt:ContentAsText", 
                "chars": "LES", 
                "format": "text/plain"
            }
        }, 
        {
            "@id": "https://manifests.teklia.com/HIMANIS/JJ074/words_annotations/FRCHANJJ_JJ074_0230V.json/8/line", 
            "@type": "oa:Annotation", 
            "motivation": "oa:painting", 
            "on": "http://bvmm.irht.cnrs.fr/iiif/23656/canvas/canvas-2287684#xywh=634,1632,96,90", 
            "resource": {
                "@type": "cnt:ContentAsText", 
                "chars": "FIEU", 
                "format": "text/plain"
            }
        }, 
        {
            "@id": "https://manifests.teklia.com/HIMANIS/JJ074/words_annotations/FRCHANJJ_JJ074_0230V.json/9/line", 
            "@type": "oa:Annotation", 
            "motivation": "oa:painting", 
            "on": "http://bvmm.irht.cnrs.fr/iiif/23656/canvas/canvas-2287684#xywh=2350,1697,155,49", 
            "resource": {
                "@type": "cnt:ContentAsText", 
                "chars": "LE", 
                "format": "text/plain"
            }
        }, 
        {
            "@id": "https://manifests.teklia.com/HIMANIS/JJ074/words_annotations/FRCHANJJ_JJ074_0230V.json/10/line", 
            "@type": "oa:Annotation", 
            "motivation": "oa:painting", 
            "on": "http://bvmm.irht.cnrs.fr/iiif/23656/canvas/canvas-2287684#xywh=2350,1697,59,49", 
            "resource": {
                "@type": "cnt:ContentAsText", 
                "chars": "LI", 
                "format": "text/plain"
            }
        }, 
        {
            "@id": "https://manifests.teklia.com/HIMANIS/JJ074/words_annotations/FRCHANJJ_JJ074_0230V.json/11/line", 
            "@type": "oa:Annotation", 
            "motivation": "oa:painting", 
            "on": "http://bvmm.irht.cnrs.fr/iiif/23656/canvas/canvas-2287684#xywh=1091,1457,125,110", 
            "resource": {
                "@type": "cnt:ContentAsText", 
                "chars": "DONNE", 
                "format": "text/plain"
            }
        }, 
        {
            "@id": "https://manifests.teklia.com/HIMANIS/JJ074/words_annotations/FRCHANJJ_JJ074_0230V.json/12/line", 
            "@type": "oa:Annotation", 
            "motivation": "oa:painting", 
            "on": "http://bvmm.irht.cnrs.fr/iiif/23656/canvas/canvas-2287684#xywh=3350,4795,398,192", 
            "resource": {
                "@type": "cnt:ContentAsText", 
                "chars": "PER", 
                "format": "text/plain"
            }
        }, 
        {
            "@id": "https://manifests.teklia.com/HIMANIS/JJ074/words_annotations/FRCHANJJ_JJ074_0230V.json/13/line", 
            "@type": "oa:Annotation", 
            "motivation": "oa:painting", 
            "on": "http://bvmm.irht.cnrs.fr/iiif/23656/canvas/canvas-2287684#xywh=3350,4795,398,192", 
            "resource": {
                "@type": "cnt:ContentAsText", 
                "chars": "PAR", 
                "format": "text/plain"
            }
        }, 
        {
            "@id": "https://manifests.teklia.com/HIMANIS/JJ074/words_annotations/FRCHANJJ_JJ074_0230V.json/14/line", 
            "@type": "oa:Annotation", 
            "motivation": "oa:painting", 
            "on": "http://bvmm.irht.cnrs.fr/iiif/23656/canvas/canvas-2287684#xywh=0,4795,2326,192", 
            "resource": {
                "@type": "cnt:ContentAsText", 
                "chars": "AG", 
                "format": "text/plain"
            }
        }, 
        {
            "@id": "https://manifests.teklia.com/HIMANIS/JJ074/words_annotations/FRCHANJJ_JJ074_0230V.json/15/line", 
            "@type": "oa:Annotation", 
            "motivation": "oa:painting", 
            "on": "http://bvmm.irht.cnrs.fr/iiif/23656/canvas/canvas-2287684#xywh=831,1367,78,90", 
            "resource": {
                "@type": "cnt:ContentAsText", 
                "chars": "FILL", 
                "format": "text/plain"
            }
        }, 
        {
            "@id": "https://manifests.teklia.com/HIMANIS/JJ074/words_annotations/FRCHANJJ_JJ074_0230V.json/16/line", 
            "@type": "oa:Annotation", 
            "motivation": "oa:painting", 
            "on": "http://bvmm.irht.cnrs.fr/iiif/23656/canvas/canvas-2287684#xywh=2103,1145,174,185", 
            "resource": {
                "@type": "cnt:ContentAsText", 
                "chars": "USAGIIS", 
                "format": "text/plain"
            }
        }, 
        {
            "@id": "https://manifests.teklia.com/HIMANIS/JJ074/words_annotations/FRCHANJJ_JJ074_0230V.json/17/line", 
            "@type": "oa:Annotation", 
            "motivation": "oa:painting", 
            "on": "http://bvmm.irht.cnrs.fr/iiif/23656/canvas/canvas-2287684#xywh=1964,1457,229,110", 
            "resource": {
                "@type": "cnt:ContentAsText", 
                "chars": "LOUDRIERE", 
                "format": "text/plain"
            }
        }, 
        {
            "@id": "https://manifests.teklia.com/HIMANIS/JJ074/words_annotations/FRCHANJJ_JJ074_0230V.json/18/line", 
            "@type": "oa:Annotation", 
            "motivation": "oa:painting", 
            "on": "http://bvmm.irht.cnrs.fr/iiif/23656/canvas/canvas-2287684#xywh=2412,1772,250,88", 
            "resource": {
                "@type": "cnt:ContentAsText", 
                "chars": "ANDEMENT", 
                "format": "text/plain"
            }
        }, 
        {
            "@id": "https://manifests.teklia.com/HIMANIS/JJ074/words_annotations/FRCHANJJ_JJ074_0230V.json/19/line", 
            "@type": "oa:Annotation", 
            "motivation": "oa:painting", 
            "on": "http://bvmm.irht.cnrs.fr/iiif/23656/canvas/canvas-2287684#xywh=2804,2257,137,57", 
            "resource": {
                "@type": "cnt:ContentAsText", 
                "chars": "DITE", 
                "format": "text/plain"
            }
        }, 
        {
            "@id": "https://manifests.teklia.com/HIMANIS/JJ074/words_annotations/FRCHANJJ_JJ074_0230V.json/20/line", 
            "@type": "oa:Annotation", 
            "motivation": "oa:painting", 
            "on": "http://bvmm.irht.cnrs.fr/iiif/23656/canvas/canvas-2287684#xywh=2769,2072,118,85", 
            "resource": {
                "@type": "cnt:ContentAsText", 
                "chars": "GRACE", 
                "format": "text/plain"
            }
        }, 
        {
            "@id": "https://manifests.teklia.com/HIMANIS/JJ074/words_annotations/FRCHANJJ_JJ074_0230V.json/21/line", 
            "@type": "oa:Annotation", 
            "motivation": "oa:painting", 
            "on": "http://bvmm.irht.cnrs.fr/iiif/23656/canvas/canvas-2287684#xywh=1223,841,45,60", 
            "resource": {
                "@type": "cnt:ContentAsText", 
                "chars": "OU", 
                "format": "text/plain"
            }
        }, 
        {
            "@id": "https://manifests.teklia.com/HIMANIS/JJ074/words_annotations/FRCHANJJ_JJ074_0230V.json/22/line", 
            "@type": "oa:Annotation", 
            "motivation": "oa:painting", 
            "on": "http://bvmm.irht.cnrs.fr/iiif/23656/canvas/canvas-2287684#xywh=1972,573,119,118", 
            "resource": {
                "@type": "cnt:ContentAsText", 
                "chars": "MAIS", 
                "format": "text/plain"
            }
        }, 
        {
            "@id": "https://manifests.teklia.com/HIMANIS/JJ074/words_annotations/FRCHANJJ_JJ074_0230V.json/23/line", 
            "@type": "oa:Annotation", 
            "motivation": "oa:painting", 
            "on": "http://bvmm.irht.cnrs.fr/iiif/23656/canvas/canvas-2287684#xywh=3049,4795,12,192", 
            "resource": {
                "@type": "cnt:ContentAsText", 
                "chars": "XXXX", 
                "format": "text/plain"
            }
        }, 
        {
            "@id": "https://manifests.teklia.com/HIMANIS/JJ074/words_annotations/FRCHANJJ_JJ074_0230V.json/24/line", 
            "@type": "oa:Annotation", 
            "motivation": "oa:painting", 
            "on": "http://bvmm.irht.cnrs.fr/iiif/23656/canvas/canvas-2287684#xywh=1673,1145,46,185", 
            "resource": {
                "@type": "cnt:ContentAsText", 
                "chars": "SE", 
                "format": "text/plain"
            }
        }, 
        {
            "@id": "https://manifests.teklia.com/HIMANIS/JJ074/words_annotations/FRCHANJJ_JJ074_0230V.json/25/line", 
            "@type": "oa:Annotation", 
            "motivation": "oa:painting", 
            "on": "http://bvmm.irht.cnrs.fr/iiif/23656/canvas/canvas-2287684#xywh=2521,573,142,118", 
            "resource": {
                "@type": "cnt:ContentAsText", 
                "chars": "METTRE", 
                "format": "text/plain"
            }
        }, 
        {
            "@id": "https://manifests.teklia.com/HIMANIS/JJ074/words_annotations/FRCHANJJ_JJ074_0230V.json/26/line", 
            "@type": "oa:Annotation", 
            "motivation": "oa:painting", 
            "on": "http://bvmm.irht.cnrs.fr/iiif/23656/canvas/canvas-2287684#xywh=1524,2257,333,57", 
            "resource": {
                "@type": "cnt:ContentAsText", 
                "chars": "COMANDEMEN", 
                "format": "text/plain"
            }
        }, 
        {
            "@id": "https://manifests.teklia.com/HIMANIS/JJ074/words_annotations/FRCHANJJ_JJ074_0230V.json/27/line", 
            "@type": "oa:Annotation", 
            "motivation": "oa:painting", 
            "on": "http://bvmm.irht.cnrs.fr/iiif/23656/canvas/canvas-2287684#xywh=3618,4404,133,76", 
            "resource": {
                "@type": "cnt:ContentAsText", 
                "chars": "ET", 
                "format": "text/plain"
            }
        }, 
        {
            "@id": "https://manifests.teklia.com/HIMANIS/JJ074/words_annotations/FRCHANJJ_JJ074_0230V.json/28/line", 
            "@type": "oa:Annotation", 
            "motivation": "oa:painting", 
            "on": "http://bvmm.irht.cnrs.fr/iiif/23656/canvas/canvas-2287684#xywh=2200,1877,83,65", 
            "resource": {
                "@type": "cnt:ContentAsText", 
                "chars": "JOIR", 
                "format": "text/plain"
            }
        }, 
        {
            "@id": "https://manifests.teklia.com/HIMANIS/JJ074/words_annotations/FRCHANJJ_JJ074_0230V.json/29/line", 
            "@type": "oa:Annotation", 
            "motivation": "oa:painting", 
            "on": "http://bvmm.irht.cnrs.fr/iiif/23656/canvas/canvas-2287684#xywh=1801,1145,81,185", 
            "resource": {
                "@type": "cnt:ContentAsText", 
                "chars": "SUIS", 
                "format": "text/plain"
            }
        }, 
        {
            "@id": "https://manifests.teklia.com/HIMANIS/JJ074/words_annotations/FRCHANJJ_JJ074_0230V.json/30/line", 
            "@type": "oa:Annotation", 
            "motivation": "oa:painting", 
            "on": "http://bvmm.irht.cnrs.fr/iiif/23656/canvas/canvas-2287684#xywh=2722,573,74,118", 
            "resource": {
                "@type": "cnt:ContentAsText", 
                "chars": "NOSTRE", 
                "format": "text/plain"
            }
        }, 
        {
            "@id": "https://manifests.teklia.com/HIMANIS/JJ074/words_annotations/FRCHANJJ_JJ074_0230V.json/31/line", 
            "@type": "oa:Annotation", 
            "motivation": "oa:painting", 
            "on": "http://bvmm.irht.cnrs.fr/iiif/23656/canvas/canvas-2287684#xywh=1299,1457,187,110", 
            "resource": {
                "@type": "cnt:ContentAsText", 
                "chars": "DONNONS", 
                "format": "text/plain"
            }
        }, 
        {
            "@id": "https://manifests.teklia.com/HIMANIS/JJ074/words_annotations/FRCHANJJ_JJ074_0230V.json/32/line", 
            "@type": "oa:Annotation", 
            "motivation": "oa:painting", 
            "on": "http://bvmm.irht.cnrs.fr/iiif/23656/canvas/canvas-2287684#xywh=2412,1772,250,88", 
            "resource": {
                "@type": "cnt:ContentAsText", 
                "chars": "MANDEMENT", 
                "format": "text/plain"
            }
        }, 
        {
            "@id": "https://manifests.teklia.com/HIMANIS/JJ074/words_annotations/FRCHANJJ_JJ074_0230V.json/33/line", 
            "@type": "oa:Annotation", 
            "motivation": "oa:painting", 
            "on": "http://bvmm.irht.cnrs.fr/iiif/23656/canvas/canvas-2287684#xywh=536,1457,166,110", 
            "resource": {
                "@type": "cnt:ContentAsText", 
                "chars": "ESPECIAL", 
                "format": "text/plain"
            }
        }, 
        {
            "@id": "https://manifests.teklia.com/HIMANIS/JJ074/words_annotations/FRCHANJJ_JJ074_0230V.json/34/line", 
            "@type": "oa:Annotation", 
            "motivation": "oa:painting", 
            "on": "http://bvmm.irht.cnrs.fr/iiif/23656/canvas/canvas-2287684#xywh=2615,1367,151,100", 
            "resource": {
                "@type": "cnt:ContentAsText", 
                "chars": "FAISONS", 
                "format": "text/plain"
            }
        }, 
        {
            "@id": "https://manifests.teklia.com/HIMANIS/JJ074/words_annotations/FRCHANJJ_JJ074_0230V.json/35/line", 
            "@type": "oa:Annotation", 
            "motivation": "oa:painting", 
            "on": "http://bvmm.irht.cnrs.fr/iiif/23656/canvas/canvas-2287684#xywh=3353,573,416,118", 
            "resource": {
                "@type": "cnt:ContentAsText", 
                "chars": "LETTRES", 
                "format": "text/plain"
            }
        }, 
        {
            "@id": "https://manifests.teklia.com/HIMANIS/JJ074/words_annotations/FRCHANJJ_JJ074_0230V.json/36/line", 
            "@type": "oa:Annotation", 
            "motivation": "oa:painting", 
            "on": "http://bvmm.irht.cnrs.fr/iiif/23656/canvas/canvas-2287684#xywh=3197,1562,71,80", 
            "resource": {
                "@type": "cnt:ContentAsText", 
                "chars": "IPSO", 
                "format": "text/plain"
            }
        }, 
        {
            "@id": "https://manifests.teklia.com/HIMANIS/JJ074/words_annotations/FRCHANJJ_JJ074_0230V.json/37/line", 
            "@type": "oa:Annotation", 
            "motivation": "oa:painting", 
            "on": "http://bvmm.irht.cnrs.fr/iiif/23656/canvas/canvas-2287684#xywh=539,1884,127,56", 
            "resource": {
                "@type": "cnt:ContentAsText", 
                "chars": "SONS", 
                "format": "text/plain"
            }
        }, 
        {
            "@id": "https://manifests.teklia.com/HIMANIS/JJ074/words_annotations/FRCHANJJ_JJ074_0230V.json/38/line", 
            "@type": "oa:Annotation", 
            "motivation": "oa:painting", 
            "on": "http://bvmm.irht.cnrs.fr/iiif/23656/canvas/canvas-2287684#xywh=539,1884,127,56", 
            "resource": {
                "@type": "cnt:ContentAsText", 
                "chars": "SONT", 
                "format": "text/plain"
            }
        }, 
        {
            "@id": "https://manifests.teklia.com/HIMANIS/JJ074/words_annotations/FRCHANJJ_JJ074_0230V.json/39/line", 
            "@type": "oa:Annotation", 
            "motivation": "oa:painting", 
            "on": "http://bvmm.irht.cnrs.fr/iiif/23656/canvas/canvas-2287684#xywh=1083,1974,112,52", 
            "resource": {
                "@type": "cnt:ContentAsText", 
                "chars": "SCARIS", 
                "format": "text/plain"
            }
        }, 
        {
            "@id": "https://manifests.teklia.com/HIMANIS/JJ074/words_annotations/FRCHANJJ_JJ074_0230V.json/40/line", 
            "@type": "oa:Annotation", 
            "motivation": "oa:painting", 
            "on": "http://bvmm.irht.cnrs.fr/iiif/23656/canvas/canvas-2287684#xywh=3205,1642,575,55", 
            "resource": {
                "@type": "cnt:ContentAsText", 
                "chars": "SIC", 
                "format": "text/plain"
            }
        }, 
        {
            "@id": "https://manifests.teklia.com/HIMANIS/JJ074/words_annotations/FRCHANJJ_JJ074_0230V.json/41/line", 
            "@type": "oa:Annotation", 
            "motivation": "oa:painting", 
            "on": "http://bvmm.irht.cnrs.fr/iiif/23656/canvas/canvas-2287684#xywh=862,716,85,104", 
            "resource": {
                "@type": "cnt:ContentAsText", 
                "chars": "NOSTRE", 
                "format": "text/plain"
            }
        }, 
        {
            "@id": "https://manifests.teklia.com/HIMANIS/JJ074/words_annotations/FRCHANJJ_JJ074_0230V.json/42/line", 
            "@type": "oa:Annotation", 
            "motivation": "oa:painting", 
            "on": "http://bvmm.irht.cnrs.fr/iiif/23656/canvas/canvas-2287684#xywh=2242,1457,111,110", 
            "resource": {
                "@type": "cnt:ContentAsText", 
                "chars": "FAME", 
                "format": "text/plain"
            }
        }, 
        {
            "@id": "https://manifests.teklia.com/HIMANIS/JJ074/words_annotations/FRCHANJJ_JJ074_0230V.json/43/line", 
            "@type": "oa:Annotation", 
            "motivation": "oa:painting", 
            "on": "http://bvmm.irht.cnrs.fr/iiif/23656/canvas/canvas-2287684#xywh=1524,2257,287,57", 
            "resource": {
                "@type": "cnt:ContentAsText", 
                "chars": "COMANDEM", 
                "format": "text/plain"
            }
        }, 
        {
            "@id": "https://manifests.teklia.com/HIMANIS/JJ074/words_annotations/FRCHANJJ_JJ074_0230V.json/44/line", 
            "@type": "oa:Annotation", 
            "motivation": "oa:painting", 
            "on": "http://bvmm.irht.cnrs.fr/iiif/23656/canvas/canvas-2287684#xywh=3083,1772,144,88", 
            "resource": {
                "@type": "cnt:ContentAsText", 
                "chars": "D'ICELLE", 
                "format": "text/plain"
            }
        }, 
        {
            "@id": "https://manifests.teklia.com/HIMANIS/JJ074/words_annotations/FRCHANJJ_JJ074_0230V.json/45/line", 
            "@type": "oa:Annotation", 
            "motivation": "oa:painting", 
            "on": "http://bvmm.irht.cnrs.fr/iiif/23656/canvas/canvas-2287684#xywh=2436,1984,84,74", 
            "resource": {
                "@type": "cnt:ContentAsText", 
                "chars": "ABLE", 
                "format": "text/plain"
            }
        }, 
        {
            "@id": "https://manifests.teklia.com/HIMANIS/JJ074/words_annotations/FRCHANJJ_JJ074_0230V.json/46/line", 
            "@type": "oa:Annotation", 
            "motivation": "oa:painting", 
            "on": "http://bvmm.irht.cnrs.fr/iiif/23656/canvas/canvas-2287684#xywh=831,1367,73,90", 
            "resource": {
                "@type": "cnt:ContentAsText", 
                "chars": "IL", 
                "format": "text/plain"
            }
        }, 
        {
            "@id": "https://manifests.teklia.com/HIMANIS/JJ074/words_annotations/FRCHANJJ_JJ074_0230V.json/47/line", 
            "@type": "oa:Annotation", 
            "motivation": "oa:painting", 
            "on": "http://bvmm.irht.cnrs.fr/iiif/23656/canvas/canvas-2287684#xywh=2289,1145,209,185", 
            "resource": {
                "@type": "cnt:ContentAsText", 
                "chars": "FORESTA", 
                "format": "text/plain"
            }
        }, 
        {
            "@id": "https://manifests.teklia.com/HIMANIS/JJ074/words_annotations/FRCHANJJ_JJ074_0230V.json/48/line", 
            "@type": "oa:Annotation", 
            "motivation": "oa:painting", 
            "on": "http://bvmm.irht.cnrs.fr/iiif/23656/canvas/canvas-2287684#xywh=753,1367,78,90", 
            "resource": {
                "@type": "cnt:ContentAsText", 
                "chars": "QUE", 
                "format": "text/plain"
            }
        }, 
        {
            "@id": "https://manifests.teklia.com/HIMANIS/JJ074/words_annotations/FRCHANJJ_JJ074_0230V.json/49/line", 
            "@type": "oa:Annotation", 
            "motivation": "oa:painting", 
            "on": "http://bvmm.irht.cnrs.fr/iiif/23656/canvas/canvas-2287684#xywh=1470,1772,111,84", 
            "resource": {
                "@type": "cnt:ContentAsText", 
                "chars": "EN", 
                "format": "text/plain"
            }
        }, 
        {
            "@id": "https://manifests.teklia.com/HIMANIS/JJ074/words_annotations/FRCHANJJ_JJ074_0230V.json/50/line", 
            "@type": "oa:Annotation", 
            "motivation": "oa:painting", 
            "on": "http://bvmm.irht.cnrs.fr/iiif/23656/canvas/canvas-2287684#xywh=1179,936,112,101", 
            "resource": {
                "@type": "cnt:ContentAsText", 
                "chars": "PARI", 
                "format": "text/plain"
            }
        }, 
        {
            "@id": "https://manifests.teklia.com/HIMANIS/JJ074/words_annotations/FRCHANJJ_JJ074_0230V.json/51/line", 
            "@type": "oa:Annotation", 
            "motivation": "oa:painting", 
            "on": "http://bvmm.irht.cnrs.fr/iiif/23656/canvas/canvas-2287684#xywh=1617,1632,34,90", 
            "resource": {
                "@type": "cnt:ContentAsText", 
                "chars": "EN", 
                "format": "text/plain"
            }
        }, 
        {
            "@id": "https://manifests.teklia.com/HIMANIS/JJ074/words_annotations/FRCHANJJ_JJ074_0230V.json/52/line", 
            "@type": "oa:Annotation", 
            "motivation": "oa:painting", 
            "on": "http://bvmm.irht.cnrs.fr/iiif/23656/canvas/canvas-2287684#xywh=897,1772,196,84", 
            "resource": {
                "@type": "cnt:ContentAsText", 
                "chars": "JOISSENT", 
                "format": "text/plain"
            }
        }, 
        {
            "@id": "https://manifests.teklia.com/HIMANIS/JJ074/words_annotations/FRCHANJJ_JJ074_0230V.json/53/line", 
            "@type": "oa:Annotation", 
            "motivation": "oa:painting", 
            "on": "http://bvmm.irht.cnrs.fr/iiif/23656/canvas/canvas-2287684#xywh=3087,1367,44,100", 
            "resource": {
                "@type": "cnt:ContentAsText", 
                "chars": "ET", 
                "format": "text/plain"
            }
        }, 
        {
            "@id": "https://manifests.teklia.com/HIMANIS/JJ074/words_annotations/FRCHANJJ_JJ074_0230V.json/54/line", 
            "@type": "oa:Annotation", 
            "motivation": "oa:painting", 
            "on": "http://bvmm.irht.cnrs.fr/iiif/23656/canvas/canvas-2287684#xywh=1136,1772,31,84", 
            "resource": {
                "@type": "cnt:ContentAsText", 
                "chars": "ET", 
                "format": "text/plain"
            }
        }, 
        {
            "@id": "https://manifests.teklia.com/HIMANIS/JJ074/words_annotations/FRCHANJJ_JJ074_0230V.json/55/line", 
            "@type": "oa:Annotation", 
            "motivation": "oa:painting", 
            "on": "http://bvmm.irht.cnrs.fr/iiif/23656/canvas/canvas-2287684#xywh=2208,1632,35,90", 
            "resource": {
                "@type": "cnt:ContentAsText", 
                "chars": "ET", 
                "format": "text/plain"
            }
        }, 
        {
            "@id": "https://manifests.teklia.com/HIMANIS/JJ074/words_annotations/FRCHANJJ_JJ074_0230V.json/56/line", 
            "@type": "oa:Annotation", 
            "motivation": "oa:painting", 
            "on": "http://bvmm.irht.cnrs.fr/iiif/23656/canvas/canvas-2287684#xywh=3266,1772,472,88", 
            "resource": {
                "@type": "cnt:ContentAsText", 
                "chars": "FOREST", 
                "format": "text/plain"
            }
        }, 
        {
            "@id": "https://manifests.teklia.com/HIMANIS/JJ074/words_annotations/FRCHANJJ_JJ074_0230V.json/57/line", 
            "@type": "oa:Annotation", 
            "motivation": "oa:painting", 
            "on": "http://bvmm.irht.cnrs.fr/iiif/23656/canvas/canvas-2287684#xywh=1528,1457,34,110", 
            "resource": {
                "@type": "cnt:ContentAsText", 
                "chars": "IL", 
                "format": "text/plain"
            }
        }, 
        {
            "@id": "https://manifests.teklia.com/HIMANIS/JJ074/words_annotations/FRCHANJJ_JJ074_0230V.json/58/line", 
            "@type": "oa:Annotation", 
            "motivation": "oa:painting", 
            "on": "http://bvmm.irht.cnrs.fr/iiif/23656/canvas/canvas-2287684#xywh=2135,573,89,118", 
            "resource": {
                "@type": "cnt:ContentAsText", 
                "chars": "NOUS", 
                "format": "text/plain"
            }
        }, 
        {
            "@id": "https://manifests.teklia.com/HIMANIS/JJ074/words_annotations/FRCHANJJ_JJ074_0230V.json/59/line", 
            "@type": "oa:Annotation", 
            "motivation": "oa:painting", 
            "on": "http://bvmm.irht.cnrs.fr/iiif/23656/canvas/canvas-2287684#xywh=3310,1457,41,110", 
            "resource": {
                "@type": "cnt:ContentAsText", 
                "chars": "ET", 
                "format": "text/plain"
            }
        }, 
        {
            "@id": "https://manifests.teklia.com/HIMANIS/JJ074/words_annotations/FRCHANJJ_JJ074_0230V.json/60/line", 
            "@type": "oa:Annotation", 
            "motivation": "oa:painting", 
            "on": "http://bvmm.irht.cnrs.fr/iiif/23656/canvas/canvas-2287684#xywh=2625,1562,36,80", 
            "resource": {
                "@type": "cnt:ContentAsText", 
                "chars": "EN", 
                "format": "text/plain"
            }
        }, 
        {
            "@id": "https://manifests.teklia.com/HIMANIS/JJ074/words_annotations/FRCHANJJ_JJ074_0230V.json/61/line", 
            "@type": "oa:Annotation", 
            "motivation": "oa:painting", 
            "on": "http://bvmm.irht.cnrs.fr/iiif/23656/canvas/canvas-2287684#xywh=2115,1562,45,80", 
            "resource": {
                "@type": "cnt:ContentAsText", 
                "chars": "ET", 
                "format": "text/plain"
            }
        }, 
        {
            "@id": "https://manifests.teklia.com/HIMANIS/JJ074/words_annotations/FRCHANJJ_JJ074_0230V.json/62/line", 
            "@type": "oa:Annotation", 
            "motivation": "oa:painting", 
            "on": "http://bvmm.irht.cnrs.fr/iiif/23656/canvas/canvas-2287684#xywh=2350,1697,112,49", 
            "resource": {
                "@type": "cnt:ContentAsText", 
                "chars": "LIE", 
                "format": "text/plain"
            }
        }, 
        {
            "@id": "https://manifests.teklia.com/HIMANIS/JJ074/words_annotations/FRCHANJJ_JJ074_0230V.json/63/line", 
            "@type": "oa:Annotation", 
            "motivation": "oa:painting", 
            "on": "http://bvmm.irht.cnrs.fr/iiif/23656/canvas/canvas-2287684#xywh=2350,1697,143,49", 
            "resource": {
                "@type": "cnt:ContentAsText", 
                "chars": "LIT", 
                "format": "text/plain"
            }
        }, 
        {
            "@id": "https://manifests.teklia.com/HIMANIS/JJ074/words_annotations/FRCHANJJ_JJ074_0230V.json/64/line", 
            "@type": "oa:Annotation", 
            "motivation": "oa:painting", 
            "on": "http://bvmm.irht.cnrs.fr/iiif/23656/canvas/canvas-2287684#xywh=2202,1697,34,49", 
            "resource": {
                "@type": "cnt:ContentAsText", 
                "chars": "ET", 
                "format": "text/plain"
            }
        }, 
        {
            "@id": "https://manifests.teklia.com/HIMANIS/JJ074/words_annotations/FRCHANJJ_JJ074_0230V.json/65/line", 
            "@type": "oa:Annotation", 
            "motivation": "oa:painting", 
            "on": "http://bvmm.irht.cnrs.fr/iiif/23656/canvas/canvas-2287684#xywh=1668,573,111,118", 
            "resource": {
                "@type": "cnt:ContentAsText", 
                "chars": "TOUZ", 
                "format": "text/plain"
            }
        }, 
        {
            "@id": "https://manifests.teklia.com/HIMANIS/JJ074/words_annotations/FRCHANJJ_JJ074_0230V.json/66/line", 
            "@type": "oa:Annotation", 
            "motivation": "oa:painting", 
            "on": "http://bvmm.irht.cnrs.fr/iiif/23656/canvas/canvas-2287684#xywh=1496,841,38,60", 
            "resource": {
                "@type": "cnt:ContentAsText", 
                "chars": "DE", 
                "format": "text/plain"
            }
        }, 
        {
            "@id": "https://manifests.teklia.com/HIMANIS/JJ074/words_annotations/FRCHANJJ_JJ074_0230V.json/67/line", 
            "@type": "oa:Annotation", 
            "motivation": "oa:painting", 
            "on": "http://bvmm.irht.cnrs.fr/iiif/23656/canvas/canvas-2287684#xywh=2706,1772,89,88", 
            "resource": {
                "@type": "cnt:ContentAsText", 
                "chars": "AUS", 
                "format": "text/plain"
            }
        }, 
        {
            "@id": "https://manifests.teklia.com/HIMANIS/JJ074/words_annotations/FRCHANJJ_JJ074_0230V.json/68/line", 
            "@type": "oa:Annotation", 
            "motivation": "oa:painting", 
            "on": "http://bvmm.irht.cnrs.fr/iiif/23656/canvas/canvas-2287684#xywh=2791,1367,0,100", 
            "resource": {
                "@type": "cnt:ContentAsText", 
                "chars": "A", 
                "format": "text/plain"
            }
        }, 
        {
            "@id": "https://manifests.teklia.com/HIMANIS/JJ074/words_annotations/FRCHANJJ_JJ074_0230V.json/69/line", 
            "@type": "oa:Annotation", 
            "motivation": "oa:painting", 
            "on": "http://bvmm.irht.cnrs.fr/iiif/23656/canvas/canvas-2287684#xywh=744,1457,118,110", 
            "resource": {
                "@type": "cnt:ContentAsText", 
                "chars": "NOUS", 
                "format": "text/plain"
            }
        }, 
        {
            "@id": "https://manifests.teklia.com/HIMANIS/JJ074/words_annotations/FRCHANJJ_JJ074_0230V.json/70/line", 
            "@type": "oa:Annotation", 
            "motivation": "oa:painting", 
            "on": "http://bvmm.irht.cnrs.fr/iiif/23656/canvas/canvas-2287684#xywh=1324,1145,47,185", 
            "resource": {
                "@type": "cnt:ContentAsText", 
                "chars": "LA", 
                "format": "text/plain"
            }
        }, 
        {
            "@id": "https://manifests.teklia.com/HIMANIS/JJ074/words_annotations/FRCHANJJ_JJ074_0230V.json/71/line", 
            "@type": "oa:Annotation", 
            "motivation": "oa:painting", 
            "on": "http://bvmm.irht.cnrs.fr/iiif/23656/canvas/canvas-2287684#xywh=2533,1145,47,185", 
            "resource": {
                "@type": "cnt:ContentAsText", 
                "chars": "DE", 
                "format": "text/plain"
            }
        }, 
        {
            "@id": "https://manifests.teklia.com/HIMANIS/JJ074/words_annotations/FRCHANJJ_JJ074_0230V.json/72/line", 
            "@type": "oa:Annotation", 
            "motivation": "oa:painting", 
            "on": "http://bvmm.irht.cnrs.fr/iiif/23656/canvas/canvas-2287684#xywh=2533,2072,75,85", 
            "resource": {
                "@type": "cnt:ContentAsText", 
                "chars": "L'AN", 
                "format": "text/plain"
            }
        }, 
        {
            "@id": "https://manifests.teklia.com/HIMANIS/JJ074/words_annotations/FRCHANJJ_JJ074_0230V.json/73/line", 
            "@type": "oa:Annotation", 
            "motivation": "oa:painting", 
            "on": "http://bvmm.irht.cnrs.fr/iiif/23656/canvas/canvas-2287684#xywh=2661,1877,98,65", 
            "resource": {
                "@type": "cnt:ContentAsText", 
                "chars": "SICUT", 
                "format": "text/plain"
            }
        }, 
        {
            "@id": "https://manifests.teklia.com/HIMANIS/JJ074/words_annotations/FRCHANJJ_JJ074_0230V.json/74/line", 
            "@type": "oa:Annotation", 
            "motivation": "oa:painting", 
            "on": "http://bvmm.irht.cnrs.fr/iiif/23656/canvas/canvas-2287684#xywh=2282,1632,46,90", 
            "resource": {
                "@type": "cnt:ContentAsText", 
                "chars": "QUI", 
                "format": "text/plain"
            }
        }, 
        {
            "@id": "https://manifests.teklia.com/HIMANIS/JJ074/words_annotations/FRCHANJJ_JJ074_0230V.json/75/line", 
            "@type": "oa:Annotation", 
            "motivation": "oa:painting", 
            "on": "http://bvmm.irht.cnrs.fr/iiif/23656/canvas/canvas-2287684#xywh=1406,1145,174,185", 
            "resource": {
                "@type": "cnt:ContentAsText", 
                "chars": "HOUDRIE", 
                "format": "text/plain"
            }
        }, 
        {
            "@id": "https://manifests.teklia.com/HIMANIS/JJ074/words_annotations/FRCHANJJ_JJ074_0230V.json/76/line", 
            "@type": "oa:Annotation", 
            "motivation": "oa:painting", 
            "on": "http://bvmm.irht.cnrs.fr/iiif/23656/canvas/canvas-2287684#xywh=1791,1562,278,80", 
            "resource": {
                "@type": "cnt:ContentAsText", 
                "chars": "PHILIPPON", 
                "format": "text/plain"
            }
        }, 
        {
            "@id": "https://manifests.teklia.com/HIMANIS/JJ074/words_annotations/FRCHANJJ_JJ074_0230V.json/77/line", 
            "@type": "oa:Annotation", 
            "motivation": "oa:painting", 
            "on": "http://bvmm.irht.cnrs.fr/iiif/23656/canvas/canvas-2287684#xywh=2893,1145,198,185", 
            "resource": {
                "@type": "cnt:ContentAsText", 
                "chars": "ARDENDUM", 
                "format": "text/plain"
            }
        }, 
        {
            "@id": "https://manifests.teklia.com/HIMANIS/JJ074/words_annotations/FRCHANJJ_JJ074_0230V.json/78/line", 
            "@type": "oa:Annotation", 
            "motivation": "oa:painting", 
            "on": "http://bvmm.irht.cnrs.fr/iiif/23656/canvas/canvas-2287684#xywh=584,1772,133,84", 
            "resource": {
                "@type": "cnt:ContentAsText", 
                "chars": "SAIGES", 
                "format": "text/plain"
            }
        }, 
        {
            "@id": "https://manifests.teklia.com/HIMANIS/JJ074/words_annotations/FRCHANJJ_JJ074_0230V.json/79/line", 
            "@type": "oa:Annotation", 
            "motivation": "oa:painting", 
            "on": "http://bvmm.irht.cnrs.fr/iiif/23656/canvas/canvas-2287684#xywh=2988,2257,216,57", 
            "resource": {
                "@type": "cnt:ContentAsText", 
                "chars": "FINANCIA", 
                "format": "text/plain"
            }
        }, 
        {
            "@id": "https://manifests.teklia.com/HIMANIS/JJ074/words_annotations/FRCHANJJ_JJ074_0230V.json/80/line", 
            "@type": "oa:Annotation", 
            "motivation": "oa:painting", 
            "on": "http://bvmm.irht.cnrs.fr/iiif/23656/canvas/canvas-2287684#xywh=1177,1884,46,56", 
            "resource": {
                "@type": "cnt:ContentAsText", 
                "chars": "DES", 
                "format": "text/plain"
            }
        }, 
        {
            "@id": "https://manifests.teklia.com/HIMANIS/JJ074/words_annotations/FRCHANJJ_JJ074_0230V.json/81/line", 
            "@type": "oa:Annotation", 
            "motivation": "oa:painting", 
            "on": "http://bvmm.irht.cnrs.fr/iiif/23656/canvas/canvas-2287684#xywh=2893,1145,198,185", 
            "resource": {
                "@type": "cnt:ContentAsText", 
                "chars": "ARDENDIS", 
                "format": "text/plain"
            }
        }, 
        {
            "@id": "https://manifests.teklia.com/HIMANIS/JJ074/words_annotations/FRCHANJJ_JJ074_0230V.json/82/line", 
            "@type": "oa:Annotation", 
            "motivation": "oa:painting", 
            "on": "http://bvmm.irht.cnrs.fr/iiif/23656/canvas/canvas-2287684#xywh=2893,1145,198,185", 
            "resource": {
                "@type": "cnt:ContentAsText", 
                "chars": "ARDENDAS", 
                "format": "text/plain"
            }
        }, 
        {
            "@id": "https://manifests.teklia.com/HIMANIS/JJ074/words_annotations/FRCHANJJ_JJ074_0230V.json/83/line", 
            "@type": "oa:Annotation", 
            "motivation": "oa:painting", 
            "on": "http://bvmm.irht.cnrs.fr/iiif/23656/canvas/canvas-2287684#xywh=1179,936,93,101", 
            "resource": {
                "@type": "cnt:ContentAsText", 
                "chars": "PAR", 
                "format": "text/plain"
            }
        }, 
        {
            "@id": "https://manifests.teklia.com/HIMANIS/JJ074/words_annotations/FRCHANJJ_JJ074_0230V.json/84/line", 
            "@type": "oa:Annotation", 
            "motivation": "oa:painting", 
            "on": "http://bvmm.irht.cnrs.fr/iiif/23656/canvas/canvas-2287684#xywh=2603,1145,151,185", 
            "resource": {
                "@type": "cnt:ContentAsText", 
                "chars": "VALLES", 
                "format": "text/plain"
            }
        }, 
        {
            "@id": "https://manifests.teklia.com/HIMANIS/JJ074/words_annotations/FRCHANJJ_JJ074_0230V.json/85/line", 
            "@type": "oa:Annotation", 
            "motivation": "oa:painting", 
            "on": "http://bvmm.irht.cnrs.fr/iiif/23656/canvas/canvas-2287684#xywh=2393,1877,214,65", 
            "resource": {
                "@type": "cnt:ContentAsText", 
                "chars": "EXPLOITIER", 
                "format": "text/plain"
            }
        }, 
        {
            "@id": "https://manifests.teklia.com/HIMANIS/JJ074/words_annotations/FRCHANJJ_JJ074_0230V.json/86/line", 
            "@type": "oa:Annotation", 
            "motivation": "oa:painting", 
            "on": "http://bvmm.irht.cnrs.fr/iiif/23656/canvas/canvas-2287684#xywh=3178,1457,55,110", 
            "resource": {
                "@type": "cnt:ContentAsText", 
                "chars": "POUR", 
                "format": "text/plain"
            }
        }, 
        {
            "@id": "https://manifests.teklia.com/HIMANIS/JJ074/words_annotations/FRCHANJJ_JJ074_0230V.json/87/line", 
            "@type": "oa:Annotation", 
            "motivation": "oa:painting", 
            "on": "http://bvmm.irht.cnrs.fr/iiif/23656/canvas/canvas-2287684#xywh=3150,1367,144,100", 
            "resource": {
                "@type": "cnt:ContentAsText", 
                "chars": "AVENIR", 
                "format": "text/plain"
            }
        }, 
        {
            "@id": "https://manifests.teklia.com/HIMANIS/JJ074/words_annotations/FRCHANJJ_JJ074_0230V.json/88/line", 
            "@type": "oa:Annotation", 
            "motivation": "oa:painting", 
            "on": "http://bvmm.irht.cnrs.fr/iiif/23656/canvas/canvas-2287684#xywh=2578,1632,233,90", 
            "resource": {
                "@type": "cnt:ContentAsText", 
                "chars": "QUELLES", 
                "format": "text/plain"
            }
        }, 
        {
            "@id": "https://manifests.teklia.com/HIMANIS/JJ074/words_annotations/FRCHANJJ_JJ074_0230V.json/89/line", 
            "@type": "oa:Annotation", 
            "motivation": "oa:painting", 
            "on": "http://bvmm.irht.cnrs.fr/iiif/23656/canvas/canvas-2287684#xywh=3032,721,164,99", 
            "resource": {
                "@type": "cnt:ContentAsText", 
                "chars": "EGRACE", 
                "format": "text/plain"
            }
        }, 
        {
            "@id": "https://manifests.teklia.com/HIMANIS/JJ074/words_annotations/FRCHANJJ_JJ074_0230V.json/90/line", 
            "@type": "oa:Annotation", 
            "motivation": "oa:painting", 
            "on": "http://bvmm.irht.cnrs.fr/iiif/23656/canvas/canvas-2287684#xywh=2834,1772,233,88", 
            "resource": {
                "@type": "cnt:ContentAsText", 
                "chars": "SEGREONS", 
                "format": "text/plain"
            }
        }, 
        {
            "@id": "https://manifests.teklia.com/HIMANIS/JJ074/words_annotations/FRCHANJJ_JJ074_0230V.json/91/line", 
            "@type": "oa:Annotation", 
            "motivation": "oa:painting", 
            "on": "http://bvmm.irht.cnrs.fr/iiif/23656/canvas/canvas-2287684#xywh=2367,2072,112,85", 
            "resource": {
                "@type": "cnt:ContentAsText", 
                "chars": "JUING", 
                "format": "text/plain"
            }
        }, 
        {
            "@id": "https://manifests.teklia.com/HIMANIS/JJ074/words_annotations/FRCHANJJ_JJ074_0230V.json/92/line", 
            "@type": "oa:Annotation", 
            "motivation": "oa:painting", 
            "on": "http://bvmm.irht.cnrs.fr/iiif/23656/canvas/canvas-2287684#xywh=692,716,131,104", 
            "resource": {
                "@type": "cnt:ContentAsText", 
                "chars": "SAUF", 
                "format": "text/plain"
            }
        }, 
        {
            "@id": "https://manifests.teklia.com/HIMANIS/JJ074/words_annotations/FRCHANJJ_JJ074_0230V.json/93/line", 
            "@type": "oa:Annotation", 
            "motivation": "oa:painting", 
            "on": "http://bvmm.irht.cnrs.fr/iiif/23656/canvas/canvas-2287684#xywh=3161,1145,244,185", 
            "resource": {
                "@type": "cnt:ContentAsText", 
                "chars": "EDIFICANDUM", 
                "format": "text/plain"
            }
        }, 
        {
            "@id": "https://manifests.teklia.com/HIMANIS/JJ074/words_annotations/FRCHANJJ_JJ074_0230V.json/94/line", 
            "@type": "oa:Annotation", 
            "motivation": "oa:painting", 
            "on": "http://bvmm.irht.cnrs.fr/iiif/23656/canvas/canvas-2287684#xywh=2834,1772,194,88", 
            "resource": {
                "@type": "cnt:ContentAsText", 
                "chars": "SEGREON", 
                "format": "text/plain"
            }
        }, 
        {
            "@id": "https://manifests.teklia.com/HIMANIS/JJ074/words_annotations/FRCHANJJ_JJ074_0230V.json/95/line", 
            "@type": "oa:Annotation", 
            "motivation": "oa:painting", 
            "on": "http://bvmm.irht.cnrs.fr/iiif/23656/canvas/canvas-2287684#xywh=2661,1877,53,65", 
            "resource": {
                "@type": "cnt:ContentAsText", 
                "chars": "SIC", 
                "format": "text/plain"
            }
        }, 
        {
            "@id": "https://manifests.teklia.com/HIMANIS/JJ074/words_annotations/FRCHANJJ_JJ074_0230V.json/96/line", 
            "@type": "oa:Annotation", 
            "motivation": "oa:painting", 
            "on": "http://bvmm.irht.cnrs.fr/iiif/23656/canvas/canvas-2287684#xywh=2578,1632,233,90", 
            "resource": {
                "@type": "cnt:ContentAsText", 
                "chars": "QUELES", 
                "format": "text/plain"
            }
        }, 
        {
            "@id": "https://manifests.teklia.com/HIMANIS/JJ074/words_annotations/FRCHANJJ_JJ074_0230V.json/97/line", 
            "@type": "oa:Annotation", 
            "motivation": "oa:painting", 
            "on": "http://bvmm.irht.cnrs.fr/iiif/23656/canvas/canvas-2287684#xywh=1964,1457,229,110", 
            "resource": {
                "@type": "cnt:ContentAsText", 
                "chars": "LONDRIERE", 
                "format": "text/plain"
            }
        }, 
        {
            "@id": "https://manifests.teklia.com/HIMANIS/JJ074/words_annotations/FRCHANJJ_JJ074_0230V.json/98/line", 
            "@type": "oa:Annotation", 
            "motivation": "oa:painting", 
            "on": "http://bvmm.irht.cnrs.fr/iiif/23656/canvas/canvas-2287684#xywh=348,1145,279,185", 
            "resource": {
                "@type": "cnt:ContentAsText", 
                "chars": "MAIX", 
                "format": "text/plain"
            }
        }, 
        {
            "@id": "https://manifests.teklia.com/HIMANIS/JJ074/words_annotations/FRCHANJJ_JJ074_0230V.json/99/line", 
            "@type": "oa:Annotation", 
            "motivation": "oa:painting", 
            "on": "http://bvmm.irht.cnrs.fr/iiif/23656/canvas/canvas-2287684#xywh=2566,1984,176,74", 
            "resource": {
                "@type": "cnt:ContentAsText", 
                "chars": "PERPETUEL", 
                "format": "text/plain"
            }
        }, 
        {
            "@id": "https://manifests.teklia.com/HIMANIS/JJ074/words_annotations/FRCHANJJ_JJ074_0230V.json/100/line", 
            "@type": "oa:Annotation", 
            "motivation": "oa:painting", 
            "on": "http://bvmm.irht.cnrs.fr/iiif/23656/canvas/canvas-2287684#xywh=2873,1457,125,110", 
            "resource": {
                "@type": "cnt:ContentAsText", 
                "chars": "SAINT", 
                "format": "text/plain"
            }
        }, 
        {
            "@id": "https://manifests.teklia.com/HIMANIS/JJ074/words_annotations/FRCHANJJ_JJ074_0230V.json/101/line", 
            "@type": "oa:Annotation", 
            "motivation": "oa:painting", 
            "on": "http://bvmm.irht.cnrs.fr/iiif/23656/canvas/canvas-2287684#xywh=2846,1692,213,54", 
            "resource": {
                "@type": "cnt:ContentAsText", 
                "chars": "SAGIERS", 
                "format": "text/plain"
            }
        }, 
        {
            "@id": "https://manifests.teklia.com/HIMANIS/JJ074/words_annotations/FRCHANJJ_JJ074_0230V.json/102/line", 
            "@type": "oa:Annotation", 
            "motivation": "oa:painting", 
            "on": "http://bvmm.irht.cnrs.fr/iiif/23656/canvas/canvas-2287684#xywh=1944,716,151,104", 
            "resource": {
                "@type": "cnt:ContentAsText", 
                "chars": "TOUTES", 
                "format": "text/plain"
            }
        }, 
        {
            "@id": "https://manifests.teklia.com/HIMANIS/JJ074/words_annotations/FRCHANJJ_JJ074_0230V.json/103/line", 
            "@type": "oa:Annotation", 
            "motivation": "oa:painting", 
            "on": "http://bvmm.irht.cnrs.fr/iiif/23656/canvas/canvas-2287684#xywh=1103,1145,128,185", 
            "resource": {
                "@type": "cnt:ContentAsText", 
                "chars": "JOHANNES", 
                "format": "text/plain"
            }
        }, 
        {
            "@id": "https://manifests.teklia.com/HIMANIS/JJ074/words_annotations/FRCHANJJ_JJ074_0230V.json/104/line", 
            "@type": "oa:Annotation", 
            "motivation": "oa:painting", 
            "on": "http://bvmm.irht.cnrs.fr/iiif/23656/canvas/canvas-2287684#xywh=2464,1562,106,80", 
            "resource": {
                "@type": "cnt:ContentAsText", 
                "chars": "SAIGE", 
                "format": "text/plain"
            }
        }, 
        {
            "@id": "https://manifests.teklia.com/HIMANIS/JJ074/words_annotations/FRCHANJJ_JJ074_0230V.json/105/line", 
            "@type": "oa:Annotation", 
            "motivation": "oa:painting", 
            "on": "http://bvmm.irht.cnrs.fr/iiif/23656/canvas/canvas-2287684#xywh=2811,573,89,118", 
            "resource": {
                "@type": "cnt:ContentAsText", 
                "chars": "SEEL", 
                "format": "text/plain"
            }
        }, 
        {
            "@id": "https://manifests.teklia.com/HIMANIS/JJ074/words_annotations/FRCHANJJ_JJ074_0230V.json/106/line", 
            "@type": "oa:Annotation", 
            "motivation": "oa:painting", 
            "on": "http://bvmm.irht.cnrs.fr/iiif/23656/canvas/canvas-2287684#xywh=3049,4795,12,192", 
            "resource": {
                "@type": "cnt:ContentAsText", 
                "chars": "XXX", 
                "format": "text/plain"
            }
        }, 
        {
            "@id": "https://manifests.teklia.com/HIMANIS/JJ074/words_annotations/FRCHANJJ_JJ074_0230V.json/107/line", 
            "@type": "oa:Annotation", 
            "motivation": "oa:painting", 
            "on": "http://bvmm.irht.cnrs.fr/iiif/23656/canvas/canvas-2287684#xywh=878,1632,171,90", 
            "resource": {
                "@type": "cnt:ContentAsText", 
                "chars": "PATURES", 
                "format": "text/plain"
            }
        }, 
        {
            "@id": "https://manifests.teklia.com/HIMANIS/JJ074/words_annotations/FRCHANJJ_JJ074_0230V.json/108/line", 
            "@type": "oa:Annotation", 
            "motivation": "oa:painting", 
            "on": "http://bvmm.irht.cnrs.fr/iiif/23656/canvas/canvas-2287684#xywh=2289,1145,209,185", 
            "resource": {
                "@type": "cnt:ContentAsText", 
                "chars": "FORESTRA", 
                "format": "text/plain"
            }
        }, 
        {
            "@id": "https://manifests.teklia.com/HIMANIS/JJ074/words_annotations/FRCHANJJ_JJ074_0230V.json/109/line", 
            "@type": "oa:Annotation", 
            "motivation": "oa:painting", 
            "on": "http://bvmm.irht.cnrs.fr/iiif/23656/canvas/canvas-2287684#xywh=1643,716,183,104", 
            "resource": {
                "@type": "cnt:ContentAsText", 
                "chars": "L'AUTRUI", 
                "format": "text/plain"
            }
        }, 
        {
            "@id": "https://manifests.teklia.com/HIMANIS/JJ074/words_annotations/FRCHANJJ_JJ074_0230V.json/110/line", 
            "@type": "oa:Annotation", 
            "motivation": "oa:painting", 
            "on": "http://bvmm.irht.cnrs.fr/iiif/23656/canvas/canvas-2287684#xywh=3032,1457,97,110", 
            "resource": {
                "@type": "cnt:ContentAsText", 
                "chars": "PARS", 
                "format": "text/plain"
            }
        }, 
        {
            "@id": "https://manifests.teklia.com/HIMANIS/JJ074/words_annotations/FRCHANJJ_JJ074_0230V.json/111/line", 
            "@type": "oa:Annotation", 
            "motivation": "oa:painting", 
            "on": "http://bvmm.irht.cnrs.fr/iiif/23656/canvas/canvas-2287684#xywh=2279,1697,90,49", 
            "resource": {
                "@type": "cnt:ContentAsText", 
                "chars": "AURS", 
                "format": "text/plain"
            }
        }, 
        {
            "@id": "https://manifests.teklia.com/HIMANIS/JJ074/words_annotations/FRCHANJJ_JJ074_0230V.json/112/line", 
            "@type": "oa:Annotation", 
            "motivation": "oa:painting", 
            "on": "http://bvmm.irht.cnrs.fr/iiif/23656/canvas/canvas-2287684#xywh=2942,1367,113,100", 
            "resource": {
                "@type": "cnt:ContentAsText", 
                "chars": "PRESENZ", 
                "format": "text/plain"
            }
        }, 
        {
            "@id": "https://manifests.teklia.com/HIMANIS/JJ074/words_annotations/FRCHANJJ_JJ074_0230V.json/113/line", 
            "@type": "oa:Annotation", 
            "motivation": "oa:painting", 
            "on": "http://bvmm.irht.cnrs.fr/iiif/23656/canvas/canvas-2287684#xywh=720,1145,221,185", 
            "resource": {
                "@type": "cnt:ContentAsText", 
                "chars": "DONNA", 
                "format": "text/plain"
            }
        }, 
        {
            "@id": "https://manifests.teklia.com/HIMANIS/JJ074/words_annotations/FRCHANJJ_JJ074_0230V.json/114/line", 
            "@type": "oa:Annotation", 
            "motivation": "oa:painting", 
            "on": "http://bvmm.irht.cnrs.fr/iiif/23656/canvas/canvas-2287684#xywh=634,1632,96,90", 
            "resource": {
                "@type": "cnt:ContentAsText", 
                "chars": "FFIER", 
                "format": "text/plain"
            }
        }, 
        {
            "@id": "https://manifests.teklia.com/HIMANIS/JJ074/words_annotations/FRCHANJJ_JJ074_0230V.json/115/line", 
            "@type": "oa:Annotation", 
            "motivation": "oa:painting", 
            "on": "http://bvmm.irht.cnrs.fr/iiif/23656/canvas/canvas-2287684#xywh=634,1632,96,90", 
            "resource": {
                "@type": "cnt:ContentAsText", 
                "chars": "FFIEU", 
                "format": "text/plain"
            }
        }, 
        {
            "@id": "https://manifests.teklia.com/HIMANIS/JJ074/words_annotations/FRCHANJJ_JJ074_0230V.json/116/line", 
            "@type": "oa:Annotation", 
            "motivation": "oa:painting", 
            "on": "http://bvmm.irht.cnrs.fr/iiif/23656/canvas/canvas-2287684#xywh=1083,1974,112,52", 
            "resource": {
                "@type": "cnt:ContentAsText", 
                "chars": "CARIS", 
                "format": "text/plain"
            }
        }, 
        {
            "@id": "https://manifests.teklia.com/HIMANIS/JJ074/words_annotations/FRCHANJJ_JJ074_0230V.json/117/line", 
            "@type": "oa:Annotation", 
            "motivation": "oa:painting", 
            "on": "http://bvmm.irht.cnrs.fr/iiif/23656/canvas/canvas-2287684#xywh=1406,1974,197,52", 
            "resource": {
                "@type": "cnt:ContentAsText", 
                "chars": "EMPESCHA", 
                "format": "text/plain"
            }
        }, 
        {
            "@id": "https://manifests.teklia.com/HIMANIS/JJ074/words_annotations/FRCHANJJ_JJ074_0230V.json/118/line", 
            "@type": "oa:Annotation", 
            "motivation": "oa:painting", 
            "on": "http://bvmm.irht.cnrs.fr/iiif/23656/canvas/canvas-2287684#xywh=1284,1884,0,56", 
            "resource": {
                "@type": "cnt:ContentAsText", 
                "chars": "P", 
                "format": "text/plain"
            }
        }, 
        {
            "@id": "https://manifests.teklia.com/HIMANIS/JJ074/words_annotations/FRCHANJJ_JJ074_0230V.json/119/line", 
            "@type": "oa:Annotation", 
            "motivation": "oa:painting", 
            "on": "http://bvmm.irht.cnrs.fr/iiif/23656/canvas/canvas-2287684#xywh=1406,1974,194,52", 
            "resource": {
                "@type": "cnt:ContentAsText", 
                "chars": "EMPESCHE", 
                "format": "text/plain"
            }
        }, 
        {
            "@id": "https://manifests.teklia.com/HIMANIS/JJ074/words_annotations/FRCHANJJ_JJ074_0230V.json/120/line", 
            "@type": "oa:Annotation", 
            "motivation": "oa:painting", 
            "on": "http://bvmm.irht.cnrs.fr/iiif/23656/canvas/canvas-2287684#xywh=2797,1562,127,80", 
            "resource": {
                "@type": "cnt:ContentAsText", 
                "chars": "FOREST", 
                "format": "text/plain"
            }
        }, 
        {
            "@id": "https://manifests.teklia.com/HIMANIS/JJ074/words_annotations/FRCHANJJ_JJ074_0230V.json/121/line", 
            "@type": "oa:Annotation", 
            "motivation": "oa:painting", 
            "on": "http://bvmm.irht.cnrs.fr/iiif/23656/canvas/canvas-2287684#xywh=1406,1974,197,52", 
            "resource": {
                "@type": "cnt:ContentAsText", 
                "chars": "EMPESCHI", 
                "format": "text/plain"
            }
        }, 
        {
            "@id": "https://manifests.teklia.com/HIMANIS/JJ074/words_annotations/FRCHANJJ_JJ074_0230V.json/122/line", 
            "@type": "oa:Annotation", 
            "motivation": "oa:painting", 
            "on": "http://bvmm.irht.cnrs.fr/iiif/23656/canvas/canvas-2287684#xywh=2420,1367,170,100", 
            "resource": {
                "@type": "cnt:ContentAsText", 
                "chars": "SAVOIR", 
                "format": "text/plain"
            }
        }, 
        {
            "@id": "https://manifests.teklia.com/HIMANIS/JJ074/words_annotations/FRCHANJJ_JJ074_0230V.json/123/line", 
            "@type": "oa:Annotation", 
            "motivation": "oa:painting", 
            "on": "http://bvmm.irht.cnrs.fr/iiif/23656/canvas/canvas-2287684#xywh=1083,1974,112,52", 
            "resource": {
                "@type": "cnt:ContentAsText", 
                "chars": "PARIS", 
                "format": "text/plain"
            }
        }, 
        {
            "@id": "https://manifests.teklia.com/HIMANIS/JJ074/words_annotations/FRCHANJJ_JJ074_0230V.json/124/line", 
            "@type": "oa:Annotation", 
            "motivation": "oa:painting", 
            "on": "http://bvmm.irht.cnrs.fr/iiif/23656/canvas/canvas-2287684#xywh=3030,1562,126,80", 
            "resource": {
                "@type": "cnt:ContentAsText", 
                "chars": "VALER", 
                "format": "text/plain"
            }
        }, 
        {
            "@id": "https://manifests.teklia.com/HIMANIS/JJ074/words_annotations/FRCHANJJ_JJ074_0230V.json/125/line", 
            "@type": "oa:Annotation", 
            "motivation": "oa:painting", 
            "on": "http://bvmm.irht.cnrs.fr/iiif/23656/canvas/canvas-2287684#xywh=3030,1562,126,80", 
            "resource": {
                "@type": "cnt:ContentAsText", 
                "chars": "VALES", 
                "format": "text/plain"
            }
        }, 
        {
            "@id": "https://manifests.teklia.com/HIMANIS/JJ074/words_annotations/FRCHANJJ_JJ074_0230V.json/126/line", 
            "@type": "oa:Annotation", 
            "motivation": "oa:painting", 
            "on": "http://bvmm.irht.cnrs.fr/iiif/23656/canvas/canvas-2287684#xywh=3030,1562,126,80", 
            "resource": {
                "@type": "cnt:ContentAsText", 
                "chars": "VALET", 
                "format": "text/plain"
            }
        }, 
        {
            "@id": "https://manifests.teklia.com/HIMANIS/JJ074/words_annotations/FRCHANJJ_JJ074_0230V.json/127/line", 
            "@type": "oa:Annotation", 
            "motivation": "oa:painting", 
            "on": "http://bvmm.irht.cnrs.fr/iiif/23656/canvas/canvas-2287684#xywh=1103,1884,25,56", 
            "resource": {
                "@type": "cnt:ContentAsText", 
                "chars": "LE", 
                "format": "text/plain"
            }
        }, 
        {
            "@id": "https://manifests.teklia.com/HIMANIS/JJ074/words_annotations/FRCHANJJ_JJ074_0230V.json/128/line", 
            "@type": "oa:Annotation", 
            "motivation": "oa:painting", 
            "on": "http://bvmm.irht.cnrs.fr/iiif/23656/canvas/canvas-2287684#xywh=1177,1884,32,56", 
            "resource": {
                "@type": "cnt:ContentAsText", 
                "chars": "DE", 
                "format": "text/plain"
            }
        }, 
        {
            "@id": "https://manifests.teklia.com/HIMANIS/JJ074/words_annotations/FRCHANJJ_JJ074_0230V.json/129/line", 
            "@type": "oa:Annotation", 
            "motivation": "oa:painting", 
            "on": "http://bvmm.irht.cnrs.fr/iiif/23656/canvas/canvas-2287684#xywh=2804,2257,137,57", 
            "resource": {
                "@type": "cnt:ContentAsText", 
                "chars": "DIRE", 
                "format": "text/plain"
            }
        }, 
        {
            "@id": "https://manifests.teklia.com/HIMANIS/JJ074/words_annotations/FRCHANJJ_JJ074_0230V.json/130/line", 
            "@type": "oa:Annotation", 
            "motivation": "oa:painting", 
            "on": "http://bvmm.irht.cnrs.fr/iiif/23656/canvas/canvas-2287684#xywh=2846,1692,213,54", 
            "resource": {
                "@type": "cnt:ContentAsText", 
                "chars": "YSAGIERS", 
                "format": "text/plain"
            }
        }, 
        {
            "@id": "https://manifests.teklia.com/HIMANIS/JJ074/words_annotations/FRCHANJJ_JJ074_0230V.json/131/line", 
            "@type": "oa:Annotation", 
            "motivation": "oa:painting", 
            "on": "http://bvmm.irht.cnrs.fr/iiif/23656/canvas/canvas-2287684#xywh=2163,2072,161,85", 
            "resource": {
                "@type": "cnt:ContentAsText", 
                "chars": "DE", 
                "format": "text/plain"
            }
        }, 
        {
            "@id": "https://manifests.teklia.com/HIMANIS/JJ074/words_annotations/FRCHANJJ_JJ074_0230V.json/132/line", 
            "@type": "oa:Annotation", 
            "motivation": "oa:painting", 
            "on": "http://bvmm.irht.cnrs.fr/iiif/23656/canvas/canvas-2287684#xywh=1406,1145,174,185", 
            "resource": {
                "@type": "cnt:ContentAsText", 
                "chars": "BOUDRIE", 
                "format": "text/plain"
            }
        }, 
        {
            "@id": "https://manifests.teklia.com/HIMANIS/JJ074/words_annotations/FRCHANJJ_JJ074_0230V.json/133/line", 
            "@type": "oa:Annotation", 
            "motivation": "oa:painting", 
            "on": "http://bvmm.irht.cnrs.fr/iiif/23656/canvas/canvas-2287684#xywh=2812,1145,46,185", 
            "resource": {
                "@type": "cnt:ContentAsText", 
                "chars": "AD", 
                "format": "text/plain"
            }
        }, 
        {
            "@id": "https://manifests.teklia.com/HIMANIS/JJ074/words_annotations/FRCHANJJ_JJ074_0230V.json/134/line", 
            "@type": "oa:Annotation", 
            "motivation": "oa:painting", 
            "on": "http://bvmm.irht.cnrs.fr/iiif/23656/canvas/canvas-2287684#xywh=3103,1145,34,185", 
            "resource": {
                "@type": "cnt:ContentAsText", 
                "chars": "ET", 
                "format": "text/plain"
            }
        }, 
        {
            "@id": "https://manifests.teklia.com/HIMANIS/JJ074/words_annotations/FRCHANJJ_JJ074_0230V.json/135/line", 
            "@type": "oa:Annotation", 
            "motivation": "oa:painting", 
            "on": "http://bvmm.irht.cnrs.fr/iiif/23656/canvas/canvas-2287684#xywh=1791,1562,46,80", 
            "resource": {
                "@type": "cnt:ContentAsText", 
                "chars": "DIZ", 
                "format": "text/plain"
            }
        }, 
        {
            "@id": "https://manifests.teklia.com/HIMANIS/JJ074/words_annotations/FRCHANJJ_JJ074_0230V.json/136/line", 
            "@type": "oa:Annotation", 
            "motivation": "oa:painting", 
            "on": "http://bvmm.irht.cnrs.fr/iiif/23656/canvas/canvas-2287684#xywh=2163,2072,80,85", 
            "resource": {
                "@type": "cnt:ContentAsText", 
                "chars": "POUR", 
                "format": "text/plain"
            }
        }, 
        {
            "@id": "https://manifests.teklia.com/HIMANIS/JJ074/words_annotations/FRCHANJJ_JJ074_0230V.json/137/line", 
            "@type": "oa:Annotation", 
            "motivation": "oa:painting", 
            "on": "http://bvmm.irht.cnrs.fr/iiif/23656/canvas/canvas-2287684#xywh=2823,1367,81,100", 
            "resource": {
                "@type": "cnt:ContentAsText", 
                "chars": "TOUZ", 
                "format": "text/plain"
            }
        }, 
        {
            "@id": "https://manifests.teklia.com/HIMANIS/JJ074/words_annotations/FRCHANJJ_JJ074_0230V.json/138/line", 
            "@type": "oa:Annotation", 
            "motivation": "oa:painting", 
            "on": "http://bvmm.irht.cnrs.fr/iiif/23656/canvas/canvas-2287684#xywh=2394,1457,104,110", 
            "resource": {
                "@type": "cnt:ContentAsText", 
                "chars": "JADIS", 
                "format": "text/plain"
            }
        }, 
        {
            "@id": "https://manifests.teklia.com/HIMANIS/JJ074/words_annotations/FRCHANJJ_JJ074_0230V.json/139/line", 
            "@type": "oa:Annotation", 
            "motivation": "oa:painting", 
            "on": "http://bvmm.irht.cnrs.fr/iiif/23656/canvas/canvas-2287684#xywh=3216,1692,230,54", 
            "resource": {
                "@type": "cnt:ContentAsText", 
                "chars": "SEMBLABLE", 
                "format": "text/plain"
            }
        }, 
        {
            "@id": "https://manifests.teklia.com/HIMANIS/JJ074/words_annotations/FRCHANJJ_JJ074_0230V.json/140/line", 
            "@type": "oa:Annotation", 
            "motivation": "oa:painting", 
            "on": "http://bvmm.irht.cnrs.fr/iiif/23656/canvas/canvas-2287684#xywh=1387,716,157,104", 
            "resource": {
                "@type": "cnt:ContentAsText", 
                "chars": "CHOSES", 
                "format": "text/plain"
            }
        }, 
        {
            "@id": "https://manifests.teklia.com/HIMANIS/JJ074/words_annotations/FRCHANJJ_JJ074_0230V.json/141/line", 
            "@type": "oa:Annotation", 
            "motivation": "oa:painting", 
            "on": "http://bvmm.irht.cnrs.fr/iiif/23656/canvas/canvas-2287684#xywh=850,1632,0,90", 
            "resource": {
                "@type": "cnt:ContentAsText", 
                "chars": "A", 
                "format": "text/plain"
            }
        }, 
        {
            "@id": "https://manifests.teklia.com/HIMANIS/JJ074/words_annotations/FRCHANJJ_JJ074_0230V.json/142/line", 
            "@type": "oa:Annotation", 
            "motivation": "oa:painting", 
            "on": "http://bvmm.irht.cnrs.fr/iiif/23656/canvas/canvas-2287684#xywh=2804,2257,129,57", 
            "resource": {
                "@type": "cnt:ContentAsText", 
                "chars": "CIRE", 
                "format": "text/plain"
            }
        }, 
        {
            "@id": "https://manifests.teklia.com/HIMANIS/JJ074/words_annotations/FRCHANJJ_JJ074_0230V.json/143/line", 
            "@type": "oa:Annotation", 
            "motivation": "oa:painting", 
            "on": "http://bvmm.irht.cnrs.fr/iiif/23656/canvas/canvas-2287684#xywh=3080,1877,53,65", 
            "resource": {
                "@type": "cnt:ContentAsText", 
                "chars": "DU", 
                "format": "text/plain"
            }
        }, 
        {
            "@id": "https://manifests.teklia.com/HIMANIS/JJ074/words_annotations/FRCHANJJ_JJ074_0230V.json/144/line", 
            "@type": "oa:Annotation", 
            "motivation": "oa:painting", 
            "on": "http://bvmm.irht.cnrs.fr/iiif/23656/canvas/canvas-2287684#xywh=2163,2072,80,85", 
            "resource": {
                "@type": "cnt:ContentAsText", 
                "chars": "JOUR", 
                "format": "text/plain"
            }
        }, 
        {
            "@id": "https://manifests.teklia.com/HIMANIS/JJ074/words_annotations/FRCHANJJ_JJ074_0230V.json/145/line", 
            "@type": "oa:Annotation", 
            "motivation": "oa:painting", 
            "on": "http://bvmm.irht.cnrs.fr/iiif/23656/canvas/canvas-2287684#xywh=2279,1697,68,49", 
            "resource": {
                "@type": "cnt:ContentAsText", 
                "chars": "QUERS", 
                "format": "text/plain"
            }
        }, 
        {
            "@id": "https://manifests.teklia.com/HIMANIS/JJ074/words_annotations/FRCHANJJ_JJ074_0230V.json/146/line", 
            "@type": "oa:Annotation", 
            "motivation": "oa:painting", 
            "on": "http://bvmm.irht.cnrs.fr/iiif/23656/canvas/canvas-2287684#xywh=1138,716,39,104", 
            "resource": {
                "@type": "cnt:ContentAsText", 
                "chars": "EN", 
                "format": "text/plain"
            }
        }, 
        {
            "@id": "https://manifests.teklia.com/HIMANIS/JJ074/words_annotations/FRCHANJJ_JJ074_0230V.json/147/line", 
            "@type": "oa:Annotation", 
            "motivation": "oa:painting", 
            "on": "http://bvmm.irht.cnrs.fr/iiif/23656/canvas/canvas-2287684#xywh=1570,716,46,104", 
            "resource": {
                "@type": "cnt:ContentAsText", 
                "chars": "ET", 
                "format": "text/plain"
            }
        }, 
        {
            "@id": "https://manifests.teklia.com/HIMANIS/JJ074/words_annotations/FRCHANJJ_JJ074_0230V.json/148/line", 
            "@type": "oa:Annotation", 
            "motivation": "oa:painting", 
            "on": "http://bvmm.irht.cnrs.fr/iiif/23656/canvas/canvas-2287684#xywh=1630,573,0,118", 
            "resource": {
                "@type": "cnt:ContentAsText", 
                "chars": "A", 
                "format": "text/plain"
            }
        }, 
        {
            "@id": "https://manifests.teklia.com/HIMANIS/JJ074/words_annotations/FRCHANJJ_JJ074_0230V.json/149/line", 
            "@type": "oa:Annotation", 
            "motivation": "oa:painting", 
            "on": "http://bvmm.irht.cnrs.fr/iiif/23656/canvas/canvas-2287684#xywh=1238,1974,112,52", 
            "resource": {
                "@type": "cnt:ContentAsText", 
                "chars": "AUCUN", 
                "format": "text/plain"
            }
        }, 
        {
            "@id": "https://manifests.teklia.com/HIMANIS/JJ074/words_annotations/FRCHANJJ_JJ074_0230V.json/150/line", 
            "@type": "oa:Annotation", 
            "motivation": "oa:painting", 
            "on": "http://bvmm.irht.cnrs.fr/iiif/23656/canvas/canvas-2287684#xywh=2922,573,15,118", 
            "resource": {
                "@type": "cnt:ContentAsText", 
                "chars": "EN", 
                "format": "text/plain"
            }
        }, 
        {
            "@id": "https://manifests.teklia.com/HIMANIS/JJ074/words_annotations/FRCHANJJ_JJ074_0230V.json/151/line", 
            "@type": "oa:Annotation", 
            "motivation": "oa:painting", 
            "on": "http://bvmm.irht.cnrs.fr/iiif/23656/canvas/canvas-2287684#xywh=1229,716,125,104", 
            "resource": {
                "@type": "cnt:ContentAsText", 
                "chars": "AUTRES", 
                "format": "text/plain"
            }
        }, 
        {
            "@id": "https://manifests.teklia.com/HIMANIS/JJ074/words_annotations/FRCHANJJ_JJ074_0230V.json/152/line", 
            "@type": "oa:Annotation", 
            "motivation": "oa:painting", 
            "on": "http://bvmm.irht.cnrs.fr/iiif/23656/canvas/canvas-2287684#xywh=2858,1877,70,65", 
            "resource": {
                "@type": "cnt:ContentAsText", 
                "chars": "DIT", 
                "format": "text/plain"
            }
        }, 
        {
            "@id": "https://manifests.teklia.com/HIMANIS/JJ074/words_annotations/FRCHANJJ_JJ074_0230V.json/153/line", 
            "@type": "oa:Annotation", 
            "motivation": "oa:painting", 
            "on": "http://bvmm.irht.cnrs.fr/iiif/23656/canvas/canvas-2287684#xywh=1199,1772,234,84", 
            "resource": {
                "@type": "cnt:ContentAsText", 
                "chars": "EXPLOITENT", 
                "format": "text/plain"
            }
        }, 
        {
            "@id": "https://manifests.teklia.com/HIMANIS/JJ074/words_annotations/FRCHANJJ_JJ074_0230V.json/154/line", 
            "@type": "oa:Annotation", 
            "motivation": "oa:painting", 
            "on": "http://bvmm.irht.cnrs.fr/iiif/23656/canvas/canvas-2287684#xywh=0,4795,0,192", 
            "resource": {
                "@type": "cnt:ContentAsText", 
                "chars": "G", 
                "format": "text/plain"
            }
        }, 
        {
            "@id": "https://manifests.teklia.com/HIMANIS/JJ074/words_annotations/FRCHANJJ_JJ074_0230V.json/155/line", 
            "@type": "oa:Annotation", 
            "motivation": "oa:painting", 
            "on": "http://bvmm.irht.cnrs.fr/iiif/23656/canvas/canvas-2287684#xywh=2385,1632,113,90", 
            "resource": {
                "@type": "cnt:ContentAsText", 
                "chars": "SANS", 
                "format": "text/plain"
            }
        }, 
        {
            "@id": "https://manifests.teklia.com/HIMANIS/JJ074/words_annotations/FRCHANJJ_JJ074_0230V.json/156/line", 
            "@type": "oa:Annotation", 
            "motivation": "oa:painting", 
            "on": "http://bvmm.irht.cnrs.fr/iiif/23656/canvas/canvas-2287684#xywh=3107,1692,38,54", 
            "resource": {
                "@type": "cnt:ContentAsText", 
                "chars": "ONT", 
                "format": "text/plain"
            }
        }, 
        {
            "@id": "https://manifests.teklia.com/HIMANIS/JJ074/words_annotations/FRCHANJJ_JJ074_0230V.json/157/line", 
            "@type": "oa:Annotation", 
            "motivation": "oa:painting", 
            "on": "http://bvmm.irht.cnrs.fr/iiif/23656/canvas/canvas-2287684#xywh=1321,841,126,60", 
            "resource": {
                "@type": "cnt:ContentAsText", 
                "chars": "MOYE", 
                "format": "text/plain"
            }
        }, 
        {
            "@id": "https://manifests.teklia.com/HIMANIS/JJ074/words_annotations/FRCHANJJ_JJ074_0230V.json/158/line", 
            "@type": "oa:Annotation", 
            "motivation": "oa:painting", 
            "on": "http://bvmm.irht.cnrs.fr/iiif/23656/canvas/canvas-2287684#xywh=2804,2257,129,57", 
            "resource": {
                "@type": "cnt:ContentAsText", 
                "chars": "SINE", 
                "format": "text/plain"
            }
        }, 
        {
            "@id": "https://manifests.teklia.com/HIMANIS/JJ074/words_annotations/FRCHANJJ_JJ074_0230V.json/159/line", 
            "@type": "oa:Annotation", 
            "motivation": "oa:painting", 
            "on": "http://bvmm.irht.cnrs.fr/iiif/23656/canvas/canvas-2287684#xywh=2403,1562,167,80", 
            "resource": {
                "@type": "cnt:ContentAsText", 
                "chars": "L'USAIGE", 
                "format": "text/plain"
            }
        }, 
        {
            "@id": "https://manifests.teklia.com/HIMANIS/JJ074/words_annotations/FRCHANJJ_JJ074_0230V.json/160/line", 
            "@type": "oa:Annotation", 
            "motivation": "oa:painting", 
            "on": "http://bvmm.irht.cnrs.fr/iiif/23656/canvas/canvas-2287684#xywh=1321,841,118,60", 
            "resource": {
                "@type": "cnt:ContentAsText", 
                "chars": "MOYS", 
                "format": "text/plain"
            }
        }, 
        {
            "@id": "https://manifests.teklia.com/HIMANIS/JJ074/words_annotations/FRCHANJJ_JJ074_0230V.json/161/line", 
            "@type": "oa:Annotation", 
            "motivation": "oa:painting", 
            "on": "http://bvmm.irht.cnrs.fr/iiif/23656/canvas/canvas-2287684#xywh=1998,1632,97,90", 
            "resource": {
                "@type": "cnt:ContentAsText", 
                "chars": "FEURME", 
                "format": "text/plain"
            }
        }, 
        {
            "@id": "https://manifests.teklia.com/HIMANIS/JJ074/words_annotations/FRCHANJJ_JJ074_0230V.json/162/line", 
            "@type": "oa:Annotation", 
            "motivation": "oa:painting", 
            "on": "http://bvmm.irht.cnrs.fr/iiif/23656/canvas/canvas-2287684#xywh=840,1884,167,56", 
            "resource": {
                "@type": "cnt:ContentAsText", 
                "chars": "AVENIR", 
                "format": "text/plain"
            }
        }, 
        {
            "@id": "https://manifests.teklia.com/HIMANIS/JJ074/words_annotations/FRCHANJJ_JJ074_0230V.json/163/line", 
            "@type": "oa:Annotation", 
            "motivation": "oa:painting", 
            "on": "http://bvmm.irht.cnrs.fr/iiif/23656/canvas/canvas-2287684#xywh=2436,1984,84,74", 
            "resource": {
                "@type": "cnt:ContentAsText", 
                "chars": "BLE", 
                "format": "text/plain"
            }
        }, 
        {
            "@id": "https://manifests.teklia.com/HIMANIS/JJ074/words_annotations/FRCHANJJ_JJ074_0230V.json/164/line", 
            "@type": "oa:Annotation", 
            "motivation": "oa:painting", 
            "on": "http://bvmm.irht.cnrs.fr/iiif/23656/canvas/canvas-2287684#xywh=1350,1632,205,90", 
            "resource": {
                "@type": "cnt:ContentAsText", 
                "chars": "PLAITIER", 
                "format": "text/plain"
            }
        }, 
        {
            "@id": "https://manifests.teklia.com/HIMANIS/JJ074/words_annotations/FRCHANJJ_JJ074_0230V.json/165/line", 
            "@type": "oa:Annotation", 
            "motivation": "oa:painting", 
            "on": "http://bvmm.irht.cnrs.fr/iiif/23656/canvas/canvas-2287684#xywh=1564,841,103,60", 
            "resource": {
                "@type": "cnt:ContentAsText", 
                "chars": "MAY", 
                "format": "text/plain"
            }
        }, 
        {
            "@id": "https://manifests.teklia.com/HIMANIS/JJ074/words_annotations/FRCHANJJ_JJ074_0230V.json/166/line", 
            "@type": "oa:Annotation", 
            "motivation": "oa:painting", 
            "on": "http://bvmm.irht.cnrs.fr/iiif/23656/canvas/canvas-2287684#xywh=2981,1877,49,65", 
            "resource": {
                "@type": "cnt:ContentAsText", 
                "chars": "EST", 
                "format": "text/plain"
            }
        }, 
        {
            "@id": "https://manifests.teklia.com/HIMANIS/JJ074/words_annotations/FRCHANJJ_JJ074_0230V.json/167/line", 
            "@type": "oa:Annotation", 
            "motivation": "oa:painting", 
            "on": "http://bvmm.irht.cnrs.fr/iiif/23656/canvas/canvas-2287684#xywh=2997,573,67,118", 
            "resource": {
                "@type": "cnt:ContentAsText", 
                "chars": "CES", 
                "format": "text/plain"
            }
        }, 
        {
            "@id": "https://manifests.teklia.com/HIMANIS/JJ074/words_annotations/FRCHANJJ_JJ074_0230V.json/168/line", 
            "@type": "oa:Annotation", 
            "motivation": "oa:painting", 
            "on": "http://bvmm.irht.cnrs.fr/iiif/23656/canvas/canvas-2287684#xywh=1103,1145,117,185", 
            "resource": {
                "@type": "cnt:ContentAsText", 
                "chars": "JOHANNE", 
                "format": "text/plain"
            }
        }, 
        {
            "@id": "https://manifests.teklia.com/HIMANIS/JJ074/words_annotations/FRCHANJJ_JJ074_0230V.json/169/line", 
            "@type": "oa:Annotation", 
            "motivation": "oa:painting", 
            "on": "http://bvmm.irht.cnrs.fr/iiif/23656/canvas/canvas-2287684#xywh=2282,1632,80,90", 
            "resource": {
                "@type": "cnt:ContentAsText", 
                "chars": "AILLE", 
                "format": "text/plain"
            }
        }, 
        {
            "@id": "https://manifests.teklia.com/HIMANIS/JJ074/words_annotations/FRCHANJJ_JJ074_0230V.json/170/line", 
            "@type": "oa:Annotation", 
            "motivation": "oa:painting", 
            "on": "http://bvmm.irht.cnrs.fr/iiif/23656/canvas/canvas-2287684#xywh=751,1884,43,56", 
            "resource": {
                "@type": "cnt:ContentAsText", 
                "chars": "ET", 
                "format": "text/plain"
            }
        }, 
        {
            "@id": "https://manifests.teklia.com/HIMANIS/JJ074/words_annotations/FRCHANJJ_JJ074_0230V.json/171/line", 
            "@type": "oa:Annotation", 
            "motivation": "oa:painting", 
            "on": "http://bvmm.irht.cnrs.fr/iiif/23656/canvas/canvas-2287684#xywh=3116,573,200,118", 
            "resource": {
                "@type": "cnt:ContentAsText", 
                "chars": "PRESENTES", 
                "format": "text/plain"
            }
        }, 
        {
            "@id": "https://manifests.teklia.com/HIMANIS/JJ074/words_annotations/FRCHANJJ_JJ074_0230V.json/172/line", 
            "@type": "oa:Annotation", 
            "motivation": "oa:painting", 
            "on": "http://bvmm.irht.cnrs.fr/iiif/23656/canvas/canvas-2287684#xywh=3618,4404,128,76", 
            "resource": {
                "@type": "cnt:ContentAsText", 
                "chars": "DE", 
                "format": "text/plain"
            }
        }, 
        {
            "@id": "https://manifests.teklia.com/HIMANIS/JJ074/words_annotations/FRCHANJJ_JJ074_0230V.json/173/line", 
            "@type": "oa:Annotation", 
            "motivation": "oa:painting", 
            "on": "http://bvmm.irht.cnrs.fr/iiif/23656/canvas/canvas-2287684#xywh=2578,1632,233,90", 
            "resource": {
                "@type": "cnt:ContentAsText", 
                "chars": "QUELS", 
                "format": "text/plain"
            }
        }, 
        {
            "@id": "https://manifests.teklia.com/HIMANIS/JJ074/words_annotations/FRCHANJJ_JJ074_0230V.json/174/line", 
            "@type": "oa:Annotation", 
            "motivation": "oa:painting", 
            "on": "http://bvmm.irht.cnrs.fr/iiif/23656/canvas/canvas-2287684#xywh=3326,1367,37,100", 
            "resource": {
                "@type": "cnt:ContentAsText", 
                "chars": "QUE", 
                "format": "text/plain"
            }
        }, 
        {
            "@id": "https://manifests.teklia.com/HIMANIS/JJ074/words_annotations/FRCHANJJ_JJ074_0230V.json/175/line", 
            "@type": "oa:Annotation", 
            "motivation": "oa:painting", 
            "on": "http://bvmm.irht.cnrs.fr/iiif/23656/canvas/canvas-2287684#xywh=647,1993,0,51", 
            "resource": {
                "@type": "cnt:ContentAsText", 
                "chars": "J", 
                "format": "text/plain"
            }
        }, 
        {
            "@id": "https://manifests.teklia.com/HIMANIS/JJ074/words_annotations/FRCHANJJ_JJ074_0230V.json/176/line", 
            "@type": "oa:Annotation", 
            "motivation": "oa:painting", 
            "on": "http://bvmm.irht.cnrs.fr/iiif/23656/canvas/canvas-2287684#xywh=2540,1457,236,110", 
            "resource": {
                "@type": "cnt:ContentAsText", 
                "chars": "PHILIPPON", 
                "format": "text/plain"
            }
        }, 
        {
            "@id": "https://manifests.teklia.com/HIMANIS/JJ074/words_annotations/FRCHANJJ_JJ074_0230V.json/177/line", 
            "@type": "oa:Annotation", 
            "motivation": "oa:painting", 
            "on": "http://bvmm.irht.cnrs.fr/iiif/23656/canvas/canvas-2287684#xywh=647,1993,0,51", 
            "resource": {
                "@type": "cnt:ContentAsText", 
                "chars": "R", 
                "format": "text/plain"
            }
        }, 
        {
            "@id": "https://manifests.teklia.com/HIMANIS/JJ074/words_annotations/FRCHANJJ_JJ074_0230V.json/178/line", 
            "@type": "oa:Annotation", 
            "motivation": "oa:painting", 
            "on": "http://bvmm.irht.cnrs.fr/iiif/23656/canvas/canvas-2287684#xywh=904,1457,145,110", 
            "resource": {
                "@type": "cnt:ContentAsText", 
                "chars": "AVONS", 
                "format": "text/plain"
            }
        }, 
        {
            "@id": "https://manifests.teklia.com/HIMANIS/JJ074/words_annotations/FRCHANJJ_JJ074_0230V.json/179/line", 
            "@type": "oa:Annotation", 
            "motivation": "oa:painting", 
            "on": "http://bvmm.irht.cnrs.fr/iiif/23656/canvas/canvas-2287684#xywh=2385,1632,113,90", 
            "resource": {
                "@type": "cnt:ContentAsText", 
                "chars": "SONS", 
                "format": "text/plain"
            }
        }, 
        {
            "@id": "https://manifests.teklia.com/HIMANIS/JJ074/words_annotations/FRCHANJJ_JJ074_0230V.json/180/line", 
            "@type": "oa:Annotation", 
            "motivation": "oa:painting", 
            "on": "http://bvmm.irht.cnrs.fr/iiif/23656/canvas/canvas-2287684#xywh=3618,4404,138,76", 
            "resource": {
                "@type": "cnt:ContentAsText", 
                "chars": "LES", 
                "format": "text/plain"
            }
        }, 
        {
            "@id": "https://manifests.teklia.com/HIMANIS/JJ074/words_annotations/FRCHANJJ_JJ074_0230V.json/181/line", 
            "@type": "oa:Annotation", 
            "motivation": "oa:painting", 
            "on": "http://bvmm.irht.cnrs.fr/iiif/23656/canvas/canvas-2287684#xywh=3439,1367,327,100", 
            "resource": {
                "@type": "cnt:ContentAsText", 
                "chars": "GRACE", 
                "format": "text/plain"
            }
        }, 
        {
            "@id": "https://manifests.teklia.com/HIMANIS/JJ074/words_annotations/FRCHANJJ_JJ074_0230V.json/182/line", 
            "@type": "oa:Annotation", 
            "motivation": "oa:painting", 
            "on": "http://bvmm.irht.cnrs.fr/iiif/23656/canvas/canvas-2287684#xywh=3288,1562,96,80", 
            "resource": {
                "@type": "cnt:ContentAsText", 
                "chars": "ARDEE", 
                "format": "text/plain"
            }
        }, 
        {
            "@id": "https://manifests.teklia.com/HIMANIS/JJ074/words_annotations/FRCHANJJ_JJ074_0230V.json/183/line", 
            "@type": "oa:Annotation", 
            "motivation": "oa:painting", 
            "on": "http://bvmm.irht.cnrs.fr/iiif/23656/canvas/canvas-2287684#xywh=2103,1145,163,185", 
            "resource": {
                "@type": "cnt:ContentAsText", 
                "chars": "USAGII", 
                "format": "text/plain"
            }
        }, 
        {
            "@id": "https://manifests.teklia.com/HIMANIS/JJ074/words_annotations/FRCHANJJ_JJ074_0230V.json/184/line", 
            "@type": "oa:Annotation", 
            "motivation": "oa:painting", 
            "on": "http://bvmm.irht.cnrs.fr/iiif/23656/canvas/canvas-2287684#xywh=3288,1562,91,80", 
            "resource": {
                "@type": "cnt:ContentAsText", 
                "chars": "ARDAN", 
                "format": "text/plain"
            }
        }, 
        {
            "@id": "https://manifests.teklia.com/HIMANIS/JJ074/words_annotations/FRCHANJJ_JJ074_0230V.json/185/line", 
            "@type": "oa:Annotation", 
            "motivation": "oa:painting", 
            "on": "http://bvmm.irht.cnrs.fr/iiif/23656/canvas/canvas-2287684#xywh=2254,573,119,118", 
            "resource": {
                "@type": "cnt:ContentAsText", 
                "chars": "AVONS", 
                "format": "text/plain"
            }
        }, 
        {
            "@id": "https://manifests.teklia.com/HIMANIS/JJ074/words_annotations/FRCHANJJ_JJ074_0230V.json/186/line", 
            "@type": "oa:Annotation", 
            "motivation": "oa:painting", 
            "on": "http://bvmm.irht.cnrs.fr/iiif/23656/canvas/canvas-2287684#xywh=2315,1877,41,65", 
            "resource": {
                "@type": "cnt:ContentAsText", 
                "chars": "ET", 
                "format": "text/plain"
            }
        }, 
        {
            "@id": "https://manifests.teklia.com/HIMANIS/JJ074/words_annotations/FRCHANJJ_JJ074_0230V.json/187/line", 
            "@type": "oa:Annotation", 
            "motivation": "oa:painting", 
            "on": "http://bvmm.irht.cnrs.fr/iiif/23656/canvas/canvas-2287684#xywh=1765,1632,131,90", 
            "resource": {
                "@type": "cnt:ContentAsText", 
                "chars": "MANIERE", 
                "format": "text/plain"
            }
        }, 
        {
            "@id": "https://manifests.teklia.com/HIMANIS/JJ074/words_annotations/FRCHANJJ_JJ074_0230V.json/188/line", 
            "@type": "oa:Annotation", 
            "motivation": "oa:painting", 
            "on": "http://bvmm.irht.cnrs.fr/iiif/23656/canvas/canvas-2287684#xywh=1060,1884,25,56", 
            "resource": {
                "@type": "cnt:ContentAsText", 
                "chars": "QUE", 
                "format": "text/plain"
            }
        }, 
        {
            "@id": "https://manifests.teklia.com/HIMANIS/JJ074/words_annotations/FRCHANJJ_JJ074_0230V.json/189/line", 
            "@type": "oa:Annotation", 
            "motivation": "oa:painting", 
            "on": "http://bvmm.irht.cnrs.fr/iiif/23656/canvas/canvas-2287684#xywh=1615,1145,35,185", 
            "resource": {
                "@type": "cnt:ContentAsText", 
                "chars": "PRO", 
                "format": "text/plain"
            }
        }, 
        {
            "@id": "https://manifests.teklia.com/HIMANIS/JJ074/words_annotations/FRCHANJJ_JJ074_0230V.json/190/line", 
            "@type": "oa:Annotation", 
            "motivation": "oa:painting", 
            "on": "http://bvmm.irht.cnrs.fr/iiif/23656/canvas/canvas-2287684#xywh=1905,1145,163,185", 
            "resource": {
                "@type": "cnt:ContentAsText", 
                "chars": "HEREDIBUS", 
                "format": "text/plain"
            }
        }, 
        {
            "@id": "https://manifests.teklia.com/HIMANIS/JJ074/words_annotations/FRCHANJJ_JJ074_0230V.json/191/line", 
            "@type": "oa:Annotation", 
            "motivation": "oa:painting", 
            "on": "http://bvmm.irht.cnrs.fr/iiif/23656/canvas/canvas-2287684#xywh=987,716,111,104", 
            "resource": {
                "@type": "cnt:ContentAsText", 
                "chars": "DROIT", 
                "format": "text/plain"
            }
        }, 
        {
            "@id": "https://manifests.teklia.com/HIMANIS/JJ074/words_annotations/FRCHANJJ_JJ074_0230V.json/192/line", 
            "@type": "oa:Annotation", 
            "motivation": "oa:painting", 
            "on": "http://bvmm.irht.cnrs.fr/iiif/23656/canvas/canvas-2287684#xywh=952,1145,117,185", 
            "resource": {
                "@type": "cnt:ContentAsText", 
                "chars": "FACTUM", 
                "format": "text/plain"
            }
        }, 
        {
            "@id": "https://manifests.teklia.com/HIMANIS/JJ074/words_annotations/FRCHANJJ_JJ074_0230V.json/193/line", 
            "@type": "oa:Annotation", 
            "motivation": "oa:painting", 
            "on": "http://bvmm.irht.cnrs.fr/iiif/23656/canvas/canvas-2287684#xywh=1801,573,126,118", 
            "resource": {
                "@type": "cnt:ContentAsText", 
                "chars": "JOURS", 
                "format": "text/plain"
            }
        }, 
        {
            "@id": "https://manifests.teklia.com/HIMANIS/JJ074/words_annotations/FRCHANJJ_JJ074_0230V.json/194/line", 
            "@type": "oa:Annotation", 
            "motivation": "oa:painting", 
            "on": "http://bvmm.irht.cnrs.fr/iiif/23656/canvas/canvas-2287684#xywh=1691,1632,29,90", 
            "resource": {
                "@type": "cnt:ContentAsText", 
                "chars": "LA", 
                "format": "text/plain"
            }
        }, 
        {
            "@id": "https://manifests.teklia.com/HIMANIS/JJ074/words_annotations/FRCHANJJ_JJ074_0230V.json/195/line", 
            "@type": "oa:Annotation", 
            "motivation": "oa:painting", 
            "on": "http://bvmm.irht.cnrs.fr/iiif/23656/canvas/canvas-2287684#xywh=1151,1632,119,90", 
            "resource": {
                "@type": "cnt:ContentAsText", 
                "chars": "BESTES", 
                "format": "text/plain"
            }
        }, 
        {
            "@id": "https://manifests.teklia.com/HIMANIS/JJ074/words_annotations/FRCHANJJ_JJ074_0230V.json/196/line", 
            "@type": "oa:Annotation", 
            "motivation": "oa:painting", 
            "on": "http://bvmm.irht.cnrs.fr/iiif/23656/canvas/canvas-2287684#xywh=1088,1632,40,90", 
            "resource": {
                "@type": "cnt:ContentAsText", 
                "chars": "DE", 
                "format": "text/plain"
            }
        }, 
        {
            "@id": "https://manifests.teklia.com/HIMANIS/JJ074/words_annotations/FRCHANJJ_JJ074_0230V.json/197/line", 
            "@type": "oa:Annotation", 
            "motivation": "oa:painting", 
            "on": "http://bvmm.irht.cnrs.fr/iiif/23656/canvas/canvas-2287684#xywh=3376,1367,44,100", 
            "resource": {
                "@type": "cnt:ContentAsText", 
                "chars": "DE", 
                "format": "text/plain"
            }
        }, 
        {
            "@id": "https://manifests.teklia.com/HIMANIS/JJ074/words_annotations/FRCHANJJ_JJ074_0230V.json/198/line", 
            "@type": "oa:Annotation", 
            "motivation": "oa:painting", 
            "on": "http://bvmm.irht.cnrs.fr/iiif/23656/canvas/canvas-2287684#xywh=2180,1562,177,80", 
            "resource": {
                "@type": "cnt:ContentAsText", 
                "chars": "JEHANNE", 
                "format": "text/plain"
            }
        }, 
        {
            "@id": "https://manifests.teklia.com/HIMANIS/JJ074/words_annotations/FRCHANJJ_JJ074_0230V.json/199/line", 
            "@type": "oa:Annotation", 
            "motivation": "oa:painting", 
            "on": "http://bvmm.irht.cnrs.fr/iiif/23656/canvas/canvas-2287684#xywh=2603,1145,128,185", 
            "resource": {
                "@type": "cnt:ContentAsText", 
                "chars": "VALLE", 
                "format": "text/plain"
            }
        }, 
        {
            "@id": "https://manifests.teklia.com/HIMANIS/JJ074/words_annotations/FRCHANJJ_JJ074_0230V.json/200/line", 
            "@type": "oa:Annotation", 
            "motivation": "oa:painting", 
            "on": "http://bvmm.irht.cnrs.fr/iiif/23656/canvas/canvas-2287684#xywh=1528,1457,228,110", 
            "resource": {
                "@type": "cnt:ContentAsText", 
                "chars": "JEHANNE", 
                "format": "text/plain"
            }
        }, 
        {
            "@id": "https://manifests.teklia.com/HIMANIS/JJ074/words_annotations/FRCHANJJ_JJ074_0230V.json/201/line", 
            "@type": "oa:Annotation", 
            "motivation": "oa:painting", 
            "on": "http://bvmm.irht.cnrs.fr/iiif/23656/canvas/canvas-2287684#xywh=1909,1457,35,110", 
            "resource": {
                "@type": "cnt:ContentAsText", 
                "chars": "LA", 
                "format": "text/plain"
            }
        }, 
        {
            "@id": "https://manifests.teklia.com/HIMANIS/JJ074/words_annotations/FRCHANJJ_JJ074_0230V.json/202/line", 
            "@type": "oa:Annotation", 
            "motivation": "oa:painting", 
            "on": "http://bvmm.irht.cnrs.fr/iiif/23656/canvas/canvas-2287684#xywh=1791,1457,14,110", 
            "resource": {
                "@type": "cnt:ContentAsText", 
                "chars": "LE", 
                "format": "text/plain"
            }
        }, 
        {
            "@id": "https://manifests.teklia.com/HIMANIS/JJ074/words_annotations/FRCHANJJ_JJ074_0230V.json/203/line", 
            "@type": "oa:Annotation", 
            "motivation": "oa:painting", 
            "on": "http://bvmm.irht.cnrs.fr/iiif/23656/canvas/canvas-2287684#xywh=2810,1457,42,110", 
            "resource": {
                "@type": "cnt:ContentAsText", 
                "chars": "DE", 
                "format": "text/plain"
            }
        }, 
        {
            "@id": "https://manifests.teklia.com/HIMANIS/JJ074/words_annotations/FRCHANJJ_JJ074_0230V.json/204/line", 
            "@type": "oa:Annotation", 
            "motivation": "oa:painting", 
            "on": "http://bvmm.irht.cnrs.fr/iiif/23656/canvas/canvas-2287684#xywh=3261,1457,35,110", 
            "resource": {
                "@type": "cnt:ContentAsText", 
                "chars": "LI", 
                "format": "text/plain"
            }
        }
    ]
}