{
    "@context": "http://iiif.io/api/presentation/2/context.json", 
    "@id": "https://manifests.teklia.com/HIMANIS/JJ074/words_annotations/FRCHANJJ_JJ074_0344V.json", 
    "@type": "sc:AnnotationList", 
    "resources": [
        {
            "@id": "https://manifests.teklia.com/HIMANIS/JJ074/words_annotations/FRCHANJJ_JJ074_0344V.json/0/line", 
            "@type": "oa:Annotation", 
            "motivation": "oa:painting", 
            "on": "http://bvmm.irht.cnrs.fr/iiif/23656/canvas/canvas-2287912#xywh=2145,302,184,127", 
            "resource": {
                "@type": "cnt:ContentAsText", 
                "chars": "LONELLE", 
                "format": "text/plain"
            }
        }, 
        {
            "@id": "https://manifests.teklia.com/HIMANIS/JJ074/words_annotations/FRCHANJJ_JJ074_0344V.json/1/line", 
            "@type": "oa:Annotation", 
            "motivation": "oa:painting", 
            "on": "http://bvmm.irht.cnrs.fr/iiif/23656/canvas/canvas-2287912#xywh=1456,669,183,66", 
            "resource": {
                "@type": "cnt:ContentAsText", 
                "chars": "FOURME", 
                "format": "text/plain"
            }
        }, 
        {
            "@id": "https://manifests.teklia.com/HIMANIS/JJ074/words_annotations/FRCHANJJ_JJ074_0344V.json/2/line", 
            "@type": "oa:Annotation", 
            "motivation": "oa:painting", 
            "on": "http://bvmm.irht.cnrs.fr/iiif/23656/canvas/canvas-2287912#xywh=1583,1141,152,49", 
            "resource": {
                "@type": "cnt:ContentAsText", 
                "chars": "DE", 
                "format": "text/plain"
            }
        }, 
        {
            "@id": "https://manifests.teklia.com/HIMANIS/JJ074/words_annotations/FRCHANJJ_JJ074_0344V.json/3/line", 
            "@type": "oa:Annotation", 
            "motivation": "oa:painting", 
            "on": "http://bvmm.irht.cnrs.fr/iiif/23656/canvas/canvas-2287912#xywh=687,2478,162,33", 
            "resource": {
                "@type": "cnt:ContentAsText", 
                "chars": "SY", 
                "format": "text/plain"
            }
        }, 
        {
            "@id": "https://manifests.teklia.com/HIMANIS/JJ074/words_annotations/FRCHANJJ_JJ074_0344V.json/4/line", 
            "@type": "oa:Annotation", 
            "motivation": "oa:painting", 
            "on": "http://bvmm.irht.cnrs.fr/iiif/23656/canvas/canvas-2287912#xywh=2346,2701,287,17", 
            "resource": {
                "@type": "cnt:ContentAsText", 
                "chars": "CY", 
                "format": "text/plain"
            }
        }, 
        {
            "@id": "https://manifests.teklia.com/HIMANIS/JJ074/words_annotations/FRCHANJJ_JJ074_0344V.json/5/line", 
            "@type": "oa:Annotation", 
            "motivation": "oa:painting", 
            "on": "http://bvmm.irht.cnrs.fr/iiif/23656/canvas/canvas-2287912#xywh=2540,4244,155,70", 
            "resource": {
                "@type": "cnt:ContentAsText", 
                "chars": "DENIER", 
                "format": "text/plain"
            }
        }, 
        {
            "@id": "https://manifests.teklia.com/HIMANIS/JJ074/words_annotations/FRCHANJJ_JJ074_0344V.json/6/line", 
            "@type": "oa:Annotation", 
            "motivation": "oa:painting", 
            "on": "http://bvmm.irht.cnrs.fr/iiif/23656/canvas/canvas-2287912#xywh=2868,1193,166,80", 
            "resource": {
                "@type": "cnt:ContentAsText", 
                "chars": "ROBINET", 
                "format": "text/plain"
            }
        }, 
        {
            "@id": "https://manifests.teklia.com/HIMANIS/JJ074/words_annotations/FRCHANJJ_JJ074_0344V.json/7/line", 
            "@type": "oa:Annotation", 
            "motivation": "oa:painting", 
            "on": "http://bvmm.irht.cnrs.fr/iiif/23656/canvas/canvas-2287912#xywh=2587,1193,35,80", 
            "resource": {
                "@type": "cnt:ContentAsText", 
                "chars": "LA", 
                "format": "text/plain"
            }
        }, 
        {
            "@id": "https://manifests.teklia.com/HIMANIS/JJ074/words_annotations/FRCHANJJ_JJ074_0344V.json/8/line", 
            "@type": "oa:Annotation", 
            "motivation": "oa:painting", 
            "on": "http://bvmm.irht.cnrs.fr/iiif/23656/canvas/canvas-2287912#xywh=3040,1331,135,72", 
            "resource": {
                "@type": "cnt:ContentAsText", 
                "chars": "PALEE", 
                "format": "text/plain"
            }
        }, 
        {
            "@id": "https://manifests.teklia.com/HIMANIS/JJ074/words_annotations/FRCHANJJ_JJ074_0344V.json/9/line", 
            "@type": "oa:Annotation", 
            "motivation": "oa:painting", 
            "on": "http://bvmm.irht.cnrs.fr/iiif/23656/canvas/canvas-2287912#xywh=1136,3046,0,45", 
            "resource": {
                "@type": "cnt:ContentAsText", 
                "chars": "J", 
                "format": "text/plain"
            }
        }, 
        {
            "@id": "https://manifests.teklia.com/HIMANIS/JJ074/words_annotations/FRCHANJJ_JJ074_0344V.json/10/line", 
            "@type": "oa:Annotation", 
            "motivation": "oa:painting", 
            "on": "http://bvmm.irht.cnrs.fr/iiif/23656/canvas/canvas-2287912#xywh=1681,302,152,127", 
            "resource": {
                "@type": "cnt:ContentAsText", 
                "chars": "CENSUM", 
                "format": "text/plain"
            }
        }, 
        {
            "@id": "https://manifests.teklia.com/HIMANIS/JJ074/words_annotations/FRCHANJJ_JJ074_0344V.json/11/line", 
            "@type": "oa:Annotation", 
            "motivation": "oa:painting", 
            "on": "http://bvmm.irht.cnrs.fr/iiif/23656/canvas/canvas-2287912#xywh=1136,3046,0,45", 
            "resource": {
                "@type": "cnt:ContentAsText", 
                "chars": "V", 
                "format": "text/plain"
            }
        }, 
        {
            "@id": "https://manifests.teklia.com/HIMANIS/JJ074/words_annotations/FRCHANJJ_JJ074_0344V.json/12/line", 
            "@type": "oa:Annotation", 
            "motivation": "oa:painting", 
            "on": "http://bvmm.irht.cnrs.fr/iiif/23656/canvas/canvas-2287912#xywh=1264,429,437,82", 
            "resource": {
                "@type": "cnt:ContentAsText", 
                "chars": "FECIME", 
                "format": "text/plain"
            }
        }, 
        {
            "@id": "https://manifests.teklia.com/HIMANIS/JJ074/words_annotations/FRCHANJJ_JJ074_0344V.json/13/line", 
            "@type": "oa:Annotation", 
            "motivation": "oa:painting", 
            "on": "http://bvmm.irht.cnrs.fr/iiif/23656/canvas/canvas-2287912#xywh=1264,429,551,82", 
            "resource": {
                "@type": "cnt:ContentAsText", 
                "chars": "FECIMO", 
                "format": "text/plain"
            }
        }, 
        {
            "@id": "https://manifests.teklia.com/HIMANIS/JJ074/words_annotations/FRCHANJJ_JJ074_0344V.json/14/line", 
            "@type": "oa:Annotation", 
            "motivation": "oa:painting", 
            "on": "http://bvmm.irht.cnrs.fr/iiif/23656/canvas/canvas-2287912#xywh=820,1493,86,54", 
            "resource": {
                "@type": "cnt:ContentAsText", 
                "chars": "MESS", 
                "format": "text/plain"
            }
        }, 
        {
            "@id": "https://manifests.teklia.com/HIMANIS/JJ074/words_annotations/FRCHANJJ_JJ074_0344V.json/15/line", 
            "@type": "oa:Annotation", 
            "motivation": "oa:painting", 
            "on": "http://bvmm.irht.cnrs.fr/iiif/23656/canvas/canvas-2287912#xywh=726,669,29,66", 
            "resource": {
                "@type": "cnt:ContentAsText", 
                "chars": "SI", 
                "format": "text/plain"
            }
        }, 
        {
            "@id": "https://manifests.teklia.com/HIMANIS/JJ074/words_annotations/FRCHANJJ_JJ074_0344V.json/16/line", 
            "@type": "oa:Annotation", 
            "motivation": "oa:painting", 
            "on": "http://bvmm.irht.cnrs.fr/iiif/23656/canvas/canvas-2287912#xywh=707,1833,141,68", 
            "resource": {
                "@type": "cnt:ContentAsText", 
                "chars": "BERNY", 
                "format": "text/plain"
            }
        }, 
        {
            "@id": "https://manifests.teklia.com/HIMANIS/JJ074/words_annotations/FRCHANJJ_JJ074_0344V.json/17/line", 
            "@type": "oa:Annotation", 
            "motivation": "oa:painting", 
            "on": "http://bvmm.irht.cnrs.fr/iiif/23656/canvas/canvas-2287912#xywh=3176,2235,56,89", 
            "resource": {
                "@type": "cnt:ContentAsText", 
                "chars": "DIT", 
                "format": "text/plain"
            }
        }, 
        {
            "@id": "https://manifests.teklia.com/HIMANIS/JJ074/words_annotations/FRCHANJJ_JJ074_0344V.json/18/line", 
            "@type": "oa:Annotation", 
            "motivation": "oa:painting", 
            "on": "http://bvmm.irht.cnrs.fr/iiif/23656/canvas/canvas-2287912#xywh=287,3985,0,37", 
            "resource": {
                "@type": "cnt:ContentAsText", 
                "chars": "P", 
                "format": "text/plain"
            }
        }, 
        {
            "@id": "https://manifests.teklia.com/HIMANIS/JJ074/words_annotations/FRCHANJJ_JJ074_0344V.json/19/line", 
            "@type": "oa:Annotation", 
            "motivation": "oa:painting", 
            "on": "http://bvmm.irht.cnrs.fr/iiif/23656/canvas/canvas-2287912#xywh=1339,0,0,171", 
            "resource": {
                "@type": "cnt:ContentAsText", 
                "chars": "E", 
                "format": "text/plain"
            }
        }, 
        {
            "@id": "https://manifests.teklia.com/HIMANIS/JJ074/words_annotations/FRCHANJJ_JJ074_0344V.json/20/line", 
            "@type": "oa:Annotation", 
            "motivation": "oa:painting", 
            "on": "http://bvmm.irht.cnrs.fr/iiif/23656/canvas/canvas-2287912#xywh=483,302,208,127", 
            "resource": {
                "@type": "cnt:ContentAsText", 
                "chars": "VEX", 
                "format": "text/plain"
            }
        }, 
        {
            "@id": "https://manifests.teklia.com/HIMANIS/JJ074/words_annotations/FRCHANJJ_JJ074_0344V.json/21/line", 
            "@type": "oa:Annotation", 
            "motivation": "oa:painting", 
            "on": "http://bvmm.irht.cnrs.fr/iiif/23656/canvas/canvas-2287912#xywh=3408,82,243,65", 
            "resource": {
                "@type": "cnt:ContentAsText", 
                "chars": "NOUS", 
                "format": "text/plain"
            }
        }, 
        {
            "@id": "https://manifests.teklia.com/HIMANIS/JJ074/words_annotations/FRCHANJJ_JJ074_0344V.json/22/line", 
            "@type": "oa:Annotation", 
            "motivation": "oa:painting", 
            "on": "http://bvmm.irht.cnrs.fr/iiif/23656/canvas/canvas-2287912#xywh=2346,2701,116,17", 
            "resource": {
                "@type": "cnt:ContentAsText", 
                "chars": "CIA", 
                "format": "text/plain"
            }
        }, 
        {
            "@id": "https://manifests.teklia.com/HIMANIS/JJ074/words_annotations/FRCHANJJ_JJ074_0344V.json/23/line", 
            "@type": "oa:Annotation", 
            "motivation": "oa:painting", 
            "on": "http://bvmm.irht.cnrs.fr/iiif/23656/canvas/canvas-2287912#xywh=1392,3129,156,73", 
            "resource": {
                "@type": "cnt:ContentAsText", 
                "chars": "ON", 
                "format": "text/plain"
            }
        }, 
        {
            "@id": "https://manifests.teklia.com/HIMANIS/JJ074/words_annotations/FRCHANJJ_JJ074_0344V.json/24/line", 
            "@type": "oa:Annotation", 
            "motivation": "oa:painting", 
            "on": "http://bvmm.irht.cnrs.fr/iiif/23656/canvas/canvas-2287912#xywh=903,1141,0,38", 
            "resource": {
                "@type": "cnt:ContentAsText", 
                "chars": "M", 
                "format": "text/plain"
            }
        }, 
        {
            "@id": "https://manifests.teklia.com/HIMANIS/JJ074/words_annotations/FRCHANJJ_JJ074_0344V.json/25/line", 
            "@type": "oa:Annotation", 
            "motivation": "oa:painting", 
            "on": "http://bvmm.irht.cnrs.fr/iiif/23656/canvas/canvas-2287912#xywh=3086,2235,51,89", 
            "resource": {
                "@type": "cnt:ContentAsText", 
                "chars": "DU", 
                "format": "text/plain"
            }
        }, 
        {
            "@id": "https://manifests.teklia.com/HIMANIS/JJ074/words_annotations/FRCHANJJ_JJ074_0344V.json/26/line", 
            "@type": "oa:Annotation", 
            "motivation": "oa:painting", 
            "on": "http://bvmm.irht.cnrs.fr/iiif/23656/canvas/canvas-2287912#xywh=794,1141,106,38", 
            "resource": {
                "@type": "cnt:ContentAsText", 
                "chars": "EX", 
                "format": "text/plain"
            }
        }, 
        {
            "@id": "https://manifests.teklia.com/HIMANIS/JJ074/words_annotations/FRCHANJJ_JJ074_0344V.json/27/line", 
            "@type": "oa:Annotation", 
            "motivation": "oa:painting", 
            "on": "http://bvmm.irht.cnrs.fr/iiif/23656/canvas/canvas-2287912#xywh=900,1605,214,42", 
            "resource": {
                "@type": "cnt:ContentAsText", 
                "chars": "COL", 
                "format": "text/plain"
            }
        }, 
        {
            "@id": "https://manifests.teklia.com/HIMANIS/JJ074/words_annotations/FRCHANJJ_JJ074_0344V.json/28/line", 
            "@type": "oa:Annotation", 
            "motivation": "oa:painting", 
            "on": "http://bvmm.irht.cnrs.fr/iiif/23656/canvas/canvas-2287912#xywh=1659,1833,0,68", 
            "resource": {
                "@type": "cnt:ContentAsText", 
                "chars": "S", 
                "format": "text/plain"
            }
        }, 
        {
            "@id": "https://manifests.teklia.com/HIMANIS/JJ074/words_annotations/FRCHANJJ_JJ074_0344V.json/29/line", 
            "@type": "oa:Annotation", 
            "motivation": "oa:painting", 
            "on": "http://bvmm.irht.cnrs.fr/iiif/23656/canvas/canvas-2287912#xywh=2941,2235,117,89", 
            "resource": {
                "@type": "cnt:ContentAsText", 
                "chars": "RELACION", 
                "format": "text/plain"
            }
        }, 
        {
            "@id": "https://manifests.teklia.com/HIMANIS/JJ074/words_annotations/FRCHANJJ_JJ074_0344V.json/30/line", 
            "@type": "oa:Annotation", 
            "motivation": "oa:painting", 
            "on": "http://bvmm.irht.cnrs.fr/iiif/23656/canvas/canvas-2287912#xywh=1378,2636,104,50", 
            "resource": {
                "@type": "cnt:ContentAsText", 
                "chars": "NON", 
                "format": "text/plain"
            }
        }, 
        {
            "@id": "https://manifests.teklia.com/HIMANIS/JJ074/words_annotations/FRCHANJJ_JJ074_0344V.json/31/line", 
            "@type": "oa:Annotation", 
            "motivation": "oa:painting", 
            "on": "http://bvmm.irht.cnrs.fr/iiif/23656/canvas/canvas-2287912#xywh=1583,1141,124,49", 
            "resource": {
                "@type": "cnt:ContentAsText", 
                "chars": "ET", 
                "format": "text/plain"
            }
        }, 
        {
            "@id": "https://manifests.teklia.com/HIMANIS/JJ074/words_annotations/FRCHANJJ_JJ074_0344V.json/32/line", 
            "@type": "oa:Annotation", 
            "motivation": "oa:painting", 
            "on": "http://bvmm.irht.cnrs.fr/iiif/23656/canvas/canvas-2287912#xywh=3534,519,93,63", 
            "resource": {
                "@type": "cnt:ContentAsText", 
                "chars": "DE", 
                "format": "text/plain"
            }
        }, 
        {
            "@id": "https://manifests.teklia.com/HIMANIS/JJ074/words_annotations/FRCHANJJ_JJ074_0344V.json/33/line", 
            "@type": "oa:Annotation", 
            "motivation": "oa:painting", 
            "on": "http://bvmm.irht.cnrs.fr/iiif/23656/canvas/canvas-2287912#xywh=1482,302,160,127", 
            "resource": {
                "@type": "cnt:ContentAsText", 
                "chars": "ANNUM", 
                "format": "text/plain"
            }
        }, 
        {
            "@id": "https://manifests.teklia.com/HIMANIS/JJ074/words_annotations/FRCHANJJ_JJ074_0344V.json/34/line", 
            "@type": "oa:Annotation", 
            "motivation": "oa:painting", 
            "on": "http://bvmm.irht.cnrs.fr/iiif/23656/canvas/canvas-2287912#xywh=2941,2235,123,89", 
            "resource": {
                "@type": "cnt:ContentAsText", 
                "chars": "VALIERS", 
                "format": "text/plain"
            }
        }, 
        {
            "@id": "https://manifests.teklia.com/HIMANIS/JJ074/words_annotations/FRCHANJJ_JJ074_0344V.json/35/line", 
            "@type": "oa:Annotation", 
            "motivation": "oa:painting", 
            "on": "http://bvmm.irht.cnrs.fr/iiif/23656/canvas/canvas-2287912#xywh=703,1605,176,42", 
            "resource": {
                "@type": "cnt:ContentAsText", 
                "chars": "SE", 
                "format": "text/plain"
            }
        }, 
        {
            "@id": "https://manifests.teklia.com/HIMANIS/JJ074/words_annotations/FRCHANJJ_JJ074_0344V.json/36/line", 
            "@type": "oa:Annotation", 
            "motivation": "oa:painting", 
            "on": "http://bvmm.irht.cnrs.fr/iiif/23656/canvas/canvas-2287912#xywh=2941,2235,123,89", 
            "resource": {
                "@type": "cnt:ContentAsText", 
                "chars": "VALIENS", 
                "format": "text/plain"
            }
        }, 
        {
            "@id": "https://manifests.teklia.com/HIMANIS/JJ074/words_annotations/FRCHANJJ_JJ074_0344V.json/37/line", 
            "@type": "oa:Annotation", 
            "motivation": "oa:painting", 
            "on": "http://bvmm.irht.cnrs.fr/iiif/23656/canvas/canvas-2287912#xywh=727,1605,395,42", 
            "resource": {
                "@type": "cnt:ContentAsText", 
                "chars": "CE", 
                "format": "text/plain"
            }
        }, 
        {
            "@id": "https://manifests.teklia.com/HIMANIS/JJ074/words_annotations/FRCHANJJ_JJ074_0344V.json/38/line", 
            "@type": "oa:Annotation", 
            "motivation": "oa:painting", 
            "on": "http://bvmm.irht.cnrs.fr/iiif/23656/canvas/canvas-2287912#xywh=1598,2835,342,54", 
            "resource": {
                "@type": "cnt:ContentAsText", 
                "chars": "DONNE", 
                "format": "text/plain"
            }
        }, 
        {
            "@id": "https://manifests.teklia.com/HIMANIS/JJ074/words_annotations/FRCHANJJ_JJ074_0344V.json/39/line", 
            "@type": "oa:Annotation", 
            "motivation": "oa:painting", 
            "on": "http://bvmm.irht.cnrs.fr/iiif/23656/canvas/canvas-2287912#xywh=727,1605,395,42", 
            "resource": {
                "@type": "cnt:ContentAsText", 
                "chars": "CU", 
                "format": "text/plain"
            }
        }, 
        {
            "@id": "https://manifests.teklia.com/HIMANIS/JJ074/words_annotations/FRCHANJJ_JJ074_0344V.json/40/line", 
            "@type": "oa:Annotation", 
            "motivation": "oa:painting", 
            "on": "http://bvmm.irht.cnrs.fr/iiif/23656/canvas/canvas-2287912#xywh=1530,2636,155,50", 
            "resource": {
                "@type": "cnt:ContentAsText", 
                "chars": "PROPOS", 
                "format": "text/plain"
            }
        }, 
        {
            "@id": "https://manifests.teklia.com/HIMANIS/JJ074/words_annotations/FRCHANJJ_JJ074_0344V.json/41/line", 
            "@type": "oa:Annotation", 
            "motivation": "oa:painting", 
            "on": "http://bvmm.irht.cnrs.fr/iiif/23656/canvas/canvas-2287912#xywh=2460,1665,63,168", 
            "resource": {
                "@type": "cnt:ContentAsText", 
                "chars": "OU", 
                "format": "text/plain"
            }
        }, 
        {
            "@id": "https://manifests.teklia.com/HIMANIS/JJ074/words_annotations/FRCHANJJ_JJ074_0344V.json/42/line", 
            "@type": "oa:Annotation", 
            "motivation": "oa:painting", 
            "on": "http://bvmm.irht.cnrs.fr/iiif/23656/canvas/canvas-2287912#xywh=1482,302,167,127", 
            "resource": {
                "@type": "cnt:ContentAsText", 
                "chars": "ANNUUM", 
                "format": "text/plain"
            }
        }, 
        {
            "@id": "https://manifests.teklia.com/HIMANIS/JJ074/words_annotations/FRCHANJJ_JJ074_0344V.json/43/line", 
            "@type": "oa:Annotation", 
            "motivation": "oa:painting", 
            "on": "http://bvmm.irht.cnrs.fr/iiif/23656/canvas/canvas-2287912#xywh=2346,2701,292,17", 
            "resource": {
                "@type": "cnt:ContentAsText", 
                "chars": "ECIALI", 
                "format": "text/plain"
            }
        }, 
        {
            "@id": "https://manifests.teklia.com/HIMANIS/JJ074/words_annotations/FRCHANJJ_JJ074_0344V.json/44/line", 
            "@type": "oa:Annotation", 
            "motivation": "oa:painting", 
            "on": "http://bvmm.irht.cnrs.fr/iiif/23656/canvas/canvas-2287912#xywh=947,1493,99,54", 
            "resource": {
                "@type": "cnt:ContentAsText", 
                "chars": "GOUR", 
                "format": "text/plain"
            }
        }, 
        {
            "@id": "https://manifests.teklia.com/HIMANIS/JJ074/words_annotations/FRCHANJJ_JJ074_0344V.json/45/line", 
            "@type": "oa:Annotation", 
            "motivation": "oa:painting", 
            "on": "http://bvmm.irht.cnrs.fr/iiif/23656/canvas/canvas-2287912#xywh=947,1493,99,54", 
            "resource": {
                "@type": "cnt:ContentAsText", 
                "chars": "GOUS", 
                "format": "text/plain"
            }
        }, 
        {
            "@id": "https://manifests.teklia.com/HIMANIS/JJ074/words_annotations/FRCHANJJ_JJ074_0344V.json/46/line", 
            "@type": "oa:Annotation", 
            "motivation": "oa:painting", 
            "on": "http://bvmm.irht.cnrs.fr/iiif/23656/canvas/canvas-2287912#xywh=1378,2636,158,50", 
            "resource": {
                "@type": "cnt:ContentAsText", 
                "chars": "AVONS", 
                "format": "text/plain"
            }
        }, 
        {
            "@id": "https://manifests.teklia.com/HIMANIS/JJ074/words_annotations/FRCHANJJ_JJ074_0344V.json/47/line", 
            "@type": "oa:Annotation", 
            "motivation": "oa:painting", 
            "on": "http://bvmm.irht.cnrs.fr/iiif/23656/canvas/canvas-2287912#xywh=3325,1665,285,168", 
            "resource": {
                "@type": "cnt:ContentAsText", 
                "chars": "SUNT", 
                "format": "text/plain"
            }
        }, 
        {
            "@id": "https://manifests.teklia.com/HIMANIS/JJ074/words_annotations/FRCHANJJ_JJ074_0344V.json/48/line", 
            "@type": "oa:Annotation", 
            "motivation": "oa:painting", 
            "on": "http://bvmm.irht.cnrs.fr/iiif/23656/canvas/canvas-2287912#xywh=2551,1193,0,80", 
            "resource": {
                "@type": "cnt:ContentAsText", 
                "chars": "A", 
                "format": "text/plain"
            }
        }, 
        {
            "@id": "https://manifests.teklia.com/HIMANIS/JJ074/words_annotations/FRCHANJJ_JJ074_0344V.json/49/line", 
            "@type": "oa:Annotation", 
            "motivation": "oa:painting", 
            "on": "http://bvmm.irht.cnrs.fr/iiif/23656/canvas/canvas-2287912#xywh=11,0,1060,171", 
            "resource": {
                "@type": "cnt:ContentAsText", 
                "chars": "DE", 
                "format": "text/plain"
            }
        }, 
        {
            "@id": "https://manifests.teklia.com/HIMANIS/JJ074/words_annotations/FRCHANJJ_JJ074_0344V.json/50/line", 
            "@type": "oa:Annotation", 
            "motivation": "oa:painting", 
            "on": "http://bvmm.irht.cnrs.fr/iiif/23656/canvas/canvas-2287912#xywh=3266,2235,162,89", 
            "resource": {
                "@type": "cnt:ContentAsText", 
                "chars": "RECEVEUR", 
                "format": "text/plain"
            }
        }, 
        {
            "@id": "https://manifests.teklia.com/HIMANIS/JJ074/words_annotations/FRCHANJJ_JJ074_0344V.json/51/line", 
            "@type": "oa:Annotation", 
            "motivation": "oa:painting", 
            "on": "http://bvmm.irht.cnrs.fr/iiif/23656/canvas/canvas-2287912#xywh=730,582,0,42", 
            "resource": {
                "@type": "cnt:ContentAsText", 
                "chars": "G", 
                "format": "text/plain"
            }
        }, 
        {
            "@id": "https://manifests.teklia.com/HIMANIS/JJ074/words_annotations/FRCHANJJ_JJ074_0344V.json/52/line", 
            "@type": "oa:Annotation", 
            "motivation": "oa:painting", 
            "on": "http://bvmm.irht.cnrs.fr/iiif/23656/canvas/canvas-2287912#xywh=730,582,0,42", 
            "resource": {
                "@type": "cnt:ContentAsText", 
                "chars": "J", 
                "format": "text/plain"
            }
        }, 
        {
            "@id": "https://manifests.teklia.com/HIMANIS/JJ074/words_annotations/FRCHANJJ_JJ074_0344V.json/53/line", 
            "@type": "oa:Annotation", 
            "motivation": "oa:painting", 
            "on": "http://bvmm.irht.cnrs.fr/iiif/23656/canvas/canvas-2287912#xywh=730,582,0,42", 
            "resource": {
                "@type": "cnt:ContentAsText", 
                "chars": "M", 
                "format": "text/plain"
            }
        }, 
        {
            "@id": "https://manifests.teklia.com/HIMANIS/JJ074/words_annotations/FRCHANJJ_JJ074_0344V.json/54/line", 
            "@type": "oa:Annotation", 
            "motivation": "oa:painting", 
            "on": "http://bvmm.irht.cnrs.fr/iiif/23656/canvas/canvas-2287912#xywh=843,2342,180,73", 
            "resource": {
                "@type": "cnt:ContentAsText", 
                "chars": "ARDICION", 
                "format": "text/plain"
            }
        }, 
        {
            "@id": "https://manifests.teklia.com/HIMANIS/JJ074/words_annotations/FRCHANJJ_JJ074_0344V.json/55/line", 
            "@type": "oa:Annotation", 
            "motivation": "oa:painting", 
            "on": "http://bvmm.irht.cnrs.fr/iiif/23656/canvas/canvas-2287912#xywh=2081,302,40,127", 
            "resource": {
                "@type": "cnt:ContentAsText", 
                "chars": "DE", 
                "format": "text/plain"
            }
        }, 
        {
            "@id": "https://manifests.teklia.com/HIMANIS/JJ074/words_annotations/FRCHANJJ_JJ074_0344V.json/56/line", 
            "@type": "oa:Annotation", 
            "motivation": "oa:painting", 
            "on": "http://bvmm.irht.cnrs.fr/iiif/23656/canvas/canvas-2287912#xywh=1384,1239,137,48", 
            "resource": {
                "@type": "cnt:ContentAsText", 
                "chars": "ROYAL", 
                "format": "text/plain"
            }
        }, 
        {
            "@id": "https://manifests.teklia.com/HIMANIS/JJ074/words_annotations/FRCHANJJ_JJ074_0344V.json/57/line", 
            "@type": "oa:Annotation", 
            "motivation": "oa:painting", 
            "on": "http://bvmm.irht.cnrs.fr/iiif/23656/canvas/canvas-2287912#xywh=1672,669,33,66", 
            "resource": {
                "@type": "cnt:ContentAsText", 
                "chars": "QUI", 
                "format": "text/plain"
            }
        }, 
        {
            "@id": "https://manifests.teklia.com/HIMANIS/JJ074/words_annotations/FRCHANJJ_JJ074_0344V.json/58/line", 
            "@type": "oa:Annotation", 
            "motivation": "oa:painting", 
            "on": "http://bvmm.irht.cnrs.fr/iiif/23656/canvas/canvas-2287912#xywh=1083,2342,101,73", 
            "resource": {
                "@type": "cnt:ContentAsText", 
                "chars": "IL", 
                "format": "text/plain"
            }
        }, 
        {
            "@id": "https://manifests.teklia.com/HIMANIS/JJ074/words_annotations/FRCHANJJ_JJ074_0344V.json/59/line", 
            "@type": "oa:Annotation", 
            "motivation": "oa:painting", 
            "on": "http://bvmm.irht.cnrs.fr/iiif/23656/canvas/canvas-2287912#xywh=1576,3129,0,73", 
            "resource": {
                "@type": "cnt:ContentAsText", 
                "chars": "P", 
                "format": "text/plain"
            }
        }, 
        {
            "@id": "https://manifests.teklia.com/HIMANIS/JJ074/words_annotations/FRCHANJJ_JJ074_0344V.json/60/line", 
            "@type": "oa:Annotation", 
            "motivation": "oa:painting", 
            "on": "http://bvmm.irht.cnrs.fr/iiif/23656/canvas/canvas-2287912#xywh=896,582,45,42", 
            "resource": {
                "@type": "cnt:ContentAsText", 
                "chars": "CCC", 
                "format": "text/plain"
            }
        }, 
        {
            "@id": "https://manifests.teklia.com/HIMANIS/JJ074/words_annotations/FRCHANJJ_JJ074_0344V.json/61/line", 
            "@type": "oa:Annotation", 
            "motivation": "oa:painting", 
            "on": "http://bvmm.irht.cnrs.fr/iiif/23656/canvas/canvas-2287912#xywh=717,519,0,63", 
            "resource": {
                "@type": "cnt:ContentAsText", 
                "chars": "P", 
                "format": "text/plain"
            }
        }, 
        {
            "@id": "https://manifests.teklia.com/HIMANIS/JJ074/words_annotations/FRCHANJJ_JJ074_0344V.json/62/line", 
            "@type": "oa:Annotation", 
            "motivation": "oa:painting", 
            "on": "http://bvmm.irht.cnrs.fr/iiif/23656/canvas/canvas-2287912#xywh=2432,302,64,127", 
            "resource": {
                "@type": "cnt:ContentAsText", 
                "chars": "EJUS", 
                "format": "text/plain"
            }
        }, 
        {
            "@id": "https://manifests.teklia.com/HIMANIS/JJ074/words_annotations/FRCHANJJ_JJ074_0344V.json/63/line", 
            "@type": "oa:Annotation", 
            "motivation": "oa:painting", 
            "on": "http://bvmm.irht.cnrs.fr/iiif/23656/canvas/canvas-2287912#xywh=1763,669,129,66", 
            "resource": {
                "@type": "cnt:ContentAsText", 
                "chars": "S'ENSUIT", 
                "format": "text/plain"
            }
        }, 
        {
            "@id": "https://manifests.teklia.com/HIMANIS/JJ074/words_annotations/FRCHANJJ_JJ074_0344V.json/64/line", 
            "@type": "oa:Annotation", 
            "motivation": "oa:painting", 
            "on": "http://bvmm.irht.cnrs.fr/iiif/23656/canvas/canvas-2287912#xywh=1567,1239,122,48", 
            "resource": {
                "@type": "cnt:ContentAsText", 
                "chars": "BOURC", 
                "format": "text/plain"
            }
        }, 
        {
            "@id": "https://manifests.teklia.com/HIMANIS/JJ074/words_annotations/FRCHANJJ_JJ074_0344V.json/65/line", 
            "@type": "oa:Annotation", 
            "motivation": "oa:painting", 
            "on": "http://bvmm.irht.cnrs.fr/iiif/23656/canvas/canvas-2287912#xywh=947,669,150,66", 
            "resource": {
                "@type": "cnt:ContentAsText", 
                "chars": "APPARIS", 
                "format": "text/plain"
            }
        }, 
        {
            "@id": "https://manifests.teklia.com/HIMANIS/JJ074/words_annotations/FRCHANJJ_JJ074_0344V.json/66/line", 
            "@type": "oa:Annotation", 
            "motivation": "oa:painting", 
            "on": "http://bvmm.irht.cnrs.fr/iiif/23656/canvas/canvas-2287912#xywh=1726,2994,0,49", 
            "resource": {
                "@type": "cnt:ContentAsText", 
                "chars": "H", 
                "format": "text/plain"
            }
        }, 
        {
            "@id": "https://manifests.teklia.com/HIMANIS/JJ074/words_annotations/FRCHANJJ_JJ074_0344V.json/67/line", 
            "@type": "oa:Annotation", 
            "motivation": "oa:painting", 
            "on": "http://bvmm.irht.cnrs.fr/iiif/23656/canvas/canvas-2287912#xywh=1726,2994,0,49", 
            "resource": {
                "@type": "cnt:ContentAsText", 
                "chars": "J", 
                "format": "text/plain"
            }
        }, 
        {
            "@id": "https://manifests.teklia.com/HIMANIS/JJ074/words_annotations/FRCHANJJ_JJ074_0344V.json/68/line", 
            "@type": "oa:Annotation", 
            "motivation": "oa:painting", 
            "on": "http://bvmm.irht.cnrs.fr/iiif/23656/canvas/canvas-2287912#xywh=2639,1665,148,168", 
            "resource": {
                "@type": "cnt:ContentAsText", 
                "chars": "RENTE", 
                "format": "text/plain"
            }
        }, 
        {
            "@id": "https://manifests.teklia.com/HIMANIS/JJ074/words_annotations/FRCHANJJ_JJ074_0344V.json/69/line", 
            "@type": "oa:Annotation", 
            "motivation": "oa:painting", 
            "on": "http://bvmm.irht.cnrs.fr/iiif/23656/canvas/canvas-2287912#xywh=3284,1331,126,72", 
            "resource": {
                "@type": "cnt:ContentAsText", 
                "chars": "D'AUTRES", 
                "format": "text/plain"
            }
        }, 
        {
            "@id": "https://manifests.teklia.com/HIMANIS/JJ074/words_annotations/FRCHANJJ_JJ074_0344V.json/70/line", 
            "@type": "oa:Annotation", 
            "motivation": "oa:painting", 
            "on": "http://bvmm.irht.cnrs.fr/iiif/23656/canvas/canvas-2287912#xywh=1726,2994,0,49", 
            "resource": {
                "@type": "cnt:ContentAsText", 
                "chars": "P", 
                "format": "text/plain"
            }
        }, 
        {
            "@id": "https://manifests.teklia.com/HIMANIS/JJ074/words_annotations/FRCHANJJ_JJ074_0344V.json/71/line", 
            "@type": "oa:Annotation", 
            "motivation": "oa:painting", 
            "on": "http://bvmm.irht.cnrs.fr/iiif/23656/canvas/canvas-2287912#xywh=2145,302,184,127", 
            "resource": {
                "@type": "cnt:ContentAsText", 
                "chars": "LENELLE", 
                "format": "text/plain"
            }
        }, 
        {
            "@id": "https://manifests.teklia.com/HIMANIS/JJ074/words_annotations/FRCHANJJ_JJ074_0344V.json/72/line", 
            "@type": "oa:Annotation", 
            "motivation": "oa:painting", 
            "on": "http://bvmm.irht.cnrs.fr/iiif/23656/canvas/canvas-2287912#xywh=1107,897,163,54", 
            "resource": {
                "@type": "cnt:ContentAsText", 
                "chars": "PRE", 
                "format": "text/plain"
            }
        }, 
        {
            "@id": "https://manifests.teklia.com/HIMANIS/JJ074/words_annotations/FRCHANJJ_JJ074_0344V.json/73/line", 
            "@type": "oa:Annotation", 
            "motivation": "oa:painting", 
            "on": "http://bvmm.irht.cnrs.fr/iiif/23656/canvas/canvas-2287912#xywh=727,1605,384,42", 
            "resource": {
                "@type": "cnt:ContentAsText", 
                "chars": "CLI", 
                "format": "text/plain"
            }
        }, 
        {
            "@id": "https://manifests.teklia.com/HIMANIS/JJ074/words_annotations/FRCHANJJ_JJ074_0344V.json/74/line", 
            "@type": "oa:Annotation", 
            "motivation": "oa:painting", 
            "on": "http://bvmm.irht.cnrs.fr/iiif/23656/canvas/canvas-2287912#xywh=703,1605,0,42", 
            "resource": {
                "@type": "cnt:ContentAsText", 
                "chars": "J", 
                "format": "text/plain"
            }
        }, 
        {
            "@id": "https://manifests.teklia.com/HIMANIS/JJ074/words_annotations/FRCHANJJ_JJ074_0344V.json/75/line", 
            "@type": "oa:Annotation", 
            "motivation": "oa:painting", 
            "on": "http://bvmm.irht.cnrs.fr/iiif/23656/canvas/canvas-2287912#xywh=703,1605,0,42", 
            "resource": {
                "@type": "cnt:ContentAsText", 
                "chars": "P", 
                "format": "text/plain"
            }
        }, 
        {
            "@id": "https://manifests.teklia.com/HIMANIS/JJ074/words_annotations/FRCHANJJ_JJ074_0344V.json/76/line", 
            "@type": "oa:Annotation", 
            "motivation": "oa:painting", 
            "on": "http://bvmm.irht.cnrs.fr/iiif/23656/canvas/canvas-2287912#xywh=2696,302,72,127", 
            "resource": {
                "@type": "cnt:ContentAsText", 
                "chars": "CERTI", 
                "format": "text/plain"
            }
        }, 
        {
            "@id": "https://manifests.teklia.com/HIMANIS/JJ074/words_annotations/FRCHANJJ_JJ074_0344V.json/77/line", 
            "@type": "oa:Annotation", 
            "motivation": "oa:painting", 
            "on": "http://bvmm.irht.cnrs.fr/iiif/23656/canvas/canvas-2287912#xywh=707,1833,141,68", 
            "resource": {
                "@type": "cnt:ContentAsText", 
                "chars": "RENAY", 
                "format": "text/plain"
            }
        }, 
        {
            "@id": "https://manifests.teklia.com/HIMANIS/JJ074/words_annotations/FRCHANJJ_JJ074_0344V.json/78/line", 
            "@type": "oa:Annotation", 
            "motivation": "oa:painting", 
            "on": "http://bvmm.irht.cnrs.fr/iiif/23656/canvas/canvas-2287912#xywh=2145,302,184,127", 
            "resource": {
                "@type": "cnt:ContentAsText", 
                "chars": "LANNELLE", 
                "format": "text/plain"
            }
        }, 
        {
            "@id": "https://manifests.teklia.com/HIMANIS/JJ074/words_annotations/FRCHANJJ_JJ074_0344V.json/79/line", 
            "@type": "oa:Annotation", 
            "motivation": "oa:painting", 
            "on": "http://bvmm.irht.cnrs.fr/iiif/23656/canvas/canvas-2287912#xywh=1038,582,185,42", 
            "resource": {
                "@type": "cnt:ContentAsText", 
                "chars": "SAVOIR", 
                "format": "text/plain"
            }
        }, 
        {
            "@id": "https://manifests.teklia.com/HIMANIS/JJ074/words_annotations/FRCHANJJ_JJ074_0344V.json/80/line", 
            "@type": "oa:Annotation", 
            "motivation": "oa:painting", 
            "on": "http://bvmm.irht.cnrs.fr/iiif/23656/canvas/canvas-2287912#xywh=2122,1665,74,168", 
            "resource": {
                "@type": "cnt:ContentAsText", 
                "chars": "LUI", 
                "format": "text/plain"
            }
        }, 
        {
            "@id": "https://manifests.teklia.com/HIMANIS/JJ074/words_annotations/FRCHANJJ_JJ074_0344V.json/81/line", 
            "@type": "oa:Annotation", 
            "motivation": "oa:painting", 
            "on": "http://bvmm.irht.cnrs.fr/iiif/23656/canvas/canvas-2287912#xywh=707,1833,141,68", 
            "resource": {
                "@type": "cnt:ContentAsText", 
                "chars": "BENAY", 
                "format": "text/plain"
            }
        }, 
        {
            "@id": "https://manifests.teklia.com/HIMANIS/JJ074/words_annotations/FRCHANJJ_JJ074_0344V.json/82/line", 
            "@type": "oa:Annotation", 
            "motivation": "oa:painting", 
            "on": "http://bvmm.irht.cnrs.fr/iiif/23656/canvas/canvas-2287912#xywh=1337,2758,61,61", 
            "resource": {
                "@type": "cnt:ContentAsText", 
                "chars": "SALVO", 
                "format": "text/plain"
            }
        }, 
        {
            "@id": "https://manifests.teklia.com/HIMANIS/JJ074/words_annotations/FRCHANJJ_JJ074_0344V.json/83/line", 
            "@type": "oa:Annotation", 
            "motivation": "oa:painting", 
            "on": "http://bvmm.irht.cnrs.fr/iiif/23656/canvas/canvas-2287912#xywh=1256,2877,0,33", 
            "resource": {
                "@type": "cnt:ContentAsText", 
                "chars": "J", 
                "format": "text/plain"
            }
        }, 
        {
            "@id": "https://manifests.teklia.com/HIMANIS/JJ074/words_annotations/FRCHANJJ_JJ074_0344V.json/84/line", 
            "@type": "oa:Annotation", 
            "motivation": "oa:painting", 
            "on": "http://bvmm.irht.cnrs.fr/iiif/23656/canvas/canvas-2287912#xywh=707,1833,132,68", 
            "resource": {
                "@type": "cnt:ContentAsText", 
                "chars": "REMY", 
                "format": "text/plain"
            }
        }, 
        {
            "@id": "https://manifests.teklia.com/HIMANIS/JJ074/words_annotations/FRCHANJJ_JJ074_0344V.json/85/line", 
            "@type": "oa:Annotation", 
            "motivation": "oa:painting", 
            "on": "http://bvmm.irht.cnrs.fr/iiif/23656/canvas/canvas-2287912#xywh=3114,1665,42,168", 
            "resource": {
                "@type": "cnt:ContentAsText", 
                "chars": "LA", 
                "format": "text/plain"
            }
        }, 
        {
            "@id": "https://manifests.teklia.com/HIMANIS/JJ074/words_annotations/FRCHANJJ_JJ074_0344V.json/86/line", 
            "@type": "oa:Annotation", 
            "motivation": "oa:painting", 
            "on": "http://bvmm.irht.cnrs.fr/iiif/23656/canvas/canvas-2287912#xywh=1045,2758,269,61", 
            "resource": {
                "@type": "cnt:ContentAsText", 
                "chars": "AUTRES", 
                "format": "text/plain"
            }
        }, 
        {
            "@id": "https://manifests.teklia.com/HIMANIS/JJ074/words_annotations/FRCHANJJ_JJ074_0344V.json/87/line", 
            "@type": "oa:Annotation", 
            "motivation": "oa:painting", 
            "on": "http://bvmm.irht.cnrs.fr/iiif/23656/canvas/canvas-2287912#xywh=2819,1665,42,168", 
            "resource": {
                "@type": "cnt:ContentAsText", 
                "chars": "LE", 
                "format": "text/plain"
            }
        }, 
        {
            "@id": "https://manifests.teklia.com/HIMANIS/JJ074/words_annotations/FRCHANJJ_JJ074_0344V.json/88/line", 
            "@type": "oa:Annotation", 
            "motivation": "oa:painting", 
            "on": "http://bvmm.irht.cnrs.fr/iiif/23656/canvas/canvas-2287912#xywh=2555,1665,53,168", 
            "resource": {
                "@type": "cnt:ContentAsText", 
                "chars": "DE", 
                "format": "text/plain"
            }
        }, 
        {
            "@id": "https://manifests.teklia.com/HIMANIS/JJ074/words_annotations/FRCHANJJ_JJ074_0344V.json/89/line", 
            "@type": "oa:Annotation", 
            "motivation": "oa:painting", 
            "on": "http://bvmm.irht.cnrs.fr/iiif/23656/canvas/canvas-2287912#xywh=680,1493,130,54", 
            "resource": {
                "@type": "cnt:ContentAsText", 
                "chars": "PE", 
                "format": "text/plain"
            }
        }, 
        {
            "@id": "https://manifests.teklia.com/HIMANIS/JJ074/words_annotations/FRCHANJJ_JJ074_0344V.json/90/line", 
            "@type": "oa:Annotation", 
            "motivation": "oa:painting", 
            "on": "http://bvmm.irht.cnrs.fr/iiif/23656/canvas/canvas-2287912#xywh=897,669,29,66", 
            "resource": {
                "@type": "cnt:ContentAsText", 
                "chars": "IL", 
                "format": "text/plain"
            }
        }, 
        {
            "@id": "https://manifests.teklia.com/HIMANIS/JJ074/words_annotations/FRCHANJJ_JJ074_0344V.json/91/line", 
            "@type": "oa:Annotation", 
            "motivation": "oa:painting", 
            "on": "http://bvmm.irht.cnrs.fr/iiif/23656/canvas/canvas-2287912#xywh=2882,1665,127,168", 
            "resource": {
                "@type": "cnt:ContentAsText", 
                "chars": "JOUR", 
                "format": "text/plain"
            }
        }, 
        {
            "@id": "https://manifests.teklia.com/HIMANIS/JJ074/words_annotations/FRCHANJJ_JJ074_0344V.json/92/line", 
            "@type": "oa:Annotation", 
            "motivation": "oa:painting", 
            "on": "http://bvmm.irht.cnrs.fr/iiif/23656/canvas/canvas-2287912#xywh=1282,302,80,127", 
            "resource": {
                "@type": "cnt:ContentAsText", 
                "chars": "FACTA", 
                "format": "text/plain"
            }
        }, 
        {
            "@id": "https://manifests.teklia.com/HIMANIS/JJ074/words_annotations/FRCHANJJ_JJ074_0344V.json/93/line", 
            "@type": "oa:Annotation", 
            "motivation": "oa:painting", 
            "on": "http://bvmm.irht.cnrs.fr/iiif/23656/canvas/canvas-2287912#xywh=3393,2638,196,33", 
            "resource": {
                "@type": "cnt:ContentAsText", 
                "chars": "PHIL", 
                "format": "text/plain"
            }
        }, 
        {
            "@id": "https://manifests.teklia.com/HIMANIS/JJ074/words_annotations/FRCHANJJ_JJ074_0344V.json/94/line", 
            "@type": "oa:Annotation", 
            "motivation": "oa:painting", 
            "on": "http://bvmm.irht.cnrs.fr/iiif/23656/canvas/canvas-2287912#xywh=3393,2638,196,33", 
            "resource": {
                "@type": "cnt:ContentAsText", 
                "chars": "PHEL", 
                "format": "text/plain"
            }
        }, 
        {
            "@id": "https://manifests.teklia.com/HIMANIS/JJ074/words_annotations/FRCHANJJ_JJ074_0344V.json/95/line", 
            "@type": "oa:Annotation", 
            "motivation": "oa:painting", 
            "on": "http://bvmm.irht.cnrs.fr/iiif/23656/canvas/canvas-2287912#xywh=1157,3129,230,73", 
            "resource": {
                "@type": "cnt:ContentAsText", 
                "chars": "MICHE", 
                "format": "text/plain"
            }
        }, 
        {
            "@id": "https://manifests.teklia.com/HIMANIS/JJ074/words_annotations/FRCHANJJ_JJ074_0344V.json/96/line", 
            "@type": "oa:Annotation", 
            "motivation": "oa:painting", 
            "on": "http://bvmm.irht.cnrs.fr/iiif/23656/canvas/canvas-2287912#xywh=1232,0,107,171", 
            "resource": {
                "@type": "cnt:ContentAsText", 
                "chars": "ET", 
                "format": "text/plain"
            }
        }, 
        {
            "@id": "https://manifests.teklia.com/HIMANIS/JJ074/words_annotations/FRCHANJJ_JJ074_0344V.json/97/line", 
            "@type": "oa:Annotation", 
            "motivation": "oa:painting", 
            "on": "http://bvmm.irht.cnrs.fr/iiif/23656/canvas/canvas-2287912#xywh=3072,302,112,127", 
            "resource": {
                "@type": "cnt:ContentAsText", 
                "chars": "GORT", 
                "format": "text/plain"
            }
        }, 
        {
            "@id": "https://manifests.teklia.com/HIMANIS/JJ074/words_annotations/FRCHANJJ_JJ074_0344V.json/98/line", 
            "@type": "oa:Annotation", 
            "motivation": "oa:painting", 
            "on": "http://bvmm.irht.cnrs.fr/iiif/23656/canvas/canvas-2287912#xywh=1402,302,48,127", 
            "resource": {
                "@type": "cnt:ContentAsText", 
                "chars": "AD", 
                "format": "text/plain"
            }
        }, 
        {
            "@id": "https://manifests.teklia.com/HIMANIS/JJ074/words_annotations/FRCHANJJ_JJ074_0344V.json/99/line", 
            "@type": "oa:Annotation", 
            "motivation": "oa:painting", 
            "on": "http://bvmm.irht.cnrs.fr/iiif/23656/canvas/canvas-2287912#xywh=1975,1665,126,168", 
            "resource": {
                "@type": "cnt:ContentAsText", 
                "chars": "POUR", 
                "format": "text/plain"
            }
        }, 
        {
            "@id": "https://manifests.teklia.com/HIMANIS/JJ074/words_annotations/FRCHANJJ_JJ074_0344V.json/100/line", 
            "@type": "oa:Annotation", 
            "motivation": "oa:painting", 
            "on": "http://bvmm.irht.cnrs.fr/iiif/23656/canvas/canvas-2287912#xywh=2896,302,144,127", 
            "resource": {
                "@type": "cnt:ContentAsText", 
                "chars": "VOCATI", 
                "format": "text/plain"
            }
        }, 
        {
            "@id": "https://manifests.teklia.com/HIMANIS/JJ074/words_annotations/FRCHANJJ_JJ074_0344V.json/101/line", 
            "@type": "oa:Annotation", 
            "motivation": "oa:painting", 
            "on": "http://bvmm.irht.cnrs.fr/iiif/23656/canvas/canvas-2287912#xywh=3231,302,360,127", 
            "resource": {
                "@type": "cnt:ContentAsText", 
                "chars": "IN", 
                "format": "text/plain"
            }
        }, 
        {
            "@id": "https://manifests.teklia.com/HIMANIS/JJ074/words_annotations/FRCHANJJ_JJ074_0344V.json/102/line", 
            "@type": "oa:Annotation", 
            "motivation": "oa:painting", 
            "on": "http://bvmm.irht.cnrs.fr/iiif/23656/canvas/canvas-2287912#xywh=2345,302,64,127", 
            "resource": {
                "@type": "cnt:ContentAsText", 
                "chars": "ET", 
                "format": "text/plain"
            }
        }, 
        {
            "@id": "https://manifests.teklia.com/HIMANIS/JJ074/words_annotations/FRCHANJJ_JJ074_0344V.json/103/line", 
            "@type": "oa:Annotation", 
            "motivation": "oa:painting", 
            "on": "http://bvmm.irht.cnrs.fr/iiif/23656/canvas/canvas-2287912#xywh=929,1833,0,68", 
            "resource": {
                "@type": "cnt:ContentAsText", 
                "chars": "P", 
                "format": "text/plain"
            }
        }, 
        {
            "@id": "https://manifests.teklia.com/HIMANIS/JJ074/words_annotations/FRCHANJJ_JJ074_0344V.json/104/line", 
            "@type": "oa:Annotation", 
            "motivation": "oa:painting", 
            "on": "http://bvmm.irht.cnrs.fr/iiif/23656/canvas/canvas-2287912#xywh=483,302,208,127", 
            "resource": {
                "@type": "cnt:ContentAsText", 
                "chars": "EX", 
                "format": "text/plain"
            }
        }, 
        {
            "@id": "https://manifests.teklia.com/HIMANIS/JJ074/words_annotations/FRCHANJJ_JJ074_0344V.json/105/line", 
            "@type": "oa:Annotation", 
            "motivation": "oa:painting", 
            "on": "http://bvmm.irht.cnrs.fr/iiif/23656/canvas/canvas-2287912#xywh=1905,302,128,127", 
            "resource": {
                "@type": "cnt:ContentAsText", 
                "chars": "CULTERO", 
                "format": "text/plain"
            }
        }, 
        {
            "@id": "https://manifests.teklia.com/HIMANIS/JJ074/words_annotations/FRCHANJJ_JJ074_0344V.json/106/line", 
            "@type": "oa:Annotation", 
            "motivation": "oa:painting", 
            "on": "http://bvmm.irht.cnrs.fr/iiif/23656/canvas/canvas-2287912#xywh=2145,302,184,127", 
            "resource": {
                "@type": "cnt:ContentAsText", 
                "chars": "LONNELLE", 
                "format": "text/plain"
            }
        }, 
        {
            "@id": "https://manifests.teklia.com/HIMANIS/JJ074/words_annotations/FRCHANJJ_JJ074_0344V.json/107/line", 
            "@type": "oa:Annotation", 
            "motivation": "oa:painting", 
            "on": "http://bvmm.irht.cnrs.fr/iiif/23656/canvas/canvas-2287912#xywh=1392,3129,41,73", 
            "resource": {
                "@type": "cnt:ContentAsText", 
                "chars": "AN", 
                "format": "text/plain"
            }
        }, 
        {
            "@id": "https://manifests.teklia.com/HIMANIS/JJ074/words_annotations/FRCHANJJ_JJ074_0344V.json/108/line", 
            "@type": "oa:Annotation", 
            "motivation": "oa:painting", 
            "on": "http://bvmm.irht.cnrs.fr/iiif/23656/canvas/canvas-2287912#xywh=687,2478,0,33", 
            "resource": {
                "@type": "cnt:ContentAsText", 
                "chars": "S", 
                "format": "text/plain"
            }
        }, 
        {
            "@id": "https://manifests.teklia.com/HIMANIS/JJ074/words_annotations/FRCHANJJ_JJ074_0344V.json/109/line", 
            "@type": "oa:Annotation", 
            "motivation": "oa:painting", 
            "on": "http://bvmm.irht.cnrs.fr/iiif/23656/canvas/canvas-2287912#xywh=1090,302,176,127", 
            "resource": {
                "@type": "cnt:ContentAsText", 
                "chars": "NOSICION", 
                "format": "text/plain"
            }
        }, 
        {
            "@id": "https://manifests.teklia.com/HIMANIS/JJ074/words_annotations/FRCHANJJ_JJ074_0344V.json/110/line", 
            "@type": "oa:Annotation", 
            "motivation": "oa:painting", 
            "on": "http://bvmm.irht.cnrs.fr/iiif/23656/canvas/canvas-2287912#xywh=0,209,61,36", 
            "resource": {
                "@type": "cnt:ContentAsText", 
                "chars": "LES", 
                "format": "text/plain"
            }
        }, 
        {
            "@id": "https://manifests.teklia.com/HIMANIS/JJ074/words_annotations/FRCHANJJ_JJ074_0344V.json/111/line", 
            "@type": "oa:Annotation", 
            "motivation": "oa:painting", 
            "on": "http://bvmm.irht.cnrs.fr/iiif/23656/canvas/canvas-2287912#xywh=794,1141,89,38", 
            "resource": {
                "@type": "cnt:ContentAsText", 
                "chars": "CE", 
                "format": "text/plain"
            }
        }, 
        {
            "@id": "https://manifests.teklia.com/HIMANIS/JJ074/words_annotations/FRCHANJJ_JJ074_0344V.json/112/line", 
            "@type": "oa:Annotation", 
            "motivation": "oa:painting", 
            "on": "http://bvmm.irht.cnrs.fr/iiif/23656/canvas/canvas-2287912#xywh=3352,1122,94,53", 
            "resource": {
                "@type": "cnt:ContentAsText", 
                "chars": "PHILIPPUS", 
                "format": "text/plain"
            }
        }, 
        {
            "@id": "https://manifests.teklia.com/HIMANIS/JJ074/words_annotations/FRCHANJJ_JJ074_0344V.json/113/line", 
            "@type": "oa:Annotation", 
            "motivation": "oa:painting", 
            "on": "http://bvmm.irht.cnrs.fr/iiif/23656/canvas/canvas-2287912#xywh=3352,1122,94,53", 
            "resource": {
                "@type": "cnt:ContentAsText", 
                "chars": "PHILIPPES", 
                "format": "text/plain"
            }
        }, 
        {
            "@id": "https://manifests.teklia.com/HIMANIS/JJ074/words_annotations/FRCHANJJ_JJ074_0344V.json/114/line", 
            "@type": "oa:Annotation", 
            "motivation": "oa:painting", 
            "on": "http://bvmm.irht.cnrs.fr/iiif/23656/canvas/canvas-2287912#xywh=1384,1239,137,48", 
            "resource": {
                "@type": "cnt:ContentAsText", 
                "chars": "DOYAN", 
                "format": "text/plain"
            }
        }, 
        {
            "@id": "https://manifests.teklia.com/HIMANIS/JJ074/words_annotations/FRCHANJJ_JJ074_0344V.json/115/line", 
            "@type": "oa:Annotation", 
            "motivation": "oa:painting", 
            "on": "http://bvmm.irht.cnrs.fr/iiif/23656/canvas/canvas-2287912#xywh=2540,4244,0,70", 
            "resource": {
                "@type": "cnt:ContentAsText", 
                "chars": "J", 
                "format": "text/plain"
            }
        }, 
        {
            "@id": "https://manifests.teklia.com/HIMANIS/JJ074/words_annotations/FRCHANJJ_JJ074_0344V.json/116/line", 
            "@type": "oa:Annotation", 
            "motivation": "oa:painting", 
            "on": "http://bvmm.irht.cnrs.fr/iiif/23656/canvas/canvas-2287912#xywh=2292,4244,0,70", 
            "resource": {
                "@type": "cnt:ContentAsText", 
                "chars": "P", 
                "format": "text/plain"
            }
        }, 
        {
            "@id": "https://manifests.teklia.com/HIMANIS/JJ074/words_annotations/FRCHANJJ_JJ074_0344V.json/117/line", 
            "@type": "oa:Annotation", 
            "motivation": "oa:painting", 
            "on": "http://bvmm.irht.cnrs.fr/iiif/23656/canvas/canvas-2287912#xywh=2512,302,152,127", 
            "resource": {
                "@type": "cnt:ContentAsText", 
                "chars": "UXORIS", 
                "format": "text/plain"
            }
        }, 
        {
            "@id": "https://manifests.teklia.com/HIMANIS/JJ074/words_annotations/FRCHANJJ_JJ074_0344V.json/118/line", 
            "@type": "oa:Annotation", 
            "motivation": "oa:painting", 
            "on": "http://bvmm.irht.cnrs.fr/iiif/23656/canvas/canvas-2287912#xywh=1794,1141,0,49", 
            "resource": {
                "@type": "cnt:ContentAsText", 
                "chars": "P", 
                "format": "text/plain"
            }
        }, 
        {
            "@id": "https://manifests.teklia.com/HIMANIS/JJ074/words_annotations/FRCHANJJ_JJ074_0344V.json/119/line", 
            "@type": "oa:Annotation", 
            "motivation": "oa:painting", 
            "on": "http://bvmm.irht.cnrs.fr/iiif/23656/canvas/canvas-2287912#xywh=1090,302,160,127", 
            "resource": {
                "@type": "cnt:ContentAsText", 
                "chars": "NOSICIO", 
                "format": "text/plain"
            }
        }, 
        {
            "@id": "https://manifests.teklia.com/HIMANIS/JJ074/words_annotations/FRCHANJJ_JJ074_0344V.json/120/line", 
            "@type": "oa:Annotation", 
            "motivation": "oa:painting", 
            "on": "http://bvmm.irht.cnrs.fr/iiif/23656/canvas/canvas-2287912#xywh=733,3048,0,35", 
            "resource": {
                "@type": "cnt:ContentAsText", 
                "chars": "C", 
                "format": "text/plain"
            }
        }, 
        {
            "@id": "https://manifests.teklia.com/HIMANIS/JJ074/words_annotations/FRCHANJJ_JJ074_0344V.json/121/line", 
            "@type": "oa:Annotation", 
            "motivation": "oa:painting", 
            "on": "http://bvmm.irht.cnrs.fr/iiif/23656/canvas/canvas-2287912#xywh=794,1141,266,38", 
            "resource": {
                "@type": "cnt:ContentAsText", 
                "chars": "CIA", 
                "format": "text/plain"
            }
        }, 
        {
            "@id": "https://manifests.teklia.com/HIMANIS/JJ074/words_annotations/FRCHANJJ_JJ074_0344V.json/122/line", 
            "@type": "oa:Annotation", 
            "motivation": "oa:painting", 
            "on": "http://bvmm.irht.cnrs.fr/iiif/23656/canvas/canvas-2287912#xywh=3211,1331,37,72", 
            "resource": {
                "@type": "cnt:ContentAsText", 
                "chars": "ET", 
                "format": "text/plain"
            }
        }, 
        {
            "@id": "https://manifests.teklia.com/HIMANIS/JJ074/words_annotations/FRCHANJJ_JJ074_0344V.json/123/line", 
            "@type": "oa:Annotation", 
            "motivation": "oa:painting", 
            "on": "http://bvmm.irht.cnrs.fr/iiif/23656/canvas/canvas-2287912#xywh=733,3048,0,35", 
            "resource": {
                "@type": "cnt:ContentAsText", 
                "chars": "P", 
                "format": "text/plain"
            }
        }, 
        {
            "@id": "https://manifests.teklia.com/HIMANIS/JJ074/words_annotations/FRCHANJJ_JJ074_0344V.json/124/line", 
            "@type": "oa:Annotation", 
            "motivation": "oa:painting", 
            "on": "http://bvmm.irht.cnrs.fr/iiif/23656/canvas/canvas-2287912#xywh=843,2342,180,73", 
            "resource": {
                "@type": "cnt:ContentAsText", 
                "chars": "REDICION", 
                "format": "text/plain"
            }
        }, 
        {
            "@id": "https://manifests.teklia.com/HIMANIS/JJ074/words_annotations/FRCHANJJ_JJ074_0344V.json/125/line", 
            "@type": "oa:Annotation", 
            "motivation": "oa:painting", 
            "on": "http://bvmm.irht.cnrs.fr/iiif/23656/canvas/canvas-2287912#xywh=3539,2889,42,21", 
            "resource": {
                "@type": "cnt:ContentAsText", 
                "chars": "LE", 
                "format": "text/plain"
            }
        }, 
        {
            "@id": "https://manifests.teklia.com/HIMANIS/JJ074/words_annotations/FRCHANJJ_JJ074_0344V.json/126/line", 
            "@type": "oa:Annotation", 
            "motivation": "oa:painting", 
            "on": "http://bvmm.irht.cnrs.fr/iiif/23656/canvas/canvas-2287912#xywh=2540,4244,465,70", 
            "resource": {
                "@type": "cnt:ContentAsText", 
                "chars": "DENIERE", 
                "format": "text/plain"
            }
        }, 
        {
            "@id": "https://manifests.teklia.com/HIMANIS/JJ074/words_annotations/FRCHANJJ_JJ074_0344V.json/127/line", 
            "@type": "oa:Annotation", 
            "motivation": "oa:painting", 
            "on": "http://bvmm.irht.cnrs.fr/iiif/23656/canvas/canvas-2287912#xywh=1157,3129,262,73", 
            "resource": {
                "@type": "cnt:ContentAsText", 
                "chars": "MICHAN", 
                "format": "text/plain"
            }
        }, 
        {
            "@id": "https://manifests.teklia.com/HIMANIS/JJ074/words_annotations/FRCHANJJ_JJ074_0344V.json/128/line", 
            "@type": "oa:Annotation", 
            "motivation": "oa:painting", 
            "on": "http://bvmm.irht.cnrs.fr/iiif/23656/canvas/canvas-2287912#xywh=3188,1665,116,168", 
            "resource": {
                "@type": "cnt:ContentAsText", 
                "chars": "FESTE", 
                "format": "text/plain"
            }
        }, 
        {
            "@id": "https://manifests.teklia.com/HIMANIS/JJ074/words_annotations/FRCHANJJ_JJ074_0344V.json/129/line", 
            "@type": "oa:Annotation", 
            "motivation": "oa:painting", 
            "on": "http://bvmm.irht.cnrs.fr/iiif/23656/canvas/canvas-2287912#xywh=2570,897,0,54", 
            "resource": {
                "@type": "cnt:ContentAsText", 
                "chars": "C", 
                "format": "text/plain"
            }
        }, 
        {
            "@id": "https://manifests.teklia.com/HIMANIS/JJ074/words_annotations/FRCHANJJ_JJ074_0344V.json/130/line", 
            "@type": "oa:Annotation", 
            "motivation": "oa:painting", 
            "on": "http://bvmm.irht.cnrs.fr/iiif/23656/canvas/canvas-2287912#xywh=759,669,109,66", 
            "resource": {
                "@type": "cnt:ContentAsText", 
                "chars": "COMME", 
                "format": "text/plain"
            }
        }, 
        {
            "@id": "https://manifests.teklia.com/HIMANIS/JJ074/words_annotations/FRCHANJJ_JJ074_0344V.json/131/line", 
            "@type": "oa:Annotation", 
            "motivation": "oa:painting", 
            "on": "http://bvmm.irht.cnrs.fr/iiif/23656/canvas/canvas-2287912#xywh=2540,4244,465,70", 
            "resource": {
                "@type": "cnt:ContentAsText", 
                "chars": "DENIERS", 
                "format": "text/plain"
            }
        }, 
        {
            "@id": "https://manifests.teklia.com/HIMANIS/JJ074/words_annotations/FRCHANJJ_JJ074_0344V.json/132/line", 
            "@type": "oa:Annotation", 
            "motivation": "oa:painting", 
            "on": "http://bvmm.irht.cnrs.fr/iiif/23656/canvas/canvas-2287912#xywh=820,1493,86,54", 
            "resource": {
                "@type": "cnt:ContentAsText", 
                "chars": "QUES", 
                "format": "text/plain"
            }
        }, 
        {
            "@id": "https://manifests.teklia.com/HIMANIS/JJ074/words_annotations/FRCHANJJ_JJ074_0344V.json/133/line", 
            "@type": "oa:Annotation", 
            "motivation": "oa:painting", 
            "on": "http://bvmm.irht.cnrs.fr/iiif/23656/canvas/canvas-2287912#xywh=2570,897,0,54", 
            "resource": {
                "@type": "cnt:ContentAsText", 
                "chars": "P", 
                "format": "text/plain"
            }
        }, 
        {
            "@id": "https://manifests.teklia.com/HIMANIS/JJ074/words_annotations/FRCHANJJ_JJ074_0344V.json/134/line", 
            "@type": "oa:Annotation", 
            "motivation": "oa:painting", 
            "on": "http://bvmm.irht.cnrs.fr/iiif/23656/canvas/canvas-2287912#xywh=1384,1239,137,48", 
            "resource": {
                "@type": "cnt:ContentAsText", 
                "chars": "VOYAL", 
                "format": "text/plain"
            }
        }, 
        {
            "@id": "https://manifests.teklia.com/HIMANIS/JJ074/words_annotations/FRCHANJJ_JJ074_0344V.json/135/line", 
            "@type": "oa:Annotation", 
            "motivation": "oa:painting", 
            "on": "http://bvmm.irht.cnrs.fr/iiif/23656/canvas/canvas-2287912#xywh=1099,429,129,82", 
            "resource": {
                "@type": "cnt:ContentAsText", 
                "chars": "RAPPARIA", 
                "format": "text/plain"
            }
        }, 
        {
            "@id": "https://manifests.teklia.com/HIMANIS/JJ074/words_annotations/FRCHANJJ_JJ074_0344V.json/136/line", 
            "@type": "oa:Annotation", 
            "motivation": "oa:painting", 
            "on": "http://bvmm.irht.cnrs.fr/iiif/23656/canvas/canvas-2287912#xywh=2784,302,80,127", 
            "resource": {
                "@type": "cnt:ContentAsText", 
                "chars": "LOCI", 
                "format": "text/plain"
            }
        }, 
        {
            "@id": "https://manifests.teklia.com/HIMANIS/JJ074/words_annotations/FRCHANJJ_JJ074_0344V.json/137/line", 
            "@type": "oa:Annotation", 
            "motivation": "oa:painting", 
            "on": "http://bvmm.irht.cnrs.fr/iiif/23656/canvas/canvas-2287912#xywh=2868,1193,247,80", 
            "resource": {
                "@type": "cnt:ContentAsText", 
                "chars": "ROBINETE", 
                "format": "text/plain"
            }
        }, 
        {
            "@id": "https://manifests.teklia.com/HIMANIS/JJ074/words_annotations/FRCHANJJ_JJ074_0344V.json/138/line", 
            "@type": "oa:Annotation", 
            "motivation": "oa:painting", 
            "on": "http://bvmm.irht.cnrs.fr/iiif/23656/canvas/canvas-2287912#xywh=2657,1193,151,80", 
            "resource": {
                "@type": "cnt:ContentAsText", 
                "chars": "RIVIERE", 
                "format": "text/plain"
            }
        }, 
        {
            "@id": "https://manifests.teklia.com/HIMANIS/JJ074/words_annotations/FRCHANJJ_JJ074_0344V.json/139/line", 
            "@type": "oa:Annotation", 
            "motivation": "oa:painting", 
            "on": "http://bvmm.irht.cnrs.fr/iiif/23656/canvas/canvas-2287912#xywh=559,4689,218,30", 
            "resource": {
                "@type": "cnt:ContentAsText", 
                "chars": "ENVIRON", 
                "format": "text/plain"
            }
        }, 
        {
            "@id": "https://manifests.teklia.com/HIMANIS/JJ074/words_annotations/FRCHANJJ_JJ074_0344V.json/140/line", 
            "@type": "oa:Annotation", 
            "motivation": "oa:painting", 
            "on": "http://bvmm.irht.cnrs.fr/iiif/23656/canvas/canvas-2287912#xywh=2323,1665,105,168", 
            "resource": {
                "@type": "cnt:ContentAsText", 
                "chars": "CENZ", 
                "format": "text/plain"
            }
        }, 
        {
            "@id": "https://manifests.teklia.com/HIMANIS/JJ074/words_annotations/FRCHANJJ_JJ074_0344V.json/141/line", 
            "@type": "oa:Annotation", 
            "motivation": "oa:painting", 
            "on": "http://bvmm.irht.cnrs.fr/iiif/23656/canvas/canvas-2287912#xywh=794,1141,72,38", 
            "resource": {
                "@type": "cnt:ContentAsText", 
                "chars": "DE", 
                "format": "text/plain"
            }
        }
    ]
}