{
    "@context": "http://iiif.io/api/presentation/2/context.json", 
    "@id": "https://manifests.teklia.com/HIMANIS/JJ141/words_annotations/FRAN_0021_17001.json", 
    "@type": "sc:AnnotationList", 
    "resources": [
        {
            "@id": "https://manifests.teklia.com/HIMANIS/JJ141/words_annotations/FRAN_0021_17001.json/0/line", 
            "@type": "oa:Annotation", 
            "motivation": "oa:painting", 
            "on": "http://bvmm.irht.cnrs.fr/iiif/23731/canvas/canvas-2316922#xywh=340,1077,0,53", 
            "resource": {
                "@type": "cnt:ContentAsText", 
                "chars": "P", 
                "format": "text/plain"
            }
        }, 
        {
            "@id": "https://manifests.teklia.com/HIMANIS/JJ141/words_annotations/FRAN_0021_17001.json/1/line", 
            "@type": "oa:Annotation", 
            "motivation": "oa:painting", 
            "on": "http://bvmm.irht.cnrs.fr/iiif/23731/canvas/canvas-2316922#xywh=2740,728,222,142", 
            "resource": {
                "@type": "cnt:ContentAsText", 
                "chars": "BONTERENT", 
                "format": "text/plain"
            }
        }, 
        {
            "@id": "https://manifests.teklia.com/HIMANIS/JJ141/words_annotations/FRAN_0021_17001.json/2/line", 
            "@type": "oa:Annotation", 
            "motivation": "oa:painting", 
            "on": "http://bvmm.irht.cnrs.fr/iiif/23731/canvas/canvas-2316922#xywh=3565,1203,163,219", 
            "resource": {
                "@type": "cnt:ContentAsText", 
                "chars": "ENFANCE", 
                "format": "text/plain"
            }
        }, 
        {
            "@id": "https://manifests.teklia.com/HIMANIS/JJ141/words_annotations/FRAN_0021_17001.json/3/line", 
            "@type": "oa:Annotation", 
            "motivation": "oa:painting", 
            "on": "http://bvmm.irht.cnrs.fr/iiif/23731/canvas/canvas-2316922#xywh=2893,820,138,220", 
            "resource": {
                "@type": "cnt:ContentAsText", 
                "chars": "ALIENS", 
                "format": "text/plain"
            }
        }, 
        {
            "@id": "https://manifests.teklia.com/HIMANIS/JJ141/words_annotations/FRAN_0021_17001.json/4/line", 
            "@type": "oa:Annotation", 
            "motivation": "oa:painting", 
            "on": "http://bvmm.irht.cnrs.fr/iiif/23731/canvas/canvas-2316922#xywh=2893,820,138,220", 
            "resource": {
                "@type": "cnt:ContentAsText", 
                "chars": "ALIENT", 
                "format": "text/plain"
            }
        }, 
        {
            "@id": "https://manifests.teklia.com/HIMANIS/JJ141/words_annotations/FRAN_0021_17001.json/5/line", 
            "@type": "oa:Annotation", 
            "motivation": "oa:painting", 
            "on": "http://bvmm.irht.cnrs.fr/iiif/23731/canvas/canvas-2316922#xywh=2357,728,267,142", 
            "resource": {
                "@type": "cnt:ContentAsText", 
                "chars": "SERAPPERENT", 
                "format": "text/plain"
            }
        }, 
        {
            "@id": "https://manifests.teklia.com/HIMANIS/JJ141/words_annotations/FRAN_0021_17001.json/6/line", 
            "@type": "oa:Annotation", 
            "motivation": "oa:painting", 
            "on": "http://bvmm.irht.cnrs.fr/iiif/23731/canvas/canvas-2316922#xywh=2893,820,152,220", 
            "resource": {
                "@type": "cnt:ContentAsText", 
                "chars": "ALIENZ", 
                "format": "text/plain"
            }
        }, 
        {
            "@id": "https://manifests.teklia.com/HIMANIS/JJ141/words_annotations/FRAN_0021_17001.json/7/line", 
            "@type": "oa:Annotation", 
            "motivation": "oa:painting", 
            "on": "http://bvmm.irht.cnrs.fr/iiif/23731/canvas/canvas-2316922#xywh=2431,968,107,213", 
            "resource": {
                "@type": "cnt:ContentAsText", 
                "chars": "BIENS", 
                "format": "text/plain"
            }
        }, 
        {
            "@id": "https://manifests.teklia.com/HIMANIS/JJ141/words_annotations/FRAN_0021_17001.json/8/line", 
            "@type": "oa:Annotation", 
            "motivation": "oa:painting", 
            "on": "http://bvmm.irht.cnrs.fr/iiif/23731/canvas/canvas-2316922#xywh=3430,820,646,220", 
            "resource": {
                "@type": "cnt:ContentAsText", 
                "chars": "NOSTREMENT", 
                "format": "text/plain"
            }
        }, 
        {
            "@id": "https://manifests.teklia.com/HIMANIS/JJ141/words_annotations/FRAN_0021_17001.json/9/line", 
            "@type": "oa:Annotation", 
            "motivation": "oa:painting", 
            "on": "http://bvmm.irht.cnrs.fr/iiif/23731/canvas/canvas-2316922#xywh=197,1024,717,77", 
            "resource": {
                "@type": "cnt:ContentAsText", 
                "chars": "SE", 
                "format": "text/plain"
            }
        }, 
        {
            "@id": "https://manifests.teklia.com/HIMANIS/JJ141/words_annotations/FRAN_0021_17001.json/10/line", 
            "@type": "oa:Annotation", 
            "motivation": "oa:painting", 
            "on": "http://bvmm.irht.cnrs.fr/iiif/23731/canvas/canvas-2316922#xywh=3916,2287,107,95", 
            "resource": {
                "@type": "cnt:ContentAsText", 
                "chars": "PHILIPPE", 
                "format": "text/plain"
            }
        }, 
        {
            "@id": "https://manifests.teklia.com/HIMANIS/JJ141/words_annotations/FRAN_0021_17001.json/11/line", 
            "@type": "oa:Annotation", 
            "motivation": "oa:painting", 
            "on": "http://bvmm.irht.cnrs.fr/iiif/23731/canvas/canvas-2316922#xywh=3063,1203,95,219", 
            "resource": {
                "@type": "cnt:ContentAsText", 
                "chars": "VILLE", 
                "format": "text/plain"
            }
        }, 
        {
            "@id": "https://manifests.teklia.com/HIMANIS/JJ141/words_annotations/FRAN_0021_17001.json/12/line", 
            "@type": "oa:Annotation", 
            "motivation": "oa:painting", 
            "on": "http://bvmm.irht.cnrs.fr/iiif/23731/canvas/canvas-2316922#xywh=2742,820,96,220", 
            "resource": {
                "@type": "cnt:ContentAsText", 
                "chars": "AINSI", 
                "format": "text/plain"
            }
        }, 
        {
            "@id": "https://manifests.teklia.com/HIMANIS/JJ141/words_annotations/FRAN_0021_17001.json/13/line", 
            "@type": "oa:Annotation", 
            "motivation": "oa:painting", 
            "on": "http://bvmm.irht.cnrs.fr/iiif/23731/canvas/canvas-2316922#xywh=3195,4046,200,76", 
            "resource": {
                "@type": "cnt:ContentAsText", 
                "chars": "SEURS", 
                "format": "text/plain"
            }
        }, 
        {
            "@id": "https://manifests.teklia.com/HIMANIS/JJ141/words_annotations/FRAN_0021_17001.json/14/line", 
            "@type": "oa:Annotation", 
            "motivation": "oa:painting", 
            "on": "http://bvmm.irht.cnrs.fr/iiif/23731/canvas/canvas-2316922#xywh=3202,1123,131,104", 
            "resource": {
                "@type": "cnt:ContentAsText", 
                "chars": "LEURS", 
                "format": "text/plain"
            }
        }, 
        {
            "@id": "https://manifests.teklia.com/HIMANIS/JJ141/words_annotations/FRAN_0021_17001.json/15/line", 
            "@type": "oa:Annotation", 
            "motivation": "oa:painting", 
            "on": "http://bvmm.irht.cnrs.fr/iiif/23731/canvas/canvas-2316922#xywh=2276,573,1248,252", 
            "resource": {
                "@type": "cnt:ContentAsText", 
                "chars": "OU", 
                "format": "text/plain"
            }
        }, 
        {
            "@id": "https://manifests.teklia.com/HIMANIS/JJ141/words_annotations/FRAN_0021_17001.json/16/line", 
            "@type": "oa:Annotation", 
            "motivation": "oa:painting", 
            "on": "http://bvmm.irht.cnrs.fr/iiif/23731/canvas/canvas-2316922#xywh=3941,2367,149,104", 
            "resource": {
                "@type": "cnt:ContentAsText", 
                "chars": "ROY", 
                "format": "text/plain"
            }
        }, 
        {
            "@id": "https://manifests.teklia.com/HIMANIS/JJ141/words_annotations/FRAN_0021_17001.json/17/line", 
            "@type": "oa:Annotation", 
            "motivation": "oa:painting", 
            "on": "http://bvmm.irht.cnrs.fr/iiif/23731/canvas/canvas-2316922#xywh=45,154,3967,477", 
            "resource": {
                "@type": "cnt:ContentAsText", 
                "chars": "SI", 
                "format": "text/plain"
            }
        }, 
        {
            "@id": "https://manifests.teklia.com/HIMANIS/JJ141/words_annotations/FRAN_0021_17001.json/18/line", 
            "@type": "oa:Annotation", 
            "motivation": "oa:painting", 
            "on": "http://bvmm.irht.cnrs.fr/iiif/23731/canvas/canvas-2316922#xywh=45,154,3996,477", 
            "resource": {
                "@type": "cnt:ContentAsText", 
                "chars": "SU", 
                "format": "text/plain"
            }
        }, 
        {
            "@id": "https://manifests.teklia.com/HIMANIS/JJ141/words_annotations/FRAN_0021_17001.json/19/line", 
            "@type": "oa:Annotation", 
            "motivation": "oa:painting", 
            "on": "http://bvmm.irht.cnrs.fr/iiif/23731/canvas/canvas-2316922#xywh=3418,968,40,213", 
            "resource": {
                "@type": "cnt:ContentAsText", 
                "chars": "SA", 
                "format": "text/plain"
            }
        }, 
        {
            "@id": "https://manifests.teklia.com/HIMANIS/JJ141/words_annotations/FRAN_0021_17001.json/20/line", 
            "@type": "oa:Annotation", 
            "motivation": "oa:painting", 
            "on": "http://bvmm.irht.cnrs.fr/iiif/23731/canvas/canvas-2316922#xywh=2467,820,124,220", 
            "resource": {
                "@type": "cnt:ContentAsText", 
                "chars": "QUELS", 
                "format": "text/plain"
            }
        }, 
        {
            "@id": "https://manifests.teklia.com/HIMANIS/JJ141/words_annotations/FRAN_0021_17001.json/21/line", 
            "@type": "oa:Annotation", 
            "motivation": "oa:painting", 
            "on": "http://bvmm.irht.cnrs.fr/iiif/23731/canvas/canvas-2316922#xywh=2989,728,36,142", 
            "resource": {
                "@type": "cnt:ContentAsText", 
                "chars": "SI", 
                "format": "text/plain"
            }
        }, 
        {
            "@id": "https://manifests.teklia.com/HIMANIS/JJ141/words_annotations/FRAN_0021_17001.json/22/line", 
            "@type": "oa:Annotation", 
            "motivation": "oa:painting", 
            "on": "http://bvmm.irht.cnrs.fr/iiif/23731/canvas/canvas-2316922#xywh=3598,1473,274,58", 
            "resource": {
                "@type": "cnt:ContentAsText", 
                "chars": "EX", 
                "format": "text/plain"
            }
        }, 
        {
            "@id": "https://manifests.teklia.com/HIMANIS/JJ141/words_annotations/FRAN_0021_17001.json/23/line", 
            "@type": "oa:Annotation", 
            "motivation": "oa:painting", 
            "on": "http://bvmm.irht.cnrs.fr/iiif/23731/canvas/canvas-2316922#xywh=2660,728,44,142", 
            "resource": {
                "@type": "cnt:ContentAsText", 
                "chars": "OU", 
                "format": "text/plain"
            }
        }, 
        {
            "@id": "https://manifests.teklia.com/HIMANIS/JJ141/words_annotations/FRAN_0021_17001.json/24/line", 
            "@type": "oa:Annotation", 
            "motivation": "oa:painting", 
            "on": "http://bvmm.irht.cnrs.fr/iiif/23731/canvas/canvas-2316922#xywh=3750,1643,316,69", 
            "resource": {
                "@type": "cnt:ContentAsText", 
                "chars": "ET", 
                "format": "text/plain"
            }
        }, 
        {
            "@id": "https://manifests.teklia.com/HIMANIS/JJ141/words_annotations/FRAN_0021_17001.json/25/line", 
            "@type": "oa:Annotation", 
            "motivation": "oa:painting", 
            "on": "http://bvmm.irht.cnrs.fr/iiif/23731/canvas/canvas-2316922#xywh=2511,968,227,213", 
            "resource": {
                "@type": "cnt:ContentAsText", 
                "chars": "DIT", 
                "format": "text/plain"
            }
        }, 
        {
            "@id": "https://manifests.teklia.com/HIMANIS/JJ141/words_annotations/FRAN_0021_17001.json/26/line", 
            "@type": "oa:Annotation", 
            "motivation": "oa:painting", 
            "on": "http://bvmm.irht.cnrs.fr/iiif/23731/canvas/canvas-2316922#xywh=2551,968,94,213", 
            "resource": {
                "@type": "cnt:ContentAsText", 
                "chars": "DES", 
                "format": "text/plain"
            }
        }, 
        {
            "@id": "https://manifests.teklia.com/HIMANIS/JJ141/words_annotations/FRAN_0021_17001.json/27/line", 
            "@type": "oa:Annotation", 
            "motivation": "oa:painting", 
            "on": "http://bvmm.irht.cnrs.fr/iiif/23731/canvas/canvas-2316922#xywh=2511,968,227,213", 
            "resource": {
                "@type": "cnt:ContentAsText", 
                "chars": "DIZ", 
                "format": "text/plain"
            }
        }, 
        {
            "@id": "https://manifests.teklia.com/HIMANIS/JJ141/words_annotations/FRAN_0021_17001.json/28/line", 
            "@type": "oa:Annotation", 
            "motivation": "oa:painting", 
            "on": "http://bvmm.irht.cnrs.fr/iiif/23731/canvas/canvas-2316922#xywh=3576,728,472,142", 
            "resource": {
                "@type": "cnt:ContentAsText", 
                "chars": "DOUZE", 
                "format": "text/plain"
            }
        }, 
        {
            "@id": "https://manifests.teklia.com/HIMANIS/JJ141/words_annotations/FRAN_0021_17001.json/29/line", 
            "@type": "oa:Annotation", 
            "motivation": "oa:painting", 
            "on": "http://bvmm.irht.cnrs.fr/iiif/23731/canvas/canvas-2316922#xywh=3475,4046,105,76", 
            "resource": {
                "@type": "cnt:ContentAsText", 
                "chars": "PRO", 
                "format": "text/plain"
            }
        }, 
        {
            "@id": "https://manifests.teklia.com/HIMANIS/JJ141/words_annotations/FRAN_0021_17001.json/30/line", 
            "@type": "oa:Annotation", 
            "motivation": "oa:painting", 
            "on": "http://bvmm.irht.cnrs.fr/iiif/23731/canvas/canvas-2316922#xywh=3445,3904,204,51", 
            "resource": {
                "@type": "cnt:ContentAsText", 
                "chars": "ACTUM", 
                "format": "text/plain"
            }
        }, 
        {
            "@id": "https://manifests.teklia.com/HIMANIS/JJ141/words_annotations/FRAN_0021_17001.json/31/line", 
            "@type": "oa:Annotation", 
            "motivation": "oa:painting", 
            "on": "http://bvmm.irht.cnrs.fr/iiif/23731/canvas/canvas-2316922#xywh=3565,1203,163,219", 
            "resource": {
                "@type": "cnt:ContentAsText", 
                "chars": "ENFANTE", 
                "format": "text/plain"
            }
        }, 
        {
            "@id": "https://manifests.teklia.com/HIMANIS/JJ141/words_annotations/FRAN_0021_17001.json/32/line", 
            "@type": "oa:Annotation", 
            "motivation": "oa:painting", 
            "on": "http://bvmm.irht.cnrs.fr/iiif/23731/canvas/canvas-2316922#xywh=2467,820,124,220", 
            "resource": {
                "@type": "cnt:ContentAsText", 
                "chars": "QU'ILS", 
                "format": "text/plain"
            }
        }, 
        {
            "@id": "https://manifests.teklia.com/HIMANIS/JJ141/words_annotations/FRAN_0021_17001.json/33/line", 
            "@type": "oa:Annotation", 
            "motivation": "oa:painting", 
            "on": "http://bvmm.irht.cnrs.fr/iiif/23731/canvas/canvas-2316922#xywh=3430,820,646,220", 
            "resource": {
                "@type": "cnt:ContentAsText", 
                "chars": "DISTREMENT", 
                "format": "text/plain"
            }
        }, 
        {
            "@id": "https://manifests.teklia.com/HIMANIS/JJ141/words_annotations/FRAN_0021_17001.json/34/line", 
            "@type": "oa:Annotation", 
            "motivation": "oa:painting", 
            "on": "http://bvmm.irht.cnrs.fr/iiif/23731/canvas/canvas-2316922#xywh=2898,968,253,213", 
            "resource": {
                "@type": "cnt:ContentAsText", 
                "chars": "BONNE", 
                "format": "text/plain"
            }
        }, 
        {
            "@id": "https://manifests.teklia.com/HIMANIS/JJ141/words_annotations/FRAN_0021_17001.json/35/line", 
            "@type": "oa:Annotation", 
            "motivation": "oa:painting", 
            "on": "http://bvmm.irht.cnrs.fr/iiif/23731/canvas/canvas-2316922#xywh=45,154,2058,477", 
            "resource": {
                "@type": "cnt:ContentAsText", 
                "chars": "SES", 
                "format": "text/plain"
            }
        }, 
        {
            "@id": "https://manifests.teklia.com/HIMANIS/JJ141/words_annotations/FRAN_0021_17001.json/36/line", 
            "@type": "oa:Annotation", 
            "motivation": "oa:painting", 
            "on": "http://bvmm.irht.cnrs.fr/iiif/23731/canvas/canvas-2316922#xywh=3378,1382,201,103", 
            "resource": {
                "@type": "cnt:ContentAsText", 
                "chars": "DURANT", 
                "format": "text/plain"
            }
        }, 
        {
            "@id": "https://manifests.teklia.com/HIMANIS/JJ141/words_annotations/FRAN_0021_17001.json/37/line", 
            "@type": "oa:Annotation", 
            "motivation": "oa:painting", 
            "on": "http://bvmm.irht.cnrs.fr/iiif/23731/canvas/canvas-2316922#xywh=3351,968,174,213", 
            "resource": {
                "@type": "cnt:ContentAsText", 
                "chars": "AVONS", 
                "format": "text/plain"
            }
        }, 
        {
            "@id": "https://manifests.teklia.com/HIMANIS/JJ141/words_annotations/FRAN_0021_17001.json/38/line", 
            "@type": "oa:Annotation", 
            "motivation": "oa:painting", 
            "on": "http://bvmm.irht.cnrs.fr/iiif/23731/canvas/canvas-2316922#xywh=3172,1203,108,219", 
            "resource": {
                "@type": "cnt:ContentAsText", 
                "chars": "DE", 
                "format": "text/plain"
            }
        }, 
        {
            "@id": "https://manifests.teklia.com/HIMANIS/JJ141/words_annotations/FRAN_0021_17001.json/39/line", 
            "@type": "oa:Annotation", 
            "motivation": "oa:painting", 
            "on": "http://bvmm.irht.cnrs.fr/iiif/23731/canvas/canvas-2316922#xywh=2276,573,1359,252", 
            "resource": {
                "@type": "cnt:ContentAsText", 
                "chars": "DE", 
                "format": "text/plain"
            }
        }, 
        {
            "@id": "https://manifests.teklia.com/HIMANIS/JJ141/words_annotations/FRAN_0021_17001.json/40/line", 
            "@type": "oa:Annotation", 
            "motivation": "oa:painting", 
            "on": "http://bvmm.irht.cnrs.fr/iiif/23731/canvas/canvas-2316922#xywh=3117,1123,52,104", 
            "resource": {
                "@type": "cnt:ContentAsText", 
                "chars": "DE", 
                "format": "text/plain"
            }
        }, 
        {
            "@id": "https://manifests.teklia.com/HIMANIS/JJ141/words_annotations/FRAN_0021_17001.json/41/line", 
            "@type": "oa:Annotation", 
            "motivation": "oa:painting", 
            "on": "http://bvmm.irht.cnrs.fr/iiif/23731/canvas/canvas-2316922#xywh=3508,1512,141,132", 
            "resource": {
                "@type": "cnt:ContentAsText", 
                "chars": "PERAIS", 
                "format": "text/plain"
            }
        }, 
        {
            "@id": "https://manifests.teklia.com/HIMANIS/JJ141/words_annotations/FRAN_0021_17001.json/42/line", 
            "@type": "oa:Annotation", 
            "motivation": "oa:painting", 
            "on": "http://bvmm.irht.cnrs.fr/iiif/23731/canvas/canvas-2316922#xywh=3916,2287,167,95", 
            "resource": {
                "@type": "cnt:ContentAsText", 
                "chars": "PHILIPPUM", 
                "format": "text/plain"
            }
        }, 
        {
            "@id": "https://manifests.teklia.com/HIMANIS/JJ141/words_annotations/FRAN_0021_17001.json/43/line", 
            "@type": "oa:Annotation", 
            "motivation": "oa:painting", 
            "on": "http://bvmm.irht.cnrs.fr/iiif/23731/canvas/canvas-2316922#xywh=3916,2287,137,95", 
            "resource": {
                "@type": "cnt:ContentAsText", 
                "chars": "PHILIPPUS", 
                "format": "text/plain"
            }
        }, 
        {
            "@id": "https://manifests.teklia.com/HIMANIS/JJ141/words_annotations/FRAN_0021_17001.json/44/line", 
            "@type": "oa:Annotation", 
            "motivation": "oa:painting", 
            "on": "http://bvmm.irht.cnrs.fr/iiif/23731/canvas/canvas-2316922#xywh=3916,2287,137,95", 
            "resource": {
                "@type": "cnt:ContentAsText", 
                "chars": "PHILIPPES", 
                "format": "text/plain"
            }
        }, 
        {
            "@id": "https://manifests.teklia.com/HIMANIS/JJ141/words_annotations/FRAN_0021_17001.json/45/line", 
            "@type": "oa:Annotation", 
            "motivation": "oa:painting", 
            "on": "http://bvmm.irht.cnrs.fr/iiif/23731/canvas/canvas-2316922#xywh=3508,1512,141,132", 
            "resource": {
                "@type": "cnt:ContentAsText", 
                "chars": "FEAUS", 
                "format": "text/plain"
            }
        }, 
        {
            "@id": "https://manifests.teklia.com/HIMANIS/JJ141/words_annotations/FRAN_0021_17001.json/46/line", 
            "@type": "oa:Annotation", 
            "motivation": "oa:painting", 
            "on": "http://bvmm.irht.cnrs.fr/iiif/23731/canvas/canvas-2316922#xywh=3265,820,41,220", 
            "resource": {
                "@type": "cnt:ContentAsText", 
                "chars": "LE", 
                "format": "text/plain"
            }
        }, 
        {
            "@id": "https://manifests.teklia.com/HIMANIS/JJ141/words_annotations/FRAN_0021_17001.json/47/line", 
            "@type": "oa:Annotation", 
            "motivation": "oa:painting", 
            "on": "http://bvmm.irht.cnrs.fr/iiif/23731/canvas/canvas-2316922#xywh=2898,968,253,213", 
            "resource": {
                "@type": "cnt:ContentAsText", 
                "chars": "BOURS", 
                "format": "text/plain"
            }
        }, 
        {
            "@id": "https://manifests.teklia.com/HIMANIS/JJ141/words_annotations/FRAN_0021_17001.json/48/line", 
            "@type": "oa:Annotation", 
            "motivation": "oa:painting", 
            "on": "http://bvmm.irht.cnrs.fr/iiif/23731/canvas/canvas-2316922#xywh=2398,820,42,220", 
            "resource": {
                "@type": "cnt:ContentAsText", 
                "chars": "DU", 
                "format": "text/plain"
            }
        }, 
        {
            "@id": "https://manifests.teklia.com/HIMANIS/JJ141/words_annotations/FRAN_0021_17001.json/49/line", 
            "@type": "oa:Annotation", 
            "motivation": "oa:painting", 
            "on": "http://bvmm.irht.cnrs.fr/iiif/23731/canvas/canvas-2316922#xywh=3605,1382,45,103", 
            "resource": {
                "@type": "cnt:ContentAsText", 
                "chars": "LE", 
                "format": "text/plain"
            }
        }, 
        {
            "@id": "https://manifests.teklia.com/HIMANIS/JJ141/words_annotations/FRAN_0021_17001.json/50/line", 
            "@type": "oa:Annotation", 
            "motivation": "oa:painting", 
            "on": "http://bvmm.irht.cnrs.fr/iiif/23731/canvas/canvas-2316922#xywh=2938,968,27,213", 
            "resource": {
                "@type": "cnt:ContentAsText", 
                "chars": "DE", 
                "format": "text/plain"
            }
        }, 
        {
            "@id": "https://manifests.teklia.com/HIMANIS/JJ141/words_annotations/FRAN_0021_17001.json/51/line", 
            "@type": "oa:Annotation", 
            "motivation": "oa:painting", 
            "on": "http://bvmm.irht.cnrs.fr/iiif/23731/canvas/canvas-2316922#xywh=3418,968,293,213", 
            "resource": {
                "@type": "cnt:ContentAsText", 
                "chars": "NOUS", 
                "format": "text/plain"
            }
        }, 
        {
            "@id": "https://manifests.teklia.com/HIMANIS/JJ141/words_annotations/FRAN_0021_17001.json/52/line", 
            "@type": "oa:Annotation", 
            "motivation": "oa:painting", 
            "on": "http://bvmm.irht.cnrs.fr/iiif/23731/canvas/canvas-2316922#xywh=3063,1203,95,219", 
            "resource": {
                "@type": "cnt:ContentAsText", 
                "chars": "MILLE", 
                "format": "text/plain"
            }
        }, 
        {
            "@id": "https://manifests.teklia.com/HIMANIS/JJ141/words_annotations/FRAN_0021_17001.json/53/line", 
            "@type": "oa:Annotation", 
            "motivation": "oa:painting", 
            "on": "http://bvmm.irht.cnrs.fr/iiif/23731/canvas/canvas-2316922#xywh=3418,968,173,213", 
            "resource": {
                "@type": "cnt:ContentAsText", 
                "chars": "AVENSE", 
                "format": "text/plain"
            }
        }, 
        {
            "@id": "https://manifests.teklia.com/HIMANIS/JJ141/words_annotations/FRAN_0021_17001.json/54/line", 
            "@type": "oa:Annotation", 
            "motivation": "oa:painting", 
            "on": "http://bvmm.irht.cnrs.fr/iiif/23731/canvas/canvas-2316922#xywh=3385,1123,170,104", 
            "resource": {
                "@type": "cnt:ContentAsText", 
                "chars": "ENFANS", 
                "format": "text/plain"
            }
        }, 
        {
            "@id": "https://manifests.teklia.com/HIMANIS/JJ141/words_annotations/FRAN_0021_17001.json/55/line", 
            "@type": "oa:Annotation", 
            "motivation": "oa:painting", 
            "on": "http://bvmm.irht.cnrs.fr/iiif/23731/canvas/canvas-2316922#xywh=2954,1123,111,104", 
            "resource": {
                "@type": "cnt:ContentAsText", 
                "chars": "DEUX", 
                "format": "text/plain"
            }
        }, 
        {
            "@id": "https://manifests.teklia.com/HIMANIS/JJ141/words_annotations/FRAN_0021_17001.json/56/line", 
            "@type": "oa:Annotation", 
            "motivation": "oa:painting", 
            "on": "http://bvmm.irht.cnrs.fr/iiif/23731/canvas/canvas-2316922#xywh=2268,728,71,142", 
            "resource": {
                "@type": "cnt:ContentAsText", 
                "chars": "LE", 
                "format": "text/plain"
            }
        }, 
        {
            "@id": "https://manifests.teklia.com/HIMANIS/JJ141/words_annotations/FRAN_0021_17001.json/57/line", 
            "@type": "oa:Annotation", 
            "motivation": "oa:painting", 
            "on": "http://bvmm.irht.cnrs.fr/iiif/23731/canvas/canvas-2316922#xywh=3576,728,98,142", 
            "resource": {
                "@type": "cnt:ContentAsText", 
                "chars": "DONT", 
                "format": "text/plain"
            }
        }, 
        {
            "@id": "https://manifests.teklia.com/HIMANIS/JJ141/words_annotations/FRAN_0021_17001.json/58/line", 
            "@type": "oa:Annotation", 
            "motivation": "oa:painting", 
            "on": "http://bvmm.irht.cnrs.fr/iiif/23731/canvas/canvas-2316922#xywh=3538,968,173,213", 
            "resource": {
                "@type": "cnt:ContentAsText", 
                "chars": "POUR", 
                "format": "text/plain"
            }
        }, 
        {
            "@id": "https://manifests.teklia.com/HIMANIS/JJ141/words_annotations/FRAN_0021_17001.json/59/line", 
            "@type": "oa:Annotation", 
            "motivation": "oa:painting", 
            "on": "http://bvmm.irht.cnrs.fr/iiif/23731/canvas/canvas-2316922#xywh=3538,968,173,213", 
            "resource": {
                "@type": "cnt:ContentAsText", 
                "chars": "AUS", 
                "format": "text/plain"
            }
        }, 
        {
            "@id": "https://manifests.teklia.com/HIMANIS/JJ141/words_annotations/FRAN_0021_17001.json/60/line", 
            "@type": "oa:Annotation", 
            "motivation": "oa:painting", 
            "on": "http://bvmm.irht.cnrs.fr/iiif/23731/canvas/canvas-2316922#xywh=3691,1512,390,132", 
            "resource": {
                "@type": "cnt:ContentAsText", 
                "chars": "NE", 
                "format": "text/plain"
            }
        }, 
        {
            "@id": "https://manifests.teklia.com/HIMANIS/JJ141/words_annotations/FRAN_0021_17001.json/61/line", 
            "@type": "oa:Annotation", 
            "motivation": "oa:painting", 
            "on": "http://bvmm.irht.cnrs.fr/iiif/23731/canvas/canvas-2316922#xywh=3194,728,178,142", 
            "resource": {
                "@type": "cnt:ContentAsText", 
                "chars": "AUCUNE", 
                "format": "text/plain"
            }
        }, 
        {
            "@id": "https://manifests.teklia.com/HIMANIS/JJ141/words_annotations/FRAN_0021_17001.json/62/line", 
            "@type": "oa:Annotation", 
            "motivation": "oa:painting", 
            "on": "http://bvmm.irht.cnrs.fr/iiif/23731/canvas/canvas-2316922#xywh=3607,1123,483,104", 
            "resource": {
                "@type": "cnt:ContentAsText", 
                "chars": "DONT", 
                "format": "text/plain"
            }
        }, 
        {
            "@id": "https://manifests.teklia.com/HIMANIS/JJ141/words_annotations/FRAN_0021_17001.json/63/line", 
            "@type": "oa:Annotation", 
            "motivation": "oa:painting", 
            "on": "http://bvmm.irht.cnrs.fr/iiif/23731/canvas/canvas-2316922#xywh=2618,820,97,220", 
            "resource": {
                "@type": "cnt:ContentAsText", 
                "chars": "FAIT", 
                "format": "text/plain"
            }
        }, 
        {
            "@id": "https://manifests.teklia.com/HIMANIS/JJ141/words_annotations/FRAN_0021_17001.json/64/line", 
            "@type": "oa:Annotation", 
            "motivation": "oa:painting", 
            "on": "http://bvmm.irht.cnrs.fr/iiif/23731/canvas/canvas-2316922#xywh=3178,968,133,213", 
            "resource": {
                "@type": "cnt:ContentAsText", 
                "chars": "LEURS", 
                "format": "text/plain"
            }
        }, 
        {
            "@id": "https://manifests.teklia.com/HIMANIS/JJ141/words_annotations/FRAN_0021_17001.json/65/line", 
            "@type": "oa:Annotation", 
            "motivation": "oa:painting", 
            "on": "http://bvmm.irht.cnrs.fr/iiif/23731/canvas/canvas-2316922#xywh=3294,1203,135,219", 
            "resource": {
                "@type": "cnt:ContentAsText", 
                "chars": "LEURS", 
                "format": "text/plain"
            }
        }, 
        {
            "@id": "https://manifests.teklia.com/HIMANIS/JJ141/words_annotations/FRAN_0021_17001.json/66/line", 
            "@type": "oa:Annotation", 
            "motivation": "oa:painting", 
            "on": "http://bvmm.irht.cnrs.fr/iiif/23731/canvas/canvas-2316922#xywh=3471,968,107,213", 
            "resource": {
                "@type": "cnt:ContentAsText", 
                "chars": "VOUS", 
                "format": "text/plain"
            }
        }, 
        {
            "@id": "https://manifests.teklia.com/HIMANIS/JJ141/words_annotations/FRAN_0021_17001.json/67/line", 
            "@type": "oa:Annotation", 
            "motivation": "oa:painting", 
            "on": "http://bvmm.irht.cnrs.fr/iiif/23731/canvas/canvas-2316922#xywh=3508,1512,141,132", 
            "resource": {
                "@type": "cnt:ContentAsText", 
                "chars": "SERAIS", 
                "format": "text/plain"
            }
        }, 
        {
            "@id": "https://manifests.teklia.com/HIMANIS/JJ141/words_annotations/FRAN_0021_17001.json/68/line", 
            "@type": "oa:Annotation", 
            "motivation": "oa:painting", 
            "on": "http://bvmm.irht.cnrs.fr/iiif/23731/canvas/canvas-2316922#xywh=3063,1203,95,219", 
            "resource": {
                "@type": "cnt:ContentAsText", 
                "chars": "ILLE", 
                "format": "text/plain"
            }
        }, 
        {
            "@id": "https://manifests.teklia.com/HIMANIS/JJ141/words_annotations/FRAN_0021_17001.json/69/line", 
            "@type": "oa:Annotation", 
            "motivation": "oa:painting", 
            "on": "http://bvmm.irht.cnrs.fr/iiif/23731/canvas/canvas-2316922#xywh=3333,820,55,220", 
            "resource": {
                "@type": "cnt:ContentAsText", 
                "chars": "DIT", 
                "format": "text/plain"
            }
        }, 
        {
            "@id": "https://manifests.teklia.com/HIMANIS/JJ141/words_annotations/FRAN_0021_17001.json/70/line", 
            "@type": "oa:Annotation", 
            "motivation": "oa:painting", 
            "on": "http://bvmm.irht.cnrs.fr/iiif/23731/canvas/canvas-2316922#xywh=3572,573,111,252", 
            "resource": {
                "@type": "cnt:ContentAsText", 
                "chars": "EN", 
                "format": "text/plain"
            }
        }, 
        {
            "@id": "https://manifests.teklia.com/HIMANIS/JJ141/words_annotations/FRAN_0021_17001.json/71/line", 
            "@type": "oa:Annotation", 
            "motivation": "oa:painting", 
            "on": "http://bvmm.irht.cnrs.fr/iiif/23731/canvas/canvas-2316922#xywh=3172,1203,54,219", 
            "resource": {
                "@type": "cnt:ContentAsText", 
                "chars": "ET", 
                "format": "text/plain"
            }
        }, 
        {
            "@id": "https://manifests.teklia.com/HIMANIS/JJ141/words_annotations/FRAN_0021_17001.json/72/line", 
            "@type": "oa:Annotation", 
            "motivation": "oa:painting", 
            "on": "http://bvmm.irht.cnrs.fr/iiif/23731/canvas/canvas-2316922#xywh=2276,573,1201,252", 
            "resource": {
                "@type": "cnt:ContentAsText", 
                "chars": "ET", 
                "format": "text/plain"
            }
        }, 
        {
            "@id": "https://manifests.teklia.com/HIMANIS/JJ141/words_annotations/FRAN_0021_17001.json/73/line", 
            "@type": "oa:Annotation", 
            "motivation": "oa:painting", 
            "on": "http://bvmm.irht.cnrs.fr/iiif/23731/canvas/canvas-2316922#xywh=3933,2167,150,125", 
            "resource": {
                "@type": "cnt:ContentAsText", 
                "chars": "POUR", 
                "format": "text/plain"
            }
        }, 
        {
            "@id": "https://manifests.teklia.com/HIMANIS/JJ141/words_annotations/FRAN_0021_17001.json/74/line", 
            "@type": "oa:Annotation", 
            "motivation": "oa:painting", 
            "on": "http://bvmm.irht.cnrs.fr/iiif/23731/canvas/canvas-2316922#xywh=2357,728,267,142", 
            "resource": {
                "@type": "cnt:ContentAsText", 
                "chars": "SERAPPERRENT", 
                "format": "text/plain"
            }
        }, 
        {
            "@id": "https://manifests.teklia.com/HIMANIS/JJ141/words_annotations/FRAN_0021_17001.json/75/line", 
            "@type": "oa:Annotation", 
            "motivation": "oa:painting", 
            "on": "http://bvmm.irht.cnrs.fr/iiif/23731/canvas/canvas-2316922#xywh=3933,2167,165,125", 
            "resource": {
                "@type": "cnt:ContentAsText", 
                "chars": "DOUZ", 
                "format": "text/plain"
            }
        }, 
        {
            "@id": "https://manifests.teklia.com/HIMANIS/JJ141/words_annotations/FRAN_0021_17001.json/76/line", 
            "@type": "oa:Annotation", 
            "motivation": "oa:painting", 
            "on": "http://bvmm.irht.cnrs.fr/iiif/23731/canvas/canvas-2316922#xywh=2850,1123,58,104", 
            "resource": {
                "@type": "cnt:ContentAsText", 
                "chars": "ET", 
                "format": "text/plain"
            }
        }, 
        {
            "@id": "https://manifests.teklia.com/HIMANIS/JJ141/words_annotations/FRAN_0021_17001.json/77/line", 
            "@type": "oa:Annotation", 
            "motivation": "oa:painting", 
            "on": "http://bvmm.irht.cnrs.fr/iiif/23731/canvas/canvas-2316922#xywh=2751,968,174,213", 
            "resource": {
                "@type": "cnt:ContentAsText", 
                "chars": "ARMANNE", 
                "format": "text/plain"
            }
        }, 
        {
            "@id": "https://manifests.teklia.com/HIMANIS/JJ141/words_annotations/FRAN_0021_17001.json/78/line", 
            "@type": "oa:Annotation", 
            "motivation": "oa:painting", 
            "on": "http://bvmm.irht.cnrs.fr/iiif/23731/canvas/canvas-2316922#xywh=45,154,1849,477", 
            "resource": {
                "@type": "cnt:ContentAsText", 
                "chars": "ES", 
                "format": "text/plain"
            }
        }, 
        {
            "@id": "https://manifests.teklia.com/HIMANIS/JJ141/words_annotations/FRAN_0021_17001.json/79/line", 
            "@type": "oa:Annotation", 
            "motivation": "oa:painting", 
            "on": "http://bvmm.irht.cnrs.fr/iiif/23731/canvas/canvas-2316922#xywh=3086,820,27,220", 
            "resource": {
                "@type": "cnt:ContentAsText", 
                "chars": "ET", 
                "format": "text/plain"
            }
        }, 
        {
            "@id": "https://manifests.teklia.com/HIMANIS/JJ141/words_annotations/FRAN_0021_17001.json/80/line", 
            "@type": "oa:Annotation", 
            "motivation": "oa:painting", 
            "on": "http://bvmm.irht.cnrs.fr/iiif/23731/canvas/canvas-2316922#xywh=3933,2167,150,125", 
            "resource": {
                "@type": "cnt:ContentAsText", 
                "chars": "NOUS", 
                "format": "text/plain"
            }
        }, 
        {
            "@id": "https://manifests.teklia.com/HIMANIS/JJ141/words_annotations/FRAN_0021_17001.json/81/line", 
            "@type": "oa:Annotation", 
            "motivation": "oa:painting", 
            "on": "http://bvmm.irht.cnrs.fr/iiif/23731/canvas/canvas-2316922#xywh=3663,1382,116,103", 
            "resource": {
                "@type": "cnt:ContentAsText", 
                "chars": "DEBAT", 
                "format": "text/plain"
            }
        }, 
        {
            "@id": "https://manifests.teklia.com/HIMANIS/JJ141/words_annotations/FRAN_0021_17001.json/82/line", 
            "@type": "oa:Annotation", 
            "motivation": "oa:painting", 
            "on": "http://bvmm.irht.cnrs.fr/iiif/23731/canvas/canvas-2316922#xywh=3351,968,54,213", 
            "resource": {
                "@type": "cnt:ContentAsText", 
                "chars": "EN", 
                "format": "text/plain"
            }
        }, 
        {
            "@id": "https://manifests.teklia.com/HIMANIS/JJ141/words_annotations/FRAN_0021_17001.json/83/line", 
            "@type": "oa:Annotation", 
            "motivation": "oa:painting", 
            "on": "http://bvmm.irht.cnrs.fr/iiif/23731/canvas/canvas-2316922#xywh=3339,1382,26,103", 
            "resource": {
                "@type": "cnt:ContentAsText", 
                "chars": "ET", 
                "format": "text/plain"
            }
        }, 
        {
            "@id": "https://manifests.teklia.com/HIMANIS/JJ141/words_annotations/FRAN_0021_17001.json/84/line", 
            "@type": "oa:Annotation", 
            "motivation": "oa:painting", 
            "on": "http://bvmm.irht.cnrs.fr/iiif/23731/canvas/canvas-2316922#xywh=3470,1203,54,219", 
            "resource": {
                "@type": "cnt:ContentAsText", 
                "chars": "DIZ", 
                "format": "text/plain"
            }
        }, 
        {
            "@id": "https://manifests.teklia.com/HIMANIS/JJ141/words_annotations/FRAN_0021_17001.json/85/line", 
            "@type": "oa:Annotation", 
            "motivation": "oa:painting", 
            "on": "http://bvmm.irht.cnrs.fr/iiif/23731/canvas/canvas-2316922#xywh=2893,820,110,220", 
            "resource": {
                "@type": "cnt:ContentAsText", 
                "chars": "ALIENNE", 
                "format": "text/plain"
            }
        }, 
        {
            "@id": "https://manifests.teklia.com/HIMANIS/JJ141/words_annotations/FRAN_0021_17001.json/86/line", 
            "@type": "oa:Annotation", 
            "motivation": "oa:painting", 
            "on": "http://bvmm.irht.cnrs.fr/iiif/23731/canvas/canvas-2316922#xywh=3042,728,125,142", 
            "resource": {
                "@type": "cnt:ContentAsText", 
                "chars": "COMME", 
                "format": "text/plain"
            }
        }, 
        {
            "@id": "https://manifests.teklia.com/HIMANIS/JJ141/words_annotations/FRAN_0021_17001.json/87/line", 
            "@type": "oa:Annotation", 
            "motivation": "oa:painting", 
            "on": "http://bvmm.irht.cnrs.fr/iiif/23731/canvas/canvas-2316922#xywh=3565,1203,190,219", 
            "resource": {
                "@type": "cnt:ContentAsText", 
                "chars": "ENFERMEN", 
                "format": "text/plain"
            }
        }, 
        {
            "@id": "https://manifests.teklia.com/HIMANIS/JJ141/words_annotations/FRAN_0021_17001.json/88/line", 
            "@type": "oa:Annotation", 
            "motivation": "oa:painting", 
            "on": "http://bvmm.irht.cnrs.fr/iiif/23731/canvas/canvas-2316922#xywh=3750,1643,325,69", 
            "resource": {
                "@type": "cnt:ContentAsText", 
                "chars": "CE", 
                "format": "text/plain"
            }
        }, 
        {
            "@id": "https://manifests.teklia.com/HIMANIS/JJ141/words_annotations/FRAN_0021_17001.json/89/line", 
            "@type": "oa:Annotation", 
            "motivation": "oa:painting", 
            "on": "http://bvmm.irht.cnrs.fr/iiif/23731/canvas/canvas-2316922#xywh=3605,968,106,213", 
            "resource": {
                "@type": "cnt:ContentAsText", 
                "chars": "JUS", 
                "format": "text/plain"
            }
        }, 
        {
            "@id": "https://manifests.teklia.com/HIMANIS/JJ141/words_annotations/FRAN_0021_17001.json/90/line", 
            "@type": "oa:Annotation", 
            "motivation": "oa:painting", 
            "on": "http://bvmm.irht.cnrs.fr/iiif/23731/canvas/canvas-2316922#xywh=3278,4009,0,46", 
            "resource": {
                "@type": "cnt:ContentAsText", 
                "chars": "P", 
                "format": "text/plain"
            }
        }, 
        {
            "@id": "https://manifests.teklia.com/HIMANIS/JJ141/words_annotations/FRAN_0021_17001.json/91/line", 
            "@type": "oa:Annotation", 
            "motivation": "oa:painting", 
            "on": "http://bvmm.irht.cnrs.fr/iiif/23731/canvas/canvas-2316922#xywh=3278,4009,0,46", 
            "resource": {
                "@type": "cnt:ContentAsText", 
                "chars": "R", 
                "format": "text/plain"
            }
        }, 
        {
            "@id": "https://manifests.teklia.com/HIMANIS/JJ141/words_annotations/FRAN_0021_17001.json/92/line", 
            "@type": "oa:Annotation", 
            "motivation": "oa:painting", 
            "on": "http://bvmm.irht.cnrs.fr/iiif/23731/canvas/canvas-2316922#xywh=2938,968,53,213", 
            "resource": {
                "@type": "cnt:ContentAsText", 
                "chars": "QUE", 
                "format": "text/plain"
            }
        }, 
        {
            "@id": "https://manifests.teklia.com/HIMANIS/JJ141/words_annotations/FRAN_0021_17001.json/93/line", 
            "@type": "oa:Annotation", 
            "motivation": "oa:painting", 
            "on": "http://bvmm.irht.cnrs.fr/iiif/23731/canvas/canvas-2316922#xywh=2893,820,152,220", 
            "resource": {
                "@type": "cnt:ContentAsText", 
                "chars": "ALIEUX", 
                "format": "text/plain"
            }
        }, 
        {
            "@id": "https://manifests.teklia.com/HIMANIS/JJ141/words_annotations/FRAN_0021_17001.json/94/line", 
            "@type": "oa:Annotation", 
            "motivation": "oa:painting", 
            "on": "http://bvmm.irht.cnrs.fr/iiif/23731/canvas/canvas-2316922#xywh=2247,820,124,220", 
            "resource": {
                "@type": "cnt:ContentAsText", 
                "chars": "SION", 
                "format": "text/plain"
            }
        }, 
        {
            "@id": "https://manifests.teklia.com/HIMANIS/JJ141/words_annotations/FRAN_0021_17001.json/95/line", 
            "@type": "oa:Annotation", 
            "motivation": "oa:painting", 
            "on": "http://bvmm.irht.cnrs.fr/iiif/23731/canvas/canvas-2316922#xywh=3127,820,110,220", 
            "resource": {
                "@type": "cnt:ContentAsText", 
                "chars": "PARTIES", 
                "format": "text/plain"
            }
        }, 
        {
            "@id": "https://manifests.teklia.com/HIMANIS/JJ141/words_annotations/FRAN_0021_17001.json/96/line", 
            "@type": "oa:Annotation", 
            "motivation": "oa:painting", 
            "on": "http://bvmm.irht.cnrs.fr/iiif/23731/canvas/canvas-2316922#xywh=3430,820,646,220", 
            "resource": {
                "@type": "cnt:ContentAsText", 
                "chars": "ESTREMENT", 
                "format": "text/plain"
            }
        }, 
        {
            "@id": "https://manifests.teklia.com/HIMANIS/JJ141/words_annotations/FRAN_0021_17001.json/97/line", 
            "@type": "oa:Annotation", 
            "motivation": "oa:painting", 
            "on": "http://bvmm.irht.cnrs.fr/iiif/23731/canvas/canvas-2316922#xywh=3416,728,134,142", 
            "resource": {
                "@type": "cnt:ContentAsText", 
                "chars": "DIENT", 
                "format": "text/plain"
            }
        }, 
        {
            "@id": "https://manifests.teklia.com/HIMANIS/JJ141/words_annotations/FRAN_0021_17001.json/98/line", 
            "@type": "oa:Annotation", 
            "motivation": "oa:painting", 
            "on": "http://bvmm.irht.cnrs.fr/iiif/23731/canvas/canvas-2316922#xywh=3127,820,110,220", 
            "resource": {
                "@type": "cnt:ContentAsText", 
                "chars": "PERTIES", 
                "format": "text/plain"
            }
        }, 
        {
            "@id": "https://manifests.teklia.com/HIMANIS/JJ141/words_annotations/FRAN_0021_17001.json/99/line", 
            "@type": "oa:Annotation", 
            "motivation": "oa:painting", 
            "on": "http://bvmm.irht.cnrs.fr/iiif/23731/canvas/canvas-2316922#xywh=2751,968,174,213", 
            "resource": {
                "@type": "cnt:ContentAsText", 
                "chars": "JEHANNE", 
                "format": "text/plain"
            }
        }, 
        {
            "@id": "https://manifests.teklia.com/HIMANIS/JJ141/words_annotations/FRAN_0021_17001.json/100/line", 
            "@type": "oa:Annotation", 
            "motivation": "oa:painting", 
            "on": "http://bvmm.irht.cnrs.fr/iiif/23731/canvas/canvas-2316922#xywh=3565,1203,149,219", 
            "resource": {
                "@type": "cnt:ContentAsText", 
                "chars": "ENFERME", 
                "format": "text/plain"
            }
        }, 
        {
            "@id": "https://manifests.teklia.com/HIMANIS/JJ141/words_annotations/FRAN_0021_17001.json/101/line", 
            "@type": "oa:Annotation", 
            "motivation": "oa:painting", 
            "on": "http://bvmm.irht.cnrs.fr/iiif/23731/canvas/canvas-2316922#xywh=3750,1643,269,69", 
            "resource": {
                "@type": "cnt:ContentAsText", 
                "chars": "DE", 
                "format": "text/plain"
            }
        }, 
        {
            "@id": "https://manifests.teklia.com/HIMANIS/JJ141/words_annotations/FRAN_0021_17001.json/102/line", 
            "@type": "oa:Annotation", 
            "motivation": "oa:painting", 
            "on": "http://bvmm.irht.cnrs.fr/iiif/23731/canvas/canvas-2316922#xywh=2467,820,110,220", 
            "resource": {
                "@type": "cnt:ContentAsText", 
                "chars": "QU'IL", 
                "format": "text/plain"
            }
        }, 
        {
            "@id": "https://manifests.teklia.com/HIMANIS/JJ141/words_annotations/FRAN_0021_17001.json/103/line", 
            "@type": "oa:Annotation", 
            "motivation": "oa:painting", 
            "on": "http://bvmm.irht.cnrs.fr/iiif/23731/canvas/canvas-2316922#xywh=3127,820,110,220", 
            "resource": {
                "@type": "cnt:ContentAsText", 
                "chars": "PARTES", 
                "format": "text/plain"
            }
        }, 
        {
            "@id": "https://manifests.teklia.com/HIMANIS/JJ141/words_annotations/FRAN_0021_17001.json/104/line", 
            "@type": "oa:Annotation", 
            "motivation": "oa:painting", 
            "on": "http://bvmm.irht.cnrs.fr/iiif/23731/canvas/canvas-2316922#xywh=340,1077,0,53", 
            "resource": {
                "@type": "cnt:ContentAsText", 
                "chars": "J", 
                "format": "text/plain"
            }
        }
    ]
}