{
    "@context": "http://iiif.io/api/presentation/2/context.json", 
    "@id": "https://manifests.teklia.com/HIMANIS/LAT9784/words_annotations/http_gallica.bnf.fr_iiif_ark:_12148_btv1b9080793k_f4_full_full_0_native.jpg.json", 
    "@type": "sc:AnnotationList", 
    "resources": [
        {
            "@id": "https://manifests.teklia.com/HIMANIS/LAT9784/words_annotations/http_gallica.bnf.fr_iiif_ark:_12148_btv1b9080793k_f4_full_full_0_native.jpg.json/0/line", 
            "@type": "oa:Annotation", 
            "motivation": "oa:painting", 
            "on": "http://gallica.bnf.fr/iiif/ark:/12148/btv1b9080793k/canvas/f4#xywh=2801,186,1330,94", 
            "resource": {
                "@type": "cnt:ContentAsText", 
                "chars": "PHILIPPUS", 
                "format": "text/plain"
            }
        }, 
        {
            "@id": "https://manifests.teklia.com/HIMANIS/LAT9784/words_annotations/http_gallica.bnf.fr_iiif_ark:_12148_btv1b9080793k_f4_full_full_0_native.jpg.json/1/line", 
            "@type": "oa:Annotation", 
            "motivation": "oa:painting", 
            "on": "http://gallica.bnf.fr/iiif/ark:/12148/btv1b9080793k/canvas/f4#xywh=3991,251,92,50", 
            "resource": {
                "@type": "cnt:ContentAsText", 
                "chars": "ET", 
                "format": "text/plain"
            }
        }, 
        {
            "@id": "https://manifests.teklia.com/HIMANIS/LAT9784/words_annotations/http_gallica.bnf.fr_iiif_ark:_12148_btv1b9080793k_f4_full_full_0_native.jpg.json/2/line", 
            "@type": "oa:Annotation", 
            "motivation": "oa:painting", 
            "on": "http://gallica.bnf.fr/iiif/ark:/12148/btv1b9080793k/canvas/f4#xywh=3966,0,170,95", 
            "resource": {
                "@type": "cnt:ContentAsText", 
                "chars": "DITE", 
                "format": "text/plain"
            }
        }, 
        {
            "@id": "https://manifests.teklia.com/HIMANIS/LAT9784/words_annotations/http_gallica.bnf.fr_iiif_ark:_12148_btv1b9080793k_f4_full_full_0_native.jpg.json/3/line", 
            "@type": "oa:Annotation", 
            "motivation": "oa:painting", 
            "on": "http://gallica.bnf.fr/iiif/ark:/12148/btv1b9080793k/canvas/f4#xywh=4002,419,63,71", 
            "resource": {
                "@type": "cnt:ContentAsText", 
                "chars": "LES", 
                "format": "text/plain"
            }
        }, 
        {
            "@id": "https://manifests.teklia.com/HIMANIS/LAT9784/words_annotations/http_gallica.bnf.fr_iiif_ark:_12148_btv1b9080793k_f4_full_full_0_native.jpg.json/4/line", 
            "@type": "oa:Annotation", 
            "motivation": "oa:painting", 
            "on": "http://gallica.bnf.fr/iiif/ark:/12148/btv1b9080793k/canvas/f4#xywh=4002,419,143,71", 
            "resource": {
                "@type": "cnt:ContentAsText", 
                "chars": "DILEC", 
                "format": "text/plain"
            }
        }, 
        {
            "@id": "https://manifests.teklia.com/HIMANIS/LAT9784/words_annotations/http_gallica.bnf.fr_iiif_ark:_12148_btv1b9080793k_f4_full_full_0_native.jpg.json/5/line", 
            "@type": "oa:Annotation", 
            "motivation": "oa:painting", 
            "on": "http://gallica.bnf.fr/iiif/ark:/12148/btv1b9080793k/canvas/f4#xywh=3966,0,170,95", 
            "resource": {
                "@type": "cnt:ContentAsText", 
                "chars": "DICT", 
                "format": "text/plain"
            }
        }, 
        {
            "@id": "https://manifests.teklia.com/HIMANIS/LAT9784/words_annotations/http_gallica.bnf.fr_iiif_ark:_12148_btv1b9080793k_f4_full_full_0_native.jpg.json/6/line", 
            "@type": "oa:Annotation", 
            "motivation": "oa:painting", 
            "on": "http://gallica.bnf.fr/iiif/ark:/12148/btv1b9080793k/canvas/f4#xywh=2062,260,38,18", 
            "resource": {
                "@type": "cnt:ContentAsText", 
                "chars": "DE", 
                "format": "text/plain"
            }
        }, 
        {
            "@id": "https://manifests.teklia.com/HIMANIS/LAT9784/words_annotations/http_gallica.bnf.fr_iiif_ark:_12148_btv1b9080793k_f4_full_full_0_native.jpg.json/7/line", 
            "@type": "oa:Annotation", 
            "motivation": "oa:painting", 
            "on": "http://gallica.bnf.fr/iiif/ark:/12148/btv1b9080793k/canvas/f4#xywh=2062,260,47,18", 
            "resource": {
                "@type": "cnt:ContentAsText", 
                "chars": "LES", 
                "format": "text/plain"
            }
        }, 
        {
            "@id": "https://manifests.teklia.com/HIMANIS/LAT9784/words_annotations/http_gallica.bnf.fr_iiif_ark:_12148_btv1b9080793k_f4_full_full_0_native.jpg.json/8/line", 
            "@type": "oa:Annotation", 
            "motivation": "oa:painting", 
            "on": "http://gallica.bnf.fr/iiif/ark:/12148/btv1b9080793k/canvas/f4#xywh=3991,251,79,50", 
            "resource": {
                "@type": "cnt:ContentAsText", 
                "chars": "DE", 
                "format": "text/plain"
            }
        }, 
        {
            "@id": "https://manifests.teklia.com/HIMANIS/LAT9784/words_annotations/http_gallica.bnf.fr_iiif_ark:_12148_btv1b9080793k_f4_full_full_0_native.jpg.json/9/line", 
            "@type": "oa:Annotation", 
            "motivation": "oa:painting", 
            "on": "http://gallica.bnf.fr/iiif/ark:/12148/btv1b9080793k/canvas/f4#xywh=341,266,0,43", 
            "resource": {
                "@type": "cnt:ContentAsText", 
                "chars": "P", 
                "format": "text/plain"
            }
        }, 
        {
            "@id": "https://manifests.teklia.com/HIMANIS/LAT9784/words_annotations/http_gallica.bnf.fr_iiif_ark:_12148_btv1b9080793k_f4_full_full_0_native.jpg.json/10/line", 
            "@type": "oa:Annotation", 
            "motivation": "oa:painting", 
            "on": "http://gallica.bnf.fr/iiif/ark:/12148/btv1b9080793k/canvas/f4#xywh=2801,186,1330,94", 
            "resource": {
                "@type": "cnt:ContentAsText", 
                "chars": "PHILIPPES", 
                "format": "text/plain"
            }
        }, 
        {
            "@id": "https://manifests.teklia.com/HIMANIS/LAT9784/words_annotations/http_gallica.bnf.fr_iiif_ark:_12148_btv1b9080793k_f4_full_full_0_native.jpg.json/11/line", 
            "@type": "oa:Annotation", 
            "motivation": "oa:painting", 
            "on": "http://gallica.bnf.fr/iiif/ark:/12148/btv1b9080793k/canvas/f4#xywh=4065,419,71,71", 
            "resource": {
                "@type": "cnt:ContentAsText", 
                "chars": "DE", 
                "format": "text/plain"
            }
        }, 
        {
            "@id": "https://manifests.teklia.com/HIMANIS/LAT9784/words_annotations/http_gallica.bnf.fr_iiif_ark:_12148_btv1b9080793k_f4_full_full_0_native.jpg.json/12/line", 
            "@type": "oa:Annotation", 
            "motivation": "oa:painting", 
            "on": "http://gallica.bnf.fr/iiif/ark:/12148/btv1b9080793k/canvas/f4#xywh=4002,419,49,71", 
            "resource": {
                "@type": "cnt:ContentAsText", 
                "chars": "LE", 
                "format": "text/plain"
            }
        }, 
        {
            "@id": "https://manifests.teklia.com/HIMANIS/LAT9784/words_annotations/http_gallica.bnf.fr_iiif_ark:_12148_btv1b9080793k_f4_full_full_0_native.jpg.json/13/line", 
            "@type": "oa:Annotation", 
            "motivation": "oa:painting", 
            "on": "http://gallica.bnf.fr/iiif/ark:/12148/btv1b9080793k/canvas/f4#xywh=1589,242,187,31", 
            "resource": {
                "@type": "cnt:ContentAsText", 
                "chars": "CCC", 
                "format": "text/plain"
            }
        }, 
        {
            "@id": "https://manifests.teklia.com/HIMANIS/LAT9784/words_annotations/http_gallica.bnf.fr_iiif_ark:_12148_btv1b9080793k_f4_full_full_0_native.jpg.json/14/line", 
            "@type": "oa:Annotation", 
            "motivation": "oa:painting", 
            "on": "http://gallica.bnf.fr/iiif/ark:/12148/btv1b9080793k/canvas/f4#xywh=3966,0,6,95", 
            "resource": {
                "@type": "cnt:ContentAsText", 
                "chars": "DE", 
                "format": "text/plain"
            }
        }, 
        {
            "@id": "https://manifests.teklia.com/HIMANIS/LAT9784/words_annotations/http_gallica.bnf.fr_iiif_ark:_12148_btv1b9080793k_f4_full_full_0_native.jpg.json/15/line", 
            "@type": "oa:Annotation", 
            "motivation": "oa:painting", 
            "on": "http://gallica.bnf.fr/iiif/ark:/12148/btv1b9080793k/canvas/f4#xywh=2062,260,42,18", 
            "resource": {
                "@type": "cnt:ContentAsText", 
                "chars": "ET", 
                "format": "text/plain"
            }
        }
    ]
}