{
    "@context": "http://iiif.io/api/presentation/2/context.json", 
    "@id": "https://manifests.teklia.com/ORIFLAMMS/PsautierIMS/btv1b8538808p_f244.json", 
    "@type": "sc:AnnotationList", 
    "resources": [
        {
            "@id": "https://manifests.teklia.com/ORIFLAMMS/PsautierIMS/btv1b8538808p_f244.json/0/0", 
            "@type": "oa:Annotation", 
            "motivation": "oa:painting", 
            "on": "http://gallica.bnf.fr/iiif/ark:/12148/btv1b8538808p/canvas/f244#xywh=990,693,284,133", 
            "resource": {
                "@type": "cnt:ContentAsText", 
                "chars": "in", 
                "format": "text/plain"
            }
        }, 
        {
            "@id": "https://manifests.teklia.com/ORIFLAMMS/PsautierIMS/btv1b8538808p_f244.json/0/1", 
            "@type": "oa:Annotation", 
            "motivation": "oa:painting", 
            "on": "http://gallica.bnf.fr/iiif/ark:/12148/btv1b8538808p/canvas/f244#xywh=1275,688,529,121", 
            "resource": {
                "@type": "cnt:ContentAsText", 
                "chars": "conveniendo", 
                "format": "text/plain"
            }
        }, 
        {
            "@id": "https://manifests.teklia.com/ORIFLAMMS/PsautierIMS/btv1b8538808p_f244.json/0/2", 
            "@type": "oa:Annotation", 
            "motivation": "oa:painting", 
            "on": "http://gallica.bnf.fr/iiif/ark:/12148/btv1b8538808p/canvas/f244#xywh=1805,688,365,117", 
            "resource": {
                "@type": "cnt:ContentAsText", 
                "chars": "populos", 
                "format": "text/plain"
            }
        }, 
        {
            "@id": "https://manifests.teklia.com/ORIFLAMMS/PsautierIMS/btv1b8538808p_f244.json/1/0", 
            "@type": "oa:Annotation", 
            "motivation": "oa:painting", 
            "on": "http://gallica.bnf.fr/iiif/ark:/12148/btv1b8538808p/canvas/f244#xywh=994,800,137,116", 
            "resource": {
                "@type": "cnt:ContentAsText", 
                "chars": "in", 
                "format": "text/plain"
            }
        }, 
        {
            "@id": "https://manifests.teklia.com/ORIFLAMMS/PsautierIMS/btv1b8538808p_f244.json/1/1", 
            "@type": "oa:Annotation", 
            "motivation": "oa:painting", 
            "on": "http://gallica.bnf.fr/iiif/ark:/12148/btv1b8538808p/canvas/f244#xywh=1132,798,310,118", 
            "resource": {
                "@type": "cnt:ContentAsText", 
                "chars": "unum", 
                "format": "text/plain"
            }
        }, 
        {
            "@id": "https://manifests.teklia.com/ORIFLAMMS/PsautierIMS/btv1b8538808p_f244.json/1/2", 
            "@type": "oa:Annotation", 
            "motivation": "oa:painting", 
            "on": "http://gallica.bnf.fr/iiif/ark:/12148/btv1b8538808p/canvas/f244#xywh=1443,798,83,116", 
            "resource": {
                "@type": "cnt:ContentAsText", 
                "chars": "et", 
                "format": "text/plain"
            }
        }, 
        {
            "@id": "https://manifests.teklia.com/ORIFLAMMS/PsautierIMS/btv1b8538808p_f244.json/1/3", 
            "@type": "oa:Annotation", 
            "motivation": "oa:painting", 
            "on": "http://gallica.bnf.fr/iiif/ark:/12148/btv1b8538808p/canvas/f244#xywh=1527,798,213,119", 
            "resource": {
                "@type": "cnt:ContentAsText", 
                "chars": "reges", 
                "format": "text/plain"
            }
        }, 
        {
            "@id": "https://manifests.teklia.com/ORIFLAMMS/PsautierIMS/btv1b8538808p_f244.json/1/4", 
            "@type": "oa:Annotation", 
            "motivation": "oa:painting", 
            "on": "http://gallica.bnf.fr/iiif/ark:/12148/btv1b8538808p/canvas/f244#xywh=1741,801,105,116", 
            "resource": {
                "@type": "cnt:ContentAsText", 
                "chars": "ut", 
                "format": "text/plain"
            }
        }, 
        {
            "@id": "https://manifests.teklia.com/ORIFLAMMS/PsautierIMS/btv1b8538808p_f244.json/1/5", 
            "@type": "oa:Annotation", 
            "motivation": "oa:painting", 
            "on": "http://gallica.bnf.fr/iiif/ark:/12148/btv1b8538808p/canvas/f244#xywh=1847,801,387,116", 
            "resource": {
                "@type": "cnt:ContentAsText", 
                "chars": "serviant", 
                "format": "text/plain"
            }
        }, 
        {
            "@id": "https://manifests.teklia.com/ORIFLAMMS/PsautierIMS/btv1b8538808p_f244.json/2/0", 
            "@type": "oa:Annotation", 
            "motivation": "oa:painting", 
            "on": "http://gallica.bnf.fr/iiif/ark:/12148/btv1b8538808p/canvas/f244#xywh=1016,919,370,119", 
            "resource": {
                "@type": "cnt:ContentAsText", 
                "chars": "domino", 
                "format": "text/plain"
            }
        }, 
        {
            "@id": "https://manifests.teklia.com/ORIFLAMMS/PsautierIMS/btv1b8538808p_f244.json/2/1", 
            "@type": "oa:Annotation", 
            "motivation": "oa:painting", 
            "on": "http://gallica.bnf.fr/iiif/ark:/12148/btv1b8538808p/canvas/f244#xywh=1387,924,33,116", 
            "resource": {
                "@type": "cnt:ContentAsText", 
                "chars": ".", 
                "format": "text/plain"
            }
        }, 
        {
            "@id": "https://manifests.teklia.com/ORIFLAMMS/PsautierIMS/btv1b8538808p_f244.json/3/0", 
            "@type": "oa:Annotation", 
            "motivation": "oa:painting", 
            "on": "http://gallica.bnf.fr/iiif/ark:/12148/btv1b8538808p/canvas/f244#xywh=1000,1037,558,126", 
            "resource": {
                "@type": "cnt:ContentAsText", 
                "chars": "respondit", 
                "format": "text/plain"
            }
        }, 
        {
            "@id": "https://manifests.teklia.com/ORIFLAMMS/PsautierIMS/btv1b8538808p_f244.json/3/1", 
            "@type": "oa:Annotation", 
            "motivation": "oa:painting", 
            "on": "http://gallica.bnf.fr/iiif/ark:/12148/btv1b8538808p/canvas/f244#xywh=1559,1036,84,117", 
            "resource": {
                "@type": "cnt:ContentAsText", 
                "chars": "ei", 
                "format": "text/plain"
            }
        }, 
        {
            "@id": "https://manifests.teklia.com/ORIFLAMMS/PsautierIMS/btv1b8538808p_f244.json/3/2", 
            "@type": "oa:Annotation", 
            "motivation": "oa:painting", 
            "on": "http://gallica.bnf.fr/iiif/ark:/12148/btv1b8538808p/canvas/f244#xywh=1644,1035,110,117", 
            "resource": {
                "@type": "cnt:ContentAsText", 
                "chars": "in", 
                "format": "text/plain"
            }
        }, 
        {
            "@id": "https://manifests.teklia.com/ORIFLAMMS/PsautierIMS/btv1b8538808p_f244.json/3/3", 
            "@type": "oa:Annotation", 
            "motivation": "oa:painting", 
            "on": "http://gallica.bnf.fr/iiif/ark:/12148/btv1b8538808p/canvas/f244#xywh=1755,1035,155,116", 
            "resource": {
                "@type": "cnt:ContentAsText", 
                "chars": "via", 
                "format": "text/plain"
            }
        }, 
        {
            "@id": "https://manifests.teklia.com/ORIFLAMMS/PsautierIMS/btv1b8538808p_f244.json/3/4", 
            "@type": "oa:Annotation", 
            "motivation": "oa:painting", 
            "on": "http://gallica.bnf.fr/iiif/ark:/12148/btv1b8538808p/canvas/f244#xywh=1911,1035,340,116", 
            "resource": {
                "@type": "cnt:ContentAsText", 
                "chars": "virtutis", 
                "format": "text/plain"
            }
        }, 
        {
            "@id": "https://manifests.teklia.com/ORIFLAMMS/PsautierIMS/btv1b8538808p_f244.json/4/0", 
            "@type": "oa:Annotation", 
            "motivation": "oa:painting", 
            "on": "http://gallica.bnf.fr/iiif/ark:/12148/btv1b8538808p/canvas/f244#xywh=1026,1161,149,118", 
            "resource": {
                "@type": "cnt:ContentAsText", 
                "chars": "sue", 
                "format": "text/plain"
            }
        }, 
        {
            "@id": "https://manifests.teklia.com/ORIFLAMMS/PsautierIMS/btv1b8538808p_f244.json/4/1", 
            "@type": "oa:Annotation", 
            "motivation": "oa:painting", 
            "on": "http://gallica.bnf.fr/iiif/ark:/12148/btv1b8538808p/canvas/f244#xywh=1176,1157,481,120", 
            "resource": {
                "@type": "cnt:ContentAsText", 
                "chars": "paucitatem", 
                "format": "text/plain"
            }
        }, 
        {
            "@id": "https://manifests.teklia.com/ORIFLAMMS/PsautierIMS/btv1b8538808p_f244.json/4/2", 
            "@type": "oa:Annotation", 
            "motivation": "oa:painting", 
            "on": "http://gallica.bnf.fr/iiif/ark:/12148/btv1b8538808p/canvas/f244#xywh=1658,1157,333,117", 
            "resource": {
                "@type": "cnt:ContentAsText", 
                "chars": "dierum", 
                "format": "text/plain"
            }
        }, 
        {
            "@id": "https://manifests.teklia.com/ORIFLAMMS/PsautierIMS/btv1b8538808p_f244.json/4/3", 
            "@type": "oa:Annotation", 
            "motivation": "oa:painting", 
            "on": "http://gallica.bnf.fr/iiif/ark:/12148/btv1b8538808p/canvas/f244#xywh=1992,1158,242,116", 
            "resource": {
                "@type": "cnt:ContentAsText", 
                "chars": "meo{[r[um]](\ua75d)}", 
                "format": "text/plain"
            }
        }, 
        {
            "@id": "https://manifests.teklia.com/ORIFLAMMS/PsautierIMS/btv1b8538808p_f244.json/5/0", 
            "@type": "oa:Annotation", 
            "motivation": "oa:painting", 
            "on": "http://gallica.bnf.fr/iiif/ark:/12148/btv1b8538808p/canvas/f244#xywh=1022,1287,331,116", 
            "resource": {
                "@type": "cnt:ContentAsText", 
                "chars": "nuntia", 
                "format": "text/plain"
            }
        }, 
        {
            "@id": "https://manifests.teklia.com/ORIFLAMMS/PsautierIMS/btv1b8538808p_f244.json/5/1", 
            "@type": "oa:Annotation", 
            "motivation": "oa:painting", 
            "on": "http://gallica.bnf.fr/iiif/ark:/12148/btv1b8538808p/canvas/f244#xywh=1354,1285,252,118", 
            "resource": {
                "@type": "cnt:ContentAsText", 
                "chars": "michi", 
                "format": "text/plain"
            }
        }, 
        {
            "@id": "https://manifests.teklia.com/ORIFLAMMS/PsautierIMS/btv1b8538808p_f244.json/5/2", 
            "@type": "oa:Annotation", 
            "motivation": "oa:painting", 
            "on": "http://gallica.bnf.fr/iiif/ark:/12148/btv1b8538808p/canvas/f244#xywh=1607,1285,43,116", 
            "resource": {
                "@type": "cnt:ContentAsText", 
                "chars": ".", 
                "format": "text/plain"
            }
        }, 
        {
            "@id": "https://manifests.teklia.com/ORIFLAMMS/PsautierIMS/btv1b8538808p_f244.json/6/0", 
            "@type": "oa:Annotation", 
            "motivation": "oa:painting", 
            "on": "http://gallica.bnf.fr/iiif/ark:/12148/btv1b8538808p/canvas/f244#xywh=1004,1394,256,120", 
            "resource": {
                "@type": "cnt:ContentAsText", 
                "chars": "ne", 
                "format": "text/plain"
            }
        }, 
        {
            "@id": "https://manifests.teklia.com/ORIFLAMMS/PsautierIMS/btv1b8538808p_f244.json/6/1", 
            "@type": "oa:Annotation", 
            "motivation": "oa:painting", 
            "on": "http://gallica.bnf.fr/iiif/ark:/12148/btv1b8538808p/canvas/f244#xywh=1261,1398,287,116", 
            "resource": {
                "@type": "cnt:ContentAsText", 
                "chars": "revoces", 
                "format": "text/plain"
            }
        }, 
        {
            "@id": "https://manifests.teklia.com/ORIFLAMMS/PsautierIMS/btv1b8538808p_f244.json/6/2", 
            "@type": "oa:Annotation", 
            "motivation": "oa:painting", 
            "on": "http://gallica.bnf.fr/iiif/ark:/12148/btv1b8538808p/canvas/f244#xywh=1549,1398,125,116", 
            "resource": {
                "@type": "cnt:ContentAsText", 
                "chars": "me", 
                "format": "text/plain"
            }
        }, 
        {
            "@id": "https://manifests.teklia.com/ORIFLAMMS/PsautierIMS/btv1b8538808p_f244.json/6/3", 
            "@type": "oa:Annotation", 
            "motivation": "oa:painting", 
            "on": "http://gallica.bnf.fr/iiif/ark:/12148/btv1b8538808p/canvas/f244#xywh=1675,1398,102,116", 
            "resource": {
                "@type": "cnt:ContentAsText", 
                "chars": "in", 
                "format": "text/plain"
            }
        }, 
        {
            "@id": "https://manifests.teklia.com/ORIFLAMMS/PsautierIMS/btv1b8538808p_f244.json/6/4", 
            "@type": "oa:Annotation", 
            "motivation": "oa:painting", 
            "on": "http://gallica.bnf.fr/iiif/ark:/12148/btv1b8538808p/canvas/f244#xywh=1778,1398,371,117", 
            "resource": {
                "@type": "cnt:ContentAsText", 
                "chars": "dimidio", 
                "format": "text/plain"
            }
        }, 
        {
            "@id": "https://manifests.teklia.com/ORIFLAMMS/PsautierIMS/btv1b8538808p_f244.json/7/0", 
            "@type": "oa:Annotation", 
            "motivation": "oa:painting", 
            "on": "http://gallica.bnf.fr/iiif/ark:/12148/btv1b8538808p/canvas/f244#xywh=1027,1514,340,117", 
            "resource": {
                "@type": "cnt:ContentAsText", 
                "chars": "dierum", 
                "format": "text/plain"
            }
        }, 
        {
            "@id": "https://manifests.teklia.com/ORIFLAMMS/PsautierIMS/btv1b8538808p_f244.json/7/1", 
            "@type": "oa:Annotation", 
            "motivation": "oa:painting", 
            "on": "http://gallica.bnf.fr/iiif/ark:/12148/btv1b8538808p/canvas/f244#xywh=1368,1514,278,116", 
            "resource": {
                "@type": "cnt:ContentAsText", 
                "chars": "meorum", 
                "format": "text/plain"
            }
        }, 
        {
            "@id": "https://manifests.teklia.com/ORIFLAMMS/PsautierIMS/btv1b8538808p_f244.json/7/2", 
            "@type": "oa:Annotation", 
            "motivation": "oa:painting", 
            "on": "http://gallica.bnf.fr/iiif/ark:/12148/btv1b8538808p/canvas/f244#xywh=1647,1514,94,116", 
            "resource": {
                "@type": "cnt:ContentAsText", 
                "chars": "in", 
                "format": "text/plain"
            }
        }, 
        {
            "@id": "https://manifests.teklia.com/ORIFLAMMS/PsautierIMS/btv1b8538808p_f244.json/7/3", 
            "@type": "oa:Annotation", 
            "motivation": "oa:painting", 
            "on": "http://gallica.bnf.fr/iiif/ark:/12148/btv1b8538808p/canvas/f244#xywh=1742,1514,492,117", 
            "resource": {
                "@type": "cnt:ContentAsText", 
                "chars": "generatione[m]", 
                "format": "text/plain"
            }
        }, 
        {
            "@id": "https://manifests.teklia.com/ORIFLAMMS/PsautierIMS/btv1b8538808p_f244.json/8/0", 
            "@type": "oa:Annotation", 
            "motivation": "oa:painting", 
            "on": "http://gallica.bnf.fr/iiif/ark:/12148/btv1b8538808p/canvas/f244#xywh=1031,1628,79,116", 
            "resource": {
                "@type": "cnt:ContentAsText", 
                "chars": "et", 
                "format": "text/plain"
            }
        }, 
        {
            "@id": "https://manifests.teklia.com/ORIFLAMMS/PsautierIMS/btv1b8538808p_f244.json/8/1", 
            "@type": "oa:Annotation", 
            "motivation": "oa:painting", 
            "on": "http://gallica.bnf.fr/iiif/ark:/12148/btv1b8538808p/canvas/f244#xywh=1111,1627,552,117", 
            "resource": {
                "@type": "cnt:ContentAsText", 
                "chars": "generationem", 
                "format": "text/plain"
            }
        }, 
        {
            "@id": "https://manifests.teklia.com/ORIFLAMMS/PsautierIMS/btv1b8538808p_f244.json/8/2", 
            "@type": "oa:Annotation", 
            "motivation": "oa:painting", 
            "on": "http://gallica.bnf.fr/iiif/ark:/12148/btv1b8538808p/canvas/f244#xywh=1664,1628,205,118", 
            "resource": {
                "@type": "cnt:ContentAsText", 
                "chars": "anni", 
                "format": "text/plain"
            }
        }, 
        {
            "@id": "https://manifests.teklia.com/ORIFLAMMS/PsautierIMS/btv1b8538808p_f244.json/8/3", 
            "@type": "oa:Annotation", 
            "motivation": "oa:painting", 
            "on": "http://gallica.bnf.fr/iiif/ark:/12148/btv1b8538808p/canvas/f244#xywh=1870,1630,124,116", 
            "resource": {
                "@type": "cnt:ContentAsText", 
                "chars": "tui", 
                "format": "text/plain"
            }
        }, 
        {
            "@id": "https://manifests.teklia.com/ORIFLAMMS/PsautierIMS/btv1b8538808p_f244.json/8/4", 
            "@type": "oa:Annotation", 
            "motivation": "oa:painting", 
            "on": "http://gallica.bnf.fr/iiif/ark:/12148/btv1b8538808p/canvas/f244#xywh=1995,1630,39,116", 
            "resource": {
                "@type": "cnt:ContentAsText", 
                "chars": ".", 
                "format": "text/plain"
            }
        }, 
        {
            "@id": "https://manifests.teklia.com/ORIFLAMMS/PsautierIMS/btv1b8538808p_f244.json/9/0", 
            "@type": "oa:Annotation", 
            "motivation": "oa:painting", 
            "on": "http://gallica.bnf.fr/iiif/ark:/12148/btv1b8538808p/canvas/f244#xywh=1016,1746,401,124", 
            "resource": {
                "@type": "cnt:ContentAsText", 
                "chars": "initio", 
                "format": "text/plain"
            }
        }, 
        {
            "@id": "https://manifests.teklia.com/ORIFLAMMS/PsautierIMS/btv1b8538808p_f244.json/9/1", 
            "@type": "oa:Annotation", 
            "motivation": "oa:painting", 
            "on": "http://gallica.bnf.fr/iiif/ark:/12148/btv1b8538808p/canvas/f244#xywh=1418,1745,108,117", 
            "resource": {
                "@type": "cnt:ContentAsText", 
                "chars": "tu", 
                "format": "text/plain"
            }
        }, 
        {
            "@id": "https://manifests.teklia.com/ORIFLAMMS/PsautierIMS/btv1b8538808p_f244.json/9/2", 
            "@type": "oa:Annotation", 
            "motivation": "oa:painting", 
            "on": "http://gallica.bnf.fr/iiif/ark:/12148/btv1b8538808p/canvas/f244#xywh=1527,1743,331,118", 
            "resource": {
                "@type": "cnt:ContentAsText", 
                "chars": "domine", 
                "format": "text/plain"
            }
        }, 
        {
            "@id": "https://manifests.teklia.com/ORIFLAMMS/PsautierIMS/btv1b8538808p_f244.json/9/3", 
            "@type": "oa:Annotation", 
            "motivation": "oa:painting", 
            "on": "http://gallica.bnf.fr/iiif/ark:/12148/btv1b8538808p/canvas/f244#xywh=1859,1743,295,116", 
            "resource": {
                "@type": "cnt:ContentAsText", 
                "chars": "terram", 
                "format": "text/plain"
            }
        }, 
        {
            "@id": "https://manifests.teklia.com/ORIFLAMMS/PsautierIMS/btv1b8538808p_f244.json/10/0", 
            "@type": "oa:Annotation", 
            "motivation": "oa:painting", 
            "on": "http://gallica.bnf.fr/iiif/ark:/12148/btv1b8538808p/canvas/f244#xywh=1033,1860,348,118", 
            "resource": {
                "@type": "cnt:ContentAsText", 
                "chars": "fundasti", 
                "format": "text/plain"
            }
        }, 
        {
            "@id": "https://manifests.teklia.com/ORIFLAMMS/PsautierIMS/btv1b8538808p_f244.json/10/1", 
            "@type": "oa:Annotation", 
            "motivation": "oa:painting", 
            "on": "http://gallica.bnf.fr/iiif/ark:/12148/btv1b8538808p/canvas/f244#xywh=1382,1861,88,116", 
            "resource": {
                "@type": "cnt:ContentAsText", 
                "chars": "et", 
                "format": "text/plain"
            }
        }, 
        {
            "@id": "https://manifests.teklia.com/ORIFLAMMS/PsautierIMS/btv1b8538808p_f244.json/10/2", 
            "@type": "oa:Annotation", 
            "motivation": "oa:painting", 
            "on": "http://gallica.bnf.fr/iiif/ark:/12148/btv1b8538808p/canvas/f244#xywh=1471,1861,219,117", 
            "resource": {
                "@type": "cnt:ContentAsText", 
                "chars": "opera", 
                "format": "text/plain"
            }
        }, 
        {
            "@id": "https://manifests.teklia.com/ORIFLAMMS/PsautierIMS/btv1b8538808p_f244.json/10/3", 
            "@type": "oa:Annotation", 
            "motivation": "oa:painting", 
            "on": "http://gallica.bnf.fr/iiif/ark:/12148/btv1b8538808p/canvas/f244#xywh=1691,1863,448,117", 
            "resource": {
                "@type": "cnt:ContentAsText", 
                "chars": "manuum", 
                "format": "text/plain"
            }
        }, 
        {
            "@id": "https://manifests.teklia.com/ORIFLAMMS/PsautierIMS/btv1b8538808p_f244.json/11/0", 
            "@type": "oa:Annotation", 
            "motivation": "oa:painting", 
            "on": "http://gallica.bnf.fr/iiif/ark:/12148/btv1b8538808p/canvas/f244#xywh=1024,1982,370,118", 
            "resource": {
                "@type": "cnt:ContentAsText", 
                "chars": "tuarum", 
                "format": "text/plain"
            }
        }, 
        {
            "@id": "https://manifests.teklia.com/ORIFLAMMS/PsautierIMS/btv1b8538808p_f244.json/11/1", 
            "@type": "oa:Annotation", 
            "motivation": "oa:painting", 
            "on": "http://gallica.bnf.fr/iiif/ark:/12148/btv1b8538808p/canvas/f244#xywh=1395,1979,203,119", 
            "resource": {
                "@type": "cnt:ContentAsText", 
                "chars": "sunt", 
                "format": "text/plain"
            }
        }, 
        {
            "@id": "https://manifests.teklia.com/ORIFLAMMS/PsautierIMS/btv1b8538808p_f244.json/11/2", 
            "@type": "oa:Annotation", 
            "motivation": "oa:painting", 
            "on": "http://gallica.bnf.fr/iiif/ark:/12148/btv1b8538808p/canvas/f244#xywh=1599,1978,130,120", 
            "resource": {
                "@type": "cnt:ContentAsText", 
                "chars": "celi", 
                "format": "text/plain"
            }
        }, 
        {
            "@id": "https://manifests.teklia.com/ORIFLAMMS/PsautierIMS/btv1b8538808p_f244.json/11/3", 
            "@type": "oa:Annotation", 
            "motivation": "oa:painting", 
            "on": "http://gallica.bnf.fr/iiif/ark:/12148/btv1b8538808p/canvas/f244#xywh=1730,1982,27,116", 
            "resource": {
                "@type": "cnt:ContentAsText", 
                "chars": ".", 
                "format": "text/plain"
            }
        }, 
        {
            "@id": "https://manifests.teklia.com/ORIFLAMMS/PsautierIMS/btv1b8538808p_f244.json/12/0", 
            "@type": "oa:Annotation", 
            "motivation": "oa:painting", 
            "on": "http://gallica.bnf.fr/iiif/ark:/12148/btv1b8538808p/canvas/f244#xywh=1017,2084,303,130", 
            "resource": {
                "@type": "cnt:ContentAsText", 
                "chars": "ipsi", 
                "format": "text/plain"
            }
        }, 
        {
            "@id": "https://manifests.teklia.com/ORIFLAMMS/PsautierIMS/btv1b8538808p_f244.json/12/1", 
            "@type": "oa:Annotation", 
            "motivation": "oa:painting", 
            "on": "http://gallica.bnf.fr/iiif/ark:/12148/btv1b8538808p/canvas/f244#xywh=1321,2095,393,119", 
            "resource": {
                "@type": "cnt:ContentAsText", 
                "chars": "peribunt", 
                "format": "text/plain"
            }
        }, 
        {
            "@id": "https://manifests.teklia.com/ORIFLAMMS/PsautierIMS/btv1b8538808p_f244.json/12/2", 
            "@type": "oa:Annotation", 
            "motivation": "oa:painting", 
            "on": "http://gallica.bnf.fr/iiif/ark:/12148/btv1b8538808p/canvas/f244#xywh=1715,2095,106,116", 
            "resource": {
                "@type": "cnt:ContentAsText", 
                "chars": "tu", 
                "format": "text/plain"
            }
        }, 
        {
            "@id": "https://manifests.teklia.com/ORIFLAMMS/PsautierIMS/btv1b8538808p_f244.json/12/3", 
            "@type": "oa:Annotation", 
            "motivation": "oa:painting", 
            "on": "http://gallica.bnf.fr/iiif/ark:/12148/btv1b8538808p/canvas/f244#xywh=1822,2095,294,118", 
            "resource": {
                "@type": "cnt:ContentAsText", 
                "chars": "autem", 
                "format": "text/plain"
            }
        }, 
        {
            "@id": "https://manifests.teklia.com/ORIFLAMMS/PsautierIMS/btv1b8538808p_f244.json/12/4", 
            "@type": "oa:Annotation", 
            "motivation": "oa:painting", 
            "on": "http://gallica.bnf.fr/iiif/ark:/12148/btv1b8538808p/canvas/f244#xywh=2117,2097,88,116", 
            "resource": {
                "@type": "cnt:ContentAsText", 
                "chars": "{[p[er]]((\ua751))}", 
                "format": "text/plain"
            }
        }, 
        {
            "@id": "https://manifests.teklia.com/ORIFLAMMS/PsautierIMS/btv1b8538808p_f244.json/13/0", 
            "@type": "oa:Annotation", 
            "motivation": "oa:painting", 
            "on": "http://gallica.bnf.fr/iiif/ark:/12148/btv1b8538808p/canvas/f244#xywh=1028,2215,304,116", 
            "resource": {
                "@type": "cnt:ContentAsText", 
                "chars": "manes", 
                "format": "text/plain"
            }
        }, 
        {
            "@id": "https://manifests.teklia.com/ORIFLAMMS/PsautierIMS/btv1b8538808p_f244.json/13/1", 
            "@type": "oa:Annotation", 
            "motivation": "oa:painting", 
            "on": "http://gallica.bnf.fr/iiif/ark:/12148/btv1b8538808p/canvas/f244#xywh=1333,2214,74,117", 
            "resource": {
                "@type": "cnt:ContentAsText", 
                "chars": "et", 
                "format": "text/plain"
            }
        }, 
        {
            "@id": "https://manifests.teklia.com/ORIFLAMMS/PsautierIMS/btv1b8538808p_f244.json/13/2", 
            "@type": "oa:Annotation", 
            "motivation": "oa:painting", 
            "on": "http://gallica.bnf.fr/iiif/ark:/12148/btv1b8538808p/canvas/f244#xywh=1408,2213,296,117", 
            "resource": {
                "@type": "cnt:ContentAsText", 
                "chars": "omnes", 
                "format": "text/plain"
            }
        }, 
        {
            "@id": "https://manifests.teklia.com/ORIFLAMMS/PsautierIMS/btv1b8538808p_f244.json/13/3", 
            "@type": "oa:Annotation", 
            "motivation": "oa:painting", 
            "on": "http://gallica.bnf.fr/iiif/ark:/12148/btv1b8538808p/canvas/f244#xywh=1705,2213,205,116", 
            "resource": {
                "@type": "cnt:ContentAsText", 
                "chars": "sicut", 
                "format": "text/plain"
            }
        }, 
        {
            "@id": "https://manifests.teklia.com/ORIFLAMMS/PsautierIMS/btv1b8538808p_f244.json/13/4", 
            "@type": "oa:Annotation", 
            "motivation": "oa:painting", 
            "on": "http://gallica.bnf.fr/iiif/ark:/12148/btv1b8538808p/canvas/f244#xywh=1911,2212,221,117", 
            "resource": {
                "@type": "cnt:ContentAsText", 
                "chars": "vesti", 
                "format": "text/plain"
            }
        }, 
        {
            "@id": "https://manifests.teklia.com/ORIFLAMMS/PsautierIMS/btv1b8538808p_f244.json/14/0", 
            "@type": "oa:Annotation", 
            "motivation": "oa:painting", 
            "on": "http://gallica.bnf.fr/iiif/ark:/12148/btv1b8538808p/canvas/f244#xywh=1024,2331,394,124", 
            "resource": {
                "@type": "cnt:ContentAsText", 
                "chars": "mentum", 
                "format": "text/plain"
            }
        }, 
        {
            "@id": "https://manifests.teklia.com/ORIFLAMMS/PsautierIMS/btv1b8538808p_f244.json/14/1", 
            "@type": "oa:Annotation", 
            "motivation": "oa:painting", 
            "on": "http://gallica.bnf.fr/iiif/ark:/12148/btv1b8538808p/canvas/f244#xywh=1419,2328,470,118", 
            "resource": {
                "@type": "cnt:ContentAsText", 
                "chars": "veterascent", 
                "format": "text/plain"
            }
        }, 
        {
            "@id": "https://manifests.teklia.com/ORIFLAMMS/PsautierIMS/btv1b8538808p_f244.json/14/2", 
            "@type": "oa:Annotation", 
            "motivation": "oa:painting", 
            "on": "http://gallica.bnf.fr/iiif/ark:/12148/btv1b8538808p/canvas/f244#xywh=1890,2332,38,116", 
            "resource": {
                "@type": "cnt:ContentAsText", 
                "chars": ".", 
                "format": "text/plain"
            }
        }, 
        {
            "@id": "https://manifests.teklia.com/ORIFLAMMS/PsautierIMS/btv1b8538808p_f244.json/15/0", 
            "@type": "oa:Annotation", 
            "motivation": "oa:painting", 
            "on": "http://gallica.bnf.fr/iiif/ark:/12148/btv1b8538808p/canvas/f244#xywh=1017,2450,238,119", 
            "resource": {
                "@type": "cnt:ContentAsText", 
                "chars": "et", 
                "format": "text/plain"
            }
        }, 
        {
            "@id": "https://manifests.teklia.com/ORIFLAMMS/PsautierIMS/btv1b8538808p_f244.json/15/1", 
            "@type": "oa:Annotation", 
            "motivation": "oa:painting", 
            "on": "http://gallica.bnf.fr/iiif/ark:/12148/btv1b8538808p/canvas/f244#xywh=1256,2448,201,118", 
            "resource": {
                "@type": "cnt:ContentAsText", 
                "chars": "sicut", 
                "format": "text/plain"
            }
        }, 
        {
            "@id": "https://manifests.teklia.com/ORIFLAMMS/PsautierIMS/btv1b8538808p_f244.json/15/2", 
            "@type": "oa:Annotation", 
            "motivation": "oa:painting", 
            "on": "http://gallica.bnf.fr/iiif/ark:/12148/btv1b8538808p/canvas/f244#xywh=1458,2448,470,117", 
            "resource": {
                "@type": "cnt:ContentAsText", 
                "chars": "opertorium", 
                "format": "text/plain"
            }
        }, 
        {
            "@id": "https://manifests.teklia.com/ORIFLAMMS/PsautierIMS/btv1b8538808p_f244.json/15/3", 
            "@type": "oa:Annotation", 
            "motivation": "oa:painting", 
            "on": "http://gallica.bnf.fr/iiif/ark:/12148/btv1b8538808p/canvas/f244#xywh=1929,2449,262,118", 
            "resource": {
                "@type": "cnt:ContentAsText", 
                "chars": "muta", 
                "format": "text/plain"
            }
        }
    ]
}