{
    "@context": "http://iiif.io/api/presentation/2/context.json", 
    "@id": "https://manifests.teklia.com/ORIFLAMMS/PsautierIMS/btv1b55009437p_f266.json", 
    "@type": "sc:AnnotationList", 
    "resources": [
        {
            "@id": "https://manifests.teklia.com/ORIFLAMMS/PsautierIMS/btv1b55009437p_f266.json/0/0", 
            "@type": "oa:Annotation", 
            "motivation": "oa:painting", 
            "on": "http://gallica.bnf.fr/iiif/ark:/12148/btv1b55009437p/canvas/f266#xywh=520,386,338,82", 
            "resource": {
                "@type": "cnt:ContentAsText", 
                "chars": "tabuntur", 
                "format": "text/plain"
            }
        }, 
        {
            "@id": "https://manifests.teklia.com/ORIFLAMMS/PsautierIMS/btv1b55009437p_f266.json/0/1", 
            "@type": "oa:Annotation", 
            "motivation": "oa:painting", 
            "on": "http://gallica.bnf.fr/iiif/ark:/12148/btv1b55009437p/canvas/f266#xywh=859,385,79,82", 
            "resource": {
                "@type": "cnt:ContentAsText", 
                "chars": "tu", 
                "format": "text/plain"
            }
        }, 
        {
            "@id": "https://manifests.teklia.com/ORIFLAMMS/PsautierIMS/btv1b55009437p_f266.json/0/2", 
            "@type": "oa:Annotation", 
            "motivation": "oa:painting", 
            "on": "http://gallica.bnf.fr/iiif/ark:/12148/btv1b55009437p/canvas/f266#xywh=939,383,221,84", 
            "resource": {
                "@type": "cnt:ContentAsText", 
                "chars": "autem", 
                "format": "text/plain"
            }
        }, 
        {
            "@id": "https://manifests.teklia.com/ORIFLAMMS/PsautierIMS/btv1b55009437p_f266.json/0/3", 
            "@type": "oa:Annotation", 
            "motivation": "oa:painting", 
            "on": "http://gallica.bnf.fr/iiif/ark:/12148/btv1b55009437p/canvas/f266#xywh=1161,383,164,82", 
            "resource": {
                "@type": "cnt:ContentAsText", 
                "chars": "idem", 
                "format": "text/plain"
            }
        }, 
        {
            "@id": "https://manifests.teklia.com/ORIFLAMMS/PsautierIMS/btv1b55009437p_f266.json/0/4", 
            "@type": "oa:Annotation", 
            "motivation": "oa:painting", 
            "on": "http://gallica.bnf.fr/iiif/ark:/12148/btv1b55009437p/canvas/f266#xywh=1326,384,90,83", 
            "resource": {
                "@type": "cnt:ContentAsText", 
                "chars": "{[ip[s]](ip(\u0303))}e", 
                "format": "text/plain"
            }
        }, 
        {
            "@id": "https://manifests.teklia.com/ORIFLAMMS/PsautierIMS/btv1b55009437p_f266.json/0/5", 
            "@type": "oa:Annotation", 
            "motivation": "oa:painting", 
            "on": "http://gallica.bnf.fr/iiif/ark:/12148/btv1b55009437p/canvas/f266#xywh=1417,385,85,82", 
            "resource": {
                "@type": "cnt:ContentAsText", 
                "chars": "es", 
                "format": "text/plain"
            }
        }, 
        {
            "@id": "https://manifests.teklia.com/ORIFLAMMS/PsautierIMS/btv1b55009437p_f266.json/1/0", 
            "@type": "oa:Annotation", 
            "motivation": "oa:painting", 
            "on": "http://gallica.bnf.fr/iiif/ark:/12148/btv1b55009437p/canvas/f266#xywh=544,466,84,82", 
            "resource": {
                "@type": "cnt:ContentAsText", 
                "chars": "et", 
                "format": "text/plain"
            }
        }, 
        {
            "@id": "https://manifests.teklia.com/ORIFLAMMS/PsautierIMS/btv1b55009437p_f266.json/1/1", 
            "@type": "oa:Annotation", 
            "motivation": "oa:painting", 
            "on": "http://gallica.bnf.fr/iiif/ark:/12148/btv1b55009437p/canvas/f266#xywh=629,466,161,82", 
            "resource": {
                "@type": "cnt:ContentAsText", 
                "chars": "anni", 
                "format": "text/plain"
            }
        }, 
        {
            "@id": "https://manifests.teklia.com/ORIFLAMMS/PsautierIMS/btv1b55009437p_f266.json/1/2", 
            "@type": "oa:Annotation", 
            "motivation": "oa:painting", 
            "on": "http://gallica.bnf.fr/iiif/ark:/12148/btv1b55009437p/canvas/f266#xywh=791,466,101,83", 
            "resource": {
                "@type": "cnt:ContentAsText", 
                "chars": "tui", 
                "format": "text/plain"
            }
        }, 
        {
            "@id": "https://manifests.teklia.com/ORIFLAMMS/PsautierIMS/btv1b55009437p_f266.json/1/3", 
            "@type": "oa:Annotation", 
            "motivation": "oa:painting", 
            "on": "http://gallica.bnf.fr/iiif/ark:/12148/btv1b55009437p/canvas/f266#xywh=893,467,95,82", 
            "resource": {
                "@type": "cnt:ContentAsText", 
                "chars": "no{[[n]]((\u0303))}", 
                "format": "text/plain"
            }
        }, 
        {
            "@id": "https://manifests.teklia.com/ORIFLAMMS/PsautierIMS/btv1b55009437p_f266.json/1/4", 
            "@type": "oa:Annotation", 
            "motivation": "oa:painting", 
            "on": "http://gallica.bnf.fr/iiif/ark:/12148/btv1b55009437p/canvas/f266#xywh=989,467,216,83", 
            "resource": {
                "@type": "cnt:ContentAsText", 
                "chars": "deficie{[[n]]((\u0303))}t", 
                "format": "text/plain"
            }
        }, 
        {
            "@id": "https://manifests.teklia.com/ORIFLAMMS/PsautierIMS/btv1b55009437p_f266.json/1/5", 
            "@type": "oa:Annotation", 
            "motivation": "oa:painting", 
            "on": "http://gallica.bnf.fr/iiif/ark:/12148/btv1b55009437p/canvas/f266#xywh=1206,468,19,82", 
            "resource": {
                "@type": "cnt:ContentAsText", 
                "chars": ".", 
                "format": "text/plain"
            }
        }, 
        {
            "@id": "https://manifests.teklia.com/ORIFLAMMS/PsautierIMS/btv1b55009437p_f266.json/1/6", 
            "@type": "oa:Annotation", 
            "motivation": "oa:painting", 
            "on": "http://gallica.bnf.fr/iiif/ark:/12148/btv1b55009437p/canvas/f266#xywh=1226,468,241,82", 
            "resource": {
                "@type": "cnt:ContentAsText", 
                "chars": "filii", 
                "format": "text/plain"
            }
        }, 
        {
            "@id": "https://manifests.teklia.com/ORIFLAMMS/PsautierIMS/btv1b55009437p_f266.json/2/0", 
            "@type": "oa:Annotation", 
            "motivation": "oa:painting", 
            "on": "http://gallica.bnf.fr/iiif/ark:/12148/btv1b55009437p/canvas/f266#xywh=526,549,280,82", 
            "resource": {
                "@type": "cnt:ContentAsText", 
                "chars": "servoru{[[m]]((\u0303))}", 
                "format": "text/plain"
            }
        }, 
        {
            "@id": "https://manifests.teklia.com/ORIFLAMMS/PsautierIMS/btv1b55009437p_f266.json/2/1", 
            "@type": "oa:Annotation", 
            "motivation": "oa:painting", 
            "on": "http://gallica.bnf.fr/iiif/ark:/12148/btv1b55009437p/canvas/f266#xywh=807,548,186,83", 
            "resource": {
                "@type": "cnt:ContentAsText", 
                "chars": "tuoru{[[m]]((\u0303))}", 
                "format": "text/plain"
            }
        }, 
        {
            "@id": "https://manifests.teklia.com/ORIFLAMMS/PsautierIMS/btv1b55009437p_f266.json/2/2", 
            "@type": "oa:Annotation", 
            "motivation": "oa:painting", 
            "on": "http://gallica.bnf.fr/iiif/ark:/12148/btv1b55009437p/canvas/f266#xywh=994,546,402,84", 
            "resource": {
                "@type": "cnt:ContentAsText", 
                "chars": "habitabunt", 
                "format": "text/plain"
            }
        }, 
        {
            "@id": "https://manifests.teklia.com/ORIFLAMMS/PsautierIMS/btv1b55009437p_f266.json/2/3", 
            "@type": "oa:Annotation", 
            "motivation": "oa:painting", 
            "on": "http://gallica.bnf.fr/iiif/ark:/12148/btv1b55009437p/canvas/f266#xywh=1397,546,34,82", 
            "resource": {
                "@type": "cnt:ContentAsText", 
                "chars": "{[et]((\u204a))}", 
                "format": "text/plain"
            }
        }, 
        {
            "@id": "https://manifests.teklia.com/ORIFLAMMS/PsautierIMS/btv1b55009437p_f266.json/2/4", 
            "@type": "oa:Annotation", 
            "motivation": "oa:painting", 
            "on": "http://gallica.bnf.fr/iiif/ark:/12148/btv1b55009437p/canvas/f266#xywh=1432,546,76,82", 
            "resource": {
                "@type": "cnt:ContentAsText", 
                "chars": "se", 
                "format": "text/plain"
            }
        }, 
        {
            "@id": "https://manifests.teklia.com/ORIFLAMMS/PsautierIMS/btv1b55009437p_f266.json/3/0", 
            "@type": "oa:Annotation", 
            "motivation": "oa:painting", 
            "on": "http://gallica.bnf.fr/iiif/ark:/12148/btv1b55009437p/canvas/f266#xywh=523,629,184,82", 
            "resource": {
                "@type": "cnt:ContentAsText", 
                "chars": "men", 
                "format": "text/plain"
            }
        }, 
        {
            "@id": "https://manifests.teklia.com/ORIFLAMMS/PsautierIMS/btv1b55009437p_f266.json/3/1", 
            "@type": "oa:Annotation", 
            "motivation": "oa:painting", 
            "on": "http://gallica.bnf.fr/iiif/ark:/12148/btv1b55009437p/canvas/f266#xywh=708,628,153,83", 
            "resource": {
                "@type": "cnt:ContentAsText", 
                "chars": "eoru{[[m]]((\u0303))}", 
                "format": "text/plain"
            }
        }, 
        {
            "@id": "https://manifests.teklia.com/ORIFLAMMS/PsautierIMS/btv1b55009437p_f266.json/3/2", 
            "@type": "oa:Annotation", 
            "motivation": "oa:painting", 
            "on": "http://gallica.bnf.fr/iiif/ark:/12148/btv1b55009437p/canvas/f266#xywh=862,628,74,82", 
            "resource": {
                "@type": "cnt:ContentAsText", 
                "chars": "in", 
                "format": "text/plain"
            }
        }, 
        {
            "@id": "https://manifests.teklia.com/ORIFLAMMS/PsautierIMS/btv1b55009437p_f266.json/3/3", 
            "@type": "oa:Annotation", 
            "motivation": "oa:painting", 
            "on": "http://gallica.bnf.fr/iiif/ark:/12148/btv1b55009437p/canvas/f266#xywh=937,626,215,84", 
            "resource": {
                "@type": "cnt:ContentAsText", 
                "chars": "seculu{[[m]]((\u0303))}", 
                "format": "text/plain"
            }
        }, 
        {
            "@id": "https://manifests.teklia.com/ORIFLAMMS/PsautierIMS/btv1b55009437p_f266.json/3/4", 
            "@type": "oa:Annotation", 
            "motivation": "oa:painting", 
            "on": "http://gallica.bnf.fr/iiif/ark:/12148/btv1b55009437p/canvas/f266#xywh=1153,626,311,85", 
            "resource": {
                "@type": "cnt:ContentAsText", 
                "chars": "dirigetur", 
                "format": "text/plain"
            }
        }, 
        {
            "@id": "https://manifests.teklia.com/ORIFLAMMS/PsautierIMS/btv1b55009437p_f266.json/3/5", 
            "@type": "oa:Annotation", 
            "motivation": "oa:painting", 
            "on": "http://gallica.bnf.fr/iiif/ark:/12148/btv1b55009437p/canvas/f266#xywh=1465,629,43,82", 
            "resource": {
                "@type": "cnt:ContentAsText", 
                "chars": ".", 
                "format": "text/plain"
            }
        }
    ]
}