{
    "@context": "http://iiif.io/api/presentation/2/context.json", 
    "@id": "https://manifests.teklia.com/HIMANIS/JJ143/words_annotations/FRAN_0021_17990.json", 
    "@type": "sc:AnnotationList", 
    "resources": [
        {
            "@id": "https://manifests.teklia.com/HIMANIS/JJ143/words_annotations/FRAN_0021_17990.json/0/line", 
            "@type": "oa:Annotation", 
            "motivation": "oa:painting", 
            "on": "http://bvmm.irht.cnrs.fr/iiif/23733/canvas/canvas-2317921#xywh=1440,954,78,125", 
            "resource": {
                "@type": "cnt:ContentAsText", 
                "chars": "NOSTRE", 
                "format": "text/plain"
            }
        }, 
        {
            "@id": "https://manifests.teklia.com/HIMANIS/JJ143/words_annotations/FRAN_0021_17990.json/1/line", 
            "@type": "oa:Annotation", 
            "motivation": "oa:painting", 
            "on": "http://bvmm.irht.cnrs.fr/iiif/23733/canvas/canvas-2317921#xywh=3482,2338,0,62", 
            "resource": {
                "@type": "cnt:ContentAsText", 
                "chars": "G", 
                "format": "text/plain"
            }
        }, 
        {
            "@id": "https://manifests.teklia.com/HIMANIS/JJ143/words_annotations/FRAN_0021_17990.json/2/line", 
            "@type": "oa:Annotation", 
            "motivation": "oa:painting", 
            "on": "http://bvmm.irht.cnrs.fr/iiif/23733/canvas/canvas-2317921#xywh=2744,730,134,194", 
            "resource": {
                "@type": "cnt:ContentAsText", 
                "chars": "CHAINE", 
                "format": "text/plain"
            }
        }, 
        {
            "@id": "https://manifests.teklia.com/HIMANIS/JJ143/words_annotations/FRAN_0021_17990.json/3/line", 
            "@type": "oa:Annotation", 
            "motivation": "oa:painting", 
            "on": "http://bvmm.irht.cnrs.fr/iiif/23733/canvas/canvas-2317921#xywh=3482,2338,0,62", 
            "resource": {
                "@type": "cnt:ContentAsText", 
                "chars": "J", 
                "format": "text/plain"
            }
        }, 
        {
            "@id": "https://manifests.teklia.com/HIMANIS/JJ143/words_annotations/FRAN_0021_17990.json/4/line", 
            "@type": "oa:Annotation", 
            "motivation": "oa:painting", 
            "on": "http://bvmm.irht.cnrs.fr/iiif/23733/canvas/canvas-2317921#xywh=1318,1584,17,136", 
            "resource": {
                "@type": "cnt:ContentAsText", 
                "chars": "LE", 
                "format": "text/plain"
            }
        }, 
        {
            "@id": "https://manifests.teklia.com/HIMANIS/JJ143/words_annotations/FRAN_0021_17990.json/5/line", 
            "@type": "oa:Annotation", 
            "motivation": "oa:painting", 
            "on": "http://bvmm.irht.cnrs.fr/iiif/23733/canvas/canvas-2317921#xywh=2172,1584,51,136", 
            "resource": {
                "@type": "cnt:ContentAsText", 
                "chars": "DE", 
                "format": "text/plain"
            }
        }, 
        {
            "@id": "https://manifests.teklia.com/HIMANIS/JJ143/words_annotations/FRAN_0021_17990.json/6/line", 
            "@type": "oa:Annotation", 
            "motivation": "oa:painting", 
            "on": "http://bvmm.irht.cnrs.fr/iiif/23733/canvas/canvas-2317921#xywh=3482,2338,0,62", 
            "resource": {
                "@type": "cnt:ContentAsText", 
                "chars": "P", 
                "format": "text/plain"
            }
        }, 
        {
            "@id": "https://manifests.teklia.com/HIMANIS/JJ143/words_annotations/FRAN_0021_17990.json/7/line", 
            "@type": "oa:Annotation", 
            "motivation": "oa:painting", 
            "on": "http://bvmm.irht.cnrs.fr/iiif/23733/canvas/canvas-2317921#xywh=620,1104,95,116", 
            "resource": {
                "@type": "cnt:ContentAsText", 
                "chars": "PAR", 
                "format": "text/plain"
            }
        }, 
        {
            "@id": "https://manifests.teklia.com/HIMANIS/JJ143/words_annotations/FRAN_0021_17990.json/8/line", 
            "@type": "oa:Annotation", 
            "motivation": "oa:painting", 
            "on": "http://bvmm.irht.cnrs.fr/iiif/23733/canvas/canvas-2317921#xywh=2266,1584,153,136", 
            "resource": {
                "@type": "cnt:ContentAsText", 
                "chars": "BERRY", 
                "format": "text/plain"
            }
        }, 
        {
            "@id": "https://manifests.teklia.com/HIMANIS/JJ143/words_annotations/FRAN_0021_17990.json/9/line", 
            "@type": "oa:Annotation", 
            "motivation": "oa:painting", 
            "on": "http://bvmm.irht.cnrs.fr/iiif/23733/canvas/canvas-2317921#xywh=1900,1238,129,186", 
            "resource": {
                "@type": "cnt:ContentAsText", 
                "chars": "CHOSE", 
                "format": "text/plain"
            }
        }, 
        {
            "@id": "https://manifests.teklia.com/HIMANIS/JJ143/words_annotations/FRAN_0021_17990.json/10/line", 
            "@type": "oa:Annotation", 
            "motivation": "oa:painting", 
            "on": "http://bvmm.irht.cnrs.fr/iiif/23733/canvas/canvas-2317921#xywh=968,1688,206,126", 
            "resource": {
                "@type": "cnt:ContentAsText", 
                "chars": "DE", 
                "format": "text/plain"
            }
        }, 
        {
            "@id": "https://manifests.teklia.com/HIMANIS/JJ143/words_annotations/FRAN_0021_17990.json/11/line", 
            "@type": "oa:Annotation", 
            "motivation": "oa:painting", 
            "on": "http://bvmm.irht.cnrs.fr/iiif/23733/canvas/canvas-2317921#xywh=2692,1104,73,116", 
            "resource": {
                "@type": "cnt:ContentAsText", 
                "chars": "DIZ", 
                "format": "text/plain"
            }
        }, 
        {
            "@id": "https://manifests.teklia.com/HIMANIS/JJ143/words_annotations/FRAN_0021_17990.json/12/line", 
            "@type": "oa:Annotation", 
            "motivation": "oa:painting", 
            "on": "http://bvmm.irht.cnrs.fr/iiif/23733/canvas/canvas-2317921#xywh=2628,1036,184,104", 
            "resource": {
                "@type": "cnt:ContentAsText", 
                "chars": "VOULONS", 
                "format": "text/plain"
            }
        }, 
        {
            "@id": "https://manifests.teklia.com/HIMANIS/JJ143/words_annotations/FRAN_0021_17990.json/13/line", 
            "@type": "oa:Annotation", 
            "motivation": "oa:painting", 
            "on": "http://bvmm.irht.cnrs.fr/iiif/23733/canvas/canvas-2317921#xywh=2309,1238,0,186", 
            "resource": {
                "@type": "cnt:ContentAsText", 
                "chars": "A", 
                "format": "text/plain"
            }
        }, 
        {
            "@id": "https://manifests.teklia.com/HIMANIS/JJ143/words_annotations/FRAN_0021_17990.json/14/line", 
            "@type": "oa:Annotation", 
            "motivation": "oa:painting", 
            "on": "http://bvmm.irht.cnrs.fr/iiif/23733/canvas/canvas-2317921#xywh=2484,1036,112,104", 
            "resource": {
                "@type": "cnt:ContentAsText", 
                "chars": "NOUS", 
                "format": "text/plain"
            }
        }, 
        {
            "@id": "https://manifests.teklia.com/HIMANIS/JJ143/words_annotations/FRAN_0021_17990.json/15/line", 
            "@type": "oa:Annotation", 
            "motivation": "oa:painting", 
            "on": "http://bvmm.irht.cnrs.fr/iiif/23733/canvas/canvas-2317921#xywh=1357,1104,73,116", 
            "resource": {
                "@type": "cnt:ContentAsText", 
                "chars": "OU", 
                "format": "text/plain"
            }
        }, 
        {
            "@id": "https://manifests.teklia.com/HIMANIS/JJ143/words_annotations/FRAN_0021_17990.json/16/line", 
            "@type": "oa:Annotation", 
            "motivation": "oa:painting", 
            "on": "http://bvmm.irht.cnrs.fr/iiif/23733/canvas/canvas-2317921#xywh=2744,730,109,194", 
            "resource": {
                "@type": "cnt:ContentAsText", 
                "chars": "CHAIN", 
                "format": "text/plain"
            }
        }, 
        {
            "@id": "https://manifests.teklia.com/HIMANIS/JJ143/words_annotations/FRAN_0021_17990.json/17/line", 
            "@type": "oa:Annotation", 
            "motivation": "oa:painting", 
            "on": "http://bvmm.irht.cnrs.fr/iiif/23733/canvas/canvas-2317921#xywh=1480,1238,35,186", 
            "resource": {
                "@type": "cnt:ContentAsText", 
                "chars": "QUE", 
                "format": "text/plain"
            }
        }, 
        {
            "@id": "https://manifests.teklia.com/HIMANIS/JJ143/words_annotations/FRAN_0021_17990.json/18/line", 
            "@type": "oa:Annotation", 
            "motivation": "oa:painting", 
            "on": "http://bvmm.irht.cnrs.fr/iiif/23733/canvas/canvas-2317921#xywh=1096,1584,188,136", 
            "resource": {
                "@type": "cnt:ContentAsText", 
                "chars": "PAR", 
                "format": "text/plain"
            }
        }, 
        {
            "@id": "https://manifests.teklia.com/HIMANIS/JJ143/words_annotations/FRAN_0021_17990.json/19/line", 
            "@type": "oa:Annotation", 
            "motivation": "oa:painting", 
            "on": "http://bvmm.irht.cnrs.fr/iiif/23733/canvas/canvas-2317921#xywh=831,730,195,194", 
            "resource": {
                "@type": "cnt:ContentAsText", 
                "chars": "SOIENT", 
                "format": "text/plain"
            }
        }, 
        {
            "@id": "https://manifests.teklia.com/HIMANIS/JJ143/words_annotations/FRAN_0021_17990.json/20/line", 
            "@type": "oa:Annotation", 
            "motivation": "oa:painting", 
            "on": "http://bvmm.irht.cnrs.fr/iiif/23733/canvas/canvas-2317921#xywh=1982,886,280,114", 
            "resource": {
                "@type": "cnt:ContentAsText", 
                "chars": "COMMANDEMENT", 
                "format": "text/plain"
            }
        }, 
        {
            "@id": "https://manifests.teklia.com/HIMANIS/JJ143/words_annotations/FRAN_0021_17990.json/21/line", 
            "@type": "oa:Annotation", 
            "motivation": "oa:painting", 
            "on": "http://bvmm.irht.cnrs.fr/iiif/23733/canvas/canvas-2317921#xywh=1580,886,65,114", 
            "resource": {
                "@type": "cnt:ContentAsText", 
                "chars": "OU", 
                "format": "text/plain"
            }
        }, 
        {
            "@id": "https://manifests.teklia.com/HIMANIS/JJ143/words_annotations/FRAN_0021_17990.json/22/line", 
            "@type": "oa:Annotation", 
            "motivation": "oa:painting", 
            "on": "http://bvmm.irht.cnrs.fr/iiif/23733/canvas/canvas-2317921#xywh=2123,954,236,125", 
            "resource": {
                "@type": "cnt:ContentAsText", 
                "chars": "SEUFFRENT", 
                "format": "text/plain"
            }
        }, 
        {
            "@id": "https://manifests.teklia.com/HIMANIS/JJ143/words_annotations/FRAN_0021_17990.json/23/line", 
            "@type": "oa:Annotation", 
            "motivation": "oa:painting", 
            "on": "http://bvmm.irht.cnrs.fr/iiif/23733/canvas/canvas-2317921#xywh=1991,1688,143,126", 
            "resource": {
                "@type": "cnt:ContentAsText", 
                "chars": "MOYON", 
                "format": "text/plain"
            }
        }, 
        {
            "@id": "https://manifests.teklia.com/HIMANIS/JJ143/words_annotations/FRAN_0021_17990.json/24/line", 
            "@type": "oa:Annotation", 
            "motivation": "oa:painting", 
            "on": "http://bvmm.irht.cnrs.fr/iiif/23733/canvas/canvas-2317921#xywh=1306,730,171,194", 
            "resource": {
                "@type": "cnt:ContentAsText", 
                "chars": "PRESENTIS", 
                "format": "text/plain"
            }
        }, 
        {
            "@id": "https://manifests.teklia.com/HIMANIS/JJ143/words_annotations/FRAN_0021_17990.json/25/line", 
            "@type": "oa:Annotation", 
            "motivation": "oa:painting", 
            "on": "http://bvmm.irht.cnrs.fr/iiif/23733/canvas/canvas-2317921#xywh=1306,730,171,194", 
            "resource": {
                "@type": "cnt:ContentAsText", 
                "chars": "PRESENTES", 
                "format": "text/plain"
            }
        }, 
        {
            "@id": "https://manifests.teklia.com/HIMANIS/JJ143/words_annotations/FRAN_0021_17990.json/26/line", 
            "@type": "oa:Annotation", 
            "motivation": "oa:painting", 
            "on": "http://bvmm.irht.cnrs.fr/iiif/23733/canvas/canvas-2317921#xywh=688,1169,41,130", 
            "resource": {
                "@type": "cnt:ContentAsText", 
                "chars": "CE", 
                "format": "text/plain"
            }
        }, 
        {
            "@id": "https://manifests.teklia.com/HIMANIS/JJ143/words_annotations/FRAN_0021_17990.json/27/line", 
            "@type": "oa:Annotation", 
            "motivation": "oa:painting", 
            "on": "http://bvmm.irht.cnrs.fr/iiif/23733/canvas/canvas-2317921#xywh=1361,954,40,125", 
            "resource": {
                "@type": "cnt:ContentAsText", 
                "chars": "CE", 
                "format": "text/plain"
            }
        }, 
        {
            "@id": "https://manifests.teklia.com/HIMANIS/JJ143/words_annotations/FRAN_0021_17990.json/28/line", 
            "@type": "oa:Annotation", 
            "motivation": "oa:painting", 
            "on": "http://bvmm.irht.cnrs.fr/iiif/23733/canvas/canvas-2317921#xywh=2730,1374,100,201", 
            "resource": {
                "@type": "cnt:ContentAsText", 
                "chars": "JUSTIS", 
                "format": "text/plain"
            }
        }, 
        {
            "@id": "https://manifests.teklia.com/HIMANIS/JJ143/words_annotations/FRAN_0021_17990.json/29/line", 
            "@type": "oa:Annotation", 
            "motivation": "oa:painting", 
            "on": "http://bvmm.irht.cnrs.fr/iiif/23733/canvas/canvas-2317921#xywh=1055,954,173,125", 
            "resource": {
                "@type": "cnt:ContentAsText", 
                "chars": "D'ICEULX", 
                "format": "text/plain"
            }
        }, 
        {
            "@id": "https://manifests.teklia.com/HIMANIS/JJ143/words_annotations/FRAN_0021_17990.json/30/line", 
            "@type": "oa:Annotation", 
            "motivation": "oa:painting", 
            "on": "http://bvmm.irht.cnrs.fr/iiif/23733/canvas/canvas-2317921#xywh=1454,1036,105,104", 
            "resource": {
                "@type": "cnt:ContentAsText", 
                "chars": "TOUT", 
                "format": "text/plain"
            }
        }, 
        {
            "@id": "https://manifests.teklia.com/HIMANIS/JJ143/words_annotations/FRAN_0021_17990.json/31/line", 
            "@type": "oa:Annotation", 
            "motivation": "oa:painting", 
            "on": "http://bvmm.irht.cnrs.fr/iiif/23733/canvas/canvas-2317921#xywh=537,954,110,125", 
            "resource": {
                "@type": "cnt:ContentAsText", 
                "chars": "OU", 
                "format": "text/plain"
            }
        }, 
        {
            "@id": "https://manifests.teklia.com/HIMANIS/JJ143/words_annotations/FRAN_0021_17990.json/32/line", 
            "@type": "oa:Annotation", 
            "motivation": "oa:painting", 
            "on": "http://bvmm.irht.cnrs.fr/iiif/23733/canvas/canvas-2317921#xywh=2153,1169,49,130", 
            "resource": {
                "@type": "cnt:ContentAsText", 
                "chars": "OU", 
                "format": "text/plain"
            }
        }, 
        {
            "@id": "https://manifests.teklia.com/HIMANIS/JJ143/words_annotations/FRAN_0021_17990.json/33/line", 
            "@type": "oa:Annotation", 
            "motivation": "oa:painting", 
            "on": "http://bvmm.irht.cnrs.fr/iiif/23733/canvas/canvas-2317921#xywh=2573,730,110,194", 
            "resource": {
                "@type": "cnt:ContentAsText", 
                "chars": "COMME", 
                "format": "text/plain"
            }
        }, 
        {
            "@id": "https://manifests.teklia.com/HIMANIS/JJ143/words_annotations/FRAN_0021_17990.json/34/line", 
            "@type": "oa:Annotation", 
            "motivation": "oa:painting", 
            "on": "http://bvmm.irht.cnrs.fr/iiif/23733/canvas/canvas-2317921#xywh=1388,1688,111,126", 
            "resource": {
                "@type": "cnt:ContentAsText", 
                "chars": "VONS", 
                "format": "text/plain"
            }
        }, 
        {
            "@id": "https://manifests.teklia.com/HIMANIS/JJ143/words_annotations/FRAN_0021_17990.json/35/line", 
            "@type": "oa:Annotation", 
            "motivation": "oa:painting", 
            "on": "http://bvmm.irht.cnrs.fr/iiif/23733/canvas/canvas-2317921#xywh=675,1238,93,186", 
            "resource": {
                "@type": "cnt:ContentAsText", 
                "chars": "DITES", 
                "format": "text/plain"
            }
        }, 
        {
            "@id": "https://manifests.teklia.com/HIMANIS/JJ143/words_annotations/FRAN_0021_17990.json/36/line", 
            "@type": "oa:Annotation", 
            "motivation": "oa:painting", 
            "on": "http://bvmm.irht.cnrs.fr/iiif/23733/canvas/canvas-2317921#xywh=55,2400,20,15", 
            "resource": {
                "@type": "cnt:ContentAsText", 
                "chars": "DE", 
                "format": "text/plain"
            }
        }, 
        {
            "@id": "https://manifests.teklia.com/HIMANIS/JJ143/words_annotations/FRAN_0021_17990.json/37/line", 
            "@type": "oa:Annotation", 
            "motivation": "oa:painting", 
            "on": "http://bvmm.irht.cnrs.fr/iiif/23733/canvas/canvas-2317921#xywh=901,1169,115,130", 
            "resource": {
                "@type": "cnt:ContentAsText", 
                "chars": "PAIS", 
                "format": "text/plain"
            }
        }, 
        {
            "@id": "https://manifests.teklia.com/HIMANIS/JJ143/words_annotations/FRAN_0021_17990.json/38/line", 
            "@type": "oa:Annotation", 
            "motivation": "oa:painting", 
            "on": "http://bvmm.irht.cnrs.fr/iiif/23733/canvas/canvas-2317921#xywh=1824,886,115,114", 
            "resource": {
                "@type": "cnt:ContentAsText", 
                "chars": "CERTAIN", 
                "format": "text/plain"
            }
        }, 
        {
            "@id": "https://manifests.teklia.com/HIMANIS/JJ143/words_annotations/FRAN_0021_17990.json/39/line", 
            "@type": "oa:Annotation", 
            "motivation": "oa:painting", 
            "on": "http://bvmm.irht.cnrs.fr/iiif/23733/canvas/canvas-2317921#xywh=2057,1104,219,116", 
            "resource": {
                "@type": "cnt:ContentAsText", 
                "chars": "AVECQUES", 
                "format": "text/plain"
            }
        }, 
        {
            "@id": "https://manifests.teklia.com/HIMANIS/JJ143/words_annotations/FRAN_0021_17990.json/40/line", 
            "@type": "oa:Annotation", 
            "motivation": "oa:painting", 
            "on": "http://bvmm.irht.cnrs.fr/iiif/23733/canvas/canvas-2317921#xywh=1539,1238,23,186", 
            "resource": {
                "@type": "cnt:ContentAsText", 
                "chars": "CE", 
                "format": "text/plain"
            }
        }, 
        {
            "@id": "https://manifests.teklia.com/HIMANIS/JJ143/words_annotations/FRAN_0021_17990.json/41/line", 
            "@type": "oa:Annotation", 
            "motivation": "oa:painting", 
            "on": "http://bvmm.irht.cnrs.fr/iiif/23733/canvas/canvas-2317921#xywh=2537,730,24,194", 
            "resource": {
                "@type": "cnt:ContentAsText", 
                "chars": "SI", 
                "format": "text/plain"
            }
        }, 
        {
            "@id": "https://manifests.teklia.com/HIMANIS/JJ143/words_annotations/FRAN_0021_17990.json/42/line", 
            "@type": "oa:Annotation", 
            "motivation": "oa:painting", 
            "on": "http://bvmm.irht.cnrs.fr/iiif/23733/canvas/canvas-2317921#xywh=3175,4671,0,162", 
            "resource": {
                "@type": "cnt:ContentAsText", 
                "chars": "J", 
                "format": "text/plain"
            }
        }, 
        {
            "@id": "https://manifests.teklia.com/HIMANIS/JJ143/words_annotations/FRAN_0021_17990.json/43/line", 
            "@type": "oa:Annotation", 
            "motivation": "oa:painting", 
            "on": "http://bvmm.irht.cnrs.fr/iiif/23733/canvas/canvas-2317921#xywh=1952,730,24,194", 
            "resource": {
                "@type": "cnt:ContentAsText", 
                "chars": "OU", 
                "format": "text/plain"
            }
        }, 
        {
            "@id": "https://manifests.teklia.com/HIMANIS/JJ143/words_annotations/FRAN_0021_17990.json/44/line", 
            "@type": "oa:Annotation", 
            "motivation": "oa:painting", 
            "on": "http://bvmm.irht.cnrs.fr/iiif/23733/canvas/canvas-2317921#xywh=1079,886,186,114", 
            "resource": {
                "@type": "cnt:ContentAsText", 
                "chars": "DIZ", 
                "format": "text/plain"
            }
        }, 
        {
            "@id": "https://manifests.teklia.com/HIMANIS/JJ143/words_annotations/FRAN_0021_17990.json/45/line", 
            "@type": "oa:Annotation", 
            "motivation": "oa:painting", 
            "on": "http://bvmm.irht.cnrs.fr/iiif/23733/canvas/canvas-2317921#xywh=1605,1036,308,104", 
            "resource": {
                "@type": "cnt:ContentAsText", 
                "chars": "EMPESCHEMENT", 
                "format": "text/plain"
            }
        }, 
        {
            "@id": "https://manifests.teklia.com/HIMANIS/JJ143/words_annotations/FRAN_0021_17990.json/46/line", 
            "@type": "oa:Annotation", 
            "motivation": "oa:painting", 
            "on": "http://bvmm.irht.cnrs.fr/iiif/23733/canvas/canvas-2317921#xywh=929,730,268,194", 
            "resource": {
                "@type": "cnt:ContentAsText", 
                "chars": "PER", 
                "format": "text/plain"
            }
        }, 
        {
            "@id": "https://manifests.teklia.com/HIMANIS/JJ143/words_annotations/FRAN_0021_17990.json/47/line", 
            "@type": "oa:Annotation", 
            "motivation": "oa:painting", 
            "on": "http://bvmm.irht.cnrs.fr/iiif/23733/canvas/canvas-2317921#xywh=929,730,256,194", 
            "resource": {
                "@type": "cnt:ContentAsText", 
                "chars": "PAR", 
                "format": "text/plain"
            }
        }, 
        {
            "@id": "https://manifests.teklia.com/HIMANIS/JJ143/words_annotations/FRAN_0021_17990.json/48/line", 
            "@type": "oa:Annotation", 
            "motivation": "oa:painting", 
            "on": "http://bvmm.irht.cnrs.fr/iiif/23733/canvas/canvas-2317921#xywh=1714,1238,151,186", 
            "resource": {
                "@type": "cnt:ContentAsText", 
                "chars": "FORME", 
                "format": "text/plain"
            }
        }, 
        {
            "@id": "https://manifests.teklia.com/HIMANIS/JJ143/words_annotations/FRAN_0021_17990.json/49/line", 
            "@type": "oa:Annotation", 
            "motivation": "oa:painting", 
            "on": "http://bvmm.irht.cnrs.fr/iiif/23733/canvas/canvas-2317921#xywh=793,1374,25,201", 
            "resource": {
                "@type": "cnt:ContentAsText", 
                "chars": "ET", 
                "format": "text/plain"
            }
        }, 
        {
            "@id": "https://manifests.teklia.com/HIMANIS/JJ143/words_annotations/FRAN_0021_17990.json/50/line", 
            "@type": "oa:Annotation", 
            "motivation": "oa:painting", 
            "on": "http://bvmm.irht.cnrs.fr/iiif/23733/canvas/canvas-2317921#xywh=792,1238,140,186", 
            "resource": {
                "@type": "cnt:ContentAsText", 
                "chars": "GENT", 
                "format": "text/plain"
            }
        }, 
        {
            "@id": "https://manifests.teklia.com/HIMANIS/JJ143/words_annotations/FRAN_0021_17990.json/51/line", 
            "@type": "oa:Annotation", 
            "motivation": "oa:painting", 
            "on": "http://bvmm.irht.cnrs.fr/iiif/23733/canvas/canvas-2317921#xywh=1205,1036,203,104", 
            "resource": {
                "@type": "cnt:ContentAsText", 
                "chars": "CESSERRANT", 
                "format": "text/plain"
            }
        }, 
        {
            "@id": "https://manifests.teklia.com/HIMANIS/JJ143/words_annotations/FRAN_0021_17990.json/52/line", 
            "@type": "oa:Annotation", 
            "motivation": "oa:painting", 
            "on": "http://bvmm.irht.cnrs.fr/iiif/23733/canvas/canvas-2317921#xywh=1190,1688,198,126", 
            "resource": {
                "@type": "cnt:ContentAsText", 
                "chars": "BOURGERE", 
                "format": "text/plain"
            }
        }, 
        {
            "@id": "https://manifests.teklia.com/HIMANIS/JJ143/words_annotations/FRAN_0021_17990.json/53/line", 
            "@type": "oa:Annotation", 
            "motivation": "oa:painting", 
            "on": "http://bvmm.irht.cnrs.fr/iiif/23733/canvas/canvas-2317921#xywh=792,1238,140,186", 
            "resource": {
                "@type": "cnt:ContentAsText", 
                "chars": "GENZ", 
                "format": "text/plain"
            }
        }, 
        {
            "@id": "https://manifests.teklia.com/HIMANIS/JJ143/words_annotations/FRAN_0021_17990.json/54/line", 
            "@type": "oa:Annotation", 
            "motivation": "oa:painting", 
            "on": "http://bvmm.irht.cnrs.fr/iiif/23733/canvas/canvas-2317921#xywh=2001,1584,137,136", 
            "resource": {
                "@type": "cnt:ContentAsText", 
                "chars": "DITES", 
                "format": "text/plain"
            }
        }, 
        {
            "@id": "https://manifests.teklia.com/HIMANIS/JJ143/words_annotations/FRAN_0021_17990.json/55/line", 
            "@type": "oa:Annotation", 
            "motivation": "oa:painting", 
            "on": "http://bvmm.irht.cnrs.fr/iiif/23733/canvas/canvas-2317921#xywh=1120,1374,176,201", 
            "resource": {
                "@type": "cnt:ContentAsText", 
                "chars": "ROISSE", 
                "format": "text/plain"
            }
        }, 
        {
            "@id": "https://manifests.teklia.com/HIMANIS/JJ143/words_annotations/FRAN_0021_17990.json/56/line", 
            "@type": "oa:Annotation", 
            "motivation": "oa:painting", 
            "on": "http://bvmm.irht.cnrs.fr/iiif/23733/canvas/canvas-2317921#xywh=1550,954,110,125", 
            "resource": {
                "@type": "cnt:ContentAsText", 
                "chars": "PRESENTE", 
                "format": "text/plain"
            }
        }, 
        {
            "@id": "https://manifests.teklia.com/HIMANIS/JJ143/words_annotations/FRAN_0021_17990.json/57/line", 
            "@type": "oa:Annotation", 
            "motivation": "oa:painting", 
            "on": "http://bvmm.irht.cnrs.fr/iiif/23733/canvas/canvas-2317921#xywh=2753,4665,306,159", 
            "resource": {
                "@type": "cnt:ContentAsText", 
                "chars": "LES", 
                "format": "text/plain"
            }
        }, 
        {
            "@id": "https://manifests.teklia.com/HIMANIS/JJ143/words_annotations/FRAN_0021_17990.json/58/line", 
            "@type": "oa:Annotation", 
            "motivation": "oa:painting", 
            "on": "http://bvmm.irht.cnrs.fr/iiif/23733/canvas/canvas-2317921#xywh=2014,1169,106,130", 
            "resource": {
                "@type": "cnt:ContentAsText", 
                "chars": "CELUI", 
                "format": "text/plain"
            }
        }, 
        {
            "@id": "https://manifests.teklia.com/HIMANIS/JJ143/words_annotations/FRAN_0021_17990.json/59/line", 
            "@type": "oa:Annotation", 
            "motivation": "oa:painting", 
            "on": "http://bvmm.irht.cnrs.fr/iiif/23733/canvas/canvas-2317921#xywh=2251,1169,131,130", 
            "resource": {
                "@type": "cnt:ContentAsText", 
                "chars": "CEULX", 
                "format": "text/plain"
            }
        }, 
        {
            "@id": "https://manifests.teklia.com/HIMANIS/JJ143/words_annotations/FRAN_0021_17990.json/60/line", 
            "@type": "oa:Annotation", 
            "motivation": "oa:painting", 
            "on": "http://bvmm.irht.cnrs.fr/iiif/23733/canvas/canvas-2317921#xywh=2488,1584,102,136", 
            "resource": {
                "@type": "cnt:ContentAsText", 
                "chars": "ET", 
                "format": "text/plain"
            }
        }, 
        {
            "@id": "https://manifests.teklia.com/HIMANIS/JJ143/words_annotations/FRAN_0021_17990.json/61/line", 
            "@type": "oa:Annotation", 
            "motivation": "oa:painting", 
            "on": "http://bvmm.irht.cnrs.fr/iiif/23733/canvas/canvas-2317921#xywh=843,1374,101,201", 
            "resource": {
                "@type": "cnt:ContentAsText", 
                "chars": "PAR", 
                "format": "text/plain"
            }
        }, 
        {
            "@id": "https://manifests.teklia.com/HIMANIS/JJ143/words_annotations/FRAN_0021_17990.json/62/line", 
            "@type": "oa:Annotation", 
            "motivation": "oa:painting", 
            "on": "http://bvmm.irht.cnrs.fr/iiif/23733/canvas/canvas-2317921#xywh=1555,1688,40,126", 
            "resource": {
                "@type": "cnt:ContentAsText", 
                "chars": "ET", 
                "format": "text/plain"
            }
        }, 
        {
            "@id": "https://manifests.teklia.com/HIMANIS/JJ143/words_annotations/FRAN_0021_17990.json/63/line", 
            "@type": "oa:Annotation", 
            "motivation": "oa:painting", 
            "on": "http://bvmm.irht.cnrs.fr/iiif/23733/canvas/canvas-2317921#xywh=1444,1104,44,116", 
            "resource": {
                "@type": "cnt:ContentAsText", 
                "chars": "LE", 
                "format": "text/plain"
            }
        }, 
        {
            "@id": "https://manifests.teklia.com/HIMANIS/JJ143/words_annotations/FRAN_0021_17990.json/64/line", 
            "@type": "oa:Annotation", 
            "motivation": "oa:painting", 
            "on": "http://bvmm.irht.cnrs.fr/iiif/23733/canvas/canvas-2317921#xywh=2673,954,94,125", 
            "resource": {
                "@type": "cnt:ContentAsText", 
                "chars": "JOIR", 
                "format": "text/plain"
            }
        }, 
        {
            "@id": "https://manifests.teklia.com/HIMANIS/JJ143/words_annotations/FRAN_0021_17990.json/65/line", 
            "@type": "oa:Annotation", 
            "motivation": "oa:painting", 
            "on": "http://bvmm.irht.cnrs.fr/iiif/23733/canvas/canvas-2317921#xywh=1190,1688,190,126", 
            "resource": {
                "@type": "cnt:ContentAsText", 
                "chars": "BOURGNE", 
                "format": "text/plain"
            }
        }, 
        {
            "@id": "https://manifests.teklia.com/HIMANIS/JJ143/words_annotations/FRAN_0021_17990.json/66/line", 
            "@type": "oa:Annotation", 
            "motivation": "oa:painting", 
            "on": "http://bvmm.irht.cnrs.fr/iiif/23733/canvas/canvas-2317921#xywh=2962,1169,74,130", 
            "resource": {
                "@type": "cnt:ContentAsText", 
                "chars": "PAR", 
                "format": "text/plain"
            }
        }, 
        {
            "@id": "https://manifests.teklia.com/HIMANIS/JJ143/words_annotations/FRAN_0021_17990.json/67/line", 
            "@type": "oa:Annotation", 
            "motivation": "oa:painting", 
            "on": "http://bvmm.irht.cnrs.fr/iiif/23733/canvas/canvas-2317921#xywh=2477,886,43,114", 
            "resource": {
                "@type": "cnt:ContentAsText", 
                "chars": "LA", 
                "format": "text/plain"
            }
        }, 
        {
            "@id": "https://manifests.teklia.com/HIMANIS/JJ143/words_annotations/FRAN_0021_17990.json/68/line", 
            "@type": "oa:Annotation", 
            "motivation": "oa:painting", 
            "on": "http://bvmm.irht.cnrs.fr/iiif/23733/canvas/canvas-2317921#xywh=537,954,110,125", 
            "resource": {
                "@type": "cnt:ContentAsText", 
                "chars": "DON", 
                "format": "text/plain"
            }
        }, 
        {
            "@id": "https://manifests.teklia.com/HIMANIS/JJ143/words_annotations/FRAN_0021_17990.json/69/line", 
            "@type": "oa:Annotation", 
            "motivation": "oa:painting", 
            "on": "http://bvmm.irht.cnrs.fr/iiif/23733/canvas/canvas-2317921#xywh=2763,886,43,114", 
            "resource": {
                "@type": "cnt:ContentAsText", 
                "chars": "DE", 
                "format": "text/plain"
            }
        }, 
        {
            "@id": "https://manifests.teklia.com/HIMANIS/JJ143/words_annotations/FRAN_0021_17990.json/70/line", 
            "@type": "oa:Annotation", 
            "motivation": "oa:painting", 
            "on": "http://bvmm.irht.cnrs.fr/iiif/23733/canvas/canvas-2317921#xywh=2893,1374,189,201", 
            "resource": {
                "@type": "cnt:ContentAsText", 
                "chars": "DOUZE", 
                "format": "text/plain"
            }
        }, 
        {
            "@id": "https://manifests.teklia.com/HIMANIS/JJ143/words_annotations/FRAN_0021_17990.json/71/line", 
            "@type": "oa:Annotation", 
            "motivation": "oa:painting", 
            "on": "http://bvmm.irht.cnrs.fr/iiif/23733/canvas/canvas-2317921#xywh=1862,1374,277,201", 
            "resource": {
                "@type": "cnt:ContentAsText", 
                "chars": "NOUEMBRE", 
                "format": "text/plain"
            }
        }, 
        {
            "@id": "https://manifests.teklia.com/HIMANIS/JJ143/words_annotations/FRAN_0021_17990.json/72/line", 
            "@type": "oa:Annotation", 
            "motivation": "oa:painting", 
            "on": "http://bvmm.irht.cnrs.fr/iiif/23733/canvas/canvas-2317921#xywh=2189,1374,75,201", 
            "resource": {
                "@type": "cnt:ContentAsText", 
                "chars": "L'AN", 
                "format": "text/plain"
            }
        }, 
        {
            "@id": "https://manifests.teklia.com/HIMANIS/JJ143/words_annotations/FRAN_0021_17990.json/73/line", 
            "@type": "oa:Annotation", 
            "motivation": "oa:painting", 
            "on": "http://bvmm.irht.cnrs.fr/iiif/23733/canvas/canvas-2317921#xywh=2835,886,79,114", 
            "resource": {
                "@type": "cnt:ContentAsText", 
                "chars": "NOSTRE", 
                "format": "text/plain"
            }
        }, 
        {
            "@id": "https://manifests.teklia.com/HIMANIS/JJ143/words_annotations/FRAN_0021_17990.json/74/line", 
            "@type": "oa:Annotation", 
            "motivation": "oa:painting", 
            "on": "http://bvmm.irht.cnrs.fr/iiif/23733/canvas/canvas-2317921#xywh=539,730,244,194", 
            "resource": {
                "@type": "cnt:ContentAsText", 
                "chars": "COMPTES", 
                "format": "text/plain"
            }
        }, 
        {
            "@id": "https://manifests.teklia.com/HIMANIS/JJ143/words_annotations/FRAN_0021_17990.json/75/line", 
            "@type": "oa:Annotation", 
            "motivation": "oa:painting", 
            "on": "http://bvmm.irht.cnrs.fr/iiif/23733/canvas/canvas-2317921#xywh=1306,730,147,194", 
            "resource": {
                "@type": "cnt:ContentAsText", 
                "chars": "PRESENTE", 
                "format": "text/plain"
            }
        }, 
        {
            "@id": "https://manifests.teklia.com/HIMANIS/JJ143/words_annotations/FRAN_0021_17990.json/76/line", 
            "@type": "oa:Annotation", 
            "motivation": "oa:painting", 
            "on": "http://bvmm.irht.cnrs.fr/iiif/23733/canvas/canvas-2317921#xywh=1306,730,159,194", 
            "resource": {
                "@type": "cnt:ContentAsText", 
                "chars": "PRESENTI", 
                "format": "text/plain"
            }
        }, 
        {
            "@id": "https://manifests.teklia.com/HIMANIS/JJ143/words_annotations/FRAN_0021_17990.json/77/line", 
            "@type": "oa:Annotation", 
            "motivation": "oa:painting", 
            "on": "http://bvmm.irht.cnrs.fr/iiif/23733/canvas/canvas-2317921#xywh=1361,954,40,125", 
            "resource": {
                "@type": "cnt:ContentAsText", 
                "chars": "DE", 
                "format": "text/plain"
            }
        }, 
        {
            "@id": "https://manifests.teklia.com/HIMANIS/JJ143/words_annotations/FRAN_0021_17990.json/78/line", 
            "@type": "oa:Annotation", 
            "motivation": "oa:painting", 
            "on": "http://bvmm.irht.cnrs.fr/iiif/23733/canvas/canvas-2317921#xywh=1948,1169,41,130", 
            "resource": {
                "@type": "cnt:ContentAsText", 
                "chars": "DE", 
                "format": "text/plain"
            }
        }, 
        {
            "@id": "https://manifests.teklia.com/HIMANIS/JJ143/words_annotations/FRAN_0021_17990.json/79/line", 
            "@type": "oa:Annotation", 
            "motivation": "oa:painting", 
            "on": "http://bvmm.irht.cnrs.fr/iiif/23733/canvas/canvas-2317921#xywh=1952,730,219,194", 
            "resource": {
                "@type": "cnt:ContentAsText", 
                "chars": "TEMPS", 
                "format": "text/plain"
            }
        }, 
        {
            "@id": "https://manifests.teklia.com/HIMANIS/JJ143/words_annotations/FRAN_0021_17990.json/80/line", 
            "@type": "oa:Annotation", 
            "motivation": "oa:painting", 
            "on": "http://bvmm.irht.cnrs.fr/iiif/23733/canvas/canvas-2317921#xywh=2822,1238,245,186", 
            "resource": {
                "@type": "cnt:ContentAsText", 
                "chars": "TOUTES", 
                "format": "text/plain"
            }
        }, 
        {
            "@id": "https://manifests.teklia.com/HIMANIS/JJ143/words_annotations/FRAN_0021_17990.json/81/line", 
            "@type": "oa:Annotation", 
            "motivation": "oa:painting", 
            "on": "http://bvmm.irht.cnrs.fr/iiif/23733/canvas/canvas-2317921#xywh=1326,1169,99,130", 
            "resource": {
                "@type": "cnt:ContentAsText", 
                "chars": "SOIT", 
                "format": "text/plain"
            }
        }, 
        {
            "@id": "https://manifests.teklia.com/HIMANIS/JJ143/words_annotations/FRAN_0021_17990.json/82/line", 
            "@type": "oa:Annotation", 
            "motivation": "oa:painting", 
            "on": "http://bvmm.irht.cnrs.fr/iiif/23733/canvas/canvas-2317921#xywh=570,886,164,114", 
            "resource": {
                "@type": "cnt:ContentAsText", 
                "chars": "BAILLIERS", 
                "format": "text/plain"
            }
        }, 
        {
            "@id": "https://manifests.teklia.com/HIMANIS/JJ143/words_annotations/FRAN_0021_17990.json/83/line", 
            "@type": "oa:Annotation", 
            "motivation": "oa:painting", 
            "on": "http://bvmm.irht.cnrs.fr/iiif/23733/canvas/canvas-2317921#xywh=1896,1688,0,126", 
            "resource": {
                "@type": "cnt:ContentAsText", 
                "chars": "A", 
                "format": "text/plain"
            }
        }, 
        {
            "@id": "https://manifests.teklia.com/HIMANIS/JJ143/words_annotations/FRAN_0021_17990.json/84/line", 
            "@type": "oa:Annotation", 
            "motivation": "oa:painting", 
            "on": "http://bvmm.irht.cnrs.fr/iiif/23733/canvas/canvas-2317921#xywh=757,954,133,125", 
            "resource": {
                "@type": "cnt:ContentAsText", 
                "chars": "OCTROY", 
                "format": "text/plain"
            }
        }, 
        {
            "@id": "https://manifests.teklia.com/HIMANIS/JJ143/words_annotations/FRAN_0021_17990.json/85/line", 
            "@type": "oa:Annotation", 
            "motivation": "oa:painting", 
            "on": "http://bvmm.irht.cnrs.fr/iiif/23733/canvas/canvas-2317921#xywh=541,1169,131,130", 
            "resource": {
                "@type": "cnt:ContentAsText", 
                "chars": "TOUT", 
                "format": "text/plain"
            }
        }, 
        {
            "@id": "https://manifests.teklia.com/HIMANIS/JJ143/words_annotations/FRAN_0021_17990.json/86/line", 
            "@type": "oa:Annotation", 
            "motivation": "oa:painting", 
            "on": "http://bvmm.irht.cnrs.fr/iiif/23733/canvas/canvas-2317921#xywh=1935,954,157,125", 
            "resource": {
                "@type": "cnt:ContentAsText", 
                "chars": "FACENT", 
                "format": "text/plain"
            }
        }, 
        {
            "@id": "https://manifests.teklia.com/HIMANIS/JJ143/words_annotations/FRAN_0021_17990.json/87/line", 
            "@type": "oa:Annotation", 
            "motivation": "oa:painting", 
            "on": "http://bvmm.irht.cnrs.fr/iiif/23733/canvas/canvas-2317921#xywh=2344,1238,233,186", 
            "resource": {
                "@type": "cnt:ContentAsText", 
                "chars": "CONSIONE", 
                "format": "text/plain"
            }
        }, 
        {
            "@id": "https://manifests.teklia.com/HIMANIS/JJ143/words_annotations/FRAN_0021_17990.json/88/line", 
            "@type": "oa:Annotation", 
            "motivation": "oa:painting", 
            "on": "http://bvmm.irht.cnrs.fr/iiif/23733/canvas/canvas-2317921#xywh=843,1374,151,201", 
            "resource": {
                "@type": "cnt:ContentAsText", 
                "chars": "PARTE", 
                "format": "text/plain"
            }
        }, 
        {
            "@id": "https://manifests.teklia.com/HIMANIS/JJ143/words_annotations/FRAN_0021_17990.json/89/line", 
            "@type": "oa:Annotation", 
            "motivation": "oa:painting", 
            "on": "http://bvmm.irht.cnrs.fr/iiif/23733/canvas/canvas-2317921#xywh=2719,730,0,194", 
            "resource": {
                "@type": "cnt:ContentAsText", 
                "chars": "A", 
                "format": "text/plain"
            }
        }, 
        {
            "@id": "https://manifests.teklia.com/HIMANIS/JJ143/words_annotations/FRAN_0021_17990.json/90/line", 
            "@type": "oa:Annotation", 
            "motivation": "oa:painting", 
            "on": "http://bvmm.irht.cnrs.fr/iiif/23733/canvas/canvas-2317921#xywh=2374,954,252,125", 
            "resource": {
                "@type": "cnt:ContentAsText", 
                "chars": "LAISSENT", 
                "format": "text/plain"
            }
        }, 
        {
            "@id": "https://manifests.teklia.com/HIMANIS/JJ143/words_annotations/FRAN_0021_17990.json/91/line", 
            "@type": "oa:Annotation", 
            "motivation": "oa:painting", 
            "on": "http://bvmm.irht.cnrs.fr/iiif/23733/canvas/canvas-2317921#xywh=2344,1238,245,186", 
            "resource": {
                "@type": "cnt:ContentAsText", 
                "chars": "CONSIONS", 
                "format": "text/plain"
            }
        }, 
        {
            "@id": "https://manifests.teklia.com/HIMANIS/JJ143/words_annotations/FRAN_0021_17990.json/92/line", 
            "@type": "oa:Annotation", 
            "motivation": "oa:painting", 
            "on": "http://bvmm.irht.cnrs.fr/iiif/23733/canvas/canvas-2317921#xywh=1057,886,22,114", 
            "resource": {
                "@type": "cnt:ContentAsText", 
                "chars": "AUS", 
                "format": "text/plain"
            }
        }, 
        {
            "@id": "https://manifests.teklia.com/HIMANIS/JJ143/words_annotations/FRAN_0021_17990.json/93/line", 
            "@type": "oa:Annotation", 
            "motivation": "oa:painting", 
            "on": "http://bvmm.irht.cnrs.fr/iiif/23733/canvas/canvas-2317921#xywh=1072,1104,66,116", 
            "resource": {
                "@type": "cnt:ContentAsText", 
                "chars": "CES", 
                "format": "text/plain"
            }
        }, 
        {
            "@id": "https://manifests.teklia.com/HIMANIS/JJ143/words_annotations/FRAN_0021_17990.json/94/line", 
            "@type": "oa:Annotation", 
            "motivation": "oa:painting", 
            "on": "http://bvmm.irht.cnrs.fr/iiif/23733/canvas/canvas-2317921#xywh=570,886,143,114", 
            "resource": {
                "@type": "cnt:ContentAsText", 
                "chars": "BAILLIER", 
                "format": "text/plain"
            }
        }, 
        {
            "@id": "https://manifests.teklia.com/HIMANIS/JJ143/words_annotations/FRAN_0021_17990.json/95/line", 
            "@type": "oa:Annotation", 
            "motivation": "oa:painting", 
            "on": "http://bvmm.irht.cnrs.fr/iiif/23733/canvas/canvas-2317921#xywh=766,1104,270,116", 
            "resource": {
                "@type": "cnt:ContentAsText", 
                "chars": "RAPPORTANT", 
                "format": "text/plain"
            }
        }, 
        {
            "@id": "https://manifests.teklia.com/HIMANIS/JJ143/words_annotations/FRAN_0021_17990.json/96/line", 
            "@type": "oa:Annotation", 
            "motivation": "oa:painting", 
            "on": "http://bvmm.irht.cnrs.fr/iiif/23733/canvas/canvas-2317921#xywh=843,1374,151,201", 
            "resource": {
                "@type": "cnt:ContentAsText", 
                "chars": "PAIEZ", 
                "format": "text/plain"
            }
        }, 
        {
            "@id": "https://manifests.teklia.com/HIMANIS/JJ143/words_annotations/FRAN_0021_17990.json/97/line", 
            "@type": "oa:Annotation", 
            "motivation": "oa:painting", 
            "on": "http://bvmm.irht.cnrs.fr/iiif/23733/canvas/canvas-2317921#xywh=3582,2504,139,69", 
            "resource": {
                "@type": "cnt:ContentAsText", 
                "chars": "LES", 
                "format": "text/plain"
            }
        }, 
        {
            "@id": "https://manifests.teklia.com/HIMANIS/JJ143/words_annotations/FRAN_0021_17990.json/98/line", 
            "@type": "oa:Annotation", 
            "motivation": "oa:painting", 
            "on": "http://bvmm.irht.cnrs.fr/iiif/23733/canvas/canvas-2317921#xywh=3582,2504,134,69", 
            "resource": {
                "@type": "cnt:ContentAsText", 
                "chars": "IPS", 
                "format": "text/plain"
            }
        }, 
        {
            "@id": "https://manifests.teklia.com/HIMANIS/JJ143/words_annotations/FRAN_0021_17990.json/99/line", 
            "@type": "oa:Annotation", 
            "motivation": "oa:painting", 
            "on": "http://bvmm.irht.cnrs.fr/iiif/23733/canvas/canvas-2317921#xywh=55,2400,38,15", 
            "resource": {
                "@type": "cnt:ContentAsText", 
                "chars": "LES", 
                "format": "text/plain"
            }
        }, 
        {
            "@id": "https://manifests.teklia.com/HIMANIS/JJ143/words_annotations/FRAN_0021_17990.json/100/line", 
            "@type": "oa:Annotation", 
            "motivation": "oa:painting", 
            "on": "http://bvmm.irht.cnrs.fr/iiif/23733/canvas/canvas-2317921#xywh=1708,730,220,194", 
            "resource": {
                "@type": "cnt:ContentAsText", 
                "chars": "POUR", 
                "format": "text/plain"
            }
        }, 
        {
            "@id": "https://manifests.teklia.com/HIMANIS/JJ143/words_annotations/FRAN_0021_17990.json/101/line", 
            "@type": "oa:Annotation", 
            "motivation": "oa:painting", 
            "on": "http://bvmm.irht.cnrs.fr/iiif/23733/canvas/canvas-2317921#xywh=1048,1169,90,130", 
            "resource": {
                "@type": "cnt:ContentAsText", 
                "chars": "LEUR", 
                "format": "text/plain"
            }
        }, 
        {
            "@id": "https://manifests.teklia.com/HIMANIS/JJ143/words_annotations/FRAN_0021_17990.json/102/line", 
            "@type": "oa:Annotation", 
            "motivation": "oa:painting", 
            "on": "http://bvmm.irht.cnrs.fr/iiif/23733/canvas/canvas-2317921#xywh=1991,1688,143,126", 
            "resource": {
                "@type": "cnt:ContentAsText", 
                "chars": "FROYON", 
                "format": "text/plain"
            }
        }, 
        {
            "@id": "https://manifests.teklia.com/HIMANIS/JJ143/words_annotations/FRAN_0021_17990.json/103/line", 
            "@type": "oa:Annotation", 
            "motivation": "oa:painting", 
            "on": "http://bvmm.irht.cnrs.fr/iiif/23733/canvas/canvas-2317921#xywh=1848,954,55,125", 
            "resource": {
                "@type": "cnt:ContentAsText", 
                "chars": "LES", 
                "format": "text/plain"
            }
        }, 
        {
            "@id": "https://manifests.teklia.com/HIMANIS/JJ143/words_annotations/FRAN_0021_17990.json/104/line", 
            "@type": "oa:Annotation", 
            "motivation": "oa:painting", 
            "on": "http://bvmm.irht.cnrs.fr/iiif/23733/canvas/canvas-2317921#xywh=2529,1374,100,201", 
            "resource": {
                "@type": "cnt:ContentAsText", 
                "chars": "MIE", 
                "format": "text/plain"
            }
        }, 
        {
            "@id": "https://manifests.teklia.com/HIMANIS/JJ143/words_annotations/FRAN_0021_17990.json/105/line", 
            "@type": "oa:Annotation", 
            "motivation": "oa:painting", 
            "on": "http://bvmm.irht.cnrs.fr/iiif/23733/canvas/canvas-2317921#xywh=2795,1104,226,116", 
            "resource": {
                "@type": "cnt:ContentAsText", 
                "chars": "SEELIENT", 
                "format": "text/plain"
            }
        }, 
        {
            "@id": "https://manifests.teklia.com/HIMANIS/JJ143/words_annotations/FRAN_0021_17990.json/106/line", 
            "@type": "oa:Annotation", 
            "motivation": "oa:painting", 
            "on": "http://bvmm.irht.cnrs.fr/iiif/23733/canvas/canvas-2317921#xywh=3443,2281,555,71", 
            "resource": {
                "@type": "cnt:ContentAsText", 
                "chars": "PHIL", 
                "format": "text/plain"
            }
        }, 
        {
            "@id": "https://manifests.teklia.com/HIMANIS/JJ143/words_annotations/FRAN_0021_17990.json/107/line", 
            "@type": "oa:Annotation", 
            "motivation": "oa:painting", 
            "on": "http://bvmm.irht.cnrs.fr/iiif/23733/canvas/canvas-2317921#xywh=3443,2281,559,71", 
            "resource": {
                "@type": "cnt:ContentAsText", 
                "chars": "PHEL", 
                "format": "text/plain"
            }
        }, 
        {
            "@id": "https://manifests.teklia.com/HIMANIS/JJ143/words_annotations/FRAN_0021_17990.json/108/line", 
            "@type": "oa:Annotation", 
            "motivation": "oa:painting", 
            "on": "http://bvmm.irht.cnrs.fr/iiif/23733/canvas/canvas-2317921#xywh=2529,1374,100,201", 
            "resource": {
                "@type": "cnt:ContentAsText", 
                "chars": "MIS", 
                "format": "text/plain"
            }
        }, 
        {
            "@id": "https://manifests.teklia.com/HIMANIS/JJ143/words_annotations/FRAN_0021_17990.json/109/line", 
            "@type": "oa:Annotation", 
            "motivation": "oa:painting", 
            "on": "http://bvmm.irht.cnrs.fr/iiif/23733/canvas/canvas-2317921#xywh=675,1238,93,186", 
            "resource": {
                "@type": "cnt:ContentAsText", 
                "chars": "DIZ", 
                "format": "text/plain"
            }
        }, 
        {
            "@id": "https://manifests.teklia.com/HIMANIS/JJ143/words_annotations/FRAN_0021_17990.json/110/line", 
            "@type": "oa:Annotation", 
            "motivation": "oa:painting", 
            "on": "http://bvmm.irht.cnrs.fr/iiif/23733/canvas/canvas-2317921#xywh=1598,1374,138,201", 
            "resource": {
                "@type": "cnt:ContentAsText", 
                "chars": "MOIS", 
                "format": "text/plain"
            }
        }, 
        {
            "@id": "https://manifests.teklia.com/HIMANIS/JJ143/words_annotations/FRAN_0021_17990.json/111/line", 
            "@type": "oa:Annotation", 
            "motivation": "oa:painting", 
            "on": "http://bvmm.irht.cnrs.fr/iiif/23733/canvas/canvas-2317921#xywh=1465,730,146,194", 
            "resource": {
                "@type": "cnt:ContentAsText", 
                "chars": "SOIT", 
                "format": "text/plain"
            }
        }, 
        {
            "@id": "https://manifests.teklia.com/HIMANIS/JJ143/words_annotations/FRAN_0021_17990.json/112/line", 
            "@type": "oa:Annotation", 
            "motivation": "oa:painting", 
            "on": "http://bvmm.irht.cnrs.fr/iiif/23733/canvas/canvas-2317921#xywh=1540,1584,111,136", 
            "resource": {
                "@type": "cnt:ContentAsText", 
                "chars": "PRESENZ", 
                "format": "text/plain"
            }
        }, 
        {
            "@id": "https://manifests.teklia.com/HIMANIS/JJ143/words_annotations/FRAN_0021_17990.json/113/line", 
            "@type": "oa:Annotation", 
            "motivation": "oa:painting", 
            "on": "http://bvmm.irht.cnrs.fr/iiif/23733/canvas/canvas-2317921#xywh=1711,1584,162,136", 
            "resource": {
                "@type": "cnt:ContentAsText", 
                "chars": "MESSEURS", 
                "format": "text/plain"
            }
        }, 
        {
            "@id": "https://manifests.teklia.com/HIMANIS/JJ143/words_annotations/FRAN_0021_17990.json/114/line", 
            "@type": "oa:Annotation", 
            "motivation": "oa:painting", 
            "on": "http://bvmm.irht.cnrs.fr/iiif/23733/canvas/canvas-2317921#xywh=547,1104,44,116", 
            "resource": {
                "@type": "cnt:ContentAsText", 
                "chars": "QUE", 
                "format": "text/plain"
            }
        }, 
        {
            "@id": "https://manifests.teklia.com/HIMANIS/JJ143/words_annotations/FRAN_0021_17990.json/115/line", 
            "@type": "oa:Annotation", 
            "motivation": "oa:painting", 
            "on": "http://bvmm.irht.cnrs.fr/iiif/23733/canvas/canvas-2317921#xywh=2902,730,134,194", 
            "resource": {
                "@type": "cnt:ContentAsText", 
                "chars": "CULT", 
                "format": "text/plain"
            }
        }, 
        {
            "@id": "https://manifests.teklia.com/HIMANIS/JJ143/words_annotations/FRAN_0021_17990.json/116/line", 
            "@type": "oa:Annotation", 
            "motivation": "oa:painting", 
            "on": "http://bvmm.irht.cnrs.fr/iiif/23733/canvas/canvas-2317921#xywh=770,886,22,114", 
            "resource": {
                "@type": "cnt:ContentAsText", 
                "chars": "ET", 
                "format": "text/plain"
            }
        }, 
        {
            "@id": "https://manifests.teklia.com/HIMANIS/JJ143/words_annotations/FRAN_0021_17990.json/117/line", 
            "@type": "oa:Annotation", 
            "motivation": "oa:painting", 
            "on": "http://bvmm.irht.cnrs.fr/iiif/23733/canvas/canvas-2317921#xywh=1079,886,71,114", 
            "resource": {
                "@type": "cnt:ContentAsText", 
                "chars": "CES", 
                "format": "text/plain"
            }
        }, 
        {
            "@id": "https://manifests.teklia.com/HIMANIS/JJ143/words_annotations/FRAN_0021_17990.json/118/line", 
            "@type": "oa:Annotation", 
            "motivation": "oa:painting", 
            "on": "http://bvmm.irht.cnrs.fr/iiif/23733/canvas/canvas-2317921#xywh=1205,1036,203,104", 
            "resource": {
                "@type": "cnt:ContentAsText", 
                "chars": "CESSERANT", 
                "format": "text/plain"
            }
        }, 
        {
            "@id": "https://manifests.teklia.com/HIMANIS/JJ143/words_annotations/FRAN_0021_17990.json/119/line", 
            "@type": "oa:Annotation", 
            "motivation": "oa:painting", 
            "on": "http://bvmm.irht.cnrs.fr/iiif/23733/canvas/canvas-2317921#xywh=2586,1169,49,130", 
            "resource": {
                "@type": "cnt:ContentAsText", 
                "chars": "IL", 
                "format": "text/plain"
            }
        }, 
        {
            "@id": "https://manifests.teklia.com/HIMANIS/JJ143/words_annotations/FRAN_0021_17990.json/120/line", 
            "@type": "oa:Annotation", 
            "motivation": "oa:painting", 
            "on": "http://bvmm.irht.cnrs.fr/iiif/23733/canvas/canvas-2317921#xywh=1163,1169,41,130", 
            "resource": {
                "@type": "cnt:ContentAsText", 
                "chars": "EN", 
                "format": "text/plain"
            }
        }, 
        {
            "@id": "https://manifests.teklia.com/HIMANIS/JJ143/words_annotations/FRAN_0021_17990.json/121/line", 
            "@type": "oa:Annotation", 
            "motivation": "oa:painting", 
            "on": "http://bvmm.irht.cnrs.fr/iiif/23733/canvas/canvas-2317921#xywh=2555,886,158,114", 
            "resource": {
                "@type": "cnt:ContentAsText", 
                "chars": "TENEUR", 
                "format": "text/plain"
            }
        }, 
        {
            "@id": "https://manifests.teklia.com/HIMANIS/JJ143/words_annotations/FRAN_0021_17990.json/122/line", 
            "@type": "oa:Annotation", 
            "motivation": "oa:painting", 
            "on": "http://bvmm.irht.cnrs.fr/iiif/23733/canvas/canvas-2317921#xywh=1637,1169,33,130", 
            "resource": {
                "@type": "cnt:ContentAsText", 
                "chars": "ES", 
                "format": "text/plain"
            }
        }, 
        {
            "@id": "https://manifests.teklia.com/HIMANIS/JJ143/words_annotations/FRAN_0021_17990.json/123/line", 
            "@type": "oa:Annotation", 
            "motivation": "oa:painting", 
            "on": "http://bvmm.irht.cnrs.fr/iiif/23733/canvas/canvas-2317921#xywh=969,954,63,125", 
            "resource": {
                "@type": "cnt:ContentAsText", 
                "chars": "ET", 
                "format": "text/plain"
            }
        }, 
        {
            "@id": "https://manifests.teklia.com/HIMANIS/JJ143/words_annotations/FRAN_0021_17990.json/124/line", 
            "@type": "oa:Annotation", 
            "motivation": "oa:painting", 
            "on": "http://bvmm.irht.cnrs.fr/iiif/23733/canvas/canvas-2317921#xywh=2668,1169,253,130", 
            "resource": {
                "@type": "cnt:ContentAsText", 
                "chars": "APPARTENDRA", 
                "format": "text/plain"
            }
        }, 
        {
            "@id": "https://manifests.teklia.com/HIMANIS/JJ143/words_annotations/FRAN_0021_17990.json/125/line", 
            "@type": "oa:Annotation", 
            "motivation": "oa:painting", 
            "on": "http://bvmm.irht.cnrs.fr/iiif/23733/canvas/canvas-2317921#xywh=1711,1169,196,130", 
            "resource": {
                "@type": "cnt:ContentAsText", 
                "chars": "COMPTES", 
                "format": "text/plain"
            }
        }, 
        {
            "@id": "https://manifests.teklia.com/HIMANIS/JJ143/words_annotations/FRAN_0021_17990.json/126/line", 
            "@type": "oa:Annotation", 
            "motivation": "oa:painting", 
            "on": "http://bvmm.irht.cnrs.fr/iiif/23733/canvas/canvas-2317921#xywh=857,1036,20,104", 
            "resource": {
                "@type": "cnt:ContentAsText", 
                "chars": "ET", 
                "format": "text/plain"
            }
        }, 
        {
            "@id": "https://manifests.teklia.com/HIMANIS/JJ143/words_annotations/FRAN_0021_17990.json/127/line", 
            "@type": "oa:Annotation", 
            "motivation": "oa:painting", 
            "on": "http://bvmm.irht.cnrs.fr/iiif/23733/canvas/canvas-2317921#xywh=1973,1036,13,104", 
            "resource": {
                "@type": "cnt:ContentAsText", 
                "chars": "AU", 
                "format": "text/plain"
            }
        }, 
        {
            "@id": "https://manifests.teklia.com/HIMANIS/JJ143/words_annotations/FRAN_0021_17990.json/128/line", 
            "@type": "oa:Annotation", 
            "motivation": "oa:painting", 
            "on": "http://bvmm.irht.cnrs.fr/iiif/23733/canvas/canvas-2317921#xywh=2305,886,114,114", 
            "resource": {
                "@type": "cnt:ContentAsText", 
                "chars": "SELON", 
                "format": "text/plain"
            }
        }, 
        {
            "@id": "https://manifests.teklia.com/HIMANIS/JJ143/words_annotations/FRAN_0021_17990.json/129/line", 
            "@type": "oa:Annotation", 
            "motivation": "oa:painting", 
            "on": "http://bvmm.irht.cnrs.fr/iiif/23733/canvas/canvas-2317921#xywh=1120,1374,138,201", 
            "resource": {
                "@type": "cnt:ContentAsText", 
                "chars": "ROIS", 
                "format": "text/plain"
            }
        }, 
        {
            "@id": "https://manifests.teklia.com/HIMANIS/JJ143/words_annotations/FRAN_0021_17990.json/130/line", 
            "@type": "oa:Annotation", 
            "motivation": "oa:painting", 
            "on": "http://bvmm.irht.cnrs.fr/iiif/23733/canvas/canvas-2317921#xywh=1702,886,93,114", 
            "resource": {
                "@type": "cnt:ContentAsText", 
                "chars": "LEUR", 
                "format": "text/plain"
            }
        }, 
        {
            "@id": "https://manifests.teklia.com/HIMANIS/JJ143/words_annotations/FRAN_0021_17990.json/131/line", 
            "@type": "oa:Annotation", 
            "motivation": "oa:painting", 
            "on": "http://bvmm.irht.cnrs.fr/iiif/23733/canvas/canvas-2317921#xywh=2052,1238,35,186", 
            "resource": {
                "@type": "cnt:ContentAsText", 
                "chars": "ET", 
                "format": "text/plain"
            }
        }, 
        {
            "@id": "https://manifests.teklia.com/HIMANIS/JJ143/words_annotations/FRAN_0021_17990.json/132/line", 
            "@type": "oa:Annotation", 
            "motivation": "oa:painting", 
            "on": "http://bvmm.irht.cnrs.fr/iiif/23733/canvas/canvas-2317921#xywh=2730,1374,100,201", 
            "resource": {
                "@type": "cnt:ContentAsText", 
                "chars": "NOSTRIS", 
                "format": "text/plain"
            }
        }, 
        {
            "@id": "https://manifests.teklia.com/HIMANIS/JJ143/words_annotations/FRAN_0021_17990.json/133/line", 
            "@type": "oa:Annotation", 
            "motivation": "oa:painting", 
            "on": "http://bvmm.irht.cnrs.fr/iiif/23733/canvas/canvas-2317921#xywh=1691,954,126,125", 
            "resource": {
                "@type": "cnt:ContentAsText", 
                "chars": "GRACE", 
                "format": "text/plain"
            }
        }, 
        {
            "@id": "https://manifests.teklia.com/HIMANIS/JJ143/words_annotations/FRAN_0021_17990.json/134/line", 
            "@type": "oa:Annotation", 
            "motivation": "oa:painting", 
            "on": "http://bvmm.irht.cnrs.fr/iiif/23733/canvas/canvas-2317921#xywh=831,730,256,194", 
            "resource": {
                "@type": "cnt:ContentAsText", 
                "chars": "ET", 
                "format": "text/plain"
            }
        }, 
        {
            "@id": "https://manifests.teklia.com/HIMANIS/JJ143/words_annotations/FRAN_0021_17990.json/135/line", 
            "@type": "oa:Annotation", 
            "motivation": "oa:painting", 
            "on": "http://bvmm.irht.cnrs.fr/iiif/23733/canvas/canvas-2317921#xywh=813,886,180,114", 
            "resource": {
                "@type": "cnt:ContentAsText", 
                "chars": "DELIVRER", 
                "format": "text/plain"
            }
        }, 
        {
            "@id": "https://manifests.teklia.com/HIMANIS/JJ143/words_annotations/FRAN_0021_17990.json/136/line", 
            "@type": "oa:Annotation", 
            "motivation": "oa:painting", 
            "on": "http://bvmm.irht.cnrs.fr/iiif/23733/canvas/canvas-2317921#xywh=897,1036,256,104", 
            "resource": {
                "@type": "cnt:ContentAsText", 
                "chars": "PAISIBLEMENT", 
                "format": "text/plain"
            }
        }, 
        {
            "@id": "https://manifests.teklia.com/HIMANIS/JJ143/words_annotations/FRAN_0021_17990.json/137/line", 
            "@type": "oa:Annotation", 
            "motivation": "oa:painting", 
            "on": "http://bvmm.irht.cnrs.fr/iiif/23733/canvas/canvas-2317921#xywh=1817,1104,197,116", 
            "resource": {
                "@type": "cnt:ContentAsText", 
                "chars": "D'ICELLES", 
                "format": "text/plain"
            }
        }, 
        {
            "@id": "https://manifests.teklia.com/HIMANIS/JJ143/words_annotations/FRAN_0021_17990.json/138/line", 
            "@type": "oa:Annotation", 
            "motivation": "oa:painting", 
            "on": "http://bvmm.irht.cnrs.fr/iiif/23733/canvas/canvas-2317921#xywh=2730,1374,38,201", 
            "resource": {
                "@type": "cnt:ContentAsText", 
                "chars": "NOSTRE", 
                "format": "text/plain"
            }
        }, 
        {
            "@id": "https://manifests.teklia.com/HIMANIS/JJ143/words_annotations/FRAN_0021_17990.json/139/line", 
            "@type": "oa:Annotation", 
            "motivation": "oa:painting", 
            "on": "http://bvmm.irht.cnrs.fr/iiif/23733/canvas/canvas-2317921#xywh=2730,1374,75,201", 
            "resource": {
                "@type": "cnt:ContentAsText", 
                "chars": "NOSTRI", 
                "format": "text/plain"
            }
        }, 
        {
            "@id": "https://manifests.teklia.com/HIMANIS/JJ143/words_annotations/FRAN_0021_17990.json/140/line", 
            "@type": "oa:Annotation", 
            "motivation": "oa:painting", 
            "on": "http://bvmm.irht.cnrs.fr/iiif/23733/canvas/canvas-2317921#xywh=1308,886,229,114", 
            "resource": {
                "@type": "cnt:ContentAsText", 
                "chars": "RELINEUR", 
                "format": "text/plain"
            }
        }, 
        {
            "@id": "https://manifests.teklia.com/HIMANIS/JJ143/words_annotations/FRAN_0021_17990.json/141/line", 
            "@type": "oa:Annotation", 
            "motivation": "oa:painting", 
            "on": "http://bvmm.irht.cnrs.fr/iiif/23733/canvas/canvas-2317921#xywh=863,886,130,114", 
            "resource": {
                "@type": "cnt:ContentAsText", 
                "chars": "LIVRER", 
                "format": "text/plain"
            }
        }, 
        {
            "@id": "https://manifests.teklia.com/HIMANIS/JJ143/words_annotations/FRAN_0021_17990.json/142/line", 
            "@type": "oa:Annotation", 
            "motivation": "oa:painting", 
            "on": "http://bvmm.irht.cnrs.fr/iiif/23733/canvas/canvas-2317921#xywh=2830,954,102,125", 
            "resource": {
                "@type": "cnt:ContentAsText", 
                "chars": "USER", 
                "format": "text/plain"
            }
        }, 
        {
            "@id": "https://manifests.teklia.com/HIMANIS/JJ143/words_annotations/FRAN_0021_17990.json/143/line", 
            "@type": "oa:Annotation", 
            "motivation": "oa:painting", 
            "on": "http://bvmm.irht.cnrs.fr/iiif/23733/canvas/canvas-2317921#xywh=2744,730,134,194", 
            "resource": {
                "@type": "cnt:ContentAsText", 
                "chars": "CHASCUN", 
                "format": "text/plain"
            }
        }, 
        {
            "@id": "https://manifests.teklia.com/HIMANIS/JJ143/words_annotations/FRAN_0021_17990.json/144/line", 
            "@type": "oa:Annotation", 
            "motivation": "oa:painting", 
            "on": "http://bvmm.irht.cnrs.fr/iiif/23733/canvas/canvas-2317921#xywh=1618,1688,230,126", 
            "resource": {
                "@type": "cnt:ContentAsText", 
                "chars": "LEVESQUE", 
                "format": "text/plain"
            }
        }, 
        {
            "@id": "https://manifests.teklia.com/HIMANIS/JJ143/words_annotations/FRAN_0021_17990.json/145/line", 
            "@type": "oa:Annotation", 
            "motivation": "oa:painting", 
            "on": "http://bvmm.irht.cnrs.fr/iiif/23733/canvas/canvas-2317921#xywh=2320,1104,234,116", 
            "resource": {
                "@type": "cnt:ContentAsText", 
                "chars": "QUICTAVRE", 
                "format": "text/plain"
            }
        }, 
        {
            "@id": "https://manifests.teklia.com/HIMANIS/JJ143/words_annotations/FRAN_0021_17990.json/146/line", 
            "@type": "oa:Annotation", 
            "motivation": "oa:painting", 
            "on": "http://bvmm.irht.cnrs.fr/iiif/23733/canvas/canvas-2317921#xywh=1403,1584,69,136", 
            "resource": {
                "@type": "cnt:ContentAsText", 
                "chars": "ROY", 
                "format": "text/plain"
            }
        }, 
        {
            "@id": "https://manifests.teklia.com/HIMANIS/JJ143/words_annotations/FRAN_0021_17990.json/147/line", 
            "@type": "oa:Annotation", 
            "motivation": "oa:painting", 
            "on": "http://bvmm.irht.cnrs.fr/iiif/23733/canvas/canvas-2317921#xywh=1107,1238,210,186", 
            "resource": {
                "@type": "cnt:ContentAsText", 
                "chars": "COMPTES", 
                "format": "text/plain"
            }
        }, 
        {
            "@id": "https://manifests.teklia.com/HIMANIS/JJ143/words_annotations/FRAN_0021_17990.json/148/line", 
            "@type": "oa:Annotation", 
            "motivation": "oa:painting", 
            "on": "http://bvmm.irht.cnrs.fr/iiif/23733/canvas/canvas-2317921#xywh=2366,730,134,194", 
            "resource": {
                "@type": "cnt:ContentAsText", 
                "chars": "SERONT", 
                "format": "text/plain"
            }
        }, 
        {
            "@id": "https://manifests.teklia.com/HIMANIS/JJ143/words_annotations/FRAN_0021_17990.json/149/line", 
            "@type": "oa:Annotation", 
            "motivation": "oa:painting", 
            "on": "http://bvmm.irht.cnrs.fr/iiif/23733/canvas/canvas-2317921#xywh=1907,1584,60,136", 
            "resource": {
                "@type": "cnt:ContentAsText", 
                "chars": "LES", 
                "format": "text/plain"
            }
        }, 
        {
            "@id": "https://manifests.teklia.com/HIMANIS/JJ143/words_annotations/FRAN_0021_17990.json/150/line", 
            "@type": "oa:Annotation", 
            "motivation": "oa:painting", 
            "on": "http://bvmm.irht.cnrs.fr/iiif/23733/canvas/canvas-2317921#xywh=537,954,133,125", 
            "resource": {
                "@type": "cnt:ContentAsText", 
                "chars": "CON", 
                "format": "text/plain"
            }
        }, 
        {
            "@id": "https://manifests.teklia.com/HIMANIS/JJ143/words_annotations/FRAN_0021_17990.json/151/line", 
            "@type": "oa:Annotation", 
            "motivation": "oa:painting", 
            "on": "http://bvmm.irht.cnrs.fr/iiif/23733/canvas/canvas-2317921#xywh=2943,886,143,114", 
            "resource": {
                "@type": "cnt:ContentAsText", 
                "chars": "PRESENT", 
                "format": "text/plain"
            }
        }, 
        {
            "@id": "https://manifests.teklia.com/HIMANIS/JJ143/words_annotations/FRAN_0021_17990.json/152/line", 
            "@type": "oa:Annotation", 
            "motivation": "oa:painting", 
            "on": "http://bvmm.irht.cnrs.fr/iiif/23733/canvas/canvas-2317921#xywh=2902,730,122,194", 
            "resource": {
                "@type": "cnt:ContentAsText", 
                "chars": "D'EULT", 
                "format": "text/plain"
            }
        }, 
        {
            "@id": "https://manifests.teklia.com/HIMANIS/JJ143/words_annotations/FRAN_0021_17990.json/153/line", 
            "@type": "oa:Annotation", 
            "motivation": "oa:painting", 
            "on": "http://bvmm.irht.cnrs.fr/iiif/23733/canvas/canvas-2317921#xywh=537,954,110,125", 
            "resource": {
                "@type": "cnt:ContentAsText", 
                "chars": "COU", 
                "format": "text/plain"
            }
        }, 
        {
            "@id": "https://manifests.teklia.com/HIMANIS/JJ143/words_annotations/FRAN_0021_17990.json/154/line", 
            "@type": "oa:Annotation", 
            "motivation": "oa:painting", 
            "on": "http://bvmm.irht.cnrs.fr/iiif/23733/canvas/canvas-2317921#xywh=2659,1238,140,186", 
            "resource": {
                "@type": "cnt:ContentAsText", 
                "chars": "NOUS", 
                "format": "text/plain"
            }
        }, 
        {
            "@id": "https://manifests.teklia.com/HIMANIS/JJ143/words_annotations/FRAN_0021_17990.json/155/line", 
            "@type": "oa:Annotation", 
            "motivation": "oa:painting", 
            "on": "http://bvmm.irht.cnrs.fr/iiif/23733/canvas/canvas-2317921#xywh=1708,730,86,194", 
            "resource": {
                "@type": "cnt:ContentAsText", 
                "chars": "QUE", 
                "format": "text/plain"
            }
        }, 
        {
            "@id": "https://manifests.teklia.com/HIMANIS/JJ143/words_annotations/FRAN_0021_17990.json/156/line", 
            "@type": "oa:Annotation", 
            "motivation": "oa:painting", 
            "on": "http://bvmm.irht.cnrs.fr/iiif/23733/canvas/canvas-2317921#xywh=1309,1374,125,201", 
            "resource": {
                "@type": "cnt:ContentAsText", 
                "chars": "SOMME", 
                "format": "text/plain"
            }
        }, 
        {
            "@id": "https://manifests.teklia.com/HIMANIS/JJ143/words_annotations/FRAN_0021_17990.json/157/line", 
            "@type": "oa:Annotation", 
            "motivation": "oa:painting", 
            "on": "http://bvmm.irht.cnrs.fr/iiif/23733/canvas/canvas-2317921#xywh=1221,730,73,194", 
            "resource": {
                "@type": "cnt:ContentAsText", 
                "chars": "QUI", 
                "format": "text/plain"
            }
        }, 
        {
            "@id": "https://manifests.teklia.com/HIMANIS/JJ143/words_annotations/FRAN_0021_17990.json/158/line", 
            "@type": "oa:Annotation", 
            "motivation": "oa:painting", 
            "on": "http://bvmm.irht.cnrs.fr/iiif/23733/canvas/canvas-2317921#xywh=504,1374,251,201", 
            "resource": {
                "@type": "cnt:ContentAsText", 
                "chars": "COMME", 
                "format": "text/plain"
            }
        }, 
        {
            "@id": "https://manifests.teklia.com/HIMANIS/JJ143/words_annotations/FRAN_0021_17990.json/159/line", 
            "@type": "oa:Annotation", 
            "motivation": "oa:painting", 
            "on": "http://bvmm.irht.cnrs.fr/iiif/23733/canvas/canvas-2317921#xywh=1220,1169,66,130", 
            "resource": {
                "@type": "cnt:ContentAsText", 
                "chars": "SERA", 
                "format": "text/plain"
            }
        }, 
        {
            "@id": "https://manifests.teklia.com/HIMANIS/JJ143/words_annotations/FRAN_0021_17990.json/160/line", 
            "@type": "oa:Annotation", 
            "motivation": "oa:painting", 
            "on": "http://bvmm.irht.cnrs.fr/iiif/23733/canvas/canvas-2317921#xywh=1465,730,146,194", 
            "resource": {
                "@type": "cnt:ContentAsText", 
                "chars": "SONT", 
                "format": "text/plain"
            }
        }, 
        {
            "@id": "https://manifests.teklia.com/HIMANIS/JJ143/words_annotations/FRAN_0021_17990.json/161/line", 
            "@type": "oa:Annotation", 
            "motivation": "oa:painting", 
            "on": "http://bvmm.irht.cnrs.fr/iiif/23733/canvas/canvas-2317921#xywh=2051,1036,236,104", 
            "resource": {
                "@type": "cnt:ContentAsText", 
                "chars": "CONTRAIRE", 
                "format": "text/plain"
            }
        }, 
        {
            "@id": "https://manifests.teklia.com/HIMANIS/JJ143/words_annotations/FRAN_0021_17990.json/162/line", 
            "@type": "oa:Annotation", 
            "motivation": "oa:painting", 
            "on": "http://bvmm.irht.cnrs.fr/iiif/23733/canvas/canvas-2317921#xywh=1174,1104,125,116", 
            "resource": {
                "@type": "cnt:ContentAsText", 
                "chars": "PRESENTER", 
                "format": "text/plain"
            }
        }, 
        {
            "@id": "https://manifests.teklia.com/HIMANIS/JJ143/words_annotations/FRAN_0021_17990.json/163/line", 
            "@type": "oa:Annotation", 
            "motivation": "oa:painting", 
            "on": "http://bvmm.irht.cnrs.fr/iiif/23733/canvas/canvas-2317921#xywh=3582,2504,390,69", 
            "resource": {
                "@type": "cnt:ContentAsText", 
                "chars": "PPES", 
                "format": "text/plain"
            }
        }, 
        {
            "@id": "https://manifests.teklia.com/HIMANIS/JJ143/words_annotations/FRAN_0021_17990.json/164/line", 
            "@type": "oa:Annotation", 
            "motivation": "oa:painting", 
            "on": "http://bvmm.irht.cnrs.fr/iiif/23733/canvas/canvas-2317921#xywh=2277,1688,230,126", 
            "resource": {
                "@type": "cnt:ContentAsText", 
                "chars": "DERAN", 
                "format": "text/plain"
            }
        }, 
        {
            "@id": "https://manifests.teklia.com/HIMANIS/JJ143/words_annotations/FRAN_0021_17990.json/165/line", 
            "@type": "oa:Annotation", 
            "motivation": "oa:painting", 
            "on": "http://bvmm.irht.cnrs.fr/iiif/23733/canvas/canvas-2317921#xywh=45,1238,595,186", 
            "resource": {
                "@type": "cnt:ContentAsText", 
                "chars": "NOZ", 
                "format": "text/plain"
            }
        }, 
        {
            "@id": "https://manifests.teklia.com/HIMANIS/JJ143/words_annotations/FRAN_0021_17990.json/166/line", 
            "@type": "oa:Annotation", 
            "motivation": "oa:painting", 
            "on": "http://bvmm.irht.cnrs.fr/iiif/23733/canvas/canvas-2317921#xywh=2110,1238,175,186", 
            "resource": {
                "@type": "cnt:ContentAsText", 
                "chars": "ESTABLE", 
                "format": "text/plain"
            }
        }, 
        {
            "@id": "https://manifests.teklia.com/HIMANIS/JJ143/words_annotations/FRAN_0021_17990.json/167/line", 
            "@type": "oa:Annotation", 
            "motivation": "oa:painting", 
            "on": "http://bvmm.irht.cnrs.fr/iiif/23733/canvas/canvas-2317921#xywh=2795,1104,226,116", 
            "resource": {
                "@type": "cnt:ContentAsText", 
                "chars": "FRELIENT", 
                "format": "text/plain"
            }
        }, 
        {
            "@id": "https://manifests.teklia.com/HIMANIS/JJ143/words_annotations/FRAN_0021_17990.json/168/line", 
            "@type": "oa:Annotation", 
            "motivation": "oa:painting", 
            "on": "http://bvmm.irht.cnrs.fr/iiif/23733/canvas/canvas-2317921#xywh=2455,1169,57,130", 
            "resource": {
                "@type": "cnt:ContentAsText", 
                "chars": "QUI", 
                "format": "text/plain"
            }
        }, 
        {
            "@id": "https://manifests.teklia.com/HIMANIS/JJ143/words_annotations/FRAN_0021_17990.json/169/line", 
            "@type": "oa:Annotation", 
            "motivation": "oa:painting", 
            "on": "http://bvmm.irht.cnrs.fr/iiif/23733/canvas/canvas-2317921#xywh=2352,1374,139,201", 
            "resource": {
                "@type": "cnt:ContentAsText", 
                "chars": "GRACE", 
                "format": "text/plain"
            }
        }, 
        {
            "@id": "https://manifests.teklia.com/HIMANIS/JJ143/words_annotations/FRAN_0021_17990.json/170/line", 
            "@type": "oa:Annotation", 
            "motivation": "oa:painting", 
            "on": "http://bvmm.irht.cnrs.fr/iiif/23733/canvas/canvas-2317921#xywh=2431,1169,0,130", 
            "resource": {
                "@type": "cnt:ContentAsText", 
                "chars": "A", 
                "format": "text/plain"
            }
        }, 
        {
            "@id": "https://manifests.teklia.com/HIMANIS/JJ143/words_annotations/FRAN_0021_17990.json/171/line", 
            "@type": "oa:Annotation", 
            "motivation": "oa:painting", 
            "on": "http://bvmm.irht.cnrs.fr/iiif/23733/canvas/canvas-2317921#xywh=1585,1238,94,186", 
            "resource": {
                "@type": "cnt:ContentAsText", 
                "chars": "SOIT", 
                "format": "text/plain"
            }
        }, 
        {
            "@id": "https://manifests.teklia.com/HIMANIS/JJ143/words_annotations/FRAN_0021_17990.json/172/line", 
            "@type": "oa:Annotation", 
            "motivation": "oa:painting", 
            "on": "http://bvmm.irht.cnrs.fr/iiif/23733/canvas/canvas-2317921#xywh=2795,1104,226,116", 
            "resource": {
                "@type": "cnt:ContentAsText", 
                "chars": "RELIENT", 
                "format": "text/plain"
            }
        }, 
        {
            "@id": "https://manifests.teklia.com/HIMANIS/JJ143/words_annotations/FRAN_0021_17990.json/173/line", 
            "@type": "oa:Annotation", 
            "motivation": "oa:painting", 
            "on": "http://bvmm.irht.cnrs.fr/iiif/23733/canvas/canvas-2317921#xywh=2744,730,134,194", 
            "resource": {
                "@type": "cnt:ContentAsText", 
                "chars": "CHAMONT", 
                "format": "text/plain"
            }
        }, 
        {
            "@id": "https://manifests.teklia.com/HIMANIS/JJ143/words_annotations/FRAN_0021_17990.json/174/line", 
            "@type": "oa:Annotation", 
            "motivation": "oa:painting", 
            "on": "http://bvmm.irht.cnrs.fr/iiif/23733/canvas/canvas-2317921#xywh=543,1036,262,104", 
            "resource": {
                "@type": "cnt:ContentAsText", 
                "chars": "PLAINEMENT", 
                "format": "text/plain"
            }
        }, 
        {
            "@id": "https://manifests.teklia.com/HIMANIS/JJ143/words_annotations/FRAN_0021_17990.json/175/line", 
            "@type": "oa:Annotation", 
            "motivation": "oa:painting", 
            "on": "http://bvmm.irht.cnrs.fr/iiif/23733/canvas/canvas-2317921#xywh=1079,886,71,114", 
            "resource": {
                "@type": "cnt:ContentAsText", 
                "chars": "SES", 
                "format": "text/plain"
            }
        }, 
        {
            "@id": "https://manifests.teklia.com/HIMANIS/JJ143/words_annotations/FRAN_0021_17990.json/176/line", 
            "@type": "oa:Annotation", 
            "motivation": "oa:painting", 
            "on": "http://bvmm.irht.cnrs.fr/iiif/23733/canvas/canvas-2317921#xywh=1449,1169,147,130", 
            "resource": {
                "@type": "cnt:ContentAsText", 
                "chars": "ALLOIE", 
                "format": "text/plain"
            }
        }, 
        {
            "@id": "https://manifests.teklia.com/HIMANIS/JJ143/words_annotations/FRAN_0021_17990.json/177/line", 
            "@type": "oa:Annotation", 
            "motivation": "oa:painting", 
            "on": "http://bvmm.irht.cnrs.fr/iiif/23733/canvas/canvas-2317921#xywh=1517,1104,256,116", 
            "resource": {
                "@type": "cnt:ContentAsText", 
                "chars": "TRANSCUPT", 
                "format": "text/plain"
            }
        }, 
        {
            "@id": "https://manifests.teklia.com/HIMANIS/JJ143/words_annotations/FRAN_0021_17990.json/178/line", 
            "@type": "oa:Annotation", 
            "motivation": "oa:painting", 
            "on": "http://bvmm.irht.cnrs.fr/iiif/23733/canvas/canvas-2317921#xywh=1120,1374,126,201", 
            "resource": {
                "@type": "cnt:ContentAsText", 
                "chars": "ROY", 
                "format": "text/plain"
            }
        }, 
        {
            "@id": "https://manifests.teklia.com/HIMANIS/JJ143/words_annotations/FRAN_0021_17990.json/179/line", 
            "@type": "oa:Annotation", 
            "motivation": "oa:painting", 
            "on": "http://bvmm.irht.cnrs.fr/iiif/23733/canvas/canvas-2317921#xywh=2196,730,146,194", 
            "resource": {
                "@type": "cnt:ContentAsText", 
                "chars": "AVENIR", 
                "format": "text/plain"
            }
        }, 
        {
            "@id": "https://manifests.teklia.com/HIMANIS/JJ143/words_annotations/FRAN_0021_17990.json/180/line", 
            "@type": "oa:Annotation", 
            "motivation": "oa:painting", 
            "on": "http://bvmm.irht.cnrs.fr/iiif/23733/canvas/canvas-2317921#xywh=1449,1169,147,130", 
            "resource": {
                "@type": "cnt:ContentAsText", 
                "chars": "ALLOIR", 
                "format": "text/plain"
            }
        }, 
        {
            "@id": "https://manifests.teklia.com/HIMANIS/JJ143/words_annotations/FRAN_0021_17990.json/181/line", 
            "@type": "oa:Annotation", 
            "motivation": "oa:painting", 
            "on": "http://bvmm.irht.cnrs.fr/iiif/23733/canvas/canvas-2317921#xywh=1449,1169,147,130", 
            "resource": {
                "@type": "cnt:ContentAsText", 
                "chars": "ALLOIT", 
                "format": "text/plain"
            }
        }, 
        {
            "@id": "https://manifests.teklia.com/HIMANIS/JJ143/words_annotations/FRAN_0021_17990.json/182/line", 
            "@type": "oa:Annotation", 
            "motivation": "oa:painting", 
            "on": "http://bvmm.irht.cnrs.fr/iiif/23733/canvas/canvas-2317921#xywh=1019,1374,63,201", 
            "resource": {
                "@type": "cnt:ContentAsText", 
                "chars": "LE", 
                "format": "text/plain"
            }
        }, 
        {
            "@id": "https://manifests.teklia.com/HIMANIS/JJ143/words_annotations/FRAN_0021_17990.json/183/line", 
            "@type": "oa:Annotation", 
            "motivation": "oa:painting", 
            "on": "http://bvmm.irht.cnrs.fr/iiif/23733/canvas/canvas-2317921#xywh=1774,1374,63,201", 
            "resource": {
                "@type": "cnt:ContentAsText", 
                "chars": "DE", 
                "format": "text/plain"
            }
        }, 
        {
            "@id": "https://manifests.teklia.com/HIMANIS/JJ143/words_annotations/FRAN_0021_17990.json/184/line", 
            "@type": "oa:Annotation", 
            "motivation": "oa:painting", 
            "on": "http://bvmm.irht.cnrs.fr/iiif/23733/canvas/canvas-2317921#xywh=1308,886,229,114", 
            "resource": {
                "@type": "cnt:ContentAsText", 
                "chars": "RELINENT", 
                "format": "text/plain"
            }
        }, 
        {
            "@id": "https://manifests.teklia.com/HIMANIS/JJ143/words_annotations/FRAN_0021_17990.json/185/line", 
            "@type": "oa:Annotation", 
            "motivation": "oa:painting", 
            "on": "http://bvmm.irht.cnrs.fr/iiif/23733/canvas/canvas-2317921#xywh=1485,1374,63,201", 
            "resource": {
                "@type": "cnt:ContentAsText", 
                "chars": "DU", 
                "format": "text/plain"
            }
        }, 
        {
            "@id": "https://manifests.teklia.com/HIMANIS/JJ143/words_annotations/FRAN_0021_17990.json/186/line", 
            "@type": "oa:Annotation", 
            "motivation": "oa:painting", 
            "on": "http://bvmm.irht.cnrs.fr/iiif/23733/canvas/canvas-2317921#xywh=2911,1036,216,104", 
            "resource": {
                "@type": "cnt:ContentAsText", 
                "chars": "MANDONS", 
                "format": "text/plain"
            }
        }, 
        {
            "@id": "https://manifests.teklia.com/HIMANIS/JJ143/words_annotations/FRAN_0021_17990.json/187/line", 
            "@type": "oa:Annotation", 
            "motivation": "oa:painting", 
            "on": "http://bvmm.irht.cnrs.fr/iiif/23733/canvas/canvas-2317921#xywh=1666,886,0,114", 
            "resource": {
                "@type": "cnt:ContentAsText", 
                "chars": "A", 
                "format": "text/plain"
            }
        }, 
        {
            "@id": "https://manifests.teklia.com/HIMANIS/JJ143/words_annotations/FRAN_0021_17990.json/188/line", 
            "@type": "oa:Annotation", 
            "motivation": "oa:painting", 
            "on": "http://bvmm.irht.cnrs.fr/iiif/23733/canvas/canvas-2317921#xywh=2911,1036,216,104", 
            "resource": {
                "@type": "cnt:ContentAsText", 
                "chars": "MANDONT", 
                "format": "text/plain"
            }
        }, 
        {
            "@id": "https://manifests.teklia.com/HIMANIS/JJ143/words_annotations/FRAN_0021_17990.json/189/line", 
            "@type": "oa:Annotation", 
            "motivation": "oa:painting", 
            "on": "http://bvmm.irht.cnrs.fr/iiif/23733/canvas/canvas-2317921#xywh=2320,1104,234,116", 
            "resource": {
                "@type": "cnt:ContentAsText", 
                "chars": "QUICTARE", 
                "format": "text/plain"
            }
        }
    ]
}