{
    "@context": "http://iiif.io/api/presentation/2/context.json", 
    "@id": "https://manifests.teklia.com/HIMANIS/JJ090/words_annotations/FRCHANJJ_JJ090_0216R.json", 
    "@type": "sc:AnnotationList", 
    "resources": [
        {
            "@id": "https://manifests.teklia.com/HIMANIS/JJ090/words_annotations/FRCHANJJ_JJ090_0216R.json/0/line", 
            "@type": "oa:Annotation", 
            "motivation": "oa:painting", 
            "on": "http://bvmm.irht.cnrs.fr/iiif/23678/canvas/canvas-2298462#xywh=3400,2528,49,44", 
            "resource": {
                "@type": "cnt:ContentAsText", 
                "chars": "NOSTRE", 
                "format": "text/plain"
            }
        }, 
        {
            "@id": "https://manifests.teklia.com/HIMANIS/JJ090/words_annotations/FRCHANJJ_JJ090_0216R.json/1/line", 
            "@type": "oa:Annotation", 
            "motivation": "oa:painting", 
            "on": "http://bvmm.irht.cnrs.fr/iiif/23678/canvas/canvas-2298462#xywh=70,4108,179,48", 
            "resource": {
                "@type": "cnt:ContentAsText", 
                "chars": "CHAL", 
                "format": "text/plain"
            }
        }, 
        {
            "@id": "https://manifests.teklia.com/HIMANIS/JJ090/words_annotations/FRCHANJJ_JJ090_0216R.json/2/line", 
            "@type": "oa:Annotation", 
            "motivation": "oa:painting", 
            "on": "http://bvmm.irht.cnrs.fr/iiif/23678/canvas/canvas-2298462#xywh=1937,3396,0,60", 
            "resource": {
                "@type": "cnt:ContentAsText", 
                "chars": "S", 
                "format": "text/plain"
            }
        }, 
        {
            "@id": "https://manifests.teklia.com/HIMANIS/JJ090/words_annotations/FRCHANJJ_JJ090_0216R.json/3/line", 
            "@type": "oa:Annotation", 
            "motivation": "oa:painting", 
            "on": "http://bvmm.irht.cnrs.fr/iiif/23678/canvas/canvas-2298462#xywh=3408,2528,44,44", 
            "resource": {
                "@type": "cnt:ContentAsText", 
                "chars": "LES", 
                "format": "text/plain"
            }
        }, 
        {
            "@id": "https://manifests.teklia.com/HIMANIS/JJ090/words_annotations/FRCHANJJ_JJ090_0216R.json/4/line", 
            "@type": "oa:Annotation", 
            "motivation": "oa:painting", 
            "on": "http://bvmm.irht.cnrs.fr/iiif/23678/canvas/canvas-2298462#xywh=183,3932,42,52", 
            "resource": {
                "@type": "cnt:ContentAsText", 
                "chars": "VIN", 
                "format": "text/plain"
            }
        }, 
        {
            "@id": "https://manifests.teklia.com/HIMANIS/JJ090/words_annotations/FRCHANJJ_JJ090_0216R.json/5/line", 
            "@type": "oa:Annotation", 
            "motivation": "oa:painting", 
            "on": "http://bvmm.irht.cnrs.fr/iiif/23678/canvas/canvas-2298462#xywh=1617,3456,229,96", 
            "resource": {
                "@type": "cnt:ContentAsText", 
                "chars": "BELACIOSO", 
                "format": "text/plain"
            }
        }, 
        {
            "@id": "https://manifests.teklia.com/HIMANIS/JJ090/words_annotations/FRCHANJJ_JJ090_0216R.json/6/line", 
            "@type": "oa:Annotation", 
            "motivation": "oa:painting", 
            "on": "http://bvmm.irht.cnrs.fr/iiif/23678/canvas/canvas-2298462#xywh=62,3984,97,48", 
            "resource": {
                "@type": "cnt:ContentAsText", 
                "chars": "MANS", 
                "format": "text/plain"
            }
        }, 
        {
            "@id": "https://manifests.teklia.com/HIMANIS/JJ090/words_annotations/FRCHANJJ_JJ090_0216R.json/7/line", 
            "@type": "oa:Annotation", 
            "motivation": "oa:painting", 
            "on": "http://bvmm.irht.cnrs.fr/iiif/23678/canvas/canvas-2298462#xywh=115,3932,0,52", 
            "resource": {
                "@type": "cnt:ContentAsText", 
                "chars": "J", 
                "format": "text/plain"
            }
        }, 
        {
            "@id": "https://manifests.teklia.com/HIMANIS/JJ090/words_annotations/FRCHANJJ_JJ090_0216R.json/8/line", 
            "@type": "oa:Annotation", 
            "motivation": "oa:painting", 
            "on": "http://bvmm.irht.cnrs.fr/iiif/23678/canvas/canvas-2298462#xywh=1563,3456,36,96", 
            "resource": {
                "@type": "cnt:ContentAsText", 
                "chars": "DE", 
                "format": "text/plain"
            }
        }, 
        {
            "@id": "https://manifests.teklia.com/HIMANIS/JJ090/words_annotations/FRCHANJJ_JJ090_0216R.json/9/line", 
            "@type": "oa:Annotation", 
            "motivation": "oa:painting", 
            "on": "http://bvmm.irht.cnrs.fr/iiif/23678/canvas/canvas-2298462#xywh=0,4148,428,248", 
            "resource": {
                "@type": "cnt:ContentAsText", 
                "chars": "LES", 
                "format": "text/plain"
            }
        }, 
        {
            "@id": "https://manifests.teklia.com/HIMANIS/JJ090/words_annotations/FRCHANJJ_JJ090_0216R.json/10/line", 
            "@type": "oa:Annotation", 
            "motivation": "oa:painting", 
            "on": "http://bvmm.irht.cnrs.fr/iiif/23678/canvas/canvas-2298462#xywh=62,3984,97,48", 
            "resource": {
                "@type": "cnt:ContentAsText", 
                "chars": "ANS", 
                "format": "text/plain"
            }
        }, 
        {
            "@id": "https://manifests.teklia.com/HIMANIS/JJ090/words_annotations/FRCHANJJ_JJ090_0216R.json/11/line", 
            "@type": "oa:Annotation", 
            "motivation": "oa:painting", 
            "on": "http://bvmm.irht.cnrs.fr/iiif/23678/canvas/canvas-2298462#xywh=3400,2528,3,44", 
            "resource": {
                "@type": "cnt:ContentAsText", 
                "chars": "ET", 
                "format": "text/plain"
            }
        }, 
        {
            "@id": "https://manifests.teklia.com/HIMANIS/JJ090/words_annotations/FRCHANJJ_JJ090_0216R.json/12/line", 
            "@type": "oa:Annotation", 
            "motivation": "oa:painting", 
            "on": "http://bvmm.irht.cnrs.fr/iiif/23678/canvas/canvas-2298462#xywh=115,3932,32,52", 
            "resource": {
                "@type": "cnt:ContentAsText", 
                "chars": "LI", 
                "format": "text/plain"
            }
        }, 
        {
            "@id": "https://manifests.teklia.com/HIMANIS/JJ090/words_annotations/FRCHANJJ_JJ090_0216R.json/13/line", 
            "@type": "oa:Annotation", 
            "motivation": "oa:painting", 
            "on": "http://bvmm.irht.cnrs.fr/iiif/23678/canvas/canvas-2298462#xywh=1617,3456,157,96", 
            "resource": {
                "@type": "cnt:ContentAsText", 
                "chars": "BELLACIONS", 
                "format": "text/plain"
            }
        }, 
        {
            "@id": "https://manifests.teklia.com/HIMANIS/JJ090/words_annotations/FRCHANJJ_JJ090_0216R.json/14/line", 
            "@type": "oa:Annotation", 
            "motivation": "oa:painting", 
            "on": "http://bvmm.irht.cnrs.fr/iiif/23678/canvas/canvas-2298462#xywh=62,3984,152,48", 
            "resource": {
                "@type": "cnt:ContentAsText", 
                "chars": "SANS", 
                "format": "text/plain"
            }
        }, 
        {
            "@id": "https://manifests.teklia.com/HIMANIS/JJ090/words_annotations/FRCHANJJ_JJ090_0216R.json/15/line", 
            "@type": "oa:Annotation", 
            "motivation": "oa:painting", 
            "on": "http://bvmm.irht.cnrs.fr/iiif/23678/canvas/canvas-2298462#xywh=47,4048,162,76", 
            "resource": {
                "@type": "cnt:ContentAsText", 
                "chars": "PHILIPPONI", 
                "format": "text/plain"
            }
        }, 
        {
            "@id": "https://manifests.teklia.com/HIMANIS/JJ090/words_annotations/FRCHANJJ_JJ090_0216R.json/16/line", 
            "@type": "oa:Annotation", 
            "motivation": "oa:painting", 
            "on": "http://bvmm.irht.cnrs.fr/iiif/23678/canvas/canvas-2298462#xywh=70,4108,179,48", 
            "resource": {
                "@type": "cnt:ContentAsText", 
                "chars": "HAL", 
                "format": "text/plain"
            }
        }, 
        {
            "@id": "https://manifests.teklia.com/HIMANIS/JJ090/words_annotations/FRCHANJJ_JJ090_0216R.json/17/line", 
            "@type": "oa:Annotation", 
            "motivation": "oa:painting", 
            "on": "http://bvmm.irht.cnrs.fr/iiif/23678/canvas/canvas-2298462#xywh=115,3932,32,52", 
            "resource": {
                "@type": "cnt:ContentAsText", 
                "chars": "RI", 
                "format": "text/plain"
            }
        }, 
        {
            "@id": "https://manifests.teklia.com/HIMANIS/JJ090/words_annotations/FRCHANJJ_JJ090_0216R.json/18/line", 
            "@type": "oa:Annotation", 
            "motivation": "oa:painting", 
            "on": "http://bvmm.irht.cnrs.fr/iiif/23678/canvas/canvas-2298462#xywh=1617,3456,157,96", 
            "resource": {
                "@type": "cnt:ContentAsText", 
                "chars": "BELACIONS", 
                "format": "text/plain"
            }
        }, 
        {
            "@id": "https://manifests.teklia.com/HIMANIS/JJ090/words_annotations/FRCHANJJ_JJ090_0216R.json/19/line", 
            "@type": "oa:Annotation", 
            "motivation": "oa:painting", 
            "on": "http://bvmm.irht.cnrs.fr/iiif/23678/canvas/canvas-2298462#xywh=62,3984,97,48", 
            "resource": {
                "@type": "cnt:ContentAsText", 
                "chars": "RANS", 
                "format": "text/plain"
            }
        }, 
        {
            "@id": "https://manifests.teklia.com/HIMANIS/JJ090/words_annotations/FRCHANJJ_JJ090_0216R.json/20/line", 
            "@type": "oa:Annotation", 
            "motivation": "oa:painting", 
            "on": "http://bvmm.irht.cnrs.fr/iiif/23678/canvas/canvas-2298462#xywh=115,3932,61,52", 
            "resource": {
                "@type": "cnt:ContentAsText", 
                "chars": "TI", 
                "format": "text/plain"
            }
        }, 
        {
            "@id": "https://manifests.teklia.com/HIMANIS/JJ090/words_annotations/FRCHANJJ_JJ090_0216R.json/21/line", 
            "@type": "oa:Annotation", 
            "motivation": "oa:painting", 
            "on": "http://bvmm.irht.cnrs.fr/iiif/23678/canvas/canvas-2298462#xywh=115,3932,100,52", 
            "resource": {
                "@type": "cnt:ContentAsText", 
                "chars": "VI", 
                "format": "text/plain"
            }
        }, 
        {
            "@id": "https://manifests.teklia.com/HIMANIS/JJ090/words_annotations/FRCHANJJ_JJ090_0216R.json/22/line", 
            "@type": "oa:Annotation", 
            "motivation": "oa:painting", 
            "on": "http://bvmm.irht.cnrs.fr/iiif/23678/canvas/canvas-2298462#xywh=3408,2528,41,44", 
            "resource": {
                "@type": "cnt:ContentAsText", 
                "chars": "DE", 
                "format": "text/plain"
            }
        }, 
        {
            "@id": "https://manifests.teklia.com/HIMANIS/JJ090/words_annotations/FRCHANJJ_JJ090_0216R.json/23/line", 
            "@type": "oa:Annotation", 
            "motivation": "oa:painting", 
            "on": "http://bvmm.irht.cnrs.fr/iiif/23678/canvas/canvas-2298462#xywh=1783,3984,0,44", 
            "resource": {
                "@type": "cnt:ContentAsText", 
                "chars": "G", 
                "format": "text/plain"
            }
        }, 
        {
            "@id": "https://manifests.teklia.com/HIMANIS/JJ090/words_annotations/FRCHANJJ_JJ090_0216R.json/24/line", 
            "@type": "oa:Annotation", 
            "motivation": "oa:painting", 
            "on": "http://bvmm.irht.cnrs.fr/iiif/23678/canvas/canvas-2298462#xywh=1783,3984,0,44", 
            "resource": {
                "@type": "cnt:ContentAsText", 
                "chars": "P", 
                "format": "text/plain"
            }
        }, 
        {
            "@id": "https://manifests.teklia.com/HIMANIS/JJ090/words_annotations/FRCHANJJ_JJ090_0216R.json/25/line", 
            "@type": "oa:Annotation", 
            "motivation": "oa:painting", 
            "on": "http://bvmm.irht.cnrs.fr/iiif/23678/canvas/canvas-2298462#xywh=62,3984,97,48", 
            "resource": {
                "@type": "cnt:ContentAsText", 
                "chars": "PANS", 
                "format": "text/plain"
            }
        }, 
        {
            "@id": "https://manifests.teklia.com/HIMANIS/JJ090/words_annotations/FRCHANJJ_JJ090_0216R.json/26/line", 
            "@type": "oa:Annotation", 
            "motivation": "oa:painting", 
            "on": "http://bvmm.irht.cnrs.fr/iiif/23678/canvas/canvas-2298462#xywh=1937,3396,0,60", 
            "resource": {
                "@type": "cnt:ContentAsText", 
                "chars": "C", 
                "format": "text/plain"
            }
        }, 
        {
            "@id": "https://manifests.teklia.com/HIMANIS/JJ090/words_annotations/FRCHANJJ_JJ090_0216R.json/27/line", 
            "@type": "oa:Annotation", 
            "motivation": "oa:painting", 
            "on": "http://bvmm.irht.cnrs.fr/iiif/23678/canvas/canvas-2298462#xywh=1937,3396,0,60", 
            "resource": {
                "@type": "cnt:ContentAsText", 
                "chars": "G", 
                "format": "text/plain"
            }
        }
    ]
}