{
    "@context": "http://iiif.io/api/presentation/2/context.json", 
    "@id": "https://manifests.teklia.com/HIMANIS/JJ090/words_annotations/FRCHANJJ_JJ090_0244V.json", 
    "@type": "sc:AnnotationList", 
    "resources": [
        {
            "@id": "https://manifests.teklia.com/HIMANIS/JJ090/words_annotations/FRCHANJJ_JJ090_0244V.json/0/line", 
            "@type": "oa:Annotation", 
            "motivation": "oa:painting", 
            "on": "http://bvmm.irht.cnrs.fr/iiif/23678/canvas/canvas-2298519#xywh=1477,1181,186,95", 
            "resource": {
                "@type": "cnt:ContentAsText", 
                "chars": "ALIQUALIU", 
                "format": "text/plain"
            }
        }, 
        {
            "@id": "https://manifests.teklia.com/HIMANIS/JJ090/words_annotations/FRCHANJJ_JJ090_0244V.json/1/line", 
            "@type": "oa:Annotation", 
            "motivation": "oa:painting", 
            "on": "http://bvmm.irht.cnrs.fr/iiif/23678/canvas/canvas-2298519#xywh=704,680,221,43", 
            "resource": {
                "@type": "cnt:ContentAsText", 
                "chars": "CELERII", 
                "format": "text/plain"
            }
        }, 
        {
            "@id": "https://manifests.teklia.com/HIMANIS/JJ090/words_annotations/FRCHANJJ_JJ090_0244V.json/2/line", 
            "@type": "oa:Annotation", 
            "motivation": "oa:painting", 
            "on": "http://bvmm.irht.cnrs.fr/iiif/23678/canvas/canvas-2298519#xywh=564,1357,329,32", 
            "resource": {
                "@type": "cnt:ContentAsText", 
                "chars": "CE", 
                "format": "text/plain"
            }
        }, 
        {
            "@id": "https://manifests.teklia.com/HIMANIS/JJ090/words_annotations/FRCHANJJ_JJ090_0244V.json/3/line", 
            "@type": "oa:Annotation", 
            "motivation": "oa:painting", 
            "on": "http://bvmm.irht.cnrs.fr/iiif/23678/canvas/canvas-2298519#xywh=1038,925,82,65", 
            "resource": {
                "@type": "cnt:ContentAsText", 
                "chars": "EIDEM", 
                "format": "text/plain"
            }
        }, 
        {
            "@id": "https://manifests.teklia.com/HIMANIS/JJ090/words_annotations/FRCHANJJ_JJ090_0244V.json/4/line", 
            "@type": "oa:Annotation", 
            "motivation": "oa:painting", 
            "on": "http://bvmm.irht.cnrs.fr/iiif/23678/canvas/canvas-2298519#xywh=887,710,149,69", 
            "resource": {
                "@type": "cnt:ContentAsText", 
                "chars": "GENTIBUS", 
                "format": "text/plain"
            }
        }, 
        {
            "@id": "https://manifests.teklia.com/HIMANIS/JJ090/words_annotations/FRCHANJJ_JJ090_0244V.json/5/line", 
            "@type": "oa:Annotation", 
            "motivation": "oa:painting", 
            "on": "http://bvmm.irht.cnrs.fr/iiif/23678/canvas/canvas-2298519#xywh=562,1357,331,32", 
            "resource": {
                "@type": "cnt:ContentAsText", 
                "chars": "DICTE", 
                "format": "text/plain"
            }
        }, 
        {
            "@id": "https://manifests.teklia.com/HIMANIS/JJ090/words_annotations/FRCHANJJ_JJ090_0244V.json/6/line", 
            "@type": "oa:Annotation", 
            "motivation": "oa:painting", 
            "on": "http://bvmm.irht.cnrs.fr/iiif/23678/canvas/canvas-2298519#xywh=564,1357,329,32", 
            "resource": {
                "@type": "cnt:ContentAsText", 
                "chars": "CELE", 
                "format": "text/plain"
            }
        }, 
        {
            "@id": "https://manifests.teklia.com/HIMANIS/JJ090/words_annotations/FRCHANJJ_JJ090_0244V.json/7/line", 
            "@type": "oa:Annotation", 
            "motivation": "oa:painting", 
            "on": "http://bvmm.irht.cnrs.fr/iiif/23678/canvas/canvas-2298519#xywh=928,1272,90,84", 
            "resource": {
                "@type": "cnt:ContentAsText", 
                "chars": "GUILLE", 
                "format": "text/plain"
            }
        }, 
        {
            "@id": "https://manifests.teklia.com/HIMANIS/JJ090/words_annotations/FRCHANJJ_JJ090_0244V.json/8/line", 
            "@type": "oa:Annotation", 
            "motivation": "oa:painting", 
            "on": "http://bvmm.irht.cnrs.fr/iiif/23678/canvas/canvas-2298519#xywh=2027,299,27,88", 
            "resource": {
                "@type": "cnt:ContentAsText", 
                "chars": "PER", 
                "format": "text/plain"
            }
        }, 
        {
            "@id": "https://manifests.teklia.com/HIMANIS/JJ090/words_annotations/FRCHANJJ_JJ090_0244V.json/9/line", 
            "@type": "oa:Annotation", 
            "motivation": "oa:painting", 
            "on": "http://bvmm.irht.cnrs.fr/iiif/23678/canvas/canvas-2298519#xywh=704,680,221,43", 
            "resource": {
                "@type": "cnt:ContentAsText", 
                "chars": "CLERII", 
                "format": "text/plain"
            }
        }, 
        {
            "@id": "https://manifests.teklia.com/HIMANIS/JJ090/words_annotations/FRCHANJJ_JJ090_0244V.json/10/line", 
            "@type": "oa:Annotation", 
            "motivation": "oa:painting", 
            "on": "http://bvmm.irht.cnrs.fr/iiif/23678/canvas/canvas-2298519#xywh=2667,1166,132,105", 
            "resource": {
                "@type": "cnt:ContentAsText", 
                "chars": "NOSTRO", 
                "format": "text/plain"
            }
        }, 
        {
            "@id": "https://manifests.teklia.com/HIMANIS/JJ090/words_annotations/FRCHANJJ_JJ090_0244V.json/11/line", 
            "@type": "oa:Annotation", 
            "motivation": "oa:painting", 
            "on": "http://bvmm.irht.cnrs.fr/iiif/23678/canvas/canvas-2298519#xywh=2989,1166,204,105", 
            "resource": {
                "@type": "cnt:ContentAsText", 
                "chars": "PAR", 
                "format": "text/plain"
            }
        }, 
        {
            "@id": "https://manifests.teklia.com/HIMANIS/JJ090/words_annotations/FRCHANJJ_JJ090_0244V.json/12/line", 
            "@type": "oa:Annotation", 
            "motivation": "oa:painting", 
            "on": "http://bvmm.irht.cnrs.fr/iiif/23678/canvas/canvas-2298519#xywh=533,1129,94,57", 
            "resource": {
                "@type": "cnt:ContentAsText", 
                "chars": "LES", 
                "format": "text/plain"
            }
        }, 
        {
            "@id": "https://manifests.teklia.com/HIMANIS/JJ090/words_annotations/FRCHANJJ_JJ090_0244V.json/13/line", 
            "@type": "oa:Annotation", 
            "motivation": "oa:painting", 
            "on": "http://bvmm.irht.cnrs.fr/iiif/23678/canvas/canvas-2298519#xywh=2192,910,70,66", 
            "resource": {
                "@type": "cnt:ContentAsText", 
                "chars": "VO", 
                "format": "text/plain"
            }
        }, 
        {
            "@id": "https://manifests.teklia.com/HIMANIS/JJ090/words_annotations/FRCHANJJ_JJ090_0244V.json/14/line", 
            "@type": "oa:Annotation", 
            "motivation": "oa:painting", 
            "on": "http://bvmm.irht.cnrs.fr/iiif/23678/canvas/canvas-2298519#xywh=809,986,224,67", 
            "resource": {
                "@type": "cnt:ContentAsText", 
                "chars": "DICTARIIS", 
                "format": "text/plain"
            }
        }, 
        {
            "@id": "https://manifests.teklia.com/HIMANIS/JJ090/words_annotations/FRCHANJJ_JJ090_0244V.json/15/line", 
            "@type": "oa:Annotation", 
            "motivation": "oa:painting", 
            "on": "http://bvmm.irht.cnrs.fr/iiif/23678/canvas/canvas-2298519#xywh=1460,1122,69,56", 
            "resource": {
                "@type": "cnt:ContentAsText", 
                "chars": "PER", 
                "format": "text/plain"
            }
        }, 
        {
            "@id": "https://manifests.teklia.com/HIMANIS/JJ090/words_annotations/FRCHANJJ_JJ090_0244V.json/16/line", 
            "@type": "oa:Annotation", 
            "motivation": "oa:painting", 
            "on": "http://bvmm.irht.cnrs.fr/iiif/23678/canvas/canvas-2298519#xywh=1460,1122,72,56", 
            "resource": {
                "@type": "cnt:ContentAsText", 
                "chars": "PAR", 
                "format": "text/plain"
            }
        }, 
        {
            "@id": "https://manifests.teklia.com/HIMANIS/JJ090/words_annotations/FRCHANJJ_JJ090_0244V.json/17/line", 
            "@type": "oa:Annotation", 
            "motivation": "oa:painting", 
            "on": "http://bvmm.irht.cnrs.fr/iiif/23678/canvas/canvas-2298519#xywh=3150,548,76,16", 
            "resource": {
                "@type": "cnt:ContentAsText", 
                "chars": "OU", 
                "format": "text/plain"
            }
        }, 
        {
            "@id": "https://manifests.teklia.com/HIMANIS/JJ090/words_annotations/FRCHANJJ_JJ090_0244V.json/18/line", 
            "@type": "oa:Annotation", 
            "motivation": "oa:painting", 
            "on": "http://bvmm.irht.cnrs.fr/iiif/23678/canvas/canvas-2298519#xywh=1636,1264,196,82", 
            "resource": {
                "@type": "cnt:ContentAsText", 
                "chars": "SARRA", 
                "format": "text/plain"
            }
        }, 
        {
            "@id": "https://manifests.teklia.com/HIMANIS/JJ090/words_annotations/FRCHANJJ_JJ090_0244V.json/19/line", 
            "@type": "oa:Annotation", 
            "motivation": "oa:painting", 
            "on": "http://bvmm.irht.cnrs.fr/iiif/23678/canvas/canvas-2298519#xywh=467,1357,80,32", 
            "resource": {
                "@type": "cnt:ContentAsText", 
                "chars": "QUIRE", 
                "format": "text/plain"
            }
        }, 
        {
            "@id": "https://manifests.teklia.com/HIMANIS/JJ090/words_annotations/FRCHANJJ_JJ090_0244V.json/20/line", 
            "@type": "oa:Annotation", 
            "motivation": "oa:painting", 
            "on": "http://bvmm.irht.cnrs.fr/iiif/23678/canvas/canvas-2298519#xywh=533,1129,61,57", 
            "resource": {
                "@type": "cnt:ContentAsText", 
                "chars": "LA", 
                "format": "text/plain"
            }
        }, 
        {
            "@id": "https://manifests.teklia.com/HIMANIS/JJ090/words_annotations/FRCHANJJ_JJ090_0244V.json/21/line", 
            "@type": "oa:Annotation", 
            "motivation": "oa:painting", 
            "on": "http://bvmm.irht.cnrs.fr/iiif/23678/canvas/canvas-2298519#xywh=1505,446,35,69", 
            "resource": {
                "@type": "cnt:ContentAsText", 
                "chars": "PER", 
                "format": "text/plain"
            }
        }, 
        {
            "@id": "https://manifests.teklia.com/HIMANIS/JJ090/words_annotations/FRCHANJJ_JJ090_0244V.json/22/line", 
            "@type": "oa:Annotation", 
            "motivation": "oa:painting", 
            "on": "http://bvmm.irht.cnrs.fr/iiif/23678/canvas/canvas-2298519#xywh=2989,1166,73,105", 
            "resource": {
                "@type": "cnt:ContentAsText", 
                "chars": "DE", 
                "format": "text/plain"
            }
        }, 
        {
            "@id": "https://manifests.teklia.com/HIMANIS/JJ090/words_annotations/FRCHANJJ_JJ090_0244V.json/23/line", 
            "@type": "oa:Annotation", 
            "motivation": "oa:painting", 
            "on": "http://bvmm.irht.cnrs.fr/iiif/23678/canvas/canvas-2298519#xywh=1264,382,110,79", 
            "resource": {
                "@type": "cnt:ContentAsText", 
                "chars": "OU", 
                "format": "text/plain"
            }
        }, 
        {
            "@id": "https://manifests.teklia.com/HIMANIS/JJ090/words_annotations/FRCHANJJ_JJ090_0244V.json/24/line", 
            "@type": "oa:Annotation", 
            "motivation": "oa:painting", 
            "on": "http://bvmm.irht.cnrs.fr/iiif/23678/canvas/canvas-2298519#xywh=846,925,151,65", 
            "resource": {
                "@type": "cnt:ContentAsText", 
                "chars": "GRATIE", 
                "format": "text/plain"
            }
        }, 
        {
            "@id": "https://manifests.teklia.com/HIMANIS/JJ090/words_annotations/FRCHANJJ_JJ090_0244V.json/25/line", 
            "@type": "oa:Annotation", 
            "motivation": "oa:painting", 
            "on": "http://bvmm.irht.cnrs.fr/iiif/23678/canvas/canvas-2298519#xywh=846,925,151,65", 
            "resource": {
                "@type": "cnt:ContentAsText", 
                "chars": "GRATIS", 
                "format": "text/plain"
            }
        }, 
        {
            "@id": "https://manifests.teklia.com/HIMANIS/JJ090/words_annotations/FRCHANJJ_JJ090_0244V.json/26/line", 
            "@type": "oa:Annotation", 
            "motivation": "oa:painting", 
            "on": "http://bvmm.irht.cnrs.fr/iiif/23678/canvas/canvas-2298519#xywh=2197,299,94,88", 
            "resource": {
                "@type": "cnt:ContentAsText", 
                "chars": "RES", 
                "format": "text/plain"
            }
        }, 
        {
            "@id": "https://manifests.teklia.com/HIMANIS/JJ090/words_annotations/FRCHANJJ_JJ090_0244V.json/27/line", 
            "@type": "oa:Annotation", 
            "motivation": "oa:painting", 
            "on": "http://bvmm.irht.cnrs.fr/iiif/23678/canvas/canvas-2298519#xywh=564,1357,390,32", 
            "resource": {
                "@type": "cnt:ContentAsText", 
                "chars": "CES", 
                "format": "text/plain"
            }
        }, 
        {
            "@id": "https://manifests.teklia.com/HIMANIS/JJ090/words_annotations/FRCHANJJ_JJ090_0244V.json/28/line", 
            "@type": "oa:Annotation", 
            "motivation": "oa:painting", 
            "on": "http://bvmm.irht.cnrs.fr/iiif/23678/canvas/canvas-2298519#xywh=1442,1355,48,16", 
            "resource": {
                "@type": "cnt:ContentAsText", 
                "chars": "DE", 
                "format": "text/plain"
            }
        }, 
        {
            "@id": "https://manifests.teklia.com/HIMANIS/JJ090/words_annotations/FRCHANJJ_JJ090_0244V.json/29/line", 
            "@type": "oa:Annotation", 
            "motivation": "oa:painting", 
            "on": "http://bvmm.irht.cnrs.fr/iiif/23678/canvas/canvas-2298519#xywh=2580,696,0,65", 
            "resource": {
                "@type": "cnt:ContentAsText", 
                "chars": "P", 
                "format": "text/plain"
            }
        }, 
        {
            "@id": "https://manifests.teklia.com/HIMANIS/JJ090/words_annotations/FRCHANJJ_JJ090_0244V.json/30/line", 
            "@type": "oa:Annotation", 
            "motivation": "oa:painting", 
            "on": "http://bvmm.irht.cnrs.fr/iiif/23678/canvas/canvas-2298519#xywh=3150,548,81,16", 
            "resource": {
                "@type": "cnt:ContentAsText", 
                "chars": "CONT", 
                "format": "text/plain"
            }
        }, 
        {
            "@id": "https://manifests.teklia.com/HIMANIS/JJ090/words_annotations/FRCHANJJ_JJ090_0244V.json/31/line", 
            "@type": "oa:Annotation", 
            "motivation": "oa:painting", 
            "on": "http://bvmm.irht.cnrs.fr/iiif/23678/canvas/canvas-2298519#xywh=2580,696,0,65", 
            "resource": {
                "@type": "cnt:ContentAsText", 
                "chars": "R", 
                "format": "text/plain"
            }
        }, 
        {
            "@id": "https://manifests.teklia.com/HIMANIS/JJ090/words_annotations/FRCHANJJ_JJ090_0244V.json/32/line", 
            "@type": "oa:Annotation", 
            "motivation": "oa:painting", 
            "on": "http://bvmm.irht.cnrs.fr/iiif/23678/canvas/canvas-2298519#xywh=562,1357,16,32", 
            "resource": {
                "@type": "cnt:ContentAsText", 
                "chars": "LE", 
                "format": "text/plain"
            }
        }, 
        {
            "@id": "https://manifests.teklia.com/HIMANIS/JJ090/words_annotations/FRCHANJJ_JJ090_0244V.json/33/line", 
            "@type": "oa:Annotation", 
            "motivation": "oa:painting", 
            "on": "http://bvmm.irht.cnrs.fr/iiif/23678/canvas/canvas-2298519#xywh=2071,299,88,88", 
            "resource": {
                "@type": "cnt:ContentAsText", 
                "chars": "PARTIS", 
                "format": "text/plain"
            }
        }, 
        {
            "@id": "https://manifests.teklia.com/HIMANIS/JJ090/words_annotations/FRCHANJJ_JJ090_0244V.json/34/line", 
            "@type": "oa:Annotation", 
            "motivation": "oa:painting", 
            "on": "http://bvmm.irht.cnrs.fr/iiif/23678/canvas/canvas-2298519#xywh=2071,299,88,88", 
            "resource": {
                "@type": "cnt:ContentAsText", 
                "chars": "PARTES", 
                "format": "text/plain"
            }
        }, 
        {
            "@id": "https://manifests.teklia.com/HIMANIS/JJ090/words_annotations/FRCHANJJ_JJ090_0244V.json/35/line", 
            "@type": "oa:Annotation", 
            "motivation": "oa:painting", 
            "on": "http://bvmm.irht.cnrs.fr/iiif/23678/canvas/canvas-2298519#xywh=680,1272,164,84", 
            "resource": {
                "@type": "cnt:ContentAsText", 
                "chars": "MAJORE", 
                "format": "text/plain"
            }
        }, 
        {
            "@id": "https://manifests.teklia.com/HIMANIS/JJ090/words_annotations/FRCHANJJ_JJ090_0244V.json/36/line", 
            "@type": "oa:Annotation", 
            "motivation": "oa:painting", 
            "on": "http://bvmm.irht.cnrs.fr/iiif/23678/canvas/canvas-2298519#xywh=2972,1106,214,57", 
            "resource": {
                "@type": "cnt:ContentAsText", 
                "chars": "AUT", 
                "format": "text/plain"
            }
        }, 
        {
            "@id": "https://manifests.teklia.com/HIMANIS/JJ090/words_annotations/FRCHANJJ_JJ090_0244V.json/37/line", 
            "@type": "oa:Annotation", 
            "motivation": "oa:painting", 
            "on": "http://bvmm.irht.cnrs.fr/iiif/23678/canvas/canvas-2298519#xywh=2027,299,27,88", 
            "resource": {
                "@type": "cnt:ContentAsText", 
                "chars": "PRO", 
                "format": "text/plain"
            }
        }, 
        {
            "@id": "https://manifests.teklia.com/HIMANIS/JJ090/words_annotations/FRCHANJJ_JJ090_0244V.json/38/line", 
            "@type": "oa:Annotation", 
            "motivation": "oa:painting", 
            "on": "http://bvmm.irht.cnrs.fr/iiif/23678/canvas/canvas-2298519#xywh=451,382,140,79", 
            "resource": {
                "@type": "cnt:ContentAsText", 
                "chars": "QUIBUS", 
                "format": "text/plain"
            }
        }, 
        {
            "@id": "https://manifests.teklia.com/HIMANIS/JJ090/words_annotations/FRCHANJJ_JJ090_0244V.json/39/line", 
            "@type": "oa:Annotation", 
            "motivation": "oa:painting", 
            "on": "http://bvmm.irht.cnrs.fr/iiif/23678/canvas/canvas-2298519#xywh=1214,1181,221,95", 
            "resource": {
                "@type": "cnt:ContentAsText", 
                "chars": "MOLESTARI", 
                "format": "text/plain"
            }
        }, 
        {
            "@id": "https://manifests.teklia.com/HIMANIS/JJ090/words_annotations/FRCHANJJ_JJ090_0244V.json/40/line", 
            "@type": "oa:Annotation", 
            "motivation": "oa:painting", 
            "on": "http://bvmm.irht.cnrs.fr/iiif/23678/canvas/canvas-2298519#xywh=467,1357,45,32", 
            "resource": {
                "@type": "cnt:ContentAsText", 
                "chars": "QUE", 
                "format": "text/plain"
            }
        }, 
        {
            "@id": "https://manifests.teklia.com/HIMANIS/JJ090/words_annotations/FRCHANJJ_JJ090_0244V.json/41/line", 
            "@type": "oa:Annotation", 
            "motivation": "oa:painting", 
            "on": "http://bvmm.irht.cnrs.fr/iiif/23678/canvas/canvas-2298519#xywh=680,1272,217,84", 
            "resource": {
                "@type": "cnt:ContentAsText", 
                "chars": "MAJORES", 
                "format": "text/plain"
            }
        }, 
        {
            "@id": "https://manifests.teklia.com/HIMANIS/JJ090/words_annotations/FRCHANJJ_JJ090_0244V.json/42/line", 
            "@type": "oa:Annotation", 
            "motivation": "oa:painting", 
            "on": "http://bvmm.irht.cnrs.fr/iiif/23678/canvas/canvas-2298519#xywh=1079,986,190,67", 
            "resource": {
                "@type": "cnt:ContentAsText", 
                "chars": "QUIBUSDAM", 
                "format": "text/plain"
            }
        }, 
        {
            "@id": "https://manifests.teklia.com/HIMANIS/JJ090/words_annotations/FRCHANJJ_JJ090_0244V.json/43/line", 
            "@type": "oa:Annotation", 
            "motivation": "oa:painting", 
            "on": "http://bvmm.irht.cnrs.fr/iiif/23678/canvas/canvas-2298519#xywh=2667,1166,132,105", 
            "resource": {
                "@type": "cnt:ContentAsText", 
                "chars": "ESTRO", 
                "format": "text/plain"
            }
        }, 
        {
            "@id": "https://manifests.teklia.com/HIMANIS/JJ090/words_annotations/FRCHANJJ_JJ090_0244V.json/44/line", 
            "@type": "oa:Annotation", 
            "motivation": "oa:painting", 
            "on": "http://bvmm.irht.cnrs.fr/iiif/23678/canvas/canvas-2298519#xywh=3024,1251,141,81", 
            "resource": {
                "@type": "cnt:ContentAsText", 
                "chars": "LESIG", 
                "format": "text/plain"
            }
        }, 
        {
            "@id": "https://manifests.teklia.com/HIMANIS/JJ090/words_annotations/FRCHANJJ_JJ090_0244V.json/45/line", 
            "@type": "oa:Annotation", 
            "motivation": "oa:painting", 
            "on": "http://bvmm.irht.cnrs.fr/iiif/23678/canvas/canvas-2298519#xywh=1092,1126,0,55", 
            "resource": {
                "@type": "cnt:ContentAsText", 
                "chars": "P", 
                "format": "text/plain"
            }
        }, 
        {
            "@id": "https://manifests.teklia.com/HIMANIS/JJ090/words_annotations/FRCHANJJ_JJ090_0244V.json/46/line", 
            "@type": "oa:Annotation", 
            "motivation": "oa:painting", 
            "on": "http://bvmm.irht.cnrs.fr/iiif/23678/canvas/canvas-2298519#xywh=562,1357,259,32", 
            "resource": {
                "@type": "cnt:ContentAsText", 
                "chars": "DITE", 
                "format": "text/plain"
            }
        }, 
        {
            "@id": "https://manifests.teklia.com/HIMANIS/JJ090/words_annotations/FRCHANJJ_JJ090_0244V.json/47/line", 
            "@type": "oa:Annotation", 
            "motivation": "oa:painting", 
            "on": "http://bvmm.irht.cnrs.fr/iiif/23678/canvas/canvas-2298519#xywh=562,1357,228,32", 
            "resource": {
                "@type": "cnt:ContentAsText", 
                "chars": "LETTRE", 
                "format": "text/plain"
            }
        }, 
        {
            "@id": "https://manifests.teklia.com/HIMANIS/JJ090/words_annotations/FRCHANJJ_JJ090_0244V.json/48/line", 
            "@type": "oa:Annotation", 
            "motivation": "oa:painting", 
            "on": "http://bvmm.irht.cnrs.fr/iiif/23678/canvas/canvas-2298519#xywh=2871,1166,98,105", 
            "resource": {
                "@type": "cnt:ContentAsText", 
                "chars": "CETERIIS", 
                "format": "text/plain"
            }
        }, 
        {
            "@id": "https://manifests.teklia.com/HIMANIS/JJ090/words_annotations/FRCHANJJ_JJ090_0244V.json/49/line", 
            "@type": "oa:Annotation", 
            "motivation": "oa:painting", 
            "on": "http://bvmm.irht.cnrs.fr/iiif/23678/canvas/canvas-2298519#xywh=1140,446,291,69", 
            "resource": {
                "@type": "cnt:ContentAsText", 
                "chars": "TRANSULERIT", 
                "format": "text/plain"
            }
        }, 
        {
            "@id": "https://manifests.teklia.com/HIMANIS/JJ090/words_annotations/FRCHANJJ_JJ090_0244V.json/50/line", 
            "@type": "oa:Annotation", 
            "motivation": "oa:painting", 
            "on": "http://bvmm.irht.cnrs.fr/iiif/23678/canvas/canvas-2298519#xywh=2792,415,186,87", 
            "resource": {
                "@type": "cnt:ContentAsText", 
                "chars": "ALIQUASIDE", 
                "format": "text/plain"
            }
        }, 
        {
            "@id": "https://manifests.teklia.com/HIMANIS/JJ090/words_annotations/FRCHANJJ_JJ090_0244V.json/51/line", 
            "@type": "oa:Annotation", 
            "motivation": "oa:painting", 
            "on": "http://bvmm.irht.cnrs.fr/iiif/23678/canvas/canvas-2298519#xywh=1141,925,197,65", 
            "resource": {
                "@type": "cnt:ContentAsText", 
                "chars": "PETRO", 
                "format": "text/plain"
            }
        }, 
        {
            "@id": "https://manifests.teklia.com/HIMANIS/JJ090/words_annotations/FRCHANJJ_JJ090_0244V.json/52/line", 
            "@type": "oa:Annotation", 
            "motivation": "oa:painting", 
            "on": "http://bvmm.irht.cnrs.fr/iiif/23678/canvas/canvas-2298519#xywh=2857,375,352,61", 
            "resource": {
                "@type": "cnt:ContentAsText", 
                "chars": "POSSESSIGNA", 
                "format": "text/plain"
            }
        }, 
        {
            "@id": "https://manifests.teklia.com/HIMANIS/JJ090/words_annotations/FRCHANJJ_JJ090_0244V.json/53/line", 
            "@type": "oa:Annotation", 
            "motivation": "oa:painting", 
            "on": "http://bvmm.irht.cnrs.fr/iiif/23678/canvas/canvas-2298519#xywh=528,1070,0,56", 
            "resource": {
                "@type": "cnt:ContentAsText", 
                "chars": "C", 
                "format": "text/plain"
            }
        }, 
        {
            "@id": "https://manifests.teklia.com/HIMANIS/JJ090/words_annotations/FRCHANJJ_JJ090_0244V.json/54/line", 
            "@type": "oa:Annotation", 
            "motivation": "oa:painting", 
            "on": "http://bvmm.irht.cnrs.fr/iiif/23678/canvas/canvas-2298519#xywh=1097,710,144,69", 
            "resource": {
                "@type": "cnt:ContentAsText", 
                "chars": "COMPOT", 
                "format": "text/plain"
            }
        }, 
        {
            "@id": "https://manifests.teklia.com/HIMANIS/JJ090/words_annotations/FRCHANJJ_JJ090_0244V.json/55/line", 
            "@type": "oa:Annotation", 
            "motivation": "oa:painting", 
            "on": "http://bvmm.irht.cnrs.fr/iiif/23678/canvas/canvas-2298519#xywh=1583,4744,142,127", 
            "resource": {
                "@type": "cnt:ContentAsText", 
                "chars": "LES", 
                "format": "text/plain"
            }
        }, 
        {
            "@id": "https://manifests.teklia.com/HIMANIS/JJ090/words_annotations/FRCHANJJ_JJ090_0244V.json/56/line", 
            "@type": "oa:Annotation", 
            "motivation": "oa:painting", 
            "on": "http://bvmm.irht.cnrs.fr/iiif/23678/canvas/canvas-2298519#xywh=1505,446,39,69", 
            "resource": {
                "@type": "cnt:ContentAsText", 
                "chars": "PRE", 
                "format": "text/plain"
            }
        }, 
        {
            "@id": "https://manifests.teklia.com/HIMANIS/JJ090/words_annotations/FRCHANJJ_JJ090_0244V.json/57/line", 
            "@type": "oa:Annotation", 
            "motivation": "oa:painting", 
            "on": "http://bvmm.irht.cnrs.fr/iiif/23678/canvas/canvas-2298519#xywh=850,774,307,63", 
            "resource": {
                "@type": "cnt:ContentAsText", 
                "chars": "JA", 
                "format": "text/plain"
            }
        }, 
        {
            "@id": "https://manifests.teklia.com/HIMANIS/JJ090/words_annotations/FRCHANJJ_JJ090_0244V.json/58/line", 
            "@type": "oa:Annotation", 
            "motivation": "oa:painting", 
            "on": "http://bvmm.irht.cnrs.fr/iiif/23678/canvas/canvas-2298519#xywh=2818,1166,40,105", 
            "resource": {
                "@type": "cnt:ContentAsText", 
                "chars": "IN", 
                "format": "text/plain"
            }
        }, 
        {
            "@id": "https://manifests.teklia.com/HIMANIS/JJ090/words_annotations/FRCHANJJ_JJ090_0244V.json/59/line", 
            "@type": "oa:Annotation", 
            "motivation": "oa:painting", 
            "on": "http://bvmm.irht.cnrs.fr/iiif/23678/canvas/canvas-2298519#xywh=2989,1166,13,105", 
            "resource": {
                "@type": "cnt:ContentAsText", 
                "chars": "ET", 
                "format": "text/plain"
            }
        }, 
        {
            "@id": "https://manifests.teklia.com/HIMANIS/JJ090/words_annotations/FRCHANJJ_JJ090_0244V.json/60/line", 
            "@type": "oa:Annotation", 
            "motivation": "oa:painting", 
            "on": "http://bvmm.irht.cnrs.fr/iiif/23678/canvas/canvas-2298519#xywh=735,1181,54,95", 
            "resource": {
                "@type": "cnt:ContentAsText", 
                "chars": "IL", 
                "format": "text/plain"
            }
        }, 
        {
            "@id": "https://manifests.teklia.com/HIMANIS/JJ090/words_annotations/FRCHANJJ_JJ090_0244V.json/61/line", 
            "@type": "oa:Annotation", 
            "motivation": "oa:painting", 
            "on": "http://bvmm.irht.cnrs.fr/iiif/23678/canvas/canvas-2298519#xywh=1442,1355,47,16", 
            "resource": {
                "@type": "cnt:ContentAsText", 
                "chars": "ET", 
                "format": "text/plain"
            }
        }, 
        {
            "@id": "https://manifests.teklia.com/HIMANIS/JJ090/words_annotations/FRCHANJJ_JJ090_0244V.json/62/line", 
            "@type": "oa:Annotation", 
            "motivation": "oa:painting", 
            "on": "http://bvmm.irht.cnrs.fr/iiif/23678/canvas/canvas-2298519#xywh=3058,967,78,65", 
            "resource": {
                "@type": "cnt:ContentAsText", 
                "chars": "NOSTRIS", 
                "format": "text/plain"
            }
        }, 
        {
            "@id": "https://manifests.teklia.com/HIMANIS/JJ090/words_annotations/FRCHANJJ_JJ090_0244V.json/63/line", 
            "@type": "oa:Annotation", 
            "motivation": "oa:painting", 
            "on": "http://bvmm.irht.cnrs.fr/iiif/23678/canvas/canvas-2298519#xywh=564,1357,421,32", 
            "resource": {
                "@type": "cnt:ContentAsText", 
                "chars": "ET", 
                "format": "text/plain"
            }
        }, 
        {
            "@id": "https://manifests.teklia.com/HIMANIS/JJ090/words_annotations/FRCHANJJ_JJ090_0244V.json/64/line", 
            "@type": "oa:Annotation", 
            "motivation": "oa:painting", 
            "on": "http://bvmm.irht.cnrs.fr/iiif/23678/canvas/canvas-2298519#xywh=1884,299,121,88", 
            "resource": {
                "@type": "cnt:ContentAsText", 
                "chars": "VEL", 
                "format": "text/plain"
            }
        }, 
        {
            "@id": "https://manifests.teklia.com/HIMANIS/JJ090/words_annotations/FRCHANJJ_JJ090_0244V.json/65/line", 
            "@type": "oa:Annotation", 
            "motivation": "oa:painting", 
            "on": "http://bvmm.irht.cnrs.fr/iiif/23678/canvas/canvas-2298519#xywh=928,1272,90,84", 
            "resource": {
                "@type": "cnt:ContentAsText", 
                "chars": "GILLE", 
                "format": "text/plain"
            }
        }, 
        {
            "@id": "https://manifests.teklia.com/HIMANIS/JJ090/words_annotations/FRCHANJJ_JJ090_0244V.json/66/line", 
            "@type": "oa:Annotation", 
            "motivation": "oa:painting", 
            "on": "http://bvmm.irht.cnrs.fr/iiif/23678/canvas/canvas-2298519#xywh=928,1272,90,84", 
            "resource": {
                "@type": "cnt:ContentAsText", 
                "chars": "GILLI", 
                "format": "text/plain"
            }
        }, 
        {
            "@id": "https://manifests.teklia.com/HIMANIS/JJ090/words_annotations/FRCHANJJ_JJ090_0244V.json/67/line", 
            "@type": "oa:Annotation", 
            "motivation": "oa:painting", 
            "on": "http://bvmm.irht.cnrs.fr/iiif/23678/canvas/canvas-2298519#xywh=3039,415,186,87", 
            "resource": {
                "@type": "cnt:ContentAsText", 
                "chars": "EXPLICA", 
                "format": "text/plain"
            }
        }, 
        {
            "@id": "https://manifests.teklia.com/HIMANIS/JJ090/words_annotations/FRCHANJJ_JJ090_0244V.json/68/line", 
            "@type": "oa:Annotation", 
            "motivation": "oa:painting", 
            "on": "http://bvmm.irht.cnrs.fr/iiif/23678/canvas/canvas-2298519#xywh=2871,1166,92,105", 
            "resource": {
                "@type": "cnt:ContentAsText", 
                "chars": "CETERIS", 
                "format": "text/plain"
            }
        }, 
        {
            "@id": "https://manifests.teklia.com/HIMANIS/JJ090/words_annotations/FRCHANJJ_JJ090_0244V.json/69/line", 
            "@type": "oa:Annotation", 
            "motivation": "oa:painting", 
            "on": "http://bvmm.irht.cnrs.fr/iiif/23678/canvas/canvas-2298519#xywh=3005,691,224,66", 
            "resource": {
                "@type": "cnt:ContentAsText", 
                "chars": "ABSQUE", 
                "format": "text/plain"
            }
        }, 
        {
            "@id": "https://manifests.teklia.com/HIMANIS/JJ090/words_annotations/FRCHANJJ_JJ090_0244V.json/70/line", 
            "@type": "oa:Annotation", 
            "motivation": "oa:painting", 
            "on": "http://bvmm.irht.cnrs.fr/iiif/23678/canvas/canvas-2298519#xywh=704,680,221,43", 
            "resource": {
                "@type": "cnt:ContentAsText", 
                "chars": "TERII", 
                "format": "text/plain"
            }
        }, 
        {
            "@id": "https://manifests.teklia.com/HIMANIS/JJ090/words_annotations/FRCHANJJ_JJ090_0244V.json/71/line", 
            "@type": "oa:Annotation", 
            "motivation": "oa:painting", 
            "on": "http://bvmm.irht.cnrs.fr/iiif/23678/canvas/canvas-2298519#xywh=2974,575,99,11", 
            "resource": {
                "@type": "cnt:ContentAsText", 
                "chars": "EN", 
                "format": "text/plain"
            }
        }, 
        {
            "@id": "https://manifests.teklia.com/HIMANIS/JJ090/words_annotations/FRCHANJJ_JJ090_0244V.json/72/line", 
            "@type": "oa:Annotation", 
            "motivation": "oa:painting", 
            "on": "http://bvmm.irht.cnrs.fr/iiif/23678/canvas/canvas-2298519#xywh=743,710,101,69", 
            "resource": {
                "@type": "cnt:ContentAsText", 
                "chars": "PHILIPPUS", 
                "format": "text/plain"
            }
        }, 
        {
            "@id": "https://manifests.teklia.com/HIMANIS/JJ090/words_annotations/FRCHANJJ_JJ090_0244V.json/73/line", 
            "@type": "oa:Annotation", 
            "motivation": "oa:painting", 
            "on": "http://bvmm.irht.cnrs.fr/iiif/23678/canvas/canvas-2298519#xywh=743,710,101,69", 
            "resource": {
                "@type": "cnt:ContentAsText", 
                "chars": "PHILIPPES", 
                "format": "text/plain"
            }
        }, 
        {
            "@id": "https://manifests.teklia.com/HIMANIS/JJ090/words_annotations/FRCHANJJ_JJ090_0244V.json/74/line", 
            "@type": "oa:Annotation", 
            "motivation": "oa:painting", 
            "on": "http://bvmm.irht.cnrs.fr/iiif/23678/canvas/canvas-2298519#xywh=809,986,224,67", 
            "resource": {
                "@type": "cnt:ContentAsText", 
                "chars": "DATRARIIS", 
                "format": "text/plain"
            }
        }, 
        {
            "@id": "https://manifests.teklia.com/HIMANIS/JJ090/words_annotations/FRCHANJJ_JJ090_0244V.json/75/line", 
            "@type": "oa:Annotation", 
            "motivation": "oa:painting", 
            "on": "http://bvmm.irht.cnrs.fr/iiif/23678/canvas/canvas-2298519#xywh=3000,415,17,87", 
            "resource": {
                "@type": "cnt:ContentAsText", 
                "chars": "ET", 
                "format": "text/plain"
            }
        }, 
        {
            "@id": "https://manifests.teklia.com/HIMANIS/JJ090/words_annotations/FRCHANJJ_JJ090_0244V.json/76/line", 
            "@type": "oa:Annotation", 
            "motivation": "oa:painting", 
            "on": "http://bvmm.irht.cnrs.fr/iiif/23678/canvas/canvas-2298519#xywh=1477,1181,168,95", 
            "resource": {
                "@type": "cnt:ContentAsText", 
                "chars": "ALIQUALE", 
                "format": "text/plain"
            }
        }, 
        {
            "@id": "https://manifests.teklia.com/HIMANIS/JJ090/words_annotations/FRCHANJJ_JJ090_0244V.json/77/line", 
            "@type": "oa:Annotation", 
            "motivation": "oa:painting", 
            "on": "http://bvmm.irht.cnrs.fr/iiif/23678/canvas/canvas-2298519#xywh=2564,375,143,61", 
            "resource": {
                "@type": "cnt:ContentAsText", 
                "chars": "PERPETUO", 
                "format": "text/plain"
            }
        }, 
        {
            "@id": "https://manifests.teklia.com/HIMANIS/JJ090/words_annotations/FRCHANJJ_JJ090_0244V.json/78/line", 
            "@type": "oa:Annotation", 
            "motivation": "oa:painting", 
            "on": "http://bvmm.irht.cnrs.fr/iiif/23678/canvas/canvas-2298519#xywh=621,382,40,79", 
            "resource": {
                "@type": "cnt:ContentAsText", 
                "chars": "AD", 
                "format": "text/plain"
            }
        }, 
        {
            "@id": "https://manifests.teklia.com/HIMANIS/JJ090/words_annotations/FRCHANJJ_JJ090_0244V.json/79/line", 
            "@type": "oa:Annotation", 
            "motivation": "oa:painting", 
            "on": "http://bvmm.irht.cnrs.fr/iiif/23678/canvas/canvas-2298519#xywh=554,1272,90,84", 
            "resource": {
                "@type": "cnt:ContentAsText", 
                "chars": "ANTE", 
                "format": "text/plain"
            }
        }, 
        {
            "@id": "https://manifests.teklia.com/HIMANIS/JJ090/words_annotations/FRCHANJJ_JJ090_0244V.json/80/line", 
            "@type": "oa:Annotation", 
            "motivation": "oa:painting", 
            "on": "http://bvmm.irht.cnrs.fr/iiif/23678/canvas/canvas-2298519#xywh=3089,1251,0,81", 
            "resource": {
                "@type": "cnt:ContentAsText", 
                "chars": "D", 
                "format": "text/plain"
            }
        }, 
        {
            "@id": "https://manifests.teklia.com/HIMANIS/JJ090/words_annotations/FRCHANJJ_JJ090_0244V.json/81/line", 
            "@type": "oa:Annotation", 
            "motivation": "oa:painting", 
            "on": "http://bvmm.irht.cnrs.fr/iiif/23678/canvas/canvas-2298519#xywh=1065,382,30,79", 
            "resource": {
                "@type": "cnt:ContentAsText", 
                "chars": "ET", 
                "format": "text/plain"
            }
        }, 
        {
            "@id": "https://manifests.teklia.com/HIMANIS/JJ090/words_annotations/FRCHANJJ_JJ090_0244V.json/82/line", 
            "@type": "oa:Annotation", 
            "motivation": "oa:painting", 
            "on": "http://bvmm.irht.cnrs.fr/iiif/23678/canvas/canvas-2298519#xywh=809,986,224,67", 
            "resource": {
                "@type": "cnt:ContentAsText", 
                "chars": "GATRARIIS", 
                "format": "text/plain"
            }
        }, 
        {
            "@id": "https://manifests.teklia.com/HIMANIS/JJ090/words_annotations/FRCHANJJ_JJ090_0244V.json/83/line", 
            "@type": "oa:Annotation", 
            "motivation": "oa:painting", 
            "on": "http://bvmm.irht.cnrs.fr/iiif/23678/canvas/canvas-2298519#xywh=1120,382,119,79", 
            "resource": {
                "@type": "cnt:ContentAsText", 
                "chars": "ALIORUM", 
                "format": "text/plain"
            }
        }, 
        {
            "@id": "https://manifests.teklia.com/HIMANIS/JJ090/words_annotations/FRCHANJJ_JJ090_0244V.json/84/line", 
            "@type": "oa:Annotation", 
            "motivation": "oa:painting", 
            "on": "http://bvmm.irht.cnrs.fr/iiif/23678/canvas/canvas-2298519#xywh=2972,1106,100,57", 
            "resource": {
                "@type": "cnt:ContentAsText", 
                "chars": "AUTRES", 
                "format": "text/plain"
            }
        }, 
        {
            "@id": "https://manifests.teklia.com/HIMANIS/JJ090/words_annotations/FRCHANJJ_JJ090_0244V.json/85/line", 
            "@type": "oa:Annotation", 
            "motivation": "oa:painting", 
            "on": "http://bvmm.irht.cnrs.fr/iiif/23678/canvas/canvas-2298519#xywh=1636,1264,160,82", 
            "resource": {
                "@type": "cnt:ContentAsText", 
                "chars": "FAIRE", 
                "format": "text/plain"
            }
        }, 
        {
            "@id": "https://manifests.teklia.com/HIMANIS/JJ090/words_annotations/FRCHANJJ_JJ090_0244V.json/86/line", 
            "@type": "oa:Annotation", 
            "motivation": "oa:painting", 
            "on": "http://bvmm.irht.cnrs.fr/iiif/23678/canvas/canvas-2298519#xywh=830,1181,228,95", 
            "resource": {
                "@type": "cnt:ContentAsText", 
                "chars": "IMPEDIRE", 
                "format": "text/plain"
            }
        }, 
        {
            "@id": "https://manifests.teklia.com/HIMANIS/JJ090/words_annotations/FRCHANJJ_JJ090_0244V.json/87/line", 
            "@type": "oa:Annotation", 
            "motivation": "oa:painting", 
            "on": "http://bvmm.irht.cnrs.fr/iiif/23678/canvas/canvas-2298519#xywh=830,1181,228,95", 
            "resource": {
                "@type": "cnt:ContentAsText", 
                "chars": "IMPEDIRI", 
                "format": "text/plain"
            }
        }, 
        {
            "@id": "https://manifests.teklia.com/HIMANIS/JJ090/words_annotations/FRCHANJJ_JJ090_0244V.json/88/line", 
            "@type": "oa:Annotation", 
            "motivation": "oa:painting", 
            "on": "http://bvmm.irht.cnrs.fr/iiif/23678/canvas/canvas-2298519#xywh=554,1272,90,84", 
            "resource": {
                "@type": "cnt:ContentAsText", 
                "chars": "ENTE", 
                "format": "text/plain"
            }
        }, 
        {
            "@id": "https://manifests.teklia.com/HIMANIS/JJ090/words_annotations/FRCHANJJ_JJ090_0244V.json/89/line", 
            "@type": "oa:Annotation", 
            "motivation": "oa:painting", 
            "on": "http://bvmm.irht.cnrs.fr/iiif/23678/canvas/canvas-2298519#xywh=1460,1122,0,56", 
            "resource": {
                "@type": "cnt:ContentAsText", 
                "chars": "P", 
                "format": "text/plain"
            }
        }, 
        {
            "@id": "https://manifests.teklia.com/HIMANIS/JJ090/words_annotations/FRCHANJJ_JJ090_0244V.json/90/line", 
            "@type": "oa:Annotation", 
            "motivation": "oa:painting", 
            "on": "http://bvmm.irht.cnrs.fr/iiif/23678/canvas/canvas-2298519#xywh=751,925,45,65", 
            "resource": {
                "@type": "cnt:ContentAsText", 
                "chars": "UL", 
                "format": "text/plain"
            }
        }, 
        {
            "@id": "https://manifests.teklia.com/HIMANIS/JJ090/words_annotations/FRCHANJJ_JJ090_0244V.json/91/line", 
            "@type": "oa:Annotation", 
            "motivation": "oa:painting", 
            "on": "http://bvmm.irht.cnrs.fr/iiif/23678/canvas/canvas-2298519#xywh=2858,415,120,87", 
            "resource": {
                "@type": "cnt:ContentAsText", 
                "chars": "QUASIDE", 
                "format": "text/plain"
            }
        }, 
        {
            "@id": "https://manifests.teklia.com/HIMANIS/JJ090/words_annotations/FRCHANJJ_JJ090_0244V.json/92/line", 
            "@type": "oa:Annotation", 
            "motivation": "oa:painting", 
            "on": "http://bvmm.irht.cnrs.fr/iiif/23678/canvas/canvas-2298519#xywh=751,925,45,65", 
            "resource": {
                "@type": "cnt:ContentAsText", 
                "chars": "IL", 
                "format": "text/plain"
            }
        }, 
        {
            "@id": "https://manifests.teklia.com/HIMANIS/JJ090/words_annotations/FRCHANJJ_JJ090_0244V.json/93/line", 
            "@type": "oa:Annotation", 
            "motivation": "oa:painting", 
            "on": "http://bvmm.irht.cnrs.fr/iiif/23678/canvas/canvas-2298519#xywh=830,382,220,79", 
            "resource": {
                "@type": "cnt:ContentAsText", 
                "chars": "CAPELLANIE", 
                "format": "text/plain"
            }
        }, 
        {
            "@id": "https://manifests.teklia.com/HIMANIS/JJ090/words_annotations/FRCHANJJ_JJ090_0244V.json/94/line", 
            "@type": "oa:Annotation", 
            "motivation": "oa:painting", 
            "on": "http://bvmm.irht.cnrs.fr/iiif/23678/canvas/canvas-2298519#xywh=928,1272,90,84", 
            "resource": {
                "@type": "cnt:ContentAsText", 
                "chars": "GILE", 
                "format": "text/plain"
            }
        }, 
        {
            "@id": "https://manifests.teklia.com/HIMANIS/JJ090/words_annotations/FRCHANJJ_JJ090_0244V.json/95/line", 
            "@type": "oa:Annotation", 
            "motivation": "oa:painting", 
            "on": "http://bvmm.irht.cnrs.fr/iiif/23678/canvas/canvas-2298519#xywh=2951,623,278,34", 
            "resource": {
                "@type": "cnt:ContentAsText", 
                "chars": "QUE", 
                "format": "text/plain"
            }
        }, 
        {
            "@id": "https://manifests.teklia.com/HIMANIS/JJ090/words_annotations/FRCHANJJ_JJ090_0244V.json/96/line", 
            "@type": "oa:Annotation", 
            "motivation": "oa:painting", 
            "on": "http://bvmm.irht.cnrs.fr/iiif/23678/canvas/canvas-2298519#xywh=695,382,95,79", 
            "resource": {
                "@type": "cnt:ContentAsText", 
                "chars": "OPUS", 
                "format": "text/plain"
            }
        }, 
        {
            "@id": "https://manifests.teklia.com/HIMANIS/JJ090/words_annotations/FRCHANJJ_JJ090_0244V.json/97/line", 
            "@type": "oa:Annotation", 
            "motivation": "oa:painting", 
            "on": "http://bvmm.irht.cnrs.fr/iiif/23678/canvas/canvas-2298519#xywh=2734,375,85,61", 
            "resource": {
                "@type": "cnt:ContentAsText", 
                "chars": "TENERE", 
                "format": "text/plain"
            }
        }, 
        {
            "@id": "https://manifests.teklia.com/HIMANIS/JJ090/words_annotations/FRCHANJJ_JJ090_0244V.json/98/line", 
            "@type": "oa:Annotation", 
            "motivation": "oa:painting", 
            "on": "http://bvmm.irht.cnrs.fr/iiif/23678/canvas/canvas-2298519#xywh=2649,415,99,87", 
            "resource": {
                "@type": "cnt:ContentAsText", 
                "chars": "PREDICTA", 
                "format": "text/plain"
            }
        }, 
        {
            "@id": "https://manifests.teklia.com/HIMANIS/JJ090/words_annotations/FRCHANJJ_JJ090_0244V.json/99/line", 
            "@type": "oa:Annotation", 
            "motivation": "oa:painting", 
            "on": "http://bvmm.irht.cnrs.fr/iiif/23678/canvas/canvas-2298519#xywh=2792,415,55,87", 
            "resource": {
                "@type": "cnt:ContentAsText", 
                "chars": "ALII", 
                "format": "text/plain"
            }
        }, 
        {
            "@id": "https://manifests.teklia.com/HIMANIS/JJ090/words_annotations/FRCHANJJ_JJ090_0244V.json/100/line", 
            "@type": "oa:Annotation", 
            "motivation": "oa:painting", 
            "on": "http://bvmm.irht.cnrs.fr/iiif/23678/canvas/canvas-2298519#xywh=1088,1181,72,95", 
            "resource": {
                "@type": "cnt:ContentAsText", 
                "chars": "AUT", 
                "format": "text/plain"
            }
        }, 
        {
            "@id": "https://manifests.teklia.com/HIMANIS/JJ090/words_annotations/FRCHANJJ_JJ090_0244V.json/101/line", 
            "@type": "oa:Annotation", 
            "motivation": "oa:painting", 
            "on": "http://bvmm.irht.cnrs.fr/iiif/23678/canvas/canvas-2298519#xywh=3074,902,71,66", 
            "resource": {
                "@type": "cnt:ContentAsText", 
                "chars": "ADIS", 
                "format": "text/plain"
            }
        }, 
        {
            "@id": "https://manifests.teklia.com/HIMANIS/JJ090/words_annotations/FRCHANJJ_JJ090_0244V.json/102/line", 
            "@type": "oa:Annotation", 
            "motivation": "oa:painting", 
            "on": "http://bvmm.irht.cnrs.fr/iiif/23678/canvas/canvas-2298519#xywh=2972,1106,64,57", 
            "resource": {
                "@type": "cnt:ContentAsText", 
                "chars": "AUTRE", 
                "format": "text/plain"
            }
        }, 
        {
            "@id": "https://manifests.teklia.com/HIMANIS/JJ090/words_annotations/FRCHANJJ_JJ090_0244V.json/103/line", 
            "@type": "oa:Annotation", 
            "motivation": "oa:painting", 
            "on": "http://bvmm.irht.cnrs.fr/iiif/23678/canvas/canvas-2298519#xywh=525,1181,162,95", 
            "resource": {
                "@type": "cnt:ContentAsText", 
                "chars": "L'ESTENT", 
                "format": "text/plain"
            }
        }, 
        {
            "@id": "https://manifests.teklia.com/HIMANIS/JJ090/words_annotations/FRCHANJJ_JJ090_0244V.json/104/line", 
            "@type": "oa:Annotation", 
            "motivation": "oa:painting", 
            "on": "http://bvmm.irht.cnrs.fr/iiif/23678/canvas/canvas-2298519#xywh=2468,415,138,87", 
            "resource": {
                "@type": "cnt:ContentAsText", 
                "chars": "PORE", 
                "format": "text/plain"
            }
        }, 
        {
            "@id": "https://manifests.teklia.com/HIMANIS/JJ090/words_annotations/FRCHANJJ_JJ090_0244V.json/105/line", 
            "@type": "oa:Annotation", 
            "motivation": "oa:painting", 
            "on": "http://bvmm.irht.cnrs.fr/iiif/23678/canvas/canvas-2298519#xywh=3005,691,37,66", 
            "resource": {
                "@type": "cnt:ContentAsText", 
                "chars": "TE", 
                "format": "text/plain"
            }
        }, 
        {
            "@id": "https://manifests.teklia.com/HIMANIS/JJ090/words_annotations/FRCHANJJ_JJ090_0244V.json/106/line", 
            "@type": "oa:Annotation", 
            "motivation": "oa:painting", 
            "on": "http://bvmm.irht.cnrs.fr/iiif/23678/canvas/canvas-2298519#xywh=3074,902,75,66", 
            "resource": {
                "@type": "cnt:ContentAsText", 
                "chars": "ALIIS", 
                "format": "text/plain"
            }
        }, 
        {
            "@id": "https://manifests.teklia.com/HIMANIS/JJ090/words_annotations/FRCHANJJ_JJ090_0244V.json/107/line", 
            "@type": "oa:Annotation", 
            "motivation": "oa:painting", 
            "on": "http://bvmm.irht.cnrs.fr/iiif/23678/canvas/canvas-2298519#xywh=3005,691,33,66", 
            "resource": {
                "@type": "cnt:ContentAsText", 
                "chars": "DE", 
                "format": "text/plain"
            }
        }, 
        {
            "@id": "https://manifests.teklia.com/HIMANIS/JJ090/words_annotations/FRCHANJJ_JJ090_0244V.json/108/line", 
            "@type": "oa:Annotation", 
            "motivation": "oa:painting", 
            "on": "http://bvmm.irht.cnrs.fr/iiif/23678/canvas/canvas-2298519#xywh=3024,1251,91,81", 
            "resource": {
                "@type": "cnt:ContentAsText", 
                "chars": "LES", 
                "format": "text/plain"
            }
        }, 
        {
            "@id": "https://manifests.teklia.com/HIMANIS/JJ090/words_annotations/FRCHANJJ_JJ090_0244V.json/109/line", 
            "@type": "oa:Annotation", 
            "motivation": "oa:painting", 
            "on": "http://bvmm.irht.cnrs.fr/iiif/23678/canvas/canvas-2298519#xywh=1477,1181,174,95", 
            "resource": {
                "@type": "cnt:ContentAsText", 
                "chars": "ALIQUALIT", 
                "format": "text/plain"
            }
        }
    ]
}