{
    "@context": "http://iiif.io/api/presentation/2/context.json", 
    "@id": "https://manifests.teklia.com/HIMANIS/JJ090/words_annotations/FRCHANJJ_JJ090_0188R.json", 
    "@type": "sc:AnnotationList", 
    "resources": [
        {
            "@id": "https://manifests.teklia.com/HIMANIS/JJ090/words_annotations/FRCHANJJ_JJ090_0188R.json/0/line", 
            "@type": "oa:Annotation", 
            "motivation": "oa:painting", 
            "on": "http://bvmm.irht.cnrs.fr/iiif/23678/canvas/canvas-2298406#xywh=2965,3204,54,80", 
            "resource": {
                "@type": "cnt:ContentAsText", 
                "chars": "VO", 
                "format": "text/plain"
            }
        }, 
        {
            "@id": "https://manifests.teklia.com/HIMANIS/JJ090/words_annotations/FRCHANJJ_JJ090_0188R.json/1/line", 
            "@type": "oa:Annotation", 
            "motivation": "oa:painting", 
            "on": "http://bvmm.irht.cnrs.fr/iiif/23678/canvas/canvas-2298406#xywh=3605,2320,82,68", 
            "resource": {
                "@type": "cnt:ContentAsText", 
                "chars": "DE", 
                "format": "text/plain"
            }
        }, 
        {
            "@id": "https://manifests.teklia.com/HIMANIS/JJ090/words_annotations/FRCHANJJ_JJ090_0188R.json/2/line", 
            "@type": "oa:Annotation", 
            "motivation": "oa:painting", 
            "on": "http://bvmm.irht.cnrs.fr/iiif/23678/canvas/canvas-2298406#xywh=965,3298,42,94", 
            "resource": {
                "@type": "cnt:ContentAsText", 
                "chars": "HOC", 
                "format": "text/plain"
            }
        }, 
        {
            "@id": "https://manifests.teklia.com/HIMANIS/JJ090/words_annotations/FRCHANJJ_JJ090_0188R.json/3/line", 
            "@type": "oa:Annotation", 
            "motivation": "oa:painting", 
            "on": "http://bvmm.irht.cnrs.fr/iiif/23678/canvas/canvas-2298406#xywh=1419,3392,48,108", 
            "resource": {
                "@type": "cnt:ContentAsText", 
                "chars": "HOC", 
                "format": "text/plain"
            }
        }, 
        {
            "@id": "https://manifests.teklia.com/HIMANIS/JJ090/words_annotations/FRCHANJJ_JJ090_0188R.json/4/line", 
            "@type": "oa:Annotation", 
            "motivation": "oa:painting", 
            "on": "http://bvmm.irht.cnrs.fr/iiif/23678/canvas/canvas-2298406#xywh=1501,3392,122,108", 
            "resource": {
                "@type": "cnt:ContentAsText", 
                "chars": "NOUS", 
                "format": "text/plain"
            }
        }, 
        {
            "@id": "https://manifests.teklia.com/HIMANIS/JJ090/words_annotations/FRCHANJJ_JJ090_0188R.json/5/line", 
            "@type": "oa:Annotation", 
            "motivation": "oa:painting", 
            "on": "http://bvmm.irht.cnrs.fr/iiif/23678/canvas/canvas-2298406#xywh=1297,3392,102,108", 
            "resource": {
                "@type": "cnt:ContentAsText", 
                "chars": "SUPER", 
                "format": "text/plain"
            }
        }, 
        {
            "@id": "https://manifests.teklia.com/HIMANIS/JJ090/words_annotations/FRCHANJJ_JJ090_0188R.json/6/line", 
            "@type": "oa:Annotation", 
            "motivation": "oa:painting", 
            "on": "http://bvmm.irht.cnrs.fr/iiif/23678/canvas/canvas-2298406#xywh=43,2216,0,38", 
            "resource": {
                "@type": "cnt:ContentAsText", 
                "chars": "J", 
                "format": "text/plain"
            }
        }, 
        {
            "@id": "https://manifests.teklia.com/HIMANIS/JJ090/words_annotations/FRCHANJJ_JJ090_0188R.json/7/line", 
            "@type": "oa:Annotation", 
            "motivation": "oa:painting", 
            "on": "http://bvmm.irht.cnrs.fr/iiif/23678/canvas/canvas-2298406#xywh=1676,3298,88,94", 
            "resource": {
                "@type": "cnt:ContentAsText", 
                "chars": "PARTE", 
                "format": "text/plain"
            }
        }, 
        {
            "@id": "https://manifests.teklia.com/HIMANIS/JJ090/words_annotations/FRCHANJJ_JJ090_0188R.json/8/line", 
            "@type": "oa:Annotation", 
            "motivation": "oa:painting", 
            "on": "http://bvmm.irht.cnrs.fr/iiif/23678/canvas/canvas-2298406#xywh=1501,3392,122,108", 
            "resource": {
                "@type": "cnt:ContentAsText", 
                "chars": "MIS", 
                "format": "text/plain"
            }
        }, 
        {
            "@id": "https://manifests.teklia.com/HIMANIS/JJ090/words_annotations/FRCHANJJ_JJ090_0188R.json/9/line", 
            "@type": "oa:Annotation", 
            "motivation": "oa:painting", 
            "on": "http://bvmm.irht.cnrs.fr/iiif/23678/canvas/canvas-2298406#xywh=2711,3110,0,84", 
            "resource": {
                "@type": "cnt:ContentAsText", 
                "chars": "J", 
                "format": "text/plain"
            }
        }, 
        {
            "@id": "https://manifests.teklia.com/HIMANIS/JJ090/words_annotations/FRCHANJJ_JJ090_0188R.json/10/line", 
            "@type": "oa:Annotation", 
            "motivation": "oa:painting", 
            "on": "http://bvmm.irht.cnrs.fr/iiif/23678/canvas/canvas-2298406#xywh=43,2216,0,38", 
            "resource": {
                "@type": "cnt:ContentAsText", 
                "chars": "P", 
                "format": "text/plain"
            }
        }, 
        {
            "@id": "https://manifests.teklia.com/HIMANIS/JJ090/words_annotations/FRCHANJJ_JJ090_0188R.json/11/line", 
            "@type": "oa:Annotation", 
            "motivation": "oa:painting", 
            "on": "http://bvmm.irht.cnrs.fr/iiif/23678/canvas/canvas-2298406#xywh=2711,3110,0,84", 
            "resource": {
                "@type": "cnt:ContentAsText", 
                "chars": "P", 
                "format": "text/plain"
            }
        }, 
        {
            "@id": "https://manifests.teklia.com/HIMANIS/JJ090/words_annotations/FRCHANJJ_JJ090_0188R.json/12/line", 
            "@type": "oa:Annotation", 
            "motivation": "oa:painting", 
            "on": "http://bvmm.irht.cnrs.fr/iiif/23678/canvas/canvas-2298406#xywh=1350,3298,59,94", 
            "resource": {
                "@type": "cnt:ContentAsText", 
                "chars": "QUE", 
                "format": "text/plain"
            }
        }, 
        {
            "@id": "https://manifests.teklia.com/HIMANIS/JJ090/words_annotations/FRCHANJJ_JJ090_0188R.json/13/line", 
            "@type": "oa:Annotation", 
            "motivation": "oa:painting", 
            "on": "http://bvmm.irht.cnrs.fr/iiif/23678/canvas/canvas-2298406#xywh=1030,3298,284,94", 
            "resource": {
                "@type": "cnt:ContentAsText", 
                "chars": "PROSEQUATUR", 
                "format": "text/plain"
            }
        }, 
        {
            "@id": "https://manifests.teklia.com/HIMANIS/JJ090/words_annotations/FRCHANJJ_JJ090_0188R.json/14/line", 
            "@type": "oa:Annotation", 
            "motivation": "oa:painting", 
            "on": "http://bvmm.irht.cnrs.fr/iiif/23678/canvas/canvas-2298406#xywh=2549,3964,80,160", 
            "resource": {
                "@type": "cnt:ContentAsText", 
                "chars": "DE", 
                "format": "text/plain"
            }
        }, 
        {
            "@id": "https://manifests.teklia.com/HIMANIS/JJ090/words_annotations/FRCHANJJ_JJ090_0188R.json/15/line", 
            "@type": "oa:Annotation", 
            "motivation": "oa:painting", 
            "on": "http://bvmm.irht.cnrs.fr/iiif/23678/canvas/canvas-2298406#xywh=288,2320,90,68", 
            "resource": {
                "@type": "cnt:ContentAsText", 
                "chars": "PRO", 
                "format": "text/plain"
            }
        }, 
        {
            "@id": "https://manifests.teklia.com/HIMANIS/JJ090/words_annotations/FRCHANJJ_JJ090_0188R.json/16/line", 
            "@type": "oa:Annotation", 
            "motivation": "oa:painting", 
            "on": "http://bvmm.irht.cnrs.fr/iiif/23678/canvas/canvas-2298406#xywh=3191,3964,110,160", 
            "resource": {
                "@type": "cnt:ContentAsText", 
                "chars": "NOSTRUM", 
                "format": "text/plain"
            }
        }, 
        {
            "@id": "https://manifests.teklia.com/HIMANIS/JJ090/words_annotations/FRCHANJJ_JJ090_0188R.json/17/line", 
            "@type": "oa:Annotation", 
            "motivation": "oa:painting", 
            "on": "http://bvmm.irht.cnrs.fr/iiif/23678/canvas/canvas-2298406#xywh=181,2244,143,76", 
            "resource": {
                "@type": "cnt:ContentAsText", 
                "chars": "DONI", 
                "format": "text/plain"
            }
        }, 
        {
            "@id": "https://manifests.teklia.com/HIMANIS/JJ090/words_annotations/FRCHANJJ_JJ090_0188R.json/18/line", 
            "@type": "oa:Annotation", 
            "motivation": "oa:painting", 
            "on": "http://bvmm.irht.cnrs.fr/iiif/23678/canvas/canvas-2298406#xywh=1462,3298,107,94", 
            "resource": {
                "@type": "cnt:ContentAsText", 
                "chars": "FUERINT", 
                "format": "text/plain"
            }
        }, 
        {
            "@id": "https://manifests.teklia.com/HIMANIS/JJ090/words_annotations/FRCHANJJ_JJ090_0188R.json/19/line", 
            "@type": "oa:Annotation", 
            "motivation": "oa:painting", 
            "on": "http://bvmm.irht.cnrs.fr/iiif/23678/canvas/canvas-2298406#xywh=1972,3298,118,94", 
            "resource": {
                "@type": "cnt:ContentAsText", 
                "chars": "LA", 
                "format": "text/plain"
            }
        }, 
        {
            "@id": "https://manifests.teklia.com/HIMANIS/JJ090/words_annotations/FRCHANJJ_JJ090_0188R.json/20/line", 
            "@type": "oa:Annotation", 
            "motivation": "oa:painting", 
            "on": "http://bvmm.irht.cnrs.fr/iiif/23678/canvas/canvas-2298406#xywh=181,2244,0,76", 
            "resource": {
                "@type": "cnt:ContentAsText", 
                "chars": "J", 
                "format": "text/plain"
            }
        }, 
        {
            "@id": "https://manifests.teklia.com/HIMANIS/JJ090/words_annotations/FRCHANJJ_JJ090_0188R.json/21/line", 
            "@type": "oa:Annotation", 
            "motivation": "oa:painting", 
            "on": "http://bvmm.irht.cnrs.fr/iiif/23678/canvas/canvas-2298406#xywh=181,2244,33,76", 
            "resource": {
                "@type": "cnt:ContentAsText", 
                "chars": "DE", 
                "format": "text/plain"
            }
        }, 
        {
            "@id": "https://manifests.teklia.com/HIMANIS/JJ090/words_annotations/FRCHANJJ_JJ090_0188R.json/22/line", 
            "@type": "oa:Annotation", 
            "motivation": "oa:painting", 
            "on": "http://bvmm.irht.cnrs.fr/iiif/23678/canvas/canvas-2298406#xywh=2739,3964,251,160", 
            "resource": {
                "@type": "cnt:ContentAsText", 
                "chars": "OMNIBUS", 
                "format": "text/plain"
            }
        }, 
        {
            "@id": "https://manifests.teklia.com/HIMANIS/JJ090/words_annotations/FRCHANJJ_JJ090_0188R.json/23/line", 
            "@type": "oa:Annotation", 
            "motivation": "oa:painting", 
            "on": "http://bvmm.irht.cnrs.fr/iiif/23678/canvas/canvas-2298406#xywh=1268,3928,0,36", 
            "resource": {
                "@type": "cnt:ContentAsText", 
                "chars": "R", 
                "format": "text/plain"
            }
        }, 
        {
            "@id": "https://manifests.teklia.com/HIMANIS/JJ090/words_annotations/FRCHANJJ_JJ090_0188R.json/24/line", 
            "@type": "oa:Annotation", 
            "motivation": "oa:painting", 
            "on": "http://bvmm.irht.cnrs.fr/iiif/23678/canvas/canvas-2298406#xywh=3191,3964,110,160", 
            "resource": {
                "@type": "cnt:ContentAsText", 
                "chars": "NOSTRE", 
                "format": "text/plain"
            }
        }, 
        {
            "@id": "https://manifests.teklia.com/HIMANIS/JJ090/words_annotations/FRCHANJJ_JJ090_0188R.json/25/line", 
            "@type": "oa:Annotation", 
            "motivation": "oa:painting", 
            "on": "http://bvmm.irht.cnrs.fr/iiif/23678/canvas/canvas-2298406#xywh=2267,3204,221,80", 
            "resource": {
                "@type": "cnt:ContentAsText", 
                "chars": "PERDRE", 
                "format": "text/plain"
            }
        }, 
        {
            "@id": "https://manifests.teklia.com/HIMANIS/JJ090/words_annotations/FRCHANJJ_JJ090_0188R.json/26/line", 
            "@type": "oa:Annotation", 
            "motivation": "oa:painting", 
            "on": "http://bvmm.irht.cnrs.fr/iiif/23678/canvas/canvas-2298406#xywh=110,2388,163,104", 
            "resource": {
                "@type": "cnt:ContentAsText", 
                "chars": "GENDO", 
                "format": "text/plain"
            }
        }, 
        {
            "@id": "https://manifests.teklia.com/HIMANIS/JJ090/words_annotations/FRCHANJJ_JJ090_0188R.json/27/line", 
            "@type": "oa:Annotation", 
            "motivation": "oa:painting", 
            "on": "http://bvmm.irht.cnrs.fr/iiif/23678/canvas/canvas-2298406#xywh=3191,3964,551,160", 
            "resource": {
                "@type": "cnt:ContentAsText", 
                "chars": "NOSTRI", 
                "format": "text/plain"
            }
        }, 
        {
            "@id": "https://manifests.teklia.com/HIMANIS/JJ090/words_annotations/FRCHANJJ_JJ090_0188R.json/28/line", 
            "@type": "oa:Annotation", 
            "motivation": "oa:painting", 
            "on": "http://bvmm.irht.cnrs.fr/iiif/23678/canvas/canvas-2298406#xywh=1616,3298,36,94", 
            "resource": {
                "@type": "cnt:ContentAsText", 
                "chars": "PRO", 
                "format": "text/plain"
            }
        }, 
        {
            "@id": "https://manifests.teklia.com/HIMANIS/JJ090/words_annotations/FRCHANJJ_JJ090_0188R.json/29/line", 
            "@type": "oa:Annotation", 
            "motivation": "oa:painting", 
            "on": "http://bvmm.irht.cnrs.fr/iiif/23678/canvas/canvas-2298406#xywh=181,2244,143,76", 
            "resource": {
                "@type": "cnt:ContentAsText", 
                "chars": "RONI", 
                "format": "text/plain"
            }
        }, 
        {
            "@id": "https://manifests.teklia.com/HIMANIS/JJ090/words_annotations/FRCHANJJ_JJ090_0188R.json/30/line", 
            "@type": "oa:Annotation", 
            "motivation": "oa:painting", 
            "on": "http://bvmm.irht.cnrs.fr/iiif/23678/canvas/canvas-2298406#xywh=737,3204,78,80", 
            "resource": {
                "@type": "cnt:ContentAsText", 
                "chars": "CIE", 
                "format": "text/plain"
            }
        }, 
        {
            "@id": "https://manifests.teklia.com/HIMANIS/JJ090/words_annotations/FRCHANJJ_JJ090_0188R.json/31/line", 
            "@type": "oa:Annotation", 
            "motivation": "oa:painting", 
            "on": "http://bvmm.irht.cnrs.fr/iiif/23678/canvas/canvas-2298406#xywh=181,2244,143,76", 
            "resource": {
                "@type": "cnt:ContentAsText", 
                "chars": "BONI", 
                "format": "text/plain"
            }
        }, 
        {
            "@id": "https://manifests.teklia.com/HIMANIS/JJ090/words_annotations/FRCHANJJ_JJ090_0188R.json/32/line", 
            "@type": "oa:Annotation", 
            "motivation": "oa:painting", 
            "on": "http://bvmm.irht.cnrs.fr/iiif/23678/canvas/canvas-2298406#xywh=293,2388,241,104", 
            "resource": {
                "@type": "cnt:ContentAsText", 
                "chars": "SAISIALIS", 
                "format": "text/plain"
            }
        }, 
        {
            "@id": "https://manifests.teklia.com/HIMANIS/JJ090/words_annotations/FRCHANJJ_JJ090_0188R.json/33/line", 
            "@type": "oa:Annotation", 
            "motivation": "oa:painting", 
            "on": "http://bvmm.irht.cnrs.fr/iiif/23678/canvas/canvas-2298406#xywh=1223,3204,0,80", 
            "resource": {
                "@type": "cnt:ContentAsText", 
                "chars": "G", 
                "format": "text/plain"
            }
        }, 
        {
            "@id": "https://manifests.teklia.com/HIMANIS/JJ090/words_annotations/FRCHANJJ_JJ090_0188R.json/34/line", 
            "@type": "oa:Annotation", 
            "motivation": "oa:painting", 
            "on": "http://bvmm.irht.cnrs.fr/iiif/23678/canvas/canvas-2298406#xywh=856,3392,197,108", 
            "resource": {
                "@type": "cnt:ContentAsText", 
                "chars": "GERARDO", 
                "format": "text/plain"
            }
        }, 
        {
            "@id": "https://manifests.teklia.com/HIMANIS/JJ090/words_annotations/FRCHANJJ_JJ090_0188R.json/35/line", 
            "@type": "oa:Annotation", 
            "motivation": "oa:painting", 
            "on": "http://bvmm.irht.cnrs.fr/iiif/23678/canvas/canvas-2298406#xywh=1462,3298,107,94", 
            "resource": {
                "@type": "cnt:ContentAsText", 
                "chars": "FUERIT", 
                "format": "text/plain"
            }
        }, 
        {
            "@id": "https://manifests.teklia.com/HIMANIS/JJ090/words_annotations/FRCHANJJ_JJ090_0188R.json/36/line", 
            "@type": "oa:Annotation", 
            "motivation": "oa:painting", 
            "on": "http://bvmm.irht.cnrs.fr/iiif/23678/canvas/canvas-2298406#xywh=3605,2320,180,68", 
            "resource": {
                "@type": "cnt:ContentAsText", 
                "chars": "LES", 
                "format": "text/plain"
            }
        }, 
        {
            "@id": "https://manifests.teklia.com/HIMANIS/JJ090/words_annotations/FRCHANJJ_JJ090_0188R.json/37/line", 
            "@type": "oa:Annotation", 
            "motivation": "oa:painting", 
            "on": "http://bvmm.irht.cnrs.fr/iiif/23678/canvas/canvas-2298406#xywh=2549,3964,110,160", 
            "resource": {
                "@type": "cnt:ContentAsText", 
                "chars": "RE", 
                "format": "text/plain"
            }
        }, 
        {
            "@id": "https://manifests.teklia.com/HIMANIS/JJ090/words_annotations/FRCHANJJ_JJ090_0188R.json/38/line", 
            "@type": "oa:Annotation", 
            "motivation": "oa:painting", 
            "on": "http://bvmm.irht.cnrs.fr/iiif/23678/canvas/canvas-2298406#xywh=835,3298,106,94", 
            "resource": {
                "@type": "cnt:ContentAsText", 
                "chars": "SUPER", 
                "format": "text/plain"
            }
        }, 
        {
            "@id": "https://manifests.teklia.com/HIMANIS/JJ090/words_annotations/FRCHANJJ_JJ090_0188R.json/39/line", 
            "@type": "oa:Annotation", 
            "motivation": "oa:painting", 
            "on": "http://bvmm.irht.cnrs.fr/iiif/23678/canvas/canvas-2298406#xywh=3605,2320,99,68", 
            "resource": {
                "@type": "cnt:ContentAsText", 
                "chars": "ET", 
                "format": "text/plain"
            }
        }, 
        {
            "@id": "https://manifests.teklia.com/HIMANIS/JJ090/words_annotations/FRCHANJJ_JJ090_0188R.json/40/line", 
            "@type": "oa:Annotation", 
            "motivation": "oa:painting", 
            "on": "http://bvmm.irht.cnrs.fr/iiif/23678/canvas/canvas-2298406#xywh=2549,3964,241,160", 
            "resource": {
                "@type": "cnt:ContentAsText", 
                "chars": "ACTUM", 
                "format": "text/plain"
            }
        }, 
        {
            "@id": "https://manifests.teklia.com/HIMANIS/JJ090/words_annotations/FRCHANJJ_JJ090_0188R.json/41/line", 
            "@type": "oa:Annotation", 
            "motivation": "oa:painting", 
            "on": "http://bvmm.irht.cnrs.fr/iiif/23678/canvas/canvas-2298406#xywh=48,2320,210,68", 
            "resource": {
                "@type": "cnt:ContentAsText", 
                "chars": "PREMISSIS", 
                "format": "text/plain"
            }
        }, 
        {
            "@id": "https://manifests.teklia.com/HIMANIS/JJ090/words_annotations/FRCHANJJ_JJ090_0188R.json/42/line", 
            "@type": "oa:Annotation", 
            "motivation": "oa:painting", 
            "on": "http://bvmm.irht.cnrs.fr/iiif/23678/canvas/canvas-2298406#xywh=181,2244,147,76", 
            "resource": {
                "@type": "cnt:ContentAsText", 
                "chars": "DONNI", 
                "format": "text/plain"
            }
        }, 
        {
            "@id": "https://manifests.teklia.com/HIMANIS/JJ090/words_annotations/FRCHANJJ_JJ090_0188R.json/43/line", 
            "@type": "oa:Annotation", 
            "motivation": "oa:painting", 
            "on": "http://bvmm.irht.cnrs.fr/iiif/23678/canvas/canvas-2298406#xywh=727,3392,88,108", 
            "resource": {
                "@type": "cnt:ContentAsText", 
                "chars": "DICTO", 
                "format": "text/plain"
            }
        }, 
        {
            "@id": "https://manifests.teklia.com/HIMANIS/JJ090/words_annotations/FRCHANJJ_JJ090_0188R.json/44/line", 
            "@type": "oa:Annotation", 
            "motivation": "oa:painting", 
            "on": "http://bvmm.irht.cnrs.fr/iiif/23678/canvas/canvas-2298406#xywh=3030,3964,130,160", 
            "resource": {
                "@type": "cnt:ContentAsText", 
                "chars": "ALIENO", 
                "format": "text/plain"
            }
        }, 
        {
            "@id": "https://manifests.teklia.com/HIMANIS/JJ090/words_annotations/FRCHANJJ_JJ090_0188R.json/45/line", 
            "@type": "oa:Annotation", 
            "motivation": "oa:painting", 
            "on": "http://bvmm.irht.cnrs.fr/iiif/23678/canvas/canvas-2298406#xywh=1800,3298,136,94", 
            "resource": {
                "@type": "cnt:ContentAsText", 
                "chars": "IPSIUS", 
                "format": "text/plain"
            }
        }, 
        {
            "@id": "https://manifests.teklia.com/HIMANIS/JJ090/words_annotations/FRCHANJJ_JJ090_0188R.json/46/line", 
            "@type": "oa:Annotation", 
            "motivation": "oa:painting", 
            "on": "http://bvmm.irht.cnrs.fr/iiif/23678/canvas/canvas-2298406#xywh=1121,3392,122,108", 
            "resource": {
                "@type": "cnt:ContentAsText", 
                "chars": "NOSTRAM", 
                "format": "text/plain"
            }
        }, 
        {
            "@id": "https://manifests.teklia.com/HIMANIS/JJ090/words_annotations/FRCHANJJ_JJ090_0188R.json/47/line", 
            "@type": "oa:Annotation", 
            "motivation": "oa:painting", 
            "on": "http://bvmm.irht.cnrs.fr/iiif/23678/canvas/canvas-2298406#xywh=27,4390,3739,436", 
            "resource": {
                "@type": "cnt:ContentAsText", 
                "chars": "CONTE", 
                "format": "text/plain"
            }
        }, 
        {
            "@id": "https://manifests.teklia.com/HIMANIS/JJ090/words_annotations/FRCHANJJ_JJ090_0188R.json/48/line", 
            "@type": "oa:Annotation", 
            "motivation": "oa:painting", 
            "on": "http://bvmm.irht.cnrs.fr/iiif/23678/canvas/canvas-2298406#xywh=1966,3204,256,80", 
            "resource": {
                "@type": "cnt:ContentAsText", 
                "chars": "CLERAVIT", 
                "format": "text/plain"
            }
        }, 
        {
            "@id": "https://manifests.teklia.com/HIMANIS/JJ090/words_annotations/FRCHANJJ_JJ090_0188R.json/49/line", 
            "@type": "oa:Annotation", 
            "motivation": "oa:painting", 
            "on": "http://bvmm.irht.cnrs.fr/iiif/23678/canvas/canvas-2298406#xywh=28,2244,129,76", 
            "resource": {
                "@type": "cnt:ContentAsText", 
                "chars": "QUI", 
                "format": "text/plain"
            }
        }, 
        {
            "@id": "https://manifests.teklia.com/HIMANIS/JJ090/words_annotations/FRCHANJJ_JJ090_0188R.json/50/line", 
            "@type": "oa:Annotation", 
            "motivation": "oa:painting", 
            "on": "http://bvmm.irht.cnrs.fr/iiif/23678/canvas/canvas-2298406#xywh=2549,3964,10,160", 
            "resource": {
                "@type": "cnt:ContentAsText", 
                "chars": "ET", 
                "format": "text/plain"
            }
        }, 
        {
            "@id": "https://manifests.teklia.com/HIMANIS/JJ090/words_annotations/FRCHANJJ_JJ090_0188R.json/51/line", 
            "@type": "oa:Annotation", 
            "motivation": "oa:painting", 
            "on": "http://bvmm.irht.cnrs.fr/iiif/23678/canvas/canvas-2298406#xywh=3572,2780,200,96", 
            "resource": {
                "@type": "cnt:ContentAsText", 
                "chars": "LES", 
                "format": "text/plain"
            }
        }, 
        {
            "@id": "https://manifests.teklia.com/HIMANIS/JJ090/words_annotations/FRCHANJJ_JJ090_0188R.json/52/line", 
            "@type": "oa:Annotation", 
            "motivation": "oa:painting", 
            "on": "http://bvmm.irht.cnrs.fr/iiif/23678/canvas/canvas-2298406#xywh=3572,2780,73,96", 
            "resource": {
                "@type": "cnt:ContentAsText", 
                "chars": "DE", 
                "format": "text/plain"
            }
        }, 
        {
            "@id": "https://manifests.teklia.com/HIMANIS/JJ090/words_annotations/FRCHANJJ_JJ090_0188R.json/53/line", 
            "@type": "oa:Annotation", 
            "motivation": "oa:painting", 
            "on": "http://bvmm.irht.cnrs.fr/iiif/23678/canvas/canvas-2298406#xywh=1966,3204,256,80", 
            "resource": {
                "@type": "cnt:ContentAsText", 
                "chars": "ACLERAVIT", 
                "format": "text/plain"
            }
        }
    ]
}