{
    "@context": "http://iiif.io/api/presentation/2/context.json", 
    "@id": "https://manifests.teklia.com/HIMANIS/JJ087/words_annotations/FRCHANJJ_JJ087_0134V.json", 
    "@type": "sc:AnnotationList", 
    "resources": [
        {
            "@id": "https://manifests.teklia.com/HIMANIS/JJ087/words_annotations/FRCHANJJ_JJ087_0134V.json/0/line", 
            "@type": "oa:Annotation", 
            "motivation": "oa:painting", 
            "on": "http://bvmm.irht.cnrs.fr/iiif/23676/canvas/canvas-2297094#xywh=743,2937,286,72", 
            "resource": {
                "@type": "cnt:ContentAsText", 
                "chars": "SAMBLABLE", 
                "format": "text/plain"
            }
        }, 
        {
            "@id": "https://manifests.teklia.com/HIMANIS/JJ087/words_annotations/FRCHANJJ_JJ087_0134V.json/1/line", 
            "@type": "oa:Annotation", 
            "motivation": "oa:painting", 
            "on": "http://bvmm.irht.cnrs.fr/iiif/23676/canvas/canvas-2297094#xywh=729,849,77,76", 
            "resource": {
                "@type": "cnt:ContentAsText", 
                "chars": "PARIS", 
                "format": "text/plain"
            }
        }, 
        {
            "@id": "https://manifests.teklia.com/HIMANIS/JJ087/words_annotations/FRCHANJJ_JJ087_0134V.json/2/line", 
            "@type": "oa:Annotation", 
            "motivation": "oa:painting", 
            "on": "http://bvmm.irht.cnrs.fr/iiif/23676/canvas/canvas-2297094#xywh=1557,2796,99,98", 
            "resource": {
                "@type": "cnt:ContentAsText", 
                "chars": "PAR", 
                "format": "text/plain"
            }
        }, 
        {
            "@id": "https://manifests.teklia.com/HIMANIS/JJ087/words_annotations/FRCHANJJ_JJ087_0134V.json/3/line", 
            "@type": "oa:Annotation", 
            "motivation": "oa:painting", 
            "on": "http://bvmm.irht.cnrs.fr/iiif/23676/canvas/canvas-2297094#xywh=1044,2616,149,31", 
            "resource": {
                "@type": "cnt:ContentAsText", 
                "chars": "CORRE", 
                "format": "text/plain"
            }
        }, 
        {
            "@id": "https://manifests.teklia.com/HIMANIS/JJ087/words_annotations/FRCHANJJ_JJ087_0134V.json/4/line", 
            "@type": "oa:Annotation", 
            "motivation": "oa:painting", 
            "on": "http://bvmm.irht.cnrs.fr/iiif/23676/canvas/canvas-2297094#xywh=2137,2796,198,98", 
            "resource": {
                "@type": "cnt:ContentAsText", 
                "chars": "SAVIGN", 
                "format": "text/plain"
            }
        }, 
        {
            "@id": "https://manifests.teklia.com/HIMANIS/JJ087/words_annotations/FRCHANJJ_JJ087_0134V.json/5/line", 
            "@type": "oa:Annotation", 
            "motivation": "oa:painting", 
            "on": "http://bvmm.irht.cnrs.fr/iiif/23676/canvas/canvas-2297094#xywh=1279,2796,210,98", 
            "resource": {
                "@type": "cnt:ContentAsText", 
                "chars": "SIGN", 
                "format": "text/plain"
            }
        }, 
        {
            "@id": "https://manifests.teklia.com/HIMANIS/JJ087/words_annotations/FRCHANJJ_JJ087_0134V.json/6/line", 
            "@type": "oa:Annotation", 
            "motivation": "oa:painting", 
            "on": "http://bvmm.irht.cnrs.fr/iiif/23676/canvas/canvas-2297094#xywh=421,1077,17,38", 
            "resource": {
                "@type": "cnt:ContentAsText", 
                "chars": "DE", 
                "format": "text/plain"
            }
        }, 
        {
            "@id": "https://manifests.teklia.com/HIMANIS/JJ087/words_annotations/FRCHANJJ_JJ087_0134V.json/7/line", 
            "@type": "oa:Annotation", 
            "motivation": "oa:painting", 
            "on": "http://bvmm.irht.cnrs.fr/iiif/23676/canvas/canvas-2297094#xywh=796,930,0,20", 
            "resource": {
                "@type": "cnt:ContentAsText", 
                "chars": "P", 
                "format": "text/plain"
            }
        }, 
        {
            "@id": "https://manifests.teklia.com/HIMANIS/JJ087/words_annotations/FRCHANJJ_JJ087_0134V.json/8/line", 
            "@type": "oa:Annotation", 
            "motivation": "oa:painting", 
            "on": "http://bvmm.irht.cnrs.fr/iiif/23676/canvas/canvas-2297094#xywh=139,2937,195,72", 
            "resource": {
                "@type": "cnt:ContentAsText", 
                "chars": "SPONI", 
                "format": "text/plain"
            }
        }, 
        {
            "@id": "https://manifests.teklia.com/HIMANIS/JJ087/words_annotations/FRCHANJJ_JJ087_0134V.json/9/line", 
            "@type": "oa:Annotation", 
            "motivation": "oa:painting", 
            "on": "http://bvmm.irht.cnrs.fr/iiif/23676/canvas/canvas-2297094#xywh=796,930,23,20", 
            "resource": {
                "@type": "cnt:ContentAsText", 
                "chars": "PHIL", 
                "format": "text/plain"
            }
        }, 
        {
            "@id": "https://manifests.teklia.com/HIMANIS/JJ087/words_annotations/FRCHANJJ_JJ087_0134V.json/10/line", 
            "@type": "oa:Annotation", 
            "motivation": "oa:painting", 
            "on": "http://bvmm.irht.cnrs.fr/iiif/23676/canvas/canvas-2297094#xywh=1656,2796,160,98", 
            "resource": {
                "@type": "cnt:ContentAsText", 
                "chars": "MONSEIGNEUR", 
                "format": "text/plain"
            }
        }, 
        {
            "@id": "https://manifests.teklia.com/HIMANIS/JJ087/words_annotations/FRCHANJJ_JJ087_0134V.json/11/line", 
            "@type": "oa:Annotation", 
            "motivation": "oa:painting", 
            "on": "http://bvmm.irht.cnrs.fr/iiif/23676/canvas/canvas-2297094#xywh=525,316,21,47", 
            "resource": {
                "@type": "cnt:ContentAsText", 
                "chars": "CE", 
                "format": "text/plain"
            }
        }, 
        {
            "@id": "https://manifests.teklia.com/HIMANIS/JJ087/words_annotations/FRCHANJJ_JJ087_0134V.json/12/line", 
            "@type": "oa:Annotation", 
            "motivation": "oa:painting", 
            "on": "http://bvmm.irht.cnrs.fr/iiif/23676/canvas/canvas-2297094#xywh=942,2616,52,31", 
            "resource": {
                "@type": "cnt:ContentAsText", 
                "chars": "CE", 
                "format": "text/plain"
            }
        }, 
        {
            "@id": "https://manifests.teklia.com/HIMANIS/JJ087/words_annotations/FRCHANJJ_JJ087_0134V.json/13/line", 
            "@type": "oa:Annotation", 
            "motivation": "oa:painting", 
            "on": "http://bvmm.irht.cnrs.fr/iiif/23676/canvas/canvas-2297094#xywh=1059,849,115,76", 
            "resource": {
                "@type": "cnt:ContentAsText", 
                "chars": "AILLIEZ", 
                "format": "text/plain"
            }
        }, 
        {
            "@id": "https://manifests.teklia.com/HIMANIS/JJ087/words_annotations/FRCHANJJ_JJ087_0134V.json/14/line", 
            "@type": "oa:Annotation", 
            "motivation": "oa:painting", 
            "on": "http://bvmm.irht.cnrs.fr/iiif/23676/canvas/canvas-2297094#xywh=2137,2796,173,98", 
            "resource": {
                "@type": "cnt:ContentAsText", 
                "chars": "SAINT", 
                "format": "text/plain"
            }
        }, 
        {
            "@id": "https://manifests.teklia.com/HIMANIS/JJ087/words_annotations/FRCHANJJ_JJ087_0134V.json/15/line", 
            "@type": "oa:Annotation", 
            "motivation": "oa:painting", 
            "on": "http://bvmm.irht.cnrs.fr/iiif/23676/canvas/canvas-2297094#xywh=942,3019,66,50", 
            "resource": {
                "@type": "cnt:ContentAsText", 
                "chars": "PAR", 
                "format": "text/plain"
            }
        }, 
        {
            "@id": "https://manifests.teklia.com/HIMANIS/JJ087/words_annotations/FRCHANJJ_JJ087_0134V.json/16/line", 
            "@type": "oa:Annotation", 
            "motivation": "oa:painting", 
            "on": "http://bvmm.irht.cnrs.fr/iiif/23676/canvas/canvas-2297094#xywh=1044,2616,149,31", 
            "resource": {
                "@type": "cnt:ContentAsText", 
                "chars": "GARRE", 
                "format": "text/plain"
            }
        }, 
        {
            "@id": "https://manifests.teklia.com/HIMANIS/JJ087/words_annotations/FRCHANJJ_JJ087_0134V.json/17/line", 
            "@type": "oa:Annotation", 
            "motivation": "oa:painting", 
            "on": "http://bvmm.irht.cnrs.fr/iiif/23676/canvas/canvas-2297094#xywh=1572,441,163,25", 
            "resource": {
                "@type": "cnt:ContentAsText", 
                "chars": "EX", 
                "format": "text/plain"
            }
        }, 
        {
            "@id": "https://manifests.teklia.com/HIMANIS/JJ087/words_annotations/FRCHANJJ_JJ087_0134V.json/18/line", 
            "@type": "oa:Annotation", 
            "motivation": "oa:painting", 
            "on": "http://bvmm.irht.cnrs.fr/iiif/23676/canvas/canvas-2297094#xywh=411,316,96,47", 
            "resource": {
                "@type": "cnt:ContentAsText", 
                "chars": "GENER", 
                "format": "text/plain"
            }
        }, 
        {
            "@id": "https://manifests.teklia.com/HIMANIS/JJ087/words_annotations/FRCHANJJ_JJ087_0134V.json/19/line", 
            "@type": "oa:Annotation", 
            "motivation": "oa:painting", 
            "on": "http://bvmm.irht.cnrs.fr/iiif/23676/canvas/canvas-2297094#xywh=2137,2796,204,98", 
            "resource": {
                "@type": "cnt:ContentAsText", 
                "chars": "SAUGUS", 
                "format": "text/plain"
            }
        }, 
        {
            "@id": "https://manifests.teklia.com/HIMANIS/JJ087/words_annotations/FRCHANJJ_JJ087_0134V.json/20/line", 
            "@type": "oa:Annotation", 
            "motivation": "oa:painting", 
            "on": "http://bvmm.irht.cnrs.fr/iiif/23676/canvas/canvas-2297094#xywh=165,3054,254,50", 
            "resource": {
                "@type": "cnt:ContentAsText", 
                "chars": "DOMI", 
                "format": "text/plain"
            }
        }, 
        {
            "@id": "https://manifests.teklia.com/HIMANIS/JJ087/words_annotations/FRCHANJJ_JJ087_0134V.json/21/line", 
            "@type": "oa:Annotation", 
            "motivation": "oa:painting", 
            "on": "http://bvmm.irht.cnrs.fr/iiif/23676/canvas/canvas-2297094#xywh=581,849,86,76", 
            "resource": {
                "@type": "cnt:ContentAsText", 
                "chars": "DEFFENS", 
                "format": "text/plain"
            }
        }, 
        {
            "@id": "https://manifests.teklia.com/HIMANIS/JJ087/words_annotations/FRCHANJJ_JJ087_0134V.json/22/line", 
            "@type": "oa:Annotation", 
            "motivation": "oa:painting", 
            "on": "http://bvmm.irht.cnrs.fr/iiif/23676/canvas/canvas-2297094#xywh=1572,441,147,25", 
            "resource": {
                "@type": "cnt:ContentAsText", 
                "chars": "DES", 
                "format": "text/plain"
            }
        }, 
        {
            "@id": "https://manifests.teklia.com/HIMANIS/JJ087/words_annotations/FRCHANJJ_JJ087_0134V.json/23/line", 
            "@type": "oa:Annotation", 
            "motivation": "oa:painting", 
            "on": "http://bvmm.irht.cnrs.fr/iiif/23676/canvas/canvas-2297094#xywh=411,316,81,47", 
            "resource": {
                "@type": "cnt:ContentAsText", 
                "chars": "GENS", 
                "format": "text/plain"
            }
        }, 
        {
            "@id": "https://manifests.teklia.com/HIMANIS/JJ087/words_annotations/FRCHANJJ_JJ087_0134V.json/24/line", 
            "@type": "oa:Annotation", 
            "motivation": "oa:painting", 
            "on": "http://bvmm.irht.cnrs.fr/iiif/23676/canvas/canvas-2297094#xywh=1046,3019,137,50", 
            "resource": {
                "@type": "cnt:ContentAsText", 
                "chars": "MONSI", 
                "format": "text/plain"
            }
        }, 
        {
            "@id": "https://manifests.teklia.com/HIMANIS/JJ087/words_annotations/FRCHANJJ_JJ087_0134V.json/25/line", 
            "@type": "oa:Annotation", 
            "motivation": "oa:painting", 
            "on": "http://bvmm.irht.cnrs.fr/iiif/23676/canvas/canvas-2297094#xywh=411,316,81,47", 
            "resource": {
                "@type": "cnt:ContentAsText", 
                "chars": "GENT", 
                "format": "text/plain"
            }
        }, 
        {
            "@id": "https://manifests.teklia.com/HIMANIS/JJ087/words_annotations/FRCHANJJ_JJ087_0134V.json/26/line", 
            "@type": "oa:Annotation", 
            "motivation": "oa:painting", 
            "on": "http://bvmm.irht.cnrs.fr/iiif/23676/canvas/canvas-2297094#xywh=6,3104,314,103", 
            "resource": {
                "@type": "cnt:ContentAsText", 
                "chars": "VISSENT", 
                "format": "text/plain"
            }
        }, 
        {
            "@id": "https://manifests.teklia.com/HIMANIS/JJ087/words_annotations/FRCHANJJ_JJ087_0134V.json/27/line", 
            "@type": "oa:Annotation", 
            "motivation": "oa:painting", 
            "on": "http://bvmm.irht.cnrs.fr/iiif/23676/canvas/canvas-2297094#xywh=471,849,91,76", 
            "resource": {
                "@type": "cnt:ContentAsText", 
                "chars": "PAR", 
                "format": "text/plain"
            }
        }, 
        {
            "@id": "https://manifests.teklia.com/HIMANIS/JJ087/words_annotations/FRCHANJJ_JJ087_0134V.json/28/line", 
            "@type": "oa:Annotation", 
            "motivation": "oa:painting", 
            "on": "http://bvmm.irht.cnrs.fr/iiif/23676/canvas/canvas-2297094#xywh=1301,1096,0,23", 
            "resource": {
                "@type": "cnt:ContentAsText", 
                "chars": "C", 
                "format": "text/plain"
            }
        }, 
        {
            "@id": "https://manifests.teklia.com/HIMANIS/JJ087/words_annotations/FRCHANJJ_JJ087_0134V.json/29/line", 
            "@type": "oa:Annotation", 
            "motivation": "oa:painting", 
            "on": "http://bvmm.irht.cnrs.fr/iiif/23676/canvas/canvas-2297094#xywh=625,2937,72,72", 
            "resource": {
                "@type": "cnt:ContentAsText", 
                "chars": "AUTRE", 
                "format": "text/plain"
            }
        }, 
        {
            "@id": "https://manifests.teklia.com/HIMANIS/JJ087/words_annotations/FRCHANJJ_JJ087_0134V.json/30/line", 
            "@type": "oa:Annotation", 
            "motivation": "oa:painting", 
            "on": "http://bvmm.irht.cnrs.fr/iiif/23676/canvas/canvas-2297094#xywh=1365,1096,25,23", 
            "resource": {
                "@type": "cnt:ContentAsText", 
                "chars": "CC", 
                "format": "text/plain"
            }
        }, 
        {
            "@id": "https://manifests.teklia.com/HIMANIS/JJ087/words_annotations/FRCHANJJ_JJ087_0134V.json/31/line", 
            "@type": "oa:Annotation", 
            "motivation": "oa:painting", 
            "on": "http://bvmm.irht.cnrs.fr/iiif/23676/canvas/canvas-2297094#xywh=579,316,57,47", 
            "resource": {
                "@type": "cnt:ContentAsText", 
                "chars": "QUE", 
                "format": "text/plain"
            }
        }, 
        {
            "@id": "https://manifests.teklia.com/HIMANIS/JJ087/words_annotations/FRCHANJJ_JJ087_0134V.json/32/line", 
            "@type": "oa:Annotation", 
            "motivation": "oa:painting", 
            "on": "http://bvmm.irht.cnrs.fr/iiif/23676/canvas/canvas-2297094#xywh=416,2937,54,72", 
            "resource": {
                "@type": "cnt:ContentAsText", 
                "chars": "ITEM", 
                "format": "text/plain"
            }
        }, 
        {
            "@id": "https://manifests.teklia.com/HIMANIS/JJ087/words_annotations/FRCHANJJ_JJ087_0134V.json/33/line", 
            "@type": "oa:Annotation", 
            "motivation": "oa:painting", 
            "on": "http://bvmm.irht.cnrs.fr/iiif/23676/canvas/canvas-2297094#xywh=1301,1096,0,23", 
            "resource": {
                "@type": "cnt:ContentAsText", 
                "chars": "P", 
                "format": "text/plain"
            }
        }, 
        {
            "@id": "https://manifests.teklia.com/HIMANIS/JJ087/words_annotations/FRCHANJJ_JJ087_0134V.json/34/line", 
            "@type": "oa:Annotation", 
            "motivation": "oa:painting", 
            "on": "http://bvmm.irht.cnrs.fr/iiif/23676/canvas/canvas-2297094#xywh=3,3054,0,50", 
            "resource": {
                "@type": "cnt:ContentAsText", 
                "chars": "P", 
                "format": "text/plain"
            }
        }, 
        {
            "@id": "https://manifests.teklia.com/HIMANIS/JJ087/words_annotations/FRCHANJJ_JJ087_0134V.json/35/line", 
            "@type": "oa:Annotation", 
            "motivation": "oa:painting", 
            "on": "http://bvmm.irht.cnrs.fr/iiif/23676/canvas/canvas-2297094#xywh=1572,441,147,25", 
            "resource": {
                "@type": "cnt:ContentAsText", 
                "chars": "QUE", 
                "format": "text/plain"
            }
        }, 
        {
            "@id": "https://manifests.teklia.com/HIMANIS/JJ087/words_annotations/FRCHANJJ_JJ087_0134V.json/36/line", 
            "@type": "oa:Annotation", 
            "motivation": "oa:painting", 
            "on": "http://bvmm.irht.cnrs.fr/iiif/23676/canvas/canvas-2297094#xywh=300,1077,61,38", 
            "resource": {
                "@type": "cnt:ContentAsText", 
                "chars": "PHILIPPES", 
                "format": "text/plain"
            }
        }, 
        {
            "@id": "https://manifests.teklia.com/HIMANIS/JJ087/words_annotations/FRCHANJJ_JJ087_0134V.json/37/line", 
            "@type": "oa:Annotation", 
            "motivation": "oa:painting", 
            "on": "http://bvmm.irht.cnrs.fr/iiif/23676/canvas/canvas-2297094#xywh=455,1077,39,38", 
            "resource": {
                "@type": "cnt:ContentAsText", 
                "chars": "CC", 
                "format": "text/plain"
            }
        }, 
        {
            "@id": "https://manifests.teklia.com/HIMANIS/JJ087/words_annotations/FRCHANJJ_JJ087_0134V.json/38/line", 
            "@type": "oa:Annotation", 
            "motivation": "oa:painting", 
            "on": "http://bvmm.irht.cnrs.fr/iiif/23676/canvas/canvas-2297094#xywh=1896,2796,130,98", 
            "resource": {
                "@type": "cnt:ContentAsText", 
                "chars": "REGENT", 
                "format": "text/plain"
            }
        }, 
        {
            "@id": "https://manifests.teklia.com/HIMANIS/JJ087/words_annotations/FRCHANJJ_JJ087_0134V.json/39/line", 
            "@type": "oa:Annotation", 
            "motivation": "oa:painting", 
            "on": "http://bvmm.irht.cnrs.fr/iiif/23676/canvas/canvas-2297094#xywh=0,1700,57,29", 
            "resource": {
                "@type": "cnt:ContentAsText", 
                "chars": "LE", 
                "format": "text/plain"
            }
        }, 
        {
            "@id": "https://manifests.teklia.com/HIMANIS/JJ087/words_annotations/FRCHANJJ_JJ087_0134V.json/40/line", 
            "@type": "oa:Annotation", 
            "motivation": "oa:painting", 
            "on": "http://bvmm.irht.cnrs.fr/iiif/23676/canvas/canvas-2297094#xywh=1572,441,147,25", 
            "resource": {
                "@type": "cnt:ContentAsText", 
                "chars": "DE", 
                "format": "text/plain"
            }
        }, 
        {
            "@id": "https://manifests.teklia.com/HIMANIS/JJ087/words_annotations/FRCHANJJ_JJ087_0134V.json/41/line", 
            "@type": "oa:Annotation", 
            "motivation": "oa:painting", 
            "on": "http://bvmm.irht.cnrs.fr/iiif/23676/canvas/canvas-2297094#xywh=735,3019,159,50", 
            "resource": {
                "@type": "cnt:ContentAsText", 
                "chars": "SIGNI", 
                "format": "text/plain"
            }
        }, 
        {
            "@id": "https://manifests.teklia.com/HIMANIS/JJ087/words_annotations/FRCHANJJ_JJ087_0134V.json/42/line", 
            "@type": "oa:Annotation", 
            "motivation": "oa:painting", 
            "on": "http://bvmm.irht.cnrs.fr/iiif/23676/canvas/canvas-2297094#xywh=300,1077,54,38", 
            "resource": {
                "@type": "cnt:ContentAsText", 
                "chars": "PHILIPPE", 
                "format": "text/plain"
            }
        }, 
        {
            "@id": "https://manifests.teklia.com/HIMANIS/JJ087/words_annotations/FRCHANJJ_JJ087_0134V.json/43/line", 
            "@type": "oa:Annotation", 
            "motivation": "oa:painting", 
            "on": "http://bvmm.irht.cnrs.fr/iiif/23676/canvas/canvas-2297094#xywh=165,3054,273,50", 
            "resource": {
                "@type": "cnt:ContentAsText", 
                "chars": "DEVAN", 
                "format": "text/plain"
            }
        }, 
        {
            "@id": "https://manifests.teklia.com/HIMANIS/JJ087/words_annotations/FRCHANJJ_JJ087_0134V.json/44/line", 
            "@type": "oa:Annotation", 
            "motivation": "oa:painting", 
            "on": "http://bvmm.irht.cnrs.fr/iiif/23676/canvas/canvas-2297094#xywh=665,316,99,47", 
            "resource": {
                "@type": "cnt:ContentAsText", 
                "chars": "ORDENE", 
                "format": "text/plain"
            }
        }, 
        {
            "@id": "https://manifests.teklia.com/HIMANIS/JJ087/words_annotations/FRCHANJJ_JJ087_0134V.json/45/line", 
            "@type": "oa:Annotation", 
            "motivation": "oa:painting", 
            "on": "http://bvmm.irht.cnrs.fr/iiif/23676/canvas/canvas-2297094#xywh=625,2937,81,72", 
            "resource": {
                "@type": "cnt:ContentAsText", 
                "chars": "AUTRES", 
                "format": "text/plain"
            }
        }, 
        {
            "@id": "https://manifests.teklia.com/HIMANIS/JJ087/words_annotations/FRCHANJJ_JJ087_0134V.json/46/line", 
            "@type": "oa:Annotation", 
            "motivation": "oa:painting", 
            "on": "http://bvmm.irht.cnrs.fr/iiif/23676/canvas/canvas-2297094#xywh=525,316,21,47", 
            "resource": {
                "@type": "cnt:ContentAsText", 
                "chars": "DE", 
                "format": "text/plain"
            }
        }, 
        {
            "@id": "https://manifests.teklia.com/HIMANIS/JJ087/words_annotations/FRCHANJJ_JJ087_0134V.json/47/line", 
            "@type": "oa:Annotation", 
            "motivation": "oa:painting", 
            "on": "http://bvmm.irht.cnrs.fr/iiif/23676/canvas/canvas-2297094#xywh=954,849,81,76", 
            "resource": {
                "@type": "cnt:ContentAsText", 
                "chars": "TOUS", 
                "format": "text/plain"
            }
        }, 
        {
            "@id": "https://manifests.teklia.com/HIMANIS/JJ087/words_annotations/FRCHANJJ_JJ087_0134V.json/48/line", 
            "@type": "oa:Annotation", 
            "motivation": "oa:painting", 
            "on": "http://bvmm.irht.cnrs.fr/iiif/23676/canvas/canvas-2297094#xywh=581,849,81,76", 
            "resource": {
                "@type": "cnt:ContentAsText", 
                "chars": "DESSUS", 
                "format": "text/plain"
            }
        }, 
        {
            "@id": "https://manifests.teklia.com/HIMANIS/JJ087/words_annotations/FRCHANJJ_JJ087_0134V.json/49/line", 
            "@type": "oa:Annotation", 
            "motivation": "oa:painting", 
            "on": "http://bvmm.irht.cnrs.fr/iiif/23676/canvas/canvas-2297094#xywh=416,2937,81,72", 
            "resource": {
                "@type": "cnt:ContentAsText", 
                "chars": "ITIUM", 
                "format": "text/plain"
            }
        }, 
        {
            "@id": "https://manifests.teklia.com/HIMANIS/JJ087/words_annotations/FRCHANJJ_JJ087_0134V.json/50/line", 
            "@type": "oa:Annotation", 
            "motivation": "oa:painting", 
            "on": "http://bvmm.irht.cnrs.fr/iiif/23676/canvas/canvas-2297094#xywh=825,849,100,76", 
            "resource": {
                "@type": "cnt:ContentAsText", 
                "chars": "DEVANT", 
                "format": "text/plain"
            }
        }, 
        {
            "@id": "https://manifests.teklia.com/HIMANIS/JJ087/words_annotations/FRCHANJJ_JJ087_0134V.json/51/line", 
            "@type": "oa:Annotation", 
            "motivation": "oa:painting", 
            "on": "http://bvmm.irht.cnrs.fr/iiif/23676/canvas/canvas-2297094#xywh=2164,1797,0,31", 
            "resource": {
                "@type": "cnt:ContentAsText", 
                "chars": "G", 
                "format": "text/plain"
            }
        }, 
        {
            "@id": "https://manifests.teklia.com/HIMANIS/JJ087/words_annotations/FRCHANJJ_JJ087_0134V.json/52/line", 
            "@type": "oa:Annotation", 
            "motivation": "oa:painting", 
            "on": "http://bvmm.irht.cnrs.fr/iiif/23676/canvas/canvas-2297094#xywh=2271,1797,0,31", 
            "resource": {
                "@type": "cnt:ContentAsText", 
                "chars": "J", 
                "format": "text/plain"
            }
        }, 
        {
            "@id": "https://manifests.teklia.com/HIMANIS/JJ087/words_annotations/FRCHANJJ_JJ087_0134V.json/53/line", 
            "@type": "oa:Annotation", 
            "motivation": "oa:painting", 
            "on": "http://bvmm.irht.cnrs.fr/iiif/23676/canvas/canvas-2297094#xywh=581,849,81,76", 
            "resource": {
                "@type": "cnt:ContentAsText", 
                "chars": "DEFFAIT", 
                "format": "text/plain"
            }
        }, 
        {
            "@id": "https://manifests.teklia.com/HIMANIS/JJ087/words_annotations/FRCHANJJ_JJ087_0134V.json/54/line", 
            "@type": "oa:Annotation", 
            "motivation": "oa:painting", 
            "on": "http://bvmm.irht.cnrs.fr/iiif/23676/canvas/canvas-2297094#xywh=1829,2796,37,98", 
            "resource": {
                "@type": "cnt:ContentAsText", 
                "chars": "LE", 
                "format": "text/plain"
            }
        }, 
        {
            "@id": "https://manifests.teklia.com/HIMANIS/JJ087/words_annotations/FRCHANJJ_JJ087_0134V.json/55/line", 
            "@type": "oa:Annotation", 
            "motivation": "oa:painting", 
            "on": "http://bvmm.irht.cnrs.fr/iiif/23676/canvas/canvas-2297094#xywh=1044,2616,0,31", 
            "resource": {
                "@type": "cnt:ContentAsText", 
                "chars": "A", 
                "format": "text/plain"
            }
        }, 
        {
            "@id": "https://manifests.teklia.com/HIMANIS/JJ087/words_annotations/FRCHANJJ_JJ087_0134V.json/56/line", 
            "@type": "oa:Annotation", 
            "motivation": "oa:painting", 
            "on": "http://bvmm.irht.cnrs.fr/iiif/23676/canvas/canvas-2297094#xywh=1919,1861,0,20", 
            "resource": {
                "@type": "cnt:ContentAsText", 
                "chars": "P", 
                "format": "text/plain"
            }
        }, 
        {
            "@id": "https://manifests.teklia.com/HIMANIS/JJ087/words_annotations/FRCHANJJ_JJ087_0134V.json/57/line", 
            "@type": "oa:Annotation", 
            "motivation": "oa:painting", 
            "on": "http://bvmm.irht.cnrs.fr/iiif/23676/canvas/canvas-2297094#xywh=507,2937,72,72", 
            "resource": {
                "@type": "cnt:ContentAsText", 
                "chars": "UNE", 
                "format": "text/plain"
            }
        }, 
        {
            "@id": "https://manifests.teklia.com/HIMANIS/JJ087/words_annotations/FRCHANJJ_JJ087_0134V.json/58/line", 
            "@type": "oa:Annotation", 
            "motivation": "oa:painting", 
            "on": "http://bvmm.irht.cnrs.fr/iiif/23676/canvas/canvas-2297094#xywh=691,849,24,76", 
            "resource": {
                "@type": "cnt:ContentAsText", 
                "chars": "ET", 
                "format": "text/plain"
            }
        }, 
        {
            "@id": "https://manifests.teklia.com/HIMANIS/JJ087/words_annotations/FRCHANJJ_JJ087_0134V.json/59/line", 
            "@type": "oa:Annotation", 
            "motivation": "oa:painting", 
            "on": "http://bvmm.irht.cnrs.fr/iiif/23676/canvas/canvas-2297094#xywh=6,3104,289,103", 
            "resource": {
                "@type": "cnt:ContentAsText", 
                "chars": "VISIT", 
                "format": "text/plain"
            }
        }, 
        {
            "@id": "https://manifests.teklia.com/HIMANIS/JJ087/words_annotations/FRCHANJJ_JJ087_0134V.json/60/line", 
            "@type": "oa:Annotation", 
            "motivation": "oa:painting", 
            "on": "http://bvmm.irht.cnrs.fr/iiif/23676/canvas/canvas-2297094#xywh=1772,441,26,25", 
            "resource": {
                "@type": "cnt:ContentAsText", 
                "chars": "CCC", 
                "format": "text/plain"
            }
        }, 
        {
            "@id": "https://manifests.teklia.com/HIMANIS/JJ087/words_annotations/FRCHANJJ_JJ087_0134V.json/61/line", 
            "@type": "oa:Annotation", 
            "motivation": "oa:painting", 
            "on": "http://bvmm.irht.cnrs.fr/iiif/23676/canvas/canvas-2297094#xywh=942,2616,60,31", 
            "resource": {
                "@type": "cnt:ContentAsText", 
                "chars": "CCC", 
                "format": "text/plain"
            }
        }, 
        {
            "@id": "https://manifests.teklia.com/HIMANIS/JJ087/words_annotations/FRCHANJJ_JJ087_0134V.json/62/line", 
            "@type": "oa:Annotation", 
            "motivation": "oa:painting", 
            "on": "http://bvmm.irht.cnrs.fr/iiif/23676/canvas/canvas-2297094#xywh=3,3054,381,50", 
            "resource": {
                "@type": "cnt:ContentAsText", 
                "chars": "PER", 
                "format": "text/plain"
            }
        }, 
        {
            "@id": "https://manifests.teklia.com/HIMANIS/JJ087/words_annotations/FRCHANJJ_JJ087_0134V.json/63/line", 
            "@type": "oa:Annotation", 
            "motivation": "oa:painting", 
            "on": "http://bvmm.irht.cnrs.fr/iiif/23676/canvas/canvas-2297094#xywh=0,1700,53,29", 
            "resource": {
                "@type": "cnt:ContentAsText", 
                "chars": "ET", 
                "format": "text/plain"
            }
        }, 
        {
            "@id": "https://manifests.teklia.com/HIMANIS/JJ087/words_annotations/FRCHANJJ_JJ087_0134V.json/64/line", 
            "@type": "oa:Annotation", 
            "motivation": "oa:painting", 
            "on": "http://bvmm.irht.cnrs.fr/iiif/23676/canvas/canvas-2297094#xywh=796,930,23,20", 
            "resource": {
                "@type": "cnt:ContentAsText", 
                "chars": "PHEL", 
                "format": "text/plain"
            }
        }
    ]
}