{
    "@context": "http://iiif.io/api/presentation/2/context.json", 
    "@id": "https://manifests.teklia.com/HIMANIS/JJ087/words_annotations/FRCHANJJ_JJ087_0091R.json", 
    "@type": "sc:AnnotationList", 
    "resources": [
        {
            "@id": "https://manifests.teklia.com/HIMANIS/JJ087/words_annotations/FRCHANJJ_JJ087_0091R.json/0/line", 
            "@type": "oa:Annotation", 
            "motivation": "oa:painting", 
            "on": "http://bvmm.irht.cnrs.fr/iiif/23676/canvas/canvas-2297008#xywh=1065,375,173,125", 
            "resource": {
                "@type": "cnt:ContentAsText", 
                "chars": "METTRE", 
                "format": "text/plain"
            }
        }, 
        {
            "@id": "https://manifests.teklia.com/HIMANIS/JJ087/words_annotations/FRCHANJJ_JJ087_0091R.json/1/line", 
            "@type": "oa:Annotation", 
            "motivation": "oa:painting", 
            "on": "http://bvmm.irht.cnrs.fr/iiif/23676/canvas/canvas-2297008#xywh=149,455,39,125", 
            "resource": {
                "@type": "cnt:ContentAsText", 
                "chars": "LE", 
                "format": "text/plain"
            }
        }, 
        {
            "@id": "https://manifests.teklia.com/HIMANIS/JJ087/words_annotations/FRCHANJJ_JJ087_0091R.json/2/line", 
            "@type": "oa:Annotation", 
            "motivation": "oa:painting", 
            "on": "http://bvmm.irht.cnrs.fr/iiif/23676/canvas/canvas-2297008#xywh=1356,375,94,125", 
            "resource": {
                "@type": "cnt:ContentAsText", 
                "chars": "SEEL", 
                "format": "text/plain"
            }
        }, 
        {
            "@id": "https://manifests.teklia.com/HIMANIS/JJ087/words_annotations/FRCHANJJ_JJ087_0091R.json/3/line", 
            "@type": "oa:Annotation", 
            "motivation": "oa:painting", 
            "on": "http://bvmm.irht.cnrs.fr/iiif/23676/canvas/canvas-2297008#xywh=772,150,0,90", 
            "resource": {
                "@type": "cnt:ContentAsText", 
                "chars": "A", 
                "format": "text/plain"
            }
        }, 
        {
            "@id": "https://manifests.teklia.com/HIMANIS/JJ087/words_annotations/FRCHANJJ_JJ087_0091R.json/4/line", 
            "@type": "oa:Annotation", 
            "motivation": "oa:painting", 
            "on": "http://bvmm.irht.cnrs.fr/iiif/23676/canvas/canvas-2297008#xywh=1544,230,65,80", 
            "resource": {
                "@type": "cnt:ContentAsText", 
                "chars": "NOSTRE", 
                "format": "text/plain"
            }
        }, 
        {
            "@id": "https://manifests.teklia.com/HIMANIS/JJ087/words_annotations/FRCHANJJ_JJ087_0091R.json/5/line", 
            "@type": "oa:Annotation", 
            "motivation": "oa:painting", 
            "on": "http://bvmm.irht.cnrs.fr/iiif/23676/canvas/canvas-2297008#xywh=1306,230,81,80", 
            "resource": {
                "@type": "cnt:ContentAsText", 
                "chars": "DIRE", 
                "format": "text/plain"
            }
        }, 
        {
            "@id": "https://manifests.teklia.com/HIMANIS/JJ087/words_annotations/FRCHANJJ_JJ087_0091R.json/6/line", 
            "@type": "oa:Annotation", 
            "motivation": "oa:painting", 
            "on": "http://bvmm.irht.cnrs.fr/iiif/23676/canvas/canvas-2297008#xywh=500,375,110,125", 
            "resource": {
                "@type": "cnt:ContentAsText", 
                "chars": "JOURS", 
                "format": "text/plain"
            }
        }, 
        {
            "@id": "https://manifests.teklia.com/HIMANIS/JJ087/words_annotations/FRCHANJJ_JJ087_0091R.json/7/line", 
            "@type": "oa:Annotation", 
            "motivation": "oa:painting", 
            "on": "http://bvmm.irht.cnrs.fr/iiif/23676/canvas/canvas-2297008#xywh=12,715,0,42", 
            "resource": {
                "@type": "cnt:ContentAsText", 
                "chars": "A", 
                "format": "text/plain"
            }
        }, 
        {
            "@id": "https://manifests.teklia.com/HIMANIS/JJ087/words_annotations/FRCHANJJ_JJ087_0091R.json/8/line", 
            "@type": "oa:Annotation", 
            "motivation": "oa:painting", 
            "on": "http://bvmm.irht.cnrs.fr/iiif/23676/canvas/canvas-2297008#xywh=2090,3405,917,120", 
            "resource": {
                "@type": "cnt:ContentAsText", 
                "chars": "TOUTES", 
                "format": "text/plain"
            }
        }, 
        {
            "@id": "https://manifests.teklia.com/HIMANIS/JJ087/words_annotations/FRCHANJJ_JJ087_0091R.json/9/line", 
            "@type": "oa:Annotation", 
            "motivation": "oa:painting", 
            "on": "http://bvmm.irht.cnrs.fr/iiif/23676/canvas/canvas-2297008#xywh=351,150,245,90", 
            "resource": {
                "@type": "cnt:ContentAsText", 
                "chars": "D'ESCLAIREES", 
                "format": "text/plain"
            }
        }, 
        {
            "@id": "https://manifests.teklia.com/HIMANIS/JJ087/words_annotations/FRCHANJJ_JJ087_0091R.json/10/line", 
            "@type": "oa:Annotation", 
            "motivation": "oa:painting", 
            "on": "http://bvmm.irht.cnrs.fr/iiif/23676/canvas/canvas-2297008#xywh=1591,375,134,125", 
            "resource": {
                "@type": "cnt:ContentAsText", 
                "chars": "PRESENTES", 
                "format": "text/plain"
            }
        }, 
        {
            "@id": "https://manifests.teklia.com/HIMANIS/JJ087/words_annotations/FRCHANJJ_JJ087_0091R.json/11/line", 
            "@type": "oa:Annotation", 
            "motivation": "oa:painting", 
            "on": "http://bvmm.irht.cnrs.fr/iiif/23676/canvas/canvas-2297008#xywh=1269,375,63,125", 
            "resource": {
                "@type": "cnt:ContentAsText", 
                "chars": "NOSTRE", 
                "format": "text/plain"
            }
        }, 
        {
            "@id": "https://manifests.teklia.com/HIMANIS/JJ087/words_annotations/FRCHANJJ_JJ087_0091R.json/12/line", 
            "@type": "oa:Annotation", 
            "motivation": "oa:painting", 
            "on": "http://bvmm.irht.cnrs.fr/iiif/23676/canvas/canvas-2297008#xywh=2386,285,114,140", 
            "resource": {
                "@type": "cnt:ContentAsText", 
                "chars": "CHOSES", 
                "format": "text/plain"
            }
        }, 
        {
            "@id": "https://manifests.teklia.com/HIMANIS/JJ087/words_annotations/FRCHANJJ_JJ087_0091R.json/13/line", 
            "@type": "oa:Annotation", 
            "motivation": "oa:painting", 
            "on": "http://bvmm.irht.cnrs.fr/iiif/23676/canvas/canvas-2297008#xywh=1076,455,103,125", 
            "resource": {
                "@type": "cnt:ContentAsText", 
                "chars": "PARIS", 
                "format": "text/plain"
            }
        }, 
        {
            "@id": "https://manifests.teklia.com/HIMANIS/JJ087/words_annotations/FRCHANJJ_JJ087_0091R.json/14/line", 
            "@type": "oa:Annotation", 
            "motivation": "oa:painting", 
            "on": "http://bvmm.irht.cnrs.fr/iiif/23676/canvas/canvas-2297008#xywh=1539,150,261,90", 
            "resource": {
                "@type": "cnt:ContentAsText", 
                "chars": "ALLEGACIONS", 
                "format": "text/plain"
            }
        }, 
        {
            "@id": "https://manifests.teklia.com/HIMANIS/JJ087/words_annotations/FRCHANJJ_JJ087_0091R.json/15/line", 
            "@type": "oa:Annotation", 
            "motivation": "oa:painting", 
            "on": "http://bvmm.irht.cnrs.fr/iiif/23676/canvas/canvas-2297008#xywh=158,230,172,80", 
            "resource": {
                "@type": "cnt:ContentAsText", 
                "chars": "PAR", 
                "format": "text/plain"
            }
        }, 
        {
            "@id": "https://manifests.teklia.com/HIMANIS/JJ087/words_annotations/FRCHANJJ_JJ087_0091R.json/16/line", 
            "@type": "oa:Annotation", 
            "motivation": "oa:painting", 
            "on": "http://bvmm.irht.cnrs.fr/iiif/23676/canvas/canvas-2297008#xywh=2247,455,103,125", 
            "resource": {
                "@type": "cnt:ContentAsText", 
                "chars": "MOYS", 
                "format": "text/plain"
            }
        }, 
        {
            "@id": "https://manifests.teklia.com/HIMANIS/JJ087/words_annotations/FRCHANJJ_JJ087_0091R.json/17/line", 
            "@type": "oa:Annotation", 
            "motivation": "oa:painting", 
            "on": "http://bvmm.irht.cnrs.fr/iiif/23676/canvas/canvas-2297008#xywh=370,285,44,140", 
            "resource": {
                "@type": "cnt:ContentAsText", 
                "chars": "OU", 
                "format": "text/plain"
            }
        }, 
        {
            "@id": "https://manifests.teklia.com/HIMANIS/JJ087/words_annotations/FRCHANJJ_JJ087_0091R.json/18/line", 
            "@type": "oa:Annotation", 
            "motivation": "oa:painting", 
            "on": "http://bvmm.irht.cnrs.fr/iiif/23676/canvas/canvas-2297008#xywh=1548,455,86,125", 
            "resource": {
                "@type": "cnt:ContentAsText", 
                "chars": "MIL", 
                "format": "text/plain"
            }
        }, 
        {
            "@id": "https://manifests.teklia.com/HIMANIS/JJ087/words_annotations/FRCHANJJ_JJ087_0091R.json/19/line", 
            "@type": "oa:Annotation", 
            "motivation": "oa:painting", 
            "on": "http://bvmm.irht.cnrs.fr/iiif/23676/canvas/canvas-2297008#xywh=2478,375,165,125", 
            "resource": {
                "@type": "cnt:ContentAsText", 
                "chars": "CHOSES", 
                "format": "text/plain"
            }
        }, 
        {
            "@id": "https://manifests.teklia.com/HIMANIS/JJ087/words_annotations/FRCHANJJ_JJ087_0091R.json/20/line", 
            "@type": "oa:Annotation", 
            "motivation": "oa:painting", 
            "on": "http://bvmm.irht.cnrs.fr/iiif/23676/canvas/canvas-2297008#xywh=158,150,159,90", 
            "resource": {
                "@type": "cnt:ContentAsText", 
                "chars": "MENT", 
                "format": "text/plain"
            }
        }, 
        {
            "@id": "https://manifests.teklia.com/HIMANIS/JJ087/words_annotations/FRCHANJJ_JJ087_0091R.json/21/line", 
            "@type": "oa:Annotation", 
            "motivation": "oa:painting", 
            "on": "http://bvmm.irht.cnrs.fr/iiif/23676/canvas/canvas-2297008#xywh=146,570,112,80", 
            "resource": {
                "@type": "cnt:ContentAsText", 
                "chars": "SIGNEUR", 
                "format": "text/plain"
            }
        }, 
        {
            "@id": "https://manifests.teklia.com/HIMANIS/JJ087/words_annotations/FRCHANJJ_JJ087_0091R.json/22/line", 
            "@type": "oa:Annotation", 
            "motivation": "oa:painting", 
            "on": "http://bvmm.irht.cnrs.fr/iiif/23676/canvas/canvas-2297008#xywh=1321,285,44,140", 
            "resource": {
                "@type": "cnt:ContentAsText", 
                "chars": "DE", 
                "format": "text/plain"
            }
        }, 
        {
            "@id": "https://manifests.teklia.com/HIMANIS/JJ087/words_annotations/FRCHANJJ_JJ087_0091R.json/23/line", 
            "@type": "oa:Annotation", 
            "motivation": "oa:painting", 
            "on": "http://bvmm.irht.cnrs.fr/iiif/23676/canvas/canvas-2297008#xywh=2090,3405,917,120", 
            "resource": {
                "@type": "cnt:ContentAsText", 
                "chars": "CONTE", 
                "format": "text/plain"
            }
        }, 
        {
            "@id": "https://manifests.teklia.com/HIMANIS/JJ087/words_annotations/FRCHANJJ_JJ087_0091R.json/24/line", 
            "@type": "oa:Annotation", 
            "motivation": "oa:painting", 
            "on": "http://bvmm.irht.cnrs.fr/iiif/23676/canvas/canvas-2297008#xywh=750,230,45,80", 
            "resource": {
                "@type": "cnt:ContentAsText", 
                "chars": "OU", 
                "format": "text/plain"
            }
        }, 
        {
            "@id": "https://manifests.teklia.com/HIMANIS/JJ087/words_annotations/FRCHANJJ_JJ087_0091R.json/25/line", 
            "@type": "oa:Annotation", 
            "motivation": "oa:painting", 
            "on": "http://bvmm.irht.cnrs.fr/iiif/23676/canvas/canvas-2297008#xywh=149,455,39,125", 
            "resource": {
                "@type": "cnt:ContentAsText", 
                "chars": "CE", 
                "format": "text/plain"
            }
        }, 
        {
            "@id": "https://manifests.teklia.com/HIMANIS/JJ087/words_annotations/FRCHANJJ_JJ087_0091R.json/26/line", 
            "@type": "oa:Annotation", 
            "motivation": "oa:painting", 
            "on": "http://bvmm.irht.cnrs.fr/iiif/23676/canvas/canvas-2297008#xywh=825,455,149,125", 
            "resource": {
                "@type": "cnt:ContentAsText", 
                "chars": "BONNE", 
                "format": "text/plain"
            }
        }, 
        {
            "@id": "https://manifests.teklia.com/HIMANIS/JJ087/words_annotations/FRCHANJJ_JJ087_0091R.json/27/line", 
            "@type": "oa:Annotation", 
            "motivation": "oa:painting", 
            "on": "http://bvmm.irht.cnrs.fr/iiif/23676/canvas/canvas-2297008#xywh=2345,375,110,125", 
            "resource": {
                "@type": "cnt:ContentAsText", 
                "chars": "AUTRES", 
                "format": "text/plain"
            }
        }, 
        {
            "@id": "https://manifests.teklia.com/HIMANIS/JJ087/words_annotations/FRCHANJJ_JJ087_0091R.json/28/line", 
            "@type": "oa:Annotation", 
            "motivation": "oa:painting", 
            "on": "http://bvmm.irht.cnrs.fr/iiif/23676/canvas/canvas-2297008#xywh=962,230,293,80", 
            "resource": {
                "@type": "cnt:ContentAsText", 
                "chars": "VOULDROIENT", 
                "format": "text/plain"
            }
        }, 
        {
            "@id": "https://manifests.teklia.com/HIMANIS/JJ087/words_annotations/FRCHANJJ_JJ087_0091R.json/29/line", 
            "@type": "oa:Annotation", 
            "motivation": "oa:painting", 
            "on": "http://bvmm.irht.cnrs.fr/iiif/23676/canvas/canvas-2297008#xywh=1748,375,94,125", 
            "resource": {
                "@type": "cnt:ContentAsText", 
                "chars": "LETTRES", 
                "format": "text/plain"
            }
        }, 
        {
            "@id": "https://manifests.teklia.com/HIMANIS/JJ087/words_annotations/FRCHANJJ_JJ087_0091R.json/30/line", 
            "@type": "oa:Annotation", 
            "motivation": "oa:painting", 
            "on": "http://bvmm.irht.cnrs.fr/iiif/23676/canvas/canvas-2297008#xywh=608,230,35,80", 
            "resource": {
                "@type": "cnt:ContentAsText", 
                "chars": "DE", 
                "format": "text/plain"
            }
        }, 
        {
            "@id": "https://manifests.teklia.com/HIMANIS/JJ087/words_annotations/FRCHANJJ_JJ087_0091R.json/31/line", 
            "@type": "oa:Annotation", 
            "motivation": "oa:painting", 
            "on": "http://bvmm.irht.cnrs.fr/iiif/23676/canvas/canvas-2297008#xywh=461,230,112,80", 
            "resource": {
                "@type": "cnt:ContentAsText", 
                "chars": "AIANS", 
                "format": "text/plain"
            }
        }, 
        {
            "@id": "https://manifests.teklia.com/HIMANIS/JJ087/words_annotations/FRCHANJJ_JJ087_0091R.json/32/line", 
            "@type": "oa:Annotation", 
            "motivation": "oa:painting", 
            "on": "http://bvmm.irht.cnrs.fr/iiif/23676/canvas/canvas-2297008#xywh=754,455,47,125", 
            "resource": {
                "@type": "cnt:ContentAsText", 
                "chars": "AU", 
                "format": "text/plain"
            }
        }, 
        {
            "@id": "https://manifests.teklia.com/HIMANIS/JJ087/words_annotations/FRCHANJJ_JJ087_0091R.json/33/line", 
            "@type": "oa:Annotation", 
            "motivation": "oa:painting", 
            "on": "http://bvmm.irht.cnrs.fr/iiif/23676/canvas/canvas-2297008#xywh=1761,230,131,80", 
            "resource": {
                "@type": "cnt:ContentAsText", 
                "chars": "OCTROY", 
                "format": "text/plain"
            }
        }, 
        {
            "@id": "https://manifests.teklia.com/HIMANIS/JJ087/words_annotations/FRCHANJJ_JJ087_0091R.json/34/line", 
            "@type": "oa:Annotation", 
            "motivation": "oa:painting", 
            "on": "http://bvmm.irht.cnrs.fr/iiif/23676/canvas/canvas-2297008#xywh=831,230,111,80", 
            "resource": {
                "@type": "cnt:ContentAsText", 
                "chars": "AUTRES", 
                "format": "text/plain"
            }
        }, 
        {
            "@id": "https://manifests.teklia.com/HIMANIS/JJ087/words_annotations/FRCHANJJ_JJ087_0091R.json/35/line", 
            "@type": "oa:Annotation", 
            "motivation": "oa:painting", 
            "on": "http://bvmm.irht.cnrs.fr/iiif/23676/canvas/canvas-2297008#xywh=649,375,126,125", 
            "resource": {
                "@type": "cnt:ContentAsText", 
                "chars": "NOUS", 
                "format": "text/plain"
            }
        }, 
        {
            "@id": "https://manifests.teklia.com/HIMANIS/JJ087/words_annotations/FRCHANJJ_JJ087_0091R.json/36/line", 
            "@type": "oa:Annotation", 
            "motivation": "oa:painting", 
            "on": "http://bvmm.irht.cnrs.fr/iiif/23676/canvas/canvas-2297008#xywh=2266,150,137,90", 
            "resource": {
                "@type": "cnt:ContentAsText", 
                "chars": "TEMPS", 
                "format": "text/plain"
            }
        }, 
        {
            "@id": "https://manifests.teklia.com/HIMANIS/JJ087/words_annotations/FRCHANJJ_JJ087_0091R.json/37/line", 
            "@type": "oa:Annotation", 
            "motivation": "oa:painting", 
            "on": "http://bvmm.irht.cnrs.fr/iiif/23676/canvas/canvas-2297008#xywh=2204,150,34,90", 
            "resource": {
                "@type": "cnt:ContentAsText", 
                "chars": "OU", 
                "format": "text/plain"
            }
        }, 
        {
            "@id": "https://manifests.teklia.com/HIMANIS/JJ087/words_annotations/FRCHANJJ_JJ087_0091R.json/38/line", 
            "@type": "oa:Annotation", 
            "motivation": "oa:painting", 
            "on": "http://bvmm.irht.cnrs.fr/iiif/23676/canvas/canvas-2297008#xywh=1391,285,97,140", 
            "resource": {
                "@type": "cnt:ContentAsText", 
                "chars": "POLE", 
                "format": "text/plain"
            }
        }, 
        {
            "@id": "https://manifests.teklia.com/HIMANIS/JJ087/words_annotations/FRCHANJJ_JJ087_0091R.json/39/line", 
            "@type": "oa:Annotation", 
            "motivation": "oa:painting", 
            "on": "http://bvmm.irht.cnrs.fr/iiif/23676/canvas/canvas-2297008#xywh=480,570,30,80", 
            "resource": {
                "@type": "cnt:ContentAsText", 
                "chars": "LE", 
                "format": "text/plain"
            }
        }, 
        {
            "@id": "https://manifests.teklia.com/HIMANIS/JJ087/words_annotations/FRCHANJJ_JJ087_0091R.json/40/line", 
            "@type": "oa:Annotation", 
            "motivation": "oa:painting", 
            "on": "http://bvmm.irht.cnrs.fr/iiif/23676/canvas/canvas-2297008#xywh=360,230,66,80", 
            "resource": {
                "@type": "cnt:ContentAsText", 
                "chars": "LES", 
                "format": "text/plain"
            }
        }, 
        {
            "@id": "https://manifests.teklia.com/HIMANIS/JJ087/words_annotations/FRCHANJJ_JJ087_0091R.json/41/line", 
            "@type": "oa:Annotation", 
            "motivation": "oa:painting", 
            "on": "http://bvmm.irht.cnrs.fr/iiif/23676/canvas/canvas-2297008#xywh=385,455,39,125", 
            "resource": {
                "@type": "cnt:ContentAsText", 
                "chars": "EN", 
                "format": "text/plain"
            }
        }, 
        {
            "@id": "https://manifests.teklia.com/HIMANIS/JJ087/words_annotations/FRCHANJJ_JJ087_0091R.json/42/line", 
            "@type": "oa:Annotation", 
            "motivation": "oa:painting", 
            "on": "http://bvmm.irht.cnrs.fr/iiif/23676/canvas/canvas-2297008#xywh=278,570,25,80", 
            "resource": {
                "@type": "cnt:ContentAsText", 
                "chars": "PAR", 
                "format": "text/plain"
            }
        }, 
        {
            "@id": "https://manifests.teklia.com/HIMANIS/JJ087/words_annotations/FRCHANJJ_JJ087_0091R.json/43/line", 
            "@type": "oa:Annotation", 
            "motivation": "oa:painting", 
            "on": "http://bvmm.irht.cnrs.fr/iiif/23676/canvas/canvas-2297008#xywh=810,285,264,140", 
            "resource": {
                "@type": "cnt:ContentAsText", 
                "chars": "QUELCONQUE", 
                "format": "text/plain"
            }
        }, 
        {
            "@id": "https://manifests.teklia.com/HIMANIS/JJ087/words_annotations/FRCHANJJ_JJ087_0091R.json/44/line", 
            "@type": "oa:Annotation", 
            "motivation": "oa:painting", 
            "on": "http://bvmm.irht.cnrs.fr/iiif/23676/canvas/canvas-2297008#xywh=484,285,203,140", 
            "resource": {
                "@type": "cnt:ContentAsText", 
                "chars": "EMPETRER", 
                "format": "text/plain"
            }
        }, 
        {
            "@id": "https://manifests.teklia.com/HIMANIS/JJ087/words_annotations/FRCHANJJ_JJ087_0091R.json/45/line", 
            "@type": "oa:Annotation", 
            "motivation": "oa:painting", 
            "on": "http://bvmm.irht.cnrs.fr/iiif/23676/canvas/canvas-2297008#xywh=2145,3528,862,54", 
            "resource": {
                "@type": "cnt:ContentAsText", 
                "chars": "NOSTRE", 
                "format": "text/plain"
            }
        }, 
        {
            "@id": "https://manifests.teklia.com/HIMANIS/JJ087/words_annotations/FRCHANJJ_JJ087_0091R.json/46/line", 
            "@type": "oa:Annotation", 
            "motivation": "oa:painting", 
            "on": "http://bvmm.irht.cnrs.fr/iiif/23676/canvas/canvas-2297008#xywh=1422,230,96,80", 
            "resource": {
                "@type": "cnt:ContentAsText", 
                "chars": "POUR", 
                "format": "text/plain"
            }
        }, 
        {
            "@id": "https://manifests.teklia.com/HIMANIS/JJ087/words_annotations/FRCHANJJ_JJ087_0091R.json/47/line", 
            "@type": "oa:Annotation", 
            "motivation": "oa:painting", 
            "on": "http://bvmm.irht.cnrs.fr/iiif/23676/canvas/canvas-2297008#xywh=2575,230,430,80", 
            "resource": {
                "@type": "cnt:ContentAsText", 
                "chars": "LETTRES", 
                "format": "text/plain"
            }
        }, 
        {
            "@id": "https://manifests.teklia.com/HIMANIS/JJ087/words_annotations/FRCHANJJ_JJ087_0091R.json/48/line", 
            "@type": "oa:Annotation", 
            "motivation": "oa:painting", 
            "on": "http://bvmm.irht.cnrs.fr/iiif/23676/canvas/canvas-2297008#xywh=1957,455,23,125", 
            "resource": {
                "@type": "cnt:ContentAsText", 
                "chars": "ET", 
                "format": "text/plain"
            }
        }, 
        {
            "@id": "https://manifests.teklia.com/HIMANIS/JJ087/words_annotations/FRCHANJJ_JJ087_0091R.json/49/line", 
            "@type": "oa:Annotation", 
            "motivation": "oa:painting", 
            "on": "http://bvmm.irht.cnrs.fr/iiif/23676/canvas/canvas-2297008#xywh=620,455,110,125", 
            "resource": {
                "@type": "cnt:ContentAsText", 
                "chars": "DONNE", 
                "format": "text/plain"
            }
        }, 
        {
            "@id": "https://manifests.teklia.com/HIMANIS/JJ087/words_annotations/FRCHANJJ_JJ087_0091R.json/50/line", 
            "@type": "oa:Annotation", 
            "motivation": "oa:painting", 
            "on": "http://bvmm.irht.cnrs.fr/iiif/23676/canvas/canvas-2297008#xywh=440,285,0,140", 
            "resource": {
                "@type": "cnt:ContentAsText", 
                "chars": "A", 
                "format": "text/plain"
            }
        }, 
        {
            "@id": "https://manifests.teklia.com/HIMANIS/JJ087/words_annotations/FRCHANJJ_JJ087_0091R.json/51/line", 
            "@type": "oa:Annotation", 
            "motivation": "oa:painting", 
            "on": "http://bvmm.irht.cnrs.fr/iiif/23676/canvas/canvas-2297008#xywh=1908,150,211,90", 
            "resource": {
                "@type": "cnt:ContentAsText", 
                "chars": "PROPOSICIONS", 
                "format": "text/plain"
            }
        }, 
        {
            "@id": "https://manifests.teklia.com/HIMANIS/JJ087/words_annotations/FRCHANJJ_JJ087_0091R.json/52/line", 
            "@type": "oa:Annotation", 
            "motivation": "oa:painting", 
            "on": "http://bvmm.irht.cnrs.fr/iiif/23676/canvas/canvas-2297008#xywh=1101,285,184,140", 
            "resource": {
                "@type": "cnt:ContentAsText", 
                "chars": "FOURME", 
                "format": "text/plain"
            }
        }, 
        {
            "@id": "https://manifests.teklia.com/HIMANIS/JJ087/words_annotations/FRCHANJJ_JJ087_0091R.json/53/line", 
            "@type": "oa:Annotation", 
            "motivation": "oa:painting", 
            "on": "http://bvmm.irht.cnrs.fr/iiif/23676/canvas/canvas-2297008#xywh=204,455,157,125", 
            "resource": {
                "@type": "cnt:ContentAsText", 
                "chars": "L'AUTRUI", 
                "format": "text/plain"
            }
        }, 
        {
            "@id": "https://manifests.teklia.com/HIMANIS/JJ087/words_annotations/FRCHANJJ_JJ087_0091R.json/54/line", 
            "@type": "oa:Annotation", 
            "motivation": "oa:painting", 
            "on": "http://bvmm.irht.cnrs.fr/iiif/23676/canvas/canvas-2297008#xywh=139,375,173,125", 
            "resource": {
                "@type": "cnt:ContentAsText", 
                "chars": "ESTABLE", 
                "format": "text/plain"
            }
        }, 
        {
            "@id": "https://manifests.teklia.com/HIMANIS/JJ087/words_annotations/FRCHANJJ_JJ087_0091R.json/55/line", 
            "@type": "oa:Annotation", 
            "motivation": "oa:painting", 
            "on": "http://bvmm.irht.cnrs.fr/iiif/23676/canvas/canvas-2297008#xywh=551,570,156,80", 
            "resource": {
                "@type": "cnt:ContentAsText", 
                "chars": "REGENT", 
                "format": "text/plain"
            }
        }, 
        {
            "@id": "https://manifests.teklia.com/HIMANIS/JJ087/words_annotations/FRCHANJJ_JJ087_0091R.json/56/line", 
            "@type": "oa:Annotation", 
            "motivation": "oa:painting", 
            "on": "http://bvmm.irht.cnrs.fr/iiif/23676/canvas/canvas-2297008#xywh=768,570,182,80", 
            "resource": {
                "@type": "cnt:ContentAsText", 
                "chars": "JULIANUS", 
                "format": "text/plain"
            }
        }, 
        {
            "@id": "https://manifests.teklia.com/HIMANIS/JJ087/words_annotations/FRCHANJJ_JJ087_0091R.json/57/line", 
            "@type": "oa:Annotation", 
            "motivation": "oa:painting", 
            "on": "http://bvmm.irht.cnrs.fr/iiif/23676/canvas/canvas-2297008#xywh=722,285,62,140", 
            "resource": {
                "@type": "cnt:ContentAsText", 
                "chars": "SUR", 
                "format": "text/plain"
            }
        }, 
        {
            "@id": "https://manifests.teklia.com/HIMANIS/JJ087/words_annotations/FRCHANJJ_JJ087_0091R.json/58/line", 
            "@type": "oa:Annotation", 
            "motivation": "oa:painting", 
            "on": "http://bvmm.irht.cnrs.fr/iiif/23676/canvas/canvas-2297008#xywh=2145,3528,844,54", 
            "resource": {
                "@type": "cnt:ContentAsText", 
                "chars": "NOUS", 
                "format": "text/plain"
            }
        }, 
        {
            "@id": "https://manifests.teklia.com/HIMANIS/JJ087/words_annotations/FRCHANJJ_JJ087_0091R.json/59/line", 
            "@type": "oa:Annotation", 
            "motivation": "oa:painting", 
            "on": "http://bvmm.irht.cnrs.fr/iiif/23676/canvas/canvas-2297008#xywh=1882,375,125,125", 
            "resource": {
                "@type": "cnt:ContentAsText", 
                "chars": "SAUF", 
                "format": "text/plain"
            }
        }, 
        {
            "@id": "https://manifests.teklia.com/HIMANIS/JJ087/words_annotations/FRCHANJJ_JJ087_0091R.json/60/line", 
            "@type": "oa:Annotation", 
            "motivation": "oa:painting", 
            "on": "http://bvmm.irht.cnrs.fr/iiif/23676/canvas/canvas-2297008#xywh=1814,285,229,140", 
            "resource": {
                "@type": "cnt:ContentAsText", 
                "chars": "CONTRAIRE", 
                "format": "text/plain"
            }
        }, 
        {
            "@id": "https://manifests.teklia.com/HIMANIS/JJ087/words_annotations/FRCHANJJ_JJ087_0091R.json/61/line", 
            "@type": "oa:Annotation", 
            "motivation": "oa:painting", 
            "on": "http://bvmm.irht.cnrs.fr/iiif/23676/canvas/canvas-2297008#xywh=2431,150,148,90", 
            "resource": {
                "@type": "cnt:ContentAsText", 
                "chars": "AVENIR", 
                "format": "text/plain"
            }
        }, 
        {
            "@id": "https://manifests.teklia.com/HIMANIS/JJ087/words_annotations/FRCHANJJ_JJ087_0091R.json/62/line", 
            "@type": "oa:Annotation", 
            "motivation": "oa:painting", 
            "on": "http://bvmm.irht.cnrs.fr/iiif/23676/canvas/canvas-2297008#xywh=158,150,159,90", 
            "resource": {
                "@type": "cnt:ContentAsText", 
                "chars": "RENT", 
                "format": "text/plain"
            }
        }, 
        {
            "@id": "https://manifests.teklia.com/HIMANIS/JJ087/words_annotations/FRCHANJJ_JJ087_0091R.json/63/line", 
            "@type": "oa:Annotation", 
            "motivation": "oa:painting", 
            "on": "http://bvmm.irht.cnrs.fr/iiif/23676/canvas/canvas-2297008#xywh=1505,375,70,125", 
            "resource": {
                "@type": "cnt:ContentAsText", 
                "chars": "CES", 
                "format": "text/plain"
            }
        }, 
        {
            "@id": "https://manifests.teklia.com/HIMANIS/JJ087/words_annotations/FRCHANJJ_JJ087_0091R.json/64/line", 
            "@type": "oa:Annotation", 
            "motivation": "oa:painting", 
            "on": "http://bvmm.irht.cnrs.fr/iiif/23676/canvas/canvas-2297008#xywh=2452,455,133,125", 
            "resource": {
                "@type": "cnt:ContentAsText", 
                "chars": "JANVIE", 
                "format": "text/plain"
            }
        }, 
        {
            "@id": "https://manifests.teklia.com/HIMANIS/JJ087/words_annotations/FRCHANJJ_JJ087_0091R.json/65/line", 
            "@type": "oa:Annotation", 
            "motivation": "oa:painting", 
            "on": "http://bvmm.irht.cnrs.fr/iiif/23676/canvas/canvas-2297008#xywh=2282,375,39,125", 
            "resource": {
                "@type": "cnt:ContentAsText", 
                "chars": "EN", 
                "format": "text/plain"
            }
        }, 
        {
            "@id": "https://manifests.teklia.com/HIMANIS/JJ087/words_annotations/FRCHANJJ_JJ087_0091R.json/66/line", 
            "@type": "oa:Annotation", 
            "motivation": "oa:painting", 
            "on": "http://bvmm.irht.cnrs.fr/iiif/23676/canvas/canvas-2297008#xywh=1620,285,97,140", 
            "resource": {
                "@type": "cnt:ContentAsText", 
                "chars": "SOIT", 
                "format": "text/plain"
            }
        }, 
        {
            "@id": "https://manifests.teklia.com/HIMANIS/JJ087/words_annotations/FRCHANJJ_JJ087_0091R.json/67/line", 
            "@type": "oa:Annotation", 
            "motivation": "oa:painting", 
            "on": "http://bvmm.irht.cnrs.fr/iiif/23676/canvas/canvas-2297008#xywh=382,375,102,125", 
            "resource": {
                "@type": "cnt:ContentAsText", 
                "chars": "TOUS", 
                "format": "text/plain"
            }
        }, 
        {
            "@id": "https://manifests.teklia.com/HIMANIS/JJ087/words_annotations/FRCHANJJ_JJ087_0091R.json/68/line", 
            "@type": "oa:Annotation", 
            "motivation": "oa:painting", 
            "on": "http://bvmm.irht.cnrs.fr/iiif/23676/canvas/canvas-2297008#xywh=1984,230,217,80", 
            "resource": {
                "@type": "cnt:ContentAsText", 
                "chars": "QUICTANCE", 
                "format": "text/plain"
            }
        }, 
        {
            "@id": "https://manifests.teklia.com/HIMANIS/JJ087/words_annotations/FRCHANJJ_JJ087_0091R.json/69/line", 
            "@type": "oa:Annotation", 
            "motivation": "oa:painting", 
            "on": "http://bvmm.irht.cnrs.fr/iiif/23676/canvas/canvas-2297008#xywh=2607,150,398,90", 
            "resource": {
                "@type": "cnt:ContentAsText", 
                "chars": "LE", 
                "format": "text/plain"
            }
        }, 
        {
            "@id": "https://manifests.teklia.com/HIMANIS/JJ087/words_annotations/FRCHANJJ_JJ087_0091R.json/70/line", 
            "@type": "oa:Annotation", 
            "motivation": "oa:painting", 
            "on": "http://bvmm.irht.cnrs.fr/iiif/23676/canvas/canvas-2297008#xywh=9,285,334,140", 
            "resource": {
                "@type": "cnt:ContentAsText", 
                "chars": "ENTREES", 
                "format": "text/plain"
            }
        }, 
        {
            "@id": "https://manifests.teklia.com/HIMANIS/JJ087/words_annotations/FRCHANJJ_JJ087_0091R.json/71/line", 
            "@type": "oa:Annotation", 
            "motivation": "oa:painting", 
            "on": "http://bvmm.irht.cnrs.fr/iiif/23676/canvas/canvas-2297008#xywh=1645,230,76,80", 
            "resource": {
                "@type": "cnt:ContentAsText", 
                "chars": "PRESENT", 
                "format": "text/plain"
            }
        }, 
        {
            "@id": "https://manifests.teklia.com/HIMANIS/JJ087/words_annotations/FRCHANJJ_JJ087_0091R.json/72/line", 
            "@type": "oa:Annotation", 
            "motivation": "oa:painting", 
            "on": "http://bvmm.irht.cnrs.fr/iiif/23676/canvas/canvas-2297008#xywh=2153,150,28,90", 
            "resource": {
                "@type": "cnt:ContentAsText", 
                "chars": "QUE", 
                "format": "text/plain"
            }
        }, 
        {
            "@id": "https://manifests.teklia.com/HIMANIS/JJ087/words_annotations/FRCHANJJ_JJ087_0091R.json/73/line", 
            "@type": "oa:Annotation", 
            "motivation": "oa:painting", 
            "on": "http://bvmm.irht.cnrs.fr/iiif/23676/canvas/canvas-2297008#xywh=382,375,102,125", 
            "resource": {
                "@type": "cnt:ContentAsText", 
                "chars": "TOUZ", 
                "format": "text/plain"
            }
        }, 
        {
            "@id": "https://manifests.teklia.com/HIMANIS/JJ087/words_annotations/FRCHANJJ_JJ087_0091R.json/74/line", 
            "@type": "oa:Annotation", 
            "motivation": "oa:painting", 
            "on": "http://bvmm.irht.cnrs.fr/iiif/23676/canvas/canvas-2297008#xywh=343,375,0,125", 
            "resource": {
                "@type": "cnt:ContentAsText", 
                "chars": "A", 
                "format": "text/plain"
            }
        }, 
        {
            "@id": "https://manifests.teklia.com/HIMANIS/JJ087/words_annotations/FRCHANJJ_JJ087_0091R.json/75/line", 
            "@type": "oa:Annotation", 
            "motivation": "oa:painting", 
            "on": "http://bvmm.irht.cnrs.fr/iiif/23676/canvas/canvas-2297008#xywh=1996,455,110,125", 
            "resource": {
                "@type": "cnt:ContentAsText", 
                "chars": "HUIT", 
                "format": "text/plain"
            }
        }, 
        {
            "@id": "https://manifests.teklia.com/HIMANIS/JJ087/words_annotations/FRCHANJJ_JJ087_0091R.json/76/line", 
            "@type": "oa:Annotation", 
            "motivation": "oa:painting", 
            "on": "http://bvmm.irht.cnrs.fr/iiif/23676/canvas/canvas-2297008#xywh=1567,285,35,140", 
            "resource": {
                "@type": "cnt:ContentAsText", 
                "chars": "CE", 
                "format": "text/plain"
            }
        }, 
        {
            "@id": "https://manifests.teklia.com/HIMANIS/JJ087/words_annotations/FRCHANJJ_JJ087_0091R.json/77/line", 
            "@type": "oa:Annotation", 
            "motivation": "oa:painting", 
            "on": "http://bvmm.irht.cnrs.fr/iiif/23676/canvas/canvas-2297008#xywh=461,230,112,80", 
            "resource": {
                "@type": "cnt:ContentAsText", 
                "chars": "AVONS", 
                "format": "text/plain"
            }
        }, 
        {
            "@id": "https://manifests.teklia.com/HIMANIS/JJ087/words_annotations/FRCHANJJ_JJ087_0091R.json/78/line", 
            "@type": "oa:Annotation", 
            "motivation": "oa:painting", 
            "on": "http://bvmm.irht.cnrs.fr/iiif/23676/canvas/canvas-2297008#xywh=768,570,228,80", 
            "resource": {
                "@type": "cnt:ContentAsText", 
                "chars": "JULIANNE", 
                "format": "text/plain"
            }
        }, 
        {
            "@id": "https://manifests.teklia.com/HIMANIS/JJ087/words_annotations/FRCHANJJ_JJ087_0091R.json/79/line", 
            "@type": "oa:Annotation", 
            "motivation": "oa:painting", 
            "on": "http://bvmm.irht.cnrs.fr/iiif/23676/canvas/canvas-2297008#xywh=806,375,134,125", 
            "resource": {
                "@type": "cnt:ContentAsText", 
                "chars": "AVONS", 
                "format": "text/plain"
            }
        }, 
        {
            "@id": "https://manifests.teklia.com/HIMANIS/JJ087/words_annotations/FRCHANJJ_JJ087_0091R.json/80/line", 
            "@type": "oa:Annotation", 
            "motivation": "oa:painting", 
            "on": "http://bvmm.irht.cnrs.fr/iiif/23676/canvas/canvas-2297008#xywh=2153,455,55,125", 
            "resource": {
                "@type": "cnt:ContentAsText", 
                "chars": "OU", 
                "format": "text/plain"
            }
        }, 
        {
            "@id": "https://manifests.teklia.com/HIMANIS/JJ087/words_annotations/FRCHANJJ_JJ087_0091R.json/81/line", 
            "@type": "oa:Annotation", 
            "motivation": "oa:painting", 
            "on": "http://bvmm.irht.cnrs.fr/iiif/23676/canvas/canvas-2297008#xywh=1634,455,87,125", 
            "resource": {
                "@type": "cnt:ContentAsText", 
                "chars": "CCC", 
                "format": "text/plain"
            }
        }, 
        {
            "@id": "https://manifests.teklia.com/HIMANIS/JJ087/words_annotations/FRCHANJJ_JJ087_0091R.json/82/line", 
            "@type": "oa:Annotation", 
            "motivation": "oa:painting", 
            "on": "http://bvmm.irht.cnrs.fr/iiif/23676/canvas/canvas-2297008#xywh=630,150,108,90", 
            "resource": {
                "@type": "cnt:ContentAsText", 
                "chars": "MOT", 
                "format": "text/plain"
            }
        }, 
        {
            "@id": "https://manifests.teklia.com/HIMANIS/JJ087/words_annotations/FRCHANJJ_JJ087_0091R.json/83/line", 
            "@type": "oa:Annotation", 
            "motivation": "oa:painting", 
            "on": "http://bvmm.irht.cnrs.fr/iiif/23676/canvas/canvas-2297008#xywh=12,715,71,42", 
            "resource": {
                "@type": "cnt:ContentAsText", 
                "chars": "LE", 
                "format": "text/plain"
            }
        }, 
        {
            "@id": "https://manifests.teklia.com/HIMANIS/JJ087/words_annotations/FRCHANJJ_JJ087_0091R.json/84/line", 
            "@type": "oa:Annotation", 
            "motivation": "oa:painting", 
            "on": "http://bvmm.irht.cnrs.fr/iiif/23676/canvas/canvas-2297008#xywh=1202,455,63,125", 
            "resource": {
                "@type": "cnt:ContentAsText", 
                "chars": "L'AN", 
                "format": "text/plain"
            }
        }, 
        {
            "@id": "https://manifests.teklia.com/HIMANIS/JJ087/words_annotations/FRCHANJJ_JJ087_0091R.json/85/line", 
            "@type": "oa:Annotation", 
            "motivation": "oa:painting", 
            "on": "http://bvmm.irht.cnrs.fr/iiif/23676/canvas/canvas-2297008#xywh=669,230,55,80", 
            "resource": {
                "@type": "cnt:ContentAsText", 
                "chars": "LUI", 
                "format": "text/plain"
            }
        }, 
        {
            "@id": "https://manifests.teklia.com/HIMANIS/JJ087/words_annotations/FRCHANJJ_JJ087_0091R.json/86/line", 
            "@type": "oa:Annotation", 
            "motivation": "oa:painting", 
            "on": "http://bvmm.irht.cnrs.fr/iiif/23676/canvas/canvas-2297008#xywh=1734,285,27,140", 
            "resource": {
                "@type": "cnt:ContentAsText", 
                "chars": "AU", 
                "format": "text/plain"
            }
        }, 
        {
            "@id": "https://manifests.teklia.com/HIMANIS/JJ087/words_annotations/FRCHANJJ_JJ087_0091R.json/87/line", 
            "@type": "oa:Annotation", 
            "motivation": "oa:painting", 
            "on": "http://bvmm.irht.cnrs.fr/iiif/23676/canvas/canvas-2297008#xywh=1304,455,47,125", 
            "resource": {
                "@type": "cnt:ContentAsText", 
                "chars": "DE", 
                "format": "text/plain"
            }
        }, 
        {
            "@id": "https://manifests.teklia.com/HIMANIS/JJ087/words_annotations/FRCHANJJ_JJ087_0091R.json/88/line", 
            "@type": "oa:Annotation", 
            "motivation": "oa:painting", 
            "on": "http://bvmm.irht.cnrs.fr/iiif/23676/canvas/canvas-2297008#xywh=2226,230,248,80", 
            "resource": {
                "@type": "cnt:ContentAsText", 
                "chars": "EMPESCHIER", 
                "format": "text/plain"
            }
        }, 
        {
            "@id": "https://manifests.teklia.com/HIMANIS/JJ087/words_annotations/FRCHANJJ_JJ087_0091R.json/89/line", 
            "@type": "oa:Annotation", 
            "motivation": "oa:painting", 
            "on": "http://bvmm.irht.cnrs.fr/iiif/23676/canvas/canvas-2297008#xywh=1375,455,149,125", 
            "resource": {
                "@type": "cnt:ContentAsText", 
                "chars": "GRACE", 
                "format": "text/plain"
            }
        }, 
        {
            "@id": "https://manifests.teklia.com/HIMANIS/JJ087/words_annotations/FRCHANJJ_JJ087_0091R.json/90/line", 
            "@type": "oa:Annotation", 
            "motivation": "oa:painting", 
            "on": "http://bvmm.irht.cnrs.fr/iiif/23676/canvas/canvas-2297008#xywh=1768,455,165,125", 
            "resource": {
                "@type": "cnt:ContentAsText", 
                "chars": "CINQUANTE", 
                "format": "text/plain"
            }
        }, 
        {
            "@id": "https://manifests.teklia.com/HIMANIS/JJ087/words_annotations/FRCHANJJ_JJ087_0091R.json/91/line", 
            "@type": "oa:Annotation", 
            "motivation": "oa:painting", 
            "on": "http://bvmm.irht.cnrs.fr/iiif/23676/canvas/canvas-2297008#xywh=455,455,134,125", 
            "resource": {
                "@type": "cnt:ContentAsText", 
                "chars": "TOUTES", 
                "format": "text/plain"
            }
        }, 
        {
            "@id": "https://manifests.teklia.com/HIMANIS/JJ087/words_annotations/FRCHANJJ_JJ087_0091R.json/92/line", 
            "@type": "oa:Annotation", 
            "motivation": "oa:painting", 
            "on": "http://bvmm.irht.cnrs.fr/iiif/23676/canvas/canvas-2297008#xywh=2087,285,52,140", 
            "resource": {
                "@type": "cnt:ContentAsText", 
                "chars": "ET", 
                "format": "text/plain"
            }
        }, 
        {
            "@id": "https://manifests.teklia.com/HIMANIS/JJ087/words_annotations/FRCHANJJ_JJ087_0091R.json/93/line", 
            "@type": "oa:Annotation", 
            "motivation": "oa:painting", 
            "on": "http://bvmm.irht.cnrs.fr/iiif/23676/canvas/canvas-2297008#xywh=318,570,152,80", 
            "resource": {
                "@type": "cnt:ContentAsText", 
                "chars": "MONSEIGNEUR", 
                "format": "text/plain"
            }
        }, 
        {
            "@id": "https://manifests.teklia.com/HIMANIS/JJ087/words_annotations/FRCHANJJ_JJ087_0091R.json/94/line", 
            "@type": "oa:Annotation", 
            "motivation": "oa:painting", 
            "on": "http://bvmm.irht.cnrs.fr/iiif/23676/canvas/canvas-2297008#xywh=963,375,87,125", 
            "resource": {
                "@type": "cnt:ContentAsText", 
                "chars": "FAIT", 
                "format": "text/plain"
            }
        }, 
        {
            "@id": "https://manifests.teklia.com/HIMANIS/JJ087/words_annotations/FRCHANJJ_JJ087_0091R.json/95/line", 
            "@type": "oa:Annotation", 
            "motivation": "oa:painting", 
            "on": "http://bvmm.irht.cnrs.fr/iiif/23676/canvas/canvas-2297008#xywh=1984,230,217,80", 
            "resource": {
                "@type": "cnt:ContentAsText", 
                "chars": "QUITTANCE", 
                "format": "text/plain"
            }
        }, 
        {
            "@id": "https://manifests.teklia.com/HIMANIS/JJ087/words_annotations/FRCHANJJ_JJ087_0091R.json/96/line", 
            "@type": "oa:Annotation", 
            "motivation": "oa:painting", 
            "on": "http://bvmm.irht.cnrs.fr/iiif/23676/canvas/canvas-2297008#xywh=351,150,245,90", 
            "resource": {
                "@type": "cnt:ContentAsText", 
                "chars": "DESCLAIREES", 
                "format": "text/plain"
            }
        }, 
        {
            "@id": "https://manifests.teklia.com/HIMANIS/JJ087/words_annotations/FRCHANJJ_JJ087_0091R.json/97/line", 
            "@type": "oa:Annotation", 
            "motivation": "oa:painting", 
            "on": "http://bvmm.irht.cnrs.fr/iiif/23676/canvas/canvas-2297008#xywh=2570,93,0,57", 
            "resource": {
                "@type": "cnt:ContentAsText", 
                "chars": "P", 
                "format": "text/plain"
            }
        }, 
        {
            "@id": "https://manifests.teklia.com/HIMANIS/JJ087/words_annotations/FRCHANJJ_JJ087_0091R.json/98/line", 
            "@type": "oa:Annotation", 
            "motivation": "oa:painting", 
            "on": "http://bvmm.irht.cnrs.fr/iiif/23676/canvas/canvas-2297008#xywh=158,150,159,90", 
            "resource": {
                "@type": "cnt:ContentAsText", 
                "chars": "GENT", 
                "format": "text/plain"
            }
        }, 
        {
            "@id": "https://manifests.teklia.com/HIMANIS/JJ087/words_annotations/FRCHANJJ_JJ087_0091R.json/99/line", 
            "@type": "oa:Annotation", 
            "motivation": "oa:painting", 
            "on": "http://bvmm.irht.cnrs.fr/iiif/23676/canvas/canvas-2297008#xywh=998,455,47,125", 
            "resource": {
                "@type": "cnt:ContentAsText", 
                "chars": "LEZ", 
                "format": "text/plain"
            }
        }, 
        {
            "@id": "https://manifests.teklia.com/HIMANIS/JJ087/words_annotations/FRCHANJJ_JJ087_0091R.json/100/line", 
            "@type": "oa:Annotation", 
            "motivation": "oa:painting", 
            "on": "http://bvmm.irht.cnrs.fr/iiif/23676/canvas/canvas-2297008#xywh=2527,285,484,140", 
            "resource": {
                "@type": "cnt:ContentAsText", 
                "chars": "FERME", 
                "format": "text/plain"
            }
        }, 
        {
            "@id": "https://manifests.teklia.com/HIMANIS/JJ087/words_annotations/FRCHANJJ_JJ087_0091R.json/101/line", 
            "@type": "oa:Annotation", 
            "motivation": "oa:painting", 
            "on": "http://bvmm.irht.cnrs.fr/iiif/23676/canvas/canvas-2297008#xywh=1226,150,284,90", 
            "resource": {
                "@type": "cnt:ContentAsText", 
                "chars": "QUELCONQUES", 
                "format": "text/plain"
            }
        }, 
        {
            "@id": "https://manifests.teklia.com/HIMANIS/JJ087/words_annotations/FRCHANJJ_JJ087_0091R.json/102/line", 
            "@type": "oa:Annotation", 
            "motivation": "oa:painting", 
            "on": "http://bvmm.irht.cnrs.fr/iiif/23676/canvas/canvas-2297008#xywh=2133,375,118,125", 
            "resource": {
                "@type": "cnt:ContentAsText", 
                "chars": "DROIT", 
                "format": "text/plain"
            }
        }, 
        {
            "@id": "https://manifests.teklia.com/HIMANIS/JJ087/words_annotations/FRCHANJJ_JJ087_0091R.json/103/line", 
            "@type": "oa:Annotation", 
            "motivation": "oa:painting", 
            "on": "http://bvmm.irht.cnrs.fr/iiif/23676/canvas/canvas-2297008#xywh=2157,285,35,140", 
            "resource": {
                "@type": "cnt:ContentAsText", 
                "chars": "QUE", 
                "format": "text/plain"
            }
        }, 
        {
            "@id": "https://manifests.teklia.com/HIMANIS/JJ087/words_annotations/FRCHANJJ_JJ087_0091R.json/104/line", 
            "@type": "oa:Annotation", 
            "motivation": "oa:painting", 
            "on": "http://bvmm.irht.cnrs.fr/iiif/23676/canvas/canvas-2297008#xywh=1948,230,20,80", 
            "resource": {
                "@type": "cnt:ContentAsText", 
                "chars": "ET", 
                "format": "text/plain"
            }
        }, 
        {
            "@id": "https://manifests.teklia.com/HIMANIS/JJ087/words_annotations/FRCHANJJ_JJ087_0091R.json/105/line", 
            "@type": "oa:Annotation", 
            "motivation": "oa:painting", 
            "on": "http://bvmm.irht.cnrs.fr/iiif/23676/canvas/canvas-2297008#xywh=959,150,228,90", 
            "resource": {
                "@type": "cnt:ContentAsText", 
                "chars": "AVECQUES", 
                "format": "text/plain"
            }
        }
    ]
}