{
    "@context": "http://iiif.io/api/presentation/2/context.json", 
    "@id": "https://manifests.teklia.com/HIMANIS/FR18437/words_annotations/http_gallica.bnf.fr_iiif_ark:_12148_btv1b9063320p_f288_full_full_0_native.jpg.json", 
    "@type": "sc:AnnotationList", 
    "resources": [
        {
            "@id": "https://manifests.teklia.com/HIMANIS/FR18437/words_annotations/http_gallica.bnf.fr_iiif_ark:_12148_btv1b9063320p_f288_full_full_0_native.jpg.json/0/line", 
            "@type": "oa:Annotation", 
            "motivation": "oa:painting", 
            "on": "http://gallica.bnf.fr/iiif/ark:/12148/btv1b9063320p/canvas/f288#xywh=381,2077,104,47", 
            "resource": {
                "@type": "cnt:ContentAsText", 
                "chars": "DE", 
                "format": "text/plain"
            }
        }, 
        {
            "@id": "https://manifests.teklia.com/HIMANIS/FR18437/words_annotations/http_gallica.bnf.fr_iiif_ark:_12148_btv1b9063320p_f288_full_full_0_native.jpg.json/1/line", 
            "@type": "oa:Annotation", 
            "motivation": "oa:painting", 
            "on": "http://gallica.bnf.fr/iiif/ark:/12148/btv1b9063320p/canvas/f288#xywh=2500,1049,99,105", 
            "resource": {
                "@type": "cnt:ContentAsText", 
                "chars": "FORES", 
                "format": "text/plain"
            }
        }, 
        {
            "@id": "https://manifests.teklia.com/HIMANIS/FR18437/words_annotations/http_gallica.bnf.fr_iiif_ark:_12148_btv1b9063320p_f288_full_full_0_native.jpg.json/2/line", 
            "@type": "oa:Annotation", 
            "motivation": "oa:painting", 
            "on": "http://gallica.bnf.fr/iiif/ark:/12148/btv1b9063320p/canvas/f288#xywh=4590,1047,149,89", 
            "resource": {
                "@type": "cnt:ContentAsText", 
                "chars": "PHILIPP", 
                "format": "text/plain"
            }
        }, 
        {
            "@id": "https://manifests.teklia.com/HIMANIS/FR18437/words_annotations/http_gallica.bnf.fr_iiif_ark:_12148_btv1b9063320p_f288_full_full_0_native.jpg.json/3/line", 
            "@type": "oa:Annotation", 
            "motivation": "oa:painting", 
            "on": "http://gallica.bnf.fr/iiif/ark:/12148/btv1b9063320p/canvas/f288#xywh=362,1824,130,57", 
            "resource": {
                "@type": "cnt:ContentAsText", 
                "chars": "ET", 
                "format": "text/plain"
            }
        }, 
        {
            "@id": "https://manifests.teklia.com/HIMANIS/FR18437/words_annotations/http_gallica.bnf.fr_iiif_ark:_12148_btv1b9063320p_f288_full_full_0_native.jpg.json/4/line", 
            "@type": "oa:Annotation", 
            "motivation": "oa:painting", 
            "on": "http://gallica.bnf.fr/iiif/ark:/12148/btv1b9063320p/canvas/f288#xywh=354,4472,91,48", 
            "resource": {
                "@type": "cnt:ContentAsText", 
                "chars": "LE", 
                "format": "text/plain"
            }
        }, 
        {
            "@id": "https://manifests.teklia.com/HIMANIS/FR18437/words_annotations/http_gallica.bnf.fr_iiif_ark:_12148_btv1b9063320p_f288_full_full_0_native.jpg.json/5/line", 
            "@type": "oa:Annotation", 
            "motivation": "oa:painting", 
            "on": "http://gallica.bnf.fr/iiif/ark:/12148/btv1b9063320p/canvas/f288#xywh=326,4585,104,77", 
            "resource": {
                "@type": "cnt:ContentAsText", 
                "chars": "DE", 
                "format": "text/plain"
            }
        }, 
        {
            "@id": "https://manifests.teklia.com/HIMANIS/FR18437/words_annotations/http_gallica.bnf.fr_iiif_ark:_12148_btv1b9063320p_f288_full_full_0_native.jpg.json/6/line", 
            "@type": "oa:Annotation", 
            "motivation": "oa:painting", 
            "on": "http://gallica.bnf.fr/iiif/ark:/12148/btv1b9063320p/canvas/f288#xywh=4528,595,89,49", 
            "resource": {
                "@type": "cnt:ContentAsText", 
                "chars": "DE", 
                "format": "text/plain"
            }
        }, 
        {
            "@id": "https://manifests.teklia.com/HIMANIS/FR18437/words_annotations/http_gallica.bnf.fr_iiif_ark:_12148_btv1b9063320p_f288_full_full_0_native.jpg.json/7/line", 
            "@type": "oa:Annotation", 
            "motivation": "oa:painting", 
            "on": "http://gallica.bnf.fr/iiif/ark:/12148/btv1b9063320p/canvas/f288#xywh=327,5311,69,37", 
            "resource": {
                "@type": "cnt:ContentAsText", 
                "chars": "LES", 
                "format": "text/plain"
            }
        }, 
        {
            "@id": "https://manifests.teklia.com/HIMANIS/FR18437/words_annotations/http_gallica.bnf.fr_iiif_ark:_12148_btv1b9063320p_f288_full_full_0_native.jpg.json/8/line", 
            "@type": "oa:Annotation", 
            "motivation": "oa:painting", 
            "on": "http://gallica.bnf.fr/iiif/ark:/12148/btv1b9063320p/canvas/f288#xywh=4573,1177,0,85", 
            "resource": {
                "@type": "cnt:ContentAsText", 
                "chars": "J", 
                "format": "text/plain"
            }
        }, 
        {
            "@id": "https://manifests.teklia.com/HIMANIS/FR18437/words_annotations/http_gallica.bnf.fr_iiif_ark:_12148_btv1b9063320p_f288_full_full_0_native.jpg.json/9/line", 
            "@type": "oa:Annotation", 
            "motivation": "oa:painting", 
            "on": "http://gallica.bnf.fr/iiif/ark:/12148/btv1b9063320p/canvas/f288#xywh=4573,1177,0,85", 
            "resource": {
                "@type": "cnt:ContentAsText", 
                "chars": "P", 
                "format": "text/plain"
            }
        }, 
        {
            "@id": "https://manifests.teklia.com/HIMANIS/FR18437/words_annotations/http_gallica.bnf.fr_iiif_ark:_12148_btv1b9063320p_f288_full_full_0_native.jpg.json/10/line", 
            "@type": "oa:Annotation", 
            "motivation": "oa:painting", 
            "on": "http://gallica.bnf.fr/iiif/ark:/12148/btv1b9063320p/canvas/f288#xywh=2402,1049,65,105", 
            "resource": {
                "@type": "cnt:ContentAsText", 
                "chars": "DIT", 
                "format": "text/plain"
            }
        }, 
        {
            "@id": "https://manifests.teklia.com/HIMANIS/FR18437/words_annotations/http_gallica.bnf.fr_iiif_ark:_12148_btv1b9063320p_f288_full_full_0_native.jpg.json/11/line", 
            "@type": "oa:Annotation", 
            "motivation": "oa:painting", 
            "on": "http://gallica.bnf.fr/iiif/ark:/12148/btv1b9063320p/canvas/f288#xywh=4528,595,99,49", 
            "resource": {
                "@type": "cnt:ContentAsText", 
                "chars": "ET", 
                "format": "text/plain"
            }
        }, 
        {
            "@id": "https://manifests.teklia.com/HIMANIS/FR18437/words_annotations/http_gallica.bnf.fr_iiif_ark:_12148_btv1b9063320p_f288_full_full_0_native.jpg.json/12/line", 
            "@type": "oa:Annotation", 
            "motivation": "oa:painting", 
            "on": "http://gallica.bnf.fr/iiif/ark:/12148/btv1b9063320p/canvas/f288#xywh=385,2928,79,42", 
            "resource": {
                "@type": "cnt:ContentAsText", 
                "chars": "LES", 
                "format": "text/plain"
            }
        }, 
        {
            "@id": "https://manifests.teklia.com/HIMANIS/FR18437/words_annotations/http_gallica.bnf.fr_iiif_ark:_12148_btv1b9063320p_f288_full_full_0_native.jpg.json/13/line", 
            "@type": "oa:Annotation", 
            "motivation": "oa:painting", 
            "on": "http://gallica.bnf.fr/iiif/ark:/12148/btv1b9063320p/canvas/f288#xywh=321,4703,112,69", 
            "resource": {
                "@type": "cnt:ContentAsText", 
                "chars": "DE", 
                "format": "text/plain"
            }
        }, 
        {
            "@id": "https://manifests.teklia.com/HIMANIS/FR18437/words_annotations/http_gallica.bnf.fr_iiif_ark:_12148_btv1b9063320p_f288_full_full_0_native.jpg.json/14/line", 
            "@type": "oa:Annotation", 
            "motivation": "oa:painting", 
            "on": "http://gallica.bnf.fr/iiif/ark:/12148/btv1b9063320p/canvas/f288#xywh=318,5210,74,42", 
            "resource": {
                "@type": "cnt:ContentAsText", 
                "chars": "DE", 
                "format": "text/plain"
            }
        }, 
        {
            "@id": "https://manifests.teklia.com/HIMANIS/FR18437/words_annotations/http_gallica.bnf.fr_iiif_ark:_12148_btv1b9063320p_f288_full_full_0_native.jpg.json/15/line", 
            "@type": "oa:Annotation", 
            "motivation": "oa:painting", 
            "on": "http://gallica.bnf.fr/iiif/ark:/12148/btv1b9063320p/canvas/f288#xywh=4590,1047,149,89", 
            "resource": {
                "@type": "cnt:ContentAsText", 
                "chars": "PHELIP", 
                "format": "text/plain"
            }
        }, 
        {
            "@id": "https://manifests.teklia.com/HIMANIS/FR18437/words_annotations/http_gallica.bnf.fr_iiif_ark:_12148_btv1b9063320p_f288_full_full_0_native.jpg.json/16/line", 
            "@type": "oa:Annotation", 
            "motivation": "oa:painting", 
            "on": "http://gallica.bnf.fr/iiif/ark:/12148/btv1b9063320p/canvas/f288#xywh=362,1824,122,57", 
            "resource": {
                "@type": "cnt:ContentAsText", 
                "chars": "DE", 
                "format": "text/plain"
            }
        }, 
        {
            "@id": "https://manifests.teklia.com/HIMANIS/FR18437/words_annotations/http_gallica.bnf.fr_iiif_ark:_12148_btv1b9063320p_f288_full_full_0_native.jpg.json/17/line", 
            "@type": "oa:Annotation", 
            "motivation": "oa:painting", 
            "on": "http://gallica.bnf.fr/iiif/ark:/12148/btv1b9063320p/canvas/f288#xywh=2277,1049,46,105", 
            "resource": {
                "@type": "cnt:ContentAsText", 
                "chars": "OIT", 
                "format": "text/plain"
            }
        }
    ]
}