{
    "@context": "http://iiif.io/api/presentation/2/context.json", 
    "@id": "https://manifests.teklia.com/HIMANIS/FR18437/words_annotations/http_gallica.bnf.fr_iiif_ark:_12148_btv1b9063320p_f240_full_full_0_native.jpg.json", 
    "@type": "sc:AnnotationList", 
    "resources": [
        {
            "@id": "https://manifests.teklia.com/HIMANIS/FR18437/words_annotations/http_gallica.bnf.fr_iiif_ark:_12148_btv1b9063320p_f240_full_full_0_native.jpg.json/0/line", 
            "@type": "oa:Annotation", 
            "motivation": "oa:painting", 
            "on": "http://gallica.bnf.fr/iiif/ark:/12148/btv1b9063320p/canvas/f240#xywh=4016,1070,147,61", 
            "resource": {
                "@type": "cnt:ContentAsText", 
                "chars": "SEEL", 
                "format": "text/plain"
            }
        }, 
        {
            "@id": "https://manifests.teklia.com/HIMANIS/FR18437/words_annotations/http_gallica.bnf.fr_iiif_ark:_12148_btv1b9063320p_f240_full_full_0_native.jpg.json/1/line", 
            "@type": "oa:Annotation", 
            "motivation": "oa:painting", 
            "on": "http://gallica.bnf.fr/iiif/ark:/12148/btv1b9063320p/canvas/f240#xywh=1585,1202,101,80", 
            "resource": {
                "@type": "cnt:ContentAsText", 
                "chars": "PUBLI", 
                "format": "text/plain"
            }
        }, 
        {
            "@id": "https://manifests.teklia.com/HIMANIS/FR18437/words_annotations/http_gallica.bnf.fr_iiif_ark:_12148_btv1b9063320p_f240_full_full_0_native.jpg.json/2/line", 
            "@type": "oa:Annotation", 
            "motivation": "oa:painting", 
            "on": "http://gallica.bnf.fr/iiif/ark:/12148/btv1b9063320p/canvas/f240#xywh=1043,841,155,145", 
            "resource": {
                "@type": "cnt:ContentAsText", 
                "chars": "DERANT", 
                "format": "text/plain"
            }
        }, 
        {
            "@id": "https://manifests.teklia.com/HIMANIS/FR18437/words_annotations/http_gallica.bnf.fr_iiif_ark:_12148_btv1b9063320p_f240_full_full_0_native.jpg.json/3/line", 
            "@type": "oa:Annotation", 
            "motivation": "oa:painting", 
            "on": "http://gallica.bnf.fr/iiif/ark:/12148/btv1b9063320p/canvas/f240#xywh=1194,1592,180,240", 
            "resource": {
                "@type": "cnt:ContentAsText", 
                "chars": "APPARTES", 
                "format": "text/plain"
            }
        }, 
        {
            "@id": "https://manifests.teklia.com/HIMANIS/FR18437/words_annotations/http_gallica.bnf.fr_iiif_ark:_12148_btv1b9063320p_f240_full_full_0_native.jpg.json/4/line", 
            "@type": "oa:Annotation", 
            "motivation": "oa:painting", 
            "on": "http://gallica.bnf.fr/iiif/ark:/12148/btv1b9063320p/canvas/f240#xywh=2307,1592,76,240", 
            "resource": {
                "@type": "cnt:ContentAsText", 
                "chars": "D'UN", 
                "format": "text/plain"
            }
        }, 
        {
            "@id": "https://manifests.teklia.com/HIMANIS/FR18437/words_annotations/http_gallica.bnf.fr_iiif_ark:_12148_btv1b9063320p_f240_full_full_0_native.jpg.json/5/line", 
            "@type": "oa:Annotation", 
            "motivation": "oa:painting", 
            "on": "http://gallica.bnf.fr/iiif/ark:/12148/btv1b9063320p/canvas/f240#xywh=4998,3911,106,170", 
            "resource": {
                "@type": "cnt:ContentAsText", 
                "chars": "NOS", 
                "format": "text/plain"
            }
        }, 
        {
            "@id": "https://manifests.teklia.com/HIMANIS/FR18437/words_annotations/http_gallica.bnf.fr_iiif_ark:_12148_btv1b9063320p_f240_full_full_0_native.jpg.json/6/line", 
            "@type": "oa:Annotation", 
            "motivation": "oa:painting", 
            "on": "http://gallica.bnf.fr/iiif/ark:/12148/btv1b9063320p/canvas/f240#xywh=3679,1280,123,77", 
            "resource": {
                "@type": "cnt:ContentAsText", 
                "chars": "PARISIENS", 
                "format": "text/plain"
            }
        }, 
        {
            "@id": "https://manifests.teklia.com/HIMANIS/FR18437/words_annotations/http_gallica.bnf.fr_iiif_ark:_12148_btv1b9063320p_f240_full_full_0_native.jpg.json/7/line", 
            "@type": "oa:Annotation", 
            "motivation": "oa:painting", 
            "on": "http://gallica.bnf.fr/iiif/ark:/12148/btv1b9063320p/canvas/f240#xywh=1607,1356,124,56", 
            "resource": {
                "@type": "cnt:ContentAsText", 
                "chars": "POUR", 
                "format": "text/plain"
            }
        }, 
        {
            "@id": "https://manifests.teklia.com/HIMANIS/FR18437/words_annotations/http_gallica.bnf.fr_iiif_ark:_12148_btv1b9063320p_f240_full_full_0_native.jpg.json/8/line", 
            "@type": "oa:Annotation", 
            "motivation": "oa:painting", 
            "on": "http://gallica.bnf.fr/iiif/ark:/12148/btv1b9063320p/canvas/f240#xywh=3553,1070,11,61", 
            "resource": {
                "@type": "cnt:ContentAsText", 
                "chars": "OU", 
                "format": "text/plain"
            }
        }, 
        {
            "@id": "https://manifests.teklia.com/HIMANIS/FR18437/words_annotations/http_gallica.bnf.fr_iiif_ark:_12148_btv1b9063320p_f240_full_full_0_native.jpg.json/9/line", 
            "@type": "oa:Annotation", 
            "motivation": "oa:painting", 
            "on": "http://gallica.bnf.fr/iiif/ark:/12148/btv1b9063320p/canvas/f240#xywh=1013,1592,120,240", 
            "resource": {
                "@type": "cnt:ContentAsText", 
                "chars": "LUI", 
                "format": "text/plain"
            }
        }, 
        {
            "@id": "https://manifests.teklia.com/HIMANIS/FR18437/words_annotations/http_gallica.bnf.fr_iiif_ark:_12148_btv1b9063320p_f240_full_full_0_native.jpg.json/10/line", 
            "@type": "oa:Annotation", 
            "motivation": "oa:painting", 
            "on": "http://gallica.bnf.fr/iiif/ark:/12148/btv1b9063320p/canvas/f240#xywh=2681,1520,53,77", 
            "resource": {
                "@type": "cnt:ContentAsText", 
                "chars": "DICTE", 
                "format": "text/plain"
            }
        }, 
        {
            "@id": "https://manifests.teklia.com/HIMANIS/FR18437/words_annotations/http_gallica.bnf.fr_iiif_ark:_12148_btv1b9063320p_f240_full_full_0_native.jpg.json/11/line", 
            "@type": "oa:Annotation", 
            "motivation": "oa:painting", 
            "on": "http://gallica.bnf.fr/iiif/ark:/12148/btv1b9063320p/canvas/f240#xywh=1205,961,153,101", 
            "resource": {
                "@type": "cnt:ContentAsText", 
                "chars": "ARREST", 
                "format": "text/plain"
            }
        }, 
        {
            "@id": "https://manifests.teklia.com/HIMANIS/FR18437/words_annotations/http_gallica.bnf.fr_iiif_ark:_12148_btv1b9063320p_f240_full_full_0_native.jpg.json/12/line", 
            "@type": "oa:Annotation", 
            "motivation": "oa:painting", 
            "on": "http://gallica.bnf.fr/iiif/ark:/12148/btv1b9063320p/canvas/f240#xywh=2036,1592,61,240", 
            "resource": {
                "@type": "cnt:ContentAsText", 
                "chars": "LES", 
                "format": "text/plain"
            }
        }, 
        {
            "@id": "https://manifests.teklia.com/HIMANIS/FR18437/words_annotations/http_gallica.bnf.fr_iiif_ark:_12148_btv1b9063320p_f240_full_full_0_native.jpg.json/13/line", 
            "@type": "oa:Annotation", 
            "motivation": "oa:painting", 
            "on": "http://gallica.bnf.fr/iiif/ark:/12148/btv1b9063320p/canvas/f240#xywh=3102,5010,240,125", 
            "resource": {
                "@type": "cnt:ContentAsText", 
                "chars": "VESENT", 
                "format": "text/plain"
            }
        }, 
        {
            "@id": "https://manifests.teklia.com/HIMANIS/FR18437/words_annotations/http_gallica.bnf.fr_iiif_ark:_12148_btv1b9063320p_f240_full_full_0_native.jpg.json/14/line", 
            "@type": "oa:Annotation", 
            "motivation": "oa:painting", 
            "on": "http://gallica.bnf.fr/iiif/ark:/12148/btv1b9063320p/canvas/f240#xywh=3102,5010,85,125", 
            "resource": {
                "@type": "cnt:ContentAsText", 
                "chars": "LES", 
                "format": "text/plain"
            }
        }, 
        {
            "@id": "https://manifests.teklia.com/HIMANIS/FR18437/words_annotations/http_gallica.bnf.fr_iiif_ark:_12148_btv1b9063320p_f240_full_full_0_native.jpg.json/15/line", 
            "@type": "oa:Annotation", 
            "motivation": "oa:painting", 
            "on": "http://gallica.bnf.fr/iiif/ark:/12148/btv1b9063320p/canvas/f240#xywh=1777,1356,117,56", 
            "resource": {
                "@type": "cnt:ContentAsText", 
                "chars": "DENIERE", 
                "format": "text/plain"
            }
        }, 
        {
            "@id": "https://manifests.teklia.com/HIMANIS/FR18437/words_annotations/http_gallica.bnf.fr_iiif_ark:_12148_btv1b9063320p_f240_full_full_0_native.jpg.json/16/line", 
            "@type": "oa:Annotation", 
            "motivation": "oa:painting", 
            "on": "http://gallica.bnf.fr/iiif/ark:/12148/btv1b9063320p/canvas/f240#xywh=432,653,186,55", 
            "resource": {
                "@type": "cnt:ContentAsText", 
                "chars": "CE", 
                "format": "text/plain"
            }
        }, 
        {
            "@id": "https://manifests.teklia.com/HIMANIS/FR18437/words_annotations/http_gallica.bnf.fr_iiif_ark:_12148_btv1b9063320p_f240_full_full_0_native.jpg.json/17/line", 
            "@type": "oa:Annotation", 
            "motivation": "oa:painting", 
            "on": "http://gallica.bnf.fr/iiif/ark:/12148/btv1b9063320p/canvas/f240#xywh=3799,2469,1468,113", 
            "resource": {
                "@type": "cnt:ContentAsText", 
                "chars": "LIT", 
                "format": "text/plain"
            }
        }, 
        {
            "@id": "https://manifests.teklia.com/HIMANIS/FR18437/words_annotations/http_gallica.bnf.fr_iiif_ark:_12148_btv1b9063320p_f240_full_full_0_native.jpg.json/18/line", 
            "@type": "oa:Annotation", 
            "motivation": "oa:painting", 
            "on": "http://gallica.bnf.fr/iiif/ark:/12148/btv1b9063320p/canvas/f240#xywh=2646,841,45,145", 
            "resource": {
                "@type": "cnt:ContentAsText", 
                "chars": "OU", 
                "format": "text/plain"
            }
        }, 
        {
            "@id": "https://manifests.teklia.com/HIMANIS/FR18437/words_annotations/http_gallica.bnf.fr_iiif_ark:_12148_btv1b9063320p_f240_full_full_0_native.jpg.json/19/line", 
            "@type": "oa:Annotation", 
            "motivation": "oa:painting", 
            "on": "http://gallica.bnf.fr/iiif/ark:/12148/btv1b9063320p/canvas/f240#xywh=2325,2555,0,55", 
            "resource": {
                "@type": "cnt:ContentAsText", 
                "chars": "P", 
                "format": "text/plain"
            }
        }, 
        {
            "@id": "https://manifests.teklia.com/HIMANIS/FR18437/words_annotations/http_gallica.bnf.fr_iiif_ark:_12148_btv1b9063320p_f240_full_full_0_native.jpg.json/20/line", 
            "@type": "oa:Annotation", 
            "motivation": "oa:painting", 
            "on": "http://gallica.bnf.fr/iiif/ark:/12148/btv1b9063320p/canvas/f240#xywh=4771,3511,0,61", 
            "resource": {
                "@type": "cnt:ContentAsText", 
                "chars": "J", 
                "format": "text/plain"
            }
        }, 
        {
            "@id": "https://manifests.teklia.com/HIMANIS/FR18437/words_annotations/http_gallica.bnf.fr_iiif_ark:_12148_btv1b9063320p_f240_full_full_0_native.jpg.json/21/line", 
            "@type": "oa:Annotation", 
            "motivation": "oa:painting", 
            "on": "http://gallica.bnf.fr/iiif/ark:/12148/btv1b9063320p/canvas/f240#xywh=1219,1441,363,105", 
            "resource": {
                "@type": "cnt:ContentAsText", 
                "chars": "PUBLIQUEMENT", 
                "format": "text/plain"
            }
        }, 
        {
            "@id": "https://manifests.teklia.com/HIMANIS/FR18437/words_annotations/http_gallica.bnf.fr_iiif_ark:_12148_btv1b9063320p_f240_full_full_0_native.jpg.json/22/line", 
            "@type": "oa:Annotation", 
            "motivation": "oa:painting", 
            "on": "http://gallica.bnf.fr/iiif/ark:/12148/btv1b9063320p/canvas/f240#xywh=1706,4121,182,113", 
            "resource": {
                "@type": "cnt:ContentAsText", 
                "chars": "PARIS", 
                "format": "text/plain"
            }
        }, 
        {
            "@id": "https://manifests.teklia.com/HIMANIS/FR18437/words_annotations/http_gallica.bnf.fr_iiif_ark:_12148_btv1b9063320p_f240_full_full_0_native.jpg.json/23/line", 
            "@type": "oa:Annotation", 
            "motivation": "oa:painting", 
            "on": "http://gallica.bnf.fr/iiif/ark:/12148/btv1b9063320p/canvas/f240#xywh=2509,841,100,145", 
            "resource": {
                "@type": "cnt:ContentAsText", 
                "chars": "MIS", 
                "format": "text/plain"
            }
        }, 
        {
            "@id": "https://manifests.teklia.com/HIMANIS/FR18437/words_annotations/http_gallica.bnf.fr_iiif_ark:_12148_btv1b9063320p_f240_full_full_0_native.jpg.json/24/line", 
            "@type": "oa:Annotation", 
            "motivation": "oa:painting", 
            "on": "http://gallica.bnf.fr/iiif/ark:/12148/btv1b9063320p/canvas/f240#xywh=2654,1592,120,240", 
            "resource": {
                "@type": "cnt:ContentAsText", 
                "chars": "JEHAN", 
                "format": "text/plain"
            }
        }, 
        {
            "@id": "https://manifests.teklia.com/HIMANIS/FR18437/words_annotations/http_gallica.bnf.fr_iiif_ark:_12148_btv1b9063320p_f240_full_full_0_native.jpg.json/25/line", 
            "@type": "oa:Annotation", 
            "motivation": "oa:painting", 
            "on": "http://gallica.bnf.fr/iiif/ark:/12148/btv1b9063320p/canvas/f240#xywh=3796,1070,97,61", 
            "resource": {
                "@type": "cnt:ContentAsText", 
                "chars": "FESTE", 
                "format": "text/plain"
            }
        }, 
        {
            "@id": "https://manifests.teklia.com/HIMANIS/FR18437/words_annotations/http_gallica.bnf.fr_iiif_ark:_12148_btv1b9063320p_f240_full_full_0_native.jpg.json/26/line", 
            "@type": "oa:Annotation", 
            "motivation": "oa:painting", 
            "on": "http://gallica.bnf.fr/iiif/ark:/12148/btv1b9063320p/canvas/f240#xywh=3799,2469,1425,113", 
            "resource": {
                "@type": "cnt:ContentAsText", 
                "chars": "LE", 
                "format": "text/plain"
            }
        }, 
        {
            "@id": "https://manifests.teklia.com/HIMANIS/FR18437/words_annotations/http_gallica.bnf.fr_iiif_ark:_12148_btv1b9063320p_f240_full_full_0_native.jpg.json/27/line", 
            "@type": "oa:Annotation", 
            "motivation": "oa:painting", 
            "on": "http://gallica.bnf.fr/iiif/ark:/12148/btv1b9063320p/canvas/f240#xywh=1648,1441,33,105", 
            "resource": {
                "@type": "cnt:ContentAsText", 
                "chars": "ET", 
                "format": "text/plain"
            }
        }, 
        {
            "@id": "https://manifests.teklia.com/HIMANIS/FR18437/words_annotations/http_gallica.bnf.fr_iiif_ark:_12148_btv1b9063320p_f240_full_full_0_native.jpg.json/28/line", 
            "@type": "oa:Annotation", 
            "motivation": "oa:painting", 
            "on": "http://gallica.bnf.fr/iiif/ark:/12148/btv1b9063320p/canvas/f240#xywh=1405,1356,156,56", 
            "resource": {
                "@type": "cnt:ContentAsText", 
                "chars": "PERDUS", 
                "format": "text/plain"
            }
        }, 
        {
            "@id": "https://manifests.teklia.com/HIMANIS/FR18437/words_annotations/http_gallica.bnf.fr_iiif_ark:_12148_btv1b9063320p_f240_full_full_0_native.jpg.json/29/line", 
            "@type": "oa:Annotation", 
            "motivation": "oa:painting", 
            "on": "http://gallica.bnf.fr/iiif/ark:/12148/btv1b9063320p/canvas/f240#xywh=1415,961,70,101", 
            "resource": {
                "@type": "cnt:ContentAsText", 
                "chars": "LES", 
                "format": "text/plain"
            }
        }, 
        {
            "@id": "https://manifests.teklia.com/HIMANIS/FR18437/words_annotations/http_gallica.bnf.fr_iiif_ark:_12148_btv1b9063320p_f240_full_full_0_native.jpg.json/30/line", 
            "@type": "oa:Annotation", 
            "motivation": "oa:painting", 
            "on": "http://gallica.bnf.fr/iiif/ark:/12148/btv1b9063320p/canvas/f240#xywh=2706,2423,76,71", 
            "resource": {
                "@type": "cnt:ContentAsText", 
                "chars": "PH", 
                "format": "text/plain"
            }
        }, 
        {
            "@id": "https://manifests.teklia.com/HIMANIS/FR18437/words_annotations/http_gallica.bnf.fr_iiif_ark:_12148_btv1b9063320p_f240_full_full_0_native.jpg.json/31/line", 
            "@type": "oa:Annotation", 
            "motivation": "oa:painting", 
            "on": "http://gallica.bnf.fr/iiif/ark:/12148/btv1b9063320p/canvas/f240#xywh=4016,1070,120,61", 
            "resource": {
                "@type": "cnt:ContentAsText", 
                "chars": "SENE", 
                "format": "text/plain"
            }
        }, 
        {
            "@id": "https://manifests.teklia.com/HIMANIS/FR18437/words_annotations/http_gallica.bnf.fr_iiif_ark:_12148_btv1b9063320p_f240_full_full_0_native.jpg.json/32/line", 
            "@type": "oa:Annotation", 
            "motivation": "oa:painting", 
            "on": "http://gallica.bnf.fr/iiif/ark:/12148/btv1b9063320p/canvas/f240#xywh=1974,961,266,101", 
            "resource": {
                "@type": "cnt:ContentAsText", 
                "chars": "DECLAIRIEES", 
                "format": "text/plain"
            }
        }, 
        {
            "@id": "https://manifests.teklia.com/HIMANIS/FR18437/words_annotations/http_gallica.bnf.fr_iiif_ark:_12148_btv1b9063320p_f240_full_full_0_native.jpg.json/33/line", 
            "@type": "oa:Annotation", 
            "motivation": "oa:painting", 
            "on": "http://gallica.bnf.fr/iiif/ark:/12148/btv1b9063320p/canvas/f240#xywh=2819,1592,1445,240", 
            "resource": {
                "@type": "cnt:ContentAsText", 
                "chars": "EN", 
                "format": "text/plain"
            }
        }, 
        {
            "@id": "https://manifests.teklia.com/HIMANIS/FR18437/words_annotations/http_gallica.bnf.fr_iiif_ark:_12148_btv1b9063320p_f240_full_full_0_native.jpg.json/34/line", 
            "@type": "oa:Annotation", 
            "motivation": "oa:painting", 
            "on": "http://gallica.bnf.fr/iiif/ark:/12148/btv1b9063320p/canvas/f240#xywh=4555,3911,190,170", 
            "resource": {
                "@type": "cnt:ContentAsText", 
                "chars": "PHILIPPES", 
                "format": "text/plain"
            }
        }, 
        {
            "@id": "https://manifests.teklia.com/HIMANIS/FR18437/words_annotations/http_gallica.bnf.fr_iiif_ark:_12148_btv1b9063320p_f240_full_full_0_native.jpg.json/35/line", 
            "@type": "oa:Annotation", 
            "motivation": "oa:painting", 
            "on": "http://gallica.bnf.fr/iiif/ark:/12148/btv1b9063320p/canvas/f240#xywh=4016,1070,81,61", 
            "resource": {
                "@type": "cnt:ContentAsText", 
                "chars": "SEL", 
                "format": "text/plain"
            }
        }, 
        {
            "@id": "https://manifests.teklia.com/HIMANIS/FR18437/words_annotations/http_gallica.bnf.fr_iiif_ark:_12148_btv1b9063320p_f240_full_full_0_native.jpg.json/36/line", 
            "@type": "oa:Annotation", 
            "motivation": "oa:painting", 
            "on": "http://gallica.bnf.fr/iiif/ark:/12148/btv1b9063320p/canvas/f240#xywh=3102,5010,93,125", 
            "resource": {
                "@type": "cnt:ContentAsText", 
                "chars": "NES", 
                "format": "text/plain"
            }
        }, 
        {
            "@id": "https://manifests.teklia.com/HIMANIS/FR18437/words_annotations/http_gallica.bnf.fr_iiif_ark:_12148_btv1b9063320p_f240_full_full_0_native.jpg.json/37/line", 
            "@type": "oa:Annotation", 
            "motivation": "oa:painting", 
            "on": "http://gallica.bnf.fr/iiif/ark:/12148/btv1b9063320p/canvas/f240#xywh=2946,841,0,145", 
            "resource": {
                "@type": "cnt:ContentAsText", 
                "chars": "A", 
                "format": "text/plain"
            }
        }, 
        {
            "@id": "https://manifests.teklia.com/HIMANIS/FR18437/words_annotations/http_gallica.bnf.fr_iiif_ark:_12148_btv1b9063320p_f240_full_full_0_native.jpg.json/38/line", 
            "@type": "oa:Annotation", 
            "motivation": "oa:painting", 
            "on": "http://gallica.bnf.fr/iiif/ark:/12148/btv1b9063320p/canvas/f240#xywh=4016,1070,101,61", 
            "resource": {
                "@type": "cnt:ContentAsText", 
                "chars": "SEU", 
                "format": "text/plain"
            }
        }, 
        {
            "@id": "https://manifests.teklia.com/HIMANIS/FR18437/words_annotations/http_gallica.bnf.fr_iiif_ark:_12148_btv1b9063320p_f240_full_full_0_native.jpg.json/39/line", 
            "@type": "oa:Annotation", 
            "motivation": "oa:painting", 
            "on": "http://gallica.bnf.fr/iiif/ark:/12148/btv1b9063320p/canvas/f240#xywh=3102,5010,240,125", 
            "resource": {
                "@type": "cnt:ContentAsText", 
                "chars": "ENV", 
                "format": "text/plain"
            }
        }, 
        {
            "@id": "https://manifests.teklia.com/HIMANIS/FR18437/words_annotations/http_gallica.bnf.fr_iiif_ark:_12148_btv1b9063320p_f240_full_full_0_native.jpg.json/40/line", 
            "@type": "oa:Annotation", 
            "motivation": "oa:painting", 
            "on": "http://gallica.bnf.fr/iiif/ark:/12148/btv1b9063320p/canvas/f240#xywh=3523,985,266,93", 
            "resource": {
                "@type": "cnt:ContentAsText", 
                "chars": "FAIT", 
                "format": "text/plain"
            }
        }, 
        {
            "@id": "https://manifests.teklia.com/HIMANIS/FR18437/words_annotations/http_gallica.bnf.fr_iiif_ark:_12148_btv1b9063320p_f240_full_full_0_native.jpg.json/41/line", 
            "@type": "oa:Annotation", 
            "motivation": "oa:painting", 
            "on": "http://gallica.bnf.fr/iiif/ark:/12148/btv1b9063320p/canvas/f240#xywh=4635,995,115,92", 
            "resource": {
                "@type": "cnt:ContentAsText", 
                "chars": "DE", 
                "format": "text/plain"
            }
        }, 
        {
            "@id": "https://manifests.teklia.com/HIMANIS/FR18437/words_annotations/http_gallica.bnf.fr_iiif_ark:_12148_btv1b9063320p_f240_full_full_0_native.jpg.json/42/line", 
            "@type": "oa:Annotation", 
            "motivation": "oa:painting", 
            "on": "http://gallica.bnf.fr/iiif/ark:/12148/btv1b9063320p/canvas/f240#xywh=1904,1810,105,232", 
            "resource": {
                "@type": "cnt:ContentAsText", 
                "chars": "DES", 
                "format": "text/plain"
            }
        }, 
        {
            "@id": "https://manifests.teklia.com/HIMANIS/FR18437/words_annotations/http_gallica.bnf.fr_iiif_ark:_12148_btv1b9063320p_f240_full_full_0_native.jpg.json/43/line", 
            "@type": "oa:Annotation", 
            "motivation": "oa:painting", 
            "on": "http://gallica.bnf.fr/iiif/ark:/12148/btv1b9063320p/canvas/f240#xywh=1607,1356,89,56", 
            "resource": {
                "@type": "cnt:ContentAsText", 
                "chars": "PONI", 
                "format": "text/plain"
            }
        }, 
        {
            "@id": "https://manifests.teklia.com/HIMANIS/FR18437/words_annotations/http_gallica.bnf.fr_iiif_ark:_12148_btv1b9063320p_f240_full_full_0_native.jpg.json/44/line", 
            "@type": "oa:Annotation", 
            "motivation": "oa:painting", 
            "on": "http://gallica.bnf.fr/iiif/ark:/12148/btv1b9063320p/canvas/f240#xywh=3989,1070,27,61", 
            "resource": {
                "@type": "cnt:ContentAsText", 
                "chars": "LA", 
                "format": "text/plain"
            }
        }, 
        {
            "@id": "https://manifests.teklia.com/HIMANIS/FR18437/words_annotations/http_gallica.bnf.fr_iiif_ark:_12148_btv1b9063320p_f240_full_full_0_native.jpg.json/45/line", 
            "@type": "oa:Annotation", 
            "motivation": "oa:painting", 
            "on": "http://gallica.bnf.fr/iiif/ark:/12148/btv1b9063320p/canvas/f240#xywh=3676,1070,35,61", 
            "resource": {
                "@type": "cnt:ContentAsText", 
                "chars": "DE", 
                "format": "text/plain"
            }
        }, 
        {
            "@id": "https://manifests.teklia.com/HIMANIS/FR18437/words_annotations/http_gallica.bnf.fr_iiif_ark:_12148_btv1b9063320p_f240_full_full_0_native.jpg.json/46/line", 
            "@type": "oa:Annotation", 
            "motivation": "oa:painting", 
            "on": "http://gallica.bnf.fr/iiif/ark:/12148/btv1b9063320p/canvas/f240#xywh=541,489,640,90", 
            "resource": {
                "@type": "cnt:ContentAsText", 
                "chars": "PH", 
                "format": "text/plain"
            }
        }, 
        {
            "@id": "https://manifests.teklia.com/HIMANIS/FR18437/words_annotations/http_gallica.bnf.fr_iiif_ark:_12148_btv1b9063320p_f240_full_full_0_native.jpg.json/47/line", 
            "@type": "oa:Annotation", 
            "motivation": "oa:painting", 
            "on": "http://gallica.bnf.fr/iiif/ark:/12148/btv1b9063320p/canvas/f240#xywh=3256,841,173,145", 
            "resource": {
                "@type": "cnt:ContentAsText", 
                "chars": "FORME", 
                "format": "text/plain"
            }
        }, 
        {
            "@id": "https://manifests.teklia.com/HIMANIS/FR18437/words_annotations/http_gallica.bnf.fr_iiif_ark:_12148_btv1b9063320p_f240_full_full_0_native.jpg.json/48/line", 
            "@type": "oa:Annotation", 
            "motivation": "oa:painting", 
            "on": "http://gallica.bnf.fr/iiif/ark:/12148/btv1b9063320p/canvas/f240#xywh=3023,1272,41,80", 
            "resource": {
                "@type": "cnt:ContentAsText", 
                "chars": "DE", 
                "format": "text/plain"
            }
        }, 
        {
            "@id": "https://manifests.teklia.com/HIMANIS/FR18437/words_annotations/http_gallica.bnf.fr_iiif_ark:_12148_btv1b9063320p_f240_full_full_0_native.jpg.json/49/line", 
            "@type": "oa:Annotation", 
            "motivation": "oa:painting", 
            "on": "http://gallica.bnf.fr/iiif/ark:/12148/btv1b9063320p/canvas/f240#xywh=1344,841,282,145", 
            "resource": {
                "@type": "cnt:ContentAsText", 
                "chars": "JUVIGUN", 
                "format": "text/plain"
            }
        }, 
        {
            "@id": "https://manifests.teklia.com/HIMANIS/FR18437/words_annotations/http_gallica.bnf.fr_iiif_ark:_12148_btv1b9063320p_f240_full_full_0_native.jpg.json/50/line", 
            "@type": "oa:Annotation", 
            "motivation": "oa:painting", 
            "on": "http://gallica.bnf.fr/iiif/ark:/12148/btv1b9063320p/canvas/f240#xywh=2045,841,218,145", 
            "resource": {
                "@type": "cnt:ContentAsText", 
                "chars": "CHAMBRE", 
                "format": "text/plain"
            }
        }, 
        {
            "@id": "https://manifests.teklia.com/HIMANIS/FR18437/words_annotations/http_gallica.bnf.fr_iiif_ark:_12148_btv1b9063320p_f240_full_full_0_native.jpg.json/51/line", 
            "@type": "oa:Annotation", 
            "motivation": "oa:painting", 
            "on": "http://gallica.bnf.fr/iiif/ark:/12148/btv1b9063320p/canvas/f240#xywh=3102,5010,62,125", 
            "resource": {
                "@type": "cnt:ContentAsText", 
                "chars": "ES", 
                "format": "text/plain"
            }
        }, 
        {
            "@id": "https://manifests.teklia.com/HIMANIS/FR18437/words_annotations/http_gallica.bnf.fr_iiif_ark:_12148_btv1b9063320p_f240_full_full_0_native.jpg.json/52/line", 
            "@type": "oa:Annotation", 
            "motivation": "oa:painting", 
            "on": "http://gallica.bnf.fr/iiif/ark:/12148/btv1b9063320p/canvas/f240#xywh=1344,841,282,145", 
            "resource": {
                "@type": "cnt:ContentAsText", 
                "chars": "JUVIGIN", 
                "format": "text/plain"
            }
        }, 
        {
            "@id": "https://manifests.teklia.com/HIMANIS/FR18437/words_annotations/http_gallica.bnf.fr_iiif_ark:_12148_btv1b9063320p_f240_full_full_0_native.jpg.json/53/line", 
            "@type": "oa:Annotation", 
            "motivation": "oa:painting", 
            "on": "http://gallica.bnf.fr/iiif/ark:/12148/btv1b9063320p/canvas/f240#xywh=2236,1441,185,105", 
            "resource": {
                "@type": "cnt:ContentAsText", 
                "chars": "SIC", 
                "format": "text/plain"
            }
        }, 
        {
            "@id": "https://manifests.teklia.com/HIMANIS/FR18437/words_annotations/http_gallica.bnf.fr_iiif_ark:_12148_btv1b9063320p_f240_full_full_0_native.jpg.json/54/line", 
            "@type": "oa:Annotation", 
            "motivation": "oa:painting", 
            "on": "http://gallica.bnf.fr/iiif/ark:/12148/btv1b9063320p/canvas/f240#xywh=3201,841,28,145", 
            "resource": {
                "@type": "cnt:ContentAsText", 
                "chars": "LA", 
                "format": "text/plain"
            }
        }, 
        {
            "@id": "https://manifests.teklia.com/HIMANIS/FR18437/words_annotations/http_gallica.bnf.fr_iiif_ark:_12148_btv1b9063320p_f240_full_full_0_native.jpg.json/55/line", 
            "@type": "oa:Annotation", 
            "motivation": "oa:painting", 
            "on": "http://gallica.bnf.fr/iiif/ark:/12148/btv1b9063320p/canvas/f240#xywh=432,653,145,55", 
            "resource": {
                "@type": "cnt:ContentAsText", 
                "chars": "TE", 
                "format": "text/plain"
            }
        }, 
        {
            "@id": "https://manifests.teklia.com/HIMANIS/FR18437/words_annotations/http_gallica.bnf.fr_iiif_ark:_12148_btv1b9063320p_f240_full_full_0_native.jpg.json/56/line", 
            "@type": "oa:Annotation", 
            "motivation": "oa:painting", 
            "on": "http://gallica.bnf.fr/iiif/ark:/12148/btv1b9063320p/canvas/f240#xywh=1917,841,46,145", 
            "resource": {
                "@type": "cnt:ContentAsText", 
                "chars": "DE", 
                "format": "text/plain"
            }
        }, 
        {
            "@id": "https://manifests.teklia.com/HIMANIS/FR18437/words_annotations/http_gallica.bnf.fr_iiif_ark:_12148_btv1b9063320p_f240_full_full_0_native.jpg.json/57/line", 
            "@type": "oa:Annotation", 
            "motivation": "oa:painting", 
            "on": "http://gallica.bnf.fr/iiif/ark:/12148/btv1b9063320p/canvas/f240#xywh=432,653,145,55", 
            "resource": {
                "@type": "cnt:ContentAsText", 
                "chars": "DE", 
                "format": "text/plain"
            }
        }, 
        {
            "@id": "https://manifests.teklia.com/HIMANIS/FR18437/words_annotations/http_gallica.bnf.fr_iiif_ark:_12148_btv1b9063320p_f240_full_full_0_native.jpg.json/58/line", 
            "@type": "oa:Annotation", 
            "motivation": "oa:painting", 
            "on": "http://gallica.bnf.fr/iiif/ark:/12148/btv1b9063320p/canvas/f240#xywh=2983,841,82,145", 
            "resource": {
                "@type": "cnt:ContentAsText", 
                "chars": "PARIS", 
                "format": "text/plain"
            }
        }, 
        {
            "@id": "https://manifests.teklia.com/HIMANIS/FR18437/words_annotations/http_gallica.bnf.fr_iiif_ark:_12148_btv1b9063320p_f240_full_full_0_native.jpg.json/59/line", 
            "@type": "oa:Annotation", 
            "motivation": "oa:painting", 
            "on": "http://gallica.bnf.fr/iiif/ark:/12148/btv1b9063320p/canvas/f240#xywh=1425,1202,105,80", 
            "resource": {
                "@type": "cnt:ContentAsText", 
                "chars": "PARIS", 
                "format": "text/plain"
            }
        }, 
        {
            "@id": "https://manifests.teklia.com/HIMANIS/FR18437/words_annotations/http_gallica.bnf.fr_iiif_ark:_12148_btv1b9063320p_f240_full_full_0_native.jpg.json/60/line", 
            "@type": "oa:Annotation", 
            "motivation": "oa:painting", 
            "on": "http://gallica.bnf.fr/iiif/ark:/12148/btv1b9063320p/canvas/f240#xywh=430,530,0,127", 
            "resource": {
                "@type": "cnt:ContentAsText", 
                "chars": "P", 
                "format": "text/plain"
            }
        }, 
        {
            "@id": "https://manifests.teklia.com/HIMANIS/FR18437/words_annotations/http_gallica.bnf.fr_iiif_ark:_12148_btv1b9063320p_f240_full_full_0_native.jpg.json/61/line", 
            "@type": "oa:Annotation", 
            "motivation": "oa:painting", 
            "on": "http://gallica.bnf.fr/iiif/ark:/12148/btv1b9063320p/canvas/f240#xywh=3737,985,69,93", 
            "resource": {
                "@type": "cnt:ContentAsText", 
                "chars": "FIR", 
                "format": "text/plain"
            }
        }, 
        {
            "@id": "https://manifests.teklia.com/HIMANIS/FR18437/words_annotations/http_gallica.bnf.fr_iiif_ark:_12148_btv1b9063320p_f240_full_full_0_native.jpg.json/62/line", 
            "@type": "oa:Annotation", 
            "motivation": "oa:painting", 
            "on": "http://gallica.bnf.fr/iiif/ark:/12148/btv1b9063320p/canvas/f240#xywh=1359,1202,40,80", 
            "resource": {
                "@type": "cnt:ContentAsText", 
                "chars": "DE", 
                "format": "text/plain"
            }
        }, 
        {
            "@id": "https://manifests.teklia.com/HIMANIS/FR18437/words_annotations/http_gallica.bnf.fr_iiif_ark:_12148_btv1b9063320p_f240_full_full_0_native.jpg.json/63/line", 
            "@type": "oa:Annotation", 
            "motivation": "oa:painting", 
            "on": "http://gallica.bnf.fr/iiif/ark:/12148/btv1b9063320p/canvas/f240#xywh=3089,1272,131,80", 
            "resource": {
                "@type": "cnt:ContentAsText", 
                "chars": "VRE", 
                "format": "text/plain"
            }
        }, 
        {
            "@id": "https://manifests.teklia.com/HIMANIS/FR18437/words_annotations/http_gallica.bnf.fr_iiif_ark:_12148_btv1b9063320p_f240_full_full_0_native.jpg.json/64/line", 
            "@type": "oa:Annotation", 
            "motivation": "oa:painting", 
            "on": "http://gallica.bnf.fr/iiif/ark:/12148/btv1b9063320p/canvas/f240#xywh=1405,1356,156,56", 
            "resource": {
                "@type": "cnt:ContentAsText", 
                "chars": "PONDUS", 
                "format": "text/plain"
            }
        }, 
        {
            "@id": "https://manifests.teklia.com/HIMANIS/FR18437/words_annotations/http_gallica.bnf.fr_iiif_ark:_12148_btv1b9063320p_f240_full_full_0_native.jpg.json/65/line", 
            "@type": "oa:Annotation", 
            "motivation": "oa:painting", 
            "on": "http://gallica.bnf.fr/iiif/ark:/12148/btv1b9063320p/canvas/f240#xywh=1194,1592,180,240", 
            "resource": {
                "@type": "cnt:ContentAsText", 
                "chars": "APRES", 
                "format": "text/plain"
            }
        }, 
        {
            "@id": "https://manifests.teklia.com/HIMANIS/FR18437/words_annotations/http_gallica.bnf.fr_iiif_ark:_12148_btv1b9063320p_f240_full_full_0_native.jpg.json/66/line", 
            "@type": "oa:Annotation", 
            "motivation": "oa:painting", 
            "on": "http://gallica.bnf.fr/iiif/ark:/12148/btv1b9063320p/canvas/f240#xywh=3799,2469,1284,113", 
            "resource": {
                "@type": "cnt:ContentAsText", 
                "chars": "IL", 
                "format": "text/plain"
            }
        }, 
        {
            "@id": "https://manifests.teklia.com/HIMANIS/FR18437/words_annotations/http_gallica.bnf.fr_iiif_ark:_12148_btv1b9063320p_f240_full_full_0_native.jpg.json/67/line", 
            "@type": "oa:Annotation", 
            "motivation": "oa:painting", 
            "on": "http://gallica.bnf.fr/iiif/ark:/12148/btv1b9063320p/canvas/f240#xywh=3997,2350,757,63", 
            "resource": {
                "@type": "cnt:ContentAsText", 
                "chars": "DILEC", 
                "format": "text/plain"
            }
        }, 
        {
            "@id": "https://manifests.teklia.com/HIMANIS/FR18437/words_annotations/http_gallica.bnf.fr_iiif_ark:_12148_btv1b9063320p_f240_full_full_0_native.jpg.json/68/line", 
            "@type": "oa:Annotation", 
            "motivation": "oa:painting", 
            "on": "http://gallica.bnf.fr/iiif/ark:/12148/btv1b9063320p/canvas/f240#xywh=1485,961,216,101", 
            "resource": {
                "@type": "cnt:ContentAsText", 
                "chars": "QUELES", 
                "format": "text/plain"
            }
        }, 
        {
            "@id": "https://manifests.teklia.com/HIMANIS/FR18437/words_annotations/http_gallica.bnf.fr_iiif_ark:_12148_btv1b9063320p_f240_full_full_0_native.jpg.json/69/line", 
            "@type": "oa:Annotation", 
            "motivation": "oa:painting", 
            "on": "http://gallica.bnf.fr/iiif/ark:/12148/btv1b9063320p/canvas/f240#xywh=2773,1520,428,77", 
            "resource": {
                "@type": "cnt:ContentAsText", 
                "chars": "CONDEMPNACION", 
                "format": "text/plain"
            }
        }, 
        {
            "@id": "https://manifests.teklia.com/HIMANIS/FR18437/words_annotations/http_gallica.bnf.fr_iiif_ark:_12148_btv1b9063320p_f240_full_full_0_native.jpg.json/70/line", 
            "@type": "oa:Annotation", 
            "motivation": "oa:painting", 
            "on": "http://gallica.bnf.fr/iiif/ark:/12148/btv1b9063320p/canvas/f240#xywh=522,2323,817,70", 
            "resource": {
                "@type": "cnt:ContentAsText", 
                "chars": "PHILIPPUS", 
                "format": "text/plain"
            }
        }, 
        {
            "@id": "https://manifests.teklia.com/HIMANIS/FR18437/words_annotations/http_gallica.bnf.fr_iiif_ark:_12148_btv1b9063320p_f240_full_full_0_native.jpg.json/71/line", 
            "@type": "oa:Annotation", 
            "motivation": "oa:painting", 
            "on": "http://gallica.bnf.fr/iiif/ark:/12148/btv1b9063320p/canvas/f240#xywh=522,2323,225,70", 
            "resource": {
                "@type": "cnt:ContentAsText", 
                "chars": "PHILIPPES", 
                "format": "text/plain"
            }
        }, 
        {
            "@id": "https://manifests.teklia.com/HIMANIS/FR18437/words_annotations/http_gallica.bnf.fr_iiif_ark:_12148_btv1b9063320p_f240_full_full_0_native.jpg.json/72/line", 
            "@type": "oa:Annotation", 
            "motivation": "oa:painting", 
            "on": "http://gallica.bnf.fr/iiif/ark:/12148/btv1b9063320p/canvas/f240#xywh=2307,1592,61,240", 
            "resource": {
                "@type": "cnt:ContentAsText", 
                "chars": "DIZ", 
                "format": "text/plain"
            }
        }, 
        {
            "@id": "https://manifests.teklia.com/HIMANIS/FR18437/words_annotations/http_gallica.bnf.fr_iiif_ark:_12148_btv1b9063320p_f240_full_full_0_native.jpg.json/73/line", 
            "@type": "oa:Annotation", 
            "motivation": "oa:painting", 
            "on": "http://gallica.bnf.fr/iiif/ark:/12148/btv1b9063320p/canvas/f240#xywh=1871,1592,105,240", 
            "resource": {
                "@type": "cnt:ContentAsText", 
                "chars": "DITES", 
                "format": "text/plain"
            }
        }, 
        {
            "@id": "https://manifests.teklia.com/HIMANIS/FR18437/words_annotations/http_gallica.bnf.fr_iiif_ark:_12148_btv1b9063320p_f240_full_full_0_native.jpg.json/74/line", 
            "@type": "oa:Annotation", 
            "motivation": "oa:painting", 
            "on": "http://gallica.bnf.fr/iiif/ark:/12148/btv1b9063320p/canvas/f240#xywh=1126,4116,0,111", 
            "resource": {
                "@type": "cnt:ContentAsText", 
                "chars": "H", 
                "format": "text/plain"
            }
        }, 
        {
            "@id": "https://manifests.teklia.com/HIMANIS/FR18437/words_annotations/http_gallica.bnf.fr_iiif_ark:_12148_btv1b9063320p_f240_full_full_0_native.jpg.json/75/line", 
            "@type": "oa:Annotation", 
            "motivation": "oa:painting", 
            "on": "http://gallica.bnf.fr/iiif/ark:/12148/btv1b9063320p/canvas/f240#xywh=1126,4116,0,111", 
            "resource": {
                "@type": "cnt:ContentAsText", 
                "chars": "J", 
                "format": "text/plain"
            }
        }, 
        {
            "@id": "https://manifests.teklia.com/HIMANIS/FR18437/words_annotations/http_gallica.bnf.fr_iiif_ark:_12148_btv1b9063320p_f240_full_full_0_native.jpg.json/76/line", 
            "@type": "oa:Annotation", 
            "motivation": "oa:painting", 
            "on": "http://gallica.bnf.fr/iiif/ark:/12148/btv1b9063320p/canvas/f240#xywh=2539,1118,117,75", 
            "resource": {
                "@type": "cnt:ContentAsText", 
                "chars": "PORTA", 
                "format": "text/plain"
            }
        }, 
        {
            "@id": "https://manifests.teklia.com/HIMANIS/FR18437/words_annotations/http_gallica.bnf.fr_iiif_ark:_12148_btv1b9063320p_f240_full_full_0_native.jpg.json/77/line", 
            "@type": "oa:Annotation", 
            "motivation": "oa:painting", 
            "on": "http://gallica.bnf.fr/iiif/ark:/12148/btv1b9063320p/canvas/f240#xywh=1100,1356,227,56", 
            "resource": {
                "@type": "cnt:ContentAsText", 
                "chars": "VICINIS", 
                "format": "text/plain"
            }
        }, 
        {
            "@id": "https://manifests.teklia.com/HIMANIS/FR18437/words_annotations/http_gallica.bnf.fr_iiif_ark:_12148_btv1b9063320p_f240_full_full_0_native.jpg.json/78/line", 
            "@type": "oa:Annotation", 
            "motivation": "oa:painting", 
            "on": "http://gallica.bnf.fr/iiif/ark:/12148/btv1b9063320p/canvas/f240#xywh=1745,961,172,101", 
            "resource": {
                "@type": "cnt:ContentAsText", 
                "chars": "FURENT", 
                "format": "text/plain"
            }
        }, 
        {
            "@id": "https://manifests.teklia.com/HIMANIS/FR18437/words_annotations/http_gallica.bnf.fr_iiif_ark:_12148_btv1b9063320p_f240_full_full_0_native.jpg.json/79/line", 
            "@type": "oa:Annotation", 
            "motivation": "oa:painting", 
            "on": "http://gallica.bnf.fr/iiif/ark:/12148/btv1b9063320p/canvas/f240#xywh=1126,4116,0,111", 
            "resource": {
                "@type": "cnt:ContentAsText", 
                "chars": "Y", 
                "format": "text/plain"
            }
        }, 
        {
            "@id": "https://manifests.teklia.com/HIMANIS/FR18437/words_annotations/http_gallica.bnf.fr_iiif_ark:_12148_btv1b9063320p_f240_full_full_0_native.jpg.json/80/line", 
            "@type": "oa:Annotation", 
            "motivation": "oa:painting", 
            "on": "http://gallica.bnf.fr/iiif/ark:/12148/btv1b9063320p/canvas/f240#xywh=2703,1118,117,75", 
            "resource": {
                "@type": "cnt:ContentAsText", 
                "chars": "LES", 
                "format": "text/plain"
            }
        }, 
        {
            "@id": "https://manifests.teklia.com/HIMANIS/FR18437/words_annotations/http_gallica.bnf.fr_iiif_ark:_12148_btv1b9063320p_f240_full_full_0_native.jpg.json/81/line", 
            "@type": "oa:Annotation", 
            "motivation": "oa:painting", 
            "on": "http://gallica.bnf.fr/iiif/ark:/12148/btv1b9063320p/canvas/f240#xywh=1777,1356,114,56", 
            "resource": {
                "@type": "cnt:ContentAsText", 
                "chars": "DOMINE", 
                "format": "text/plain"
            }
        }, 
        {
            "@id": "https://manifests.teklia.com/HIMANIS/FR18437/words_annotations/http_gallica.bnf.fr_iiif_ark:_12148_btv1b9063320p_f240_full_full_0_native.jpg.json/82/line", 
            "@type": "oa:Annotation", 
            "motivation": "oa:painting", 
            "on": "http://gallica.bnf.fr/iiif/ark:/12148/btv1b9063320p/canvas/f240#xywh=1740,1441,390,105", 
            "resource": {
                "@type": "cnt:ContentAsText", 
                "chars": "SOLENNELMENT", 
                "format": "text/plain"
            }
        }, 
        {
            "@id": "https://manifests.teklia.com/HIMANIS/FR18437/words_annotations/http_gallica.bnf.fr_iiif_ark:_12148_btv1b9063320p_f240_full_full_0_native.jpg.json/83/line", 
            "@type": "oa:Annotation", 
            "motivation": "oa:painting", 
            "on": "http://gallica.bnf.fr/iiif/ark:/12148/btv1b9063320p/canvas/f240#xywh=1727,4788,0,47", 
            "resource": {
                "@type": "cnt:ContentAsText", 
                "chars": "H", 
                "format": "text/plain"
            }
        }, 
        {
            "@id": "https://manifests.teklia.com/HIMANIS/FR18437/words_annotations/http_gallica.bnf.fr_iiif_ark:_12148_btv1b9063320p_f240_full_full_0_native.jpg.json/84/line", 
            "@type": "oa:Annotation", 
            "motivation": "oa:painting", 
            "on": "http://gallica.bnf.fr/iiif/ark:/12148/btv1b9063320p/canvas/f240#xywh=1727,4788,0,47", 
            "resource": {
                "@type": "cnt:ContentAsText", 
                "chars": "J", 
                "format": "text/plain"
            }
        }, 
        {
            "@id": "https://manifests.teklia.com/HIMANIS/FR18437/words_annotations/http_gallica.bnf.fr_iiif_ark:_12148_btv1b9063320p_f240_full_full_0_native.jpg.json/85/line", 
            "@type": "oa:Annotation", 
            "motivation": "oa:painting", 
            "on": "http://gallica.bnf.fr/iiif/ark:/12148/btv1b9063320p/canvas/f240#xywh=1727,4788,0,47", 
            "resource": {
                "@type": "cnt:ContentAsText", 
                "chars": "P", 
                "format": "text/plain"
            }
        }, 
        {
            "@id": "https://manifests.teklia.com/HIMANIS/FR18437/words_annotations/http_gallica.bnf.fr_iiif_ark:_12148_btv1b9063320p_f240_full_full_0_native.jpg.json/86/line", 
            "@type": "oa:Annotation", 
            "motivation": "oa:painting", 
            "on": "http://gallica.bnf.fr/iiif/ark:/12148/btv1b9063320p/canvas/f240#xywh=1871,1592,120,240", 
            "resource": {
                "@type": "cnt:ContentAsText", 
                "chars": "DICTES", 
                "format": "text/plain"
            }
        }, 
        {
            "@id": "https://manifests.teklia.com/HIMANIS/FR18437/words_annotations/http_gallica.bnf.fr_iiif_ark:_12148_btv1b9063320p_f240_full_full_0_native.jpg.json/87/line", 
            "@type": "oa:Annotation", 
            "motivation": "oa:painting", 
            "on": "http://gallica.bnf.fr/iiif/ark:/12148/btv1b9063320p/canvas/f240#xywh=2681,1520,53,77", 
            "resource": {
                "@type": "cnt:ContentAsText", 
                "chars": "DITE", 
                "format": "text/plain"
            }
        }, 
        {
            "@id": "https://manifests.teklia.com/HIMANIS/FR18437/words_annotations/http_gallica.bnf.fr_iiif_ark:_12148_btv1b9063320p_f240_full_full_0_native.jpg.json/88/line", 
            "@type": "oa:Annotation", 
            "motivation": "oa:painting", 
            "on": "http://gallica.bnf.fr/iiif/ark:/12148/btv1b9063320p/canvas/f240#xywh=2127,1592,135,240", 
            "resource": {
                "@type": "cnt:ContentAsText", 
                "chars": "DESSUS", 
                "format": "text/plain"
            }
        }, 
        {
            "@id": "https://manifests.teklia.com/HIMANIS/FR18437/words_annotations/http_gallica.bnf.fr_iiif_ark:_12148_btv1b9063320p_f240_full_full_0_native.jpg.json/89/line", 
            "@type": "oa:Annotation", 
            "motivation": "oa:painting", 
            "on": "http://gallica.bnf.fr/iiif/ark:/12148/btv1b9063320p/canvas/f240#xywh=1194,1592,180,240", 
            "resource": {
                "@type": "cnt:ContentAsText", 
                "chars": "APPRES", 
                "format": "text/plain"
            }
        }, 
        {
            "@id": "https://manifests.teklia.com/HIMANIS/FR18437/words_annotations/http_gallica.bnf.fr_iiif_ark:_12148_btv1b9063320p_f240_full_full_0_native.jpg.json/90/line", 
            "@type": "oa:Annotation", 
            "motivation": "oa:painting", 
            "on": "http://gallica.bnf.fr/iiif/ark:/12148/btv1b9063320p/canvas/f240#xywh=1027,961,146,101", 
            "resource": {
                "@type": "cnt:ContentAsText", 
                "chars": "DAT", 
                "format": "text/plain"
            }
        }, 
        {
            "@id": "https://manifests.teklia.com/HIMANIS/FR18437/words_annotations/http_gallica.bnf.fr_iiif_ark:_12148_btv1b9063320p_f240_full_full_0_native.jpg.json/91/line", 
            "@type": "oa:Annotation", 
            "motivation": "oa:painting", 
            "on": "http://gallica.bnf.fr/iiif/ark:/12148/btv1b9063320p/canvas/f240#xywh=1898,4788,38,47", 
            "resource": {
                "@type": "cnt:ContentAsText", 
                "chars": "CCC", 
                "format": "text/plain"
            }
        }, 
        {
            "@id": "https://manifests.teklia.com/HIMANIS/FR18437/words_annotations/http_gallica.bnf.fr_iiif_ark:_12148_btv1b9063320p_f240_full_full_0_native.jpg.json/92/line", 
            "@type": "oa:Annotation", 
            "motivation": "oa:painting", 
            "on": "http://gallica.bnf.fr/iiif/ark:/12148/btv1b9063320p/canvas/f240#xywh=4998,3911,96,170", 
            "resource": {
                "@type": "cnt:ContentAsText", 
                "chars": "OU", 
                "format": "text/plain"
            }
        }, 
        {
            "@id": "https://manifests.teklia.com/HIMANIS/FR18437/words_annotations/http_gallica.bnf.fr_iiif_ark:_12148_btv1b9063320p_f240_full_full_0_native.jpg.json/93/line", 
            "@type": "oa:Annotation", 
            "motivation": "oa:painting", 
            "on": "http://gallica.bnf.fr/iiif/ark:/12148/btv1b9063320p/canvas/f240#xywh=1001,1441,158,105", 
            "resource": {
                "@type": "cnt:ContentAsText", 
                "chars": "GLISE", 
                "format": "text/plain"
            }
        }, 
        {
            "@id": "https://manifests.teklia.com/HIMANIS/FR18437/words_annotations/http_gallica.bnf.fr_iiif_ark:_12148_btv1b9063320p_f240_full_full_0_native.jpg.json/94/line", 
            "@type": "oa:Annotation", 
            "motivation": "oa:painting", 
            "on": "http://gallica.bnf.fr/iiif/ark:/12148/btv1b9063320p/canvas/f240#xywh=2983,841,127,145", 
            "resource": {
                "@type": "cnt:ContentAsText", 
                "chars": "PARISIS", 
                "format": "text/plain"
            }
        }, 
        {
            "@id": "https://manifests.teklia.com/HIMANIS/FR18437/words_annotations/http_gallica.bnf.fr_iiif_ark:_12148_btv1b9063320p_f240_full_full_0_native.jpg.json/95/line", 
            "@type": "oa:Annotation", 
            "motivation": "oa:painting", 
            "on": "http://gallica.bnf.fr/iiif/ark:/12148/btv1b9063320p/canvas/f240#xywh=3138,841,36,145", 
            "resource": {
                "@type": "cnt:ContentAsText", 
                "chars": "EN", 
                "format": "text/plain"
            }
        }, 
        {
            "@id": "https://manifests.teklia.com/HIMANIS/FR18437/words_annotations/http_gallica.bnf.fr_iiif_ark:_12148_btv1b9063320p_f240_full_full_0_native.jpg.json/96/line", 
            "@type": "oa:Annotation", 
            "motivation": "oa:painting", 
            "on": "http://gallica.bnf.fr/iiif/ark:/12148/btv1b9063320p/canvas/f240#xywh=1510,1592,165,240", 
            "resource": {
                "@type": "cnt:ContentAsText", 
                "chars": "CHOSES", 
                "format": "text/plain"
            }
        }, 
        {
            "@id": "https://manifests.teklia.com/HIMANIS/FR18437/words_annotations/http_gallica.bnf.fr_iiif_ark:_12148_btv1b9063320p_f240_full_full_0_native.jpg.json/97/line", 
            "@type": "oa:Annotation", 
            "motivation": "oa:painting", 
            "on": "http://gallica.bnf.fr/iiif/ark:/12148/btv1b9063320p/canvas/f240#xywh=3465,841,46,145", 
            "resource": {
                "@type": "cnt:ContentAsText", 
                "chars": "ET", 
                "format": "text/plain"
            }
        }, 
        {
            "@id": "https://manifests.teklia.com/HIMANIS/FR18437/words_annotations/http_gallica.bnf.fr_iiif_ark:_12148_btv1b9063320p_f240_full_full_0_native.jpg.json/98/line", 
            "@type": "oa:Annotation", 
            "motivation": "oa:painting", 
            "on": "http://gallica.bnf.fr/iiif/ark:/12148/btv1b9063320p/canvas/f240#xywh=4635,995,138,92", 
            "resource": {
                "@type": "cnt:ContentAsText", 
                "chars": "LES", 
                "format": "text/plain"
            }
        }, 
        {
            "@id": "https://manifests.teklia.com/HIMANIS/FR18437/words_annotations/http_gallica.bnf.fr_iiif_ark:_12148_btv1b9063320p_f240_full_full_0_native.jpg.json/99/line", 
            "@type": "oa:Annotation", 
            "motivation": "oa:painting", 
            "on": "http://gallica.bnf.fr/iiif/ark:/12148/btv1b9063320p/canvas/f240#xywh=2291,961,19,101", 
            "resource": {
                "@type": "cnt:ContentAsText", 
                "chars": "AU", 
                "format": "text/plain"
            }
        }, 
        {
            "@id": "https://manifests.teklia.com/HIMANIS/FR18437/words_annotations/http_gallica.bnf.fr_iiif_ark:_12148_btv1b9063320p_f240_full_full_0_native.jpg.json/100/line", 
            "@type": "oa:Annotation", 
            "motivation": "oa:painting", 
            "on": "http://gallica.bnf.fr/iiif/ark:/12148/btv1b9063320p/canvas/f240#xywh=3523,985,150,93", 
            "resource": {
                "@type": "cnt:ContentAsText", 
                "chars": "ET", 
                "format": "text/plain"
            }
        }, 
        {
            "@id": "https://manifests.teklia.com/HIMANIS/FR18437/words_annotations/http_gallica.bnf.fr_iiif_ark:_12148_btv1b9063320p_f240_full_full_0_native.jpg.json/101/line", 
            "@type": "oa:Annotation", 
            "motivation": "oa:painting", 
            "on": "http://gallica.bnf.fr/iiif/ark:/12148/btv1b9063320p/canvas/f240#xywh=1405,1356,156,56", 
            "resource": {
                "@type": "cnt:ContentAsText", 
                "chars": "PARDUS", 
                "format": "text/plain"
            }
        }, 
        {
            "@id": "https://manifests.teklia.com/HIMANIS/FR18437/words_annotations/http_gallica.bnf.fr_iiif_ark:_12148_btv1b9063320p_f240_full_full_0_native.jpg.json/102/line", 
            "@type": "oa:Annotation", 
            "motivation": "oa:painting", 
            "on": "http://gallica.bnf.fr/iiif/ark:/12148/btv1b9063320p/canvas/f240#xywh=2832,1272,161,80", 
            "resource": {
                "@type": "cnt:ContentAsText", 
                "chars": "GLISE", 
                "format": "text/plain"
            }
        }, 
        {
            "@id": "https://manifests.teklia.com/HIMANIS/FR18437/words_annotations/http_gallica.bnf.fr_iiif_ark:_12148_btv1b9063320p_f240_full_full_0_native.jpg.json/103/line", 
            "@type": "oa:Annotation", 
            "motivation": "oa:painting", 
            "on": "http://gallica.bnf.fr/iiif/ark:/12148/btv1b9063320p/canvas/f240#xywh=1904,1810,79,232", 
            "resource": {
                "@type": "cnt:ContentAsText", 
                "chars": "DITE", 
                "format": "text/plain"
            }
        }, 
        {
            "@id": "https://manifests.teklia.com/HIMANIS/FR18437/words_annotations/http_gallica.bnf.fr_iiif_ark:_12148_btv1b9063320p_f240_full_full_0_native.jpg.json/104/line", 
            "@type": "oa:Annotation", 
            "motivation": "oa:painting", 
            "on": "http://gallica.bnf.fr/iiif/ark:/12148/btv1b9063320p/canvas/f240#xywh=3523,985,272,93", 
            "resource": {
                "@type": "cnt:ContentAsText", 
                "chars": "FAIRE", 
                "format": "text/plain"
            }
        }, 
        {
            "@id": "https://manifests.teklia.com/HIMANIS/FR18437/words_annotations/http_gallica.bnf.fr_iiif_ark:_12148_btv1b9063320p_f240_full_full_0_native.jpg.json/105/line", 
            "@type": "oa:Annotation", 
            "motivation": "oa:painting", 
            "on": "http://gallica.bnf.fr/iiif/ark:/12148/btv1b9063320p/canvas/f240#xywh=2318,841,164,145", 
            "resource": {
                "@type": "cnt:ContentAsText", 
                "chars": "FURENT", 
                "format": "text/plain"
            }
        }, 
        {
            "@id": "https://manifests.teklia.com/HIMANIS/FR18437/words_annotations/http_gallica.bnf.fr_iiif_ark:_12148_btv1b9063320p_f240_full_full_0_native.jpg.json/106/line", 
            "@type": "oa:Annotation", 
            "motivation": "oa:painting", 
            "on": "http://gallica.bnf.fr/iiif/ark:/12148/btv1b9063320p/canvas/f240#xywh=2380,961,153,101", 
            "resource": {
                "@type": "cnt:ContentAsText", 
                "chars": "PUEPLE", 
                "format": "text/plain"
            }
        }, 
        {
            "@id": "https://manifests.teklia.com/HIMANIS/FR18437/words_annotations/http_gallica.bnf.fr_iiif_ark:_12148_btv1b9063320p_f240_full_full_0_native.jpg.json/107/line", 
            "@type": "oa:Annotation", 
            "motivation": "oa:painting", 
            "on": "http://gallica.bnf.fr/iiif/ark:/12148/btv1b9063320p/canvas/f240#xywh=1777,1356,89,56", 
            "resource": {
                "@type": "cnt:ContentAsText", 
                "chars": "DENIE", 
                "format": "text/plain"
            }
        }, 
        {
            "@id": "https://manifests.teklia.com/HIMANIS/FR18437/words_annotations/http_gallica.bnf.fr_iiif_ark:_12148_btv1b9063320p_f240_full_full_0_native.jpg.json/108/line", 
            "@type": "oa:Annotation", 
            "motivation": "oa:painting", 
            "on": "http://gallica.bnf.fr/iiif/ark:/12148/btv1b9063320p/canvas/f240#xywh=3529,841,155,145", 
            "resource": {
                "@type": "cnt:ContentAsText", 
                "chars": "MANIERE", 
                "format": "text/plain"
            }
        }, 
        {
            "@id": "https://manifests.teklia.com/HIMANIS/FR18437/words_annotations/http_gallica.bnf.fr_iiif_ark:_12148_btv1b9063320p_f240_full_full_0_native.jpg.json/109/line", 
            "@type": "oa:Annotation", 
            "motivation": "oa:painting", 
            "on": "http://gallica.bnf.fr/iiif/ark:/12148/btv1b9063320p/canvas/f240#xywh=1043,841,155,145", 
            "resource": {
                "@type": "cnt:ContentAsText", 
                "chars": "DERAIT", 
                "format": "text/plain"
            }
        }, 
        {
            "@id": "https://manifests.teklia.com/HIMANIS/FR18437/words_annotations/http_gallica.bnf.fr_iiif_ark:_12148_btv1b9063320p_f240_full_full_0_native.jpg.json/110/line", 
            "@type": "oa:Annotation", 
            "motivation": "oa:painting", 
            "on": "http://gallica.bnf.fr/iiif/ark:/12148/btv1b9063320p/canvas/f240#xywh=2719,841,173,145", 
            "resource": {
                "@type": "cnt:ContentAsText", 
                "chars": "PILLORY", 
                "format": "text/plain"
            }
        }, 
        {
            "@id": "https://manifests.teklia.com/HIMANIS/FR18437/words_annotations/http_gallica.bnf.fr_iiif_ark:_12148_btv1b9063320p_f240_full_full_0_native.jpg.json/111/line", 
            "@type": "oa:Annotation", 
            "motivation": "oa:painting", 
            "on": "http://gallica.bnf.fr/iiif/ark:/12148/btv1b9063320p/canvas/f240#xywh=541,489,0,90", 
            "resource": {
                "@type": "cnt:ContentAsText", 
                "chars": "P", 
                "format": "text/plain"
            }
        }, 
        {
            "@id": "https://manifests.teklia.com/HIMANIS/FR18437/words_annotations/http_gallica.bnf.fr_iiif_ark:_12148_btv1b9063320p_f240_full_full_0_native.jpg.json/112/line", 
            "@type": "oa:Annotation", 
            "motivation": "oa:painting", 
            "on": "http://gallica.bnf.fr/iiif/ark:/12148/btv1b9063320p/canvas/f240#xywh=1706,4121,203,113", 
            "resource": {
                "@type": "cnt:ContentAsText", 
                "chars": "PHAINE", 
                "format": "text/plain"
            }
        }, 
        {
            "@id": "https://manifests.teklia.com/HIMANIS/FR18437/words_annotations/http_gallica.bnf.fr_iiif_ark:_12148_btv1b9063320p_f240_full_full_0_native.jpg.json/113/line", 
            "@type": "oa:Annotation", 
            "motivation": "oa:painting", 
            "on": "http://gallica.bnf.fr/iiif/ark:/12148/btv1b9063320p/canvas/f240#xywh=2706,2423,0,71", 
            "resource": {
                "@type": "cnt:ContentAsText", 
                "chars": "N", 
                "format": "text/plain"
            }
        }, 
        {
            "@id": "https://manifests.teklia.com/HIMANIS/FR18437/words_annotations/http_gallica.bnf.fr_iiif_ark:_12148_btv1b9063320p_f240_full_full_0_native.jpg.json/114/line", 
            "@type": "oa:Annotation", 
            "motivation": "oa:painting", 
            "on": "http://gallica.bnf.fr/iiif/ark:/12148/btv1b9063320p/canvas/f240#xywh=2706,2423,0,71", 
            "resource": {
                "@type": "cnt:ContentAsText", 
                "chars": "P", 
                "format": "text/plain"
            }
        }, 
        {
            "@id": "https://manifests.teklia.com/HIMANIS/FR18437/words_annotations/http_gallica.bnf.fr_iiif_ark:_12148_btv1b9063320p_f240_full_full_0_native.jpg.json/115/line", 
            "@type": "oa:Annotation", 
            "motivation": "oa:painting", 
            "on": "http://gallica.bnf.fr/iiif/ark:/12148/btv1b9063320p/canvas/f240#xywh=1027,961,146,101", 
            "resource": {
                "@type": "cnt:ContentAsText", 
                "chars": "ANDAT", 
                "format": "text/plain"
            }
        }, 
        {
            "@id": "https://manifests.teklia.com/HIMANIS/FR18437/words_annotations/http_gallica.bnf.fr_iiif_ark:_12148_btv1b9063320p_f240_full_full_0_native.jpg.json/116/line", 
            "@type": "oa:Annotation", 
            "motivation": "oa:painting", 
            "on": "http://gallica.bnf.fr/iiif/ark:/12148/btv1b9063320p/canvas/f240#xywh=1706,4121,217,113", 
            "resource": {
                "@type": "cnt:ContentAsText", 
                "chars": "PHANNES", 
                "format": "text/plain"
            }
        }, 
        {
            "@id": "https://manifests.teklia.com/HIMANIS/FR18437/words_annotations/http_gallica.bnf.fr_iiif_ark:_12148_btv1b9063320p_f240_full_full_0_native.jpg.json/117/line", 
            "@type": "oa:Annotation", 
            "motivation": "oa:painting", 
            "on": "http://gallica.bnf.fr/iiif/ark:/12148/btv1b9063320p/canvas/f240#xywh=3997,2350,717,63", 
            "resource": {
                "@type": "cnt:ContentAsText", 
                "chars": "LES", 
                "format": "text/plain"
            }
        }, 
        {
            "@id": "https://manifests.teklia.com/HIMANIS/FR18437/words_annotations/http_gallica.bnf.fr_iiif_ark:_12148_btv1b9063320p_f240_full_full_0_native.jpg.json/118/line", 
            "@type": "oa:Annotation", 
            "motivation": "oa:painting", 
            "on": "http://gallica.bnf.fr/iiif/ark:/12148/btv1b9063320p/canvas/f240#xywh=1138,1202,161,80", 
            "resource": {
                "@type": "cnt:ContentAsText", 
                "chars": "DAME", 
                "format": "text/plain"
            }
        }, 
        {
            "@id": "https://manifests.teklia.com/HIMANIS/FR18437/words_annotations/http_gallica.bnf.fr_iiif_ark:_12148_btv1b9063320p_f240_full_full_0_native.jpg.json/119/line", 
            "@type": "oa:Annotation", 
            "motivation": "oa:painting", 
            "on": "http://gallica.bnf.fr/iiif/ark:/12148/btv1b9063320p/canvas/f240#xywh=1404,1592,76,240", 
            "resource": {
                "@type": "cnt:ContentAsText", 
                "chars": "CES", 
                "format": "text/plain"
            }
        }, 
        {
            "@id": "https://manifests.teklia.com/HIMANIS/FR18437/words_annotations/http_gallica.bnf.fr_iiif_ark:_12148_btv1b9063320p_f240_full_full_0_native.jpg.json/120/line", 
            "@type": "oa:Annotation", 
            "motivation": "oa:painting", 
            "on": "http://gallica.bnf.fr/iiif/ark:/12148/btv1b9063320p/canvas/f240#xywh=432,653,148,55", 
            "resource": {
                "@type": "cnt:ContentAsText", 
                "chars": "RE", 
                "format": "text/plain"
            }
        }, 
        {
            "@id": "https://manifests.teklia.com/HIMANIS/FR18437/words_annotations/http_gallica.bnf.fr_iiif_ark:_12148_btv1b9063320p_f240_full_full_0_native.jpg.json/121/line", 
            "@type": "oa:Annotation", 
            "motivation": "oa:painting", 
            "on": "http://gallica.bnf.fr/iiif/ark:/12148/btv1b9063320p/canvas/f240#xywh=2398,1592,225,240", 
            "resource": {
                "@type": "cnt:ContentAsText", 
                "chars": "DEBIT", 
                "format": "text/plain"
            }
        }, 
        {
            "@id": "https://manifests.teklia.com/HIMANIS/FR18437/words_annotations/http_gallica.bnf.fr_iiif_ark:_12148_btv1b9063320p_f240_full_full_0_native.jpg.json/122/line", 
            "@type": "oa:Annotation", 
            "motivation": "oa:painting", 
            "on": "http://gallica.bnf.fr/iiif/ark:/12148/btv1b9063320p/canvas/f240#xywh=1616,4305,382,99", 
            "resource": {
                "@type": "cnt:ContentAsText", 
                "chars": "QUE", 
                "format": "text/plain"
            }
        }, 
        {
            "@id": "https://manifests.teklia.com/HIMANIS/FR18437/words_annotations/http_gallica.bnf.fr_iiif_ark:_12148_btv1b9063320p_f240_full_full_0_native.jpg.json/123/line", 
            "@type": "oa:Annotation", 
            "motivation": "oa:painting", 
            "on": "http://gallica.bnf.fr/iiif/ark:/12148/btv1b9063320p/canvas/f240#xywh=1100,1356,227,56", 
            "resource": {
                "@type": "cnt:ContentAsText", 
                "chars": "VICENS", 
                "format": "text/plain"
            }
        }, 
        {
            "@id": "https://manifests.teklia.com/HIMANIS/FR18437/words_annotations/http_gallica.bnf.fr_iiif_ark:_12148_btv1b9063320p_f240_full_full_0_native.jpg.json/124/line", 
            "@type": "oa:Annotation", 
            "motivation": "oa:painting", 
            "on": "http://gallica.bnf.fr/iiif/ark:/12148/btv1b9063320p/canvas/f240#xywh=2467,1520,0,77", 
            "resource": {
                "@type": "cnt:ContentAsText", 
                "chars": "S", 
                "format": "text/plain"
            }
        }, 
        {
            "@id": "https://manifests.teklia.com/HIMANIS/FR18437/words_annotations/http_gallica.bnf.fr_iiif_ark:_12148_btv1b9063320p_f240_full_full_0_native.jpg.json/125/line", 
            "@type": "oa:Annotation", 
            "motivation": "oa:painting", 
            "on": "http://gallica.bnf.fr/iiif/ark:/12148/btv1b9063320p/canvas/f240#xywh=3102,5010,93,125", 
            "resource": {
                "@type": "cnt:ContentAsText", 
                "chars": "VES", 
                "format": "text/plain"
            }
        }, 
        {
            "@id": "https://manifests.teklia.com/HIMANIS/FR18437/words_annotations/http_gallica.bnf.fr_iiif_ark:_12148_btv1b9063320p_f240_full_full_0_native.jpg.json/126/line", 
            "@type": "oa:Annotation", 
            "motivation": "oa:painting", 
            "on": "http://gallica.bnf.fr/iiif/ark:/12148/btv1b9063320p/canvas/f240#xywh=3553,1070,73,61", 
            "resource": {
                "@type": "cnt:ContentAsText", 
                "chars": "OUR", 
                "format": "text/plain"
            }
        }, 
        {
            "@id": "https://manifests.teklia.com/HIMANIS/FR18437/words_annotations/http_gallica.bnf.fr_iiif_ark:_12148_btv1b9063320p_f240_full_full_0_native.jpg.json/127/line", 
            "@type": "oa:Annotation", 
            "motivation": "oa:painting", 
            "on": "http://gallica.bnf.fr/iiif/ark:/12148/btv1b9063320p/canvas/f240#xywh=1904,1810,79,232", 
            "resource": {
                "@type": "cnt:ContentAsText", 
                "chars": "DE", 
                "format": "text/plain"
            }
        }, 
        {
            "@id": "https://manifests.teklia.com/HIMANIS/FR18437/words_annotations/http_gallica.bnf.fr_iiif_ark:_12148_btv1b9063320p_f240_full_full_0_native.jpg.json/128/line", 
            "@type": "oa:Annotation", 
            "motivation": "oa:painting", 
            "on": "http://gallica.bnf.fr/iiif/ark:/12148/btv1b9063320p/canvas/f240#xywh=1904,1810,118,232", 
            "resource": {
                "@type": "cnt:ContentAsText", 
                "chars": "DU", 
                "format": "text/plain"
            }
        }, 
        {
            "@id": "https://manifests.teklia.com/HIMANIS/FR18437/words_annotations/http_gallica.bnf.fr_iiif_ark:_12148_btv1b9063320p_f240_full_full_0_native.jpg.json/129/line", 
            "@type": "oa:Annotation", 
            "motivation": "oa:painting", 
            "on": "http://gallica.bnf.fr/iiif/ark:/12148/btv1b9063320p/canvas/f240#xywh=4882,3911,222,170", 
            "resource": {
                "@type": "cnt:ContentAsText", 
                "chars": "AUS", 
                "format": "text/plain"
            }
        }, 
        {
            "@id": "https://manifests.teklia.com/HIMANIS/FR18437/words_annotations/http_gallica.bnf.fr_iiif_ark:_12148_btv1b9063320p_f240_full_full_0_native.jpg.json/130/line", 
            "@type": "oa:Annotation", 
            "motivation": "oa:painting", 
            "on": "http://gallica.bnf.fr/iiif/ark:/12148/btv1b9063320p/canvas/f240#xywh=1717,841,182,145", 
            "resource": {
                "@type": "cnt:ContentAsText", 
                "chars": "GUILLAUME", 
                "format": "text/plain"
            }
        }, 
        {
            "@id": "https://manifests.teklia.com/HIMANIS/FR18437/words_annotations/http_gallica.bnf.fr_iiif_ark:_12148_btv1b9063320p_f240_full_full_0_native.jpg.json/131/line", 
            "@type": "oa:Annotation", 
            "motivation": "oa:painting", 
            "on": "http://gallica.bnf.fr/iiif/ark:/12148/btv1b9063320p/canvas/f240#xywh=2603,1520,29,77", 
            "resource": {
                "@type": "cnt:ContentAsText", 
                "chars": "LA", 
                "format": "text/plain"
            }
        }, 
        {
            "@id": "https://manifests.teklia.com/HIMANIS/FR18437/words_annotations/http_gallica.bnf.fr_iiif_ark:_12148_btv1b9063320p_f240_full_full_0_native.jpg.json/132/line", 
            "@type": "oa:Annotation", 
            "motivation": "oa:painting", 
            "on": "http://gallica.bnf.fr/iiif/ark:/12148/btv1b9063320p/canvas/f240#xywh=2467,1520,107,77", 
            "resource": {
                "@type": "cnt:ContentAsText", 
                "chars": "DE", 
                "format": "text/plain"
            }
        }, 
        {
            "@id": "https://manifests.teklia.com/HIMANIS/FR18437/words_annotations/http_gallica.bnf.fr_iiif_ark:_12148_btv1b9063320p_f240_full_full_0_native.jpg.json/133/line", 
            "@type": "oa:Annotation", 
            "motivation": "oa:painting", 
            "on": "http://gallica.bnf.fr/iiif/ark:/12148/btv1b9063320p/canvas/f240#xywh=1001,1441,158,105", 
            "resource": {
                "@type": "cnt:ContentAsText", 
                "chars": "EGLISE", 
                "format": "text/plain"
            }
        }
    ]
}