{
    "@context": "http://iiif.io/api/presentation/2/context.json", 
    "@id": "https://manifests.teklia.com/HIMANIS/FR18437/words_annotations/http_gallica.bnf.fr_iiif_ark:_12148_btv1b9063320p_f289_full_full_0_native.jpg.json", 
    "@type": "sc:AnnotationList", 
    "resources": [
        {
            "@id": "https://manifests.teklia.com/HIMANIS/FR18437/words_annotations/http_gallica.bnf.fr_iiif_ark:_12148_btv1b9063320p_f289_full_full_0_native.jpg.json/0/line", 
            "@type": "oa:Annotation", 
            "motivation": "oa:painting", 
            "on": "http://gallica.bnf.fr/iiif/ark:/12148/btv1b9063320p/canvas/f289#xywh=487,2028,0,29", 
            "resource": {
                "@type": "cnt:ContentAsText", 
                "chars": "J", 
                "format": "text/plain"
            }
        }, 
        {
            "@id": "https://manifests.teklia.com/HIMANIS/FR18437/words_annotations/http_gallica.bnf.fr_iiif_ark:_12148_btv1b9063320p_f289_full_full_0_native.jpg.json/1/line", 
            "@type": "oa:Annotation", 
            "motivation": "oa:painting", 
            "on": "http://gallica.bnf.fr/iiif/ark:/12148/btv1b9063320p/canvas/f289#xywh=1216,2151,3681,352", 
            "resource": {
                "@type": "cnt:ContentAsText", 
                "chars": "DUVE", 
                "format": "text/plain"
            }
        }, 
        {
            "@id": "https://manifests.teklia.com/HIMANIS/FR18437/words_annotations/http_gallica.bnf.fr_iiif_ark:_12148_btv1b9063320p_f289_full_full_0_native.jpg.json/2/line", 
            "@type": "oa:Annotation", 
            "motivation": "oa:painting", 
            "on": "http://gallica.bnf.fr/iiif/ark:/12148/btv1b9063320p/canvas/f289#xywh=2310,4109,265,122", 
            "resource": {
                "@type": "cnt:ContentAsText", 
                "chars": "PARDIER", 
                "format": "text/plain"
            }
        }, 
        {
            "@id": "https://manifests.teklia.com/HIMANIS/FR18437/words_annotations/http_gallica.bnf.fr_iiif_ark:_12148_btv1b9063320p_f289_full_full_0_native.jpg.json/3/line", 
            "@type": "oa:Annotation", 
            "motivation": "oa:painting", 
            "on": "http://gallica.bnf.fr/iiif/ark:/12148/btv1b9063320p/canvas/f289#xywh=2310,4109,265,122", 
            "resource": {
                "@type": "cnt:ContentAsText", 
                "chars": "PORDIER", 
                "format": "text/plain"
            }
        }, 
        {
            "@id": "https://manifests.teklia.com/HIMANIS/FR18437/words_annotations/http_gallica.bnf.fr_iiif_ark:_12148_btv1b9063320p_f289_full_full_0_native.jpg.json/4/line", 
            "@type": "oa:Annotation", 
            "motivation": "oa:painting", 
            "on": "http://gallica.bnf.fr/iiif/ark:/12148/btv1b9063320p/canvas/f289#xywh=856,370,0,156", 
            "resource": {
                "@type": "cnt:ContentAsText", 
                "chars": "M", 
                "format": "text/plain"
            }
        }, 
        {
            "@id": "https://manifests.teklia.com/HIMANIS/FR18437/words_annotations/http_gallica.bnf.fr_iiif_ark:_12148_btv1b9063320p_f289_full_full_0_native.jpg.json/5/line", 
            "@type": "oa:Annotation", 
            "motivation": "oa:painting", 
            "on": "http://gallica.bnf.fr/iiif/ark:/12148/btv1b9063320p/canvas/f289#xywh=2465,3205,0,78", 
            "resource": {
                "@type": "cnt:ContentAsText", 
                "chars": "S", 
                "format": "text/plain"
            }
        }, 
        {
            "@id": "https://manifests.teklia.com/HIMANIS/FR18437/words_annotations/http_gallica.bnf.fr_iiif_ark:_12148_btv1b9063320p_f289_full_full_0_native.jpg.json/6/line", 
            "@type": "oa:Annotation", 
            "motivation": "oa:painting", 
            "on": "http://gallica.bnf.fr/iiif/ark:/12148/btv1b9063320p/canvas/f289#xywh=2310,4109,265,122", 
            "resource": {
                "@type": "cnt:ContentAsText", 
                "chars": "JORDIER", 
                "format": "text/plain"
            }
        }, 
        {
            "@id": "https://manifests.teklia.com/HIMANIS/FR18437/words_annotations/http_gallica.bnf.fr_iiif_ark:_12148_btv1b9063320p_f289_full_full_0_native.jpg.json/7/line", 
            "@type": "oa:Annotation", 
            "motivation": "oa:painting", 
            "on": "http://gallica.bnf.fr/iiif/ark:/12148/btv1b9063320p/canvas/f289#xywh=3894,1130,855,107", 
            "resource": {
                "@type": "cnt:ContentAsText", 
                "chars": "ET", 
                "format": "text/plain"
            }
        }
    ]
}