{
    "@context": "http://iiif.io/api/presentation/2/context.json", 
    "@id": "https://manifests.teklia.com/HIMANIS/FR18437/words_annotations/http_gallica.bnf.fr_iiif_ark:_12148_btv1b9063320p_f283_full_full_0_native.jpg.json", 
    "@type": "sc:AnnotationList", 
    "resources": [
        {
            "@id": "https://manifests.teklia.com/HIMANIS/FR18437/words_annotations/http_gallica.bnf.fr_iiif_ark:_12148_btv1b9063320p_f283_full_full_0_native.jpg.json/0/line", 
            "@type": "oa:Annotation", 
            "motivation": "oa:painting", 
            "on": "http://gallica.bnf.fr/iiif/ark:/12148/btv1b9063320p/canvas/f283#xywh=2394,5601,203,130", 
            "resource": {
                "@type": "cnt:ContentAsText", 
                "chars": "JORDIER", 
                "format": "text/plain"
            }
        }, 
        {
            "@id": "https://manifests.teklia.com/HIMANIS/FR18437/words_annotations/http_gallica.bnf.fr_iiif_ark:_12148_btv1b9063320p_f283_full_full_0_native.jpg.json/1/line", 
            "@type": "oa:Annotation", 
            "motivation": "oa:painting", 
            "on": "http://gallica.bnf.fr/iiif/ark:/12148/btv1b9063320p/canvas/f283#xywh=397,2153,109,44", 
            "resource": {
                "@type": "cnt:ContentAsText", 
                "chars": "DE", 
                "format": "text/plain"
            }
        }, 
        {
            "@id": "https://manifests.teklia.com/HIMANIS/FR18437/words_annotations/http_gallica.bnf.fr_iiif_ark:_12148_btv1b9063320p_f283_full_full_0_native.jpg.json/2/line", 
            "@type": "oa:Annotation", 
            "motivation": "oa:painting", 
            "on": "http://gallica.bnf.fr/iiif/ark:/12148/btv1b9063320p/canvas/f283#xywh=4285,6147,494,343", 
            "resource": {
                "@type": "cnt:ContentAsText", 
                "chars": "DE", 
                "format": "text/plain"
            }
        }, 
        {
            "@id": "https://manifests.teklia.com/HIMANIS/FR18437/words_annotations/http_gallica.bnf.fr_iiif_ark:_12148_btv1b9063320p_f283_full_full_0_native.jpg.json/3/line", 
            "@type": "oa:Annotation", 
            "motivation": "oa:painting", 
            "on": "http://gallica.bnf.fr/iiif/ark:/12148/btv1b9063320p/canvas/f283#xywh=345,3954,224,66", 
            "resource": {
                "@type": "cnt:ContentAsText", 
                "chars": "PHILIPPE", 
                "format": "text/plain"
            }
        }, 
        {
            "@id": "https://manifests.teklia.com/HIMANIS/FR18437/words_annotations/http_gallica.bnf.fr_iiif_ark:_12148_btv1b9063320p_f283_full_full_0_native.jpg.json/4/line", 
            "@type": "oa:Annotation", 
            "motivation": "oa:painting", 
            "on": "http://gallica.bnf.fr/iiif/ark:/12148/btv1b9063320p/canvas/f283#xywh=4721,1216,138,122", 
            "resource": {
                "@type": "cnt:ContentAsText", 
                "chars": "DE", 
                "format": "text/plain"
            }
        }, 
        {
            "@id": "https://manifests.teklia.com/HIMANIS/FR18437/words_annotations/http_gallica.bnf.fr_iiif_ark:_12148_btv1b9063320p_f283_full_full_0_native.jpg.json/5/line", 
            "@type": "oa:Annotation", 
            "motivation": "oa:painting", 
            "on": "http://gallica.bnf.fr/iiif/ark:/12148/btv1b9063320p/canvas/f283#xywh=4746,891,164,91", 
            "resource": {
                "@type": "cnt:ContentAsText", 
                "chars": "LES", 
                "format": "text/plain"
            }
        }, 
        {
            "@id": "https://manifests.teklia.com/HIMANIS/FR18437/words_annotations/http_gallica.bnf.fr_iiif_ark:_12148_btv1b9063320p_f283_full_full_0_native.jpg.json/6/line", 
            "@type": "oa:Annotation", 
            "motivation": "oa:painting", 
            "on": "http://gallica.bnf.fr/iiif/ark:/12148/btv1b9063320p/canvas/f283#xywh=2394,5601,252,130", 
            "resource": {
                "@type": "cnt:ContentAsText", 
                "chars": "JORDIERS", 
                "format": "text/plain"
            }
        }, 
        {
            "@id": "https://manifests.teklia.com/HIMANIS/FR18437/words_annotations/http_gallica.bnf.fr_iiif_ark:_12148_btv1b9063320p_f283_full_full_0_native.jpg.json/7/line", 
            "@type": "oa:Annotation", 
            "motivation": "oa:painting", 
            "on": "http://gallica.bnf.fr/iiif/ark:/12148/btv1b9063320p/canvas/f283#xywh=4259,1066,0,109", 
            "resource": {
                "@type": "cnt:ContentAsText", 
                "chars": "J", 
                "format": "text/plain"
            }
        }, 
        {
            "@id": "https://manifests.teklia.com/HIMANIS/FR18437/words_annotations/http_gallica.bnf.fr_iiif_ark:_12148_btv1b9063320p_f283_full_full_0_native.jpg.json/8/line", 
            "@type": "oa:Annotation", 
            "motivation": "oa:painting", 
            "on": "http://gallica.bnf.fr/iiif/ark:/12148/btv1b9063320p/canvas/f283#xywh=4259,1066,0,109", 
            "resource": {
                "@type": "cnt:ContentAsText", 
                "chars": "S", 
                "format": "text/plain"
            }
        }, 
        {
            "@id": "https://manifests.teklia.com/HIMANIS/FR18437/words_annotations/http_gallica.bnf.fr_iiif_ark:_12148_btv1b9063320p_f283_full_full_0_native.jpg.json/9/line", 
            "@type": "oa:Annotation", 
            "motivation": "oa:painting", 
            "on": "http://gallica.bnf.fr/iiif/ark:/12148/btv1b9063320p/canvas/f283#xywh=4741,2431,124,84", 
            "resource": {
                "@type": "cnt:ContentAsText", 
                "chars": "DE", 
                "format": "text/plain"
            }
        }, 
        {
            "@id": "https://manifests.teklia.com/HIMANIS/FR18437/words_annotations/http_gallica.bnf.fr_iiif_ark:_12148_btv1b9063320p_f283_full_full_0_native.jpg.json/10/line", 
            "@type": "oa:Annotation", 
            "motivation": "oa:painting", 
            "on": "http://gallica.bnf.fr/iiif/ark:/12148/btv1b9063320p/canvas/f283#xywh=301,5135,58,58", 
            "resource": {
                "@type": "cnt:ContentAsText", 
                "chars": "PHIL", 
                "format": "text/plain"
            }
        }, 
        {
            "@id": "https://manifests.teklia.com/HIMANIS/FR18437/words_annotations/http_gallica.bnf.fr_iiif_ark:_12148_btv1b9063320p_f283_full_full_0_native.jpg.json/11/line", 
            "@type": "oa:Annotation", 
            "motivation": "oa:painting", 
            "on": "http://gallica.bnf.fr/iiif/ark:/12148/btv1b9063320p/canvas/f283#xywh=301,5135,195,58", 
            "resource": {
                "@type": "cnt:ContentAsText", 
                "chars": "PHEL", 
                "format": "text/plain"
            }
        }, 
        {
            "@id": "https://manifests.teklia.com/HIMANIS/FR18437/words_annotations/http_gallica.bnf.fr_iiif_ark:_12148_btv1b9063320p_f283_full_full_0_native.jpg.json/12/line", 
            "@type": "oa:Annotation", 
            "motivation": "oa:painting", 
            "on": "http://gallica.bnf.fr/iiif/ark:/12148/btv1b9063320p/canvas/f283#xywh=4636,5187,174,100", 
            "resource": {
                "@type": "cnt:ContentAsText", 
                "chars": "LE", 
                "format": "text/plain"
            }
        }, 
        {
            "@id": "https://manifests.teklia.com/HIMANIS/FR18437/words_annotations/http_gallica.bnf.fr_iiif_ark:_12148_btv1b9063320p_f283_full_full_0_native.jpg.json/13/line", 
            "@type": "oa:Annotation", 
            "motivation": "oa:painting", 
            "on": "http://gallica.bnf.fr/iiif/ark:/12148/btv1b9063320p/canvas/f283#xywh=4754,2161,123,79", 
            "resource": {
                "@type": "cnt:ContentAsText", 
                "chars": "LES", 
                "format": "text/plain"
            }
        }, 
        {
            "@id": "https://manifests.teklia.com/HIMANIS/FR18437/words_annotations/http_gallica.bnf.fr_iiif_ark:_12148_btv1b9063320p_f283_full_full_0_native.jpg.json/14/line", 
            "@type": "oa:Annotation", 
            "motivation": "oa:painting", 
            "on": "http://gallica.bnf.fr/iiif/ark:/12148/btv1b9063320p/canvas/f283#xywh=2768,5601,122,130", 
            "resource": {
                "@type": "cnt:ContentAsText", 
                "chars": "POUR", 
                "format": "text/plain"
            }
        }, 
        {
            "@id": "https://manifests.teklia.com/HIMANIS/FR18437/words_annotations/http_gallica.bnf.fr_iiif_ark:_12148_btv1b9063320p_f283_full_full_0_native.jpg.json/15/line", 
            "@type": "oa:Annotation", 
            "motivation": "oa:painting", 
            "on": "http://gallica.bnf.fr/iiif/ark:/12148/btv1b9063320p/canvas/f283#xywh=4754,2161,99,79", 
            "resource": {
                "@type": "cnt:ContentAsText", 
                "chars": "DE", 
                "format": "text/plain"
            }
        }, 
        {
            "@id": "https://manifests.teklia.com/HIMANIS/FR18437/words_annotations/http_gallica.bnf.fr_iiif_ark:_12148_btv1b9063320p_f283_full_full_0_native.jpg.json/16/line", 
            "@type": "oa:Annotation", 
            "motivation": "oa:painting", 
            "on": "http://gallica.bnf.fr/iiif/ark:/12148/btv1b9063320p/canvas/f283#xywh=301,4293,258,64", 
            "resource": {
                "@type": "cnt:ContentAsText", 
                "chars": "PHIL", 
                "format": "text/plain"
            }
        }
    ]
}