{
    "@context": "http://iiif.io/api/presentation/2/context.json", 
    "@id": "https://manifests.teklia.com/HIMANIS/FR18437/words_annotations/http_gallica.bnf.fr_iiif_ark:_12148_btv1b9063320p_f96_full_full_0_native.jpg.json", 
    "@type": "sc:AnnotationList", 
    "resources": [
        {
            "@id": "https://manifests.teklia.com/HIMANIS/FR18437/words_annotations/http_gallica.bnf.fr_iiif_ark:_12148_btv1b9063320p_f96_full_full_0_native.jpg.json/0/line", 
            "@type": "oa:Annotation", 
            "motivation": "oa:painting", 
            "on": "http://gallica.bnf.fr/iiif/ark:/12148/btv1b9063320p/canvas/f96#xywh=383,5655,100,37", 
            "resource": {
                "@type": "cnt:ContentAsText", 
                "chars": "DE", 
                "format": "text/plain"
            }
        }, 
        {
            "@id": "https://manifests.teklia.com/HIMANIS/FR18437/words_annotations/http_gallica.bnf.fr_iiif_ark:_12148_btv1b9063320p_f96_full_full_0_native.jpg.json/1/line", 
            "@type": "oa:Annotation", 
            "motivation": "oa:painting", 
            "on": "http://gallica.bnf.fr/iiif/ark:/12148/btv1b9063320p/canvas/f96#xywh=4752,4692,0,121", 
            "resource": {
                "@type": "cnt:ContentAsText", 
                "chars": "C", 
                "format": "text/plain"
            }
        }, 
        {
            "@id": "https://manifests.teklia.com/HIMANIS/FR18437/words_annotations/http_gallica.bnf.fr_iiif_ark:_12148_btv1b9063320p_f96_full_full_0_native.jpg.json/2/line", 
            "@type": "oa:Annotation", 
            "motivation": "oa:painting", 
            "on": "http://gallica.bnf.fr/iiif/ark:/12148/btv1b9063320p/canvas/f96#xywh=4237,423,0,319", 
            "resource": {
                "@type": "cnt:ContentAsText", 
                "chars": "J", 
                "format": "text/plain"
            }
        }, 
        {
            "@id": "https://manifests.teklia.com/HIMANIS/FR18437/words_annotations/http_gallica.bnf.fr_iiif_ark:_12148_btv1b9063320p_f96_full_full_0_native.jpg.json/3/line", 
            "@type": "oa:Annotation", 
            "motivation": "oa:painting", 
            "on": "http://gallica.bnf.fr/iiif/ark:/12148/btv1b9063320p/canvas/f96#xywh=4214,6540,235,64", 
            "resource": {
                "@type": "cnt:ContentAsText", 
                "chars": "DE", 
                "format": "text/plain"
            }
        }, 
        {
            "@id": "https://manifests.teklia.com/HIMANIS/FR18437/words_annotations/http_gallica.bnf.fr_iiif_ark:_12148_btv1b9063320p_f96_full_full_0_native.jpg.json/4/line", 
            "@type": "oa:Annotation", 
            "motivation": "oa:painting", 
            "on": "http://gallica.bnf.fr/iiif/ark:/12148/btv1b9063320p/canvas/f96#xywh=309,6138,0,50", 
            "resource": {
                "@type": "cnt:ContentAsText", 
                "chars": "P", 
                "format": "text/plain"
            }
        }, 
        {
            "@id": "https://manifests.teklia.com/HIMANIS/FR18437/words_annotations/http_gallica.bnf.fr_iiif_ark:_12148_btv1b9063320p_f96_full_full_0_native.jpg.json/5/line", 
            "@type": "oa:Annotation", 
            "motivation": "oa:painting", 
            "on": "http://gallica.bnf.fr/iiif/ark:/12148/btv1b9063320p/canvas/f96#xywh=392,493,0,183", 
            "resource": {
                "@type": "cnt:ContentAsText", 
                "chars": "P", 
                "format": "text/plain"
            }
        }, 
        {
            "@id": "https://manifests.teklia.com/HIMANIS/FR18437/words_annotations/http_gallica.bnf.fr_iiif_ark:_12148_btv1b9063320p_f96_full_full_0_native.jpg.json/6/line", 
            "@type": "oa:Annotation", 
            "motivation": "oa:painting", 
            "on": "http://gallica.bnf.fr/iiif/ark:/12148/btv1b9063320p/canvas/f96#xywh=4214,6540,113,64", 
            "resource": {
                "@type": "cnt:ContentAsText", 
                "chars": "LE", 
                "format": "text/plain"
            }
        }, 
        {
            "@id": "https://manifests.teklia.com/HIMANIS/FR18437/words_annotations/http_gallica.bnf.fr_iiif_ark:_12148_btv1b9063320p_f96_full_full_0_native.jpg.json/7/line", 
            "@type": "oa:Annotation", 
            "motivation": "oa:painting", 
            "on": "http://gallica.bnf.fr/iiif/ark:/12148/btv1b9063320p/canvas/f96#xywh=324,5610,164,52", 
            "resource": {
                "@type": "cnt:ContentAsText", 
                "chars": "PHIL", 
                "format": "text/plain"
            }
        }, 
        {
            "@id": "https://manifests.teklia.com/HIMANIS/FR18437/words_annotations/http_gallica.bnf.fr_iiif_ark:_12148_btv1b9063320p_f96_full_full_0_native.jpg.json/8/line", 
            "@type": "oa:Annotation", 
            "motivation": "oa:painting", 
            "on": "http://gallica.bnf.fr/iiif/ark:/12148/btv1b9063320p/canvas/f96#xywh=4214,6540,558,64", 
            "resource": {
                "@type": "cnt:ContentAsText", 
                "chars": "DES", 
                "format": "text/plain"
            }
        }, 
        {
            "@id": "https://manifests.teklia.com/HIMANIS/FR18437/words_annotations/http_gallica.bnf.fr_iiif_ark:_12148_btv1b9063320p_f96_full_full_0_native.jpg.json/9/line", 
            "@type": "oa:Annotation", 
            "motivation": "oa:painting", 
            "on": "http://gallica.bnf.fr/iiif/ark:/12148/btv1b9063320p/canvas/f96#xywh=4752,4692,87,121", 
            "resource": {
                "@type": "cnt:ContentAsText", 
                "chars": "EX", 
                "format": "text/plain"
            }
        }, 
        {
            "@id": "https://manifests.teklia.com/HIMANIS/FR18437/words_annotations/http_gallica.bnf.fr_iiif_ark:_12148_btv1b9063320p_f96_full_full_0_native.jpg.json/10/line", 
            "@type": "oa:Annotation", 
            "motivation": "oa:painting", 
            "on": "http://gallica.bnf.fr/iiif/ark:/12148/btv1b9063320p/canvas/f96#xywh=383,5655,109,37", 
            "resource": {
                "@type": "cnt:ContentAsText", 
                "chars": "DES", 
                "format": "text/plain"
            }
        }, 
        {
            "@id": "https://manifests.teklia.com/HIMANIS/FR18437/words_annotations/http_gallica.bnf.fr_iiif_ark:_12148_btv1b9063320p_f96_full_full_0_native.jpg.json/11/line", 
            "@type": "oa:Annotation", 
            "motivation": "oa:painting", 
            "on": "http://gallica.bnf.fr/iiif/ark:/12148/btv1b9063320p/canvas/f96#xywh=4214,6540,170,64", 
            "resource": {
                "@type": "cnt:ContentAsText", 
                "chars": "ET", 
                "format": "text/plain"
            }
        }
    ]
}