{
    "@context": "http://iiif.io/api/presentation/2/context.json", 
    "@id": "https://manifests.teklia.com/HIMANIS/FR18437/words_annotations/http_gallica.bnf.fr_iiif_ark:_12148_btv1b9063320p_f13_full_full_0_native.jpg.json", 
    "@type": "sc:AnnotationList", 
    "resources": []
}