{
    "@context": "http://iiif.io/api/presentation/2/context.json", 
    "@id": "https://manifests.teklia.com/HIMANIS/JJ061/words_annotations/FRCHANJJ_JJ061_0160R.json", 
    "@type": "sc:AnnotationList", 
    "resources": [
        {
            "@id": "https://manifests.teklia.com/HIMANIS/JJ061/words_annotations/FRCHANJJ_JJ061_0160R.json/0/line", 
            "@type": "oa:Annotation", 
            "motivation": "oa:painting", 
            "on": "http://bvmm.irht.cnrs.fr/iiif/23646/canvas/canvas-2282604#xywh=797,1310,175,60", 
            "resource": {
                "@type": "cnt:ContentAsText", 
                "chars": "MARTIUM", 
                "format": "text/plain"
            }
        }, 
        {
            "@id": "https://manifests.teklia.com/HIMANIS/JJ061/words_annotations/FRCHANJJ_JJ061_0160R.json/1/line", 
            "@type": "oa:Annotation", 
            "motivation": "oa:painting", 
            "on": "http://bvmm.irht.cnrs.fr/iiif/23646/canvas/canvas-2282604#xywh=8,5109,3551,126", 
            "resource": {
                "@type": "cnt:ContentAsText", 
                "chars": "ANNUATINUS", 
                "format": "text/plain"
            }
        }, 
        {
            "@id": "https://manifests.teklia.com/HIMANIS/JJ061/words_annotations/FRCHANJJ_JJ061_0160R.json/2/line", 
            "@type": "oa:Annotation", 
            "motivation": "oa:painting", 
            "on": "http://bvmm.irht.cnrs.fr/iiif/23646/canvas/canvas-2282604#xywh=3516,3734,24,15", 
            "resource": {
                "@type": "cnt:ContentAsText", 
                "chars": "DE", 
                "format": "text/plain"
            }
        }, 
        {
            "@id": "https://manifests.teklia.com/HIMANIS/JJ061/words_annotations/FRCHANJJ_JJ061_0160R.json/3/line", 
            "@type": "oa:Annotation", 
            "motivation": "oa:painting", 
            "on": "http://bvmm.irht.cnrs.fr/iiif/23646/canvas/canvas-2282604#xywh=637,1345,179,79", 
            "resource": {
                "@type": "cnt:ContentAsText", 
                "chars": "SCUSSATA", 
                "format": "text/plain"
            }
        }, 
        {
            "@id": "https://manifests.teklia.com/HIMANIS/JJ061/words_annotations/FRCHANJJ_JJ061_0160R.json/4/line", 
            "@type": "oa:Annotation", 
            "motivation": "oa:painting", 
            "on": "http://bvmm.irht.cnrs.fr/iiif/23646/canvas/canvas-2282604#xywh=714,1245,96,95", 
            "resource": {
                "@type": "cnt:ContentAsText", 
                "chars": "QUIBUS", 
                "format": "text/plain"
            }
        }, 
        {
            "@id": "https://manifests.teklia.com/HIMANIS/JJ061/words_annotations/FRCHANJJ_JJ061_0160R.json/5/line", 
            "@type": "oa:Annotation", 
            "motivation": "oa:painting", 
            "on": "http://bvmm.irht.cnrs.fr/iiif/23646/canvas/canvas-2282604#xywh=1103,1245,113,95", 
            "resource": {
                "@type": "cnt:ContentAsText", 
                "chars": "ABBAS", 
                "format": "text/plain"
            }
        }, 
        {
            "@id": "https://manifests.teklia.com/HIMANIS/JJ061/words_annotations/FRCHANJJ_JJ061_0160R.json/6/line", 
            "@type": "oa:Annotation", 
            "motivation": "oa:painting", 
            "on": "http://bvmm.irht.cnrs.fr/iiif/23646/canvas/canvas-2282604#xywh=1055,1245,36,95", 
            "resource": {
                "@type": "cnt:ContentAsText", 
                "chars": "QUOD", 
                "format": "text/plain"
            }
        }, 
        {
            "@id": "https://manifests.teklia.com/HIMANIS/JJ061/words_annotations/FRCHANJJ_JJ061_0160R.json/7/line", 
            "@type": "oa:Annotation", 
            "motivation": "oa:painting", 
            "on": "http://bvmm.irht.cnrs.fr/iiif/23646/canvas/canvas-2282604#xywh=637,1345,179,79", 
            "resource": {
                "@type": "cnt:ContentAsText", 
                "chars": "SCUSSACE", 
                "format": "text/plain"
            }
        }, 
        {
            "@id": "https://manifests.teklia.com/HIMANIS/JJ061/words_annotations/FRCHANJJ_JJ061_0160R.json/8/line", 
            "@type": "oa:Annotation", 
            "motivation": "oa:painting", 
            "on": "http://bvmm.irht.cnrs.fr/iiif/23646/canvas/canvas-2282604#xywh=797,1310,175,60", 
            "resource": {
                "@type": "cnt:ContentAsText", 
                "chars": "MARCIUM", 
                "format": "text/plain"
            }
        }, 
        {
            "@id": "https://manifests.teklia.com/HIMANIS/JJ061/words_annotations/FRCHANJJ_JJ061_0160R.json/9/line", 
            "@type": "oa:Annotation", 
            "motivation": "oa:painting", 
            "on": "http://bvmm.irht.cnrs.fr/iiif/23646/canvas/canvas-2282604#xywh=500,1310,183,60", 
            "resource": {
                "@type": "cnt:ContentAsText", 
                "chars": "MANASCUN", 
                "format": "text/plain"
            }
        }, 
        {
            "@id": "https://manifests.teklia.com/HIMANIS/JJ061/words_annotations/FRCHANJJ_JJ061_0160R.json/10/line", 
            "@type": "oa:Annotation", 
            "motivation": "oa:painting", 
            "on": "http://bvmm.irht.cnrs.fr/iiif/23646/canvas/canvas-2282604#xywh=637,1345,159,79", 
            "resource": {
                "@type": "cnt:ContentAsText", 
                "chars": "SCUSSATO", 
                "format": "text/plain"
            }
        }, 
        {
            "@id": "https://manifests.teklia.com/HIMANIS/JJ061/words_annotations/FRCHANJJ_JJ061_0160R.json/11/line", 
            "@type": "oa:Annotation", 
            "motivation": "oa:painting", 
            "on": "http://bvmm.irht.cnrs.fr/iiif/23646/canvas/canvas-2282604#xywh=1181,1345,174,79", 
            "resource": {
                "@type": "cnt:ContentAsText", 
                "chars": "CORNATIS", 
                "format": "text/plain"
            }
        }, 
        {
            "@id": "https://manifests.teklia.com/HIMANIS/JJ061/words_annotations/FRCHANJJ_JJ061_0160R.json/12/line", 
            "@type": "oa:Annotation", 
            "motivation": "oa:painting", 
            "on": "http://bvmm.irht.cnrs.fr/iiif/23646/canvas/canvas-2282604#xywh=2149,2529,0,38", 
            "resource": {
                "@type": "cnt:ContentAsText", 
                "chars": "J", 
                "format": "text/plain"
            }
        }, 
        {
            "@id": "https://manifests.teklia.com/HIMANIS/JJ061/words_annotations/FRCHANJJ_JJ061_0160R.json/13/line", 
            "@type": "oa:Annotation", 
            "motivation": "oa:painting", 
            "on": "http://bvmm.irht.cnrs.fr/iiif/23646/canvas/canvas-2282604#xywh=1380,1345,275,79", 
            "resource": {
                "@type": "cnt:ContentAsText", 
                "chars": "QUADRAGINTA", 
                "format": "text/plain"
            }
        }, 
        {
            "@id": "https://manifests.teklia.com/HIMANIS/JJ061/words_annotations/FRCHANJJ_JJ061_0160R.json/14/line", 
            "@type": "oa:Annotation", 
            "motivation": "oa:painting", 
            "on": "http://bvmm.irht.cnrs.fr/iiif/23646/canvas/canvas-2282604#xywh=828,1245,185,95", 
            "resource": {
                "@type": "cnt:ContentAsText", 
                "chars": "CONTINENT", 
                "format": "text/plain"
            }
        }, 
        {
            "@id": "https://manifests.teklia.com/HIMANIS/JJ061/words_annotations/FRCHANJJ_JJ061_0160R.json/15/line", 
            "@type": "oa:Annotation", 
            "motivation": "oa:painting", 
            "on": "http://bvmm.irht.cnrs.fr/iiif/23646/canvas/canvas-2282604#xywh=1181,1345,164,79", 
            "resource": {
                "@type": "cnt:ContentAsText", 
                "chars": "CONNATI", 
                "format": "text/plain"
            }
        }, 
        {
            "@id": "https://manifests.teklia.com/HIMANIS/JJ061/words_annotations/FRCHANJJ_JJ061_0160R.json/16/line", 
            "@type": "oa:Annotation", 
            "motivation": "oa:painting", 
            "on": "http://bvmm.irht.cnrs.fr/iiif/23646/canvas/canvas-2282604#xywh=1450,0,400,156", 
            "resource": {
                "@type": "cnt:ContentAsText", 
                "chars": "CE", 
                "format": "text/plain"
            }
        }, 
        {
            "@id": "https://manifests.teklia.com/HIMANIS/JJ061/words_annotations/FRCHANJJ_JJ061_0160R.json/17/line", 
            "@type": "oa:Annotation", 
            "motivation": "oa:painting", 
            "on": "http://bvmm.irht.cnrs.fr/iiif/23646/canvas/canvas-2282604#xywh=528,1245,96,95", 
            "resource": {
                "@type": "cnt:ContentAsText", 
                "chars": "LITTERIUM", 
                "format": "text/plain"
            }
        }, 
        {
            "@id": "https://manifests.teklia.com/HIMANIS/JJ061/words_annotations/FRCHANJJ_JJ061_0160R.json/18/line", 
            "@type": "oa:Annotation", 
            "motivation": "oa:painting", 
            "on": "http://bvmm.irht.cnrs.fr/iiif/23646/canvas/canvas-2282604#xywh=1181,1345,144,79", 
            "resource": {
                "@type": "cnt:ContentAsText", 
                "chars": "CORNAC", 
                "format": "text/plain"
            }
        }, 
        {
            "@id": "https://manifests.teklia.com/HIMANIS/JJ061/words_annotations/FRCHANJJ_JJ061_0160R.json/19/line", 
            "@type": "oa:Annotation", 
            "motivation": "oa:painting", 
            "on": "http://bvmm.irht.cnrs.fr/iiif/23646/canvas/canvas-2282604#xywh=2149,2529,0,38", 
            "resource": {
                "@type": "cnt:ContentAsText", 
                "chars": "P", 
                "format": "text/plain"
            }
        }, 
        {
            "@id": "https://manifests.teklia.com/HIMANIS/JJ061/words_annotations/FRCHANJJ_JJ061_0160R.json/20/line", 
            "@type": "oa:Annotation", 
            "motivation": "oa:painting", 
            "on": "http://bvmm.irht.cnrs.fr/iiif/23646/canvas/canvas-2282604#xywh=2149,2529,0,38", 
            "resource": {
                "@type": "cnt:ContentAsText", 
                "chars": "S", 
                "format": "text/plain"
            }
        }, 
        {
            "@id": "https://manifests.teklia.com/HIMANIS/JJ061/words_annotations/FRCHANJJ_JJ061_0160R.json/21/line", 
            "@type": "oa:Annotation", 
            "motivation": "oa:painting", 
            "on": "http://bvmm.irht.cnrs.fr/iiif/23646/canvas/canvas-2282604#xywh=713,1310,42,60", 
            "resource": {
                "@type": "cnt:ContentAsText", 
                "chars": "DEM", 
                "format": "text/plain"
            }
        }, 
        {
            "@id": "https://manifests.teklia.com/HIMANIS/JJ061/words_annotations/FRCHANJJ_JJ061_0160R.json/22/line", 
            "@type": "oa:Annotation", 
            "motivation": "oa:painting", 
            "on": "http://bvmm.irht.cnrs.fr/iiif/23646/canvas/canvas-2282604#xywh=38,1245,472,95", 
            "resource": {
                "@type": "cnt:ContentAsText", 
                "chars": "ENFAMACIONS", 
                "format": "text/plain"
            }
        }, 
        {
            "@id": "https://manifests.teklia.com/HIMANIS/JJ061/words_annotations/FRCHANJJ_JJ061_0160R.json/23/line", 
            "@type": "oa:Annotation", 
            "motivation": "oa:painting", 
            "on": "http://bvmm.irht.cnrs.fr/iiif/23646/canvas/canvas-2282604#xywh=976,1345,70,79", 
            "resource": {
                "@type": "cnt:ContentAsText", 
                "chars": "SIGNA", 
                "format": "text/plain"
            }
        }, 
        {
            "@id": "https://manifests.teklia.com/HIMANIS/JJ061/words_annotations/FRCHANJJ_JJ061_0160R.json/24/line", 
            "@type": "oa:Annotation", 
            "motivation": "oa:painting", 
            "on": "http://bvmm.irht.cnrs.fr/iiif/23646/canvas/canvas-2282604#xywh=1240,1245,66,95", 
            "resource": {
                "@type": "cnt:ContentAsText", 
                "chars": "ET", 
                "format": "text/plain"
            }
        }, 
        {
            "@id": "https://manifests.teklia.com/HIMANIS/JJ061/words_annotations/FRCHANJJ_JJ061_0160R.json/25/line", 
            "@type": "oa:Annotation", 
            "motivation": "oa:painting", 
            "on": "http://bvmm.irht.cnrs.fr/iiif/23646/canvas/canvas-2282604#xywh=3328,1742,0,120", 
            "resource": {
                "@type": "cnt:ContentAsText", 
                "chars": "H", 
                "format": "text/plain"
            }
        }, 
        {
            "@id": "https://manifests.teklia.com/HIMANIS/JJ061/words_annotations/FRCHANJJ_JJ061_0160R.json/26/line", 
            "@type": "oa:Annotation", 
            "motivation": "oa:painting", 
            "on": "http://bvmm.irht.cnrs.fr/iiif/23646/canvas/canvas-2282604#xywh=846,1345,95,79", 
            "resource": {
                "@type": "cnt:ContentAsText", 
                "chars": "CLERIIS", 
                "format": "text/plain"
            }
        }, 
        {
            "@id": "https://manifests.teklia.com/HIMANIS/JJ061/words_annotations/FRCHANJJ_JJ061_0160R.json/27/line", 
            "@type": "oa:Annotation", 
            "motivation": "oa:painting", 
            "on": "http://bvmm.irht.cnrs.fr/iiif/23646/canvas/canvas-2282604#xywh=976,1345,70,79", 
            "resource": {
                "@type": "cnt:ContentAsText", 
                "chars": "SIGNE", 
                "format": "text/plain"
            }
        }, 
        {
            "@id": "https://manifests.teklia.com/HIMANIS/JJ061/words_annotations/FRCHANJJ_JJ061_0160R.json/28/line", 
            "@type": "oa:Annotation", 
            "motivation": "oa:painting", 
            "on": "http://bvmm.irht.cnrs.fr/iiif/23646/canvas/canvas-2282604#xywh=1839,1345,175,79", 
            "resource": {
                "@type": "cnt:ContentAsText", 
                "chars": "REDDDITUS", 
                "format": "text/plain"
            }
        }, 
        {
            "@id": "https://manifests.teklia.com/HIMANIS/JJ061/words_annotations/FRCHANJJ_JJ061_0160R.json/29/line", 
            "@type": "oa:Annotation", 
            "motivation": "oa:painting", 
            "on": "http://bvmm.irht.cnrs.fr/iiif/23646/canvas/canvas-2282604#xywh=437,1345,115,79", 
            "resource": {
                "@type": "cnt:ContentAsText", 
                "chars": "PETROS", 
                "format": "text/plain"
            }
        }, 
        {
            "@id": "https://manifests.teklia.com/HIMANIS/JJ061/words_annotations/FRCHANJJ_JJ061_0160R.json/30/line", 
            "@type": "oa:Annotation", 
            "motivation": "oa:painting", 
            "on": "http://bvmm.irht.cnrs.fr/iiif/23646/canvas/canvas-2282604#xywh=3328,1742,0,120", 
            "resource": {
                "@type": "cnt:ContentAsText", 
                "chars": "K", 
                "format": "text/plain"
            }
        }, 
        {
            "@id": "https://manifests.teklia.com/HIMANIS/JJ061/words_annotations/FRCHANJJ_JJ061_0160R.json/31/line", 
            "@type": "oa:Annotation", 
            "motivation": "oa:painting", 
            "on": "http://bvmm.irht.cnrs.fr/iiif/23646/canvas/canvas-2282604#xywh=654,1245,30,95", 
            "resource": {
                "@type": "cnt:ContentAsText", 
                "chars": "IN", 
                "format": "text/plain"
            }
        }, 
        {
            "@id": "https://manifests.teklia.com/HIMANIS/JJ061/words_annotations/FRCHANJJ_JJ061_0160R.json/32/line", 
            "@type": "oa:Annotation", 
            "motivation": "oa:painting", 
            "on": "http://bvmm.irht.cnrs.fr/iiif/23646/canvas/canvas-2282604#xywh=828,1245,203,95", 
            "resource": {
                "@type": "cnt:ContentAsText", 
                "chars": "CONTINETUR", 
                "format": "text/plain"
            }
        }, 
        {
            "@id": "https://manifests.teklia.com/HIMANIS/JJ061/words_annotations/FRCHANJJ_JJ061_0160R.json/33/line", 
            "@type": "oa:Annotation", 
            "motivation": "oa:painting", 
            "on": "http://bvmm.irht.cnrs.fr/iiif/23646/canvas/canvas-2282604#xywh=0,0,1021,114", 
            "resource": {
                "@type": "cnt:ContentAsText", 
                "chars": "CONTE", 
                "format": "text/plain"
            }
        }, 
        {
            "@id": "https://manifests.teklia.com/HIMANIS/JJ061/words_annotations/FRCHANJJ_JJ061_0160R.json/34/line", 
            "@type": "oa:Annotation", 
            "motivation": "oa:painting", 
            "on": "http://bvmm.irht.cnrs.fr/iiif/23646/canvas/canvas-2282604#xywh=2343,1345,130,79", 
            "resource": {
                "@type": "cnt:ContentAsText", 
                "chars": "PETRI", 
                "format": "text/plain"
            }
        }, 
        {
            "@id": "https://manifests.teklia.com/HIMANIS/JJ061/words_annotations/FRCHANJJ_JJ061_0160R.json/35/line", 
            "@type": "oa:Annotation", 
            "motivation": "oa:painting", 
            "on": "http://bvmm.irht.cnrs.fr/iiif/23646/canvas/canvas-2282604#xywh=2046,0,19,156", 
            "resource": {
                "@type": "cnt:ContentAsText", 
                "chars": "ET", 
                "format": "text/plain"
            }
        }, 
        {
            "@id": "https://manifests.teklia.com/HIMANIS/JJ061/words_annotations/FRCHANJJ_JJ061_0160R.json/36/line", 
            "@type": "oa:Annotation", 
            "motivation": "oa:painting", 
            "on": "http://bvmm.irht.cnrs.fr/iiif/23646/canvas/canvas-2282604#xywh=828,1245,197,95", 
            "resource": {
                "@type": "cnt:ContentAsText", 
                "chars": "CONTINENTE", 
                "format": "text/plain"
            }
        }, 
        {
            "@id": "https://manifests.teklia.com/HIMANIS/JJ061/words_annotations/FRCHANJJ_JJ061_0160R.json/37/line", 
            "@type": "oa:Annotation", 
            "motivation": "oa:painting", 
            "on": "http://bvmm.irht.cnrs.fr/iiif/23646/canvas/canvas-2282604#xywh=437,1345,105,79", 
            "resource": {
                "@type": "cnt:ContentAsText", 
                "chars": "PETRO", 
                "format": "text/plain"
            }
        }, 
        {
            "@id": "https://manifests.teklia.com/HIMANIS/JJ061/words_annotations/FRCHANJJ_JJ061_0160R.json/38/line", 
            "@type": "oa:Annotation", 
            "motivation": "oa:painting", 
            "on": "http://bvmm.irht.cnrs.fr/iiif/23646/canvas/canvas-2282604#xywh=577,1345,35,79", 
            "resource": {
                "@type": "cnt:ContentAsText", 
                "chars": "DE", 
                "format": "text/plain"
            }
        }, 
        {
            "@id": "https://manifests.teklia.com/HIMANIS/JJ061/words_annotations/FRCHANJJ_JJ061_0160R.json/39/line", 
            "@type": "oa:Annotation", 
            "motivation": "oa:painting", 
            "on": "http://bvmm.irht.cnrs.fr/iiif/23646/canvas/canvas-2282604#xywh=38,1245,472,95", 
            "resource": {
                "@type": "cnt:ContentAsText", 
                "chars": "ENFAMATIONS", 
                "format": "text/plain"
            }
        }, 
        {
            "@id": "https://manifests.teklia.com/HIMANIS/JJ061/words_annotations/FRCHANJJ_JJ061_0160R.json/40/line", 
            "@type": "oa:Annotation", 
            "motivation": "oa:painting", 
            "on": "http://bvmm.irht.cnrs.fr/iiif/23646/canvas/canvas-2282604#xywh=3276,1862,286,84", 
            "resource": {
                "@type": "cnt:ContentAsText", 
                "chars": "DESSUS", 
                "format": "text/plain"
            }
        }, 
        {
            "@id": "https://manifests.teklia.com/HIMANIS/JJ061/words_annotations/FRCHANJJ_JJ061_0160R.json/41/line", 
            "@type": "oa:Annotation", 
            "motivation": "oa:painting", 
            "on": "http://bvmm.irht.cnrs.fr/iiif/23646/canvas/canvas-2282604#xywh=637,1345,179,79", 
            "resource": {
                "@type": "cnt:ContentAsText", 
                "chars": "SCUSSATIS", 
                "format": "text/plain"
            }
        }, 
        {
            "@id": "https://manifests.teklia.com/HIMANIS/JJ061/words_annotations/FRCHANJJ_JJ061_0160R.json/42/line", 
            "@type": "oa:Annotation", 
            "motivation": "oa:painting", 
            "on": "http://bvmm.irht.cnrs.fr/iiif/23646/canvas/canvas-2282604#xywh=0,0,1021,114", 
            "resource": {
                "@type": "cnt:ContentAsText", 
                "chars": "CONTR", 
                "format": "text/plain"
            }
        }, 
        {
            "@id": "https://manifests.teklia.com/HIMANIS/JJ061/words_annotations/FRCHANJJ_JJ061_0160R.json/43/line", 
            "@type": "oa:Annotation", 
            "motivation": "oa:painting", 
            "on": "http://bvmm.irht.cnrs.fr/iiif/23646/canvas/canvas-2282604#xywh=713,1310,35,60", 
            "resource": {
                "@type": "cnt:ContentAsText", 
                "chars": "DE", 
                "format": "text/plain"
            }
        }, 
        {
            "@id": "https://manifests.teklia.com/HIMANIS/JJ061/words_annotations/FRCHANJJ_JJ061_0160R.json/44/line", 
            "@type": "oa:Annotation", 
            "motivation": "oa:painting", 
            "on": "http://bvmm.irht.cnrs.fr/iiif/23646/canvas/canvas-2282604#xywh=23,1345,314,79", 
            "resource": {
                "@type": "cnt:ContentAsText", 
                "chars": "DU", 
                "format": "text/plain"
            }
        }, 
        {
            "@id": "https://manifests.teklia.com/HIMANIS/JJ061/words_annotations/FRCHANJJ_JJ061_0160R.json/45/line", 
            "@type": "oa:Annotation", 
            "motivation": "oa:painting", 
            "on": "http://bvmm.irht.cnrs.fr/iiif/23646/canvas/canvas-2282604#xywh=828,1245,203,95", 
            "resource": {
                "@type": "cnt:ContentAsText", 
                "chars": "CONTINENTUR", 
                "format": "text/plain"
            }
        }, 
        {
            "@id": "https://manifests.teklia.com/HIMANIS/JJ061/words_annotations/FRCHANJJ_JJ061_0160R.json/46/line", 
            "@type": "oa:Annotation", 
            "motivation": "oa:painting", 
            "on": "http://bvmm.irht.cnrs.fr/iiif/23646/canvas/canvas-2282604#xywh=23,1345,374,79", 
            "resource": {
                "@type": "cnt:ContentAsText", 
                "chars": "DIT", 
                "format": "text/plain"
            }
        }, 
        {
            "@id": "https://manifests.teklia.com/HIMANIS/JJ061/words_annotations/FRCHANJJ_JJ061_0160R.json/47/line", 
            "@type": "oa:Annotation", 
            "motivation": "oa:painting", 
            "on": "http://bvmm.irht.cnrs.fr/iiif/23646/canvas/canvas-2282604#xywh=1700,1345,109,79", 
            "resource": {
                "@type": "cnt:ContentAsText", 
                "chars": "LIBRAS", 
                "format": "text/plain"
            }
        }, 
        {
            "@id": "https://manifests.teklia.com/HIMANIS/JJ061/words_annotations/FRCHANJJ_JJ061_0160R.json/48/line", 
            "@type": "oa:Annotation", 
            "motivation": "oa:painting", 
            "on": "http://bvmm.irht.cnrs.fr/iiif/23646/canvas/canvas-2282604#xywh=1066,1345,90,79", 
            "resource": {
                "@type": "cnt:ContentAsText", 
                "chars": "CURIE", 
                "format": "text/plain"
            }
        }, 
        {
            "@id": "https://manifests.teklia.com/HIMANIS/JJ061/words_annotations/FRCHANJJ_JJ061_0160R.json/49/line", 
            "@type": "oa:Annotation", 
            "motivation": "oa:painting", 
            "on": "http://bvmm.irht.cnrs.fr/iiif/23646/canvas/canvas-2282604#xywh=1066,1345,70,79", 
            "resource": {
                "@type": "cnt:ContentAsText", 
                "chars": "CUM", 
                "format": "text/plain"
            }
        }, 
        {
            "@id": "https://manifests.teklia.com/HIMANIS/JJ061/words_annotations/FRCHANJJ_JJ061_0160R.json/50/line", 
            "@type": "oa:Annotation", 
            "motivation": "oa:painting", 
            "on": "http://bvmm.irht.cnrs.fr/iiif/23646/canvas/canvas-2282604#xywh=998,1310,168,60", 
            "resource": {
                "@type": "cnt:ContentAsText", 
                "chars": "CONVERSIS", 
                "format": "text/plain"
            }
        }, 
        {
            "@id": "https://manifests.teklia.com/HIMANIS/JJ061/words_annotations/FRCHANJJ_JJ061_0160R.json/51/line", 
            "@type": "oa:Annotation", 
            "motivation": "oa:painting", 
            "on": "http://bvmm.irht.cnrs.fr/iiif/23646/canvas/canvas-2282604#xywh=637,1345,179,79", 
            "resource": {
                "@type": "cnt:ContentAsText", 
                "chars": "SCUSSACIO", 
                "format": "text/plain"
            }
        }, 
        {
            "@id": "https://manifests.teklia.com/HIMANIS/JJ061/words_annotations/FRCHANJJ_JJ061_0160R.json/52/line", 
            "@type": "oa:Annotation", 
            "motivation": "oa:painting", 
            "on": "http://bvmm.irht.cnrs.fr/iiif/23646/canvas/canvas-2282604#xywh=1181,1345,164,79", 
            "resource": {
                "@type": "cnt:ContentAsText", 
                "chars": "CORNATI", 
                "format": "text/plain"
            }
        }, 
        {
            "@id": "https://manifests.teklia.com/HIMANIS/JJ061/words_annotations/FRCHANJJ_JJ061_0160R.json/53/line", 
            "@type": "oa:Annotation", 
            "motivation": "oa:painting", 
            "on": "http://bvmm.irht.cnrs.fr/iiif/23646/canvas/canvas-2282604#xywh=2104,1345,115,79", 
            "resource": {
                "@type": "cnt:ContentAsText", 
                "chars": "VITAM", 
                "format": "text/plain"
            }
        }, 
        {
            "@id": "https://manifests.teklia.com/HIMANIS/JJ061/words_annotations/FRCHANJJ_JJ061_0160R.json/54/line", 
            "@type": "oa:Annotation", 
            "motivation": "oa:painting", 
            "on": "http://bvmm.irht.cnrs.fr/iiif/23646/canvas/canvas-2282604#xywh=33,1310,437,60", 
            "resource": {
                "@type": "cnt:ContentAsText", 
                "chars": "CONVENTUS", 
                "format": "text/plain"
            }
        }, 
        {
            "@id": "https://manifests.teklia.com/HIMANIS/JJ061/words_annotations/FRCHANJJ_JJ061_0160R.json/55/line", 
            "@type": "oa:Annotation", 
            "motivation": "oa:painting", 
            "on": "http://bvmm.irht.cnrs.fr/iiif/23646/canvas/canvas-2282604#xywh=3516,3734,39,15", 
            "resource": {
                "@type": "cnt:ContentAsText", 
                "chars": "DITES", 
                "format": "text/plain"
            }
        }, 
        {
            "@id": "https://manifests.teklia.com/HIMANIS/JJ061/words_annotations/FRCHANJJ_JJ061_0160R.json/56/line", 
            "@type": "oa:Annotation", 
            "motivation": "oa:painting", 
            "on": "http://bvmm.irht.cnrs.fr/iiif/23646/canvas/canvas-2282604#xywh=2046,0,654,156", 
            "resource": {
                "@type": "cnt:ContentAsText", 
                "chars": "DE", 
                "format": "text/plain"
            }
        }, 
        {
            "@id": "https://manifests.teklia.com/HIMANIS/JJ061/words_annotations/FRCHANJJ_JJ061_0160R.json/57/line", 
            "@type": "oa:Annotation", 
            "motivation": "oa:painting", 
            "on": "http://bvmm.irht.cnrs.fr/iiif/23646/canvas/canvas-2282604#xywh=3245,1946,0,93", 
            "resource": {
                "@type": "cnt:ContentAsText", 
                "chars": "J", 
                "format": "text/plain"
            }
        }, 
        {
            "@id": "https://manifests.teklia.com/HIMANIS/JJ061/words_annotations/FRCHANJJ_JJ061_0160R.json/58/line", 
            "@type": "oa:Annotation", 
            "motivation": "oa:painting", 
            "on": "http://bvmm.irht.cnrs.fr/iiif/23646/canvas/canvas-2282604#xywh=2278,1345,40,79", 
            "resource": {
                "@type": "cnt:ContentAsText", 
                "chars": "DICTI", 
                "format": "text/plain"
            }
        }, 
        {
            "@id": "https://manifests.teklia.com/HIMANIS/JJ061/words_annotations/FRCHANJJ_JJ061_0160R.json/59/line", 
            "@type": "oa:Annotation", 
            "motivation": "oa:painting", 
            "on": "http://bvmm.irht.cnrs.fr/iiif/23646/canvas/canvas-2282604#xywh=1181,1345,119,79", 
            "resource": {
                "@type": "cnt:ContentAsText", 
                "chars": "CONNAC", 
                "format": "text/plain"
            }
        }, 
        {
            "@id": "https://manifests.teklia.com/HIMANIS/JJ061/words_annotations/FRCHANJJ_JJ061_0160R.json/60/line", 
            "@type": "oa:Annotation", 
            "motivation": "oa:painting", 
            "on": "http://bvmm.irht.cnrs.fr/iiif/23646/canvas/canvas-2282604#xywh=846,1345,95,79", 
            "resource": {
                "@type": "cnt:ContentAsText", 
                "chars": "CLARIIS", 
                "format": "text/plain"
            }
        }, 
        {
            "@id": "https://manifests.teklia.com/HIMANIS/JJ061/words_annotations/FRCHANJJ_JJ061_0160R.json/61/line", 
            "@type": "oa:Annotation", 
            "motivation": "oa:painting", 
            "on": "http://bvmm.irht.cnrs.fr/iiif/23646/canvas/canvas-2282604#xywh=797,1310,175,60", 
            "resource": {
                "@type": "cnt:ContentAsText", 
                "chars": "MARTINER", 
                "format": "text/plain"
            }
        }, 
        {
            "@id": "https://manifests.teklia.com/HIMANIS/JJ061/words_annotations/FRCHANJJ_JJ061_0160R.json/62/line", 
            "@type": "oa:Annotation", 
            "motivation": "oa:painting", 
            "on": "http://bvmm.irht.cnrs.fr/iiif/23646/canvas/canvas-2282604#xywh=2044,1345,45,79", 
            "resource": {
                "@type": "cnt:ContentAsText", 
                "chars": "AD", 
                "format": "text/plain"
            }
        }, 
        {
            "@id": "https://manifests.teklia.com/HIMANIS/JJ061/words_annotations/FRCHANJJ_JJ061_0160R.json/63/line", 
            "@type": "oa:Annotation", 
            "motivation": "oa:painting", 
            "on": "http://bvmm.irht.cnrs.fr/iiif/23646/canvas/canvas-2282604#xywh=3516,3734,39,15", 
            "resource": {
                "@type": "cnt:ContentAsText", 
                "chars": "DILEC", 
                "format": "text/plain"
            }
        }, 
        {
            "@id": "https://manifests.teklia.com/HIMANIS/JJ061/words_annotations/FRCHANJJ_JJ061_0160R.json/64/line", 
            "@type": "oa:Annotation", 
            "motivation": "oa:painting", 
            "on": "http://bvmm.irht.cnrs.fr/iiif/23646/canvas/canvas-2282604#xywh=1066,1345,95,79", 
            "resource": {
                "@type": "cnt:ContentAsText", 
                "chars": "CURIAM", 
                "format": "text/plain"
            }
        }, 
        {
            "@id": "https://manifests.teklia.com/HIMANIS/JJ061/words_annotations/FRCHANJJ_JJ061_0160R.json/65/line", 
            "@type": "oa:Annotation", 
            "motivation": "oa:painting", 
            "on": "http://bvmm.irht.cnrs.fr/iiif/23646/canvas/canvas-2282604#xywh=1192,1310,122,60", 
            "resource": {
                "@type": "cnt:ContentAsText", 
                "chars": "VENDI", 
                "format": "text/plain"
            }
        }, 
        {
            "@id": "https://manifests.teklia.com/HIMANIS/JJ061/words_annotations/FRCHANJJ_JJ061_0160R.json/66/line", 
            "@type": "oa:Annotation", 
            "motivation": "oa:painting", 
            "on": "http://bvmm.irht.cnrs.fr/iiif/23646/canvas/canvas-2282604#xywh=1839,1345,175,79", 
            "resource": {
                "@type": "cnt:ContentAsText", 
                "chars": "REDDITUS", 
                "format": "text/plain"
            }
        }
    ]
}