{
    "@context": "http://iiif.io/api/presentation/2/context.json", 
    "@id": "https://manifests.teklia.com/HIMANIS/JJ125/words_annotations/FRAN_0021_12021.json", 
    "@type": "sc:AnnotationList", 
    "resources": [
        {
            "@id": "https://manifests.teklia.com/HIMANIS/JJ125/words_annotations/FRAN_0021_12021.json/0/line", 
            "@type": "oa:Annotation", 
            "motivation": "oa:painting", 
            "on": "http://bvmm.irht.cnrs.fr/iiif/23711/canvas/canvas-2310568#xywh=120,793,214,137", 
            "resource": {
                "@type": "cnt:ContentAsText", 
                "chars": "QUINQUE", 
                "format": "text/plain"
            }
        }, 
        {
            "@id": "https://manifests.teklia.com/HIMANIS/JJ125/words_annotations/FRAN_0021_12021.json/1/line", 
            "@type": "oa:Annotation", 
            "motivation": "oa:painting", 
            "on": "http://bvmm.irht.cnrs.fr/iiif/23711/canvas/canvas-2310568#xywh=990,1825,119,238", 
            "resource": {
                "@type": "cnt:ContentAsText", 
                "chars": "JOHAN", 
                "format": "text/plain"
            }
        }, 
        {
            "@id": "https://manifests.teklia.com/HIMANIS/JJ125/words_annotations/FRAN_0021_12021.json/2/line", 
            "@type": "oa:Annotation", 
            "motivation": "oa:painting", 
            "on": "http://bvmm.irht.cnrs.fr/iiif/23711/canvas/canvas-2310568#xywh=1860,1445,172,249", 
            "resource": {
                "@type": "cnt:ContentAsText", 
                "chars": "ORDINIS", 
                "format": "text/plain"
            }
        }, 
        {
            "@id": "https://manifests.teklia.com/HIMANIS/JJ125/words_annotations/FRAN_0021_12021.json/3/line", 
            "@type": "oa:Annotation", 
            "motivation": "oa:painting", 
            "on": "http://bvmm.irht.cnrs.fr/iiif/23711/canvas/canvas-2310568#xywh=120,793,214,137", 
            "resource": {
                "@type": "cnt:ContentAsText", 
                "chars": "QUINQUI", 
                "format": "text/plain"
            }
        }, 
        {
            "@id": "https://manifests.teklia.com/HIMANIS/JJ125/words_annotations/FRAN_0021_12021.json/4/line", 
            "@type": "oa:Annotation", 
            "motivation": "oa:painting", 
            "on": "http://bvmm.irht.cnrs.fr/iiif/23711/canvas/canvas-2310568#xywh=1439,1445,234,249", 
            "resource": {
                "@type": "cnt:ContentAsText", 
                "chars": "LIBERTARUM", 
                "format": "text/plain"
            }
        }, 
        {
            "@id": "https://manifests.teklia.com/HIMANIS/JJ125/words_annotations/FRAN_0021_12021.json/5/line", 
            "@type": "oa:Annotation", 
            "motivation": "oa:painting", 
            "on": "http://bvmm.irht.cnrs.fr/iiif/23711/canvas/canvas-2310568#xywh=567,633,240,116", 
            "resource": {
                "@type": "cnt:ContentAsText", 
                "chars": "REMISSIO", 
                "format": "text/plain"
            }
        }, 
        {
            "@id": "https://manifests.teklia.com/HIMANIS/JJ125/words_annotations/FRAN_0021_12021.json/6/line", 
            "@type": "oa:Annotation", 
            "motivation": "oa:painting", 
            "on": "http://bvmm.irht.cnrs.fr/iiif/23711/canvas/canvas-2310568#xywh=256,957,54,144", 
            "resource": {
                "@type": "cnt:ContentAsText", 
                "chars": "NOSTRUM", 
                "format": "text/plain"
            }
        }, 
        {
            "@id": "https://manifests.teklia.com/HIMANIS/JJ125/words_annotations/FRAN_0021_12021.json/7/line", 
            "@type": "oa:Annotation", 
            "motivation": "oa:painting", 
            "on": "http://bvmm.irht.cnrs.fr/iiif/23711/canvas/canvas-2310568#xywh=1302,957,135,144", 
            "resource": {
                "@type": "cnt:ContentAsText", 
                "chars": "HELIERE", 
                "format": "text/plain"
            }
        }, 
        {
            "@id": "https://manifests.teklia.com/HIMANIS/JJ125/words_annotations/FRAN_0021_12021.json/8/line", 
            "@type": "oa:Annotation", 
            "motivation": "oa:painting", 
            "on": "http://bvmm.irht.cnrs.fr/iiif/23711/canvas/canvas-2310568#xywh=256,957,54,144", 
            "resource": {
                "@type": "cnt:ContentAsText", 
                "chars": "NOSTRIS", 
                "format": "text/plain"
            }
        }, 
        {
            "@id": "https://manifests.teklia.com/HIMANIS/JJ125/words_annotations/FRAN_0021_12021.json/9/line", 
            "@type": "oa:Annotation", 
            "motivation": "oa:painting", 
            "on": "http://bvmm.irht.cnrs.fr/iiif/23711/canvas/canvas-2310568#xywh=968,1658,248,124", 
            "resource": {
                "@type": "cnt:ContentAsText", 
                "chars": "ABSOLUCIONEM", 
                "format": "text/plain"
            }
        }, 
        {
            "@id": "https://manifests.teklia.com/HIMANIS/JJ125/words_annotations/FRAN_0021_12021.json/10/line", 
            "@type": "oa:Annotation", 
            "motivation": "oa:painting", 
            "on": "http://bvmm.irht.cnrs.fr/iiif/23711/canvas/canvas-2310568#xywh=319,957,171,144", 
            "resource": {
                "@type": "cnt:ContentAsText", 
                "chars": "NOSTRE", 
                "format": "text/plain"
            }
        }, 
        {
            "@id": "https://manifests.teklia.com/HIMANIS/JJ125/words_annotations/FRAN_0021_12021.json/11/line", 
            "@type": "oa:Annotation", 
            "motivation": "oa:painting", 
            "on": "http://bvmm.irht.cnrs.fr/iiif/23711/canvas/canvas-2310568#xywh=968,1658,248,124", 
            "resource": {
                "@type": "cnt:ContentAsText", 
                "chars": "ABSOLUCIONIS", 
                "format": "text/plain"
            }
        }, 
        {
            "@id": "https://manifests.teklia.com/HIMANIS/JJ125/words_annotations/FRAN_0021_12021.json/12/line", 
            "@type": "oa:Annotation", 
            "motivation": "oa:painting", 
            "on": "http://bvmm.irht.cnrs.fr/iiif/23711/canvas/canvas-2310568#xywh=319,957,135,144", 
            "resource": {
                "@type": "cnt:ContentAsText", 
                "chars": "NOSTRI", 
                "format": "text/plain"
            }
        }, 
        {
            "@id": "https://manifests.teklia.com/HIMANIS/JJ125/words_annotations/FRAN_0021_12021.json/13/line", 
            "@type": "oa:Annotation", 
            "motivation": "oa:painting", 
            "on": "http://bvmm.irht.cnrs.fr/iiif/23711/canvas/canvas-2310568#xywh=595,1658,342,124", 
            "resource": {
                "@type": "cnt:ContentAsText", 
                "chars": "CONFIRMATION", 
                "format": "text/plain"
            }
        }, 
        {
            "@id": "https://manifests.teklia.com/HIMANIS/JJ125/words_annotations/FRAN_0021_12021.json/14/line", 
            "@type": "oa:Annotation", 
            "motivation": "oa:painting", 
            "on": "http://bvmm.irht.cnrs.fr/iiif/23711/canvas/canvas-2310568#xywh=581,712,233,143", 
            "resource": {
                "@type": "cnt:ContentAsText", 
                "chars": "REMISSIS", 
                "format": "text/plain"
            }
        }, 
        {
            "@id": "https://manifests.teklia.com/HIMANIS/JJ125/words_annotations/FRAN_0021_12021.json/15/line", 
            "@type": "oa:Annotation", 
            "motivation": "oa:painting", 
            "on": "http://bvmm.irht.cnrs.fr/iiif/23711/canvas/canvas-2310568#xywh=1387,1658,241,124", 
            "resource": {
                "@type": "cnt:ContentAsText", 
                "chars": "REMONDI", 
                "format": "text/plain"
            }
        }, 
        {
            "@id": "https://manifests.teklia.com/HIMANIS/JJ125/words_annotations/FRAN_0021_12021.json/16/line", 
            "@type": "oa:Annotation", 
            "motivation": "oa:painting", 
            "on": "http://bvmm.irht.cnrs.fr/iiif/23711/canvas/canvas-2310568#xywh=948,525,334,172", 
            "resource": {
                "@type": "cnt:ContentAsText", 
                "chars": "PRIVILEGIORUM", 
                "format": "text/plain"
            }
        }, 
        {
            "@id": "https://manifests.teklia.com/HIMANIS/JJ125/words_annotations/FRAN_0021_12021.json/17/line", 
            "@type": "oa:Annotation", 
            "motivation": "oa:painting", 
            "on": "http://bvmm.irht.cnrs.fr/iiif/23711/canvas/canvas-2310568#xywh=1468,1173,280,263", 
            "resource": {
                "@type": "cnt:ContentAsText", 
                "chars": "DEDITAGIORUM", 
                "format": "text/plain"
            }
        }, 
        {
            "@id": "https://manifests.teklia.com/HIMANIS/JJ125/words_annotations/FRAN_0021_12021.json/18/line", 
            "@type": "oa:Annotation", 
            "motivation": "oa:painting", 
            "on": "http://bvmm.irht.cnrs.fr/iiif/23711/canvas/canvas-2310568#xywh=245,1658,179,124", 
            "resource": {
                "@type": "cnt:ContentAsText", 
                "chars": "XXII", 
                "format": "text/plain"
            }
        }, 
        {
            "@id": "https://manifests.teklia.com/HIMANIS/JJ125/words_annotations/FRAN_0021_12021.json/19/line", 
            "@type": "oa:Annotation", 
            "motivation": "oa:painting", 
            "on": "http://bvmm.irht.cnrs.fr/iiif/23711/canvas/canvas-2310568#xywh=245,1658,218,124", 
            "resource": {
                "@type": "cnt:ContentAsText", 
                "chars": "XXIJ", 
                "format": "text/plain"
            }
        }, 
        {
            "@id": "https://manifests.teklia.com/HIMANIS/JJ125/words_annotations/FRAN_0021_12021.json/20/line", 
            "@type": "oa:Annotation", 
            "motivation": "oa:painting", 
            "on": "http://bvmm.irht.cnrs.fr/iiif/23711/canvas/canvas-2310568#xywh=2297,1445,359,249", 
            "resource": {
                "@type": "cnt:ContentAsText", 
                "chars": "PRESENTUM", 
                "format": "text/plain"
            }
        }, 
        {
            "@id": "https://manifests.teklia.com/HIMANIS/JJ125/words_annotations/FRAN_0021_12021.json/21/line", 
            "@type": "oa:Annotation", 
            "motivation": "oa:painting", 
            "on": "http://bvmm.irht.cnrs.fr/iiif/23711/canvas/canvas-2310568#xywh=2297,1445,359,249", 
            "resource": {
                "@type": "cnt:ContentAsText", 
                "chars": "PRESENTEM", 
                "format": "text/plain"
            }
        }, 
        {
            "@id": "https://manifests.teklia.com/HIMANIS/JJ125/words_annotations/FRAN_0021_12021.json/22/line", 
            "@type": "oa:Annotation", 
            "motivation": "oa:painting", 
            "on": "http://bvmm.irht.cnrs.fr/iiif/23711/canvas/canvas-2310568#xywh=843,633,73,116", 
            "resource": {
                "@type": "cnt:ContentAsText", 
                "chars": "PRO", 
                "format": "text/plain"
            }
        }, 
        {
            "@id": "https://manifests.teklia.com/HIMANIS/JJ125/words_annotations/FRAN_0021_12021.json/23/line", 
            "@type": "oa:Annotation", 
            "motivation": "oa:painting", 
            "on": "http://bvmm.irht.cnrs.fr/iiif/23711/canvas/canvas-2310568#xywh=2771,3943,54,45", 
            "resource": {
                "@type": "cnt:ContentAsText", 
                "chars": "LA", 
                "format": "text/plain"
            }
        }, 
        {
            "@id": "https://manifests.teklia.com/HIMANIS/JJ125/words_annotations/FRAN_0021_12021.json/24/line", 
            "@type": "oa:Annotation", 
            "motivation": "oa:painting", 
            "on": "http://bvmm.irht.cnrs.fr/iiif/23711/canvas/canvas-2310568#xywh=580,1445,328,249", 
            "resource": {
                "@type": "cnt:ContentAsText", 
                "chars": "CONFIRMATO", 
                "format": "text/plain"
            }
        }, 
        {
            "@id": "https://manifests.teklia.com/HIMANIS/JJ125/words_annotations/FRAN_0021_12021.json/25/line", 
            "@type": "oa:Annotation", 
            "motivation": "oa:painting", 
            "on": "http://bvmm.irht.cnrs.fr/iiif/23711/canvas/canvas-2310568#xywh=2714,3943,37,45", 
            "resource": {
                "@type": "cnt:ContentAsText", 
                "chars": "DE", 
                "format": "text/plain"
            }
        }, 
        {
            "@id": "https://manifests.teklia.com/HIMANIS/JJ125/words_annotations/FRAN_0021_12021.json/26/line", 
            "@type": "oa:Annotation", 
            "motivation": "oa:painting", 
            "on": "http://bvmm.irht.cnrs.fr/iiif/23711/canvas/canvas-2310568#xywh=1439,1445,234,249", 
            "resource": {
                "@type": "cnt:ContentAsText", 
                "chars": "LIBERTATUM", 
                "format": "text/plain"
            }
        }, 
        {
            "@id": "https://manifests.teklia.com/HIMANIS/JJ125/words_annotations/FRAN_0021_12021.json/27/line", 
            "@type": "oa:Annotation", 
            "motivation": "oa:painting", 
            "on": "http://bvmm.irht.cnrs.fr/iiif/23711/canvas/canvas-2310568#xywh=1996,1126,100,144", 
            "resource": {
                "@type": "cnt:ContentAsText", 
                "chars": "FACTA", 
                "format": "text/plain"
            }
        }, 
        {
            "@id": "https://manifests.teklia.com/HIMANIS/JJ125/words_annotations/FRAN_0021_12021.json/28/line", 
            "@type": "oa:Annotation", 
            "motivation": "oa:painting", 
            "on": "http://bvmm.irht.cnrs.fr/iiif/23711/canvas/canvas-2310568#xywh=940,1173,297,263", 
            "resource": {
                "@type": "cnt:ContentAsText", 
                "chars": "QUONDANTURIS", 
                "format": "text/plain"
            }
        }, 
        {
            "@id": "https://manifests.teklia.com/HIMANIS/JJ125/words_annotations/FRAN_0021_12021.json/29/line", 
            "@type": "oa:Annotation", 
            "motivation": "oa:painting", 
            "on": "http://bvmm.irht.cnrs.fr/iiif/23711/canvas/canvas-2310568#xywh=1271,1044,216,150", 
            "resource": {
                "@type": "cnt:ContentAsText", 
                "chars": "RELIGIOSIS", 
                "format": "text/plain"
            }
        }, 
        {
            "@id": "https://manifests.teklia.com/HIMANIS/JJ125/words_annotations/FRAN_0021_12021.json/30/line", 
            "@type": "oa:Annotation", 
            "motivation": "oa:painting", 
            "on": "http://bvmm.irht.cnrs.fr/iiif/23711/canvas/canvas-2310568#xywh=1599,1044,94,150", 
            "resource": {
                "@type": "cnt:ContentAsText", 
                "chars": "PETRI", 
                "format": "text/plain"
            }
        }, 
        {
            "@id": "https://manifests.teklia.com/HIMANIS/JJ125/words_annotations/FRAN_0021_12021.json/31/line", 
            "@type": "oa:Annotation", 
            "motivation": "oa:painting", 
            "on": "http://bvmm.irht.cnrs.fr/iiif/23711/canvas/canvas-2310568#xywh=841,712,89,143", 
            "resource": {
                "@type": "cnt:ContentAsText", 
                "chars": "PRO", 
                "format": "text/plain"
            }
        }, 
        {
            "@id": "https://manifests.teklia.com/HIMANIS/JJ125/words_annotations/FRAN_0021_12021.json/32/line", 
            "@type": "oa:Annotation", 
            "motivation": "oa:painting", 
            "on": "http://bvmm.irht.cnrs.fr/iiif/23711/canvas/canvas-2310568#xywh=1374,1392,24,128", 
            "resource": {
                "@type": "cnt:ContentAsText", 
                "chars": "ET", 
                "format": "text/plain"
            }
        }, 
        {
            "@id": "https://manifests.teklia.com/HIMANIS/JJ125/words_annotations/FRAN_0021_12021.json/33/line", 
            "@type": "oa:Annotation", 
            "motivation": "oa:painting", 
            "on": "http://bvmm.irht.cnrs.fr/iiif/23711/canvas/canvas-2310568#xywh=939,712,251,143", 
            "resource": {
                "@type": "cnt:ContentAsText", 
                "chars": "MICHIELE", 
                "format": "text/plain"
            }
        }, 
        {
            "@id": "https://manifests.teklia.com/HIMANIS/JJ125/words_annotations/FRAN_0021_12021.json/34/line", 
            "@type": "oa:Annotation", 
            "motivation": "oa:painting", 
            "on": "http://bvmm.irht.cnrs.fr/iiif/23711/canvas/canvas-2310568#xywh=1414,1392,32,128", 
            "resource": {
                "@type": "cnt:ContentAsText", 
                "chars": "EX", 
                "format": "text/plain"
            }
        }, 
        {
            "@id": "https://manifests.teklia.com/HIMANIS/JJ125/words_annotations/FRAN_0021_12021.json/35/line", 
            "@type": "oa:Annotation", 
            "motivation": "oa:painting", 
            "on": "http://bvmm.irht.cnrs.fr/iiif/23711/canvas/canvas-2310568#xywh=120,678,253,86", 
            "resource": {
                "@type": "cnt:ContentAsText", 
                "chars": "DIX", 
                "format": "text/plain"
            }
        }, 
        {
            "@id": "https://manifests.teklia.com/HIMANIS/JJ125/words_annotations/FRAN_0021_12021.json/36/line", 
            "@type": "oa:Annotation", 
            "motivation": "oa:painting", 
            "on": "http://bvmm.irht.cnrs.fr/iiif/23711/canvas/canvas-2310568#xywh=1704,1445,125,249", 
            "resource": {
                "@type": "cnt:ContentAsText", 
                "chars": "FACTUM", 
                "format": "text/plain"
            }
        }, 
        {
            "@id": "https://manifests.teklia.com/HIMANIS/JJ125/words_annotations/FRAN_0021_12021.json/37/line", 
            "@type": "oa:Annotation", 
            "motivation": "oa:painting", 
            "on": "http://bvmm.irht.cnrs.fr/iiif/23711/canvas/canvas-2310568#xywh=995,957,279,144", 
            "resource": {
                "@type": "cnt:ContentAsText", 
                "chars": "GUILLERMO", 
                "format": "text/plain"
            }
        }, 
        {
            "@id": "https://manifests.teklia.com/HIMANIS/JJ125/words_annotations/FRAN_0021_12021.json/38/line", 
            "@type": "oa:Annotation", 
            "motivation": "oa:painting", 
            "on": "http://bvmm.irht.cnrs.fr/iiif/23711/canvas/canvas-2310568#xywh=127,1445,156,249", 
            "resource": {
                "@type": "cnt:ContentAsText", 
                "chars": "IN", 
                "format": "text/plain"
            }
        }, 
        {
            "@id": "https://manifests.teklia.com/HIMANIS/JJ125/words_annotations/FRAN_0021_12021.json/39/line", 
            "@type": "oa:Annotation", 
            "motivation": "oa:painting", 
            "on": "http://bvmm.irht.cnrs.fr/iiif/23711/canvas/canvas-2310568#xywh=1462,1126,145,144", 
            "resource": {
                "@type": "cnt:ContentAsText", 
                "chars": "DECAN", 
                "format": "text/plain"
            }
        }, 
        {
            "@id": "https://manifests.teklia.com/HIMANIS/JJ125/words_annotations/FRAN_0021_12021.json/40/line", 
            "@type": "oa:Annotation", 
            "motivation": "oa:painting", 
            "on": "http://bvmm.irht.cnrs.fr/iiif/23711/canvas/canvas-2310568#xywh=1712,1044,244,150", 
            "resource": {
                "@type": "cnt:ContentAsText", 
                "chars": "BARTHOLENTIUM", 
                "format": "text/plain"
            }
        }, 
        {
            "@id": "https://manifests.teklia.com/HIMANIS/JJ125/words_annotations/FRAN_0021_12021.json/41/line", 
            "@type": "oa:Annotation", 
            "motivation": "oa:painting", 
            "on": "http://bvmm.irht.cnrs.fr/iiif/23711/canvas/canvas-2310568#xywh=310,884,144,135", 
            "resource": {
                "@type": "cnt:ContentAsText", 
                "chars": "PONI", 
                "format": "text/plain"
            }
        }, 
        {
            "@id": "https://manifests.teklia.com/HIMANIS/JJ125/words_annotations/FRAN_0021_12021.json/42/line", 
            "@type": "oa:Annotation", 
            "motivation": "oa:painting", 
            "on": "http://bvmm.irht.cnrs.fr/iiif/23711/canvas/canvas-2310568#xywh=1271,712,161,143", 
            "resource": {
                "@type": "cnt:ContentAsText", 
                "chars": "LETTRE", 
                "format": "text/plain"
            }
        }, 
        {
            "@id": "https://manifests.teklia.com/HIMANIS/JJ125/words_annotations/FRAN_0021_12021.json/43/line", 
            "@type": "oa:Annotation", 
            "motivation": "oa:painting", 
            "on": "http://bvmm.irht.cnrs.fr/iiif/23711/canvas/canvas-2310568#xywh=1712,1044,244,150", 
            "resource": {
                "@type": "cnt:ContentAsText", 
                "chars": "BARTHOLINSIUM", 
                "format": "text/plain"
            }
        }, 
        {
            "@id": "https://manifests.teklia.com/HIMANIS/JJ125/words_annotations/FRAN_0021_12021.json/44/line", 
            "@type": "oa:Annotation", 
            "motivation": "oa:painting", 
            "on": "http://bvmm.irht.cnrs.fr/iiif/23711/canvas/canvas-2310568#xywh=1208,712,36,143", 
            "resource": {
                "@type": "cnt:ContentAsText", 
                "chars": "DE", 
                "format": "text/plain"
            }
        }, 
        {
            "@id": "https://manifests.teklia.com/HIMANIS/JJ125/words_annotations/FRAN_0021_12021.json/45/line", 
            "@type": "oa:Annotation", 
            "motivation": "oa:painting", 
            "on": "http://bvmm.irht.cnrs.fr/iiif/23711/canvas/canvas-2310568#xywh=596,1392,216,128", 
            "resource": {
                "@type": "cnt:ContentAsText", 
                "chars": "REMISSIS", 
                "format": "text/plain"
            }
        }, 
        {
            "@id": "https://manifests.teklia.com/HIMANIS/JJ125/words_annotations/FRAN_0021_12021.json/46/line", 
            "@type": "oa:Annotation", 
            "motivation": "oa:painting", 
            "on": "http://bvmm.irht.cnrs.fr/iiif/23711/canvas/canvas-2310568#xywh=583,1747,254,109", 
            "resource": {
                "@type": "cnt:ContentAsText", 
                "chars": "NOLLICATO", 
                "format": "text/plain"
            }
        }, 
        {
            "@id": "https://manifests.teklia.com/HIMANIS/JJ125/words_annotations/FRAN_0021_12021.json/47/line", 
            "@type": "oa:Annotation", 
            "motivation": "oa:painting", 
            "on": "http://bvmm.irht.cnrs.fr/iiif/23711/canvas/canvas-2310568#xywh=1468,1173,280,263", 
            "resource": {
                "@type": "cnt:ContentAsText", 
                "chars": "DUDITAGIORUM", 
                "format": "text/plain"
            }
        }, 
        {
            "@id": "https://manifests.teklia.com/HIMANIS/JJ125/words_annotations/FRAN_0021_12021.json/48/line", 
            "@type": "oa:Annotation", 
            "motivation": "oa:painting", 
            "on": "http://bvmm.irht.cnrs.fr/iiif/23711/canvas/canvas-2310568#xywh=2325,1173,182,263", 
            "resource": {
                "@type": "cnt:ContentAsText", 
                "chars": "JOHANNIS", 
                "format": "text/plain"
            }
        }, 
        {
            "@id": "https://manifests.teklia.com/HIMANIS/JJ125/words_annotations/FRAN_0021_12021.json/49/line", 
            "@type": "oa:Annotation", 
            "motivation": "oa:painting", 
            "on": "http://bvmm.irht.cnrs.fr/iiif/23711/canvas/canvas-2310568#xywh=827,1825,104,238", 
            "resource": {
                "@type": "cnt:ContentAsText", 
                "chars": "PRO", 
                "format": "text/plain"
            }
        }, 
        {
            "@id": "https://manifests.teklia.com/HIMANIS/JJ125/words_annotations/FRAN_0021_12021.json/50/line", 
            "@type": "oa:Annotation", 
            "motivation": "oa:painting", 
            "on": "http://bvmm.irht.cnrs.fr/iiif/23711/canvas/canvas-2310568#xywh=995,957,289,144", 
            "resource": {
                "@type": "cnt:ContentAsText", 
                "chars": "GUILLERINO", 
                "format": "text/plain"
            }
        }, 
        {
            "@id": "https://manifests.teklia.com/HIMANIS/JJ125/words_annotations/FRAN_0021_12021.json/51/line", 
            "@type": "oa:Annotation", 
            "motivation": "oa:painting", 
            "on": "http://bvmm.irht.cnrs.fr/iiif/23711/canvas/canvas-2310568#xywh=2111,1173,115,263", 
            "resource": {
                "@type": "cnt:ContentAsText", 
                "chars": "JURIS", 
                "format": "text/plain"
            }
        }, 
        {
            "@id": "https://manifests.teklia.com/HIMANIS/JJ125/words_annotations/FRAN_0021_12021.json/52/line", 
            "@type": "oa:Annotation", 
            "motivation": "oa:painting", 
            "on": "http://bvmm.irht.cnrs.fr/iiif/23711/canvas/canvas-2310568#xywh=132,1126,199,144", 
            "resource": {
                "@type": "cnt:ContentAsText", 
                "chars": "NUS", 
                "format": "text/plain"
            }
        }, 
        {
            "@id": "https://manifests.teklia.com/HIMANIS/JJ125/words_annotations/FRAN_0021_12021.json/53/line", 
            "@type": "oa:Annotation", 
            "motivation": "oa:painting", 
            "on": "http://bvmm.irht.cnrs.fr/iiif/23711/canvas/canvas-2310568#xywh=2573,1173,132,263", 
            "resource": {
                "@type": "cnt:ContentAsText", 
                "chars": "VOSES", 
                "format": "text/plain"
            }
        }, 
        {
            "@id": "https://manifests.teklia.com/HIMANIS/JJ125/words_annotations/FRAN_0021_12021.json/54/line", 
            "@type": "oa:Annotation", 
            "motivation": "oa:painting", 
            "on": "http://bvmm.irht.cnrs.fr/iiif/23711/canvas/canvas-2310568#xywh=351,793,215,137", 
            "resource": {
                "@type": "cnt:ContentAsText", 
                "chars": "PRIS", 
                "format": "text/plain"
            }
        }, 
        {
            "@id": "https://manifests.teklia.com/HIMANIS/JJ125/words_annotations/FRAN_0021_12021.json/55/line", 
            "@type": "oa:Annotation", 
            "motivation": "oa:painting", 
            "on": "http://bvmm.irht.cnrs.fr/iiif/23711/canvas/canvas-2310568#xywh=127,1445,281,249", 
            "resource": {
                "@type": "cnt:ContentAsText", 
                "chars": "NOSTRO", 
                "format": "text/plain"
            }
        }, 
        {
            "@id": "https://manifests.teklia.com/HIMANIS/JJ125/words_annotations/FRAN_0021_12021.json/56/line", 
            "@type": "oa:Annotation", 
            "motivation": "oa:painting", 
            "on": "http://bvmm.irht.cnrs.fr/iiif/23711/canvas/canvas-2310568#xywh=578,1173,313,263", 
            "resource": {
                "@type": "cnt:ContentAsText", 
                "chars": "CONFIRMANT", 
                "format": "text/plain"
            }
        }, 
        {
            "@id": "https://manifests.teklia.com/HIMANIS/JJ125/words_annotations/FRAN_0021_12021.json/57/line", 
            "@type": "oa:Annotation", 
            "motivation": "oa:painting", 
            "on": "http://bvmm.irht.cnrs.fr/iiif/23711/canvas/canvas-2310568#xywh=2125,1445,157,249", 
            "resource": {
                "@type": "cnt:ContentAsText", 
                "chars": "PHILIPPES", 
                "format": "text/plain"
            }
        }, 
        {
            "@id": "https://manifests.teklia.com/HIMANIS/JJ125/words_annotations/FRAN_0021_12021.json/58/line", 
            "@type": "oa:Annotation", 
            "motivation": "oa:painting", 
            "on": "http://bvmm.irht.cnrs.fr/iiif/23711/canvas/canvas-2310568#xywh=1468,1173,280,263", 
            "resource": {
                "@type": "cnt:ContentAsText", 
                "chars": "DEDITARIORUM", 
                "format": "text/plain"
            }
        }, 
        {
            "@id": "https://manifests.teklia.com/HIMANIS/JJ125/words_annotations/FRAN_0021_12021.json/59/line", 
            "@type": "oa:Annotation", 
            "motivation": "oa:painting", 
            "on": "http://bvmm.irht.cnrs.fr/iiif/23711/canvas/canvas-2310568#xywh=1517,2080,63,100", 
            "resource": {
                "@type": "cnt:ContentAsText", 
                "chars": "EST", 
                "format": "text/plain"
            }
        }, 
        {
            "@id": "https://manifests.teklia.com/HIMANIS/JJ125/words_annotations/FRAN_0021_12021.json/60/line", 
            "@type": "oa:Annotation", 
            "motivation": "oa:painting", 
            "on": "http://bvmm.irht.cnrs.fr/iiif/23711/canvas/canvas-2310568#xywh=1431,4525,2526,263", 
            "resource": {
                "@type": "cnt:ContentAsText", 
                "chars": "LA", 
                "format": "text/plain"
            }
        }, 
        {
            "@id": "https://manifests.teklia.com/HIMANIS/JJ125/words_annotations/FRAN_0021_12021.json/61/line", 
            "@type": "oa:Annotation", 
            "motivation": "oa:painting", 
            "on": "http://bvmm.irht.cnrs.fr/iiif/23711/canvas/canvas-2310568#xywh=140,884,212,135", 
            "resource": {
                "@type": "cnt:ContentAsText", 
                "chars": "MISSIS", 
                "format": "text/plain"
            }
        }, 
        {
            "@id": "https://manifests.teklia.com/HIMANIS/JJ125/words_annotations/FRAN_0021_12021.json/62/line", 
            "@type": "oa:Annotation", 
            "motivation": "oa:painting", 
            "on": "http://bvmm.irht.cnrs.fr/iiif/23711/canvas/canvas-2310568#xywh=3252,4525,705,263", 
            "resource": {
                "@type": "cnt:ContentAsText", 
                "chars": "LE", 
                "format": "text/plain"
            }
        }, 
        {
            "@id": "https://manifests.teklia.com/HIMANIS/JJ125/words_annotations/FRAN_0021_12021.json/63/line", 
            "@type": "oa:Annotation", 
            "motivation": "oa:painting", 
            "on": "http://bvmm.irht.cnrs.fr/iiif/23711/canvas/canvas-2310568#xywh=1431,4525,1821,263", 
            "resource": {
                "@type": "cnt:ContentAsText", 
                "chars": "DE", 
                "format": "text/plain"
            }
        }, 
        {
            "@id": "https://manifests.teklia.com/HIMANIS/JJ125/words_annotations/FRAN_0021_12021.json/64/line", 
            "@type": "oa:Annotation", 
            "motivation": "oa:painting", 
            "on": "http://bvmm.irht.cnrs.fr/iiif/23711/canvas/canvas-2310568#xywh=2366,158,1687,176", 
            "resource": {
                "@type": "cnt:ContentAsText", 
                "chars": "DITE", 
                "format": "text/plain"
            }
        }, 
        {
            "@id": "https://manifests.teklia.com/HIMANIS/JJ125/words_annotations/FRAN_0021_12021.json/65/line", 
            "@type": "oa:Annotation", 
            "motivation": "oa:painting", 
            "on": "http://bvmm.irht.cnrs.fr/iiif/23711/canvas/canvas-2310568#xywh=351,793,78,137", 
            "resource": {
                "@type": "cnt:ContentAsText", 
                "chars": "PRI", 
                "format": "text/plain"
            }
        }, 
        {
            "@id": "https://manifests.teklia.com/HIMANIS/JJ125/words_annotations/FRAN_0021_12021.json/66/line", 
            "@type": "oa:Annotation", 
            "motivation": "oa:painting", 
            "on": "http://bvmm.irht.cnrs.fr/iiif/23711/canvas/canvas-2310568#xywh=858,793,86,137", 
            "resource": {
                "@type": "cnt:ContentAsText", 
                "chars": "PRO", 
                "format": "text/plain"
            }
        }, 
        {
            "@id": "https://manifests.teklia.com/HIMANIS/JJ125/words_annotations/FRAN_0021_12021.json/67/line", 
            "@type": "oa:Annotation", 
            "motivation": "oa:painting", 
            "on": "http://bvmm.irht.cnrs.fr/iiif/23711/canvas/canvas-2310568#xywh=1462,1126,37,144", 
            "resource": {
                "@type": "cnt:ContentAsText", 
                "chars": "DE", 
                "format": "text/plain"
            }
        }, 
        {
            "@id": "https://manifests.teklia.com/HIMANIS/JJ125/words_annotations/FRAN_0021_12021.json/68/line", 
            "@type": "oa:Annotation", 
            "motivation": "oa:painting", 
            "on": "http://bvmm.irht.cnrs.fr/iiif/23711/canvas/canvas-2310568#xywh=940,1173,297,263", 
            "resource": {
                "@type": "cnt:ContentAsText", 
                "chars": "QUONDATIONIS", 
                "format": "text/plain"
            }
        }, 
        {
            "@id": "https://manifests.teklia.com/HIMANIS/JJ125/words_annotations/FRAN_0021_12021.json/69/line", 
            "@type": "oa:Annotation", 
            "motivation": "oa:painting", 
            "on": "http://bvmm.irht.cnrs.fr/iiif/23711/canvas/canvas-2310568#xywh=2714,3943,49,45", 
            "resource": {
                "@type": "cnt:ContentAsText", 
                "chars": "ET", 
                "format": "text/plain"
            }
        }, 
        {
            "@id": "https://manifests.teklia.com/HIMANIS/JJ125/words_annotations/FRAN_0021_12021.json/70/line", 
            "@type": "oa:Annotation", 
            "motivation": "oa:painting", 
            "on": "http://bvmm.irht.cnrs.fr/iiif/23711/canvas/canvas-2310568#xywh=120,678,242,86", 
            "resource": {
                "@type": "cnt:ContentAsText", 
                "chars": "XX", 
                "format": "text/plain"
            }
        }, 
        {
            "@id": "https://manifests.teklia.com/HIMANIS/JJ125/words_annotations/FRAN_0021_12021.json/71/line", 
            "@type": "oa:Annotation", 
            "motivation": "oa:painting", 
            "on": "http://bvmm.irht.cnrs.fr/iiif/23711/canvas/canvas-2310568#xywh=363,1392,64,128", 
            "resource": {
                "@type": "cnt:ContentAsText", 
                "chars": "RIO", 
                "format": "text/plain"
            }
        }, 
        {
            "@id": "https://manifests.teklia.com/HIMANIS/JJ125/words_annotations/FRAN_0021_12021.json/72/line", 
            "@type": "oa:Annotation", 
            "motivation": "oa:painting", 
            "on": "http://bvmm.irht.cnrs.fr/iiif/23711/canvas/canvas-2310568#xywh=583,1747,254,109", 
            "resource": {
                "@type": "cnt:ContentAsText", 
                "chars": "NOLLITATO", 
                "format": "text/plain"
            }
        }, 
        {
            "@id": "https://manifests.teklia.com/HIMANIS/JJ125/words_annotations/FRAN_0021_12021.json/73/line", 
            "@type": "oa:Annotation", 
            "motivation": "oa:painting", 
            "on": "http://bvmm.irht.cnrs.fr/iiif/23711/canvas/canvas-2310568#xywh=865,1747,199,109", 
            "resource": {
                "@type": "cnt:ContentAsText", 
                "chars": "GUILLELMI", 
                "format": "text/plain"
            }
        }, 
        {
            "@id": "https://manifests.teklia.com/HIMANIS/JJ125/words_annotations/FRAN_0021_12021.json/74/line", 
            "@type": "oa:Annotation", 
            "motivation": "oa:painting", 
            "on": "http://bvmm.irht.cnrs.fr/iiif/23711/canvas/canvas-2310568#xywh=162,525,377,172", 
            "resource": {
                "@type": "cnt:ContentAsText", 
                "chars": "SIR", 
                "format": "text/plain"
            }
        }, 
        {
            "@id": "https://manifests.teklia.com/HIMANIS/JJ125/words_annotations/FRAN_0021_12021.json/75/line", 
            "@type": "oa:Annotation", 
            "motivation": "oa:painting", 
            "on": "http://bvmm.irht.cnrs.fr/iiif/23711/canvas/canvas-2310568#xywh=957,1392,192,128", 
            "resource": {
                "@type": "cnt:ContentAsText", 
                "chars": "JOHANNE", 
                "format": "text/plain"
            }
        }, 
        {
            "@id": "https://manifests.teklia.com/HIMANIS/JJ125/words_annotations/FRAN_0021_12021.json/76/line", 
            "@type": "oa:Annotation", 
            "motivation": "oa:painting", 
            "on": "http://bvmm.irht.cnrs.fr/iiif/23711/canvas/canvas-2310568#xywh=2325,1173,165,263", 
            "resource": {
                "@type": "cnt:ContentAsText", 
                "chars": "JOHANNI", 
                "format": "text/plain"
            }
        }, 
        {
            "@id": "https://manifests.teklia.com/HIMANIS/JJ125/words_annotations/FRAN_0021_12021.json/77/line", 
            "@type": "oa:Annotation", 
            "motivation": "oa:painting", 
            "on": "http://bvmm.irht.cnrs.fr/iiif/23711/canvas/canvas-2310568#xywh=144,1825,371,238", 
            "resource": {
                "@type": "cnt:ContentAsText", 
                "chars": "VISCOPI", 
                "format": "text/plain"
            }
        }, 
        {
            "@id": "https://manifests.teklia.com/HIMANIS/JJ125/words_annotations/FRAN_0021_12021.json/78/line", 
            "@type": "oa:Annotation", 
            "motivation": "oa:painting", 
            "on": "http://bvmm.irht.cnrs.fr/iiif/23711/canvas/canvas-2310568#xywh=261,1747,219,109", 
            "resource": {
                "@type": "cnt:ContentAsText", 
                "chars": "XXIIII", 
                "format": "text/plain"
            }
        }, 
        {
            "@id": "https://manifests.teklia.com/HIMANIS/JJ125/words_annotations/FRAN_0021_12021.json/79/line", 
            "@type": "oa:Annotation", 
            "motivation": "oa:painting", 
            "on": "http://bvmm.irht.cnrs.fr/iiif/23711/canvas/canvas-2310568#xywh=322,1044,94,150", 
            "resource": {
                "@type": "cnt:ContentAsText", 
                "chars": "IBI", 
                "format": "text/plain"
            }
        }, 
        {
            "@id": "https://manifests.teklia.com/HIMANIS/JJ125/words_annotations/FRAN_0021_12021.json/80/line", 
            "@type": "oa:Annotation", 
            "motivation": "oa:painting", 
            "on": "http://bvmm.irht.cnrs.fr/iiif/23711/canvas/canvas-2310568#xywh=1110,1126,208,144", 
            "resource": {
                "@type": "cnt:ContentAsText", 
                "chars": "HOSPITUR", 
                "format": "text/plain"
            }
        }, 
        {
            "@id": "https://manifests.teklia.com/HIMANIS/JJ125/words_annotations/FRAN_0021_12021.json/81/line", 
            "@type": "oa:Annotation", 
            "motivation": "oa:painting", 
            "on": "http://bvmm.irht.cnrs.fr/iiif/23711/canvas/canvas-2310568#xywh=1169,1825,163,238", 
            "resource": {
                "@type": "cnt:ContentAsText", 
                "chars": "BA", 
                "format": "text/plain"
            }
        }, 
        {
            "@id": "https://manifests.teklia.com/HIMANIS/JJ125/words_annotations/FRAN_0021_12021.json/82/line", 
            "@type": "oa:Annotation", 
            "motivation": "oa:painting", 
            "on": "http://bvmm.irht.cnrs.fr/iiif/23711/canvas/canvas-2310568#xywh=1414,1392,209,128", 
            "resource": {
                "@type": "cnt:ContentAsText", 
                "chars": "UXORE", 
                "format": "text/plain"
            }
        }, 
        {
            "@id": "https://manifests.teklia.com/HIMANIS/JJ125/words_annotations/FRAN_0021_12021.json/83/line", 
            "@type": "oa:Annotation", 
            "motivation": "oa:painting", 
            "on": "http://bvmm.irht.cnrs.fr/iiif/23711/canvas/canvas-2310568#xywh=1779,1126,190,144", 
            "resource": {
                "@type": "cnt:ContentAsText", 
                "chars": "BOLETARI", 
                "format": "text/plain"
            }
        }, 
        {
            "@id": "https://manifests.teklia.com/HIMANIS/JJ125/words_annotations/FRAN_0021_12021.json/84/line", 
            "@type": "oa:Annotation", 
            "motivation": "oa:painting", 
            "on": "http://bvmm.irht.cnrs.fr/iiif/23711/canvas/canvas-2310568#xywh=1169,1825,163,238", 
            "resource": {
                "@type": "cnt:ContentAsText", 
                "chars": "BO", 
                "format": "text/plain"
            }
        }, 
        {
            "@id": "https://manifests.teklia.com/HIMANIS/JJ125/words_annotations/FRAN_0021_12021.json/85/line", 
            "@type": "oa:Annotation", 
            "motivation": "oa:painting", 
            "on": "http://bvmm.irht.cnrs.fr/iiif/23711/canvas/canvas-2310568#xywh=844,1392,81,128", 
            "resource": {
                "@type": "cnt:ContentAsText", 
                "chars": "PRO", 
                "format": "text/plain"
            }
        }, 
        {
            "@id": "https://manifests.teklia.com/HIMANIS/JJ125/words_annotations/FRAN_0021_12021.json/86/line", 
            "@type": "oa:Annotation", 
            "motivation": "oa:painting", 
            "on": "http://bvmm.irht.cnrs.fr/iiif/23711/canvas/canvas-2310568#xywh=1240,1658,116,124", 
            "resource": {
                "@type": "cnt:ContentAsText", 
                "chars": "PETRI", 
                "format": "text/plain"
            }
        }, 
        {
            "@id": "https://manifests.teklia.com/HIMANIS/JJ125/words_annotations/FRAN_0021_12021.json/87/line", 
            "@type": "oa:Annotation", 
            "motivation": "oa:painting", 
            "on": "http://bvmm.irht.cnrs.fr/iiif/23711/canvas/canvas-2310568#xywh=1713,525,193,172", 
            "resource": {
                "@type": "cnt:ContentAsText", 
                "chars": "FRANCIA", 
                "format": "text/plain"
            }
        }, 
        {
            "@id": "https://manifests.teklia.com/HIMANIS/JJ125/words_annotations/FRAN_0021_12021.json/88/line", 
            "@type": "oa:Annotation", 
            "motivation": "oa:painting", 
            "on": "http://bvmm.irht.cnrs.fr/iiif/23711/canvas/canvas-2310568#xywh=1713,525,183,172", 
            "resource": {
                "@type": "cnt:ContentAsText", 
                "chars": "FRANCIE", 
                "format": "text/plain"
            }
        }, 
        {
            "@id": "https://manifests.teklia.com/HIMANIS/JJ125/words_annotations/FRAN_0021_12021.json/89/line", 
            "@type": "oa:Annotation", 
            "motivation": "oa:painting", 
            "on": "http://bvmm.irht.cnrs.fr/iiif/23711/canvas/canvas-2310568#xywh=1517,1126,90,144", 
            "resource": {
                "@type": "cnt:ContentAsText", 
                "chars": "GRAN", 
                "format": "text/plain"
            }
        }, 
        {
            "@id": "https://manifests.teklia.com/HIMANIS/JJ125/words_annotations/FRAN_0021_12021.json/90/line", 
            "@type": "oa:Annotation", 
            "motivation": "oa:painting", 
            "on": "http://bvmm.irht.cnrs.fr/iiif/23711/canvas/canvas-2310568#xywh=1500,957,99,144", 
            "resource": {
                "@type": "cnt:ContentAsText", 
                "chars": "ALIIS", 
                "format": "text/plain"
            }
        }, 
        {
            "@id": "https://manifests.teklia.com/HIMANIS/JJ125/words_annotations/FRAN_0021_12021.json/91/line", 
            "@type": "oa:Annotation", 
            "motivation": "oa:painting", 
            "on": "http://bvmm.irht.cnrs.fr/iiif/23711/canvas/canvas-2310568#xywh=990,1825,342,238", 
            "resource": {
                "@type": "cnt:ContentAsText", 
                "chars": "JOHANNE", 
                "format": "text/plain"
            }
        }, 
        {
            "@id": "https://manifests.teklia.com/HIMANIS/JJ125/words_annotations/FRAN_0021_12021.json/92/line", 
            "@type": "oa:Annotation", 
            "motivation": "oa:painting", 
            "on": "http://bvmm.irht.cnrs.fr/iiif/23711/canvas/canvas-2310568#xywh=1,525,161,172", 
            "resource": {
                "@type": "cnt:ContentAsText", 
                "chars": "PHILIPPES", 
                "format": "text/plain"
            }
        }, 
        {
            "@id": "https://manifests.teklia.com/HIMANIS/JJ125/words_annotations/FRAN_0021_12021.json/93/line", 
            "@type": "oa:Annotation", 
            "motivation": "oa:painting", 
            "on": "http://bvmm.irht.cnrs.fr/iiif/23711/canvas/canvas-2310568#xywh=1345,1126,99,144", 
            "resource": {
                "@type": "cnt:ContentAsText", 
                "chars": "DICTUM", 
                "format": "text/plain"
            }
        }, 
        {
            "@id": "https://manifests.teklia.com/HIMANIS/JJ125/words_annotations/FRAN_0021_12021.json/94/line", 
            "@type": "oa:Annotation", 
            "motivation": "oa:painting", 
            "on": "http://bvmm.irht.cnrs.fr/iiif/23711/canvas/canvas-2310568#xywh=945,633,217,116", 
            "resource": {
                "@type": "cnt:ContentAsText", 
                "chars": "STEPHANO", 
                "format": "text/plain"
            }
        }, 
        {
            "@id": "https://manifests.teklia.com/HIMANIS/JJ125/words_annotations/FRAN_0021_12021.json/95/line", 
            "@type": "oa:Annotation", 
            "motivation": "oa:painting", 
            "on": "http://bvmm.irht.cnrs.fr/iiif/23711/canvas/canvas-2310568#xywh=1158,1044,85,150", 
            "resource": {
                "@type": "cnt:ContentAsText", 
                "chars": "PRO", 
                "format": "text/plain"
            }
        }, 
        {
            "@id": "https://manifests.teklia.com/HIMANIS/JJ125/words_annotations/FRAN_0021_12021.json/96/line", 
            "@type": "oa:Annotation", 
            "motivation": "oa:painting", 
            "on": "http://bvmm.irht.cnrs.fr/iiif/23711/canvas/canvas-2310568#xywh=15,66,1241,247", 
            "resource": {
                "@type": "cnt:ContentAsText", 
                "chars": "IS", 
                "format": "text/plain"
            }
        }, 
        {
            "@id": "https://manifests.teklia.com/HIMANIS/JJ125/words_annotations/FRAN_0021_12021.json/97/line", 
            "@type": "oa:Annotation", 
            "motivation": "oa:painting", 
            "on": "http://bvmm.irht.cnrs.fr/iiif/23711/canvas/canvas-2310568#xywh=144,1825,371,238", 
            "resource": {
                "@type": "cnt:ContentAsText", 
                "chars": "MISSORTI", 
                "format": "text/plain"
            }
        }, 
        {
            "@id": "https://manifests.teklia.com/HIMANIS/JJ125/words_annotations/FRAN_0021_12021.json/98/line", 
            "@type": "oa:Annotation", 
            "motivation": "oa:painting", 
            "on": "http://bvmm.irht.cnrs.fr/iiif/23711/canvas/canvas-2310568#xywh=1464,957,18,144", 
            "resource": {
                "@type": "cnt:ContentAsText", 
                "chars": "ET", 
                "format": "text/plain"
            }
        }, 
        {
            "@id": "https://manifests.teklia.com/HIMANIS/JJ125/words_annotations/FRAN_0021_12021.json/99/line", 
            "@type": "oa:Annotation", 
            "motivation": "oa:painting", 
            "on": "http://bvmm.irht.cnrs.fr/iiif/23711/canvas/canvas-2310568#xywh=2366,158,1566,176", 
            "resource": {
                "@type": "cnt:ContentAsText", 
                "chars": "ET", 
                "format": "text/plain"
            }
        }, 
        {
            "@id": "https://manifests.teklia.com/HIMANIS/JJ125/words_annotations/FRAN_0021_12021.json/100/line", 
            "@type": "oa:Annotation", 
            "motivation": "oa:painting", 
            "on": "http://bvmm.irht.cnrs.fr/iiif/23711/canvas/canvas-2310568#xywh=261,1747,199,109", 
            "resource": {
                "@type": "cnt:ContentAsText", 
                "chars": "XXIII", 
                "format": "text/plain"
            }
        }, 
        {
            "@id": "https://manifests.teklia.com/HIMANIS/JJ125/words_annotations/FRAN_0021_12021.json/101/line", 
            "@type": "oa:Annotation", 
            "motivation": "oa:painting", 
            "on": "http://bvmm.irht.cnrs.fr/iiif/23711/canvas/canvas-2310568#xywh=844,884,76,135", 
            "resource": {
                "@type": "cnt:ContentAsText", 
                "chars": "PRO", 
                "format": "text/plain"
            }
        }, 
        {
            "@id": "https://manifests.teklia.com/HIMANIS/JJ125/words_annotations/FRAN_0021_12021.json/102/line", 
            "@type": "oa:Annotation", 
            "motivation": "oa:painting", 
            "on": "http://bvmm.irht.cnrs.fr/iiif/23711/canvas/canvas-2310568#xywh=120,678,258,86", 
            "resource": {
                "@type": "cnt:ContentAsText", 
                "chars": "XXX", 
                "format": "text/plain"
            }
        }, 
        {
            "@id": "https://manifests.teklia.com/HIMANIS/JJ125/words_annotations/FRAN_0021_12021.json/103/line", 
            "@type": "oa:Annotation", 
            "motivation": "oa:painting", 
            "on": "http://bvmm.irht.cnrs.fr/iiif/23711/canvas/canvas-2310568#xywh=1218,793,146,137", 
            "resource": {
                "@type": "cnt:ContentAsText", 
                "chars": "BUFFET", 
                "format": "text/plain"
            }
        }, 
        {
            "@id": "https://manifests.teklia.com/HIMANIS/JJ125/words_annotations/FRAN_0021_12021.json/104/line", 
            "@type": "oa:Annotation", 
            "motivation": "oa:painting", 
            "on": "http://bvmm.irht.cnrs.fr/iiif/23711/canvas/canvas-2310568#xywh=348,712,54,143", 
            "resource": {
                "@type": "cnt:ContentAsText", 
                "chars": "XIJ", 
                "format": "text/plain"
            }
        }, 
        {
            "@id": "https://manifests.teklia.com/HIMANIS/JJ125/words_annotations/FRAN_0021_12021.json/105/line", 
            "@type": "oa:Annotation", 
            "motivation": "oa:painting", 
            "on": "http://bvmm.irht.cnrs.fr/iiif/23711/canvas/canvas-2310568#xywh=1064,2080,296,100", 
            "resource": {
                "@type": "cnt:ContentAsText", 
                "chars": "COLLATIO", 
                "format": "text/plain"
            }
        }, 
        {
            "@id": "https://manifests.teklia.com/HIMANIS/JJ125/words_annotations/FRAN_0021_12021.json/106/line", 
            "@type": "oa:Annotation", 
            "motivation": "oa:painting", 
            "on": "http://bvmm.irht.cnrs.fr/iiif/23711/canvas/canvas-2310568#xywh=923,1445,172,249", 
            "resource": {
                "@type": "cnt:ContentAsText", 
                "chars": "PLUM", 
                "format": "text/plain"
            }
        }, 
        {
            "@id": "https://manifests.teklia.com/HIMANIS/JJ125/words_annotations/FRAN_0021_12021.json/107/line", 
            "@type": "oa:Annotation", 
            "motivation": "oa:painting", 
            "on": "http://bvmm.irht.cnrs.fr/iiif/23711/canvas/canvas-2310568#xywh=1302,957,135,144", 
            "resource": {
                "@type": "cnt:ContentAsText", 
                "chars": "HELIERRE", 
                "format": "text/plain"
            }
        }, 
        {
            "@id": "https://manifests.teklia.com/HIMANIS/JJ125/words_annotations/FRAN_0021_12021.json/108/line", 
            "@type": "oa:Annotation", 
            "motivation": "oa:painting", 
            "on": "http://bvmm.irht.cnrs.fr/iiif/23711/canvas/canvas-2310568#xywh=592,793,223,137", 
            "resource": {
                "@type": "cnt:ContentAsText", 
                "chars": "REMISSIO", 
                "format": "text/plain"
            }
        }, 
        {
            "@id": "https://manifests.teklia.com/HIMANIS/JJ125/words_annotations/FRAN_0021_12021.json/109/line", 
            "@type": "oa:Annotation", 
            "motivation": "oa:painting", 
            "on": "http://bvmm.irht.cnrs.fr/iiif/23711/canvas/canvas-2310568#xywh=1431,4525,1821,263", 
            "resource": {
                "@type": "cnt:ContentAsText", 
                "chars": "ET", 
                "format": "text/plain"
            }
        }, 
        {
            "@id": "https://manifests.teklia.com/HIMANIS/JJ125/words_annotations/FRAN_0021_12021.json/110/line", 
            "@type": "oa:Annotation", 
            "motivation": "oa:painting", 
            "on": "http://bvmm.irht.cnrs.fr/iiif/23711/canvas/canvas-2310568#xywh=261,1747,165,109", 
            "resource": {
                "@type": "cnt:ContentAsText", 
                "chars": "XXII", 
                "format": "text/plain"
            }
        }, 
        {
            "@id": "https://manifests.teklia.com/HIMANIS/JJ125/words_annotations/FRAN_0021_12021.json/111/line", 
            "@type": "oa:Annotation", 
            "motivation": "oa:painting", 
            "on": "http://bvmm.irht.cnrs.fr/iiif/23711/canvas/canvas-2310568#xywh=88,712,224,143", 
            "resource": {
                "@type": "cnt:ContentAsText", 
                "chars": "LES", 
                "format": "text/plain"
            }
        }, 
        {
            "@id": "https://manifests.teklia.com/HIMANIS/JJ125/words_annotations/FRAN_0021_12021.json/112/line", 
            "@type": "oa:Annotation", 
            "motivation": "oa:painting", 
            "on": "http://bvmm.irht.cnrs.fr/iiif/23711/canvas/canvas-2310568#xywh=1712,1044,225,150", 
            "resource": {
                "@type": "cnt:ContentAsText", 
                "chars": "BARTHOLINSIS", 
                "format": "text/plain"
            }
        }, 
        {
            "@id": "https://manifests.teklia.com/HIMANIS/JJ125/words_annotations/FRAN_0021_12021.json/113/line", 
            "@type": "oa:Annotation", 
            "motivation": "oa:painting", 
            "on": "http://bvmm.irht.cnrs.fr/iiif/23711/canvas/canvas-2310568#xywh=261,1747,199,109", 
            "resource": {
                "@type": "cnt:ContentAsText", 
                "chars": "XXIX", 
                "format": "text/plain"
            }
        }, 
        {
            "@id": "https://manifests.teklia.com/HIMANIS/JJ125/words_annotations/FRAN_0021_12021.json/114/line", 
            "@type": "oa:Annotation", 
            "motivation": "oa:painting", 
            "on": "http://bvmm.irht.cnrs.fr/iiif/23711/canvas/canvas-2310568#xywh=340,1126,435,144", 
            "resource": {
                "@type": "cnt:ContentAsText", 
                "chars": "LICENCIA", 
                "format": "text/plain"
            }
        }, 
        {
            "@id": "https://manifests.teklia.com/HIMANIS/JJ125/words_annotations/FRAN_0021_12021.json/115/line", 
            "@type": "oa:Annotation", 
            "motivation": "oa:painting", 
            "on": "http://bvmm.irht.cnrs.fr/iiif/23711/canvas/canvas-2310568#xywh=132,1126,290,144", 
            "resource": {
                "@type": "cnt:ContentAsText", 
                "chars": "USIBI", 
                "format": "text/plain"
            }
        }, 
        {
            "@id": "https://manifests.teklia.com/HIMANIS/JJ125/words_annotations/FRAN_0021_12021.json/116/line", 
            "@type": "oa:Annotation", 
            "motivation": "oa:painting", 
            "on": "http://bvmm.irht.cnrs.fr/iiif/23711/canvas/canvas-2310568#xywh=162,525,776,172", 
            "resource": {
                "@type": "cnt:ContentAsText", 
                "chars": "CONFIRMACION", 
                "format": "text/plain"
            }
        }, 
        {
            "@id": "https://manifests.teklia.com/HIMANIS/JJ125/words_annotations/FRAN_0021_12021.json/117/line", 
            "@type": "oa:Annotation", 
            "motivation": "oa:painting", 
            "on": "http://bvmm.irht.cnrs.fr/iiif/23711/canvas/canvas-2310568#xywh=340,1126,55,144", 
            "resource": {
                "@type": "cnt:ContentAsText", 
                "chars": "IL", 
                "format": "text/plain"
            }
        }, 
        {
            "@id": "https://manifests.teklia.com/HIMANIS/JJ125/words_annotations/FRAN_0021_12021.json/118/line", 
            "@type": "oa:Annotation", 
            "motivation": "oa:painting", 
            "on": "http://bvmm.irht.cnrs.fr/iiif/23711/canvas/canvas-2310568#xywh=127,1445,281,249", 
            "resource": {
                "@type": "cnt:ContentAsText", 
                "chars": "SUR", 
                "format": "text/plain"
            }
        }, 
        {
            "@id": "https://manifests.teklia.com/HIMANIS/JJ125/words_annotations/FRAN_0021_12021.json/119/line", 
            "@type": "oa:Annotation", 
            "motivation": "oa:painting", 
            "on": "http://bvmm.irht.cnrs.fr/iiif/23711/canvas/canvas-2310568#xywh=2111,1173,165,263", 
            "resource": {
                "@type": "cnt:ContentAsText", 
                "chars": "JURISIUS", 
                "format": "text/plain"
            }
        }, 
        {
            "@id": "https://manifests.teklia.com/HIMANIS/JJ125/words_annotations/FRAN_0021_12021.json/120/line", 
            "@type": "oa:Annotation", 
            "motivation": "oa:painting", 
            "on": "http://bvmm.irht.cnrs.fr/iiif/23711/canvas/canvas-2310568#xywh=951,1044,160,150", 
            "resource": {
                "@type": "cnt:ContentAsText", 
                "chars": "PERPETUA", 
                "format": "text/plain"
            }
        }, 
        {
            "@id": "https://manifests.teklia.com/HIMANIS/JJ125/words_annotations/FRAN_0021_12021.json/121/line", 
            "@type": "oa:Annotation", 
            "motivation": "oa:painting", 
            "on": "http://bvmm.irht.cnrs.fr/iiif/23711/canvas/canvas-2310568#xywh=245,1658,179,124", 
            "resource": {
                "@type": "cnt:ContentAsText", 
                "chars": "XXXII", 
                "format": "text/plain"
            }
        }, 
        {
            "@id": "https://manifests.teklia.com/HIMANIS/JJ125/words_annotations/FRAN_0021_12021.json/122/line", 
            "@type": "oa:Annotation", 
            "motivation": "oa:painting", 
            "on": "http://bvmm.irht.cnrs.fr/iiif/23711/canvas/canvas-2310568#xywh=245,1658,218,124", 
            "resource": {
                "@type": "cnt:ContentAsText", 
                "chars": "XXXIJ", 
                "format": "text/plain"
            }
        }, 
        {
            "@id": "https://manifests.teklia.com/HIMANIS/JJ125/words_annotations/FRAN_0021_12021.json/123/line", 
            "@type": "oa:Annotation", 
            "motivation": "oa:painting", 
            "on": "http://bvmm.irht.cnrs.fr/iiif/23711/canvas/canvas-2310568#xywh=140,884,314,135", 
            "resource": {
                "@type": "cnt:ContentAsText", 
                "chars": "PHILIPPONI", 
                "format": "text/plain"
            }
        }, 
        {
            "@id": "https://manifests.teklia.com/HIMANIS/JJ125/words_annotations/FRAN_0021_12021.json/124/line", 
            "@type": "oa:Annotation", 
            "motivation": "oa:painting", 
            "on": "http://bvmm.irht.cnrs.fr/iiif/23711/canvas/canvas-2310568#xywh=114,1392,313,128", 
            "resource": {
                "@type": "cnt:ContentAsText", 
                "chars": "NOSTRIS", 
                "format": "text/plain"
            }
        }, 
        {
            "@id": "https://manifests.teklia.com/HIMANIS/JJ125/words_annotations/FRAN_0021_12021.json/125/line", 
            "@type": "oa:Annotation", 
            "motivation": "oa:painting", 
            "on": "http://bvmm.irht.cnrs.fr/iiif/23711/canvas/canvas-2310568#xywh=1126,1445,266,249", 
            "resource": {
                "@type": "cnt:ContentAsText", 
                "chars": "PRIVILLENIORUM", 
                "format": "text/plain"
            }
        }, 
        {
            "@id": "https://manifests.teklia.com/HIMANIS/JJ125/words_annotations/FRAN_0021_12021.json/126/line", 
            "@type": "oa:Annotation", 
            "motivation": "oa:painting", 
            "on": "http://bvmm.irht.cnrs.fr/iiif/23711/canvas/canvas-2310568#xywh=567,633,240,116", 
            "resource": {
                "@type": "cnt:ContentAsText", 
                "chars": "PREMISSIO", 
                "format": "text/plain"
            }
        }, 
        {
            "@id": "https://manifests.teklia.com/HIMANIS/JJ125/words_annotations/FRAN_0021_12021.json/127/line", 
            "@type": "oa:Annotation", 
            "motivation": "oa:painting", 
            "on": "http://bvmm.irht.cnrs.fr/iiif/23711/canvas/canvas-2310568#xywh=946,884,195,135", 
            "resource": {
                "@type": "cnt:ContentAsText", 
                "chars": "JOHANNE", 
                "format": "text/plain"
            }
        }, 
        {
            "@id": "https://manifests.teklia.com/HIMANIS/JJ125/words_annotations/FRAN_0021_12021.json/128/line", 
            "@type": "oa:Annotation", 
            "motivation": "oa:painting", 
            "on": "http://bvmm.irht.cnrs.fr/iiif/23711/canvas/canvas-2310568#xywh=322,1044,601,150", 
            "resource": {
                "@type": "cnt:ContentAsText", 
                "chars": "SALVAGARDIA", 
                "format": "text/plain"
            }
        }, 
        {
            "@id": "https://manifests.teklia.com/HIMANIS/JJ125/words_annotations/FRAN_0021_12021.json/129/line", 
            "@type": "oa:Annotation", 
            "motivation": "oa:painting", 
            "on": "http://bvmm.irht.cnrs.fr/iiif/23711/canvas/canvas-2310568#xywh=319,957,568,144", 
            "resource": {
                "@type": "cnt:ContentAsText", 
                "chars": "LEGITIMACION", 
                "format": "text/plain"
            }
        }, 
        {
            "@id": "https://manifests.teklia.com/HIMANIS/JJ125/words_annotations/FRAN_0021_12021.json/130/line", 
            "@type": "oa:Annotation", 
            "motivation": "oa:painting", 
            "on": "http://bvmm.irht.cnrs.fr/iiif/23711/canvas/canvas-2310568#xywh=88,712,215,143", 
            "resource": {
                "@type": "cnt:ContentAsText", 
                "chars": "PRESENS", 
                "format": "text/plain"
            }
        }, 
        {
            "@id": "https://manifests.teklia.com/HIMANIS/JJ125/words_annotations/FRAN_0021_12021.json/131/line", 
            "@type": "oa:Annotation", 
            "motivation": "oa:painting", 
            "on": "http://bvmm.irht.cnrs.fr/iiif/23711/canvas/canvas-2310568#xywh=1643,1126,109,144", 
            "resource": {
                "@type": "cnt:ContentAsText", 
                "chars": "PETRO", 
                "format": "text/plain"
            }
        }, 
        {
            "@id": "https://manifests.teklia.com/HIMANIS/JJ125/words_annotations/FRAN_0021_12021.json/132/line", 
            "@type": "oa:Annotation", 
            "motivation": "oa:painting", 
            "on": "http://bvmm.irht.cnrs.fr/iiif/23711/canvas/canvas-2310568#xywh=1182,1392,152,128", 
            "resource": {
                "@type": "cnt:ContentAsText", 
                "chars": "AUBERS", 
                "format": "text/plain"
            }
        }, 
        {
            "@id": "https://manifests.teklia.com/HIMANIS/JJ125/words_annotations/FRAN_0021_12021.json/133/line", 
            "@type": "oa:Annotation", 
            "motivation": "oa:painting", 
            "on": "http://bvmm.irht.cnrs.fr/iiif/23711/canvas/canvas-2310568#xywh=1270,1173,182,263", 
            "resource": {
                "@type": "cnt:ContentAsText", 
                "chars": "PLURIMUM", 
                "format": "text/plain"
            }
        }, 
        {
            "@id": "https://manifests.teklia.com/HIMANIS/JJ125/words_annotations/FRAN_0021_12021.json/134/line", 
            "@type": "oa:Annotation", 
            "motivation": "oa:painting", 
            "on": "http://bvmm.irht.cnrs.fr/iiif/23711/canvas/canvas-2310568#xywh=1798,1173,165,263", 
            "resource": {
                "@type": "cnt:ContentAsText", 
                "chars": "PLURIMUS", 
                "format": "text/plain"
            }
        }, 
        {
            "@id": "https://manifests.teklia.com/HIMANIS/JJ125/words_annotations/FRAN_0021_12021.json/135/line", 
            "@type": "oa:Annotation", 
            "motivation": "oa:painting", 
            "on": "http://bvmm.irht.cnrs.fr/iiif/23711/canvas/canvas-2310568#xywh=940,1173,297,263", 
            "resource": {
                "@type": "cnt:ContentAsText", 
                "chars": "QUONDATURIS", 
                "format": "text/plain"
            }
        }, 
        {
            "@id": "https://manifests.teklia.com/HIMANIS/JJ125/words_annotations/FRAN_0021_12021.json/136/line", 
            "@type": "oa:Annotation", 
            "motivation": "oa:painting", 
            "on": "http://bvmm.irht.cnrs.fr/iiif/23711/canvas/canvas-2310568#xywh=580,1445,328,249", 
            "resource": {
                "@type": "cnt:ContentAsText", 
                "chars": "CONFIRMATIO", 
                "format": "text/plain"
            }
        }, 
        {
            "@id": "https://manifests.teklia.com/HIMANIS/JJ125/words_annotations/FRAN_0021_12021.json/137/line", 
            "@type": "oa:Annotation", 
            "motivation": "oa:painting", 
            "on": "http://bvmm.irht.cnrs.fr/iiif/23711/canvas/canvas-2310568#xywh=961,793,231,137", 
            "resource": {
                "@type": "cnt:ContentAsText", 
                "chars": "LAURENCIO", 
                "format": "text/plain"
            }
        }, 
        {
            "@id": "https://manifests.teklia.com/HIMANIS/JJ125/words_annotations/FRAN_0021_12021.json/138/line", 
            "@type": "oa:Annotation", 
            "motivation": "oa:painting", 
            "on": "http://bvmm.irht.cnrs.fr/iiif/23711/canvas/canvas-2310568#xywh=940,1173,297,263", 
            "resource": {
                "@type": "cnt:ContentAsText", 
                "chars": "QUONDATIS", 
                "format": "text/plain"
            }
        }, 
        {
            "@id": "https://manifests.teklia.com/HIMANIS/JJ125/words_annotations/FRAN_0021_12021.json/139/line", 
            "@type": "oa:Annotation", 
            "motivation": "oa:painting", 
            "on": "http://bvmm.irht.cnrs.fr/iiif/23711/canvas/canvas-2310568#xywh=162,525,776,172", 
            "resource": {
                "@type": "cnt:ContentAsText", 
                "chars": "CONFIRMATION", 
                "format": "text/plain"
            }
        }, 
        {
            "@id": "https://manifests.teklia.com/HIMANIS/JJ125/words_annotations/FRAN_0021_12021.json/140/line", 
            "@type": "oa:Annotation", 
            "motivation": "oa:painting", 
            "on": "http://bvmm.irht.cnrs.fr/iiif/23711/canvas/canvas-2310568#xywh=1084,1747,138,109", 
            "resource": {
                "@type": "cnt:ContentAsText", 
                "chars": "NEVEN", 
                "format": "text/plain"
            }
        }, 
        {
            "@id": "https://manifests.teklia.com/HIMANIS/JJ125/words_annotations/FRAN_0021_12021.json/141/line", 
            "@type": "oa:Annotation", 
            "motivation": "oa:painting", 
            "on": "http://bvmm.irht.cnrs.fr/iiif/23711/canvas/canvas-2310568#xywh=1084,1747,138,109", 
            "resource": {
                "@type": "cnt:ContentAsText", 
                "chars": "NEVEU", 
                "format": "text/plain"
            }
        }, 
        {
            "@id": "https://manifests.teklia.com/HIMANIS/JJ125/words_annotations/FRAN_0021_12021.json/142/line", 
            "@type": "oa:Annotation", 
            "motivation": "oa:painting", 
            "on": "http://bvmm.irht.cnrs.fr/iiif/23711/canvas/canvas-2310568#xywh=1169,1825,0,238", 
            "resource": {
                "@type": "cnt:ContentAsText", 
                "chars": "D", 
                "format": "text/plain"
            }
        }, 
        {
            "@id": "https://manifests.teklia.com/HIMANIS/JJ125/words_annotations/FRAN_0021_12021.json/143/line", 
            "@type": "oa:Annotation", 
            "motivation": "oa:painting", 
            "on": "http://bvmm.irht.cnrs.fr/iiif/23711/canvas/canvas-2310568#xywh=15,66,1272,247", 
            "resource": {
                "@type": "cnt:ContentAsText", 
                "chars": "VI", 
                "format": "text/plain"
            }
        }, 
        {
            "@id": "https://manifests.teklia.com/HIMANIS/JJ125/words_annotations/FRAN_0021_12021.json/144/line", 
            "@type": "oa:Annotation", 
            "motivation": "oa:painting", 
            "on": "http://bvmm.irht.cnrs.fr/iiif/23711/canvas/canvas-2310568#xywh=1391,2080,95,100", 
            "resource": {
                "@type": "cnt:ContentAsText", 
                "chars": "FACTA", 
                "format": "text/plain"
            }
        }, 
        {
            "@id": "https://manifests.teklia.com/HIMANIS/JJ125/words_annotations/FRAN_0021_12021.json/145/line", 
            "@type": "oa:Annotation", 
            "motivation": "oa:painting", 
            "on": "http://bvmm.irht.cnrs.fr/iiif/23711/canvas/canvas-2310568#xywh=1184,633,189,116", 
            "resource": {
                "@type": "cnt:ContentAsText", 
                "chars": "CINGNET", 
                "format": "text/plain"
            }
        }, 
        {
            "@id": "https://manifests.teklia.com/HIMANIS/JJ125/words_annotations/FRAN_0021_12021.json/146/line", 
            "@type": "oa:Annotation", 
            "motivation": "oa:painting", 
            "on": "http://bvmm.irht.cnrs.fr/iiif/23711/canvas/canvas-2310568#xywh=1517,1126,108,144", 
            "resource": {
                "@type": "cnt:ContentAsText", 
                "chars": "TAM", 
                "format": "text/plain"
            }
        }, 
        {
            "@id": "https://manifests.teklia.com/HIMANIS/JJ125/words_annotations/FRAN_0021_12021.json/147/line", 
            "@type": "oa:Annotation", 
            "motivation": "oa:painting", 
            "on": "http://bvmm.irht.cnrs.fr/iiif/23711/canvas/canvas-2310568#xywh=2785,3943,0,45", 
            "resource": {
                "@type": "cnt:ContentAsText", 
                "chars": "A", 
                "format": "text/plain"
            }
        }, 
        {
            "@id": "https://manifests.teklia.com/HIMANIS/JJ125/words_annotations/FRAN_0021_12021.json/148/line", 
            "@type": "oa:Annotation", 
            "motivation": "oa:painting", 
            "on": "http://bvmm.irht.cnrs.fr/iiif/23711/canvas/canvas-2310568#xywh=1064,2080,296,100", 
            "resource": {
                "@type": "cnt:ContentAsText", 
                "chars": "COLLACIO", 
                "format": "text/plain"
            }
        }, 
        {
            "@id": "https://manifests.teklia.com/HIMANIS/JJ125/words_annotations/FRAN_0021_12021.json/149/line", 
            "@type": "oa:Annotation", 
            "motivation": "oa:painting", 
            "on": "http://bvmm.irht.cnrs.fr/iiif/23711/canvas/canvas-2310568#xywh=357,712,0,143", 
            "resource": {
                "@type": "cnt:ContentAsText", 
                "chars": "Y", 
                "format": "text/plain"
            }
        }, 
        {
            "@id": "https://manifests.teklia.com/HIMANIS/JJ125/words_annotations/FRAN_0021_12021.json/150/line", 
            "@type": "oa:Annotation", 
            "motivation": "oa:painting", 
            "on": "http://bvmm.irht.cnrs.fr/iiif/23711/canvas/canvas-2310568#xywh=132,1126,199,144", 
            "resource": {
                "@type": "cnt:ContentAsText", 
                "chars": "NOS", 
                "format": "text/plain"
            }
        }, 
        {
            "@id": "https://manifests.teklia.com/HIMANIS/JJ125/words_annotations/FRAN_0021_12021.json/151/line", 
            "@type": "oa:Annotation", 
            "motivation": "oa:painting", 
            "on": "http://bvmm.irht.cnrs.fr/iiif/23711/canvas/canvas-2310568#xywh=865,1747,199,109", 
            "resource": {
                "@type": "cnt:ContentAsText", 
                "chars": "GUILLANI", 
                "format": "text/plain"
            }
        }, 
        {
            "@id": "https://manifests.teklia.com/HIMANIS/JJ125/words_annotations/FRAN_0021_12021.json/152/line", 
            "@type": "oa:Annotation", 
            "motivation": "oa:painting", 
            "on": "http://bvmm.irht.cnrs.fr/iiif/23711/canvas/canvas-2310568#xywh=1422,525,269,172", 
            "resource": {
                "@type": "cnt:ContentAsText", 
                "chars": "MONETARIA", 
                "format": "text/plain"
            }
        }, 
        {
            "@id": "https://manifests.teklia.com/HIMANIS/JJ125/words_annotations/FRAN_0021_12021.json/153/line", 
            "@type": "oa:Annotation", 
            "motivation": "oa:painting", 
            "on": "http://bvmm.irht.cnrs.fr/iiif/23711/canvas/canvas-2310568#xywh=2374,63,1696,137", 
            "resource": {
                "@type": "cnt:ContentAsText", 
                "chars": "SIGNEUR", 
                "format": "text/plain"
            }
        }, 
        {
            "@id": "https://manifests.teklia.com/HIMANIS/JJ125/words_annotations/FRAN_0021_12021.json/154/line", 
            "@type": "oa:Annotation", 
            "motivation": "oa:painting", 
            "on": "http://bvmm.irht.cnrs.fr/iiif/23711/canvas/canvas-2310568#xywh=580,1445,328,249", 
            "resource": {
                "@type": "cnt:ContentAsText", 
                "chars": "CONFIRMACIO", 
                "format": "text/plain"
            }
        }, 
        {
            "@id": "https://manifests.teklia.com/HIMANIS/JJ125/words_annotations/FRAN_0021_12021.json/155/line", 
            "@type": "oa:Annotation", 
            "motivation": "oa:painting", 
            "on": "http://bvmm.irht.cnrs.fr/iiif/23711/canvas/canvas-2310568#xywh=583,1747,254,109", 
            "resource": {
                "@type": "cnt:ContentAsText", 
                "chars": "NOLITATO", 
                "format": "text/plain"
            }
        }, 
        {
            "@id": "https://manifests.teklia.com/HIMANIS/JJ125/words_annotations/FRAN_0021_12021.json/156/line", 
            "@type": "oa:Annotation", 
            "motivation": "oa:painting", 
            "on": "http://bvmm.irht.cnrs.fr/iiif/23711/canvas/canvas-2310568#xywh=560,1825,237,238", 
            "resource": {
                "@type": "cnt:ContentAsText", 
                "chars": "PREMISSIS", 
                "format": "text/plain"
            }
        }, 
        {
            "@id": "https://manifests.teklia.com/HIMANIS/JJ125/words_annotations/FRAN_0021_12021.json/157/line", 
            "@type": "oa:Annotation", 
            "motivation": "oa:painting", 
            "on": "http://bvmm.irht.cnrs.fr/iiif/23711/canvas/canvas-2310568#xywh=905,957,81,144", 
            "resource": {
                "@type": "cnt:ContentAsText", 
                "chars": "PRO", 
                "format": "text/plain"
            }
        }, 
        {
            "@id": "https://manifests.teklia.com/HIMANIS/JJ125/words_annotations/FRAN_0021_12021.json/158/line", 
            "@type": "oa:Annotation", 
            "motivation": "oa:painting", 
            "on": "http://bvmm.irht.cnrs.fr/iiif/23711/canvas/canvas-2310568#xywh=310,884,500,135", 
            "resource": {
                "@type": "cnt:ContentAsText", 
                "chars": "FEMISSIO", 
                "format": "text/plain"
            }
        }, 
        {
            "@id": "https://manifests.teklia.com/HIMANIS/JJ125/words_annotations/FRAN_0021_12021.json/159/line", 
            "@type": "oa:Annotation", 
            "motivation": "oa:painting", 
            "on": "http://bvmm.irht.cnrs.fr/iiif/23711/canvas/canvas-2310568#xywh=1387,1658,241,124", 
            "resource": {
                "@type": "cnt:ContentAsText", 
                "chars": "REMANDI", 
                "format": "text/plain"
            }
        }, 
        {
            "@id": "https://manifests.teklia.com/HIMANIS/JJ125/words_annotations/FRAN_0021_12021.json/160/line", 
            "@type": "oa:Annotation", 
            "motivation": "oa:painting", 
            "on": "http://bvmm.irht.cnrs.fr/iiif/23711/canvas/canvas-2310568#xywh=560,1825,237,238", 
            "resource": {
                "@type": "cnt:ContentAsText", 
                "chars": "REMISSIS", 
                "format": "text/plain"
            }
        }, 
        {
            "@id": "https://manifests.teklia.com/HIMANIS/JJ125/words_annotations/FRAN_0021_12021.json/161/line", 
            "@type": "oa:Annotation", 
            "motivation": "oa:painting", 
            "on": "http://bvmm.irht.cnrs.fr/iiif/23711/canvas/canvas-2310568#xywh=125,1044,188,150", 
            "resource": {
                "@type": "cnt:ContentAsText", 
                "chars": "PHILIPPUS", 
                "format": "text/plain"
            }
        }, 
        {
            "@id": "https://manifests.teklia.com/HIMANIS/JJ125/words_annotations/FRAN_0021_12021.json/162/line", 
            "@type": "oa:Annotation", 
            "motivation": "oa:painting", 
            "on": "http://bvmm.irht.cnrs.fr/iiif/23711/canvas/canvas-2310568#xywh=310,884,509,135", 
            "resource": {
                "@type": "cnt:ContentAsText", 
                "chars": "FEMISSIS", 
                "format": "text/plain"
            }
        }, 
        {
            "@id": "https://manifests.teklia.com/HIMANIS/JJ125/words_annotations/FRAN_0021_12021.json/163/line", 
            "@type": "oa:Annotation", 
            "motivation": "oa:painting", 
            "on": "http://bvmm.irht.cnrs.fr/iiif/23711/canvas/canvas-2310568#xywh=125,1044,131,150", 
            "resource": {
                "@type": "cnt:ContentAsText", 
                "chars": "PHILIPPES", 
                "format": "text/plain"
            }
        }, 
        {
            "@id": "https://manifests.teklia.com/HIMANIS/JJ125/words_annotations/FRAN_0021_12021.json/164/line", 
            "@type": "oa:Annotation", 
            "motivation": "oa:painting", 
            "on": "http://bvmm.irht.cnrs.fr/iiif/23711/canvas/canvas-2310568#xywh=2012,1173,50,263", 
            "resource": {
                "@type": "cnt:ContentAsText", 
                "chars": "LE", 
                "format": "text/plain"
            }
        }, 
        {
            "@id": "https://manifests.teklia.com/HIMANIS/JJ125/words_annotations/FRAN_0021_12021.json/165/line", 
            "@type": "oa:Annotation", 
            "motivation": "oa:painting", 
            "on": "http://bvmm.irht.cnrs.fr/iiif/23711/canvas/canvas-2310568#xywh=2523,1173,33,263", 
            "resource": {
                "@type": "cnt:ContentAsText", 
                "chars": "DE", 
                "format": "text/plain"
            }
        }, 
        {
            "@id": "https://manifests.teklia.com/HIMANIS/JJ125/words_annotations/FRAN_0021_12021.json/166/line", 
            "@type": "oa:Annotation", 
            "motivation": "oa:painting", 
            "on": "http://bvmm.irht.cnrs.fr/iiif/23711/canvas/canvas-2310568#xywh=1251,884,119,135", 
            "resource": {
                "@type": "cnt:ContentAsText", 
                "chars": "QUI", 
                "format": "text/plain"
            }
        }, 
        {
            "@id": "https://manifests.teklia.com/HIMANIS/JJ125/words_annotations/FRAN_0021_12021.json/167/line", 
            "@type": "oa:Annotation", 
            "motivation": "oa:painting", 
            "on": "http://bvmm.irht.cnrs.fr/iiif/23711/canvas/canvas-2310568#xywh=595,1658,342,124", 
            "resource": {
                "@type": "cnt:ContentAsText", 
                "chars": "CONFIRMACION", 
                "format": "text/plain"
            }
        }, 
        {
            "@id": "https://manifests.teklia.com/HIMANIS/JJ125/words_annotations/FRAN_0021_12021.json/168/line", 
            "@type": "oa:Annotation", 
            "motivation": "oa:painting", 
            "on": "http://bvmm.irht.cnrs.fr/iiif/23711/canvas/canvas-2310568#xywh=162,525,388,172", 
            "resource": {
                "@type": "cnt:ContentAsText", 
                "chars": "SERO", 
                "format": "text/plain"
            }
        }, 
        {
            "@id": "https://manifests.teklia.com/HIMANIS/JJ125/words_annotations/FRAN_0021_12021.json/169/line", 
            "@type": "oa:Annotation", 
            "motivation": "oa:painting", 
            "on": "http://bvmm.irht.cnrs.fr/iiif/23711/canvas/canvas-2310568#xywh=83,1173,396,263", 
            "resource": {
                "@type": "cnt:ContentAsText", 
                "chars": "NOSTRI", 
                "format": "text/plain"
            }
        }, 
        {
            "@id": "https://manifests.teklia.com/HIMANIS/JJ125/words_annotations/FRAN_0021_12021.json/170/line", 
            "@type": "oa:Annotation", 
            "motivation": "oa:painting", 
            "on": "http://bvmm.irht.cnrs.fr/iiif/23711/canvas/canvas-2310568#xywh=245,1658,225,124", 
            "resource": {
                "@type": "cnt:ContentAsText", 
                "chars": "XXIII", 
                "format": "text/plain"
            }
        }, 
        {
            "@id": "https://manifests.teklia.com/HIMANIS/JJ125/words_annotations/FRAN_0021_12021.json/171/line", 
            "@type": "oa:Annotation", 
            "motivation": "oa:painting", 
            "on": "http://bvmm.irht.cnrs.fr/iiif/23711/canvas/canvas-2310568#xywh=2047,1445,63,249", 
            "resource": {
                "@type": "cnt:ContentAsText", 
                "chars": "DIT", 
                "format": "text/plain"
            }
        }, 
        {
            "@id": "https://manifests.teklia.com/HIMANIS/JJ125/words_annotations/FRAN_0021_12021.json/172/line", 
            "@type": "oa:Annotation", 
            "motivation": "oa:painting", 
            "on": "http://bvmm.irht.cnrs.fr/iiif/23711/canvas/canvas-2310568#xywh=811,1126,280,144", 
            "resource": {
                "@type": "cnt:ContentAsText", 
                "chars": "FORTIFICANDI", 
                "format": "text/plain"
            }
        }, 
        {
            "@id": "https://manifests.teklia.com/HIMANIS/JJ125/words_annotations/FRAN_0021_12021.json/173/line", 
            "@type": "oa:Annotation", 
            "motivation": "oa:painting", 
            "on": "http://bvmm.irht.cnrs.fr/iiif/23711/canvas/canvas-2310568#xywh=1304,525,96,172", 
            "resource": {
                "@type": "cnt:ContentAsText", 
                "chars": "PRO", 
                "format": "text/plain"
            }
        }, 
        {
            "@id": "https://manifests.teklia.com/HIMANIS/JJ125/words_annotations/FRAN_0021_12021.json/174/line", 
            "@type": "oa:Annotation", 
            "motivation": "oa:painting", 
            "on": "http://bvmm.irht.cnrs.fr/iiif/23711/canvas/canvas-2310568#xywh=1270,1173,165,263", 
            "resource": {
                "@type": "cnt:ContentAsText", 
                "chars": "PLURIUM", 
                "format": "text/plain"
            }
        }, 
        {
            "@id": "https://manifests.teklia.com/HIMANIS/JJ125/words_annotations/FRAN_0021_12021.json/175/line", 
            "@type": "oa:Annotation", 
            "motivation": "oa:painting", 
            "on": "http://bvmm.irht.cnrs.fr/iiif/23711/canvas/canvas-2310568#xywh=1524,1044,47,150", 
            "resource": {
                "@type": "cnt:ContentAsText", 
                "chars": "BEATI", 
                "format": "text/plain"
            }
        }, 
        {
            "@id": "https://manifests.teklia.com/HIMANIS/JJ125/words_annotations/FRAN_0021_12021.json/176/line", 
            "@type": "oa:Annotation", 
            "motivation": "oa:painting", 
            "on": "http://bvmm.irht.cnrs.fr/iiif/23711/canvas/canvas-2310568#xywh=319,957,568,144", 
            "resource": {
                "@type": "cnt:ContentAsText", 
                "chars": "REGITIMACION", 
                "format": "text/plain"
            }
        }, 
        {
            "@id": "https://manifests.teklia.com/HIMANIS/JJ125/words_annotations/FRAN_0021_12021.json/177/line", 
            "@type": "oa:Annotation", 
            "motivation": "oa:painting", 
            "on": "http://bvmm.irht.cnrs.fr/iiif/23711/canvas/canvas-2310568#xywh=1712,1044,244,150", 
            "resource": {
                "@type": "cnt:ContentAsText", 
                "chars": "BURGOLINSIUM", 
                "format": "text/plain"
            }
        }, 
        {
            "@id": "https://manifests.teklia.com/HIMANIS/JJ125/words_annotations/FRAN_0021_12021.json/178/line", 
            "@type": "oa:Annotation", 
            "motivation": "oa:painting", 
            "on": "http://bvmm.irht.cnrs.fr/iiif/23711/canvas/canvas-2310568#xywh=1166,884,68,135", 
            "resource": {
                "@type": "cnt:ContentAsText", 
                "chars": "FRERE", 
                "format": "text/plain"
            }
        }
    ]
}