{
    "@context": "http://iiif.io/api/presentation/2/context.json", 
    "@id": "https://manifests.teklia.com/HIMANIS/JJ037/words_annotations/FRCHANJJ_JJ037_0021R.json", 
    "@type": "sc:AnnotationList", 
    "resources": [
        {
            "@id": "https://manifests.teklia.com/HIMANIS/JJ037/words_annotations/FRCHANJJ_JJ037_0021R.json/0/line", 
            "@type": "oa:Annotation", 
            "motivation": "oa:painting", 
            "on": "http://bvmm.irht.cnrs.fr/iiif/23602/canvas/canvas-2276315#xywh=2486,1390,178,94", 
            "resource": {
                "@type": "cnt:ContentAsText", 
                "chars": "AGIONE", 
                "format": "text/plain"
            }
        }, 
        {
            "@id": "https://manifests.teklia.com/HIMANIS/JJ037/words_annotations/FRCHANJJ_JJ037_0021R.json/1/line", 
            "@type": "oa:Annotation", 
            "motivation": "oa:painting", 
            "on": "http://bvmm.irht.cnrs.fr/iiif/23602/canvas/canvas-2276315#xywh=2442,136,119,52", 
            "resource": {
                "@type": "cnt:ContentAsText", 
                "chars": "MULIT", 
                "format": "text/plain"
            }
        }, 
        {
            "@id": "https://manifests.teklia.com/HIMANIS/JJ037/words_annotations/FRCHANJJ_JJ037_0021R.json/2/line", 
            "@type": "oa:Annotation", 
            "motivation": "oa:painting", 
            "on": "http://bvmm.irht.cnrs.fr/iiif/23602/canvas/canvas-2276315#xywh=0,3744,3027,79", 
            "resource": {
                "@type": "cnt:ContentAsText", 
                "chars": "QU", 
                "format": "text/plain"
            }
        }, 
        {
            "@id": "https://manifests.teklia.com/HIMANIS/JJ037/words_annotations/FRCHANJJ_JJ037_0021R.json/3/line", 
            "@type": "oa:Annotation", 
            "motivation": "oa:painting", 
            "on": "http://bvmm.irht.cnrs.fr/iiif/23602/canvas/canvas-2276315#xywh=2344,1390,83,94", 
            "resource": {
                "@type": "cnt:ContentAsText", 
                "chars": "TUM", 
                "format": "text/plain"
            }
        }, 
        {
            "@id": "https://manifests.teklia.com/HIMANIS/JJ037/words_annotations/FRCHANJJ_JJ037_0021R.json/4/line", 
            "@type": "oa:Annotation", 
            "motivation": "oa:painting", 
            "on": "http://bvmm.irht.cnrs.fr/iiif/23602/canvas/canvas-2276315#xywh=38,1250,190,108", 
            "resource": {
                "@type": "cnt:ContentAsText", 
                "chars": "STAT", 
                "format": "text/plain"
            }
        }, 
        {
            "@id": "https://manifests.teklia.com/HIMANIS/JJ037/words_annotations/FRCHANJJ_JJ037_0021R.json/5/line", 
            "@type": "oa:Annotation", 
            "motivation": "oa:painting", 
            "on": "http://bvmm.irht.cnrs.fr/iiif/23602/canvas/canvas-2276315#xywh=2694,1390,59,94", 
            "resource": {
                "@type": "cnt:ContentAsText", 
                "chars": "DICTO", 
                "format": "text/plain"
            }
        }, 
        {
            "@id": "https://manifests.teklia.com/HIMANIS/JJ037/words_annotations/FRCHANJJ_JJ037_0021R.json/6/line", 
            "@type": "oa:Annotation", 
            "motivation": "oa:painting", 
            "on": "http://bvmm.irht.cnrs.fr/iiif/23602/canvas/canvas-2276315#xywh=1651,1484,73,48", 
            "resource": {
                "@type": "cnt:ContentAsText", 
                "chars": "DE", 
                "format": "text/plain"
            }
        }, 
        {
            "@id": "https://manifests.teklia.com/HIMANIS/JJ037/words_annotations/FRCHANJJ_JJ037_0021R.json/7/line", 
            "@type": "oa:Annotation", 
            "motivation": "oa:painting", 
            "on": "http://bvmm.irht.cnrs.fr/iiif/23602/canvas/canvas-2276315#xywh=1724,1484,266,48", 
            "resource": {
                "@type": "cnt:ContentAsText", 
                "chars": "SURA", 
                "format": "text/plain"
            }
        }, 
        {
            "@id": "https://manifests.teklia.com/HIMANIS/JJ037/words_annotations/FRCHANJJ_JJ037_0021R.json/8/line", 
            "@type": "oa:Annotation", 
            "motivation": "oa:painting", 
            "on": "http://bvmm.irht.cnrs.fr/iiif/23602/canvas/canvas-2276315#xywh=761,1432,83,52", 
            "resource": {
                "@type": "cnt:ContentAsText", 
                "chars": "REGE", 
                "format": "text/plain"
            }
        }, 
        {
            "@id": "https://manifests.teklia.com/HIMANIS/JJ037/words_annotations/FRCHANJJ_JJ037_0021R.json/9/line", 
            "@type": "oa:Annotation", 
            "motivation": "oa:painting", 
            "on": "http://bvmm.irht.cnrs.fr/iiif/23602/canvas/canvas-2276315#xywh=2025,1100,158,88", 
            "resource": {
                "@type": "cnt:ContentAsText", 
                "chars": "MUS", 
                "format": "text/plain"
            }
        }, 
        {
            "@id": "https://manifests.teklia.com/HIMANIS/JJ037/words_annotations/FRCHANJJ_JJ037_0021R.json/10/line", 
            "@type": "oa:Annotation", 
            "motivation": "oa:painting", 
            "on": "http://bvmm.irht.cnrs.fr/iiif/23602/canvas/canvas-2276315#xywh=649,1432,63,52", 
            "resource": {
                "@type": "cnt:ContentAsText", 
                "chars": "DE", 
                "format": "text/plain"
            }
        }, 
        {
            "@id": "https://manifests.teklia.com/HIMANIS/JJ037/words_annotations/FRCHANJJ_JJ037_0021R.json/11/line", 
            "@type": "oa:Annotation", 
            "motivation": "oa:painting", 
            "on": "http://bvmm.irht.cnrs.fr/iiif/23602/canvas/canvas-2276315#xywh=2251,136,158,52", 
            "resource": {
                "@type": "cnt:ContentAsText", 
                "chars": "PARTES", 
                "format": "text/plain"
            }
        }, 
        {
            "@id": "https://manifests.teklia.com/HIMANIS/JJ037/words_annotations/FRCHANJJ_JJ037_0021R.json/12/line", 
            "@type": "oa:Annotation", 
            "motivation": "oa:painting", 
            "on": "http://bvmm.irht.cnrs.fr/iiif/23602/canvas/canvas-2276315#xywh=2251,136,158,52", 
            "resource": {
                "@type": "cnt:ContentAsText", 
                "chars": "SAINTES", 
                "format": "text/plain"
            }
        }, 
        {
            "@id": "https://manifests.teklia.com/HIMANIS/JJ037/words_annotations/FRCHANJJ_JJ037_0021R.json/13/line", 
            "@type": "oa:Annotation", 
            "motivation": "oa:painting", 
            "on": "http://bvmm.irht.cnrs.fr/iiif/23602/canvas/canvas-2276315#xywh=1538,0,1428,96", 
            "resource": {
                "@type": "cnt:ContentAsText", 
                "chars": "ET", 
                "format": "text/plain"
            }
        }, 
        {
            "@id": "https://manifests.teklia.com/HIMANIS/JJ037/words_annotations/FRCHANJJ_JJ037_0021R.json/14/line", 
            "@type": "oa:Annotation", 
            "motivation": "oa:painting", 
            "on": "http://bvmm.irht.cnrs.fr/iiif/23602/canvas/canvas-2276315#xywh=1294,1432,50,52", 
            "resource": {
                "@type": "cnt:ContentAsText", 
                "chars": "DI", 
                "format": "text/plain"
            }
        }, 
        {
            "@id": "https://manifests.teklia.com/HIMANIS/JJ037/words_annotations/FRCHANJJ_JJ037_0021R.json/15/line", 
            "@type": "oa:Annotation", 
            "motivation": "oa:painting", 
            "on": "http://bvmm.irht.cnrs.fr/iiif/23602/canvas/canvas-2276315#xywh=2171,136,63,52", 
            "resource": {
                "@type": "cnt:ContentAsText", 
                "chars": "DE", 
                "format": "text/plain"
            }
        }, 
        {
            "@id": "https://manifests.teklia.com/HIMANIS/JJ037/words_annotations/FRCHANJJ_JJ037_0021R.json/16/line", 
            "@type": "oa:Annotation", 
            "motivation": "oa:painting", 
            "on": "http://bvmm.irht.cnrs.fr/iiif/23602/canvas/canvas-2276315#xywh=1020,0,0,50", 
            "resource": {
                "@type": "cnt:ContentAsText", 
                "chars": "A", 
                "format": "text/plain"
            }
        }, 
        {
            "@id": "https://manifests.teklia.com/HIMANIS/JJ037/words_annotations/FRCHANJJ_JJ037_0021R.json/17/line", 
            "@type": "oa:Annotation", 
            "motivation": "oa:painting", 
            "on": "http://bvmm.irht.cnrs.fr/iiif/23602/canvas/canvas-2276315#xywh=1587,1484,64,48", 
            "resource": {
                "@type": "cnt:ContentAsText", 
                "chars": "LE", 
                "format": "text/plain"
            }
        }, 
        {
            "@id": "https://manifests.teklia.com/HIMANIS/JJ037/words_annotations/FRCHANJJ_JJ037_0021R.json/18/line", 
            "@type": "oa:Annotation", 
            "motivation": "oa:painting", 
            "on": "http://bvmm.irht.cnrs.fr/iiif/23602/canvas/canvas-2276315#xywh=1724,1484,266,48", 
            "resource": {
                "@type": "cnt:ContentAsText", 
                "chars": "SARRA", 
                "format": "text/plain"
            }
        }, 
        {
            "@id": "https://manifests.teklia.com/HIMANIS/JJ037/words_annotations/FRCHANJJ_JJ037_0021R.json/19/line", 
            "@type": "oa:Annotation", 
            "motivation": "oa:painting", 
            "on": "http://bvmm.irht.cnrs.fr/iiif/23602/canvas/canvas-2276315#xywh=2033,1484,186,48", 
            "resource": {
                "@type": "cnt:ContentAsText", 
                "chars": "DICTI", 
                "format": "text/plain"
            }
        }, 
        {
            "@id": "https://manifests.teklia.com/HIMANIS/JJ037/words_annotations/FRCHANJJ_JJ037_0021R.json/20/line", 
            "@type": "oa:Annotation", 
            "motivation": "oa:painting", 
            "on": "http://bvmm.irht.cnrs.fr/iiif/23602/canvas/canvas-2276315#xywh=782,0,60,50", 
            "resource": {
                "@type": "cnt:ContentAsText", 
                "chars": "ET", 
                "format": "text/plain"
            }
        }, 
        {
            "@id": "https://manifests.teklia.com/HIMANIS/JJ037/words_annotations/FRCHANJJ_JJ037_0021R.json/21/line", 
            "@type": "oa:Annotation", 
            "motivation": "oa:painting", 
            "on": "http://bvmm.irht.cnrs.fr/iiif/23602/canvas/canvas-2276315#xywh=2486,1390,178,94", 
            "resource": {
                "@type": "cnt:ContentAsText", 
                "chars": "AGILONE", 
                "format": "text/plain"
            }
        }, 
        {
            "@id": "https://manifests.teklia.com/HIMANIS/JJ037/words_annotations/FRCHANJJ_JJ037_0021R.json/22/line", 
            "@type": "oa:Annotation", 
            "motivation": "oa:painting", 
            "on": "http://bvmm.irht.cnrs.fr/iiif/23602/canvas/canvas-2276315#xywh=1030,136,224,52", 
            "resource": {
                "@type": "cnt:ContentAsText", 
                "chars": "STATUM", 
                "format": "text/plain"
            }
        }, 
        {
            "@id": "https://manifests.teklia.com/HIMANIS/JJ037/words_annotations/FRCHANJJ_JJ037_0021R.json/23/line", 
            "@type": "oa:Annotation", 
            "motivation": "oa:painting", 
            "on": "http://bvmm.irht.cnrs.fr/iiif/23602/canvas/canvas-2276315#xywh=822,136,194,52", 
            "resource": {
                "@type": "cnt:ContentAsText", 
                "chars": "DE", 
                "format": "text/plain"
            }
        }, 
        {
            "@id": "https://manifests.teklia.com/HIMANIS/JJ037/words_annotations/FRCHANJJ_JJ037_0021R.json/24/line", 
            "@type": "oa:Annotation", 
            "motivation": "oa:painting", 
            "on": "http://bvmm.irht.cnrs.fr/iiif/23602/canvas/canvas-2276315#xywh=2013,136,155,52", 
            "resource": {
                "@type": "cnt:ContentAsText", 
                "chars": "MAINE", 
                "format": "text/plain"
            }
        }, 
        {
            "@id": "https://manifests.teklia.com/HIMANIS/JJ037/words_annotations/FRCHANJJ_JJ037_0021R.json/25/line", 
            "@type": "oa:Annotation", 
            "motivation": "oa:painting", 
            "on": "http://bvmm.irht.cnrs.fr/iiif/23602/canvas/canvas-2276315#xywh=1651,1484,220,48", 
            "resource": {
                "@type": "cnt:ContentAsText", 
                "chars": "PIERRE", 
                "format": "text/plain"
            }
        }, 
        {
            "@id": "https://manifests.teklia.com/HIMANIS/JJ037/words_annotations/FRCHANJJ_JJ037_0021R.json/26/line", 
            "@type": "oa:Annotation", 
            "motivation": "oa:painting", 
            "on": "http://bvmm.irht.cnrs.fr/iiif/23602/canvas/canvas-2276315#xywh=2344,1390,83,94", 
            "resource": {
                "@type": "cnt:ContentAsText", 
                "chars": "ITUM", 
                "format": "text/plain"
            }
        }, 
        {
            "@id": "https://manifests.teklia.com/HIMANIS/JJ037/words_annotations/FRCHANJJ_JJ037_0021R.json/27/line", 
            "@type": "oa:Annotation", 
            "motivation": "oa:painting", 
            "on": "http://bvmm.irht.cnrs.fr/iiif/23602/canvas/canvas-2276315#xywh=2442,136,83,52", 
            "resource": {
                "@type": "cnt:ContentAsText", 
                "chars": "AULIT", 
                "format": "text/plain"
            }
        }, 
        {
            "@id": "https://manifests.teklia.com/HIMANIS/JJ037/words_annotations/FRCHANJJ_JJ037_0021R.json/28/line", 
            "@type": "oa:Annotation", 
            "motivation": "oa:painting", 
            "on": "http://bvmm.irht.cnrs.fr/iiif/23602/canvas/canvas-2276315#xywh=38,1250,204,108", 
            "resource": {
                "@type": "cnt:ContentAsText", 
                "chars": "STATE", 
                "format": "text/plain"
            }
        }, 
        {
            "@id": "https://manifests.teklia.com/HIMANIS/JJ037/words_annotations/FRCHANJJ_JJ037_0021R.json/29/line", 
            "@type": "oa:Annotation", 
            "motivation": "oa:painting", 
            "on": "http://bvmm.irht.cnrs.fr/iiif/23602/canvas/canvas-2276315#xywh=0,3744,2473,79", 
            "resource": {
                "@type": "cnt:ContentAsText", 
                "chars": "TES", 
                "format": "text/plain"
            }
        }, 
        {
            "@id": "https://manifests.teklia.com/HIMANIS/JJ037/words_annotations/FRCHANJJ_JJ037_0021R.json/30/line", 
            "@type": "oa:Annotation", 
            "motivation": "oa:painting", 
            "on": "http://bvmm.irht.cnrs.fr/iiif/23602/canvas/canvas-2276315#xywh=1651,1484,73,48", 
            "resource": {
                "@type": "cnt:ContentAsText", 
                "chars": "AD", 
                "format": "text/plain"
            }
        }, 
        {
            "@id": "https://manifests.teklia.com/HIMANIS/JJ037/words_annotations/FRCHANJJ_JJ037_0021R.json/31/line", 
            "@type": "oa:Annotation", 
            "motivation": "oa:painting", 
            "on": "http://bvmm.irht.cnrs.fr/iiif/23602/canvas/canvas-2276315#xywh=1538,0,1415,96", 
            "resource": {
                "@type": "cnt:ContentAsText", 
                "chars": "DE", 
                "format": "text/plain"
            }
        }, 
        {
            "@id": "https://manifests.teklia.com/HIMANIS/JJ037/words_annotations/FRCHANJJ_JJ037_0021R.json/32/line", 
            "@type": "oa:Annotation", 
            "motivation": "oa:painting", 
            "on": "http://bvmm.irht.cnrs.fr/iiif/23602/canvas/canvas-2276315#xywh=0,3744,3027,79", 
            "resource": {
                "@type": "cnt:ContentAsText", 
                "chars": "EST", 
                "format": "text/plain"
            }
        }, 
        {
            "@id": "https://manifests.teklia.com/HIMANIS/JJ037/words_annotations/FRCHANJJ_JJ037_0021R.json/33/line", 
            "@type": "oa:Annotation", 
            "motivation": "oa:painting", 
            "on": "http://bvmm.irht.cnrs.fr/iiif/23602/canvas/canvas-2276315#xywh=1350,1432,205,52", 
            "resource": {
                "@type": "cnt:ContentAsText", 
                "chars": "CREDDITUS", 
                "format": "text/plain"
            }
        }, 
        {
            "@id": "https://manifests.teklia.com/HIMANIS/JJ037/words_annotations/FRCHANJJ_JJ037_0021R.json/34/line", 
            "@type": "oa:Annotation", 
            "motivation": "oa:painting", 
            "on": "http://bvmm.irht.cnrs.fr/iiif/23602/canvas/canvas-2276315#xywh=822,136,194,52", 
            "resource": {
                "@type": "cnt:ContentAsText", 
                "chars": "QUE", 
                "format": "text/plain"
            }
        }, 
        {
            "@id": "https://manifests.teklia.com/HIMANIS/JJ037/words_annotations/FRCHANJJ_JJ037_0021R.json/35/line", 
            "@type": "oa:Annotation", 
            "motivation": "oa:painting", 
            "on": "http://bvmm.irht.cnrs.fr/iiif/23602/canvas/canvas-2276315#xywh=407,1432,96,52", 
            "resource": {
                "@type": "cnt:ContentAsText", 
                "chars": "ITEM", 
                "format": "text/plain"
            }
        }, 
        {
            "@id": "https://manifests.teklia.com/HIMANIS/JJ037/words_annotations/FRCHANJJ_JJ037_0021R.json/36/line", 
            "@type": "oa:Annotation", 
            "motivation": "oa:painting", 
            "on": "http://bvmm.irht.cnrs.fr/iiif/23602/canvas/canvas-2276315#xywh=2771,1390,154,94", 
            "resource": {
                "@type": "cnt:ContentAsText", 
                "chars": "QUOQUE", 
                "format": "text/plain"
            }
        }, 
        {
            "@id": "https://manifests.teklia.com/HIMANIS/JJ037/words_annotations/FRCHANJJ_JJ037_0021R.json/37/line", 
            "@type": "oa:Annotation", 
            "motivation": "oa:painting", 
            "on": "http://bvmm.irht.cnrs.fr/iiif/23602/canvas/canvas-2276315#xywh=38,1250,204,108", 
            "resource": {
                "@type": "cnt:ContentAsText", 
                "chars": "TATE", 
                "format": "text/plain"
            }
        }, 
        {
            "@id": "https://manifests.teklia.com/HIMANIS/JJ037/words_annotations/FRCHANJJ_JJ037_0021R.json/38/line", 
            "@type": "oa:Annotation", 
            "motivation": "oa:painting", 
            "on": "http://bvmm.irht.cnrs.fr/iiif/23602/canvas/canvas-2276315#xywh=0,3744,1773,79", 
            "resource": {
                "@type": "cnt:ContentAsText", 
                "chars": "ET", 
                "format": "text/plain"
            }
        }, 
        {
            "@id": "https://manifests.teklia.com/HIMANIS/JJ037/words_annotations/FRCHANJJ_JJ037_0021R.json/39/line", 
            "@type": "oa:Annotation", 
            "motivation": "oa:painting", 
            "on": "http://bvmm.irht.cnrs.fr/iiif/23602/canvas/canvas-2276315#xywh=822,136,194,52", 
            "resource": {
                "@type": "cnt:ContentAsText", 
                "chars": "NE", 
                "format": "text/plain"
            }
        }, 
        {
            "@id": "https://manifests.teklia.com/HIMANIS/JJ037/words_annotations/FRCHANJJ_JJ037_0021R.json/40/line", 
            "@type": "oa:Annotation", 
            "motivation": "oa:painting", 
            "on": "http://bvmm.irht.cnrs.fr/iiif/23602/canvas/canvas-2276315#xywh=2442,136,575,52", 
            "resource": {
                "@type": "cnt:ContentAsText", 
                "chars": "ALITE", 
                "format": "text/plain"
            }
        }, 
        {
            "@id": "https://manifests.teklia.com/HIMANIS/JJ037/words_annotations/FRCHANJJ_JJ037_0021R.json/41/line", 
            "@type": "oa:Annotation", 
            "motivation": "oa:painting", 
            "on": "http://bvmm.irht.cnrs.fr/iiif/23602/canvas/canvas-2276315#xywh=609,1432,0,52", 
            "resource": {
                "@type": "cnt:ContentAsText", 
                "chars": "A", 
                "format": "text/plain"
            }
        }, 
        {
            "@id": "https://manifests.teklia.com/HIMANIS/JJ037/words_annotations/FRCHANJJ_JJ037_0021R.json/42/line", 
            "@type": "oa:Annotation", 
            "motivation": "oa:painting", 
            "on": "http://bvmm.irht.cnrs.fr/iiif/23602/canvas/canvas-2276315#xywh=627,0,127,50", 
            "resource": {
                "@type": "cnt:ContentAsText", 
                "chars": "DE", 
                "format": "text/plain"
            }
        }, 
        {
            "@id": "https://manifests.teklia.com/HIMANIS/JJ037/words_annotations/FRCHANJJ_JJ037_0021R.json/43/line", 
            "@type": "oa:Annotation", 
            "motivation": "oa:painting", 
            "on": "http://bvmm.irht.cnrs.fr/iiif/23602/canvas/canvas-2276315#xywh=761,1432,424,52", 
            "resource": {
                "@type": "cnt:ContentAsText", 
                "chars": "MEDIENS", 
                "format": "text/plain"
            }
        }, 
        {
            "@id": "https://manifests.teklia.com/HIMANIS/JJ037/words_annotations/FRCHANJJ_JJ037_0021R.json/44/line", 
            "@type": "oa:Annotation", 
            "motivation": "oa:painting", 
            "on": "http://bvmm.irht.cnrs.fr/iiif/23602/canvas/canvas-2276315#xywh=761,1432,424,52", 
            "resource": {
                "@type": "cnt:ContentAsText", 
                "chars": "MEDIENT", 
                "format": "text/plain"
            }
        }, 
        {
            "@id": "https://manifests.teklia.com/HIMANIS/JJ037/words_annotations/FRCHANJJ_JJ037_0021R.json/45/line", 
            "@type": "oa:Annotation", 
            "motivation": "oa:painting", 
            "on": "http://bvmm.irht.cnrs.fr/iiif/23602/canvas/canvas-2276315#xywh=526,1432,63,52", 
            "resource": {
                "@type": "cnt:ContentAsText", 
                "chars": "SECUM", 
                "format": "text/plain"
            }
        }, 
        {
            "@id": "https://manifests.teklia.com/HIMANIS/JJ037/words_annotations/FRCHANJJ_JJ037_0021R.json/46/line", 
            "@type": "oa:Annotation", 
            "motivation": "oa:painting", 
            "on": "http://bvmm.irht.cnrs.fr/iiif/23602/canvas/canvas-2276315#xywh=526,1432,66,52", 
            "resource": {
                "@type": "cnt:ContentAsText", 
                "chars": "SECUN", 
                "format": "text/plain"
            }
        }, 
        {
            "@id": "https://manifests.teklia.com/HIMANIS/JJ037/words_annotations/FRCHANJJ_JJ037_0021R.json/47/line", 
            "@type": "oa:Annotation", 
            "motivation": "oa:painting", 
            "on": "http://bvmm.irht.cnrs.fr/iiif/23602/canvas/canvas-2276315#xywh=609,1432,103,52", 
            "resource": {
                "@type": "cnt:ContentAsText", 
                "chars": "DIE", 
                "format": "text/plain"
            }
        }, 
        {
            "@id": "https://manifests.teklia.com/HIMANIS/JJ037/words_annotations/FRCHANJJ_JJ037_0021R.json/48/line", 
            "@type": "oa:Annotation", 
            "motivation": "oa:painting", 
            "on": "http://bvmm.irht.cnrs.fr/iiif/23602/canvas/canvas-2276315#xywh=761,1432,566,52", 
            "resource": {
                "@type": "cnt:ContentAsText", 
                "chars": "HEREDI", 
                "format": "text/plain"
            }
        }, 
        {
            "@id": "https://manifests.teklia.com/HIMANIS/JJ037/words_annotations/FRCHANJJ_JJ037_0021R.json/49/line", 
            "@type": "oa:Annotation", 
            "motivation": "oa:painting", 
            "on": "http://bvmm.irht.cnrs.fr/iiif/23602/canvas/canvas-2276315#xywh=761,1432,242,52", 
            "resource": {
                "@type": "cnt:ContentAsText", 
                "chars": "DUOR", 
                "format": "text/plain"
            }
        }, 
        {
            "@id": "https://manifests.teklia.com/HIMANIS/JJ037/words_annotations/FRCHANJJ_JJ037_0021R.json/50/line", 
            "@type": "oa:Annotation", 
            "motivation": "oa:painting", 
            "on": "http://bvmm.irht.cnrs.fr/iiif/23602/canvas/canvas-2276315#xywh=581,1250,265,108", 
            "resource": {
                "@type": "cnt:ContentAsText", 
                "chars": "FIRMITATEM", 
                "format": "text/plain"
            }
        }, 
        {
            "@id": "https://manifests.teklia.com/HIMANIS/JJ037/words_annotations/FRCHANJJ_JJ037_0021R.json/51/line", 
            "@type": "oa:Annotation", 
            "motivation": "oa:painting", 
            "on": "http://bvmm.irht.cnrs.fr/iiif/23602/canvas/canvas-2276315#xywh=1587,1484,64,48", 
            "resource": {
                "@type": "cnt:ContentAsText", 
                "chars": "ELLE", 
                "format": "text/plain"
            }
        }, 
        {
            "@id": "https://manifests.teklia.com/HIMANIS/JJ037/words_annotations/FRCHANJJ_JJ037_0021R.json/52/line", 
            "@type": "oa:Annotation", 
            "motivation": "oa:painting", 
            "on": "http://bvmm.irht.cnrs.fr/iiif/23602/canvas/canvas-2276315#xywh=2442,136,129,52", 
            "resource": {
                "@type": "cnt:ContentAsText", 
                "chars": "LITTER", 
                "format": "text/plain"
            }
        }, 
        {
            "@id": "https://manifests.teklia.com/HIMANIS/JJ037/words_annotations/FRCHANJJ_JJ037_0021R.json/53/line", 
            "@type": "oa:Annotation", 
            "motivation": "oa:painting", 
            "on": "http://bvmm.irht.cnrs.fr/iiif/23602/canvas/canvas-2276315#xywh=2931,1390,89,94", 
            "resource": {
                "@type": "cnt:ContentAsText", 
                "chars": "LES", 
                "format": "text/plain"
            }
        }, 
        {
            "@id": "https://manifests.teklia.com/HIMANIS/JJ037/words_annotations/FRCHANJJ_JJ037_0021R.json/54/line", 
            "@type": "oa:Annotation", 
            "motivation": "oa:painting", 
            "on": "http://bvmm.irht.cnrs.fr/iiif/23602/canvas/canvas-2276315#xywh=761,1432,424,52", 
            "resource": {
                "@type": "cnt:ContentAsText", 
                "chars": "MEDIANZ", 
                "format": "text/plain"
            }
        }, 
        {
            "@id": "https://manifests.teklia.com/HIMANIS/JJ037/words_annotations/FRCHANJJ_JJ037_0021R.json/55/line", 
            "@type": "oa:Annotation", 
            "motivation": "oa:painting", 
            "on": "http://bvmm.irht.cnrs.fr/iiif/23602/canvas/canvas-2276315#xywh=337,1250,190,108", 
            "resource": {
                "@type": "cnt:ContentAsText", 
                "chars": "MAJOREM", 
                "format": "text/plain"
            }
        }, 
        {
            "@id": "https://manifests.teklia.com/HIMANIS/JJ037/words_annotations/FRCHANJJ_JJ037_0021R.json/56/line", 
            "@type": "oa:Annotation", 
            "motivation": "oa:painting", 
            "on": "http://bvmm.irht.cnrs.fr/iiif/23602/canvas/canvas-2276315#xywh=761,1432,387,52", 
            "resource": {
                "@type": "cnt:ContentAsText", 
                "chars": "MEDIEN", 
                "format": "text/plain"
            }
        }
    ]
}