{
    "@context": "http://iiif.io/api/presentation/2/context.json", 
    "@id": "https://manifests.teklia.com/HIMANIS/JJ082/words_annotations/FRCHANJJ_JJ082_0008R.json", 
    "@type": "sc:AnnotationList", 
    "resources": [
        {
            "@id": "https://manifests.teklia.com/HIMANIS/JJ082/words_annotations/FRCHANJJ_JJ082_0008R.json/0/line", 
            "@type": "oa:Annotation", 
            "motivation": "oa:painting", 
            "on": "http://bvmm.irht.cnrs.fr/iiif/23670/canvas/canvas-2294557#xywh=3451,2493,52,63", 
            "resource": {
                "@type": "cnt:ContentAsText", 
                "chars": "DE", 
                "format": "text/plain"
            }
        }, 
        {
            "@id": "https://manifests.teklia.com/HIMANIS/JJ082/words_annotations/FRCHANJJ_JJ082_0008R.json/1/line", 
            "@type": "oa:Annotation", 
            "motivation": "oa:painting", 
            "on": "http://bvmm.irht.cnrs.fr/iiif/23670/canvas/canvas-2294557#xywh=3452,2453,77,37", 
            "resource": {
                "@type": "cnt:ContentAsText", 
                "chars": "DE", 
                "format": "text/plain"
            }
        }, 
        {
            "@id": "https://manifests.teklia.com/HIMANIS/JJ082/words_annotations/FRCHANJJ_JJ082_0008R.json/2/line", 
            "@type": "oa:Annotation", 
            "motivation": "oa:painting", 
            "on": "http://bvmm.irht.cnrs.fr/iiif/23670/canvas/canvas-2294557#xywh=2183,2556,129,62", 
            "resource": {
                "@type": "cnt:ContentAsText", 
                "chars": "REGEM", 
                "format": "text/plain"
            }
        }, 
        {
            "@id": "https://manifests.teklia.com/HIMANIS/JJ082/words_annotations/FRCHANJJ_JJ082_0008R.json/3/line", 
            "@type": "oa:Annotation", 
            "motivation": "oa:painting", 
            "on": "http://bvmm.irht.cnrs.fr/iiif/23670/canvas/canvas-2294557#xywh=456,1302,48,42", 
            "resource": {
                "@type": "cnt:ContentAsText", 
                "chars": "GY", 
                "format": "text/plain"
            }
        }, 
        {
            "@id": "https://manifests.teklia.com/HIMANIS/JJ082/words_annotations/FRCHANJJ_JJ082_0008R.json/4/line", 
            "@type": "oa:Annotation", 
            "motivation": "oa:painting", 
            "on": "http://bvmm.irht.cnrs.fr/iiif/23670/canvas/canvas-2294557#xywh=2163,1909,195,52", 
            "resource": {
                "@type": "cnt:ContentAsText", 
                "chars": "PUISSE", 
                "format": "text/plain"
            }
        }, 
        {
            "@id": "https://manifests.teklia.com/HIMANIS/JJ082/words_annotations/FRCHANJJ_JJ082_0008R.json/5/line", 
            "@type": "oa:Annotation", 
            "motivation": "oa:painting", 
            "on": "http://bvmm.irht.cnrs.fr/iiif/23670/canvas/canvas-2294557#xywh=919,2493,124,60", 
            "resource": {
                "@type": "cnt:ContentAsText", 
                "chars": "ROBER", 
                "format": "text/plain"
            }
        }, 
        {
            "@id": "https://manifests.teklia.com/HIMANIS/JJ082/words_annotations/FRCHANJJ_JJ082_0008R.json/6/line", 
            "@type": "oa:Annotation", 
            "motivation": "oa:painting", 
            "on": "http://bvmm.irht.cnrs.fr/iiif/23670/canvas/canvas-2294557#xywh=1652,1731,153,66", 
            "resource": {
                "@type": "cnt:ContentAsText", 
                "chars": "QUO", 
                "format": "text/plain"
            }
        }, 
        {
            "@id": "https://manifests.teklia.com/HIMANIS/JJ082/words_annotations/FRCHANJJ_JJ082_0008R.json/7/line", 
            "@type": "oa:Annotation", 
            "motivation": "oa:painting", 
            "on": "http://bvmm.irht.cnrs.fr/iiif/23670/canvas/canvas-2294557#xywh=3415,1671,162,48", 
            "resource": {
                "@type": "cnt:ContentAsText", 
                "chars": "DILEC", 
                "format": "text/plain"
            }
        }, 
        {
            "@id": "https://manifests.teklia.com/HIMANIS/JJ082/words_annotations/FRCHANJJ_JJ082_0008R.json/8/line", 
            "@type": "oa:Annotation", 
            "motivation": "oa:painting", 
            "on": "http://bvmm.irht.cnrs.fr/iiif/23670/canvas/canvas-2294557#xywh=642,1302,0,42", 
            "resource": {
                "@type": "cnt:ContentAsText", 
                "chars": "G", 
                "format": "text/plain"
            }
        }, 
        {
            "@id": "https://manifests.teklia.com/HIMANIS/JJ082/words_annotations/FRCHANJJ_JJ082_0008R.json/9/line", 
            "@type": "oa:Annotation", 
            "motivation": "oa:painting", 
            "on": "http://bvmm.irht.cnrs.fr/iiif/23670/canvas/canvas-2294557#xywh=83,2925,321,57", 
            "resource": {
                "@type": "cnt:ContentAsText", 
                "chars": "CARII", 
                "format": "text/plain"
            }
        }, 
        {
            "@id": "https://manifests.teklia.com/HIMANIS/JJ082/words_annotations/FRCHANJJ_JJ082_0008R.json/10/line", 
            "@type": "oa:Annotation", 
            "motivation": "oa:painting", 
            "on": "http://bvmm.irht.cnrs.fr/iiif/23670/canvas/canvas-2294557#xywh=2375,4601,1081,113", 
            "resource": {
                "@type": "cnt:ContentAsText", 
                "chars": "PART", 
                "format": "text/plain"
            }
        }, 
        {
            "@id": "https://manifests.teklia.com/HIMANIS/JJ082/words_annotations/FRCHANJJ_JJ082_0008R.json/11/line", 
            "@type": "oa:Annotation", 
            "motivation": "oa:painting", 
            "on": "http://bvmm.irht.cnrs.fr/iiif/23670/canvas/canvas-2294557#xywh=3415,1671,3,48", 
            "resource": {
                "@type": "cnt:ContentAsText", 
                "chars": "DE", 
                "format": "text/plain"
            }
        }, 
        {
            "@id": "https://manifests.teklia.com/HIMANIS/JJ082/words_annotations/FRCHANJJ_JJ082_0008R.json/12/line", 
            "@type": "oa:Annotation", 
            "motivation": "oa:painting", 
            "on": "http://bvmm.irht.cnrs.fr/iiif/23670/canvas/canvas-2294557#xywh=919,2493,124,60", 
            "resource": {
                "@type": "cnt:ContentAsText", 
                "chars": "COLLA", 
                "format": "text/plain"
            }
        }, 
        {
            "@id": "https://manifests.teklia.com/HIMANIS/JJ082/words_annotations/FRCHANJJ_JJ082_0008R.json/13/line", 
            "@type": "oa:Annotation", 
            "motivation": "oa:painting", 
            "on": "http://bvmm.irht.cnrs.fr/iiif/23670/canvas/canvas-2294557#xywh=585,1371,0,21", 
            "resource": {
                "@type": "cnt:ContentAsText", 
                "chars": "P", 
                "format": "text/plain"
            }
        }, 
        {
            "@id": "https://manifests.teklia.com/HIMANIS/JJ082/words_annotations/FRCHANJJ_JJ082_0008R.json/14/line", 
            "@type": "oa:Annotation", 
            "motivation": "oa:painting", 
            "on": "http://bvmm.irht.cnrs.fr/iiif/23670/canvas/canvas-2294557#xywh=401,1332,0,36", 
            "resource": {
                "@type": "cnt:ContentAsText", 
                "chars": "G", 
                "format": "text/plain"
            }
        }, 
        {
            "@id": "https://manifests.teklia.com/HIMANIS/JJ082/words_annotations/FRCHANJJ_JJ082_0008R.json/15/line", 
            "@type": "oa:Annotation", 
            "motivation": "oa:painting", 
            "on": "http://bvmm.irht.cnrs.fr/iiif/23670/canvas/canvas-2294557#xywh=401,1332,0,36", 
            "resource": {
                "@type": "cnt:ContentAsText", 
                "chars": "S", 
                "format": "text/plain"
            }
        }, 
        {
            "@id": "https://manifests.teklia.com/HIMANIS/JJ082/words_annotations/FRCHANJJ_JJ082_0008R.json/16/line", 
            "@type": "oa:Annotation", 
            "motivation": "oa:painting", 
            "on": "http://bvmm.irht.cnrs.fr/iiif/23670/canvas/canvas-2294557#xywh=919,2493,83,60", 
            "resource": {
                "@type": "cnt:ContentAsText", 
                "chars": "NOS", 
                "format": "text/plain"
            }
        }, 
        {
            "@id": "https://manifests.teklia.com/HIMANIS/JJ082/words_annotations/FRCHANJJ_JJ082_0008R.json/17/line", 
            "@type": "oa:Annotation", 
            "motivation": "oa:painting", 
            "on": "http://bvmm.irht.cnrs.fr/iiif/23670/canvas/canvas-2294557#xywh=1985,1909,36,52", 
            "resource": {
                "@type": "cnt:ContentAsText", 
                "chars": "QUE", 
                "format": "text/plain"
            }
        }, 
        {
            "@id": "https://manifests.teklia.com/HIMANIS/JJ082/words_annotations/FRCHANJJ_JJ082_0008R.json/18/line", 
            "@type": "oa:Annotation", 
            "motivation": "oa:painting", 
            "on": "http://bvmm.irht.cnrs.fr/iiif/23670/canvas/canvas-2294557#xywh=3415,1731,16,66", 
            "resource": {
                "@type": "cnt:ContentAsText", 
                "chars": "LES", 
                "format": "text/plain"
            }
        }, 
        {
            "@id": "https://manifests.teklia.com/HIMANIS/JJ082/words_annotations/FRCHANJJ_JJ082_0008R.json/19/line", 
            "@type": "oa:Annotation", 
            "motivation": "oa:painting", 
            "on": "http://bvmm.irht.cnrs.fr/iiif/23670/canvas/canvas-2294557#xywh=533,1392,0,38", 
            "resource": {
                "@type": "cnt:ContentAsText", 
                "chars": "G", 
                "format": "text/plain"
            }
        }, 
        {
            "@id": "https://manifests.teklia.com/HIMANIS/JJ082/words_annotations/FRCHANJJ_JJ082_0008R.json/20/line", 
            "@type": "oa:Annotation", 
            "motivation": "oa:painting", 
            "on": "http://bvmm.irht.cnrs.fr/iiif/23670/canvas/canvas-2294557#xywh=533,1392,0,38", 
            "resource": {
                "@type": "cnt:ContentAsText", 
                "chars": "H", 
                "format": "text/plain"
            }
        }, 
        {
            "@id": "https://manifests.teklia.com/HIMANIS/JJ082/words_annotations/FRCHANJJ_JJ082_0008R.json/21/line", 
            "@type": "oa:Annotation", 
            "motivation": "oa:painting", 
            "on": "http://bvmm.irht.cnrs.fr/iiif/23670/canvas/canvas-2294557#xywh=533,1392,0,38", 
            "resource": {
                "@type": "cnt:ContentAsText", 
                "chars": "J", 
                "format": "text/plain"
            }
        }, 
        {
            "@id": "https://manifests.teklia.com/HIMANIS/JJ082/words_annotations/FRCHANJJ_JJ082_0008R.json/22/line", 
            "@type": "oa:Annotation", 
            "motivation": "oa:painting", 
            "on": "http://bvmm.irht.cnrs.fr/iiif/23670/canvas/canvas-2294557#xywh=3451,1671,117,48", 
            "resource": {
                "@type": "cnt:ContentAsText", 
                "chars": "ET", 
                "format": "text/plain"
            }
        }, 
        {
            "@id": "https://manifests.teklia.com/HIMANIS/JJ082/words_annotations/FRCHANJJ_JJ082_0008R.json/23/line", 
            "@type": "oa:Annotation", 
            "motivation": "oa:painting", 
            "on": "http://bvmm.irht.cnrs.fr/iiif/23670/canvas/canvas-2294557#xywh=2375,4601,903,113", 
            "resource": {
                "@type": "cnt:ContentAsText", 
                "chars": "RENT", 
                "format": "text/plain"
            }
        }, 
        {
            "@id": "https://manifests.teklia.com/HIMANIS/JJ082/words_annotations/FRCHANJJ_JJ082_0008R.json/24/line", 
            "@type": "oa:Annotation", 
            "motivation": "oa:painting", 
            "on": "http://bvmm.irht.cnrs.fr/iiif/23670/canvas/canvas-2294557#xywh=533,1392,0,38", 
            "resource": {
                "@type": "cnt:ContentAsText", 
                "chars": "R", 
                "format": "text/plain"
            }
        }, 
        {
            "@id": "https://manifests.teklia.com/HIMANIS/JJ082/words_annotations/FRCHANJJ_JJ082_0008R.json/25/line", 
            "@type": "oa:Annotation", 
            "motivation": "oa:painting", 
            "on": "http://bvmm.irht.cnrs.fr/iiif/23670/canvas/canvas-2294557#xywh=1652,1731,37,66", 
            "resource": {
                "@type": "cnt:ContentAsText", 
                "chars": "ET", 
                "format": "text/plain"
            }
        }, 
        {
            "@id": "https://manifests.teklia.com/HIMANIS/JJ082/words_annotations/FRCHANJJ_JJ082_0008R.json/26/line", 
            "@type": "oa:Annotation", 
            "motivation": "oa:painting", 
            "on": "http://bvmm.irht.cnrs.fr/iiif/23670/canvas/canvas-2294557#xywh=1652,1731,37,66", 
            "resource": {
                "@type": "cnt:ContentAsText", 
                "chars": "EX", 
                "format": "text/plain"
            }
        }, 
        {
            "@id": "https://manifests.teklia.com/HIMANIS/JJ082/words_annotations/FRCHANJJ_JJ082_0008R.json/27/line", 
            "@type": "oa:Annotation", 
            "motivation": "oa:painting", 
            "on": "http://bvmm.irht.cnrs.fr/iiif/23670/canvas/canvas-2294557#xywh=1952,2556,78,62", 
            "resource": {
                "@type": "cnt:ContentAsText", 
                "chars": "PER", 
                "format": "text/plain"
            }
        }, 
        {
            "@id": "https://manifests.teklia.com/HIMANIS/JJ082/words_annotations/FRCHANJJ_JJ082_0008R.json/28/line", 
            "@type": "oa:Annotation", 
            "motivation": "oa:painting", 
            "on": "http://bvmm.irht.cnrs.fr/iiif/23670/canvas/canvas-2294557#xywh=7,4601,2091,113", 
            "resource": {
                "@type": "cnt:ContentAsText", 
                "chars": "DE", 
                "format": "text/plain"
            }
        }, 
        {
            "@id": "https://manifests.teklia.com/HIMANIS/JJ082/words_annotations/FRCHANJJ_JJ082_0008R.json/29/line", 
            "@type": "oa:Annotation", 
            "motivation": "oa:painting", 
            "on": "http://bvmm.irht.cnrs.fr/iiif/23670/canvas/canvas-2294557#xywh=3418,1852,62,47", 
            "resource": {
                "@type": "cnt:ContentAsText", 
                "chars": "DES", 
                "format": "text/plain"
            }
        }, 
        {
            "@id": "https://manifests.teklia.com/HIMANIS/JJ082/words_annotations/FRCHANJJ_JJ082_0008R.json/30/line", 
            "@type": "oa:Annotation", 
            "motivation": "oa:painting", 
            "on": "http://bvmm.irht.cnrs.fr/iiif/23670/canvas/canvas-2294557#xywh=2220,2493,129,60", 
            "resource": {
                "@type": "cnt:ContentAsText", 
                "chars": "CCC", 
                "format": "text/plain"
            }
        }, 
        {
            "@id": "https://manifests.teklia.com/HIMANIS/JJ082/words_annotations/FRCHANJJ_JJ082_0008R.json/31/line", 
            "@type": "oa:Annotation", 
            "motivation": "oa:painting", 
            "on": "http://bvmm.irht.cnrs.fr/iiif/23670/canvas/canvas-2294557#xywh=2087,1909,36,52", 
            "resource": {
                "@type": "cnt:ContentAsText", 
                "chars": "OB", 
                "format": "text/plain"
            }
        }, 
        {
            "@id": "https://manifests.teklia.com/HIMANIS/JJ082/words_annotations/FRCHANJJ_JJ082_0008R.json/32/line", 
            "@type": "oa:Annotation", 
            "motivation": "oa:painting", 
            "on": "http://bvmm.irht.cnrs.fr/iiif/23670/canvas/canvas-2294557#xywh=1932,1909,26,52", 
            "resource": {
                "@type": "cnt:ContentAsText", 
                "chars": "SI", 
                "format": "text/plain"
            }
        }, 
        {
            "@id": "https://manifests.teklia.com/HIMANIS/JJ082/words_annotations/FRCHANJJ_JJ082_0008R.json/33/line", 
            "@type": "oa:Annotation", 
            "motivation": "oa:painting", 
            "on": "http://bvmm.irht.cnrs.fr/iiif/23670/canvas/canvas-2294557#xywh=3451,2493,80,63", 
            "resource": {
                "@type": "cnt:ContentAsText", 
                "chars": "LES", 
                "format": "text/plain"
            }
        }, 
        {
            "@id": "https://manifests.teklia.com/HIMANIS/JJ082/words_annotations/FRCHANJJ_JJ082_0008R.json/34/line", 
            "@type": "oa:Annotation", 
            "motivation": "oa:painting", 
            "on": "http://bvmm.irht.cnrs.fr/iiif/23670/canvas/canvas-2294557#xywh=1753,1909,106,52", 
            "resource": {
                "@type": "cnt:ContentAsText", 
                "chars": "DEDERE", 
                "format": "text/plain"
            }
        }, 
        {
            "@id": "https://manifests.teklia.com/HIMANIS/JJ082/words_annotations/FRCHANJJ_JJ082_0008R.json/35/line", 
            "@type": "oa:Annotation", 
            "motivation": "oa:painting", 
            "on": "http://bvmm.irht.cnrs.fr/iiif/23670/canvas/canvas-2294557#xywh=1753,1909,129,52", 
            "resource": {
                "@type": "cnt:ContentAsText", 
                "chars": "DEDENTES", 
                "format": "text/plain"
            }
        }, 
        {
            "@id": "https://manifests.teklia.com/HIMANIS/JJ082/words_annotations/FRCHANJJ_JJ082_0008R.json/36/line", 
            "@type": "oa:Annotation", 
            "motivation": "oa:painting", 
            "on": "http://bvmm.irht.cnrs.fr/iiif/23670/canvas/canvas-2294557#xywh=2403,2556,278,62", 
            "resource": {
                "@type": "cnt:ContentAsText", 
                "chars": "PRENDO", 
                "format": "text/plain"
            }
        }, 
        {
            "@id": "https://manifests.teklia.com/HIMANIS/JJ082/words_annotations/FRCHANJJ_JJ082_0008R.json/37/line", 
            "@type": "oa:Annotation", 
            "motivation": "oa:painting", 
            "on": "http://bvmm.irht.cnrs.fr/iiif/23670/canvas/canvas-2294557#xywh=3451,1671,102,48", 
            "resource": {
                "@type": "cnt:ContentAsText", 
                "chars": "NO", 
                "format": "text/plain"
            }
        }, 
        {
            "@id": "https://manifests.teklia.com/HIMANIS/JJ082/words_annotations/FRCHANJJ_JJ082_0008R.json/38/line", 
            "@type": "oa:Annotation", 
            "motivation": "oa:painting", 
            "on": "http://bvmm.irht.cnrs.fr/iiif/23670/canvas/canvas-2294557#xywh=2375,4601,754,113", 
            "resource": {
                "@type": "cnt:ContentAsText", 
                "chars": "ROY", 
                "format": "text/plain"
            }
        }, 
        {
            "@id": "https://manifests.teklia.com/HIMANIS/JJ082/words_annotations/FRCHANJJ_JJ082_0008R.json/39/line", 
            "@type": "oa:Annotation", 
            "motivation": "oa:painting", 
            "on": "http://bvmm.irht.cnrs.fr/iiif/23670/canvas/canvas-2294557#xywh=2595,1731,0,66", 
            "resource": {
                "@type": "cnt:ContentAsText", 
                "chars": "G", 
                "format": "text/plain"
            }
        }, 
        {
            "@id": "https://manifests.teklia.com/HIMANIS/JJ082/words_annotations/FRCHANJJ_JJ082_0008R.json/40/line", 
            "@type": "oa:Annotation", 
            "motivation": "oa:painting", 
            "on": "http://bvmm.irht.cnrs.fr/iiif/23670/canvas/canvas-2294557#xywh=1985,1909,72,52", 
            "resource": {
                "@type": "cnt:ContentAsText", 
                "chars": "QUIS", 
                "format": "text/plain"
            }
        }, 
        {
            "@id": "https://manifests.teklia.com/HIMANIS/JJ082/words_annotations/FRCHANJJ_JJ082_0008R.json/41/line", 
            "@type": "oa:Annotation", 
            "motivation": "oa:painting", 
            "on": "http://bvmm.irht.cnrs.fr/iiif/23670/canvas/canvas-2294557#xywh=1985,1909,72,52", 
            "resource": {
                "@type": "cnt:ContentAsText", 
                "chars": "QUES", 
                "format": "text/plain"
            }
        }, 
        {
            "@id": "https://manifests.teklia.com/HIMANIS/JJ082/words_annotations/FRCHANJJ_JJ082_0008R.json/42/line", 
            "@type": "oa:Annotation", 
            "motivation": "oa:painting", 
            "on": "http://bvmm.irht.cnrs.fr/iiif/23670/canvas/canvas-2294557#xywh=1985,1909,72,52", 
            "resource": {
                "@type": "cnt:ContentAsText", 
                "chars": "QUAS", 
                "format": "text/plain"
            }
        }, 
        {
            "@id": "https://manifests.teklia.com/HIMANIS/JJ082/words_annotations/FRCHANJJ_JJ082_0008R.json/43/line", 
            "@type": "oa:Annotation", 
            "motivation": "oa:painting", 
            "on": "http://bvmm.irht.cnrs.fr/iiif/23670/canvas/canvas-2294557#xywh=7,4601,2098,113", 
            "resource": {
                "@type": "cnt:ContentAsText", 
                "chars": "ET", 
                "format": "text/plain"
            }
        }, 
        {
            "@id": "https://manifests.teklia.com/HIMANIS/JJ082/words_annotations/FRCHANJJ_JJ082_0008R.json/44/line", 
            "@type": "oa:Annotation", 
            "motivation": "oa:painting", 
            "on": "http://bvmm.irht.cnrs.fr/iiif/23670/canvas/canvas-2294557#xywh=2595,1731,0,66", 
            "resource": {
                "@type": "cnt:ContentAsText", 
                "chars": "S", 
                "format": "text/plain"
            }
        }, 
        {
            "@id": "https://manifests.teklia.com/HIMANIS/JJ082/words_annotations/FRCHANJJ_JJ082_0008R.json/45/line", 
            "@type": "oa:Annotation", 
            "motivation": "oa:painting", 
            "on": "http://bvmm.irht.cnrs.fr/iiif/23670/canvas/canvas-2294557#xywh=3418,1852,6,47", 
            "resource": {
                "@type": "cnt:ContentAsText", 
                "chars": "DE", 
                "format": "text/plain"
            }
        }, 
        {
            "@id": "https://manifests.teklia.com/HIMANIS/JJ082/words_annotations/FRCHANJJ_JJ082_0008R.json/46/line", 
            "@type": "oa:Annotation", 
            "motivation": "oa:painting", 
            "on": "http://bvmm.irht.cnrs.fr/iiif/23670/canvas/canvas-2294557#xywh=2375,4601,882,113", 
            "resource": {
                "@type": "cnt:ContentAsText", 
                "chars": "PRES", 
                "format": "text/plain"
            }
        }, 
        {
            "@id": "https://manifests.teklia.com/HIMANIS/JJ082/words_annotations/FRCHANJJ_JJ082_0008R.json/47/line", 
            "@type": "oa:Annotation", 
            "motivation": "oa:painting", 
            "on": "http://bvmm.irht.cnrs.fr/iiif/23670/canvas/canvas-2294557#xywh=83,2925,321,57", 
            "resource": {
                "@type": "cnt:ContentAsText", 
                "chars": "DARII", 
                "format": "text/plain"
            }
        }
    ]
}