{
    "@context": "http://iiif.io/api/presentation/2/context.json", 
    "@id": "https://manifests.teklia.com/HIMANIS/JJ183/words_annotations/FRAN_0200_05244.json", 
    "@type": "sc:AnnotationList", 
    "resources": [
        {
            "@id": "https://manifests.teklia.com/HIMANIS/JJ183/words_annotations/FRAN_0200_05244.json/0/line", 
            "@type": "oa:Annotation", 
            "motivation": "oa:painting", 
            "on": "http://bvmm.irht.cnrs.fr/iiif/23790/canvas/canvas-2343088#xywh=1470,3936,159,36", 
            "resource": {
                "@type": "cnt:ContentAsText", 
                "chars": "DILECTUM", 
                "format": "text/plain"
            }
        }, 
        {
            "@id": "https://manifests.teklia.com/HIMANIS/JJ183/words_annotations/FRAN_0200_05244.json/1/line", 
            "@type": "oa:Annotation", 
            "motivation": "oa:painting", 
            "on": "http://bvmm.irht.cnrs.fr/iiif/23790/canvas/canvas-2343088#xywh=0,76,1084,118", 
            "resource": {
                "@type": "cnt:ContentAsText", 
                "chars": "KARO", 
                "format": "text/plain"
            }
        }, 
        {
            "@id": "https://manifests.teklia.com/HIMANIS/JJ183/words_annotations/FRAN_0200_05244.json/2/line", 
            "@type": "oa:Annotation", 
            "motivation": "oa:painting", 
            "on": "http://bvmm.irht.cnrs.fr/iiif/23790/canvas/canvas-2343088#xywh=1470,3936,111,36", 
            "resource": {
                "@type": "cnt:ContentAsText", 
                "chars": "DE", 
                "format": "text/plain"
            }
        }, 
        {
            "@id": "https://manifests.teklia.com/HIMANIS/JJ183/words_annotations/FRAN_0200_05244.json/3/line", 
            "@type": "oa:Annotation", 
            "motivation": "oa:painting", 
            "on": "http://bvmm.irht.cnrs.fr/iiif/23790/canvas/canvas-2343088#xywh=1470,3936,159,36", 
            "resource": {
                "@type": "cnt:ContentAsText", 
                "chars": "DILECTIS", 
                "format": "text/plain"
            }
        }, 
        {
            "@id": "https://manifests.teklia.com/HIMANIS/JJ183/words_annotations/FRAN_0200_05244.json/4/line", 
            "@type": "oa:Annotation", 
            "motivation": "oa:painting", 
            "on": "http://bvmm.irht.cnrs.fr/iiif/23790/canvas/canvas-2343088#xywh=3880,3070,28,22", 
            "resource": {
                "@type": "cnt:ContentAsText", 
                "chars": "DE", 
                "format": "text/plain"
            }
        }
    ]
}