{
    "@context": "http://iiif.io/api/presentation/2/context.json", 
    "@id": "https://manifests.teklia.com/HIMANIS/JJ168/words_annotations/FRAN_0021_28575.json", 
    "@type": "sc:AnnotationList", 
    "resources": [
        {
            "@id": "https://manifests.teklia.com/HIMANIS/JJ168/words_annotations/FRAN_0021_28575.json/0/line", 
            "@type": "oa:Annotation", 
            "motivation": "oa:painting", 
            "on": "http://bvmm.irht.cnrs.fr/iiif/23761/canvas/canvas-2331568#xywh=2862,1326,174,75", 
            "resource": {
                "@type": "cnt:ContentAsText", 
                "chars": "VI", 
                "format": "text/plain"
            }
        }, 
        {
            "@id": "https://manifests.teklia.com/HIMANIS/JJ168/words_annotations/FRAN_0021_28575.json/1/line", 
            "@type": "oa:Annotation", 
            "motivation": "oa:painting", 
            "on": "http://bvmm.irht.cnrs.fr/iiif/23761/canvas/canvas-2331568#xywh=1219,928,385,99", 
            "resource": {
                "@type": "cnt:ContentAsText", 
                "chars": "SYMONETIBERT", 
                "format": "text/plain"
            }
        }, 
        {
            "@id": "https://manifests.teklia.com/HIMANIS/JJ168/words_annotations/FRAN_0021_28575.json/2/line", 
            "@type": "oa:Annotation", 
            "motivation": "oa:painting", 
            "on": "http://bvmm.irht.cnrs.fr/iiif/23761/canvas/canvas-2331568#xywh=2346,1844,97,98", 
            "resource": {
                "@type": "cnt:ContentAsText", 
                "chars": "COLLA", 
                "format": "text/plain"
            }
        }, 
        {
            "@id": "https://manifests.teklia.com/HIMANIS/JJ168/words_annotations/FRAN_0021_28575.json/3/line", 
            "@type": "oa:Annotation", 
            "motivation": "oa:painting", 
            "on": "http://bvmm.irht.cnrs.fr/iiif/23761/canvas/canvas-2331568#xywh=1420,1201,214,85", 
            "resource": {
                "@type": "cnt:ContentAsText", 
                "chars": "NIVEILLES", 
                "format": "text/plain"
            }
        }, 
        {
            "@id": "https://manifests.teklia.com/HIMANIS/JJ168/words_annotations/FRAN_0021_28575.json/4/line", 
            "@type": "oa:Annotation", 
            "motivation": "oa:painting", 
            "on": "http://bvmm.irht.cnrs.fr/iiif/23761/canvas/canvas-2331568#xywh=791,928,298,99", 
            "resource": {
                "@type": "cnt:ContentAsText", 
                "chars": "EMISSIO", 
                "format": "text/plain"
            }
        }, 
        {
            "@id": "https://manifests.teklia.com/HIMANIS/JJ168/words_annotations/FRAN_0021_28575.json/5/line", 
            "@type": "oa:Annotation", 
            "motivation": "oa:painting", 
            "on": "http://bvmm.irht.cnrs.fr/iiif/23761/canvas/canvas-2331568#xywh=1191,1201,139,85", 
            "resource": {
                "@type": "cnt:ContentAsText", 
                "chars": "REDETO", 
                "format": "text/plain"
            }
        }, 
        {
            "@id": "https://manifests.teklia.com/HIMANIS/JJ168/words_annotations/FRAN_0021_28575.json/6/line", 
            "@type": "oa:Annotation", 
            "motivation": "oa:painting", 
            "on": "http://bvmm.irht.cnrs.fr/iiif/23761/canvas/canvas-2331568#xywh=2881,1156,0,45", 
            "resource": {
                "@type": "cnt:ContentAsText", 
                "chars": "P", 
                "format": "text/plain"
            }
        }, 
        {
            "@id": "https://manifests.teklia.com/HIMANIS/JJ168/words_annotations/FRAN_0021_28575.json/7/line", 
            "@type": "oa:Annotation", 
            "motivation": "oa:painting", 
            "on": "http://bvmm.irht.cnrs.fr/iiif/23761/canvas/canvas-2331568#xywh=791,1331,274,70", 
            "resource": {
                "@type": "cnt:ContentAsText", 
                "chars": "PERRISSIO", 
                "format": "text/plain"
            }
        }, 
        {
            "@id": "https://manifests.teklia.com/HIMANIS/JJ168/words_annotations/FRAN_0021_28575.json/8/line", 
            "@type": "oa:Annotation", 
            "motivation": "oa:painting", 
            "on": "http://bvmm.irht.cnrs.fr/iiif/23761/canvas/canvas-2331568#xywh=800,1009,280,67", 
            "resource": {
                "@type": "cnt:ContentAsText", 
                "chars": "PREMISSIO", 
                "format": "text/plain"
            }
        }, 
        {
            "@id": "https://manifests.teklia.com/HIMANIS/JJ168/words_annotations/FRAN_0021_28575.json/9/line", 
            "@type": "oa:Annotation", 
            "motivation": "oa:painting", 
            "on": "http://bvmm.irht.cnrs.fr/iiif/23761/canvas/canvas-2331568#xywh=1472,1401,61,80", 
            "resource": {
                "@type": "cnt:ContentAsText", 
                "chars": "UXOR", 
                "format": "text/plain"
            }
        }, 
        {
            "@id": "https://manifests.teklia.com/HIMANIS/JJ168/words_annotations/FRAN_0021_28575.json/10/line", 
            "@type": "oa:Annotation", 
            "motivation": "oa:painting", 
            "on": "http://bvmm.irht.cnrs.fr/iiif/23761/canvas/canvas-2331568#xywh=1191,1201,139,85", 
            "resource": {
                "@type": "cnt:ContentAsText", 
                "chars": "REDDETO", 
                "format": "text/plain"
            }
        }, 
        {
            "@id": "https://manifests.teklia.com/HIMANIS/JJ168/words_annotations/FRAN_0021_28575.json/11/line", 
            "@type": "oa:Annotation", 
            "motivation": "oa:painting", 
            "on": "http://bvmm.irht.cnrs.fr/iiif/23761/canvas/canvas-2331568#xywh=791,1331,274,70", 
            "resource": {
                "@type": "cnt:ContentAsText", 
                "chars": "PERMISSIO", 
                "format": "text/plain"
            }
        }, 
        {
            "@id": "https://manifests.teklia.com/HIMANIS/JJ168/words_annotations/FRAN_0021_28575.json/12/line", 
            "@type": "oa:Annotation", 
            "motivation": "oa:painting", 
            "on": "http://bvmm.irht.cnrs.fr/iiif/23761/canvas/canvas-2331568#xywh=800,1401,56,80", 
            "resource": {
                "@type": "cnt:ContentAsText", 
                "chars": "PER", 
                "format": "text/plain"
            }
        }, 
        {
            "@id": "https://manifests.teklia.com/HIMANIS/JJ168/words_annotations/FRAN_0021_28575.json/13/line", 
            "@type": "oa:Annotation", 
            "motivation": "oa:painting", 
            "on": "http://bvmm.irht.cnrs.fr/iiif/23761/canvas/canvas-2331568#xywh=800,1009,302,67", 
            "resource": {
                "@type": "cnt:ContentAsText", 
                "chars": "PREMISSIS", 
                "format": "text/plain"
            }
        }, 
        {
            "@id": "https://manifests.teklia.com/HIMANIS/JJ168/words_annotations/FRAN_0021_28575.json/14/line", 
            "@type": "oa:Annotation", 
            "motivation": "oa:painting", 
            "on": "http://bvmm.irht.cnrs.fr/iiif/23761/canvas/canvas-2331568#xywh=814,1266,42,75", 
            "resource": {
                "@type": "cnt:ContentAsText", 
                "chars": "PER", 
                "format": "text/plain"
            }
        }, 
        {
            "@id": "https://manifests.teklia.com/HIMANIS/JJ168/words_annotations/FRAN_0021_28575.json/15/line", 
            "@type": "oa:Annotation", 
            "motivation": "oa:painting", 
            "on": "http://bvmm.irht.cnrs.fr/iiif/23761/canvas/canvas-2331568#xywh=1378,1266,204,75", 
            "resource": {
                "@type": "cnt:ContentAsText", 
                "chars": "LALEMANT", 
                "format": "text/plain"
            }
        }, 
        {
            "@id": "https://manifests.teklia.com/HIMANIS/JJ168/words_annotations/FRAN_0021_28575.json/16/line", 
            "@type": "oa:Annotation", 
            "motivation": "oa:painting", 
            "on": "http://bvmm.irht.cnrs.fr/iiif/23761/canvas/canvas-2331568#xywh=1113,1146,69,60", 
            "resource": {
                "@type": "cnt:ContentAsText", 
                "chars": "PRO", 
                "format": "text/plain"
            }
        }, 
        {
            "@id": "https://manifests.teklia.com/HIMANIS/JJ168/words_annotations/FRAN_0021_28575.json/17/line", 
            "@type": "oa:Annotation", 
            "motivation": "oa:painting", 
            "on": "http://bvmm.irht.cnrs.fr/iiif/23761/canvas/canvas-2331568#xywh=1399,1009,166,67", 
            "resource": {
                "@type": "cnt:ContentAsText", 
                "chars": "HERITANIER", 
                "format": "text/plain"
            }
        }, 
        {
            "@id": "https://manifests.teklia.com/HIMANIS/JJ168/words_annotations/FRAN_0021_28575.json/18/line", 
            "@type": "oa:Annotation", 
            "motivation": "oa:painting", 
            "on": "http://bvmm.irht.cnrs.fr/iiif/23761/canvas/canvas-2331568#xywh=1092,1331,71,70", 
            "resource": {
                "@type": "cnt:ContentAsText", 
                "chars": "PRO", 
                "format": "text/plain"
            }
        }, 
        {
            "@id": "https://manifests.teklia.com/HIMANIS/JJ168/words_annotations/FRAN_0021_28575.json/19/line", 
            "@type": "oa:Annotation", 
            "motivation": "oa:painting", 
            "on": "http://bvmm.irht.cnrs.fr/iiif/23761/canvas/canvas-2331568#xywh=1110,1009,72,67", 
            "resource": {
                "@type": "cnt:ContentAsText", 
                "chars": "PRO", 
                "format": "text/plain"
            }
        }, 
        {
            "@id": "https://manifests.teklia.com/HIMANIS/JJ168/words_annotations/FRAN_0021_28575.json/20/line", 
            "@type": "oa:Annotation", 
            "motivation": "oa:painting", 
            "on": "http://bvmm.irht.cnrs.fr/iiif/23761/canvas/canvas-2331568#xywh=2848,979,67,82", 
            "resource": {
                "@type": "cnt:ContentAsText", 
                "chars": "PER", 
                "format": "text/plain"
            }
        }, 
        {
            "@id": "https://manifests.teklia.com/HIMANIS/JJ168/words_annotations/FRAN_0021_28575.json/21/line", 
            "@type": "oa:Annotation", 
            "motivation": "oa:painting", 
            "on": "http://bvmm.irht.cnrs.fr/iiif/23761/canvas/canvas-2331568#xywh=1102,1056,79,105", 
            "resource": {
                "@type": "cnt:ContentAsText", 
                "chars": "PRO", 
                "format": "text/plain"
            }
        }, 
        {
            "@id": "https://manifests.teklia.com/HIMANIS/JJ168/words_annotations/FRAN_0021_28575.json/22/line", 
            "@type": "oa:Annotation", 
            "motivation": "oa:painting", 
            "on": "http://bvmm.irht.cnrs.fr/iiif/23761/canvas/canvas-2331568#xywh=2853,1541,181,74", 
            "resource": {
                "@type": "cnt:ContentAsText", 
                "chars": "IIIXXX", 
                "format": "text/plain"
            }
        }, 
        {
            "@id": "https://manifests.teklia.com/HIMANIS/JJ168/words_annotations/FRAN_0021_28575.json/23/line", 
            "@type": "oa:Annotation", 
            "motivation": "oa:painting", 
            "on": "http://bvmm.irht.cnrs.fr/iiif/23761/canvas/canvas-2331568#xywh=2954,1056,86,100", 
            "resource": {
                "@type": "cnt:ContentAsText", 
                "chars": "DI", 
                "format": "text/plain"
            }
        }, 
        {
            "@id": "https://manifests.teklia.com/HIMANIS/JJ168/words_annotations/FRAN_0021_28575.json/24/line", 
            "@type": "oa:Annotation", 
            "motivation": "oa:painting", 
            "on": "http://bvmm.irht.cnrs.fr/iiif/23761/canvas/canvas-2331568#xywh=1102,1471,66,95", 
            "resource": {
                "@type": "cnt:ContentAsText", 
                "chars": "PRO", 
                "format": "text/plain"
            }
        }, 
        {
            "@id": "https://manifests.teklia.com/HIMANIS/JJ168/words_annotations/FRAN_0021_28575.json/25/line", 
            "@type": "oa:Annotation", 
            "motivation": "oa:painting", 
            "on": "http://bvmm.irht.cnrs.fr/iiif/23761/canvas/canvas-2331568#xywh=2865,1191,0,75", 
            "resource": {
                "@type": "cnt:ContentAsText", 
                "chars": "P", 
                "format": "text/plain"
            }
        }, 
        {
            "@id": "https://manifests.teklia.com/HIMANIS/JJ168/words_annotations/FRAN_0021_28575.json/26/line", 
            "@type": "oa:Annotation", 
            "motivation": "oa:painting", 
            "on": "http://bvmm.irht.cnrs.fr/iiif/23761/canvas/canvas-2331568#xywh=805,1056,277,105", 
            "resource": {
                "@type": "cnt:ContentAsText", 
                "chars": "PREMISSIA", 
                "format": "text/plain"
            }
        }, 
        {
            "@id": "https://manifests.teklia.com/HIMANIS/JJ168/words_annotations/FRAN_0021_28575.json/27/line", 
            "@type": "oa:Annotation", 
            "motivation": "oa:painting", 
            "on": "http://bvmm.irht.cnrs.fr/iiif/23761/canvas/canvas-2331568#xywh=790,1201,278,85", 
            "resource": {
                "@type": "cnt:ContentAsText", 
                "chars": "PREMISSIO", 
                "format": "text/plain"
            }
        }, 
        {
            "@id": "https://manifests.teklia.com/HIMANIS/JJ168/words_annotations/FRAN_0021_28575.json/28/line", 
            "@type": "oa:Annotation", 
            "motivation": "oa:painting", 
            "on": "http://bvmm.irht.cnrs.fr/iiif/23761/canvas/canvas-2331568#xywh=1464,1056,218,105", 
            "resource": {
                "@type": "cnt:ContentAsText", 
                "chars": "BALEZAIRE", 
                "format": "text/plain"
            }
        }, 
        {
            "@id": "https://manifests.teklia.com/HIMANIS/JJ168/words_annotations/FRAN_0021_28575.json/29/line", 
            "@type": "oa:Annotation", 
            "motivation": "oa:painting", 
            "on": "http://bvmm.irht.cnrs.fr/iiif/23761/canvas/canvas-2331568#xywh=804,1471,269,95", 
            "resource": {
                "@type": "cnt:ContentAsText", 
                "chars": "PREMISSIO", 
                "format": "text/plain"
            }
        }, 
        {
            "@id": "https://manifests.teklia.com/HIMANIS/JJ168/words_annotations/FRAN_0021_28575.json/30/line", 
            "@type": "oa:Annotation", 
            "motivation": "oa:painting", 
            "on": "http://bvmm.irht.cnrs.fr/iiif/23761/canvas/canvas-2331568#xywh=1372,1056,33,105", 
            "resource": {
                "@type": "cnt:ContentAsText", 
                "chars": "DE", 
                "format": "text/plain"
            }
        }, 
        {
            "@id": "https://manifests.teklia.com/HIMANIS/JJ168/words_annotations/FRAN_0021_28575.json/31/line", 
            "@type": "oa:Annotation", 
            "motivation": "oa:painting", 
            "on": "http://bvmm.irht.cnrs.fr/iiif/23761/canvas/canvas-2331568#xywh=2862,1326,174,75", 
            "resource": {
                "@type": "cnt:ContentAsText", 
                "chars": "CII", 
                "format": "text/plain"
            }
        }, 
        {
            "@id": "https://manifests.teklia.com/HIMANIS/JJ168/words_annotations/FRAN_0021_28575.json/32/line", 
            "@type": "oa:Annotation", 
            "motivation": "oa:painting", 
            "on": "http://bvmm.irht.cnrs.fr/iiif/23761/canvas/canvas-2331568#xywh=47,4738,4193,124", 
            "resource": {
                "@type": "cnt:ContentAsText", 
                "chars": "QUOD", 
                "format": "text/plain"
            }
        }, 
        {
            "@id": "https://manifests.teklia.com/HIMANIS/JJ168/words_annotations/FRAN_0021_28575.json/33/line", 
            "@type": "oa:Annotation", 
            "motivation": "oa:painting", 
            "on": "http://bvmm.irht.cnrs.fr/iiif/23761/canvas/canvas-2331568#xywh=2461,1844,54,98", 
            "resource": {
                "@type": "cnt:ContentAsText", 
                "chars": "FOUR", 
                "format": "text/plain"
            }
        }, 
        {
            "@id": "https://manifests.teklia.com/HIMANIS/JJ168/words_annotations/FRAN_0021_28575.json/34/line", 
            "@type": "oa:Annotation", 
            "motivation": "oa:painting", 
            "on": "http://bvmm.irht.cnrs.fr/iiif/23761/canvas/canvas-2331568#xywh=2862,1326,0,75", 
            "resource": {
                "@type": "cnt:ContentAsText", 
                "chars": "M", 
                "format": "text/plain"
            }
        }, 
        {
            "@id": "https://manifests.teklia.com/HIMANIS/JJ168/words_annotations/FRAN_0021_28575.json/35/line", 
            "@type": "oa:Annotation", 
            "motivation": "oa:painting", 
            "on": "http://bvmm.irht.cnrs.fr/iiif/23761/canvas/canvas-2331568#xywh=894,1266,176,75", 
            "resource": {
                "@type": "cnt:ContentAsText", 
                "chars": "EMISSIO", 
                "format": "text/plain"
            }
        }, 
        {
            "@id": "https://manifests.teklia.com/HIMANIS/JJ168/words_annotations/FRAN_0021_28575.json/36/line", 
            "@type": "oa:Annotation", 
            "motivation": "oa:painting", 
            "on": "http://bvmm.irht.cnrs.fr/iiif/23761/canvas/canvas-2331568#xywh=1233,1009,136,67", 
            "resource": {
                "@type": "cnt:ContentAsText", 
                "chars": "ROLIO", 
                "format": "text/plain"
            }
        }, 
        {
            "@id": "https://manifests.teklia.com/HIMANIS/JJ168/words_annotations/FRAN_0021_28575.json/37/line", 
            "@type": "oa:Annotation", 
            "motivation": "oa:painting", 
            "on": "http://bvmm.irht.cnrs.fr/iiif/23761/canvas/canvas-2331568#xywh=1207,1056,145,105", 
            "resource": {
                "@type": "cnt:ContentAsText", 
                "chars": "STEPHANO", 
                "format": "text/plain"
            }
        }, 
        {
            "@id": "https://manifests.teklia.com/HIMANIS/JJ168/words_annotations/FRAN_0021_28575.json/38/line", 
            "@type": "oa:Annotation", 
            "motivation": "oa:painting", 
            "on": "http://bvmm.irht.cnrs.fr/iiif/23761/canvas/canvas-2331568#xywh=1414,1331,190,70", 
            "resource": {
                "@type": "cnt:ContentAsText", 
                "chars": "BONNIER", 
                "format": "text/plain"
            }
        }, 
        {
            "@id": "https://manifests.teklia.com/HIMANIS/JJ168/words_annotations/FRAN_0021_28575.json/39/line", 
            "@type": "oa:Annotation", 
            "motivation": "oa:painting", 
            "on": "http://bvmm.irht.cnrs.fr/iiif/23761/canvas/canvas-2331568#xywh=1203,1266,142,75", 
            "resource": {
                "@type": "cnt:ContentAsText", 
                "chars": "PERTO", 
                "format": "text/plain"
            }
        }, 
        {
            "@id": "https://manifests.teklia.com/HIMANIS/JJ168/words_annotations/FRAN_0021_28575.json/40/line", 
            "@type": "oa:Annotation", 
            "motivation": "oa:painting", 
            "on": "http://bvmm.irht.cnrs.fr/iiif/23761/canvas/canvas-2331568#xywh=805,1056,283,105", 
            "resource": {
                "@type": "cnt:ContentAsText", 
                "chars": "PREMISSIS", 
                "format": "text/plain"
            }
        }, 
        {
            "@id": "https://manifests.teklia.com/HIMANIS/JJ168/words_annotations/FRAN_0021_28575.json/41/line", 
            "@type": "oa:Annotation", 
            "motivation": "oa:painting", 
            "on": "http://bvmm.irht.cnrs.fr/iiif/23761/canvas/canvas-2331568#xywh=2954,1056,86,100", 
            "resource": {
                "@type": "cnt:ContentAsText", 
                "chars": "DOMI", 
                "format": "text/plain"
            }
        }, 
        {
            "@id": "https://manifests.teklia.com/HIMANIS/JJ168/words_annotations/FRAN_0021_28575.json/42/line", 
            "@type": "oa:Annotation", 
            "motivation": "oa:painting", 
            "on": "http://bvmm.irht.cnrs.fr/iiif/23761/canvas/canvas-2331568#xywh=1395,1471,149,95", 
            "resource": {
                "@type": "cnt:ContentAsText", 
                "chars": "VIDERE", 
                "format": "text/plain"
            }
        }, 
        {
            "@id": "https://manifests.teklia.com/HIMANIS/JJ168/words_annotations/FRAN_0021_28575.json/43/line", 
            "@type": "oa:Annotation", 
            "motivation": "oa:painting", 
            "on": "http://bvmm.irht.cnrs.fr/iiif/23761/canvas/canvas-2331568#xywh=1199,1401,238,80", 
            "resource": {
                "@type": "cnt:ContentAsText", 
                "chars": "JOHANNETA", 
                "format": "text/plain"
            }
        }, 
        {
            "@id": "https://manifests.teklia.com/HIMANIS/JJ168/words_annotations/FRAN_0021_28575.json/44/line", 
            "@type": "oa:Annotation", 
            "motivation": "oa:painting", 
            "on": "http://bvmm.irht.cnrs.fr/iiif/23761/canvas/canvas-2331568#xywh=2877,1396,0,75", 
            "resource": {
                "@type": "cnt:ContentAsText", 
                "chars": "J", 
                "format": "text/plain"
            }
        }, 
        {
            "@id": "https://manifests.teklia.com/HIMANIS/JJ168/words_annotations/FRAN_0021_28575.json/45/line", 
            "@type": "oa:Annotation", 
            "motivation": "oa:painting", 
            "on": "http://bvmm.irht.cnrs.fr/iiif/23761/canvas/canvas-2331568#xywh=1395,1471,215,95", 
            "resource": {
                "@type": "cnt:ContentAsText", 
                "chars": "VIDERON", 
                "format": "text/plain"
            }
        }, 
        {
            "@id": "https://manifests.teklia.com/HIMANIS/JJ168/words_annotations/FRAN_0021_28575.json/46/line", 
            "@type": "oa:Annotation", 
            "motivation": "oa:painting", 
            "on": "http://bvmm.irht.cnrs.fr/iiif/23761/canvas/canvas-2331568#xywh=1095,1201,64,85", 
            "resource": {
                "@type": "cnt:ContentAsText", 
                "chars": "PRO", 
                "format": "text/plain"
            }
        }, 
        {
            "@id": "https://manifests.teklia.com/HIMANIS/JJ168/words_annotations/FRAN_0021_28575.json/47/line", 
            "@type": "oa:Annotation", 
            "motivation": "oa:painting", 
            "on": "http://bvmm.irht.cnrs.fr/iiif/23761/canvas/canvas-2331568#xywh=2853,1541,93,74", 
            "resource": {
                "@type": "cnt:ContentAsText", 
                "chars": "MINI", 
                "format": "text/plain"
            }
        }, 
        {
            "@id": "https://manifests.teklia.com/HIMANIS/JJ168/words_annotations/FRAN_0021_28575.json/48/line", 
            "@type": "oa:Annotation", 
            "motivation": "oa:painting", 
            "on": "http://bvmm.irht.cnrs.fr/iiif/23761/canvas/canvas-2331568#xywh=2818,1056,111,100", 
            "resource": {
                "@type": "cnt:ContentAsText", 
                "chars": "NOSTRI", 
                "format": "text/plain"
            }
        }, 
        {
            "@id": "https://manifests.teklia.com/HIMANIS/JJ168/words_annotations/FRAN_0021_28575.json/49/line", 
            "@type": "oa:Annotation", 
            "motivation": "oa:painting", 
            "on": "http://bvmm.irht.cnrs.fr/iiif/23761/canvas/canvas-2331568#xywh=1418,1056,33,105", 
            "resource": {
                "@type": "cnt:ContentAsText", 
                "chars": "LA", 
                "format": "text/plain"
            }
        }, 
        {
            "@id": "https://manifests.teklia.com/HIMANIS/JJ168/words_annotations/FRAN_0021_28575.json/50/line", 
            "@type": "oa:Annotation", 
            "motivation": "oa:painting", 
            "on": "http://bvmm.irht.cnrs.fr/iiif/23761/canvas/canvas-2331568#xywh=2461,1844,60,98", 
            "resource": {
                "@type": "cnt:ContentAsText", 
                "chars": "FIR", 
                "format": "text/plain"
            }
        }, 
        {
            "@id": "https://manifests.teklia.com/HIMANIS/JJ168/words_annotations/FRAN_0021_28575.json/51/line", 
            "@type": "oa:Annotation", 
            "motivation": "oa:painting", 
            "on": "http://bvmm.irht.cnrs.fr/iiif/23761/canvas/canvas-2331568#xywh=2877,1396,0,75", 
            "resource": {
                "@type": "cnt:ContentAsText", 
                "chars": "R", 
                "format": "text/plain"
            }
        }, 
        {
            "@id": "https://manifests.teklia.com/HIMANIS/JJ168/words_annotations/FRAN_0021_28575.json/52/line", 
            "@type": "oa:Annotation", 
            "motivation": "oa:painting", 
            "on": "http://bvmm.irht.cnrs.fr/iiif/23761/canvas/canvas-2331568#xywh=1755,1401,192,80", 
            "resource": {
                "@type": "cnt:ContentAsText", 
                "chars": "GUILLONET", 
                "format": "text/plain"
            }
        }, 
        {
            "@id": "https://manifests.teklia.com/HIMANIS/JJ168/words_annotations/FRAN_0021_28575.json/53/line", 
            "@type": "oa:Annotation", 
            "motivation": "oa:painting", 
            "on": "http://bvmm.irht.cnrs.fr/iiif/23761/canvas/canvas-2331568#xywh=1233,1009,136,67", 
            "resource": {
                "@type": "cnt:ContentAsText", 
                "chars": "TOLIO", 
                "format": "text/plain"
            }
        }, 
        {
            "@id": "https://manifests.teklia.com/HIMANIS/JJ168/words_annotations/FRAN_0021_28575.json/54/line", 
            "@type": "oa:Annotation", 
            "motivation": "oa:painting", 
            "on": "http://bvmm.irht.cnrs.fr/iiif/23761/canvas/canvas-2331568#xywh=47,4738,3756,124", 
            "resource": {
                "@type": "cnt:ContentAsText", 
                "chars": "QUE", 
                "format": "text/plain"
            }
        }, 
        {
            "@id": "https://manifests.teklia.com/HIMANIS/JJ168/words_annotations/FRAN_0021_28575.json/55/line", 
            "@type": "oa:Annotation", 
            "motivation": "oa:painting", 
            "on": "http://bvmm.irht.cnrs.fr/iiif/23761/canvas/canvas-2331568#xywh=2818,1056,117,100", 
            "resource": {
                "@type": "cnt:ContentAsText", 
                "chars": "NOSTRIS", 
                "format": "text/plain"
            }
        }, 
        {
            "@id": "https://manifests.teklia.com/HIMANIS/JJ168/words_annotations/FRAN_0021_28575.json/56/line", 
            "@type": "oa:Annotation", 
            "motivation": "oa:painting", 
            "on": "http://bvmm.irht.cnrs.fr/iiif/23761/canvas/canvas-2331568#xywh=47,4738,3795,124", 
            "resource": {
                "@type": "cnt:ContentAsText", 
                "chars": "QUI", 
                "format": "text/plain"
            }
        }, 
        {
            "@id": "https://manifests.teklia.com/HIMANIS/JJ168/words_annotations/FRAN_0021_28575.json/57/line", 
            "@type": "oa:Annotation", 
            "motivation": "oa:painting", 
            "on": "http://bvmm.irht.cnrs.fr/iiif/23761/canvas/canvas-2331568#xywh=2848,979,191,82", 
            "resource": {
                "@type": "cnt:ContentAsText", 
                "chars": "PHILIPP", 
                "format": "text/plain"
            }
        }, 
        {
            "@id": "https://manifests.teklia.com/HIMANIS/JJ168/words_annotations/FRAN_0021_28575.json/58/line", 
            "@type": "oa:Annotation", 
            "motivation": "oa:painting", 
            "on": "http://bvmm.irht.cnrs.fr/iiif/23761/canvas/canvas-2331568#xywh=814,1266,256,75", 
            "resource": {
                "@type": "cnt:ContentAsText", 
                "chars": "PEREMISSIO", 
                "format": "text/plain"
            }
        }, 
        {
            "@id": "https://manifests.teklia.com/HIMANIS/JJ168/words_annotations/FRAN_0021_28575.json/59/line", 
            "@type": "oa:Annotation", 
            "motivation": "oa:painting", 
            "on": "http://bvmm.irht.cnrs.fr/iiif/23761/canvas/canvas-2331568#xywh=2461,1844,60,98", 
            "resource": {
                "@type": "cnt:ContentAsText", 
                "chars": "FOR", 
                "format": "text/plain"
            }
        }, 
        {
            "@id": "https://manifests.teklia.com/HIMANIS/JJ168/words_annotations/FRAN_0021_28575.json/60/line", 
            "@type": "oa:Annotation", 
            "motivation": "oa:painting", 
            "on": "http://bvmm.irht.cnrs.fr/iiif/23761/canvas/canvas-2331568#xywh=1202,1331,190,70", 
            "resource": {
                "@type": "cnt:ContentAsText", 
                "chars": "JOHANNE", 
                "format": "text/plain"
            }
        }, 
        {
            "@id": "https://manifests.teklia.com/HIMANIS/JJ168/words_annotations/FRAN_0021_28575.json/61/line", 
            "@type": "oa:Annotation", 
            "motivation": "oa:painting", 
            "on": "http://bvmm.irht.cnrs.fr/iiif/23761/canvas/canvas-2331568#xywh=1204,1471,149,95", 
            "resource": {
                "@type": "cnt:ContentAsText", 
                "chars": "ROBERTA", 
                "format": "text/plain"
            }
        }, 
        {
            "@id": "https://manifests.teklia.com/HIMANIS/JJ168/words_annotations/FRAN_0021_28575.json/62/line", 
            "@type": "oa:Annotation", 
            "motivation": "oa:painting", 
            "on": "http://bvmm.irht.cnrs.fr/iiif/23761/canvas/canvas-2331568#xywh=1220,1146,76,60", 
            "resource": {
                "@type": "cnt:ContentAsText", 
                "chars": "PHILIPPO", 
                "format": "text/plain"
            }
        }, 
        {
            "@id": "https://manifests.teklia.com/HIMANIS/JJ168/words_annotations/FRAN_0021_28575.json/63/line", 
            "@type": "oa:Annotation", 
            "motivation": "oa:painting", 
            "on": "http://bvmm.irht.cnrs.fr/iiif/23761/canvas/canvas-2331568#xywh=1233,1009,90,67", 
            "resource": {
                "@type": "cnt:ContentAsText", 
                "chars": "ROLUS", 
                "format": "text/plain"
            }
        }, 
        {
            "@id": "https://manifests.teklia.com/HIMANIS/JJ168/words_annotations/FRAN_0021_28575.json/64/line", 
            "@type": "oa:Annotation", 
            "motivation": "oa:painting", 
            "on": "http://bvmm.irht.cnrs.fr/iiif/23761/canvas/canvas-2331568#xywh=791,928,298,99", 
            "resource": {
                "@type": "cnt:ContentAsText", 
                "chars": "PEMISSIO", 
                "format": "text/plain"
            }
        }, 
        {
            "@id": "https://manifests.teklia.com/HIMANIS/JJ168/words_annotations/FRAN_0021_28575.json/65/line", 
            "@type": "oa:Annotation", 
            "motivation": "oa:painting", 
            "on": "http://bvmm.irht.cnrs.fr/iiif/23761/canvas/canvas-2331568#xywh=2848,979,186,82", 
            "resource": {
                "@type": "cnt:ContentAsText", 
                "chars": "PARIS", 
                "format": "text/plain"
            }
        }, 
        {
            "@id": "https://manifests.teklia.com/HIMANIS/JJ168/words_annotations/FRAN_0021_28575.json/66/line", 
            "@type": "oa:Annotation", 
            "motivation": "oa:painting", 
            "on": "http://bvmm.irht.cnrs.fr/iiif/23761/canvas/canvas-2331568#xywh=1418,1056,264,105", 
            "resource": {
                "@type": "cnt:ContentAsText", 
                "chars": "LABALASAIRE", 
                "format": "text/plain"
            }
        }, 
        {
            "@id": "https://manifests.teklia.com/HIMANIS/JJ168/words_annotations/FRAN_0021_28575.json/67/line", 
            "@type": "oa:Annotation", 
            "motivation": "oa:painting", 
            "on": "http://bvmm.irht.cnrs.fr/iiif/23761/canvas/canvas-2331568#xywh=901,1401,162,80", 
            "resource": {
                "@type": "cnt:ContentAsText", 
                "chars": "EMISSIO", 
                "format": "text/plain"
            }
        }, 
        {
            "@id": "https://manifests.teklia.com/HIMANIS/JJ168/words_annotations/FRAN_0021_28575.json/68/line", 
            "@type": "oa:Annotation", 
            "motivation": "oa:painting", 
            "on": "http://bvmm.irht.cnrs.fr/iiif/23761/canvas/canvas-2331568#xywh=1203,1266,142,75", 
            "resource": {
                "@type": "cnt:ContentAsText", 
                "chars": "PRERTO", 
                "format": "text/plain"
            }
        }, 
        {
            "@id": "https://manifests.teklia.com/HIMANIS/JJ168/words_annotations/FRAN_0021_28575.json/69/line", 
            "@type": "oa:Annotation", 
            "motivation": "oa:painting", 
            "on": "http://bvmm.irht.cnrs.fr/iiif/23761/canvas/canvas-2331568#xywh=1755,1401,213,80", 
            "resource": {
                "@type": "cnt:ContentAsText", 
                "chars": "GUILLENET", 
                "format": "text/plain"
            }
        }, 
        {
            "@id": "https://manifests.teklia.com/HIMANIS/JJ168/words_annotations/FRAN_0021_28575.json/70/line", 
            "@type": "oa:Annotation", 
            "motivation": "oa:painting", 
            "on": "http://bvmm.irht.cnrs.fr/iiif/23761/canvas/canvas-2331568#xywh=1204,1471,149,95", 
            "resource": {
                "@type": "cnt:ContentAsText", 
                "chars": "ROBERTO", 
                "format": "text/plain"
            }
        }, 
        {
            "@id": "https://manifests.teklia.com/HIMANIS/JJ168/words_annotations/FRAN_0021_28575.json/71/line", 
            "@type": "oa:Annotation", 
            "motivation": "oa:painting", 
            "on": "http://bvmm.irht.cnrs.fr/iiif/23761/canvas/canvas-2331568#xywh=1418,1056,264,105", 
            "resource": {
                "@type": "cnt:ContentAsText", 
                "chars": "LABALEZAIRE", 
                "format": "text/plain"
            }
        }, 
        {
            "@id": "https://manifests.teklia.com/HIMANIS/JJ168/words_annotations/FRAN_0021_28575.json/72/line", 
            "@type": "oa:Annotation", 
            "motivation": "oa:painting", 
            "on": "http://bvmm.irht.cnrs.fr/iiif/23761/canvas/canvas-2331568#xywh=53,169,1863,36", 
            "resource": {
                "@type": "cnt:ContentAsText", 
                "chars": "EN", 
                "format": "text/plain"
            }
        }, 
        {
            "@id": "https://manifests.teklia.com/HIMANIS/JJ168/words_annotations/FRAN_0021_28575.json/73/line", 
            "@type": "oa:Annotation", 
            "motivation": "oa:painting", 
            "on": "http://bvmm.irht.cnrs.fr/iiif/23761/canvas/canvas-2331568#xywh=1529,1948,0,112", 
            "resource": {
                "@type": "cnt:ContentAsText", 
                "chars": "P", 
                "format": "text/plain"
            }
        }, 
        {
            "@id": "https://manifests.teklia.com/HIMANIS/JJ168/words_annotations/FRAN_0021_28575.json/74/line", 
            "@type": "oa:Annotation", 
            "motivation": "oa:painting", 
            "on": "http://bvmm.irht.cnrs.fr/iiif/23761/canvas/canvas-2331568#xywh=1114,928,68,99", 
            "resource": {
                "@type": "cnt:ContentAsText", 
                "chars": "PRO", 
                "format": "text/plain"
            }
        }, 
        {
            "@id": "https://manifests.teklia.com/HIMANIS/JJ168/words_annotations/FRAN_0021_28575.json/75/line", 
            "@type": "oa:Annotation", 
            "motivation": "oa:painting", 
            "on": "http://bvmm.irht.cnrs.fr/iiif/23761/canvas/canvas-2331568#xywh=1558,1401,167,80", 
            "resource": {
                "@type": "cnt:ContentAsText", 
                "chars": "HENARDI", 
                "format": "text/plain"
            }
        }, 
        {
            "@id": "https://manifests.teklia.com/HIMANIS/JJ168/words_annotations/FRAN_0021_28575.json/76/line", 
            "@type": "oa:Annotation", 
            "motivation": "oa:painting", 
            "on": "http://bvmm.irht.cnrs.fr/iiif/23761/canvas/canvas-2331568#xywh=809,1146,262,60", 
            "resource": {
                "@type": "cnt:ContentAsText", 
                "chars": "REMISSIO", 
                "format": "text/plain"
            }
        }, 
        {
            "@id": "https://manifests.teklia.com/HIMANIS/JJ168/words_annotations/FRAN_0021_28575.json/77/line", 
            "@type": "oa:Annotation", 
            "motivation": "oa:painting", 
            "on": "http://bvmm.irht.cnrs.fr/iiif/23761/canvas/canvas-2331568#xywh=1362,1201,37,85", 
            "resource": {
                "@type": "cnt:ContentAsText", 
                "chars": "DE", 
                "format": "text/plain"
            }
        }, 
        {
            "@id": "https://manifests.teklia.com/HIMANIS/JJ168/words_annotations/FRAN_0021_28575.json/78/line", 
            "@type": "oa:Annotation", 
            "motivation": "oa:painting", 
            "on": "http://bvmm.irht.cnrs.fr/iiif/23761/canvas/canvas-2331568#xywh=1233,1009,90,67", 
            "resource": {
                "@type": "cnt:ContentAsText", 
                "chars": "TOLUS", 
                "format": "text/plain"
            }
        }, 
        {
            "@id": "https://manifests.teklia.com/HIMANIS/JJ168/words_annotations/FRAN_0021_28575.json/79/line", 
            "@type": "oa:Annotation", 
            "motivation": "oa:painting", 
            "on": "http://bvmm.irht.cnrs.fr/iiif/23761/canvas/canvas-2331568#xywh=901,1401,162,80", 
            "resource": {
                "@type": "cnt:ContentAsText", 
                "chars": "CIMISSIO", 
                "format": "text/plain"
            }
        }, 
        {
            "@id": "https://manifests.teklia.com/HIMANIS/JJ168/words_annotations/FRAN_0021_28575.json/80/line", 
            "@type": "oa:Annotation", 
            "motivation": "oa:painting", 
            "on": "http://bvmm.irht.cnrs.fr/iiif/23761/canvas/canvas-2331568#xywh=2964,1541,89,74", 
            "resource": {
                "@type": "cnt:ContentAsText", 
                "chars": "REX", 
                "format": "text/plain"
            }
        }, 
        {
            "@id": "https://manifests.teklia.com/HIMANIS/JJ168/words_annotations/FRAN_0021_28575.json/81/line", 
            "@type": "oa:Annotation", 
            "motivation": "oa:painting", 
            "on": "http://bvmm.irht.cnrs.fr/iiif/23761/canvas/canvas-2331568#xywh=1093,1401,71,80", 
            "resource": {
                "@type": "cnt:ContentAsText", 
                "chars": "PRO", 
                "format": "text/plain"
            }
        }, 
        {
            "@id": "https://manifests.teklia.com/HIMANIS/JJ168/words_annotations/FRAN_0021_28575.json/82/line", 
            "@type": "oa:Annotation", 
            "motivation": "oa:painting", 
            "on": "http://bvmm.irht.cnrs.fr/iiif/23761/canvas/canvas-2331568#xywh=1342,1146,182,60", 
            "resource": {
                "@type": "cnt:ContentAsText", 
                "chars": "MARIE", 
                "format": "text/plain"
            }
        }, 
        {
            "@id": "https://manifests.teklia.com/HIMANIS/JJ168/words_annotations/FRAN_0021_28575.json/83/line", 
            "@type": "oa:Annotation", 
            "motivation": "oa:painting", 
            "on": "http://bvmm.irht.cnrs.fr/iiif/23761/canvas/canvas-2331568#xywh=2461,1844,60,98", 
            "resource": {
                "@type": "cnt:ContentAsText", 
                "chars": "FAIT", 
                "format": "text/plain"
            }
        }, 
        {
            "@id": "https://manifests.teklia.com/HIMANIS/JJ168/words_annotations/FRAN_0021_28575.json/84/line", 
            "@type": "oa:Annotation", 
            "motivation": "oa:painting", 
            "on": "http://bvmm.irht.cnrs.fr/iiif/23761/canvas/canvas-2331568#xywh=2880,1466,0,75", 
            "resource": {
                "@type": "cnt:ContentAsText", 
                "chars": "P", 
                "format": "text/plain"
            }
        }, 
        {
            "@id": "https://manifests.teklia.com/HIMANIS/JJ168/words_annotations/FRAN_0021_28575.json/85/line", 
            "@type": "oa:Annotation", 
            "motivation": "oa:painting", 
            "on": "http://bvmm.irht.cnrs.fr/iiif/23761/canvas/canvas-2331568#xywh=2866,1261,0,70", 
            "resource": {
                "@type": "cnt:ContentAsText", 
                "chars": "R", 
                "format": "text/plain"
            }
        }, 
        {
            "@id": "https://manifests.teklia.com/HIMANIS/JJ168/words_annotations/FRAN_0021_28575.json/86/line", 
            "@type": "oa:Annotation", 
            "motivation": "oa:painting", 
            "on": "http://bvmm.irht.cnrs.fr/iiif/23761/canvas/canvas-2331568#xywh=1098,1266,72,75", 
            "resource": {
                "@type": "cnt:ContentAsText", 
                "chars": "PRO", 
                "format": "text/plain"
            }
        }, 
        {
            "@id": "https://manifests.teklia.com/HIMANIS/JJ168/words_annotations/FRAN_0021_28575.json/87/line", 
            "@type": "oa:Annotation", 
            "motivation": "oa:painting", 
            "on": "http://bvmm.irht.cnrs.fr/iiif/23761/canvas/canvas-2331568#xywh=1420,1201,214,85", 
            "resource": {
                "@type": "cnt:ContentAsText", 
                "chars": "RIVEILLES", 
                "format": "text/plain"
            }
        }, 
        {
            "@id": "https://manifests.teklia.com/HIMANIS/JJ168/words_annotations/FRAN_0021_28575.json/88/line", 
            "@type": "oa:Annotation", 
            "motivation": "oa:painting", 
            "on": "http://bvmm.irht.cnrs.fr/iiif/23761/canvas/canvas-2331568#xywh=1110,1009,89,67", 
            "resource": {
                "@type": "cnt:ContentAsText", 
                "chars": "QUO", 
                "format": "text/plain"
            }
        }, 
        {
            "@id": "https://manifests.teklia.com/HIMANIS/JJ168/words_annotations/FRAN_0021_28575.json/89/line", 
            "@type": "oa:Annotation", 
            "motivation": "oa:painting", 
            "on": "http://bvmm.irht.cnrs.fr/iiif/23761/canvas/canvas-2331568#xywh=1342,1146,205,60", 
            "resource": {
                "@type": "cnt:ContentAsText", 
                "chars": "MARII", 
                "format": "text/plain"
            }
        }, 
        {
            "@id": "https://manifests.teklia.com/HIMANIS/JJ168/words_annotations/FRAN_0021_28575.json/90/line", 
            "@type": "oa:Annotation", 
            "motivation": "oa:painting", 
            "on": "http://bvmm.irht.cnrs.fr/iiif/23761/canvas/canvas-2331568#xywh=2881,1156,0,45", 
            "resource": {
                "@type": "cnt:ContentAsText", 
                "chars": "G", 
                "format": "text/plain"
            }
        }
    ]
}