{
    "@context": "http://iiif.io/api/presentation/2/context.json", 
    "@id": "https://manifests.teklia.com/HIMANIS/JJ168/words_annotations/FRAN_0021_29020.json", 
    "@type": "sc:AnnotationList", 
    "resources": [
        {
            "@id": "https://manifests.teklia.com/HIMANIS/JJ168/words_annotations/FRAN_0021_29020.json/0/line", 
            "@type": "oa:Annotation", 
            "motivation": "oa:painting", 
            "on": "http://bvmm.irht.cnrs.fr/iiif/23761/canvas/canvas-2332013#xywh=1891,1715,151,150", 
            "resource": {
                "@type": "cnt:ContentAsText", 
                "chars": "REGEM", 
                "format": "text/plain"
            }
        }, 
        {
            "@id": "https://manifests.teklia.com/HIMANIS/JJ168/words_annotations/FRAN_0021_29020.json/1/line", 
            "@type": "oa:Annotation", 
            "motivation": "oa:painting", 
            "on": "http://bvmm.irht.cnrs.fr/iiif/23761/canvas/canvas-2332013#xywh=2667,1125,204,120", 
            "resource": {
                "@type": "cnt:ContentAsText", 
                "chars": "CURATUM", 
                "format": "text/plain"
            }
        }, 
        {
            "@id": "https://manifests.teklia.com/HIMANIS/JJ168/words_annotations/FRAN_0021_29020.json/2/line", 
            "@type": "oa:Annotation", 
            "motivation": "oa:painting", 
            "on": "http://bvmm.irht.cnrs.fr/iiif/23761/canvas/canvas-2332013#xywh=4415,1125,112,65", 
            "resource": {
                "@type": "cnt:ContentAsText", 
                "chars": "ALII", 
                "format": "text/plain"
            }
        }, 
        {
            "@id": "https://manifests.teklia.com/HIMANIS/JJ168/words_annotations/FRAN_0021_29020.json/3/line", 
            "@type": "oa:Annotation", 
            "motivation": "oa:painting", 
            "on": "http://bvmm.irht.cnrs.fr/iiif/23761/canvas/canvas-2332013#xywh=3475,1190,111,147", 
            "resource": {
                "@type": "cnt:ContentAsText", 
                "chars": "PARIS", 
                "format": "text/plain"
            }
        }, 
        {
            "@id": "https://manifests.teklia.com/HIMANIS/JJ168/words_annotations/FRAN_0021_29020.json/4/line", 
            "@type": "oa:Annotation", 
            "motivation": "oa:painting", 
            "on": "http://bvmm.irht.cnrs.fr/iiif/23761/canvas/canvas-2332013#xywh=1649,810,471,235", 
            "resource": {
                "@type": "cnt:ContentAsText", 
                "chars": "DE", 
                "format": "text/plain"
            }
        }, 
        {
            "@id": "https://manifests.teklia.com/HIMANIS/JJ168/words_annotations/FRAN_0021_29020.json/5/line", 
            "@type": "oa:Annotation", 
            "motivation": "oa:painting", 
            "on": "http://bvmm.irht.cnrs.fr/iiif/23761/canvas/canvas-2332013#xywh=2480,450,247,110", 
            "resource": {
                "@type": "cnt:ContentAsText", 
                "chars": "PER", 
                "format": "text/plain"
            }
        }, 
        {
            "@id": "https://manifests.teklia.com/HIMANIS/JJ168/words_annotations/FRAN_0021_29020.json/6/line", 
            "@type": "oa:Annotation", 
            "motivation": "oa:painting", 
            "on": "http://bvmm.irht.cnrs.fr/iiif/23761/canvas/canvas-2332013#xywh=2480,450,227,110", 
            "resource": {
                "@type": "cnt:ContentAsText", 
                "chars": "PAR", 
                "format": "text/plain"
            }
        }, 
        {
            "@id": "https://manifests.teklia.com/HIMANIS/JJ168/words_annotations/FRAN_0021_29020.json/7/line", 
            "@type": "oa:Annotation", 
            "motivation": "oa:painting", 
            "on": "http://bvmm.irht.cnrs.fr/iiif/23761/canvas/canvas-2332013#xywh=2932,1125,317,120", 
            "resource": {
                "@type": "cnt:ContentAsText", 
                "chars": "APPELLANUM", 
                "format": "text/plain"
            }
        }, 
        {
            "@id": "https://manifests.teklia.com/HIMANIS/JJ168/words_annotations/FRAN_0021_29020.json/8/line", 
            "@type": "oa:Annotation", 
            "motivation": "oa:painting", 
            "on": "http://bvmm.irht.cnrs.fr/iiif/23761/canvas/canvas-2332013#xywh=3849,1357,230,283", 
            "resource": {
                "@type": "cnt:ContentAsText", 
                "chars": "LETTRES", 
                "format": "text/plain"
            }
        }, 
        {
            "@id": "https://manifests.teklia.com/HIMANIS/JJ168/words_annotations/FRAN_0021_29020.json/9/line", 
            "@type": "oa:Annotation", 
            "motivation": "oa:painting", 
            "on": "http://bvmm.irht.cnrs.fr/iiif/23761/canvas/canvas-2332013#xywh=1649,810,250,235", 
            "resource": {
                "@type": "cnt:ContentAsText", 
                "chars": "DITES", 
                "format": "text/plain"
            }
        }, 
        {
            "@id": "https://manifests.teklia.com/HIMANIS/JJ168/words_annotations/FRAN_0021_29020.json/10/line", 
            "@type": "oa:Annotation", 
            "motivation": "oa:painting", 
            "on": "http://bvmm.irht.cnrs.fr/iiif/23761/canvas/canvas-2332013#xywh=1649,810,471,235", 
            "resource": {
                "@type": "cnt:ContentAsText", 
                "chars": "DU", 
                "format": "text/plain"
            }
        }, 
        {
            "@id": "https://manifests.teklia.com/HIMANIS/JJ168/words_annotations/FRAN_0021_29020.json/11/line", 
            "@type": "oa:Annotation", 
            "motivation": "oa:painting", 
            "on": "http://bvmm.irht.cnrs.fr/iiif/23761/canvas/canvas-2332013#xywh=2082,680,152,220", 
            "resource": {
                "@type": "cnt:ContentAsText", 
                "chars": "INCORES", 
                "format": "text/plain"
            }
        }, 
        {
            "@id": "https://manifests.teklia.com/HIMANIS/JJ168/words_annotations/FRAN_0021_29020.json/12/line", 
            "@type": "oa:Annotation", 
            "motivation": "oa:painting", 
            "on": "http://bvmm.irht.cnrs.fr/iiif/23761/canvas/canvas-2332013#xywh=3880,1615,617,140", 
            "resource": {
                "@type": "cnt:ContentAsText", 
                "chars": "CURI", 
                "format": "text/plain"
            }
        }, 
        {
            "@id": "https://manifests.teklia.com/HIMANIS/JJ168/words_annotations/FRAN_0021_29020.json/13/line", 
            "@type": "oa:Annotation", 
            "motivation": "oa:painting", 
            "on": "http://bvmm.irht.cnrs.fr/iiif/23761/canvas/canvas-2332013#xywh=2415,1357,284,283", 
            "resource": {
                "@type": "cnt:ContentAsText", 
                "chars": "BOISSENTIUM", 
                "format": "text/plain"
            }
        }, 
        {
            "@id": "https://manifests.teklia.com/HIMANIS/JJ168/words_annotations/FRAN_0021_29020.json/14/line", 
            "@type": "oa:Annotation", 
            "motivation": "oa:painting", 
            "on": "http://bvmm.irht.cnrs.fr/iiif/23761/canvas/canvas-2332013#xywh=3260,1010,121,160", 
            "resource": {
                "@type": "cnt:ContentAsText", 
                "chars": "NOSTRE", 
                "format": "text/plain"
            }
        }, 
        {
            "@id": "https://manifests.teklia.com/HIMANIS/JJ168/words_annotations/FRAN_0021_29020.json/15/line", 
            "@type": "oa:Annotation", 
            "motivation": "oa:painting", 
            "on": "http://bvmm.irht.cnrs.fr/iiif/23761/canvas/canvas-2332013#xywh=3260,1010,111,160", 
            "resource": {
                "@type": "cnt:ContentAsText", 
                "chars": "NOSTRI", 
                "format": "text/plain"
            }
        }, 
        {
            "@id": "https://manifests.teklia.com/HIMANIS/JJ168/words_annotations/FRAN_0021_29020.json/16/line", 
            "@type": "oa:Annotation", 
            "motivation": "oa:painting", 
            "on": "http://bvmm.irht.cnrs.fr/iiif/23761/canvas/canvas-2332013#xywh=2025,1125,348,120", 
            "resource": {
                "@type": "cnt:ContentAsText", 
                "chars": "JUBEMATORES", 
                "format": "text/plain"
            }
        }, 
        {
            "@id": "https://manifests.teklia.com/HIMANIS/JJ168/words_annotations/FRAN_0021_29020.json/17/line", 
            "@type": "oa:Annotation", 
            "motivation": "oa:painting", 
            "on": "http://bvmm.irht.cnrs.fr/iiif/23761/canvas/canvas-2332013#xywh=2859,1950,393,110", 
            "resource": {
                "@type": "cnt:ContentAsText", 
                "chars": "CASSINELLI", 
                "format": "text/plain"
            }
        }, 
        {
            "@id": "https://manifests.teklia.com/HIMANIS/JJ168/words_annotations/FRAN_0021_29020.json/18/line", 
            "@type": "oa:Annotation", 
            "motivation": "oa:painting", 
            "on": "http://bvmm.irht.cnrs.fr/iiif/23761/canvas/canvas-2332013#xywh=1778,680,276,220", 
            "resource": {
                "@type": "cnt:ContentAsText", 
                "chars": "SUPPLICANTES", 
                "format": "text/plain"
            }
        }, 
        {
            "@id": "https://manifests.teklia.com/HIMANIS/JJ168/words_annotations/FRAN_0021_29020.json/19/line", 
            "@type": "oa:Annotation", 
            "motivation": "oa:painting", 
            "on": "http://bvmm.irht.cnrs.fr/iiif/23761/canvas/canvas-2332013#xywh=2629,1615,150,140", 
            "resource": {
                "@type": "cnt:ContentAsText", 
                "chars": "QUO", 
                "format": "text/plain"
            }
        }, 
        {
            "@id": "https://manifests.teklia.com/HIMANIS/JJ168/words_annotations/FRAN_0021_29020.json/20/line", 
            "@type": "oa:Annotation", 
            "motivation": "oa:painting", 
            "on": "http://bvmm.irht.cnrs.fr/iiif/23761/canvas/canvas-2332013#xywh=2875,1190,222,147", 
            "resource": {
                "@type": "cnt:ContentAsText", 
                "chars": "REDDITUS", 
                "format": "text/plain"
            }
        }, 
        {
            "@id": "https://manifests.teklia.com/HIMANIS/JJ168/words_annotations/FRAN_0021_29020.json/21/line", 
            "@type": "oa:Annotation", 
            "motivation": "oa:painting", 
            "on": "http://bvmm.irht.cnrs.fr/iiif/23761/canvas/canvas-2332013#xywh=2400,1715,697,150", 
            "resource": {
                "@type": "cnt:ContentAsText", 
                "chars": "XXXVIII", 
                "format": "text/plain"
            }
        }, 
        {
            "@id": "https://manifests.teklia.com/HIMANIS/JJ168/words_annotations/FRAN_0021_29020.json/22/line", 
            "@type": "oa:Annotation", 
            "motivation": "oa:painting", 
            "on": "http://bvmm.irht.cnrs.fr/iiif/23761/canvas/canvas-2332013#xywh=1696,1615,123,140", 
            "resource": {
                "@type": "cnt:ContentAsText", 
                "chars": "ATUM", 
                "format": "text/plain"
            }
        }, 
        {
            "@id": "https://manifests.teklia.com/HIMANIS/JJ168/words_annotations/FRAN_0021_29020.json/23/line", 
            "@type": "oa:Annotation", 
            "motivation": "oa:painting", 
            "on": "http://bvmm.irht.cnrs.fr/iiif/23761/canvas/canvas-2332013#xywh=1860,1190,184,147", 
            "resource": {
                "@type": "cnt:ContentAsText", 
                "chars": "PERSONIS", 
                "format": "text/plain"
            }
        }, 
        {
            "@id": "https://manifests.teklia.com/HIMANIS/JJ168/words_annotations/FRAN_0021_29020.json/24/line", 
            "@type": "oa:Annotation", 
            "motivation": "oa:painting", 
            "on": "http://bvmm.irht.cnrs.fr/iiif/23761/canvas/canvas-2332013#xywh=1860,1190,184,147", 
            "resource": {
                "@type": "cnt:ContentAsText", 
                "chars": "PERSONAS", 
                "format": "text/plain"
            }
        }, 
        {
            "@id": "https://manifests.teklia.com/HIMANIS/JJ168/words_annotations/FRAN_0021_29020.json/25/line", 
            "@type": "oa:Annotation", 
            "motivation": "oa:painting", 
            "on": "http://bvmm.irht.cnrs.fr/iiif/23761/canvas/canvas-2332013#xywh=2456,1010,242,160", 
            "resource": {
                "@type": "cnt:ContentAsText", 
                "chars": "OFFICIARIIS", 
                "format": "text/plain"
            }
        }, 
        {
            "@id": "https://manifests.teklia.com/HIMANIS/JJ168/words_annotations/FRAN_0021_29020.json/26/line", 
            "@type": "oa:Annotation", 
            "motivation": "oa:painting", 
            "on": "http://bvmm.irht.cnrs.fr/iiif/23761/canvas/canvas-2332013#xywh=3522,2055,759,75", 
            "resource": {
                "@type": "cnt:ContentAsText", 
                "chars": "BERNE", 
                "format": "text/plain"
            }
        }, 
        {
            "@id": "https://manifests.teklia.com/HIMANIS/JJ168/words_annotations/FRAN_0021_29020.json/27/line", 
            "@type": "oa:Annotation", 
            "motivation": "oa:painting", 
            "on": "http://bvmm.irht.cnrs.fr/iiif/23761/canvas/canvas-2332013#xywh=3849,1357,248,283", 
            "resource": {
                "@type": "cnt:ContentAsText", 
                "chars": "LITTERIS", 
                "format": "text/plain"
            }
        }, 
        {
            "@id": "https://manifests.teklia.com/HIMANIS/JJ168/words_annotations/FRAN_0021_29020.json/28/line", 
            "@type": "oa:Annotation", 
            "motivation": "oa:painting", 
            "on": "http://bvmm.irht.cnrs.fr/iiif/23761/canvas/canvas-2332013#xywh=2090,1190,56,147", 
            "resource": {
                "@type": "cnt:ContentAsText", 
                "chars": "ET", 
                "format": "text/plain"
            }
        }, 
        {
            "@id": "https://manifests.teklia.com/HIMANIS/JJ168/words_annotations/FRAN_0021_29020.json/29/line", 
            "@type": "oa:Annotation", 
            "motivation": "oa:painting", 
            "on": "http://bvmm.irht.cnrs.fr/iiif/23761/canvas/canvas-2332013#xywh=486,244,203,141", 
            "resource": {
                "@type": "cnt:ContentAsText", 
                "chars": "LES", 
                "format": "text/plain"
            }
        }, 
        {
            "@id": "https://manifests.teklia.com/HIMANIS/JJ168/words_annotations/FRAN_0021_29020.json/30/line", 
            "@type": "oa:Annotation", 
            "motivation": "oa:painting", 
            "on": "http://bvmm.irht.cnrs.fr/iiif/23761/canvas/canvas-2332013#xywh=2450,1190,194,147", 
            "resource": {
                "@type": "cnt:ContentAsText", 
                "chars": "EXIBUS", 
                "format": "text/plain"
            }
        }, 
        {
            "@id": "https://manifests.teklia.com/HIMANIS/JJ168/words_annotations/FRAN_0021_29020.json/31/line", 
            "@type": "oa:Annotation", 
            "motivation": "oa:painting", 
            "on": "http://bvmm.irht.cnrs.fr/iiif/23761/canvas/canvas-2332013#xywh=3522,2055,308,75", 
            "resource": {
                "@type": "cnt:ContentAsText", 
                "chars": "DE", 
                "format": "text/plain"
            }
        }, 
        {
            "@id": "https://manifests.teklia.com/HIMANIS/JJ168/words_annotations/FRAN_0021_29020.json/32/line", 
            "@type": "oa:Annotation", 
            "motivation": "oa:painting", 
            "on": "http://bvmm.irht.cnrs.fr/iiif/23761/canvas/canvas-2332013#xywh=2115,1010,271,160", 
            "resource": {
                "@type": "cnt:ContentAsText", 
                "chars": "JUSTICIARIIS", 
                "format": "text/plain"
            }
        }, 
        {
            "@id": "https://manifests.teklia.com/HIMANIS/JJ168/words_annotations/FRAN_0021_29020.json/33/line", 
            "@type": "oa:Annotation", 
            "motivation": "oa:painting", 
            "on": "http://bvmm.irht.cnrs.fr/iiif/23761/canvas/canvas-2332013#xywh=1461,680,138,220", 
            "resource": {
                "@type": "cnt:ContentAsText", 
                "chars": "AD", 
                "format": "text/plain"
            }
        }, 
        {
            "@id": "https://manifests.teklia.com/HIMANIS/JJ168/words_annotations/FRAN_0021_29020.json/34/line", 
            "@type": "oa:Annotation", 
            "motivation": "oa:painting", 
            "on": "http://bvmm.irht.cnrs.fr/iiif/23761/canvas/canvas-2332013#xywh=3760,1357,89,283", 
            "resource": {
                "@type": "cnt:ContentAsText", 
                "chars": "AUTRES", 
                "format": "text/plain"
            }
        }, 
        {
            "@id": "https://manifests.teklia.com/HIMANIS/JJ168/words_annotations/FRAN_0021_29020.json/35/line", 
            "@type": "oa:Annotation", 
            "motivation": "oa:painting", 
            "on": "http://bvmm.irht.cnrs.fr/iiif/23761/canvas/canvas-2332013#xywh=2436,1010,20,160", 
            "resource": {
                "@type": "cnt:ContentAsText", 
                "chars": "ET", 
                "format": "text/plain"
            }
        }, 
        {
            "@id": "https://manifests.teklia.com/HIMANIS/JJ168/words_annotations/FRAN_0021_29020.json/36/line", 
            "@type": "oa:Annotation", 
            "motivation": "oa:painting", 
            "on": "http://bvmm.irht.cnrs.fr/iiif/23761/canvas/canvas-2332013#xywh=3522,2055,759,75", 
            "resource": {
                "@type": "cnt:ContentAsText", 
                "chars": "PRENNE", 
                "format": "text/plain"
            }
        }, 
        {
            "@id": "https://manifests.teklia.com/HIMANIS/JJ168/words_annotations/FRAN_0021_29020.json/37/line", 
            "@type": "oa:Annotation", 
            "motivation": "oa:painting", 
            "on": "http://bvmm.irht.cnrs.fr/iiif/23761/canvas/canvas-2332013#xywh=3502,810,88,235", 
            "resource": {
                "@type": "cnt:ContentAsText", 
                "chars": "AD", 
                "format": "text/plain"
            }
        }, 
        {
            "@id": "https://manifests.teklia.com/HIMANIS/JJ168/words_annotations/FRAN_0021_29020.json/38/line", 
            "@type": "oa:Annotation", 
            "motivation": "oa:painting", 
            "on": "http://bvmm.irht.cnrs.fr/iiif/23761/canvas/canvas-2332013#xywh=2174,1190,230,147", 
            "resource": {
                "@type": "cnt:ContentAsText", 
                "chars": "LIVRESTITUS", 
                "format": "text/plain"
            }
        }, 
        {
            "@id": "https://manifests.teklia.com/HIMANIS/JJ168/words_annotations/FRAN_0021_29020.json/39/line", 
            "@type": "oa:Annotation", 
            "motivation": "oa:painting", 
            "on": "http://bvmm.irht.cnrs.fr/iiif/23761/canvas/canvas-2332013#xywh=1414,1125,151,120", 
            "resource": {
                "@type": "cnt:ContentAsText", 
                "chars": "ET", 
                "format": "text/plain"
            }
        }, 
        {
            "@id": "https://manifests.teklia.com/HIMANIS/JJ168/words_annotations/FRAN_0021_29020.json/40/line", 
            "@type": "oa:Annotation", 
            "motivation": "oa:painting", 
            "on": "http://bvmm.irht.cnrs.fr/iiif/23761/canvas/canvas-2332013#xywh=1649,810,485,235", 
            "resource": {
                "@type": "cnt:ContentAsText", 
                "chars": "ET", 
                "format": "text/plain"
            }
        }, 
        {
            "@id": "https://manifests.teklia.com/HIMANIS/JJ168/words_annotations/FRAN_0021_29020.json/41/line", 
            "@type": "oa:Annotation", 
            "motivation": "oa:painting", 
            "on": "http://bvmm.irht.cnrs.fr/iiif/23761/canvas/canvas-2332013#xywh=2653,2055,195,75", 
            "resource": {
                "@type": "cnt:ContentAsText", 
                "chars": "CHAL", 
                "format": "text/plain"
            }
        }, 
        {
            "@id": "https://manifests.teklia.com/HIMANIS/JJ168/words_annotations/FRAN_0021_29020.json/42/line", 
            "@type": "oa:Annotation", 
            "motivation": "oa:painting", 
            "on": "http://bvmm.irht.cnrs.fr/iiif/23761/canvas/canvas-2332013#xywh=1640,680,97,220", 
            "resource": {
                "@type": "cnt:ContentAsText", 
                "chars": "IPSOS", 
                "format": "text/plain"
            }
        }, 
        {
            "@id": "https://manifests.teklia.com/HIMANIS/JJ168/words_annotations/FRAN_0021_29020.json/43/line", 
            "@type": "oa:Annotation", 
            "motivation": "oa:painting", 
            "on": "http://bvmm.irht.cnrs.fr/iiif/23761/canvas/canvas-2332013#xywh=2758,680,290,220", 
            "resource": {
                "@type": "cnt:ContentAsText", 
                "chars": "MANUS", 
                "format": "text/plain"
            }
        }, 
        {
            "@id": "https://manifests.teklia.com/HIMANIS/JJ168/words_annotations/FRAN_0021_29020.json/44/line", 
            "@type": "oa:Annotation", 
            "motivation": "oa:painting", 
            "on": "http://bvmm.irht.cnrs.fr/iiif/23761/canvas/canvas-2332013#xywh=2814,1615,141,140", 
            "resource": {
                "@type": "cnt:ContentAsText", 
                "chars": "DOMUM", 
                "format": "text/plain"
            }
        }, 
        {
            "@id": "https://manifests.teklia.com/HIMANIS/JJ168/words_annotations/FRAN_0021_29020.json/45/line", 
            "@type": "oa:Annotation", 
            "motivation": "oa:painting", 
            "on": "http://bvmm.irht.cnrs.fr/iiif/23761/canvas/canvas-2332013#xywh=3421,1010,231,160", 
            "resource": {
                "@type": "cnt:ContentAsText", 
                "chars": "MODONIS", 
                "format": "text/plain"
            }
        }, 
        {
            "@id": "https://manifests.teklia.com/HIMANIS/JJ168/words_annotations/FRAN_0021_29020.json/46/line", 
            "@type": "oa:Annotation", 
            "motivation": "oa:painting", 
            "on": "http://bvmm.irht.cnrs.fr/iiif/23761/canvas/canvas-2332013#xywh=4415,1125,44,65", 
            "resource": {
                "@type": "cnt:ContentAsText", 
                "chars": "ET", 
                "format": "text/plain"
            }
        }, 
        {
            "@id": "https://manifests.teklia.com/HIMANIS/JJ168/words_annotations/FRAN_0021_29020.json/47/line", 
            "@type": "oa:Annotation", 
            "motivation": "oa:painting", 
            "on": "http://bvmm.irht.cnrs.fr/iiif/23761/canvas/canvas-2332013#xywh=2679,450,62,110", 
            "resource": {
                "@type": "cnt:ContentAsText", 
                "chars": "LE", 
                "format": "text/plain"
            }
        }, 
        {
            "@id": "https://manifests.teklia.com/HIMANIS/JJ168/words_annotations/FRAN_0021_29020.json/48/line", 
            "@type": "oa:Annotation", 
            "motivation": "oa:painting", 
            "on": "http://bvmm.irht.cnrs.fr/iiif/23761/canvas/canvas-2332013#xywh=1649,810,397,235", 
            "resource": {
                "@type": "cnt:ContentAsText", 
                "chars": "GUILLAIN", 
                "format": "text/plain"
            }
        }, 
        {
            "@id": "https://manifests.teklia.com/HIMANIS/JJ168/words_annotations/FRAN_0021_29020.json/49/line", 
            "@type": "oa:Annotation", 
            "motivation": "oa:painting", 
            "on": "http://bvmm.irht.cnrs.fr/iiif/23761/canvas/canvas-2332013#xywh=3223,810,73,235", 
            "resource": {
                "@type": "cnt:ContentAsText", 
                "chars": "SEU", 
                "format": "text/plain"
            }
        }, 
        {
            "@id": "https://manifests.teklia.com/HIMANIS/JJ168/words_annotations/FRAN_0021_29020.json/50/line", 
            "@type": "oa:Annotation", 
            "motivation": "oa:painting", 
            "on": "http://bvmm.irht.cnrs.fr/iiif/23761/canvas/canvas-2332013#xywh=2099,1715,122,150", 
            "resource": {
                "@type": "cnt:ContentAsText", 
                "chars": "VERO", 
                "format": "text/plain"
            }
        }, 
        {
            "@id": "https://manifests.teklia.com/HIMANIS/JJ168/words_annotations/FRAN_0021_29020.json/51/line", 
            "@type": "oa:Annotation", 
            "motivation": "oa:painting", 
            "on": "http://bvmm.irht.cnrs.fr/iiif/23761/canvas/canvas-2332013#xywh=1566,1357,0,283", 
            "resource": {
                "@type": "cnt:ContentAsText", 
                "chars": "A", 
                "format": "text/plain"
            }
        }, 
        {
            "@id": "https://manifests.teklia.com/HIMANIS/JJ168/words_annotations/FRAN_0021_29020.json/52/line", 
            "@type": "oa:Annotation", 
            "motivation": "oa:painting", 
            "on": "http://bvmm.irht.cnrs.fr/iiif/23761/canvas/canvas-2332013#xywh=1580,1125,158,120", 
            "resource": {
                "@type": "cnt:ContentAsText", 
                "chars": "QUATIS", 
                "format": "text/plain"
            }
        }, 
        {
            "@id": "https://manifests.teklia.com/HIMANIS/JJ168/words_annotations/FRAN_0021_29020.json/53/line", 
            "@type": "oa:Annotation", 
            "motivation": "oa:painting", 
            "on": "http://bvmm.irht.cnrs.fr/iiif/23761/canvas/canvas-2332013#xywh=3089,1845,166,120", 
            "resource": {
                "@type": "cnt:ContentAsText", 
                "chars": "REGEMUS", 
                "format": "text/plain"
            }
        }, 
        {
            "@id": "https://manifests.teklia.com/HIMANIS/JJ168/words_annotations/FRAN_0021_29020.json/54/line", 
            "@type": "oa:Annotation", 
            "motivation": "oa:painting", 
            "on": "http://bvmm.irht.cnrs.fr/iiif/23761/canvas/canvas-2332013#xywh=3490,680,221,220", 
            "resource": {
                "@type": "cnt:ContentAsText", 
                "chars": "JURIFFAME", 
                "format": "text/plain"
            }
        }, 
        {
            "@id": "https://manifests.teklia.com/HIMANIS/JJ168/words_annotations/FRAN_0021_29020.json/55/line", 
            "@type": "oa:Annotation", 
            "motivation": "oa:painting", 
            "on": "http://bvmm.irht.cnrs.fr/iiif/23761/canvas/canvas-2332013#xywh=2758,680,290,220", 
            "resource": {
                "@type": "cnt:ContentAsText", 
                "chars": "MINUS", 
                "format": "text/plain"
            }
        }, 
        {
            "@id": "https://manifests.teklia.com/HIMANIS/JJ168/words_annotations/FRAN_0021_29020.json/56/line", 
            "@type": "oa:Annotation", 
            "motivation": "oa:painting", 
            "on": "http://bvmm.irht.cnrs.fr/iiif/23761/canvas/canvas-2332013#xywh=2400,1715,697,150", 
            "resource": {
                "@type": "cnt:ContentAsText", 
                "chars": "XXXXVIII", 
                "format": "text/plain"
            }
        }, 
        {
            "@id": "https://manifests.teklia.com/HIMANIS/JJ168/words_annotations/FRAN_0021_29020.json/57/line", 
            "@type": "oa:Annotation", 
            "motivation": "oa:painting", 
            "on": "http://bvmm.irht.cnrs.fr/iiif/23761/canvas/canvas-2332013#xywh=3490,680,235,220", 
            "resource": {
                "@type": "cnt:ContentAsText", 
                "chars": "JURIFFAUT", 
                "format": "text/plain"
            }
        }, 
        {
            "@id": "https://manifests.teklia.com/HIMANIS/JJ168/words_annotations/FRAN_0021_29020.json/58/line", 
            "@type": "oa:Annotation", 
            "motivation": "oa:painting", 
            "on": "http://bvmm.irht.cnrs.fr/iiif/23761/canvas/canvas-2332013#xywh=3490,680,235,220", 
            "resource": {
                "@type": "cnt:ContentAsText", 
                "chars": "JURIFFAIT", 
                "format": "text/plain"
            }
        }, 
        {
            "@id": "https://manifests.teklia.com/HIMANIS/JJ168/words_annotations/FRAN_0021_29020.json/59/line", 
            "@type": "oa:Annotation", 
            "motivation": "oa:painting", 
            "on": "http://bvmm.irht.cnrs.fr/iiif/23761/canvas/canvas-2332013#xywh=3880,1615,97,140", 
            "resource": {
                "@type": "cnt:ContentAsText", 
                "chars": "ACTUM", 
                "format": "text/plain"
            }
        }, 
        {
            "@id": "https://manifests.teklia.com/HIMANIS/JJ168/words_annotations/FRAN_0021_29020.json/60/line", 
            "@type": "oa:Annotation", 
            "motivation": "oa:painting", 
            "on": "http://bvmm.irht.cnrs.fr/iiif/23761/canvas/canvas-2332013#xywh=2409,1845,665,120", 
            "resource": {
                "@type": "cnt:ContentAsText", 
                "chars": "ET", 
                "format": "text/plain"
            }
        }, 
        {
            "@id": "https://manifests.teklia.com/HIMANIS/JJ168/words_annotations/FRAN_0021_29020.json/61/line", 
            "@type": "oa:Annotation", 
            "motivation": "oa:painting", 
            "on": "http://bvmm.irht.cnrs.fr/iiif/23761/canvas/canvas-2332013#xywh=3746,1845,242,120", 
            "resource": {
                "@type": "cnt:ContentAsText", 
                "chars": "GUILLAUMERUM", 
                "format": "text/plain"
            }
        }, 
        {
            "@id": "https://manifests.teklia.com/HIMANIS/JJ168/words_annotations/FRAN_0021_29020.json/62/line", 
            "@type": "oa:Annotation", 
            "motivation": "oa:painting", 
            "on": "http://bvmm.irht.cnrs.fr/iiif/23761/canvas/canvas-2332013#xywh=1370,810,323,235", 
            "resource": {
                "@type": "cnt:ContentAsText", 
                "chars": "LEGES", 
                "format": "text/plain"
            }
        }, 
        {
            "@id": "https://manifests.teklia.com/HIMANIS/JJ168/words_annotations/FRAN_0021_29020.json/63/line", 
            "@type": "oa:Annotation", 
            "motivation": "oa:painting", 
            "on": "http://bvmm.irht.cnrs.fr/iiif/23761/canvas/canvas-2332013#xywh=1863,1615,229,140", 
            "resource": {
                "@type": "cnt:ContentAsText", 
                "chars": "PARISINS", 
                "format": "text/plain"
            }
        }, 
        {
            "@id": "https://manifests.teklia.com/HIMANIS/JJ168/words_annotations/FRAN_0021_29020.json/64/line", 
            "@type": "oa:Annotation", 
            "motivation": "oa:painting", 
            "on": "http://bvmm.irht.cnrs.fr/iiif/23761/canvas/canvas-2332013#xywh=1478,1357,283,283", 
            "resource": {
                "@type": "cnt:ContentAsText", 
                "chars": "QUINQUE", 
                "format": "text/plain"
            }
        }, 
        {
            "@id": "https://manifests.teklia.com/HIMANIS/JJ168/words_annotations/FRAN_0021_29020.json/65/line", 
            "@type": "oa:Annotation", 
            "motivation": "oa:painting", 
            "on": "http://bvmm.irht.cnrs.fr/iiif/23761/canvas/canvas-2332013#xywh=1580,1125,158,120", 
            "resource": {
                "@type": "cnt:ContentAsText", 
                "chars": "QUATRES", 
                "format": "text/plain"
            }
        }, 
        {
            "@id": "https://manifests.teklia.com/HIMANIS/JJ168/words_annotations/FRAN_0021_29020.json/66/line", 
            "@type": "oa:Annotation", 
            "motivation": "oa:painting", 
            "on": "http://bvmm.irht.cnrs.fr/iiif/23761/canvas/canvas-2332013#xywh=1649,810,250,235", 
            "resource": {
                "@type": "cnt:ContentAsText", 
                "chars": "CONTES", 
                "format": "text/plain"
            }
        }, 
        {
            "@id": "https://manifests.teklia.com/HIMANIS/JJ168/words_annotations/FRAN_0021_29020.json/67/line", 
            "@type": "oa:Annotation", 
            "motivation": "oa:painting", 
            "on": "http://bvmm.irht.cnrs.fr/iiif/23761/canvas/canvas-2332013#xywh=3522,2055,759,75", 
            "resource": {
                "@type": "cnt:ContentAsText", 
                "chars": "CRENNE", 
                "format": "text/plain"
            }
        }, 
        {
            "@id": "https://manifests.teklia.com/HIMANIS/JJ168/words_annotations/FRAN_0021_29020.json/68/line", 
            "@type": "oa:Annotation", 
            "motivation": "oa:painting", 
            "on": "http://bvmm.irht.cnrs.fr/iiif/23761/canvas/canvas-2332013#xywh=3252,1950,62,110", 
            "resource": {
                "@type": "cnt:ContentAsText", 
                "chars": "ET", 
                "format": "text/plain"
            }
        }, 
        {
            "@id": "https://manifests.teklia.com/HIMANIS/JJ168/words_annotations/FRAN_0021_29020.json/69/line", 
            "@type": "oa:Annotation", 
            "motivation": "oa:painting", 
            "on": "http://bvmm.irht.cnrs.fr/iiif/23761/canvas/canvas-2332013#xywh=3332,1125,242,120", 
            "resource": {
                "@type": "cnt:ContentAsText", 
                "chars": "CURATOS", 
                "format": "text/plain"
            }
        }, 
        {
            "@id": "https://manifests.teklia.com/HIMANIS/JJ168/words_annotations/FRAN_0021_29020.json/70/line", 
            "@type": "oa:Annotation", 
            "motivation": "oa:painting", 
            "on": "http://bvmm.irht.cnrs.fr/iiif/23761/canvas/canvas-2332013#xywh=2415,1357,284,283", 
            "resource": {
                "@type": "cnt:ContentAsText", 
                "chars": "FONTESSENTIUM", 
                "format": "text/plain"
            }
        }, 
        {
            "@id": "https://manifests.teklia.com/HIMANIS/JJ168/words_annotations/FRAN_0021_29020.json/71/line", 
            "@type": "oa:Annotation", 
            "motivation": "oa:painting", 
            "on": "http://bvmm.irht.cnrs.fr/iiif/23761/canvas/canvas-2332013#xywh=2579,680,276,220", 
            "resource": {
                "@type": "cnt:ContentAsText", 
                "chars": "DEVANTINE", 
                "format": "text/plain"
            }
        }, 
        {
            "@id": "https://manifests.teklia.com/HIMANIS/JJ168/words_annotations/FRAN_0021_29020.json/72/line", 
            "@type": "oa:Annotation", 
            "motivation": "oa:painting", 
            "on": "http://bvmm.irht.cnrs.fr/iiif/23761/canvas/canvas-2332013#xywh=1693,1190,130,147", 
            "resource": {
                "@type": "cnt:ContentAsText", 
                "chars": "ALIAS", 
                "format": "text/plain"
            }
        }, 
        {
            "@id": "https://manifests.teklia.com/HIMANIS/JJ168/words_annotations/FRAN_0021_29020.json/73/line", 
            "@type": "oa:Annotation", 
            "motivation": "oa:painting", 
            "on": "http://bvmm.irht.cnrs.fr/iiif/23761/canvas/canvas-2332013#xywh=3494,1950,283,110", 
            "resource": {
                "@type": "cnt:ContentAsText", 
                "chars": "PRESENTIBUS", 
                "format": "text/plain"
            }
        }, 
        {
            "@id": "https://manifests.teklia.com/HIMANIS/JJ168/words_annotations/FRAN_0021_29020.json/74/line", 
            "@type": "oa:Annotation", 
            "motivation": "oa:painting", 
            "on": "http://bvmm.irht.cnrs.fr/iiif/23761/canvas/canvas-2332013#xywh=2579,680,262,220", 
            "resource": {
                "@type": "cnt:ContentAsText", 
                "chars": "DEVANTINT", 
                "format": "text/plain"
            }
        }, 
        {
            "@id": "https://manifests.teklia.com/HIMANIS/JJ168/words_annotations/FRAN_0021_29020.json/75/line", 
            "@type": "oa:Annotation", 
            "motivation": "oa:painting", 
            "on": "http://bvmm.irht.cnrs.fr/iiif/23761/canvas/canvas-2332013#xywh=2433,1125,197,120", 
            "resource": {
                "@type": "cnt:ContentAsText", 
                "chars": "BAILLOS", 
                "format": "text/plain"
            }
        }, 
        {
            "@id": "https://manifests.teklia.com/HIMANIS/JJ168/words_annotations/FRAN_0021_29020.json/76/line", 
            "@type": "oa:Annotation", 
            "motivation": "oa:painting", 
            "on": "http://bvmm.irht.cnrs.fr/iiif/23761/canvas/canvas-2332013#xywh=1431,1010,221,160", 
            "resource": {
                "@type": "cnt:ContentAsText", 
                "chars": "INTER", 
                "format": "text/plain"
            }
        }, 
        {
            "@id": "https://manifests.teklia.com/HIMANIS/JJ168/words_annotations/FRAN_0021_29020.json/77/line", 
            "@type": "oa:Annotation", 
            "motivation": "oa:painting", 
            "on": "http://bvmm.irht.cnrs.fr/iiif/23761/canvas/canvas-2332013#xywh=1664,810,809,235", 
            "resource": {
                "@type": "cnt:ContentAsText", 
                "chars": "CHAMANCIA", 
                "format": "text/plain"
            }
        }, 
        {
            "@id": "https://manifests.teklia.com/HIMANIS/JJ168/words_annotations/FRAN_0021_29020.json/78/line", 
            "@type": "oa:Annotation", 
            "motivation": "oa:painting", 
            "on": "http://bvmm.irht.cnrs.fr/iiif/23761/canvas/canvas-2332013#xywh=1679,810,794,235", 
            "resource": {
                "@type": "cnt:ContentAsText", 
                "chars": "CHAMANCIE", 
                "format": "text/plain"
            }
        }, 
        {
            "@id": "https://manifests.teklia.com/HIMANIS/JJ168/words_annotations/FRAN_0021_29020.json/79/line", 
            "@type": "oa:Annotation", 
            "motivation": "oa:painting", 
            "on": "http://bvmm.irht.cnrs.fr/iiif/23761/canvas/canvas-2332013#xywh=3421,1010,231,160", 
            "resource": {
                "@type": "cnt:ContentAsText", 
                "chars": "MODERNIS", 
                "format": "text/plain"
            }
        }, 
        {
            "@id": "https://manifests.teklia.com/HIMANIS/JJ168/words_annotations/FRAN_0021_29020.json/80/line", 
            "@type": "oa:Annotation", 
            "motivation": "oa:painting", 
            "on": "http://bvmm.irht.cnrs.fr/iiif/23761/canvas/canvas-2332013#xywh=3143,1190,92,147", 
            "resource": {
                "@type": "cnt:ContentAsText", 
                "chars": "AUT", 
                "format": "text/plain"
            }
        }, 
        {
            "@id": "https://manifests.teklia.com/HIMANIS/JJ168/words_annotations/FRAN_0021_29020.json/81/line", 
            "@type": "oa:Annotation", 
            "motivation": "oa:painting", 
            "on": "http://bvmm.irht.cnrs.fr/iiif/23761/canvas/canvas-2332013#xywh=1370,810,485,235", 
            "resource": {
                "@type": "cnt:ContentAsText", 
                "chars": "LEGIIS", 
                "format": "text/plain"
            }
        }, 
        {
            "@id": "https://manifests.teklia.com/HIMANIS/JJ168/words_annotations/FRAN_0021_29020.json/82/line", 
            "@type": "oa:Annotation", 
            "motivation": "oa:painting", 
            "on": "http://bvmm.irht.cnrs.fr/iiif/23761/canvas/canvas-2332013#xywh=3604,1125,423,120", 
            "resource": {
                "@type": "cnt:ContentAsText", 
                "chars": "REDDITU", 
                "format": "text/plain"
            }
        }, 
        {
            "@id": "https://manifests.teklia.com/HIMANIS/JJ168/words_annotations/FRAN_0021_29020.json/83/line", 
            "@type": "oa:Annotation", 
            "motivation": "oa:painting", 
            "on": "http://bvmm.irht.cnrs.fr/iiif/23761/canvas/canvas-2332013#xywh=1934,1010,140,160", 
            "resource": {
                "@type": "cnt:ContentAsText", 
                "chars": "EJUSQUE", 
                "format": "text/plain"
            }
        }, 
        {
            "@id": "https://manifests.teklia.com/HIMANIS/JJ168/words_annotations/FRAN_0021_29020.json/84/line", 
            "@type": "oa:Annotation", 
            "motivation": "oa:painting", 
            "on": "http://bvmm.irht.cnrs.fr/iiif/23761/canvas/canvas-2332013#xywh=2911,1357,442,283", 
            "resource": {
                "@type": "cnt:ContentAsText", 
                "chars": "ALIA", 
                "format": "text/plain"
            }
        }, 
        {
            "@id": "https://manifests.teklia.com/HIMANIS/JJ168/words_annotations/FRAN_0021_29020.json/85/line", 
            "@type": "oa:Annotation", 
            "motivation": "oa:painting", 
            "on": "http://bvmm.irht.cnrs.fr/iiif/23761/canvas/canvas-2332013#xywh=1692,1010,121,160", 
            "resource": {
                "@type": "cnt:ContentAsText", 
                "chars": "PARISIUS", 
                "format": "text/plain"
            }
        }, 
        {
            "@id": "https://manifests.teklia.com/HIMANIS/JJ168/words_annotations/FRAN_0021_29020.json/86/line", 
            "@type": "oa:Annotation", 
            "motivation": "oa:painting", 
            "on": "http://bvmm.irht.cnrs.fr/iiif/23761/canvas/canvas-2332013#xywh=1863,1615,238,140", 
            "resource": {
                "@type": "cnt:ContentAsText", 
                "chars": "PARISINIS", 
                "format": "text/plain"
            }
        }, 
        {
            "@id": "https://manifests.teklia.com/HIMANIS/JJ168/words_annotations/FRAN_0021_29020.json/87/line", 
            "@type": "oa:Annotation", 
            "motivation": "oa:painting", 
            "on": "http://bvmm.irht.cnrs.fr/iiif/23761/canvas/canvas-2332013#xywh=2531,810,383,235", 
            "resource": {
                "@type": "cnt:ContentAsText", 
                "chars": "CONSUETUDINE", 
                "format": "text/plain"
            }
        }, 
        {
            "@id": "https://manifests.teklia.com/HIMANIS/JJ168/words_annotations/FRAN_0021_29020.json/88/line", 
            "@type": "oa:Annotation", 
            "motivation": "oa:painting", 
            "on": "http://bvmm.irht.cnrs.fr/iiif/23761/canvas/canvas-2332013#xywh=3490,680,248,220", 
            "resource": {
                "@type": "cnt:ContentAsText", 
                "chars": "JURIFFAUTE", 
                "format": "text/plain"
            }
        }, 
        {
            "@id": "https://manifests.teklia.com/HIMANIS/JJ168/words_annotations/FRAN_0021_29020.json/89/line", 
            "@type": "oa:Annotation", 
            "motivation": "oa:painting", 
            "on": "http://bvmm.irht.cnrs.fr/iiif/23761/canvas/canvas-2332013#xywh=1863,1615,229,140", 
            "resource": {
                "@type": "cnt:ContentAsText", 
                "chars": "PARISIENS", 
                "format": "text/plain"
            }
        }, 
        {
            "@id": "https://manifests.teklia.com/HIMANIS/JJ168/words_annotations/FRAN_0021_29020.json/90/line", 
            "@type": "oa:Annotation", 
            "motivation": "oa:painting", 
            "on": "http://bvmm.irht.cnrs.fr/iiif/23761/canvas/canvas-2332013#xywh=1690,1357,389,283", 
            "resource": {
                "@type": "cnt:ContentAsText", 
                "chars": "FIRMUM", 
                "format": "text/plain"
            }
        }, 
        {
            "@id": "https://manifests.teklia.com/HIMANIS/JJ168/words_annotations/FRAN_0021_29020.json/91/line", 
            "@type": "oa:Annotation", 
            "motivation": "oa:painting", 
            "on": "http://bvmm.irht.cnrs.fr/iiif/23761/canvas/canvas-2332013#xywh=1478,1357,283,283", 
            "resource": {
                "@type": "cnt:ContentAsText", 
                "chars": "QUINQUOD", 
                "format": "text/plain"
            }
        }, 
        {
            "@id": "https://manifests.teklia.com/HIMANIS/JJ168/words_annotations/FRAN_0021_29020.json/92/line", 
            "@type": "oa:Annotation", 
            "motivation": "oa:painting", 
            "on": "http://bvmm.irht.cnrs.fr/iiif/23761/canvas/canvas-2332013#xywh=3270,1845,159,120", 
            "resource": {
                "@type": "cnt:ContentAsText", 
                "chars": "VINNO", 
                "format": "text/plain"
            }
        }, 
        {
            "@id": "https://manifests.teklia.com/HIMANIS/JJ168/words_annotations/FRAN_0021_29020.json/93/line", 
            "@type": "oa:Annotation", 
            "motivation": "oa:painting", 
            "on": "http://bvmm.irht.cnrs.fr/iiif/23761/canvas/canvas-2332013#xywh=3451,1845,242,120", 
            "resource": {
                "@type": "cnt:ContentAsText", 
                "chars": "CONFESSORE", 
                "format": "text/plain"
            }
        }, 
        {
            "@id": "https://manifests.teklia.com/HIMANIS/JJ168/words_annotations/FRAN_0021_29020.json/94/line", 
            "@type": "oa:Annotation", 
            "motivation": "oa:painting", 
            "on": "http://bvmm.irht.cnrs.fr/iiif/23761/canvas/canvas-2332013#xywh=3753,1010,171,160", 
            "resource": {
                "@type": "cnt:ContentAsText", 
                "chars": "FUTURIS", 
                "format": "text/plain"
            }
        }, 
        {
            "@id": "https://manifests.teklia.com/HIMANIS/JJ168/words_annotations/FRAN_0021_29020.json/95/line", 
            "@type": "oa:Annotation", 
            "motivation": "oa:painting", 
            "on": "http://bvmm.irht.cnrs.fr/iiif/23761/canvas/canvas-2332013#xywh=1431,1010,181,160", 
            "resource": {
                "@type": "cnt:ContentAsText", 
                "chars": "INE", 
                "format": "text/plain"
            }
        }, 
        {
            "@id": "https://manifests.teklia.com/HIMANIS/JJ168/words_annotations/FRAN_0021_29020.json/96/line", 
            "@type": "oa:Annotation", 
            "motivation": "oa:painting", 
            "on": "http://bvmm.irht.cnrs.fr/iiif/23761/canvas/canvas-2332013#xywh=1649,810,485,235", 
            "resource": {
                "@type": "cnt:ContentAsText", 
                "chars": "DIT", 
                "format": "text/plain"
            }
        }, 
        {
            "@id": "https://manifests.teklia.com/HIMANIS/JJ168/words_annotations/FRAN_0021_29020.json/97/line", 
            "@type": "oa:Annotation", 
            "motivation": "oa:painting", 
            "on": "http://bvmm.irht.cnrs.fr/iiif/23761/canvas/canvas-2332013#xywh=1336,1357,265,283", 
            "resource": {
                "@type": "cnt:ContentAsText", 
                "chars": "LA", 
                "format": "text/plain"
            }
        }, 
        {
            "@id": "https://manifests.teklia.com/HIMANIS/JJ168/words_annotations/FRAN_0021_29020.json/98/line", 
            "@type": "oa:Annotation", 
            "motivation": "oa:painting", 
            "on": "http://bvmm.irht.cnrs.fr/iiif/23761/canvas/canvas-2332013#xywh=2261,680,263,220", 
            "resource": {
                "@type": "cnt:ContentAsText", 
                "chars": "CONTINGENT", 
                "format": "text/plain"
            }
        }, 
        {
            "@id": "https://manifests.teklia.com/HIMANIS/JJ168/words_annotations/FRAN_0021_29020.json/99/line", 
            "@type": "oa:Annotation", 
            "motivation": "oa:painting", 
            "on": "http://bvmm.irht.cnrs.fr/iiif/23761/canvas/canvas-2332013#xywh=2415,1357,284,283", 
            "resource": {
                "@type": "cnt:ContentAsText", 
                "chars": "PRESENTIUM", 
                "format": "text/plain"
            }
        }, 
        {
            "@id": "https://manifests.teklia.com/HIMANIS/JJ168/words_annotations/FRAN_0021_29020.json/100/line", 
            "@type": "oa:Annotation", 
            "motivation": "oa:painting", 
            "on": "http://bvmm.irht.cnrs.fr/iiif/23761/canvas/canvas-2332013#xywh=2339,1615,211,140", 
            "resource": {
                "@type": "cnt:ContentAsText", 
                "chars": "AUGUSTI", 
                "format": "text/plain"
            }
        }, 
        {
            "@id": "https://manifests.teklia.com/HIMANIS/JJ168/words_annotations/FRAN_0021_29020.json/101/line", 
            "@type": "oa:Annotation", 
            "motivation": "oa:painting", 
            "on": "http://bvmm.irht.cnrs.fr/iiif/23761/canvas/canvas-2332013#xywh=3076,680,248,220", 
            "resource": {
                "@type": "cnt:ContentAsText", 
                "chars": "INTENDINORUM", 
                "format": "text/plain"
            }
        }, 
        {
            "@id": "https://manifests.teklia.com/HIMANIS/JJ168/words_annotations/FRAN_0021_29020.json/102/line", 
            "@type": "oa:Annotation", 
            "motivation": "oa:painting", 
            "on": "http://bvmm.irht.cnrs.fr/iiif/23761/canvas/canvas-2332013#xywh=3272,1190,157,147", 
            "resource": {
                "@type": "cnt:ContentAsText", 
                "chars": "ROUM", 
                "format": "text/plain"
            }
        }, 
        {
            "@id": "https://manifests.teklia.com/HIMANIS/JJ168/words_annotations/FRAN_0021_29020.json/103/line", 
            "@type": "oa:Annotation", 
            "motivation": "oa:painting", 
            "on": "http://bvmm.irht.cnrs.fr/iiif/23761/canvas/canvas-2332013#xywh=1891,1715,151,150", 
            "resource": {
                "@type": "cnt:ContentAsText", 
                "chars": "SEGEM", 
                "format": "text/plain"
            }
        }, 
        {
            "@id": "https://manifests.teklia.com/HIMANIS/JJ168/words_annotations/FRAN_0021_29020.json/104/line", 
            "@type": "oa:Annotation", 
            "motivation": "oa:painting", 
            "on": "http://bvmm.irht.cnrs.fr/iiif/23761/canvas/canvas-2332013#xywh=3713,1615,132,140", 
            "resource": {
                "@type": "cnt:ContentAsText", 
                "chars": "FUERIO", 
                "format": "text/plain"
            }
        }, 
        {
            "@id": "https://manifests.teklia.com/HIMANIS/JJ168/words_annotations/FRAN_0021_29020.json/105/line", 
            "@type": "oa:Annotation", 
            "motivation": "oa:painting", 
            "on": "http://bvmm.irht.cnrs.fr/iiif/23761/canvas/canvas-2332013#xywh=3651,1190,572,147", 
            "resource": {
                "@type": "cnt:ContentAsText", 
                "chars": "PROGENIT", 
                "format": "text/plain"
            }
        }, 
        {
            "@id": "https://manifests.teklia.com/HIMANIS/JJ168/words_annotations/FRAN_0021_29020.json/106/line", 
            "@type": "oa:Annotation", 
            "motivation": "oa:painting", 
            "on": "http://bvmm.irht.cnrs.fr/iiif/23761/canvas/canvas-2332013#xywh=2082,680,138,220", 
            "resource": {
                "@type": "cnt:ContentAsText", 
                "chars": "INTRE", 
                "format": "text/plain"
            }
        }, 
        {
            "@id": "https://manifests.teklia.com/HIMANIS/JJ168/words_annotations/FRAN_0021_29020.json/107/line", 
            "@type": "oa:Annotation", 
            "motivation": "oa:painting", 
            "on": "http://bvmm.irht.cnrs.fr/iiif/23761/canvas/canvas-2332013#xywh=2718,1010,251,160", 
            "resource": {
                "@type": "cnt:ContentAsText", 
                "chars": "MIE", 
                "format": "text/plain"
            }
        }, 
        {
            "@id": "https://manifests.teklia.com/HIMANIS/JJ168/words_annotations/FRAN_0021_29020.json/108/line", 
            "@type": "oa:Annotation", 
            "motivation": "oa:painting", 
            "on": "http://bvmm.irht.cnrs.fr/iiif/23761/canvas/canvas-2332013#xywh=3651,1190,369,147", 
            "resource": {
                "@type": "cnt:ContentAsText", 
                "chars": "PROGEBAT", 
                "format": "text/plain"
            }
        }, 
        {
            "@id": "https://manifests.teklia.com/HIMANIS/JJ168/words_annotations/FRAN_0021_29020.json/109/line", 
            "@type": "oa:Annotation", 
            "motivation": "oa:painting", 
            "on": "http://bvmm.irht.cnrs.fr/iiif/23761/canvas/canvas-2332013#xywh=3334,1615,361,140", 
            "resource": {
                "@type": "cnt:ContentAsText", 
                "chars": "QUADRIGNARE", 
                "format": "text/plain"
            }
        }, 
        {
            "@id": "https://manifests.teklia.com/HIMANIS/JJ168/words_annotations/FRAN_0021_29020.json/110/line", 
            "@type": "oa:Annotation", 
            "motivation": "oa:painting", 
            "on": "http://bvmm.irht.cnrs.fr/iiif/23761/canvas/canvas-2332013#xywh=2943,810,221,235", 
            "resource": {
                "@type": "cnt:ContentAsText", 
                "chars": "GRAVENIR", 
                "format": "text/plain"
            }
        }, 
        {
            "@id": "https://manifests.teklia.com/HIMANIS/JJ168/words_annotations/FRAN_0021_29020.json/111/line", 
            "@type": "oa:Annotation", 
            "motivation": "oa:painting", 
            "on": "http://bvmm.irht.cnrs.fr/iiif/23761/canvas/canvas-2332013#xywh=2943,810,191,235", 
            "resource": {
                "@type": "cnt:ContentAsText", 
                "chars": "GRAVENIS", 
                "format": "text/plain"
            }
        }, 
        {
            "@id": "https://manifests.teklia.com/HIMANIS/JJ168/words_annotations/FRAN_0021_29020.json/112/line", 
            "@type": "oa:Annotation", 
            "motivation": "oa:painting", 
            "on": "http://bvmm.irht.cnrs.fr/iiif/23761/canvas/canvas-2332013#xywh=3964,1010,181,160", 
            "resource": {
                "@type": "cnt:ContentAsText", 
                "chars": "AUT", 
                "format": "text/plain"
            }
        }, 
        {
            "@id": "https://manifests.teklia.com/HIMANIS/JJ168/words_annotations/FRAN_0021_29020.json/113/line", 
            "@type": "oa:Annotation", 
            "motivation": "oa:painting", 
            "on": "http://bvmm.irht.cnrs.fr/iiif/23761/canvas/canvas-2332013#xywh=2911,1357,796,283", 
            "resource": {
                "@type": "cnt:ContentAsText", 
                "chars": "FACIMUS", 
                "format": "text/plain"
            }
        }, 
        {
            "@id": "https://manifests.teklia.com/HIMANIS/JJ168/words_annotations/FRAN_0021_29020.json/114/line", 
            "@type": "oa:Annotation", 
            "motivation": "oa:painting", 
            "on": "http://bvmm.irht.cnrs.fr/iiif/23761/canvas/canvas-2332013#xywh=1562,1715,179,150", 
            "resource": {
                "@type": "cnt:ContentAsText", 
                "chars": "QUINTO", 
                "format": "text/plain"
            }
        }, 
        {
            "@id": "https://manifests.teklia.com/HIMANIS/JJ168/words_annotations/FRAN_0021_29020.json/115/line", 
            "@type": "oa:Annotation", 
            "motivation": "oa:painting", 
            "on": "http://bvmm.irht.cnrs.fr/iiif/23761/canvas/canvas-2332013#xywh=3270,1845,121,120", 
            "resource": {
                "@type": "cnt:ContentAsText", 
                "chars": "VINO", 
                "format": "text/plain"
            }
        }, 
        {
            "@id": "https://manifests.teklia.com/HIMANIS/JJ168/words_annotations/FRAN_0021_29020.json/116/line", 
            "@type": "oa:Annotation", 
            "motivation": "oa:painting", 
            "on": "http://bvmm.irht.cnrs.fr/iiif/23761/canvas/canvas-2332013#xywh=2082,680,138,220", 
            "resource": {
                "@type": "cnt:ContentAsText", 
                "chars": "AUTRE", 
                "format": "text/plain"
            }
        }, 
        {
            "@id": "https://manifests.teklia.com/HIMANIS/JJ168/words_annotations/FRAN_0021_29020.json/117/line", 
            "@type": "oa:Annotation", 
            "motivation": "oa:painting", 
            "on": "http://bvmm.irht.cnrs.fr/iiif/23761/canvas/canvas-2332013#xywh=1431,1010,181,160", 
            "resource": {
                "@type": "cnt:ContentAsText", 
                "chars": "INEM", 
                "format": "text/plain"
            }
        }, 
        {
            "@id": "https://manifests.teklia.com/HIMANIS/JJ168/words_annotations/FRAN_0021_29020.json/118/line", 
            "@type": "oa:Annotation", 
            "motivation": "oa:painting", 
            "on": "http://bvmm.irht.cnrs.fr/iiif/23761/canvas/canvas-2332013#xywh=3260,1010,121,160", 
            "resource": {
                "@type": "cnt:ContentAsText", 
                "chars": "NOSTRIS", 
                "format": "text/plain"
            }
        }, 
        {
            "@id": "https://manifests.teklia.com/HIMANIS/JJ168/words_annotations/FRAN_0021_29020.json/119/line", 
            "@type": "oa:Annotation", 
            "motivation": "oa:painting", 
            "on": "http://bvmm.irht.cnrs.fr/iiif/23761/canvas/canvas-2332013#xywh=3089,1845,136,120", 
            "resource": {
                "@type": "cnt:ContentAsText", 
                "chars": "REGEM", 
                "format": "text/plain"
            }
        }, 
        {
            "@id": "https://manifests.teklia.com/HIMANIS/JJ168/words_annotations/FRAN_0021_29020.json/120/line", 
            "@type": "oa:Annotation", 
            "motivation": "oa:painting", 
            "on": "http://bvmm.irht.cnrs.fr/iiif/23761/canvas/canvas-2332013#xywh=3332,1125,242,120", 
            "resource": {
                "@type": "cnt:ContentAsText", 
                "chars": "CURARIOS", 
                "format": "text/plain"
            }
        }, 
        {
            "@id": "https://manifests.teklia.com/HIMANIS/JJ168/words_annotations/FRAN_0021_29020.json/121/line", 
            "@type": "oa:Annotation", 
            "motivation": "oa:painting", 
            "on": "http://bvmm.irht.cnrs.fr/iiif/23761/canvas/canvas-2332013#xywh=2718,1010,271,160", 
            "resource": {
                "@type": "cnt:ContentAsText", 
                "chars": "MENT", 
                "format": "text/plain"
            }
        }, 
        {
            "@id": "https://manifests.teklia.com/HIMANIS/JJ168/words_annotations/FRAN_0021_29020.json/122/line", 
            "@type": "oa:Annotation", 
            "motivation": "oa:painting", 
            "on": "http://bvmm.irht.cnrs.fr/iiif/23761/canvas/canvas-2332013#xywh=2911,1357,212,283", 
            "resource": {
                "@type": "cnt:ContentAsText", 
                "chars": "ABBATIA", 
                "format": "text/plain"
            }
        }, 
        {
            "@id": "https://manifests.teklia.com/HIMANIS/JJ168/words_annotations/FRAN_0021_29020.json/123/line", 
            "@type": "oa:Annotation", 
            "motivation": "oa:painting", 
            "on": "http://bvmm.irht.cnrs.fr/iiif/23761/canvas/canvas-2332013#xywh=3780,680,759,220", 
            "resource": {
                "@type": "cnt:ContentAsText", 
                "chars": "ENDINACION", 
                "format": "text/plain"
            }
        }, 
        {
            "@id": "https://manifests.teklia.com/HIMANIS/JJ168/words_annotations/FRAN_0021_29020.json/124/line", 
            "@type": "oa:Annotation", 
            "motivation": "oa:painting", 
            "on": "http://bvmm.irht.cnrs.fr/iiif/23761/canvas/canvas-2332013#xywh=2415,1357,284,283", 
            "resource": {
                "@type": "cnt:ContentAsText", 
                "chars": "VINCESSENTIUM", 
                "format": "text/plain"
            }
        }, 
        {
            "@id": "https://manifests.teklia.com/HIMANIS/JJ168/words_annotations/FRAN_0021_29020.json/125/line", 
            "@type": "oa:Annotation", 
            "motivation": "oa:painting", 
            "on": "http://bvmm.irht.cnrs.fr/iiif/23761/canvas/canvas-2332013#xywh=2259,1715,113,150", 
            "resource": {
                "@type": "cnt:ContentAsText", 
                "chars": "NOSTRI", 
                "format": "text/plain"
            }
        }, 
        {
            "@id": "https://manifests.teklia.com/HIMANIS/JJ168/words_annotations/FRAN_0021_29020.json/126/line", 
            "@type": "oa:Annotation", 
            "motivation": "oa:painting", 
            "on": "http://bvmm.irht.cnrs.fr/iiif/23761/canvas/canvas-2332013#xywh=2911,1357,442,283", 
            "resource": {
                "@type": "cnt:ContentAsText", 
                "chars": "ABBATIS", 
                "format": "text/plain"
            }
        }, 
        {
            "@id": "https://manifests.teklia.com/HIMANIS/JJ168/words_annotations/FRAN_0021_29020.json/127/line", 
            "@type": "oa:Annotation", 
            "motivation": "oa:painting", 
            "on": "http://bvmm.irht.cnrs.fr/iiif/23761/canvas/canvas-2332013#xywh=1934,1010,140,160", 
            "resource": {
                "@type": "cnt:ContentAsText", 
                "chars": "JUSQUE", 
                "format": "text/plain"
            }
        }, 
        {
            "@id": "https://manifests.teklia.com/HIMANIS/JJ168/words_annotations/FRAN_0021_29020.json/128/line", 
            "@type": "oa:Annotation", 
            "motivation": "oa:painting", 
            "on": "http://bvmm.irht.cnrs.fr/iiif/23761/canvas/canvas-2332013#xywh=2025,1125,348,120", 
            "resource": {
                "@type": "cnt:ContentAsText", 
                "chars": "SUBMATORES", 
                "format": "text/plain"
            }
        }, 
        {
            "@id": "https://manifests.teklia.com/HIMANIS/JJ168/words_annotations/FRAN_0021_29020.json/129/line", 
            "@type": "oa:Annotation", 
            "motivation": "oa:painting", 
            "on": "http://bvmm.irht.cnrs.fr/iiif/23761/canvas/canvas-2332013#xywh=2718,1010,542,160", 
            "resource": {
                "@type": "cnt:ContentAsText", 
                "chars": "REGNI", 
                "format": "text/plain"
            }
        }, 
        {
            "@id": "https://manifests.teklia.com/HIMANIS/JJ168/words_annotations/FRAN_0021_29020.json/130/line", 
            "@type": "oa:Annotation", 
            "motivation": "oa:painting", 
            "on": "http://bvmm.irht.cnrs.fr/iiif/23761/canvas/canvas-2332013#xywh=3311,810,162,235", 
            "resource": {
                "@type": "cnt:ContentAsText", 
                "chars": "LOCALI", 
                "format": "text/plain"
            }
        }, 
        {
            "@id": "https://manifests.teklia.com/HIMANIS/JJ168/words_annotations/FRAN_0021_29020.json/131/line", 
            "@type": "oa:Annotation", 
            "motivation": "oa:painting", 
            "on": "http://bvmm.irht.cnrs.fr/iiif/23761/canvas/canvas-2332013#xywh=3223,810,88,235", 
            "resource": {
                "@type": "cnt:ContentAsText", 
                "chars": "SON", 
                "format": "text/plain"
            }
        }, 
        {
            "@id": "https://manifests.teklia.com/HIMANIS/JJ168/words_annotations/FRAN_0021_29020.json/132/line", 
            "@type": "oa:Annotation", 
            "motivation": "oa:painting", 
            "on": "http://bvmm.irht.cnrs.fr/iiif/23761/canvas/canvas-2332013#xywh=2579,680,235,220", 
            "resource": {
                "@type": "cnt:ContentAsText", 
                "chars": "DEVANTIN", 
                "format": "text/plain"
            }
        }, 
        {
            "@id": "https://manifests.teklia.com/HIMANIS/JJ168/words_annotations/FRAN_0021_29020.json/133/line", 
            "@type": "oa:Annotation", 
            "motivation": "oa:painting", 
            "on": "http://bvmm.irht.cnrs.fr/iiif/23761/canvas/canvas-2332013#xywh=1336,1357,265,283", 
            "resource": {
                "@type": "cnt:ContentAsText", 
                "chars": "MA", 
                "format": "text/plain"
            }
        }, 
        {
            "@id": "https://manifests.teklia.com/HIMANIS/JJ168/words_annotations/FRAN_0021_29020.json/134/line", 
            "@type": "oa:Annotation", 
            "motivation": "oa:painting", 
            "on": "http://bvmm.irht.cnrs.fr/iiif/23761/canvas/canvas-2332013#xywh=2154,1615,158,140", 
            "resource": {
                "@type": "cnt:ContentAsText", 
                "chars": "MENSE", 
                "format": "text/plain"
            }
        }, 
        {
            "@id": "https://manifests.teklia.com/HIMANIS/JJ168/words_annotations/FRAN_0021_29020.json/135/line", 
            "@type": "oa:Annotation", 
            "motivation": "oa:painting", 
            "on": "http://bvmm.irht.cnrs.fr/iiif/23761/canvas/canvas-2332013#xywh=3522,2055,759,75", 
            "resource": {
                "@type": "cnt:ContentAsText", 
                "chars": "PERNE", 
                "format": "text/plain"
            }
        }, 
        {
            "@id": "https://manifests.teklia.com/HIMANIS/JJ168/words_annotations/FRAN_0021_29020.json/136/line", 
            "@type": "oa:Annotation", 
            "motivation": "oa:painting", 
            "on": "http://bvmm.irht.cnrs.fr/iiif/23761/canvas/canvas-2332013#xywh=3713,1615,132,140", 
            "resource": {
                "@type": "cnt:ContentAsText", 
                "chars": "FILIO", 
                "format": "text/plain"
            }
        }, 
        {
            "@id": "https://manifests.teklia.com/HIMANIS/JJ168/words_annotations/FRAN_0021_29020.json/137/line", 
            "@type": "oa:Annotation", 
            "motivation": "oa:painting", 
            "on": "http://bvmm.irht.cnrs.fr/iiif/23761/canvas/canvas-2332013#xywh=2911,1357,531,283", 
            "resource": {
                "@type": "cnt:ContentAsText", 
                "chars": "EN", 
                "format": "text/plain"
            }
        }, 
        {
            "@id": "https://manifests.teklia.com/HIMANIS/JJ168/words_annotations/FRAN_0021_29020.json/138/line", 
            "@type": "oa:Annotation", 
            "motivation": "oa:painting", 
            "on": "http://bvmm.irht.cnrs.fr/iiif/23761/canvas/canvas-2332013#xywh=1814,1357,71,283", 
            "resource": {
                "@type": "cnt:ContentAsText", 
                "chars": "UT", 
                "format": "text/plain"
            }
        }, 
        {
            "@id": "https://manifests.teklia.com/HIMANIS/JJ168/words_annotations/FRAN_0021_29020.json/139/line", 
            "@type": "oa:Annotation", 
            "motivation": "oa:painting", 
            "on": "http://bvmm.irht.cnrs.fr/iiif/23761/canvas/canvas-2332013#xywh=2911,1357,336,283", 
            "resource": {
                "@type": "cnt:ContentAsText", 
                "chars": "ET", 
                "format": "text/plain"
            }
        }, 
        {
            "@id": "https://manifests.teklia.com/HIMANIS/JJ168/words_annotations/FRAN_0021_29020.json/140/line", 
            "@type": "oa:Annotation", 
            "motivation": "oa:painting", 
            "on": "http://bvmm.irht.cnrs.fr/iiif/23761/canvas/canvas-2332013#xywh=2082,680,138,220", 
            "resource": {
                "@type": "cnt:ContentAsText", 
                "chars": "INCORE", 
                "format": "text/plain"
            }
        }, 
        {
            "@id": "https://manifests.teklia.com/HIMANIS/JJ168/words_annotations/FRAN_0021_29020.json/141/line", 
            "@type": "oa:Annotation", 
            "motivation": "oa:painting", 
            "on": "http://bvmm.irht.cnrs.fr/iiif/23761/canvas/canvas-2332013#xywh=2132,1357,230,283", 
            "resource": {
                "@type": "cnt:ContentAsText", 
                "chars": "APUD", 
                "format": "text/plain"
            }
        }, 
        {
            "@id": "https://manifests.teklia.com/HIMANIS/JJ168/words_annotations/FRAN_0021_29020.json/142/line", 
            "@type": "oa:Annotation", 
            "motivation": "oa:painting", 
            "on": "http://bvmm.irht.cnrs.fr/iiif/23761/canvas/canvas-2332013#xywh=486,244,238,141", 
            "resource": {
                "@type": "cnt:ContentAsText", 
                "chars": "DESSUS", 
                "format": "text/plain"
            }
        }, 
        {
            "@id": "https://manifests.teklia.com/HIMANIS/JJ168/words_annotations/FRAN_0021_29020.json/143/line", 
            "@type": "oa:Annotation", 
            "motivation": "oa:painting", 
            "on": "http://bvmm.irht.cnrs.fr/iiif/23761/canvas/canvas-2332013#xywh=2769,1357,407,283", 
            "resource": {
                "@type": "cnt:ContentAsText", 
                "chars": "QUAM", 
                "format": "text/plain"
            }
        }, 
        {
            "@id": "https://manifests.teklia.com/HIMANIS/JJ168/words_annotations/FRAN_0021_29020.json/144/line", 
            "@type": "oa:Annotation", 
            "motivation": "oa:painting", 
            "on": "http://bvmm.irht.cnrs.fr/iiif/23761/canvas/canvas-2332013#xywh=2415,1357,284,283", 
            "resource": {
                "@type": "cnt:ContentAsText", 
                "chars": "VINTESSENTIUM", 
                "format": "text/plain"
            }
        }, 
        {
            "@id": "https://manifests.teklia.com/HIMANIS/JJ168/words_annotations/FRAN_0021_29020.json/145/line", 
            "@type": "oa:Annotation", 
            "motivation": "oa:painting", 
            "on": "http://bvmm.irht.cnrs.fr/iiif/23761/canvas/canvas-2332013#xywh=2691,1190,156,147", 
            "resource": {
                "@type": "cnt:ContentAsText", 
                "chars": "PARDICTI", 
                "format": "text/plain"
            }
        }, 
        {
            "@id": "https://manifests.teklia.com/HIMANIS/JJ168/words_annotations/FRAN_0021_29020.json/146/line", 
            "@type": "oa:Annotation", 
            "motivation": "oa:painting", 
            "on": "http://bvmm.irht.cnrs.fr/iiif/23761/canvas/canvas-2332013#xywh=2456,1010,242,160", 
            "resource": {
                "@type": "cnt:ContentAsText", 
                "chars": "OFFICIARIS", 
                "format": "text/plain"
            }
        }, 
        {
            "@id": "https://manifests.teklia.com/HIMANIS/JJ168/words_annotations/FRAN_0021_29020.json/147/line", 
            "@type": "oa:Annotation", 
            "motivation": "oa:painting", 
            "on": "http://bvmm.irht.cnrs.fr/iiif/23761/canvas/canvas-2332013#xywh=1649,810,427,235", 
            "resource": {
                "@type": "cnt:ContentAsText", 
                "chars": "CHEVALIER", 
                "format": "text/plain"
            }
        }, 
        {
            "@id": "https://manifests.teklia.com/HIMANIS/JJ168/words_annotations/FRAN_0021_29020.json/148/line", 
            "@type": "oa:Annotation", 
            "motivation": "oa:painting", 
            "on": "http://bvmm.irht.cnrs.fr/iiif/23761/canvas/canvas-2332013#xywh=3335,1950,117,110", 
            "resource": {
                "@type": "cnt:ContentAsText", 
                "chars": "ALIIS", 
                "format": "text/plain"
            }
        }, 
        {
            "@id": "https://manifests.teklia.com/HIMANIS/JJ168/words_annotations/FRAN_0021_29020.json/149/line", 
            "@type": "oa:Annotation", 
            "motivation": "oa:painting", 
            "on": "http://bvmm.irht.cnrs.fr/iiif/23761/canvas/canvas-2332013#xywh=2999,1615,265,140", 
            "resource": {
                "@type": "cnt:ContentAsText", 
                "chars": "MILLESIMO", 
                "format": "text/plain"
            }
        }, 
        {
            "@id": "https://manifests.teklia.com/HIMANIS/JJ168/words_annotations/FRAN_0021_29020.json/150/line", 
            "@type": "oa:Annotation", 
            "motivation": "oa:painting", 
            "on": "http://bvmm.irht.cnrs.fr/iiif/23761/canvas/canvas-2332013#xywh=2911,1357,513,283", 
            "resource": {
                "@type": "cnt:ContentAsText", 
                "chars": "ALIUM", 
                "format": "text/plain"
            }
        }, 
        {
            "@id": "https://manifests.teklia.com/HIMANIS/JJ168/words_annotations/FRAN_0021_29020.json/151/line", 
            "@type": "oa:Annotation", 
            "motivation": "oa:painting", 
            "on": "http://bvmm.irht.cnrs.fr/iiif/23761/canvas/canvas-2332013#xywh=1891,1715,161,150", 
            "resource": {
                "@type": "cnt:ContentAsText", 
                "chars": "SIGNUM", 
                "format": "text/plain"
            }
        }, 
        {
            "@id": "https://manifests.teklia.com/HIMANIS/JJ168/words_annotations/FRAN_0021_29020.json/152/line", 
            "@type": "oa:Annotation", 
            "motivation": "oa:painting", 
            "on": "http://bvmm.irht.cnrs.fr/iiif/23761/canvas/canvas-2332013#xywh=2911,1357,513,283", 
            "resource": {
                "@type": "cnt:ContentAsText", 
                "chars": "ALIAM", 
                "format": "text/plain"
            }
        }, 
        {
            "@id": "https://manifests.teklia.com/HIMANIS/JJ168/words_annotations/FRAN_0021_29020.json/153/line", 
            "@type": "oa:Annotation", 
            "motivation": "oa:painting", 
            "on": "http://bvmm.irht.cnrs.fr/iiif/23761/canvas/canvas-2332013#xywh=4454,1190,83,147", 
            "resource": {
                "@type": "cnt:ContentAsText", 
                "chars": "LA", 
                "format": "text/plain"
            }
        }, 
        {
            "@id": "https://manifests.teklia.com/HIMANIS/JJ168/words_annotations/FRAN_0021_29020.json/154/line", 
            "@type": "oa:Annotation", 
            "motivation": "oa:painting", 
            "on": "http://bvmm.irht.cnrs.fr/iiif/23761/canvas/canvas-2332013#xywh=1791,1125,181,120", 
            "resource": {
                "@type": "cnt:ContentAsText", 
                "chars": "SICTOS", 
                "format": "text/plain"
            }
        }, 
        {
            "@id": "https://manifests.teklia.com/HIMANIS/JJ168/words_annotations/FRAN_0021_29020.json/155/line", 
            "@type": "oa:Annotation", 
            "motivation": "oa:painting", 
            "on": "http://bvmm.irht.cnrs.fr/iiif/23761/canvas/canvas-2332013#xywh=2769,1357,195,283", 
            "resource": {
                "@type": "cnt:ContentAsText", 
                "chars": "QUADAM", 
                "format": "text/plain"
            }
        }, 
        {
            "@id": "https://manifests.teklia.com/HIMANIS/JJ168/words_annotations/FRAN_0021_29020.json/156/line", 
            "@type": "oa:Annotation", 
            "motivation": "oa:painting", 
            "on": "http://bvmm.irht.cnrs.fr/iiif/23761/canvas/canvas-2332013#xywh=2911,1357,407,283", 
            "resource": {
                "@type": "cnt:ContentAsText", 
                "chars": "ALIIS", 
                "format": "text/plain"
            }
        }, 
        {
            "@id": "https://manifests.teklia.com/HIMANIS/JJ168/words_annotations/FRAN_0021_29020.json/157/line", 
            "@type": "oa:Annotation", 
            "motivation": "oa:painting", 
            "on": "http://bvmm.irht.cnrs.fr/iiif/23761/canvas/canvas-2332013#xywh=3620,810,485,235", 
            "resource": {
                "@type": "cnt:ContentAsText", 
                "chars": "FACIMUS", 
                "format": "text/plain"
            }
        }, 
        {
            "@id": "https://manifests.teklia.com/HIMANIS/JJ168/words_annotations/FRAN_0021_29020.json/158/line", 
            "@type": "oa:Annotation", 
            "motivation": "oa:painting", 
            "on": "http://bvmm.irht.cnrs.fr/iiif/23761/canvas/canvas-2332013#xywh=2409,1845,816,120", 
            "resource": {
                "@type": "cnt:ContentAsText", 
                "chars": "LEGEM", 
                "format": "text/plain"
            }
        }, 
        {
            "@id": "https://manifests.teklia.com/HIMANIS/JJ168/words_annotations/FRAN_0021_29020.json/159/line", 
            "@type": "oa:Annotation", 
            "motivation": "oa:painting", 
            "on": "http://bvmm.irht.cnrs.fr/iiif/23761/canvas/canvas-2332013#xywh=3777,1950,55,110", 
            "resource": {
                "@type": "cnt:ContentAsText", 
                "chars": "SI", 
                "format": "text/plain"
            }
        }, 
        {
            "@id": "https://manifests.teklia.com/HIMANIS/JJ168/words_annotations/FRAN_0021_29020.json/160/line", 
            "@type": "oa:Annotation", 
            "motivation": "oa:painting", 
            "on": "http://bvmm.irht.cnrs.fr/iiif/23761/canvas/canvas-2332013#xywh=3777,1950,62,110", 
            "resource": {
                "@type": "cnt:ContentAsText", 
                "chars": "SO", 
                "format": "text/plain"
            }
        }
    ]
}