{
    "@context": "http://iiif.io/api/presentation/2/context.json", 
    "@id": "https://manifests.teklia.com/HIMANIS/JJ189/words_annotations/FRAN_0200_07989.json", 
    "@type": "sc:AnnotationList", 
    "resources": [
        {
            "@id": "https://manifests.teklia.com/HIMANIS/JJ189/words_annotations/FRAN_0200_07989.json/0/line", 
            "@type": "oa:Annotation", 
            "motivation": "oa:painting", 
            "on": "http://bvmm.irht.cnrs.fr/iiif/23797/canvas/canvas-2345875#xywh=1507,1799,152,408", 
            "resource": {
                "@type": "cnt:ContentAsText", 
                "chars": "QUE", 
                "format": "text/plain"
            }
        }, 
        {
            "@id": "https://manifests.teklia.com/HIMANIS/JJ189/words_annotations/FRAN_0200_07989.json/1/line", 
            "@type": "oa:Annotation", 
            "motivation": "oa:painting", 
            "on": "http://bvmm.irht.cnrs.fr/iiif/23797/canvas/canvas-2345875#xywh=226,1946,2609,521", 
            "resource": {
                "@type": "cnt:ContentAsText", 
                "chars": "DE", 
                "format": "text/plain"
            }
        }, 
        {
            "@id": "https://manifests.teklia.com/HIMANIS/JJ189/words_annotations/FRAN_0200_07989.json/2/line", 
            "@type": "oa:Annotation", 
            "motivation": "oa:painting", 
            "on": "http://bvmm.irht.cnrs.fr/iiif/23797/canvas/canvas-2345875#xywh=2119,2638,906,402", 
            "resource": {
                "@type": "cnt:ContentAsText", 
                "chars": "LETTRES", 
                "format": "text/plain"
            }
        }, 
        {
            "@id": "https://manifests.teklia.com/HIMANIS/JJ189/words_annotations/FRAN_0200_07989.json/3/line", 
            "@type": "oa:Annotation", 
            "motivation": "oa:painting", 
            "on": "http://bvmm.irht.cnrs.fr/iiif/23797/canvas/canvas-2345875#xywh=2611,2528,970,353", 
            "resource": {
                "@type": "cnt:ContentAsText", 
                "chars": "LETTRES", 
                "format": "text/plain"
            }
        }, 
        {
            "@id": "https://manifests.teklia.com/HIMANIS/JJ189/words_annotations/FRAN_0200_07989.json/4/line", 
            "@type": "oa:Annotation", 
            "motivation": "oa:painting", 
            "on": "http://bvmm.irht.cnrs.fr/iiif/23797/canvas/canvas-2345875#xywh=929,889,1774,459", 
            "resource": {
                "@type": "cnt:ContentAsText", 
                "chars": "PROPRESENT", 
                "format": "text/plain"
            }
        }, 
        {
            "@id": "https://manifests.teklia.com/HIMANIS/JJ189/words_annotations/FRAN_0200_07989.json/5/line", 
            "@type": "oa:Annotation", 
            "motivation": "oa:painting", 
            "on": "http://bvmm.irht.cnrs.fr/iiif/23797/canvas/canvas-2345875#xywh=99,2694,1393,466", 
            "resource": {
                "@type": "cnt:ContentAsText", 
                "chars": "PRESE", 
                "format": "text/plain"
            }
        }, 
        {
            "@id": "https://manifests.teklia.com/HIMANIS/JJ189/words_annotations/FRAN_0200_07989.json/6/line", 
            "@type": "oa:Annotation", 
            "motivation": "oa:painting", 
            "on": "http://bvmm.irht.cnrs.fr/iiif/23797/canvas/canvas-2345875#xywh=493,3636,1622,259", 
            "resource": {
                "@type": "cnt:ContentAsText", 
                "chars": "QUE", 
                "format": "text/plain"
            }
        }, 
        {
            "@id": "https://manifests.teklia.com/HIMANIS/JJ189/words_annotations/FRAN_0200_07989.json/7/line", 
            "@type": "oa:Annotation", 
            "motivation": "oa:painting", 
            "on": "http://bvmm.irht.cnrs.fr/iiif/23797/canvas/canvas-2345875#xywh=104,2638,680,402", 
            "resource": {
                "@type": "cnt:ContentAsText", 
                "chars": "PHILIPPUS", 
                "format": "text/plain"
            }
        }, 
        {
            "@id": "https://manifests.teklia.com/HIMANIS/JJ189/words_annotations/FRAN_0200_07989.json/8/line", 
            "@type": "oa:Annotation", 
            "motivation": "oa:painting", 
            "on": "http://bvmm.irht.cnrs.fr/iiif/23797/canvas/canvas-2345875#xywh=1278,60,1135,162", 
            "resource": {
                "@type": "cnt:ContentAsText", 
                "chars": "POS", 
                "format": "text/plain"
            }
        }, 
        {
            "@id": "https://manifests.teklia.com/HIMANIS/JJ189/words_annotations/FRAN_0200_07989.json/9/line", 
            "@type": "oa:Annotation", 
            "motivation": "oa:painting", 
            "on": "http://bvmm.irht.cnrs.fr/iiif/23797/canvas/canvas-2345875#xywh=858,1737,540,394", 
            "resource": {
                "@type": "cnt:ContentAsText", 
                "chars": "HIIS", 
                "format": "text/plain"
            }
        }, 
        {
            "@id": "https://manifests.teklia.com/HIMANIS/JJ189/words_annotations/FRAN_0200_07989.json/10/line", 
            "@type": "oa:Annotation", 
            "motivation": "oa:painting", 
            "on": "http://bvmm.irht.cnrs.fr/iiif/23797/canvas/canvas-2345875#xywh=104,2638,655,402", 
            "resource": {
                "@type": "cnt:ContentAsText", 
                "chars": "PHILIPPES", 
                "format": "text/plain"
            }
        }, 
        {
            "@id": "https://manifests.teklia.com/HIMANIS/JJ189/words_annotations/FRAN_0200_07989.json/11/line", 
            "@type": "oa:Annotation", 
            "motivation": "oa:painting", 
            "on": "http://bvmm.irht.cnrs.fr/iiif/23797/canvas/canvas-2345875#xywh=907,1737,1031,394", 
            "resource": {
                "@type": "cnt:ContentAsText", 
                "chars": "QUAM", 
                "format": "text/plain"
            }
        }, 
        {
            "@id": "https://manifests.teklia.com/HIMANIS/JJ189/words_annotations/FRAN_0200_07989.json/12/line", 
            "@type": "oa:Annotation", 
            "motivation": "oa:painting", 
            "on": "http://bvmm.irht.cnrs.fr/iiif/23797/canvas/canvas-2345875#xywh=3059,1799,1044,408", 
            "resource": {
                "@type": "cnt:ContentAsText", 
                "chars": "ASSIS", 
                "format": "text/plain"
            }
        }, 
        {
            "@id": "https://manifests.teklia.com/HIMANIS/JJ189/words_annotations/FRAN_0200_07989.json/13/line", 
            "@type": "oa:Annotation", 
            "motivation": "oa:painting", 
            "on": "http://bvmm.irht.cnrs.fr/iiif/23797/canvas/canvas-2345875#xywh=1508,2528,1919,353", 
            "resource": {
                "@type": "cnt:ContentAsText", 
                "chars": "DESSUS", 
                "format": "text/plain"
            }
        }, 
        {
            "@id": "https://manifests.teklia.com/HIMANIS/JJ189/words_annotations/FRAN_0200_07989.json/14/line", 
            "@type": "oa:Annotation", 
            "motivation": "oa:painting", 
            "on": "http://bvmm.irht.cnrs.fr/iiif/23797/canvas/canvas-2345875#xywh=1540,2638,554,402", 
            "resource": {
                "@type": "cnt:ContentAsText", 
                "chars": "NOUS", 
                "format": "text/plain"
            }
        }, 
        {
            "@id": "https://manifests.teklia.com/HIMANIS/JJ189/words_annotations/FRAN_0200_07989.json/15/line", 
            "@type": "oa:Annotation", 
            "motivation": "oa:painting", 
            "on": "http://bvmm.irht.cnrs.fr/iiif/23797/canvas/canvas-2345875#xywh=1998,2882,203,407", 
            "resource": {
                "@type": "cnt:ContentAsText", 
                "chars": "QUI", 
                "format": "text/plain"
            }
        }, 
        {
            "@id": "https://manifests.teklia.com/HIMANIS/JJ189/words_annotations/FRAN_0200_07989.json/16/line", 
            "@type": "oa:Annotation", 
            "motivation": "oa:painting", 
            "on": "http://bvmm.irht.cnrs.fr/iiif/23797/canvas/canvas-2345875#xywh=929,889,1202,459", 
            "resource": {
                "@type": "cnt:ContentAsText", 
                "chars": "PRO", 
                "format": "text/plain"
            }
        }, 
        {
            "@id": "https://manifests.teklia.com/HIMANIS/JJ189/words_annotations/FRAN_0200_07989.json/17/line", 
            "@type": "oa:Annotation", 
            "motivation": "oa:painting", 
            "on": "http://bvmm.irht.cnrs.fr/iiif/23797/canvas/canvas-2345875#xywh=907,1737,1743,394", 
            "resource": {
                "@type": "cnt:ContentAsText", 
                "chars": "SUIS", 
                "format": "text/plain"
            }
        }, 
        {
            "@id": "https://manifests.teklia.com/HIMANIS/JJ189/words_annotations/FRAN_0200_07989.json/18/line", 
            "@type": "oa:Annotation", 
            "motivation": "oa:painting", 
            "on": "http://bvmm.irht.cnrs.fr/iiif/23797/canvas/canvas-2345875#xywh=929,889,1202,459", 
            "resource": {
                "@type": "cnt:ContentAsText", 
                "chars": "SI", 
                "format": "text/plain"
            }
        }, 
        {
            "@id": "https://manifests.teklia.com/HIMANIS/JJ189/words_annotations/FRAN_0200_07989.json/19/line", 
            "@type": "oa:Annotation", 
            "motivation": "oa:painting", 
            "on": "http://bvmm.irht.cnrs.fr/iiif/23797/canvas/canvas-2345875#xywh=2830,1799,636,408", 
            "resource": {
                "@type": "cnt:ContentAsText", 
                "chars": "PRISIUS", 
                "format": "text/plain"
            }
        }, 
        {
            "@id": "https://manifests.teklia.com/HIMANIS/JJ189/words_annotations/FRAN_0200_07989.json/20/line", 
            "@type": "oa:Annotation", 
            "motivation": "oa:painting", 
            "on": "http://bvmm.irht.cnrs.fr/iiif/23797/canvas/canvas-2345875#xywh=1867,1488,22,344", 
            "resource": {
                "@type": "cnt:ContentAsText", 
                "chars": "QUE", 
                "format": "text/plain"
            }
        }, 
        {
            "@id": "https://manifests.teklia.com/HIMANIS/JJ189/words_annotations/FRAN_0200_07989.json/21/line", 
            "@type": "oa:Annotation", 
            "motivation": "oa:painting", 
            "on": "http://bvmm.irht.cnrs.fr/iiif/23797/canvas/canvas-2345875#xywh=99,2694,2147,466", 
            "resource": {
                "@type": "cnt:ContentAsText", 
                "chars": "PHILIPPE", 
                "format": "text/plain"
            }
        }, 
        {
            "@id": "https://manifests.teklia.com/HIMANIS/JJ189/words_annotations/FRAN_0200_07989.json/22/line", 
            "@type": "oa:Annotation", 
            "motivation": "oa:painting", 
            "on": "http://bvmm.irht.cnrs.fr/iiif/23797/canvas/canvas-2345875#xywh=929,889,3348,459", 
            "resource": {
                "@type": "cnt:ContentAsText", 
                "chars": "OU", 
                "format": "text/plain"
            }
        }, 
        {
            "@id": "https://manifests.teklia.com/HIMANIS/JJ189/words_annotations/FRAN_0200_07989.json/23/line", 
            "@type": "oa:Annotation", 
            "motivation": "oa:painting", 
            "on": "http://bvmm.irht.cnrs.fr/iiif/23797/canvas/canvas-2345875#xywh=1278,60,1135,162", 
            "resource": {
                "@type": "cnt:ContentAsText", 
                "chars": "OS", 
                "format": "text/plain"
            }
        }, 
        {
            "@id": "https://manifests.teklia.com/HIMANIS/JJ189/words_annotations/FRAN_0200_07989.json/24/line", 
            "@type": "oa:Annotation", 
            "motivation": "oa:painting", 
            "on": "http://bvmm.irht.cnrs.fr/iiif/23797/canvas/canvas-2345875#xywh=1530,2528,353,353", 
            "resource": {
                "@type": "cnt:ContentAsText", 
                "chars": "PARISIUS", 
                "format": "text/plain"
            }
        }, 
        {
            "@id": "https://manifests.teklia.com/HIMANIS/JJ189/words_annotations/FRAN_0200_07989.json/25/line", 
            "@type": "oa:Annotation", 
            "motivation": "oa:painting", 
            "on": "http://bvmm.irht.cnrs.fr/iiif/23797/canvas/canvas-2345875#xywh=1481,1799,1171,408", 
            "resource": {
                "@type": "cnt:ContentAsText", 
                "chars": "ESPECIAM", 
                "format": "text/plain"
            }
        }, 
        {
            "@id": "https://manifests.teklia.com/HIMANIS/JJ189/words_annotations/FRAN_0200_07989.json/26/line", 
            "@type": "oa:Annotation", 
            "motivation": "oa:painting", 
            "on": "http://bvmm.irht.cnrs.fr/iiif/23797/canvas/canvas-2345875#xywh=4038,4083,231,69", 
            "resource": {
                "@type": "cnt:ContentAsText", 
                "chars": "ES", 
                "format": "text/plain"
            }
        }, 
        {
            "@id": "https://manifests.teklia.com/HIMANIS/JJ189/words_annotations/FRAN_0200_07989.json/27/line", 
            "@type": "oa:Annotation", 
            "motivation": "oa:painting", 
            "on": "http://bvmm.irht.cnrs.fr/iiif/23797/canvas/canvas-2345875#xywh=4038,4083,231,69", 
            "resource": {
                "@type": "cnt:ContentAsText", 
                "chars": "ET", 
                "format": "text/plain"
            }
        }, 
        {
            "@id": "https://manifests.teklia.com/HIMANIS/JJ189/words_annotations/FRAN_0200_07989.json/28/line", 
            "@type": "oa:Annotation", 
            "motivation": "oa:painting", 
            "on": "http://bvmm.irht.cnrs.fr/iiif/23797/canvas/canvas-2345875#xywh=83,973,4119,506", 
            "resource": {
                "@type": "cnt:ContentAsText", 
                "chars": "LES", 
                "format": "text/plain"
            }
        }, 
        {
            "@id": "https://manifests.teklia.com/HIMANIS/JJ189/words_annotations/FRAN_0200_07989.json/29/line", 
            "@type": "oa:Annotation", 
            "motivation": "oa:painting", 
            "on": "http://bvmm.irht.cnrs.fr/iiif/23797/canvas/canvas-2345875#xywh=493,3636,373,259", 
            "resource": {
                "@type": "cnt:ContentAsText", 
                "chars": "DE", 
                "format": "text/plain"
            }
        }, 
        {
            "@id": "https://manifests.teklia.com/HIMANIS/JJ189/words_annotations/FRAN_0200_07989.json/30/line", 
            "@type": "oa:Annotation", 
            "motivation": "oa:painting", 
            "on": "http://bvmm.irht.cnrs.fr/iiif/23797/canvas/canvas-2345875#xywh=2913,2882,914,407", 
            "resource": {
                "@type": "cnt:ContentAsText", 
                "chars": "LES", 
                "format": "text/plain"
            }
        }, 
        {
            "@id": "https://manifests.teklia.com/HIMANIS/JJ189/words_annotations/FRAN_0200_07989.json/31/line", 
            "@type": "oa:Annotation", 
            "motivation": "oa:painting", 
            "on": "http://bvmm.irht.cnrs.fr/iiif/23797/canvas/canvas-2345875#xywh=907,1737,3314,394", 
            "resource": {
                "@type": "cnt:ContentAsText", 
                "chars": "ET", 
                "format": "text/plain"
            }
        }, 
        {
            "@id": "https://manifests.teklia.com/HIMANIS/JJ189/words_annotations/FRAN_0200_07989.json/32/line", 
            "@type": "oa:Annotation", 
            "motivation": "oa:painting", 
            "on": "http://bvmm.irht.cnrs.fr/iiif/23797/canvas/canvas-2345875#xywh=809,2638,605,402", 
            "resource": {
                "@type": "cnt:ContentAsText", 
                "chars": "FACTUM", 
                "format": "text/plain"
            }
        }, 
        {
            "@id": "https://manifests.teklia.com/HIMANIS/JJ189/words_annotations/FRAN_0200_07989.json/33/line", 
            "@type": "oa:Annotation", 
            "motivation": "oa:painting", 
            "on": "http://bvmm.irht.cnrs.fr/iiif/23797/canvas/canvas-2345875#xywh=2633,2528,88,353", 
            "resource": {
                "@type": "cnt:ContentAsText", 
                "chars": "FUTURUM", 
                "format": "text/plain"
            }
        }, 
        {
            "@id": "https://manifests.teklia.com/HIMANIS/JJ189/words_annotations/FRAN_0200_07989.json/34/line", 
            "@type": "oa:Annotation", 
            "motivation": "oa:painting", 
            "on": "http://bvmm.irht.cnrs.fr/iiif/23797/canvas/canvas-2345875#xywh=1508,2528,1411,353", 
            "resource": {
                "@type": "cnt:ContentAsText", 
                "chars": "FUTURIS", 
                "format": "text/plain"
            }
        }, 
        {
            "@id": "https://manifests.teklia.com/HIMANIS/JJ189/words_annotations/FRAN_0200_07989.json/35/line", 
            "@type": "oa:Annotation", 
            "motivation": "oa:painting", 
            "on": "http://bvmm.irht.cnrs.fr/iiif/23797/canvas/canvas-2345875#xywh=845,1799,636,408", 
            "resource": {
                "@type": "cnt:ContentAsText", 
                "chars": "PHILIPPUS", 
                "format": "text/plain"
            }
        }, 
        {
            "@id": "https://manifests.teklia.com/HIMANIS/JJ189/words_annotations/FRAN_0200_07989.json/36/line", 
            "@type": "oa:Annotation", 
            "motivation": "oa:painting", 
            "on": "http://bvmm.irht.cnrs.fr/iiif/23797/canvas/canvas-2345875#xywh=845,1799,636,408", 
            "resource": {
                "@type": "cnt:ContentAsText", 
                "chars": "PHILIPPES", 
                "format": "text/plain"
            }
        }, 
        {
            "@id": "https://manifests.teklia.com/HIMANIS/JJ189/words_annotations/FRAN_0200_07989.json/37/line", 
            "@type": "oa:Annotation", 
            "motivation": "oa:painting", 
            "on": "http://bvmm.irht.cnrs.fr/iiif/23797/canvas/canvas-2345875#xywh=2576,1799,687,408", 
            "resource": {
                "@type": "cnt:ContentAsText", 
                "chars": "QUIBUS", 
                "format": "text/plain"
            }
        }, 
        {
            "@id": "https://manifests.teklia.com/HIMANIS/JJ189/words_annotations/FRAN_0200_07989.json/38/line", 
            "@type": "oa:Annotation", 
            "motivation": "oa:painting", 
            "on": "http://bvmm.irht.cnrs.fr/iiif/23797/canvas/canvas-2345875#xywh=2092,1799,585,408", 
            "resource": {
                "@type": "cnt:ContentAsText", 
                "chars": "ET", 
                "format": "text/plain"
            }
        }, 
        {
            "@id": "https://manifests.teklia.com/HIMANIS/JJ189/words_annotations/FRAN_0200_07989.json/39/line", 
            "@type": "oa:Annotation", 
            "motivation": "oa:painting", 
            "on": "http://bvmm.irht.cnrs.fr/iiif/23797/canvas/canvas-2345875#xywh=105,1328,746,444", 
            "resource": {
                "@type": "cnt:ContentAsText", 
                "chars": "ET", 
                "format": "text/plain"
            }
        }, 
        {
            "@id": "https://manifests.teklia.com/HIMANIS/JJ189/words_annotations/FRAN_0200_07989.json/40/line", 
            "@type": "oa:Annotation", 
            "motivation": "oa:painting", 
            "on": "http://bvmm.irht.cnrs.fr/iiif/23797/canvas/canvas-2345875#xywh=1717,1488,22,344", 
            "resource": {
                "@type": "cnt:ContentAsText", 
                "chars": "LES", 
                "format": "text/plain"
            }
        }, 
        {
            "@id": "https://manifests.teklia.com/HIMANIS/JJ189/words_annotations/FRAN_0200_07989.json/41/line", 
            "@type": "oa:Annotation", 
            "motivation": "oa:painting", 
            "on": "http://bvmm.irht.cnrs.fr/iiif/23797/canvas/canvas-2345875#xywh=809,2638,957,402", 
            "resource": {
                "@type": "cnt:ContentAsText", 
                "chars": "QUE", 
                "format": "text/plain"
            }
        }, 
        {
            "@id": "https://manifests.teklia.com/HIMANIS/JJ189/words_annotations/FRAN_0200_07989.json/42/line", 
            "@type": "oa:Annotation", 
            "motivation": "oa:painting", 
            "on": "http://bvmm.irht.cnrs.fr/iiif/23797/canvas/canvas-2345875#xywh=3716,3713,516,169", 
            "resource": {
                "@type": "cnt:ContentAsText", 
                "chars": "DE", 
                "format": "text/plain"
            }
        }, 
        {
            "@id": "https://manifests.teklia.com/HIMANIS/JJ189/words_annotations/FRAN_0200_07989.json/43/line", 
            "@type": "oa:Annotation", 
            "motivation": "oa:painting", 
            "on": "http://bvmm.irht.cnrs.fr/iiif/23797/canvas/canvas-2345875#xywh=94,3044,0,537", 
            "resource": {
                "@type": "cnt:ContentAsText", 
                "chars": "J", 
                "format": "text/plain"
            }
        }, 
        {
            "@id": "https://manifests.teklia.com/HIMANIS/JJ189/words_annotations/FRAN_0200_07989.json/44/line", 
            "@type": "oa:Annotation", 
            "motivation": "oa:painting", 
            "on": "http://bvmm.irht.cnrs.fr/iiif/23797/canvas/canvas-2345875#xywh=3263,1799,840,408", 
            "resource": {
                "@type": "cnt:ContentAsText", 
                "chars": "LETTRES", 
                "format": "text/plain"
            }
        }, 
        {
            "@id": "https://manifests.teklia.com/HIMANIS/JJ189/words_annotations/FRAN_0200_07989.json/45/line", 
            "@type": "oa:Annotation", 
            "motivation": "oa:painting", 
            "on": "http://bvmm.irht.cnrs.fr/iiif/23797/canvas/canvas-2345875#xywh=2119,2638,1335,402", 
            "resource": {
                "@type": "cnt:ContentAsText", 
                "chars": "SENESCALLUM", 
                "format": "text/plain"
            }
        }, 
        {
            "@id": "https://manifests.teklia.com/HIMANIS/JJ189/words_annotations/FRAN_0200_07989.json/46/line", 
            "@type": "oa:Annotation", 
            "motivation": "oa:painting", 
            "on": "http://bvmm.irht.cnrs.fr/iiif/23797/canvas/canvas-2345875#xywh=94,3044,0,537", 
            "resource": {
                "@type": "cnt:ContentAsText", 
                "chars": "R", 
                "format": "text/plain"
            }
        }, 
        {
            "@id": "https://manifests.teklia.com/HIMANIS/JJ189/words_annotations/FRAN_0200_07989.json/47/line", 
            "@type": "oa:Annotation", 
            "motivation": "oa:painting", 
            "on": "http://bvmm.irht.cnrs.fr/iiif/23797/canvas/canvas-2345875#xywh=1998,2882,813,407", 
            "resource": {
                "@type": "cnt:ContentAsText", 
                "chars": "FACTUM", 
                "format": "text/plain"
            }
        }, 
        {
            "@id": "https://manifests.teklia.com/HIMANIS/JJ189/words_annotations/FRAN_0200_07989.json/48/line", 
            "@type": "oa:Annotation", 
            "motivation": "oa:painting", 
            "on": "http://bvmm.irht.cnrs.fr/iiif/23797/canvas/canvas-2345875#xywh=967,1488,215,344", 
            "resource": {
                "@type": "cnt:ContentAsText", 
                "chars": "ET", 
                "format": "text/plain"
            }
        }, 
        {
            "@id": "https://manifests.teklia.com/HIMANIS/JJ189/words_annotations/FRAN_0200_07989.json/49/line", 
            "@type": "oa:Annotation", 
            "motivation": "oa:painting", 
            "on": "http://bvmm.irht.cnrs.fr/iiif/23797/canvas/canvas-2345875#xywh=2913,2882,889,407", 
            "resource": {
                "@type": "cnt:ContentAsText", 
                "chars": "SUS", 
                "format": "text/plain"
            }
        }, 
        {
            "@id": "https://manifests.teklia.com/HIMANIS/JJ189/words_annotations/FRAN_0200_07989.json/50/line", 
            "@type": "oa:Annotation", 
            "motivation": "oa:painting", 
            "on": "http://bvmm.irht.cnrs.fr/iiif/23797/canvas/canvas-2345875#xywh=2913,2882,965,407", 
            "resource": {
                "@type": "cnt:ContentAsText", 
                "chars": "SES", 
                "format": "text/plain"
            }
        }, 
        {
            "@id": "https://manifests.teklia.com/HIMANIS/JJ189/words_annotations/FRAN_0200_07989.json/51/line", 
            "@type": "oa:Annotation", 
            "motivation": "oa:painting", 
            "on": "http://bvmm.irht.cnrs.fr/iiif/23797/canvas/canvas-2345875#xywh=1777,1199,2512,473", 
            "resource": {
                "@type": "cnt:ContentAsText", 
                "chars": "DEC", 
                "format": "text/plain"
            }
        }, 
        {
            "@id": "https://manifests.teklia.com/HIMANIS/JJ189/words_annotations/FRAN_0200_07989.json/52/line", 
            "@type": "oa:Annotation", 
            "motivation": "oa:painting", 
            "on": "http://bvmm.irht.cnrs.fr/iiif/23797/canvas/canvas-2345875#xywh=1777,1199,1921,473", 
            "resource": {
                "@type": "cnt:ContentAsText", 
                "chars": "DEN", 
                "format": "text/plain"
            }
        }, 
        {
            "@id": "https://manifests.teklia.com/HIMANIS/JJ189/words_annotations/FRAN_0200_07989.json/53/line", 
            "@type": "oa:Annotation", 
            "motivation": "oa:painting", 
            "on": "http://bvmm.irht.cnrs.fr/iiif/23797/canvas/canvas-2345875#xywh=1998,2882,305,407", 
            "resource": {
                "@type": "cnt:ContentAsText", 
                "chars": "PRESENT", 
                "format": "text/plain"
            }
        }, 
        {
            "@id": "https://manifests.teklia.com/HIMANIS/JJ189/words_annotations/FRAN_0200_07989.json/54/line", 
            "@type": "oa:Annotation", 
            "motivation": "oa:painting", 
            "on": "http://bvmm.irht.cnrs.fr/iiif/23797/canvas/canvas-2345875#xywh=416,3503,676,161", 
            "resource": {
                "@type": "cnt:ContentAsText", 
                "chars": "TUR", 
                "format": "text/plain"
            }
        }, 
        {
            "@id": "https://manifests.teklia.com/HIMANIS/JJ189/words_annotations/FRAN_0200_07989.json/55/line", 
            "@type": "oa:Annotation", 
            "motivation": "oa:painting", 
            "on": "http://bvmm.irht.cnrs.fr/iiif/23797/canvas/canvas-2345875#xywh=2930,1199,0,473", 
            "resource": {
                "@type": "cnt:ContentAsText", 
                "chars": "E", 
                "format": "text/plain"
            }
        }, 
        {
            "@id": "https://manifests.teklia.com/HIMANIS/JJ189/words_annotations/FRAN_0200_07989.json/56/line", 
            "@type": "oa:Annotation", 
            "motivation": "oa:painting", 
            "on": "http://bvmm.irht.cnrs.fr/iiif/23797/canvas/canvas-2345875#xywh=809,2638,630,402", 
            "resource": {
                "@type": "cnt:ContentAsText", 
                "chars": "PRESENTIUM", 
                "format": "text/plain"
            }
        }, 
        {
            "@id": "https://manifests.teklia.com/HIMANIS/JJ189/words_annotations/FRAN_0200_07989.json/57/line", 
            "@type": "oa:Annotation", 
            "motivation": "oa:painting", 
            "on": "http://bvmm.irht.cnrs.fr/iiif/23797/canvas/canvas-2345875#xywh=809,2638,1385,402", 
            "resource": {
                "@type": "cnt:ContentAsText", 
                "chars": "PRESENS", 
                "format": "text/plain"
            }
        }, 
        {
            "@id": "https://manifests.teklia.com/HIMANIS/JJ189/words_annotations/FRAN_0200_07989.json/58/line", 
            "@type": "oa:Annotation", 
            "motivation": "oa:painting", 
            "on": "http://bvmm.irht.cnrs.fr/iiif/23797/canvas/canvas-2345875#xywh=1313,2638,881,402", 
            "resource": {
                "@type": "cnt:ContentAsText", 
                "chars": "PRESENT", 
                "format": "text/plain"
            }
        }, 
        {
            "@id": "https://manifests.teklia.com/HIMANIS/JJ189/words_annotations/FRAN_0200_07989.json/59/line", 
            "@type": "oa:Annotation", 
            "motivation": "oa:painting", 
            "on": "http://bvmm.irht.cnrs.fr/iiif/23797/canvas/canvas-2345875#xywh=93,1199,0,473", 
            "resource": {
                "@type": "cnt:ContentAsText", 
                "chars": "J", 
                "format": "text/plain"
            }
        }, 
        {
            "@id": "https://manifests.teklia.com/HIMANIS/JJ189/words_annotations/FRAN_0200_07989.json/60/line", 
            "@type": "oa:Annotation", 
            "motivation": "oa:painting", 
            "on": "http://bvmm.irht.cnrs.fr/iiif/23797/canvas/canvas-2345875#xywh=74,3075,236,223", 
            "resource": {
                "@type": "cnt:ContentAsText", 
                "chars": "PHILIPPUS", 
                "format": "text/plain"
            }
        }, 
        {
            "@id": "https://manifests.teklia.com/HIMANIS/JJ189/words_annotations/FRAN_0200_07989.json/61/line", 
            "@type": "oa:Annotation", 
            "motivation": "oa:painting", 
            "on": "http://bvmm.irht.cnrs.fr/iiif/23797/canvas/canvas-2345875#xywh=1998,2882,813,407", 
            "resource": {
                "@type": "cnt:ContentAsText", 
                "chars": "FAITES", 
                "format": "text/plain"
            }
        }, 
        {
            "@id": "https://manifests.teklia.com/HIMANIS/JJ189/words_annotations/FRAN_0200_07989.json/62/line", 
            "@type": "oa:Annotation", 
            "motivation": "oa:painting", 
            "on": "http://bvmm.irht.cnrs.fr/iiif/23797/canvas/canvas-2345875#xywh=1397,2528,2228,353", 
            "resource": {
                "@type": "cnt:ContentAsText", 
                "chars": "NOUS", 
                "format": "text/plain"
            }
        }, 
        {
            "@id": "https://manifests.teklia.com/HIMANIS/JJ189/words_annotations/FRAN_0200_07989.json/63/line", 
            "@type": "oa:Annotation", 
            "motivation": "oa:painting", 
            "on": "http://bvmm.irht.cnrs.fr/iiif/23797/canvas/canvas-2345875#xywh=907,1737,2111,394", 
            "resource": {
                "@type": "cnt:ContentAsText", 
                "chars": "QUE", 
                "format": "text/plain"
            }
        }, 
        {
            "@id": "https://manifests.teklia.com/HIMANIS/JJ189/words_annotations/FRAN_0200_07989.json/64/line", 
            "@type": "oa:Annotation", 
            "motivation": "oa:painting", 
            "on": "http://bvmm.irht.cnrs.fr/iiif/23797/canvas/canvas-2345875#xywh=809,2638,806,402", 
            "resource": {
                "@type": "cnt:ContentAsText", 
                "chars": "PREMIS", 
                "format": "text/plain"
            }
        }, 
        {
            "@id": "https://manifests.teklia.com/HIMANIS/JJ189/words_annotations/FRAN_0200_07989.json/65/line", 
            "@type": "oa:Annotation", 
            "motivation": "oa:painting", 
            "on": "http://bvmm.irht.cnrs.fr/iiif/23797/canvas/canvas-2345875#xywh=907,1737,2111,394", 
            "resource": {
                "@type": "cnt:ContentAsText", 
                "chars": "QUI", 
                "format": "text/plain"
            }
        }, 
        {
            "@id": "https://manifests.teklia.com/HIMANIS/JJ189/words_annotations/FRAN_0200_07989.json/66/line", 
            "@type": "oa:Annotation", 
            "motivation": "oa:painting", 
            "on": "http://bvmm.irht.cnrs.fr/iiif/23797/canvas/canvas-2345875#xywh=1508,2528,1853,353", 
            "resource": {
                "@type": "cnt:ContentAsText", 
                "chars": "PRESENTES", 
                "format": "text/plain"
            }
        }, 
        {
            "@id": "https://manifests.teklia.com/HIMANIS/JJ189/words_annotations/FRAN_0200_07989.json/67/line", 
            "@type": "oa:Annotation", 
            "motivation": "oa:painting", 
            "on": "http://bvmm.irht.cnrs.fr/iiif/23797/canvas/canvas-2345875#xywh=2830,1799,1044,408", 
            "resource": {
                "@type": "cnt:ContentAsText", 
                "chars": "IPSIUS", 
                "format": "text/plain"
            }
        }, 
        {
            "@id": "https://manifests.teklia.com/HIMANIS/JJ189/words_annotations/FRAN_0200_07989.json/68/line", 
            "@type": "oa:Annotation", 
            "motivation": "oa:painting", 
            "on": "http://bvmm.irht.cnrs.fr/iiif/23797/canvas/canvas-2345875#xywh=911,2694,929,466", 
            "resource": {
                "@type": "cnt:ContentAsText", 
                "chars": "DIT", 
                "format": "text/plain"
            }
        }, 
        {
            "@id": "https://manifests.teklia.com/HIMANIS/JJ189/words_annotations/FRAN_0200_07989.json/69/line", 
            "@type": "oa:Annotation", 
            "motivation": "oa:painting", 
            "on": "http://bvmm.irht.cnrs.fr/iiif/23797/canvas/canvas-2345875#xywh=1171,3075,166,223", 
            "resource": {
                "@type": "cnt:ContentAsText", 
                "chars": "RENOUS", 
                "format": "text/plain"
            }
        }, 
        {
            "@id": "https://manifests.teklia.com/HIMANIS/JJ189/words_annotations/FRAN_0200_07989.json/70/line", 
            "@type": "oa:Annotation", 
            "motivation": "oa:painting", 
            "on": "http://bvmm.irht.cnrs.fr/iiif/23797/canvas/canvas-2345875#xywh=3034,1799,1069,408", 
            "resource": {
                "@type": "cnt:ContentAsText", 
                "chars": "NOUS", 
                "format": "text/plain"
            }
        }, 
        {
            "@id": "https://manifests.teklia.com/HIMANIS/JJ189/words_annotations/FRAN_0200_07989.json/71/line", 
            "@type": "oa:Annotation", 
            "motivation": "oa:painting", 
            "on": "http://bvmm.irht.cnrs.fr/iiif/23797/canvas/canvas-2345875#xywh=2057,1140,994,443", 
            "resource": {
                "@type": "cnt:ContentAsText", 
                "chars": "QUEL", 
                "format": "text/plain"
            }
        }, 
        {
            "@id": "https://manifests.teklia.com/HIMANIS/JJ189/words_annotations/FRAN_0200_07989.json/72/line", 
            "@type": "oa:Annotation", 
            "motivation": "oa:painting", 
            "on": "http://bvmm.irht.cnrs.fr/iiif/23797/canvas/canvas-2345875#xywh=782,3075,264,223", 
            "resource": {
                "@type": "cnt:ContentAsText", 
                "chars": "AUTRE", 
                "format": "text/plain"
            }
        }, 
        {
            "@id": "https://manifests.teklia.com/HIMANIS/JJ189/words_annotations/FRAN_0200_07989.json/73/line", 
            "@type": "oa:Annotation", 
            "motivation": "oa:painting", 
            "on": "http://bvmm.irht.cnrs.fr/iiif/23797/canvas/canvas-2345875#xywh=2354,2882,1194,407", 
            "resource": {
                "@type": "cnt:ContentAsText", 
                "chars": "NOUS", 
                "format": "text/plain"
            }
        }, 
        {
            "@id": "https://manifests.teklia.com/HIMANIS/JJ189/words_annotations/FRAN_0200_07989.json/74/line", 
            "@type": "oa:Annotation", 
            "motivation": "oa:painting", 
            "on": "http://bvmm.irht.cnrs.fr/iiif/23797/canvas/canvas-2345875#xywh=2354,2882,1981,407", 
            "resource": {
                "@type": "cnt:ContentAsText", 
                "chars": "NOSTRE", 
                "format": "text/plain"
            }
        }, 
        {
            "@id": "https://manifests.teklia.com/HIMANIS/JJ189/words_annotations/FRAN_0200_07989.json/75/line", 
            "@type": "oa:Annotation", 
            "motivation": "oa:painting", 
            "on": "http://bvmm.irht.cnrs.fr/iiif/23797/canvas/canvas-2345875#xywh=929,889,1001,459", 
            "resource": {
                "@type": "cnt:ContentAsText", 
                "chars": "DE", 
                "format": "text/plain"
            }
        }, 
        {
            "@id": "https://manifests.teklia.com/HIMANIS/JJ189/words_annotations/FRAN_0200_07989.json/76/line", 
            "@type": "oa:Annotation", 
            "motivation": "oa:painting", 
            "on": "http://bvmm.irht.cnrs.fr/iiif/23797/canvas/canvas-2345875#xywh=125,1140,1822,443", 
            "resource": {
                "@type": "cnt:ContentAsText", 
                "chars": "JEHAN", 
                "format": "text/plain"
            }
        }, 
        {
            "@id": "https://manifests.teklia.com/HIMANIS/JJ189/words_annotations/FRAN_0200_07989.json/77/line", 
            "@type": "oa:Annotation", 
            "motivation": "oa:painting", 
            "on": "http://bvmm.irht.cnrs.fr/iiif/23797/canvas/canvas-2345875#xywh=83,973,1996,506", 
            "resource": {
                "@type": "cnt:ContentAsText", 
                "chars": "DE", 
                "format": "text/plain"
            }
        }, 
        {
            "@id": "https://manifests.teklia.com/HIMANIS/JJ189/words_annotations/FRAN_0200_07989.json/78/line", 
            "@type": "oa:Annotation", 
            "motivation": "oa:painting", 
            "on": "http://bvmm.irht.cnrs.fr/iiif/23797/canvas/canvas-2345875#xywh=99,889,858,459", 
            "resource": {
                "@type": "cnt:ContentAsText", 
                "chars": "PHILIPPUS", 
                "format": "text/plain"
            }
        }, 
        {
            "@id": "https://manifests.teklia.com/HIMANIS/JJ189/words_annotations/FRAN_0200_07989.json/79/line", 
            "@type": "oa:Annotation", 
            "motivation": "oa:painting", 
            "on": "http://bvmm.irht.cnrs.fr/iiif/23797/canvas/canvas-2345875#xywh=99,889,830,459", 
            "resource": {
                "@type": "cnt:ContentAsText", 
                "chars": "PHILIPPES", 
                "format": "text/plain"
            }
        }, 
        {
            "@id": "https://manifests.teklia.com/HIMANIS/JJ189/words_annotations/FRAN_0200_07989.json/80/line", 
            "@type": "oa:Annotation", 
            "motivation": "oa:painting", 
            "on": "http://bvmm.irht.cnrs.fr/iiif/23797/canvas/canvas-2345875#xywh=929,889,1202,459", 
            "resource": {
                "@type": "cnt:ContentAsText", 
                "chars": "QUE", 
                "format": "text/plain"
            }
        }, 
        {
            "@id": "https://manifests.teklia.com/HIMANIS/JJ189/words_annotations/FRAN_0200_07989.json/81/line", 
            "@type": "oa:Annotation", 
            "motivation": "oa:painting", 
            "on": "http://bvmm.irht.cnrs.fr/iiif/23797/canvas/canvas-2345875#xywh=2057,1140,497,443", 
            "resource": {
                "@type": "cnt:ContentAsText", 
                "chars": "ALIER", 
                "format": "text/plain"
            }
        }, 
        {
            "@id": "https://manifests.teklia.com/HIMANIS/JJ189/words_annotations/FRAN_0200_07989.json/82/line", 
            "@type": "oa:Annotation", 
            "motivation": "oa:painting", 
            "on": "http://bvmm.irht.cnrs.fr/iiif/23797/canvas/canvas-2345875#xywh=929,889,1202,459", 
            "resource": {
                "@type": "cnt:ContentAsText", 
                "chars": "QUI", 
                "format": "text/plain"
            }
        }, 
        {
            "@id": "https://manifests.teklia.com/HIMANIS/JJ189/words_annotations/FRAN_0200_07989.json/83/line", 
            "@type": "oa:Annotation", 
            "motivation": "oa:painting", 
            "on": "http://bvmm.irht.cnrs.fr/iiif/23797/canvas/canvas-2345875#xywh=1998,2882,330,407", 
            "resource": {
                "@type": "cnt:ContentAsText", 
                "chars": "POUR", 
                "format": "text/plain"
            }
        }, 
        {
            "@id": "https://manifests.teklia.com/HIMANIS/JJ189/words_annotations/FRAN_0200_07989.json/84/line", 
            "@type": "oa:Annotation", 
            "motivation": "oa:painting", 
            "on": "http://bvmm.irht.cnrs.fr/iiif/23797/canvas/canvas-2345875#xywh=1236,2882,610,407", 
            "resource": {
                "@type": "cnt:ContentAsText", 
                "chars": "PHILIPPUS", 
                "format": "text/plain"
            }
        }, 
        {
            "@id": "https://manifests.teklia.com/HIMANIS/JJ189/words_annotations/FRAN_0200_07989.json/85/line", 
            "@type": "oa:Annotation", 
            "motivation": "oa:painting", 
            "on": "http://bvmm.irht.cnrs.fr/iiif/23797/canvas/canvas-2345875#xywh=1236,2882,610,407", 
            "resource": {
                "@type": "cnt:ContentAsText", 
                "chars": "PHILIPPES", 
                "format": "text/plain"
            }
        }, 
        {
            "@id": "https://manifests.teklia.com/HIMANIS/JJ189/words_annotations/FRAN_0200_07989.json/86/line", 
            "@type": "oa:Annotation", 
            "motivation": "oa:painting", 
            "on": "http://bvmm.irht.cnrs.fr/iiif/23797/canvas/canvas-2345875#xywh=907,1737,3314,394", 
            "resource": {
                "@type": "cnt:ContentAsText", 
                "chars": "LES", 
                "format": "text/plain"
            }
        }, 
        {
            "@id": "https://manifests.teklia.com/HIMANIS/JJ189/words_annotations/FRAN_0200_07989.json/87/line", 
            "@type": "oa:Annotation", 
            "motivation": "oa:painting", 
            "on": "http://bvmm.irht.cnrs.fr/iiif/23797/canvas/canvas-2345875#xywh=3034,1799,967,408", 
            "resource": {
                "@type": "cnt:ContentAsText", 
                "chars": "DITES", 
                "format": "text/plain"
            }
        }, 
        {
            "@id": "https://manifests.teklia.com/HIMANIS/JJ189/words_annotations/FRAN_0200_07989.json/88/line", 
            "@type": "oa:Annotation", 
            "motivation": "oa:painting", 
            "on": "http://bvmm.irht.cnrs.fr/iiif/23797/canvas/canvas-2345875#xywh=493,3636,389,259", 
            "resource": {
                "@type": "cnt:ContentAsText", 
                "chars": "ET", 
                "format": "text/plain"
            }
        }, 
        {
            "@id": "https://manifests.teklia.com/HIMANIS/JJ189/words_annotations/FRAN_0200_07989.json/89/line", 
            "@type": "oa:Annotation", 
            "motivation": "oa:painting", 
            "on": "http://bvmm.irht.cnrs.fr/iiif/23797/canvas/canvas-2345875#xywh=1481,1799,1120,408", 
            "resource": {
                "@type": "cnt:ContentAsText", 
                "chars": "IPSORUM", 
                "format": "text/plain"
            }
        }, 
        {
            "@id": "https://manifests.teklia.com/HIMANIS/JJ189/words_annotations/FRAN_0200_07989.json/90/line", 
            "@type": "oa:Annotation", 
            "motivation": "oa:painting", 
            "on": "http://bvmm.irht.cnrs.fr/iiif/23797/canvas/canvas-2345875#xywh=1590,2638,1864,402", 
            "resource": {
                "@type": "cnt:ContentAsText", 
                "chars": "PRESENTIBUS", 
                "format": "text/plain"
            }
        }, 
        {
            "@id": "https://manifests.teklia.com/HIMANIS/JJ189/words_annotations/FRAN_0200_07989.json/91/line", 
            "@type": "oa:Annotation", 
            "motivation": "oa:painting", 
            "on": "http://bvmm.irht.cnrs.fr/iiif/23797/canvas/canvas-2345875#xywh=1590,2638,2292,402", 
            "resource": {
                "@type": "cnt:ContentAsText", 
                "chars": "NOSTRUM", 
                "format": "text/plain"
            }
        }, 
        {
            "@id": "https://manifests.teklia.com/HIMANIS/JJ189/words_annotations/FRAN_0200_07989.json/92/line", 
            "@type": "oa:Annotation", 
            "motivation": "oa:painting", 
            "on": "http://bvmm.irht.cnrs.fr/iiif/23797/canvas/canvas-2345875#xywh=860,1488,493,344", 
            "resource": {
                "@type": "cnt:ContentAsText", 
                "chars": "AVANT", 
                "format": "text/plain"
            }
        }, 
        {
            "@id": "https://manifests.teklia.com/HIMANIS/JJ189/words_annotations/FRAN_0200_07989.json/93/line", 
            "@type": "oa:Annotation", 
            "motivation": "oa:painting", 
            "on": "http://bvmm.irht.cnrs.fr/iiif/23797/canvas/canvas-2345875#xywh=1397,2528,1236,353", 
            "resource": {
                "@type": "cnt:ContentAsText", 
                "chars": "NOSTRUM", 
                "format": "text/plain"
            }
        }, 
        {
            "@id": "https://manifests.teklia.com/HIMANIS/JJ189/words_annotations/FRAN_0200_07989.json/94/line", 
            "@type": "oa:Annotation", 
            "motivation": "oa:painting", 
            "on": "http://bvmm.irht.cnrs.fr/iiif/23797/canvas/canvas-2345875#xywh=2057,1140,470,443", 
            "resource": {
                "@type": "cnt:ContentAsText", 
                "chars": "SALVO", 
                "format": "text/plain"
            }
        }, 
        {
            "@id": "https://manifests.teklia.com/HIMANIS/JJ189/words_annotations/FRAN_0200_07989.json/95/line", 
            "@type": "oa:Annotation", 
            "motivation": "oa:painting", 
            "on": "http://bvmm.irht.cnrs.fr/iiif/23797/canvas/canvas-2345875#xywh=1397,2528,2140,353", 
            "resource": {
                "@type": "cnt:ContentAsText", 
                "chars": "NOSTRIS", 
                "format": "text/plain"
            }
        }, 
        {
            "@id": "https://manifests.teklia.com/HIMANIS/JJ189/words_annotations/FRAN_0200_07989.json/96/line", 
            "@type": "oa:Annotation", 
            "motivation": "oa:painting", 
            "on": "http://bvmm.irht.cnrs.fr/iiif/23797/canvas/canvas-2345875#xywh=929,889,1488,459", 
            "resource": {
                "@type": "cnt:ContentAsText", 
                "chars": "LES", 
                "format": "text/plain"
            }
        }, 
        {
            "@id": "https://manifests.teklia.com/HIMANIS/JJ189/words_annotations/FRAN_0200_07989.json/97/line", 
            "@type": "oa:Annotation", 
            "motivation": "oa:painting", 
            "on": "http://bvmm.irht.cnrs.fr/iiif/23797/canvas/canvas-2345875#xywh=2057,1140,2071,443", 
            "resource": {
                "@type": "cnt:ContentAsText", 
                "chars": "ALIERE", 
                "format": "text/plain"
            }
        }, 
        {
            "@id": "https://manifests.teklia.com/HIMANIS/JJ189/words_annotations/FRAN_0200_07989.json/98/line", 
            "@type": "oa:Annotation", 
            "motivation": "oa:painting", 
            "on": "http://bvmm.irht.cnrs.fr/iiif/23797/canvas/canvas-2345875#xywh=1998,2882,813,407", 
            "resource": {
                "@type": "cnt:ContentAsText", 
                "chars": "FRANCTUM", 
                "format": "text/plain"
            }
        }, 
        {
            "@id": "https://manifests.teklia.com/HIMANIS/JJ189/words_annotations/FRAN_0200_07989.json/99/line", 
            "@type": "oa:Annotation", 
            "motivation": "oa:painting", 
            "on": "http://bvmm.irht.cnrs.fr/iiif/23797/canvas/canvas-2345875#xywh=858,1737,147,394", 
            "resource": {
                "@type": "cnt:ContentAsText", 
                "chars": "HOSES", 
                "format": "text/plain"
            }
        }, 
        {
            "@id": "https://manifests.teklia.com/HIMANIS/JJ189/words_annotations/FRAN_0200_07989.json/100/line", 
            "@type": "oa:Annotation", 
            "motivation": "oa:painting", 
            "on": "http://bvmm.irht.cnrs.fr/iiif/23797/canvas/canvas-2345875#xywh=493,3636,2871,259", 
            "resource": {
                "@type": "cnt:ContentAsText", 
                "chars": "QUELLE", 
                "format": "text/plain"
            }
        }, 
        {
            "@id": "https://manifests.teklia.com/HIMANIS/JJ189/words_annotations/FRAN_0200_07989.json/101/line", 
            "@type": "oa:Annotation", 
            "motivation": "oa:painting", 
            "on": "http://bvmm.irht.cnrs.fr/iiif/23797/canvas/canvas-2345875#xywh=2913,2882,965,407", 
            "resource": {
                "@type": "cnt:ContentAsText", 
                "chars": "DIT", 
                "format": "text/plain"
            }
        }, 
        {
            "@id": "https://manifests.teklia.com/HIMANIS/JJ189/words_annotations/FRAN_0200_07989.json/102/line", 
            "@type": "oa:Annotation", 
            "motivation": "oa:painting", 
            "on": "http://bvmm.irht.cnrs.fr/iiif/23797/canvas/canvas-2345875#xywh=2913,2882,889,407", 
            "resource": {
                "@type": "cnt:ContentAsText", 
                "chars": "DES", 
                "format": "text/plain"
            }
        }, 
        {
            "@id": "https://manifests.teklia.com/HIMANIS/JJ189/words_annotations/FRAN_0200_07989.json/103/line", 
            "@type": "oa:Annotation", 
            "motivation": "oa:painting", 
            "on": "http://bvmm.irht.cnrs.fr/iiif/23797/canvas/canvas-2345875#xywh=99,2694,2524,466", 
            "resource": {
                "@type": "cnt:ContentAsText", 
                "chars": "DE", 
                "format": "text/plain"
            }
        }, 
        {
            "@id": "https://manifests.teklia.com/HIMANIS/JJ189/words_annotations/FRAN_0200_07989.json/104/line", 
            "@type": "oa:Annotation", 
            "motivation": "oa:painting", 
            "on": "http://bvmm.irht.cnrs.fr/iiif/23797/canvas/canvas-2345875#xywh=99,2694,2205,466", 
            "resource": {
                "@type": "cnt:ContentAsText", 
                "chars": "PHILIPPUS", 
                "format": "text/plain"
            }
        }, 
        {
            "@id": "https://manifests.teklia.com/HIMANIS/JJ189/words_annotations/FRAN_0200_07989.json/105/line", 
            "@type": "oa:Annotation", 
            "motivation": "oa:painting", 
            "on": "http://bvmm.irht.cnrs.fr/iiif/23797/canvas/canvas-2345875#xywh=99,2694,2147,466", 
            "resource": {
                "@type": "cnt:ContentAsText", 
                "chars": "PHILIPPES", 
                "format": "text/plain"
            }
        }, 
        {
            "@id": "https://manifests.teklia.com/HIMANIS/JJ189/words_annotations/FRAN_0200_07989.json/106/line", 
            "@type": "oa:Annotation", 
            "motivation": "oa:painting", 
            "on": "http://bvmm.irht.cnrs.fr/iiif/23797/canvas/canvas-2345875#xywh=125,1140,800,443", 
            "resource": {
                "@type": "cnt:ContentAsText", 
                "chars": "SINE", 
                "format": "text/plain"
            }
        }, 
        {
            "@id": "https://manifests.teklia.com/HIMANIS/JJ189/words_annotations/FRAN_0200_07989.json/107/line", 
            "@type": "oa:Annotation", 
            "motivation": "oa:painting", 
            "on": "http://bvmm.irht.cnrs.fr/iiif/23797/canvas/canvas-2345875#xywh=3543,160,68,83", 
            "resource": {
                "@type": "cnt:ContentAsText", 
                "chars": "LES", 
                "format": "text/plain"
            }
        }, 
        {
            "@id": "https://manifests.teklia.com/HIMANIS/JJ189/words_annotations/FRAN_0200_07989.json/108/line", 
            "@type": "oa:Annotation", 
            "motivation": "oa:painting", 
            "on": "http://bvmm.irht.cnrs.fr/iiif/23797/canvas/canvas-2345875#xywh=967,1488,515,344", 
            "resource": {
                "@type": "cnt:ContentAsText", 
                "chars": "PAR", 
                "format": "text/plain"
            }
        }, 
        {
            "@id": "https://manifests.teklia.com/HIMANIS/JJ189/words_annotations/FRAN_0200_07989.json/109/line", 
            "@type": "oa:Annotation", 
            "motivation": "oa:painting", 
            "on": "http://bvmm.irht.cnrs.fr/iiif/23797/canvas/canvas-2345875#xywh=2830,1799,789,408", 
            "resource": {
                "@type": "cnt:ContentAsText", 
                "chars": "FUTURIS", 
                "format": "text/plain"
            }
        }, 
        {
            "@id": "https://manifests.teklia.com/HIMANIS/JJ189/words_annotations/FRAN_0200_07989.json/110/line", 
            "@type": "oa:Annotation", 
            "motivation": "oa:painting", 
            "on": "http://bvmm.irht.cnrs.fr/iiif/23797/canvas/canvas-2345875#xywh=2148,3636,1281,259", 
            "resource": {
                "@type": "cnt:ContentAsText", 
                "chars": "ELLES", 
                "format": "text/plain"
            }
        }, 
        {
            "@id": "https://manifests.teklia.com/HIMANIS/JJ189/words_annotations/FRAN_0200_07989.json/111/line", 
            "@type": "oa:Annotation", 
            "motivation": "oa:painting", 
            "on": "http://bvmm.irht.cnrs.fr/iiif/23797/canvas/canvas-2345875#xywh=2913,2882,889,407", 
            "resource": {
                "@type": "cnt:ContentAsText", 
                "chars": "DE", 
                "format": "text/plain"
            }
        }, 
        {
            "@id": "https://manifests.teklia.com/HIMANIS/JJ189/words_annotations/FRAN_0200_07989.json/112/line", 
            "@type": "oa:Annotation", 
            "motivation": "oa:painting", 
            "on": "http://bvmm.irht.cnrs.fr/iiif/23797/canvas/canvas-2345875#xywh=2500,2528,1544,353", 
            "resource": {
                "@type": "cnt:ContentAsText", 
                "chars": "DE", 
                "format": "text/plain"
            }
        }, 
        {
            "@id": "https://manifests.teklia.com/HIMANIS/JJ189/words_annotations/FRAN_0200_07989.json/113/line", 
            "@type": "oa:Annotation", 
            "motivation": "oa:painting", 
            "on": "http://bvmm.irht.cnrs.fr/iiif/23797/canvas/canvas-2345875#xywh=4117,3923,162,54", 
            "resource": {
                "@type": "cnt:ContentAsText", 
                "chars": "PHIL", 
                "format": "text/plain"
            }
        }, 
        {
            "@id": "https://manifests.teklia.com/HIMANIS/JJ189/words_annotations/FRAN_0200_07989.json/114/line", 
            "@type": "oa:Annotation", 
            "motivation": "oa:painting", 
            "on": "http://bvmm.irht.cnrs.fr/iiif/23797/canvas/canvas-2345875#xywh=3076,2638,906,402", 
            "resource": {
                "@type": "cnt:ContentAsText", 
                "chars": "DE", 
                "format": "text/plain"
            }
        }, 
        {
            "@id": "https://manifests.teklia.com/HIMANIS/JJ189/words_annotations/FRAN_0200_07989.json/115/line", 
            "@type": "oa:Annotation", 
            "motivation": "oa:painting", 
            "on": "http://bvmm.irht.cnrs.fr/iiif/23797/canvas/canvas-2345875#xywh=2148,3636,1216,259", 
            "resource": {
                "@type": "cnt:ContentAsText", 
                "chars": "ELLE", 
                "format": "text/plain"
            }
        }, 
        {
            "@id": "https://manifests.teklia.com/HIMANIS/JJ189/words_annotations/FRAN_0200_07989.json/116/line", 
            "@type": "oa:Annotation", 
            "motivation": "oa:painting", 
            "on": "http://bvmm.irht.cnrs.fr/iiif/23797/canvas/canvas-2345875#xywh=929,889,1774,459", 
            "resource": {
                "@type": "cnt:ContentAsText", 
                "chars": "ET", 
                "format": "text/plain"
            }
        }, 
        {
            "@id": "https://manifests.teklia.com/HIMANIS/JJ189/words_annotations/FRAN_0200_07989.json/117/line", 
            "@type": "oa:Annotation", 
            "motivation": "oa:painting", 
            "on": "http://bvmm.irht.cnrs.fr/iiif/23797/canvas/canvas-2345875#xywh=967,1488,386,344", 
            "resource": {
                "@type": "cnt:ContentAsText", 
                "chars": "AVONS", 
                "format": "text/plain"
            }
        }, 
        {
            "@id": "https://manifests.teklia.com/HIMANIS/JJ189/words_annotations/FRAN_0200_07989.json/118/line", 
            "@type": "oa:Annotation", 
            "motivation": "oa:painting", 
            "on": "http://bvmm.irht.cnrs.fr/iiif/23797/canvas/canvas-2345875#xywh=2085,1737,0,394", 
            "resource": {
                "@type": "cnt:ContentAsText", 
                "chars": "I", 
                "format": "text/plain"
            }
        }, 
        {
            "@id": "https://manifests.teklia.com/HIMANIS/JJ189/words_annotations/FRAN_0200_07989.json/119/line", 
            "@type": "oa:Annotation", 
            "motivation": "oa:painting", 
            "on": "http://bvmm.irht.cnrs.fr/iiif/23797/canvas/canvas-2345875#xywh=907,1737,1964,394", 
            "resource": {
                "@type": "cnt:ContentAsText", 
                "chars": "POUR", 
                "format": "text/plain"
            }
        }, 
        {
            "@id": "https://manifests.teklia.com/HIMANIS/JJ189/words_annotations/FRAN_0200_07989.json/120/line", 
            "@type": "oa:Annotation", 
            "motivation": "oa:painting", 
            "on": "http://bvmm.irht.cnrs.fr/iiif/23797/canvas/canvas-2345875#xywh=2119,2638,906,402", 
            "resource": {
                "@type": "cnt:ContentAsText", 
                "chars": "LETTRE", 
                "format": "text/plain"
            }
        }, 
        {
            "@id": "https://manifests.teklia.com/HIMANIS/JJ189/words_annotations/FRAN_0200_07989.json/121/line", 
            "@type": "oa:Annotation", 
            "motivation": "oa:painting", 
            "on": "http://bvmm.irht.cnrs.fr/iiif/23797/canvas/canvas-2345875#xywh=2085,1737,0,394", 
            "resource": {
                "@type": "cnt:ContentAsText", 
                "chars": "S", 
                "format": "text/plain"
            }
        }, 
        {
            "@id": "https://manifests.teklia.com/HIMANIS/JJ189/words_annotations/FRAN_0200_07989.json/122/line", 
            "@type": "oa:Annotation", 
            "motivation": "oa:painting", 
            "on": "http://bvmm.irht.cnrs.fr/iiif/23797/canvas/canvas-2345875#xywh=2862,2882,0,407", 
            "resource": {
                "@type": "cnt:ContentAsText", 
                "chars": "A", 
                "format": "text/plain"
            }
        }, 
        {
            "@id": "https://manifests.teklia.com/HIMANIS/JJ189/words_annotations/FRAN_0200_07989.json/123/line", 
            "@type": "oa:Annotation", 
            "motivation": "oa:painting", 
            "on": "http://bvmm.irht.cnrs.fr/iiif/23797/canvas/canvas-2345875#xywh=1998,2882,0,407", 
            "resource": {
                "@type": "cnt:ContentAsText", 
                "chars": "UNE", 
                "format": "text/plain"
            }
        }, 
        {
            "@id": "https://manifests.teklia.com/HIMANIS/JJ189/words_annotations/FRAN_0200_07989.json/124/line", 
            "@type": "oa:Annotation", 
            "motivation": "oa:painting", 
            "on": "http://bvmm.irht.cnrs.fr/iiif/23797/canvas/canvas-2345875#xywh=2576,1799,1527,408", 
            "resource": {
                "@type": "cnt:ContentAsText", 
                "chars": "PRESENTIBUS", 
                "format": "text/plain"
            }
        }, 
        {
            "@id": "https://manifests.teklia.com/HIMANIS/JJ189/words_annotations/FRAN_0200_07989.json/125/line", 
            "@type": "oa:Annotation", 
            "motivation": "oa:painting", 
            "on": "http://bvmm.irht.cnrs.fr/iiif/23797/canvas/canvas-2345875#xywh=1871,2882,127,407", 
            "resource": {
                "@type": "cnt:ContentAsText", 
                "chars": "FACIMUS", 
                "format": "text/plain"
            }
        }, 
        {
            "@id": "https://manifests.teklia.com/HIMANIS/JJ189/words_annotations/FRAN_0200_07989.json/126/line", 
            "@type": "oa:Annotation", 
            "motivation": "oa:painting", 
            "on": "http://bvmm.irht.cnrs.fr/iiif/23797/canvas/canvas-2345875#xywh=3008,1799,1095,408", 
            "resource": {
                "@type": "cnt:ContentAsText", 
                "chars": "AUTRES", 
                "format": "text/plain"
            }
        }, 
        {
            "@id": "https://manifests.teklia.com/HIMANIS/JJ189/words_annotations/FRAN_0200_07989.json/127/line", 
            "@type": "oa:Annotation", 
            "motivation": "oa:painting", 
            "on": "http://bvmm.irht.cnrs.fr/iiif/23797/canvas/canvas-2345875#xywh=1508,2528,2095,353", 
            "resource": {
                "@type": "cnt:ContentAsText", 
                "chars": "NOSTRE", 
                "format": "text/plain"
            }
        }, 
        {
            "@id": "https://manifests.teklia.com/HIMANIS/JJ189/words_annotations/FRAN_0200_07989.json/128/line", 
            "@type": "oa:Annotation", 
            "motivation": "oa:painting", 
            "on": "http://bvmm.irht.cnrs.fr/iiif/23797/canvas/canvas-2345875#xywh=416,3503,686,161", 
            "resource": {
                "@type": "cnt:ContentAsText", 
                "chars": "TION", 
                "format": "text/plain"
            }
        }, 
        {
            "@id": "https://manifests.teklia.com/HIMANIS/JJ189/words_annotations/FRAN_0200_07989.json/129/line", 
            "@type": "oa:Annotation", 
            "motivation": "oa:painting", 
            "on": "http://bvmm.irht.cnrs.fr/iiif/23797/canvas/canvas-2345875#xywh=1397,2528,728,353", 
            "resource": {
                "@type": "cnt:ContentAsText", 
                "chars": "NOSTRI", 
                "format": "text/plain"
            }
        }, 
        {
            "@id": "https://manifests.teklia.com/HIMANIS/JJ189/words_annotations/FRAN_0200_07989.json/130/line", 
            "@type": "oa:Annotation", 
            "motivation": "oa:painting", 
            "on": "http://bvmm.irht.cnrs.fr/iiif/23797/canvas/canvas-2345875#xywh=890,2528,485,353", 
            "resource": {
                "@type": "cnt:ContentAsText", 
                "chars": "PHILIPPONI", 
                "format": "text/plain"
            }
        }, 
        {
            "@id": "https://manifests.teklia.com/HIMANIS/JJ189/words_annotations/FRAN_0200_07989.json/131/line", 
            "@type": "oa:Annotation", 
            "motivation": "oa:painting", 
            "on": "http://bvmm.irht.cnrs.fr/iiif/23797/canvas/canvas-2345875#xywh=3353,2638,982,402", 
            "resource": {
                "@type": "cnt:ContentAsText", 
                "chars": "DIT", 
                "format": "text/plain"
            }
        }, 
        {
            "@id": "https://manifests.teklia.com/HIMANIS/JJ189/words_annotations/FRAN_0200_07989.json/132/line", 
            "@type": "oa:Annotation", 
            "motivation": "oa:painting", 
            "on": "http://bvmm.irht.cnrs.fr/iiif/23797/canvas/canvas-2345875#xywh=907,1737,1620,394", 
            "resource": {
                "@type": "cnt:ContentAsText", 
                "chars": "SI", 
                "format": "text/plain"
            }
        }, 
        {
            "@id": "https://manifests.teklia.com/HIMANIS/JJ189/words_annotations/FRAN_0200_07989.json/133/line", 
            "@type": "oa:Annotation", 
            "motivation": "oa:painting", 
            "on": "http://bvmm.irht.cnrs.fr/iiif/23797/canvas/canvas-2345875#xywh=907,1737,2430,394", 
            "resource": {
                "@type": "cnt:ContentAsText", 
                "chars": "CE", 
                "format": "text/plain"
            }
        }, 
        {
            "@id": "https://manifests.teklia.com/HIMANIS/JJ189/words_annotations/FRAN_0200_07989.json/134/line", 
            "@type": "oa:Annotation", 
            "motivation": "oa:painting", 
            "on": "http://bvmm.irht.cnrs.fr/iiif/23797/canvas/canvas-2345875#xywh=1998,2882,356,407", 
            "resource": {
                "@type": "cnt:ContentAsText", 
                "chars": "PRESENTE", 
                "format": "text/plain"
            }
        }, 
        {
            "@id": "https://manifests.teklia.com/HIMANIS/JJ189/words_annotations/FRAN_0200_07989.json/135/line", 
            "@type": "oa:Annotation", 
            "motivation": "oa:painting", 
            "on": "http://bvmm.irht.cnrs.fr/iiif/23797/canvas/canvas-2345875#xywh=1871,2882,127,407", 
            "resource": {
                "@type": "cnt:ContentAsText", 
                "chars": "FECIMUS", 
                "format": "text/plain"
            }
        }, 
        {
            "@id": "https://manifests.teklia.com/HIMANIS/JJ189/words_annotations/FRAN_0200_07989.json/136/line", 
            "@type": "oa:Annotation", 
            "motivation": "oa:painting", 
            "on": "http://bvmm.irht.cnrs.fr/iiif/23797/canvas/canvas-2345875#xywh=1998,2882,356,407", 
            "resource": {
                "@type": "cnt:ContentAsText", 
                "chars": "PRESENTI", 
                "format": "text/plain"
            }
        }, 
        {
            "@id": "https://manifests.teklia.com/HIMANIS/JJ189/words_annotations/FRAN_0200_07989.json/137/line", 
            "@type": "oa:Annotation", 
            "motivation": "oa:painting", 
            "on": "http://bvmm.irht.cnrs.fr/iiif/23797/canvas/canvas-2345875#xywh=858,1737,393,394", 
            "resource": {
                "@type": "cnt:ContentAsText", 
                "chars": "PHILIPPUS", 
                "format": "text/plain"
            }
        }, 
        {
            "@id": "https://manifests.teklia.com/HIMANIS/JJ189/words_annotations/FRAN_0200_07989.json/138/line", 
            "@type": "oa:Annotation", 
            "motivation": "oa:painting", 
            "on": "http://bvmm.irht.cnrs.fr/iiif/23797/canvas/canvas-2345875#xywh=125,1140,0,443", 
            "resource": {
                "@type": "cnt:ContentAsText", 
                "chars": "J", 
                "format": "text/plain"
            }
        }, 
        {
            "@id": "https://manifests.teklia.com/HIMANIS/JJ189/words_annotations/FRAN_0200_07989.json/139/line", 
            "@type": "oa:Annotation", 
            "motivation": "oa:painting", 
            "on": "http://bvmm.irht.cnrs.fr/iiif/23797/canvas/canvas-2345875#xywh=226,1946,3946,521", 
            "resource": {
                "@type": "cnt:ContentAsText", 
                "chars": "LES", 
                "format": "text/plain"
            }
        }, 
        {
            "@id": "https://manifests.teklia.com/HIMANIS/JJ189/words_annotations/FRAN_0200_07989.json/140/line", 
            "@type": "oa:Annotation", 
            "motivation": "oa:painting", 
            "on": "http://bvmm.irht.cnrs.fr/iiif/23797/canvas/canvas-2345875#xywh=109,2403,0,467", 
            "resource": {
                "@type": "cnt:ContentAsText", 
                "chars": "J", 
                "format": "text/plain"
            }
        }, 
        {
            "@id": "https://manifests.teklia.com/HIMANIS/JJ189/words_annotations/FRAN_0200_07989.json/141/line", 
            "@type": "oa:Annotation", 
            "motivation": "oa:painting", 
            "on": "http://bvmm.irht.cnrs.fr/iiif/23797/canvas/canvas-2345875#xywh=1060,3075,97,223", 
            "resource": {
                "@type": "cnt:ContentAsText", 
                "chars": "NOSTRA", 
                "format": "text/plain"
            }
        }, 
        {
            "@id": "https://manifests.teklia.com/HIMANIS/JJ189/words_annotations/FRAN_0200_07989.json/142/line", 
            "@type": "oa:Annotation", 
            "motivation": "oa:painting", 
            "on": "http://bvmm.irht.cnrs.fr/iiif/23797/canvas/canvas-2345875#xywh=1060,3075,152,223", 
            "resource": {
                "@type": "cnt:ContentAsText", 
                "chars": "NOSTRE", 
                "format": "text/plain"
            }
        }, 
        {
            "@id": "https://manifests.teklia.com/HIMANIS/JJ189/words_annotations/FRAN_0200_07989.json/143/line", 
            "@type": "oa:Annotation", 
            "motivation": "oa:painting", 
            "on": "http://bvmm.irht.cnrs.fr/iiif/23797/canvas/canvas-2345875#xywh=658,80,0,124", 
            "resource": {
                "@type": "cnt:ContentAsText", 
                "chars": "P", 
                "format": "text/plain"
            }
        }, 
        {
            "@id": "https://manifests.teklia.com/HIMANIS/JJ189/words_annotations/FRAN_0200_07989.json/144/line", 
            "@type": "oa:Annotation", 
            "motivation": "oa:painting", 
            "on": "http://bvmm.irht.cnrs.fr/iiif/23797/canvas/canvas-2345875#xywh=105,1328,4230,444", 
            "resource": {
                "@type": "cnt:ContentAsText", 
                "chars": "PLUSEURS", 
                "format": "text/plain"
            }
        }, 
        {
            "@id": "https://manifests.teklia.com/HIMANIS/JJ189/words_annotations/FRAN_0200_07989.json/145/line", 
            "@type": "oa:Annotation", 
            "motivation": "oa:painting", 
            "on": "http://bvmm.irht.cnrs.fr/iiif/23797/canvas/canvas-2345875#xywh=1481,1799,891,408", 
            "resource": {
                "@type": "cnt:ContentAsText", 
                "chars": "JUSQUE", 
                "format": "text/plain"
            }
        }, 
        {
            "@id": "https://manifests.teklia.com/HIMANIS/JJ189/words_annotations/FRAN_0200_07989.json/146/line", 
            "@type": "oa:Annotation", 
            "motivation": "oa:painting", 
            "on": "http://bvmm.irht.cnrs.fr/iiif/23797/canvas/canvas-2345875#xywh=1481,1799,866,408", 
            "resource": {
                "@type": "cnt:ContentAsText", 
                "chars": "QUINQUE", 
                "format": "text/plain"
            }
        }, 
        {
            "@id": "https://manifests.teklia.com/HIMANIS/JJ189/words_annotations/FRAN_0200_07989.json/147/line", 
            "@type": "oa:Annotation", 
            "motivation": "oa:painting", 
            "on": "http://bvmm.irht.cnrs.fr/iiif/23797/canvas/canvas-2345875#xywh=907,1737,1620,394", 
            "resource": {
                "@type": "cnt:ContentAsText", 
                "chars": "QUINQUE", 
                "format": "text/plain"
            }
        }, 
        {
            "@id": "https://manifests.teklia.com/HIMANIS/JJ189/words_annotations/FRAN_0200_07989.json/148/line", 
            "@type": "oa:Annotation", 
            "motivation": "oa:painting", 
            "on": "http://bvmm.irht.cnrs.fr/iiif/23797/canvas/canvas-2345875#xywh=911,2694,1770,466", 
            "resource": {
                "@type": "cnt:ContentAsText", 
                "chars": "ET", 
                "format": "text/plain"
            }
        }, 
        {
            "@id": "https://manifests.teklia.com/HIMANIS/JJ189/words_annotations/FRAN_0200_07989.json/149/line", 
            "@type": "oa:Annotation", 
            "motivation": "oa:painting", 
            "on": "http://bvmm.irht.cnrs.fr/iiif/23797/canvas/canvas-2345875#xywh=907,1737,1620,394", 
            "resource": {
                "@type": "cnt:ContentAsText", 
                "chars": "QUINQUI", 
                "format": "text/plain"
            }
        }, 
        {
            "@id": "https://manifests.teklia.com/HIMANIS/JJ189/words_annotations/FRAN_0200_07989.json/150/line", 
            "@type": "oa:Annotation", 
            "motivation": "oa:painting", 
            "on": "http://bvmm.irht.cnrs.fr/iiif/23797/canvas/canvas-2345875#xywh=2057,1140,2099,443", 
            "resource": {
                "@type": "cnt:ContentAsText", 
                "chars": "MANIERE", 
                "format": "text/plain"
            }
        }, 
        {
            "@id": "https://manifests.teklia.com/HIMANIS/JJ189/words_annotations/FRAN_0200_07989.json/151/line", 
            "@type": "oa:Annotation", 
            "motivation": "oa:painting", 
            "on": "http://bvmm.irht.cnrs.fr/iiif/23797/canvas/canvas-2345875#xywh=1710,1799,1120,408", 
            "resource": {
                "@type": "cnt:ContentAsText", 
                "chars": "QUAM", 
                "format": "text/plain"
            }
        }, 
        {
            "@id": "https://manifests.teklia.com/HIMANIS/JJ189/words_annotations/FRAN_0200_07989.json/152/line", 
            "@type": "oa:Annotation", 
            "motivation": "oa:painting", 
            "on": "http://bvmm.irht.cnrs.fr/iiif/23797/canvas/canvas-2345875#xywh=929,889,1631,459", 
            "resource": {
                "@type": "cnt:ContentAsText", 
                "chars": "PRESENT", 
                "format": "text/plain"
            }
        }, 
        {
            "@id": "https://manifests.teklia.com/HIMANIS/JJ189/words_annotations/FRAN_0200_07989.json/153/line", 
            "@type": "oa:Annotation", 
            "motivation": "oa:painting", 
            "on": "http://bvmm.irht.cnrs.fr/iiif/23797/canvas/canvas-2345875#xywh=782,3075,208,223", 
            "resource": {
                "@type": "cnt:ContentAsText", 
                "chars": "PAR", 
                "format": "text/plain"
            }
        }, 
        {
            "@id": "https://manifests.teklia.com/HIMANIS/JJ189/words_annotations/FRAN_0200_07989.json/154/line", 
            "@type": "oa:Annotation", 
            "motivation": "oa:painting", 
            "on": "http://bvmm.irht.cnrs.fr/iiif/23797/canvas/canvas-2345875#xywh=2119,2638,1712,402", 
            "resource": {
                "@type": "cnt:ContentAsText", 
                "chars": "DESSUS", 
                "format": "text/plain"
            }
        }, 
        {
            "@id": "https://manifests.teklia.com/HIMANIS/JJ189/words_annotations/FRAN_0200_07989.json/155/line", 
            "@type": "oa:Annotation", 
            "motivation": "oa:painting", 
            "on": "http://bvmm.irht.cnrs.fr/iiif/23797/canvas/canvas-2345875#xywh=860,1488,64,344", 
            "resource": {
                "@type": "cnt:ContentAsText", 
                "chars": "PHILIPPUS", 
                "format": "text/plain"
            }
        }, 
        {
            "@id": "https://manifests.teklia.com/HIMANIS/JJ189/words_annotations/FRAN_0200_07989.json/156/line", 
            "@type": "oa:Annotation", 
            "motivation": "oa:painting", 
            "on": "http://bvmm.irht.cnrs.fr/iiif/23797/canvas/canvas-2345875#xywh=860,1488,107,344", 
            "resource": {
                "@type": "cnt:ContentAsText", 
                "chars": "PHILIPPES", 
                "format": "text/plain"
            }
        }, 
        {
            "@id": "https://manifests.teklia.com/HIMANIS/JJ189/words_annotations/FRAN_0200_07989.json/157/line", 
            "@type": "oa:Annotation", 
            "motivation": "oa:painting", 
            "on": "http://bvmm.irht.cnrs.fr/iiif/23797/canvas/canvas-2345875#xywh=3192,2882,152,407", 
            "resource": {
                "@type": "cnt:ContentAsText", 
                "chars": "AD", 
                "format": "text/plain"
            }
        }, 
        {
            "@id": "https://manifests.teklia.com/HIMANIS/JJ189/words_annotations/FRAN_0200_07989.json/158/line", 
            "@type": "oa:Annotation", 
            "motivation": "oa:painting", 
            "on": "http://bvmm.irht.cnrs.fr/iiif/23797/canvas/canvas-2345875#xywh=967,1488,386,344", 
            "resource": {
                "@type": "cnt:ContentAsText", 
                "chars": "ALIIS", 
                "format": "text/plain"
            }
        }, 
        {
            "@id": "https://manifests.teklia.com/HIMANIS/JJ189/words_annotations/FRAN_0200_07989.json/159/line", 
            "@type": "oa:Annotation", 
            "motivation": "oa:painting", 
            "on": "http://bvmm.irht.cnrs.fr/iiif/23797/canvas/canvas-2345875#xywh=929,889,1316,459", 
            "resource": {
                "@type": "cnt:ContentAsText", 
                "chars": "PAR", 
                "format": "text/plain"
            }
        }, 
        {
            "@id": "https://manifests.teklia.com/HIMANIS/JJ189/words_annotations/FRAN_0200_07989.json/160/line", 
            "@type": "oa:Annotation", 
            "motivation": "oa:painting", 
            "on": "http://bvmm.irht.cnrs.fr/iiif/23797/canvas/canvas-2345875#xywh=2913,2882,838,407", 
            "resource": {
                "@type": "cnt:ContentAsText", 
                "chars": "ET", 
                "format": "text/plain"
            }
        }, 
        {
            "@id": "https://manifests.teklia.com/HIMANIS/JJ189/words_annotations/FRAN_0200_07989.json/161/line", 
            "@type": "oa:Annotation", 
            "motivation": "oa:painting", 
            "on": "http://bvmm.irht.cnrs.fr/iiif/23797/canvas/canvas-2345875#xywh=2787,2528,287,353", 
            "resource": {
                "@type": "cnt:ContentAsText", 
                "chars": "ET", 
                "format": "text/plain"
            }
        }, 
        {
            "@id": "https://manifests.teklia.com/HIMANIS/JJ189/words_annotations/FRAN_0200_07989.json/162/line", 
            "@type": "oa:Annotation", 
            "motivation": "oa:painting", 
            "on": "http://bvmm.irht.cnrs.fr/iiif/23797/canvas/canvas-2345875#xywh=929,889,1001,459", 
            "resource": {
                "@type": "cnt:ContentAsText", 
                "chars": "DIT", 
                "format": "text/plain"
            }
        }, 
        {
            "@id": "https://manifests.teklia.com/HIMANIS/JJ189/words_annotations/FRAN_0200_07989.json/163/line", 
            "@type": "oa:Annotation", 
            "motivation": "oa:painting", 
            "on": "http://bvmm.irht.cnrs.fr/iiif/23797/canvas/canvas-2345875#xywh=2913,2882,965,407", 
            "resource": {
                "@type": "cnt:ContentAsText", 
                "chars": "DESSUS", 
                "format": "text/plain"
            }
        }, 
        {
            "@id": "https://manifests.teklia.com/HIMANIS/JJ189/words_annotations/FRAN_0200_07989.json/164/line", 
            "@type": "oa:Annotation", 
            "motivation": "oa:painting", 
            "on": "http://bvmm.irht.cnrs.fr/iiif/23797/canvas/canvas-2345875#xywh=3543,160,146,83", 
            "resource": {
                "@type": "cnt:ContentAsText", 
                "chars": "LETTR", 
                "format": "text/plain"
            }
        }, 
        {
            "@id": "https://manifests.teklia.com/HIMANIS/JJ189/words_annotations/FRAN_0200_07989.json/165/line", 
            "@type": "oa:Annotation", 
            "motivation": "oa:painting", 
            "on": "http://bvmm.irht.cnrs.fr/iiif/23797/canvas/canvas-2345875#xywh=1766,2638,0,402", 
            "resource": {
                "@type": "cnt:ContentAsText", 
                "chars": "IL", 
                "format": "text/plain"
            }
        }, 
        {
            "@id": "https://manifests.teklia.com/HIMANIS/JJ189/words_annotations/FRAN_0200_07989.json/166/line", 
            "@type": "oa:Annotation", 
            "motivation": "oa:painting", 
            "on": "http://bvmm.irht.cnrs.fr/iiif/23797/canvas/canvas-2345875#xywh=809,2638,25,402", 
            "resource": {
                "@type": "cnt:ContentAsText", 
                "chars": "EN", 
                "format": "text/plain"
            }
        }, 
        {
            "@id": "https://manifests.teklia.com/HIMANIS/JJ189/words_annotations/FRAN_0200_07989.json/167/line", 
            "@type": "oa:Annotation", 
            "motivation": "oa:painting", 
            "on": "http://bvmm.irht.cnrs.fr/iiif/23797/canvas/canvas-2345875#xywh=809,2638,731,402", 
            "resource": {
                "@type": "cnt:ContentAsText", 
                "chars": "PRISIUS", 
                "format": "text/plain"
            }
        }, 
        {
            "@id": "https://manifests.teklia.com/HIMANIS/JJ189/words_annotations/FRAN_0200_07989.json/168/line", 
            "@type": "oa:Annotation", 
            "motivation": "oa:painting", 
            "on": "http://bvmm.irht.cnrs.fr/iiif/23797/canvas/canvas-2345875#xywh=2119,2638,705,402", 
            "resource": {
                "@type": "cnt:ContentAsText", 
                "chars": "DITES", 
                "format": "text/plain"
            }
        }, 
        {
            "@id": "https://manifests.teklia.com/HIMANIS/JJ189/words_annotations/FRAN_0200_07989.json/169/line", 
            "@type": "oa:Annotation", 
            "motivation": "oa:painting", 
            "on": "http://bvmm.irht.cnrs.fr/iiif/23797/canvas/canvas-2345875#xywh=1226,3075,111,223", 
            "resource": {
                "@type": "cnt:ContentAsText", 
                "chars": "NOUS", 
                "format": "text/plain"
            }
        }, 
        {
            "@id": "https://manifests.teklia.com/HIMANIS/JJ189/words_annotations/FRAN_0200_07989.json/170/line", 
            "@type": "oa:Annotation", 
            "motivation": "oa:painting", 
            "on": "http://bvmm.irht.cnrs.fr/iiif/23797/canvas/canvas-2345875#xywh=1590,2638,1385,402", 
            "resource": {
                "@type": "cnt:ContentAsText", 
                "chars": "ET", 
                "format": "text/plain"
            }
        }, 
        {
            "@id": "https://manifests.teklia.com/HIMANIS/JJ189/words_annotations/FRAN_0200_07989.json/171/line", 
            "@type": "oa:Annotation", 
            "motivation": "oa:painting", 
            "on": "http://bvmm.irht.cnrs.fr/iiif/23797/canvas/canvas-2345875#xywh=2950,2638,906,402", 
            "resource": {
                "@type": "cnt:ContentAsText", 
                "chars": "AU", 
                "format": "text/plain"
            }
        }, 
        {
            "@id": "https://manifests.teklia.com/HIMANIS/JJ189/words_annotations/FRAN_0200_07989.json/172/line", 
            "@type": "oa:Annotation", 
            "motivation": "oa:painting", 
            "on": "http://bvmm.irht.cnrs.fr/iiif/23797/canvas/canvas-2345875#xywh=1508,2528,1323,353", 
            "resource": {
                "@type": "cnt:ContentAsText", 
                "chars": "QUAM", 
                "format": "text/plain"
            }
        }, 
        {
            "@id": "https://manifests.teklia.com/HIMANIS/JJ189/words_annotations/FRAN_0200_07989.json/173/line", 
            "@type": "oa:Annotation", 
            "motivation": "oa:painting", 
            "on": "http://bvmm.irht.cnrs.fr/iiif/23797/canvas/canvas-2345875#xywh=324,3075,375,223", 
            "resource": {
                "@type": "cnt:ContentAsText", 
                "chars": "IN", 
                "format": "text/plain"
            }
        }, 
        {
            "@id": "https://manifests.teklia.com/HIMANIS/JJ189/words_annotations/FRAN_0200_07989.json/174/line", 
            "@type": "oa:Annotation", 
            "motivation": "oa:painting", 
            "on": "http://bvmm.irht.cnrs.fr/iiif/23797/canvas/canvas-2345875#xywh=2830,1799,1273,408", 
            "resource": {
                "@type": "cnt:ContentAsText", 
                "chars": "PRESENTES", 
                "format": "text/plain"
            }
        }, 
        {
            "@id": "https://manifests.teklia.com/HIMANIS/JJ189/words_annotations/FRAN_0200_07989.json/175/line", 
            "@type": "oa:Annotation", 
            "motivation": "oa:painting", 
            "on": "http://bvmm.irht.cnrs.fr/iiif/23797/canvas/canvas-2345875#xywh=782,3075,153,223", 
            "resource": {
                "@type": "cnt:ContentAsText", 
                "chars": "ET", 
                "format": "text/plain"
            }
        }, 
        {
            "@id": "https://manifests.teklia.com/HIMANIS/JJ189/words_annotations/FRAN_0200_07989.json/176/line", 
            "@type": "oa:Annotation", 
            "motivation": "oa:painting", 
            "on": "http://bvmm.irht.cnrs.fr/iiif/23797/canvas/canvas-2345875#xywh=842,1140,801,443", 
            "resource": {
                "@type": "cnt:ContentAsText", 
                "chars": "DE", 
                "format": "text/plain"
            }
        }, 
        {
            "@id": "https://manifests.teklia.com/HIMANIS/JJ189/words_annotations/FRAN_0200_07989.json/177/line", 
            "@type": "oa:Annotation", 
            "motivation": "oa:painting", 
            "on": "http://bvmm.irht.cnrs.fr/iiif/23797/canvas/canvas-2345875#xywh=782,3075,264,223", 
            "resource": {
                "@type": "cnt:ContentAsText", 
                "chars": "PARTE", 
                "format": "text/plain"
            }
        }, 
        {
            "@id": "https://manifests.teklia.com/HIMANIS/JJ189/words_annotations/FRAN_0200_07989.json/178/line", 
            "@type": "oa:Annotation", 
            "motivation": "oa:painting", 
            "on": "http://bvmm.irht.cnrs.fr/iiif/23797/canvas/canvas-2345875#xywh=493,3636,2952,259", 
            "resource": {
                "@type": "cnt:ContentAsText", 
                "chars": "QUELLES", 
                "format": "text/plain"
            }
        }, 
        {
            "@id": "https://manifests.teklia.com/HIMANIS/JJ189/words_annotations/FRAN_0200_07989.json/179/line", 
            "@type": "oa:Annotation", 
            "motivation": "oa:painting", 
            "on": "http://bvmm.irht.cnrs.fr/iiif/23797/canvas/canvas-2345875#xywh=83,89,0,130", 
            "resource": {
                "@type": "cnt:ContentAsText", 
                "chars": "J", 
                "format": "text/plain"
            }
        }, 
        {
            "@id": "https://manifests.teklia.com/HIMANIS/JJ189/words_annotations/FRAN_0200_07989.json/180/line", 
            "@type": "oa:Annotation", 
            "motivation": "oa:painting", 
            "on": "http://bvmm.irht.cnrs.fr/iiif/23797/canvas/canvas-2345875#xywh=1998,2882,229,407", 
            "resource": {
                "@type": "cnt:ContentAsText", 
                "chars": "QUAM", 
                "format": "text/plain"
            }
        }, 
        {
            "@id": "https://manifests.teklia.com/HIMANIS/JJ189/words_annotations/FRAN_0200_07989.json/181/line", 
            "@type": "oa:Annotation", 
            "motivation": "oa:painting", 
            "on": "http://bvmm.irht.cnrs.fr/iiif/23797/canvas/canvas-2345875#xywh=83,89,0,130", 
            "resource": {
                "@type": "cnt:ContentAsText", 
                "chars": "P", 
                "format": "text/plain"
            }
        }, 
        {
            "@id": "https://manifests.teklia.com/HIMANIS/JJ189/words_annotations/FRAN_0200_07989.json/182/line", 
            "@type": "oa:Annotation", 
            "motivation": "oa:painting", 
            "on": "http://bvmm.irht.cnrs.fr/iiif/23797/canvas/canvas-2345875#xywh=493,3636,1492,259", 
            "resource": {
                "@type": "cnt:ContentAsText", 
                "chars": "CE", 
                "format": "text/plain"
            }
        }, 
        {
            "@id": "https://manifests.teklia.com/HIMANIS/JJ189/words_annotations/FRAN_0200_07989.json/183/line", 
            "@type": "oa:Annotation", 
            "motivation": "oa:painting", 
            "on": "http://bvmm.irht.cnrs.fr/iiif/23797/canvas/canvas-2345875#xywh=907,1737,3338,394", 
            "resource": {
                "@type": "cnt:ContentAsText", 
                "chars": "DE", 
                "format": "text/plain"
            }
        }, 
        {
            "@id": "https://manifests.teklia.com/HIMANIS/JJ189/words_annotations/FRAN_0200_07989.json/184/line", 
            "@type": "oa:Annotation", 
            "motivation": "oa:painting", 
            "on": "http://bvmm.irht.cnrs.fr/iiif/23797/canvas/canvas-2345875#xywh=1777,1199,30,473", 
            "resource": {
                "@type": "cnt:ContentAsText", 
                "chars": "DE", 
                "format": "text/plain"
            }
        }, 
        {
            "@id": "https://manifests.teklia.com/HIMANIS/JJ189/words_annotations/FRAN_0200_07989.json/185/line", 
            "@type": "oa:Annotation", 
            "motivation": "oa:painting", 
            "on": "http://bvmm.irht.cnrs.fr/iiif/23797/canvas/canvas-2345875#xywh=2497,2638,1334,402", 
            "resource": {
                "@type": "cnt:ContentAsText", 
                "chars": "AUS", 
                "format": "text/plain"
            }
        }, 
        {
            "@id": "https://manifests.teklia.com/HIMANIS/JJ189/words_annotations/FRAN_0200_07989.json/186/line", 
            "@type": "oa:Annotation", 
            "motivation": "oa:painting", 
            "on": "http://bvmm.irht.cnrs.fr/iiif/23797/canvas/canvas-2345875#xywh=1508,2528,1257,353", 
            "resource": {
                "@type": "cnt:ContentAsText", 
                "chars": "SUAM", 
                "format": "text/plain"
            }
        }, 
        {
            "@id": "https://manifests.teklia.com/HIMANIS/JJ189/words_annotations/FRAN_0200_07989.json/187/line", 
            "@type": "oa:Annotation", 
            "motivation": "oa:painting", 
            "on": "http://bvmm.irht.cnrs.fr/iiif/23797/canvas/canvas-2345875#xywh=1030,1737,343,394", 
            "resource": {
                "@type": "cnt:ContentAsText", 
                "chars": "HOIRS", 
                "format": "text/plain"
            }
        }, 
        {
            "@id": "https://manifests.teklia.com/HIMANIS/JJ189/words_annotations/FRAN_0200_07989.json/188/line", 
            "@type": "oa:Annotation", 
            "motivation": "oa:painting", 
            "on": "http://bvmm.irht.cnrs.fr/iiif/23797/canvas/canvas-2345875#xywh=105,1328,719,444", 
            "resource": {
                "@type": "cnt:ContentAsText", 
                "chars": "DE", 
                "format": "text/plain"
            }
        }, 
        {
            "@id": "https://manifests.teklia.com/HIMANIS/JJ189/words_annotations/FRAN_0200_07989.json/189/line", 
            "@type": "oa:Annotation", 
            "motivation": "oa:painting", 
            "on": "http://bvmm.irht.cnrs.fr/iiif/23797/canvas/canvas-2345875#xywh=74,271,0,541", 
            "resource": {
                "@type": "cnt:ContentAsText", 
                "chars": "J", 
                "format": "text/plain"
            }
        }
    ]
}