{
    "@context": "http://iiif.io/api/presentation/2/context.json", 
    "@id": "https://manifests.teklia.com/HIMANIS/JJ189/words_annotations/FRAN_0200_07726.json", 
    "@type": "sc:AnnotationList", 
    "resources": [
        {
            "@id": "https://manifests.teklia.com/HIMANIS/JJ189/words_annotations/FRAN_0200_07726.json/0/line", 
            "@type": "oa:Annotation", 
            "motivation": "oa:painting", 
            "on": "http://bvmm.irht.cnrs.fr/iiif/23797/canvas/canvas-2345612#xywh=1801,2118,2188,76", 
            "resource": {
                "@type": "cnt:ContentAsText", 
                "chars": "QUE", 
                "format": "text/plain"
            }
        }, 
        {
            "@id": "https://manifests.teklia.com/HIMANIS/JJ189/words_annotations/FRAN_0200_07726.json/1/line", 
            "@type": "oa:Annotation", 
            "motivation": "oa:painting", 
            "on": "http://bvmm.irht.cnrs.fr/iiif/23797/canvas/canvas-2345612#xywh=1801,2089,0,45", 
            "resource": {
                "@type": "cnt:ContentAsText", 
                "chars": "A", 
                "format": "text/plain"
            }
        }, 
        {
            "@id": "https://manifests.teklia.com/HIMANIS/JJ189/words_annotations/FRAN_0200_07726.json/2/line", 
            "@type": "oa:Annotation", 
            "motivation": "oa:painting", 
            "on": "http://bvmm.irht.cnrs.fr/iiif/23797/canvas/canvas-2345612#xywh=1801,2118,2236,76", 
            "resource": {
                "@type": "cnt:ContentAsText", 
                "chars": "QUOD", 
                "format": "text/plain"
            }
        }, 
        {
            "@id": "https://manifests.teklia.com/HIMANIS/JJ189/words_annotations/FRAN_0200_07726.json/3/line", 
            "@type": "oa:Annotation", 
            "motivation": "oa:painting", 
            "on": "http://bvmm.irht.cnrs.fr/iiif/23797/canvas/canvas-2345612#xywh=1618,4042,1638,88", 
            "resource": {
                "@type": "cnt:ContentAsText", 
                "chars": "ALTER", 
                "format": "text/plain"
            }
        }, 
        {
            "@id": "https://manifests.teklia.com/HIMANIS/JJ189/words_annotations/FRAN_0200_07726.json/4/line", 
            "@type": "oa:Annotation", 
            "motivation": "oa:painting", 
            "on": "http://bvmm.irht.cnrs.fr/iiif/23797/canvas/canvas-2345612#xywh=4211,2118,139,76", 
            "resource": {
                "@type": "cnt:ContentAsText", 
                "chars": "DE", 
                "format": "text/plain"
            }
        }, 
        {
            "@id": "https://manifests.teklia.com/HIMANIS/JJ189/words_annotations/FRAN_0200_07726.json/5/line", 
            "@type": "oa:Annotation", 
            "motivation": "oa:painting", 
            "on": "http://bvmm.irht.cnrs.fr/iiif/23797/canvas/canvas-2345612#xywh=3576,4130,231,25", 
            "resource": {
                "@type": "cnt:ContentAsText", 
                "chars": "DE", 
                "format": "text/plain"
            }
        }, 
        {
            "@id": "https://manifests.teklia.com/HIMANIS/JJ189/words_annotations/FRAN_0200_07726.json/6/line", 
            "@type": "oa:Annotation", 
            "motivation": "oa:painting", 
            "on": "http://bvmm.irht.cnrs.fr/iiif/23797/canvas/canvas-2345612#xywh=1801,2089,37,45", 
            "resource": {
                "@type": "cnt:ContentAsText", 
                "chars": "ET", 
                "format": "text/plain"
            }
        }, 
        {
            "@id": "https://manifests.teklia.com/HIMANIS/JJ189/words_annotations/FRAN_0200_07726.json/7/line", 
            "@type": "oa:Annotation", 
            "motivation": "oa:painting", 
            "on": "http://bvmm.irht.cnrs.fr/iiif/23797/canvas/canvas-2345612#xywh=3576,4130,402,25", 
            "resource": {
                "@type": "cnt:ContentAsText", 
                "chars": "DEDENTE", 
                "format": "text/plain"
            }
        }, 
        {
            "@id": "https://manifests.teklia.com/HIMANIS/JJ189/words_annotations/FRAN_0200_07726.json/8/line", 
            "@type": "oa:Annotation", 
            "motivation": "oa:painting", 
            "on": "http://bvmm.irht.cnrs.fr/iiif/23797/canvas/canvas-2345612#xywh=3576,4130,402,25", 
            "resource": {
                "@type": "cnt:ContentAsText", 
                "chars": "LE", 
                "format": "text/plain"
            }
        }, 
        {
            "@id": "https://manifests.teklia.com/HIMANIS/JJ189/words_annotations/FRAN_0200_07726.json/9/line", 
            "@type": "oa:Annotation", 
            "motivation": "oa:painting", 
            "on": "http://bvmm.irht.cnrs.fr/iiif/23797/canvas/canvas-2345612#xywh=1801,2089,161,45", 
            "resource": {
                "@type": "cnt:ContentAsText", 
                "chars": "QU", 
                "format": "text/plain"
            }
        }, 
        {
            "@id": "https://manifests.teklia.com/HIMANIS/JJ189/words_annotations/FRAN_0200_07726.json/10/line", 
            "@type": "oa:Annotation", 
            "motivation": "oa:painting", 
            "on": "http://bvmm.irht.cnrs.fr/iiif/23797/canvas/canvas-2345612#xywh=1801,2118,2381,76", 
            "resource": {
                "@type": "cnt:ContentAsText", 
                "chars": "AU", 
                "format": "text/plain"
            }
        }, 
        {
            "@id": "https://manifests.teklia.com/HIMANIS/JJ189/words_annotations/FRAN_0200_07726.json/11/line", 
            "@type": "oa:Annotation", 
            "motivation": "oa:painting", 
            "on": "http://bvmm.irht.cnrs.fr/iiif/23797/canvas/canvas-2345612#xywh=3576,4130,121,25", 
            "resource": {
                "@type": "cnt:ContentAsText", 
                "chars": "ET", 
                "format": "text/plain"
            }
        }, 
        {
            "@id": "https://manifests.teklia.com/HIMANIS/JJ189/words_annotations/FRAN_0200_07726.json/12/line", 
            "@type": "oa:Annotation", 
            "motivation": "oa:painting", 
            "on": "http://bvmm.irht.cnrs.fr/iiif/23797/canvas/canvas-2345612#xywh=3576,4130,402,25", 
            "resource": {
                "@type": "cnt:ContentAsText", 
                "chars": "DITE", 
                "format": "text/plain"
            }
        }
    ]
}