{
    "@context": "http://iiif.io/api/presentation/2/context.json", 
    "@id": "https://manifests.teklia.com/HIMANIS/JJ007/words_annotations/FRCHANJJ_JJ007_0008R.json", 
    "@type": "sc:AnnotationList", 
    "resources": [
        {
            "@id": "https://manifests.teklia.com/HIMANIS/JJ007/words_annotations/FRCHANJJ_JJ007_0008R.json/0/line", 
            "@type": "oa:Annotation", 
            "motivation": "oa:painting", 
            "on": "http://bvmm.irht.cnrs.fr/iiif/23599/canvas/canvas-2275330#xywh=488,0,1041,57", 
            "resource": {
                "@type": "cnt:ContentAsText", 
                "chars": "COURT", 
                "format": "text/plain"
            }
        }, 
        {
            "@id": "https://manifests.teklia.com/HIMANIS/JJ007/words_annotations/FRCHANJJ_JJ007_0008R.json/1/line", 
            "@type": "oa:Annotation", 
            "motivation": "oa:painting", 
            "on": "http://bvmm.irht.cnrs.fr/iiif/23599/canvas/canvas-2275330#xywh=1602,0,39,57", 
            "resource": {
                "@type": "cnt:ContentAsText", 
                "chars": "ET", 
                "format": "text/plain"
            }
        }
    ]
}