{
    "@context": "http://iiif.io/api/presentation/2/context.json", 
    "@id": "https://manifests.teklia.com/HIMANIS/JJ007/words_annotations/FRCHANJJ_JJ007_0064R.json", 
    "@type": "sc:AnnotationList", 
    "resources": [
        {
            "@id": "https://manifests.teklia.com/HIMANIS/JJ007/words_annotations/FRCHANJJ_JJ007_0064R.json/0/line", 
            "@type": "oa:Annotation", 
            "motivation": "oa:painting", 
            "on": "http://bvmm.irht.cnrs.fr/iiif/23599/canvas/canvas-2275442#xywh=19,3115,2461,299", 
            "resource": {
                "@type": "cnt:ContentAsText", 
                "chars": "NOSTRE", 
                "format": "text/plain"
            }
        }, 
        {
            "@id": "https://manifests.teklia.com/HIMANIS/JJ007/words_annotations/FRCHANJJ_JJ007_0064R.json/1/line", 
            "@type": "oa:Annotation", 
            "motivation": "oa:painting", 
            "on": "http://bvmm.irht.cnrs.fr/iiif/23599/canvas/canvas-2275442#xywh=0,0,1758,213", 
            "resource": {
                "@type": "cnt:ContentAsText", 
                "chars": "ET", 
                "format": "text/plain"
            }
        }, 
        {
            "@id": "https://manifests.teklia.com/HIMANIS/JJ007/words_annotations/FRCHANJJ_JJ007_0064R.json/2/line", 
            "@type": "oa:Annotation", 
            "motivation": "oa:painting", 
            "on": "http://bvmm.irht.cnrs.fr/iiif/23599/canvas/canvas-2275442#xywh=0,0,2491,213", 
            "resource": {
                "@type": "cnt:ContentAsText", 
                "chars": "PRESEN", 
                "format": "text/plain"
            }
        }, 
        {
            "@id": "https://manifests.teklia.com/HIMANIS/JJ007/words_annotations/FRCHANJJ_JJ007_0064R.json/3/line", 
            "@type": "oa:Annotation", 
            "motivation": "oa:painting", 
            "on": "http://bvmm.irht.cnrs.fr/iiif/23599/canvas/canvas-2275442#xywh=0,0,2384,213", 
            "resource": {
                "@type": "cnt:ContentAsText", 
                "chars": "CONTRA", 
                "format": "text/plain"
            }
        }, 
        {
            "@id": "https://manifests.teklia.com/HIMANIS/JJ007/words_annotations/FRCHANJJ_JJ007_0064R.json/4/line", 
            "@type": "oa:Annotation", 
            "motivation": "oa:painting", 
            "on": "http://bvmm.irht.cnrs.fr/iiif/23599/canvas/canvas-2275442#xywh=0,0,2344,213", 
            "resource": {
                "@type": "cnt:ContentAsText", 
                "chars": "NOSTRE", 
                "format": "text/plain"
            }
        }
    ]
}