{
    "@context": "http://iiif.io/api/presentation/2/context.json", 
    "@id": "https://manifests.teklia.com/HIMANIS/JJ086/words_annotations/FRCHANJJ_JJ086_0211V.json", 
    "@type": "sc:AnnotationList", 
    "resources": [
        {
            "@id": "https://manifests.teklia.com/HIMANIS/JJ086/words_annotations/FRCHANJJ_JJ086_0211V.json/0/line", 
            "@type": "oa:Annotation", 
            "motivation": "oa:painting", 
            "on": "http://bvmm.irht.cnrs.fr/iiif/23674/canvas/canvas-2296777#xywh=89,2992,192,98", 
            "resource": {
                "@type": "cnt:ContentAsText", 
                "chars": "SALVO", 
                "format": "text/plain"
            }
        }, 
        {
            "@id": "https://manifests.teklia.com/HIMANIS/JJ086/words_annotations/FRCHANJJ_JJ086_0211V.json/1/line", 
            "@type": "oa:Annotation", 
            "motivation": "oa:painting", 
            "on": "http://bvmm.irht.cnrs.fr/iiif/23674/canvas/canvas-2296777#xywh=3479,2251,73,44", 
            "resource": {
                "@type": "cnt:ContentAsText", 
                "chars": "SEEL", 
                "format": "text/plain"
            }
        }, 
        {
            "@id": "https://manifests.teklia.com/HIMANIS/JJ086/words_annotations/FRCHANJJ_JJ086_0211V.json/2/line", 
            "@type": "oa:Annotation", 
            "motivation": "oa:painting", 
            "on": "http://bvmm.irht.cnrs.fr/iiif/23674/canvas/canvas-2296777#xywh=3633,1758,54,37", 
            "resource": {
                "@type": "cnt:ContentAsText", 
                "chars": "FAMUS", 
                "format": "text/plain"
            }
        }, 
        {
            "@id": "https://manifests.teklia.com/HIMANIS/JJ086/words_annotations/FRCHANJJ_JJ086_0211V.json/3/line", 
            "@type": "oa:Annotation", 
            "motivation": "oa:painting", 
            "on": "http://bvmm.irht.cnrs.fr/iiif/23674/canvas/canvas-2296777#xywh=1876,2017,0,34", 
            "resource": {
                "@type": "cnt:ContentAsText", 
                "chars": "P", 
                "format": "text/plain"
            }
        }, 
        {
            "@id": "https://manifests.teklia.com/HIMANIS/JJ086/words_annotations/FRCHANJJ_JJ086_0211V.json/4/line", 
            "@type": "oa:Annotation", 
            "motivation": "oa:painting", 
            "on": "http://bvmm.irht.cnrs.fr/iiif/23674/canvas/canvas-2296777#xywh=2836,3050,155,68", 
            "resource": {
                "@type": "cnt:ContentAsText", 
                "chars": "SEIG", 
                "format": "text/plain"
            }
        }, 
        {
            "@id": "https://manifests.teklia.com/HIMANIS/JJ086/words_annotations/FRCHANJJ_JJ086_0211V.json/5/line", 
            "@type": "oa:Annotation", 
            "motivation": "oa:painting", 
            "on": "http://bvmm.irht.cnrs.fr/iiif/23674/canvas/canvas-2296777#xywh=0,0,927,113", 
            "resource": {
                "@type": "cnt:ContentAsText", 
                "chars": "TENEN", 
                "format": "text/plain"
            }
        }, 
        {
            "@id": "https://manifests.teklia.com/HIMANIS/JJ086/words_annotations/FRCHANJJ_JJ086_0211V.json/6/line", 
            "@type": "oa:Annotation", 
            "motivation": "oa:painting", 
            "on": "http://bvmm.irht.cnrs.fr/iiif/23674/canvas/canvas-2296777#xywh=892,3194,0,24", 
            "resource": {
                "@type": "cnt:ContentAsText", 
                "chars": "R", 
                "format": "text/plain"
            }
        }, 
        {
            "@id": "https://manifests.teklia.com/HIMANIS/JJ086/words_annotations/FRCHANJJ_JJ086_0211V.json/7/line", 
            "@type": "oa:Annotation", 
            "motivation": "oa:painting", 
            "on": "http://bvmm.irht.cnrs.fr/iiif/23674/canvas/canvas-2296777#xywh=892,3194,0,24", 
            "resource": {
                "@type": "cnt:ContentAsText", 
                "chars": "Y", 
                "format": "text/plain"
            }
        }, 
        {
            "@id": "https://manifests.teklia.com/HIMANIS/JJ086/words_annotations/FRCHANJJ_JJ086_0211V.json/8/line", 
            "@type": "oa:Annotation", 
            "motivation": "oa:painting", 
            "on": "http://bvmm.irht.cnrs.fr/iiif/23674/canvas/canvas-2296777#xywh=153,489,189,73", 
            "resource": {
                "@type": "cnt:ContentAsText", 
                "chars": "REMISSIO", 
                "format": "text/plain"
            }
        }, 
        {
            "@id": "https://manifests.teklia.com/HIMANIS/JJ086/words_annotations/FRCHANJJ_JJ086_0211V.json/9/line", 
            "@type": "oa:Annotation", 
            "motivation": "oa:painting", 
            "on": "http://bvmm.irht.cnrs.fr/iiif/23674/canvas/canvas-2296777#xywh=8,4753,767,122", 
            "resource": {
                "@type": "cnt:ContentAsText", 
                "chars": "DESS", 
                "format": "text/plain"
            }
        }, 
        {
            "@id": "https://manifests.teklia.com/HIMANIS/JJ086/words_annotations/FRCHANJJ_JJ086_0211V.json/10/line", 
            "@type": "oa:Annotation", 
            "motivation": "oa:painting", 
            "on": "http://bvmm.irht.cnrs.fr/iiif/23674/canvas/canvas-2296777#xywh=103,3218,140,39", 
            "resource": {
                "@type": "cnt:ContentAsText", 
                "chars": "DRE", 
                "format": "text/plain"
            }
        }, 
        {
            "@id": "https://manifests.teklia.com/HIMANIS/JJ086/words_annotations/FRCHANJJ_JJ086_0211V.json/11/line", 
            "@type": "oa:Annotation", 
            "motivation": "oa:painting", 
            "on": "http://bvmm.irht.cnrs.fr/iiif/23674/canvas/canvas-2296777#xywh=186,3257,41,22", 
            "resource": {
                "@type": "cnt:ContentAsText", 
                "chars": "LE", 
                "format": "text/plain"
            }
        }, 
        {
            "@id": "https://manifests.teklia.com/HIMANIS/JJ086/words_annotations/FRCHANJJ_JJ086_0211V.json/12/line", 
            "@type": "oa:Annotation", 
            "motivation": "oa:painting", 
            "on": "http://bvmm.irht.cnrs.fr/iiif/23674/canvas/canvas-2296777#xywh=8,4753,383,122", 
            "resource": {
                "@type": "cnt:ContentAsText", 
                "chars": "ESSE", 
                "format": "text/plain"
            }
        }, 
        {
            "@id": "https://manifests.teklia.com/HIMANIS/JJ086/words_annotations/FRCHANJJ_JJ086_0211V.json/13/line", 
            "@type": "oa:Annotation", 
            "motivation": "oa:painting", 
            "on": "http://bvmm.irht.cnrs.fr/iiif/23674/canvas/canvas-2296777#xywh=1535,2295,67,36", 
            "resource": {
                "@type": "cnt:ContentAsText", 
                "chars": "PHIL", 
                "format": "text/plain"
            }
        }, 
        {
            "@id": "https://manifests.teklia.com/HIMANIS/JJ086/words_annotations/FRCHANJJ_JJ086_0211V.json/14/line", 
            "@type": "oa:Annotation", 
            "motivation": "oa:painting", 
            "on": "http://bvmm.irht.cnrs.fr/iiif/23674/canvas/canvas-2296777#xywh=1535,2295,0,36", 
            "resource": {
                "@type": "cnt:ContentAsText", 
                "chars": "J", 
                "format": "text/plain"
            }
        }, 
        {
            "@id": "https://manifests.teklia.com/HIMANIS/JJ086/words_annotations/FRCHANJJ_JJ086_0211V.json/15/line", 
            "@type": "oa:Annotation", 
            "motivation": "oa:painting", 
            "on": "http://bvmm.irht.cnrs.fr/iiif/23674/canvas/canvas-2296777#xywh=763,2992,0,98", 
            "resource": {
                "@type": "cnt:ContentAsText", 
                "chars": "P", 
                "format": "text/plain"
            }
        }, 
        {
            "@id": "https://manifests.teklia.com/HIMANIS/JJ086/words_annotations/FRCHANJJ_JJ086_0211V.json/16/line", 
            "@type": "oa:Annotation", 
            "motivation": "oa:painting", 
            "on": "http://bvmm.irht.cnrs.fr/iiif/23674/canvas/canvas-2296777#xywh=286,572,0,48", 
            "resource": {
                "@type": "cnt:ContentAsText", 
                "chars": "M", 
                "format": "text/plain"
            }
        }, 
        {
            "@id": "https://manifests.teklia.com/HIMANIS/JJ086/words_annotations/FRCHANJJ_JJ086_0211V.json/17/line", 
            "@type": "oa:Annotation", 
            "motivation": "oa:painting", 
            "on": "http://bvmm.irht.cnrs.fr/iiif/23674/canvas/canvas-2296777#xywh=258,3218,0,39", 
            "resource": {
                "@type": "cnt:ContentAsText", 
                "chars": "A", 
                "format": "text/plain"
            }
        }, 
        {
            "@id": "https://manifests.teklia.com/HIMANIS/JJ086/words_annotations/FRCHANJJ_JJ086_0211V.json/18/line", 
            "@type": "oa:Annotation", 
            "motivation": "oa:painting", 
            "on": "http://bvmm.irht.cnrs.fr/iiif/23674/canvas/canvas-2296777#xywh=286,572,0,48", 
            "resource": {
                "@type": "cnt:ContentAsText", 
                "chars": "R", 
                "format": "text/plain"
            }
        }, 
        {
            "@id": "https://manifests.teklia.com/HIMANIS/JJ086/words_annotations/FRCHANJJ_JJ086_0211V.json/19/line", 
            "@type": "oa:Annotation", 
            "motivation": "oa:painting", 
            "on": "http://bvmm.irht.cnrs.fr/iiif/23674/canvas/canvas-2296777#xywh=103,3218,140,39", 
            "resource": {
                "@type": "cnt:ContentAsText", 
                "chars": "DE", 
                "format": "text/plain"
            }
        }, 
        {
            "@id": "https://manifests.teklia.com/HIMANIS/JJ086/words_annotations/FRCHANJJ_JJ086_0211V.json/20/line", 
            "@type": "oa:Annotation", 
            "motivation": "oa:painting", 
            "on": "http://bvmm.irht.cnrs.fr/iiif/23674/canvas/canvas-2296777#xywh=311,3134,54,48", 
            "resource": {
                "@type": "cnt:ContentAsText", 
                "chars": "CCC", 
                "format": "text/plain"
            }
        }, 
        {
            "@id": "https://manifests.teklia.com/HIMANIS/JJ086/words_annotations/FRCHANJJ_JJ086_0211V.json/21/line", 
            "@type": "oa:Annotation", 
            "motivation": "oa:painting", 
            "on": "http://bvmm.irht.cnrs.fr/iiif/23674/canvas/canvas-2296777#xywh=2503,1882,0,45", 
            "resource": {
                "@type": "cnt:ContentAsText", 
                "chars": "A", 
                "format": "text/plain"
            }
        }, 
        {
            "@id": "https://manifests.teklia.com/HIMANIS/JJ086/words_annotations/FRCHANJJ_JJ086_0211V.json/22/line", 
            "@type": "oa:Annotation", 
            "motivation": "oa:painting", 
            "on": "http://bvmm.irht.cnrs.fr/iiif/23674/canvas/canvas-2296777#xywh=418,3378,65,18", 
            "resource": {
                "@type": "cnt:ContentAsText", 
                "chars": "CCC", 
                "format": "text/plain"
            }
        }, 
        {
            "@id": "https://manifests.teklia.com/HIMANIS/JJ086/words_annotations/FRCHANJJ_JJ086_0211V.json/23/line", 
            "@type": "oa:Annotation", 
            "motivation": "oa:painting", 
            "on": "http://bvmm.irht.cnrs.fr/iiif/23674/canvas/canvas-2296777#xywh=2503,1882,332,45", 
            "resource": {
                "@type": "cnt:ContentAsText", 
                "chars": "LA", 
                "format": "text/plain"
            }
        }, 
        {
            "@id": "https://manifests.teklia.com/HIMANIS/JJ086/words_annotations/FRCHANJJ_JJ086_0211V.json/24/line", 
            "@type": "oa:Annotation", 
            "motivation": "oa:painting", 
            "on": "http://bvmm.irht.cnrs.fr/iiif/23674/canvas/canvas-2296777#xywh=2037,2214,0,17", 
            "resource": {
                "@type": "cnt:ContentAsText", 
                "chars": "P", 
                "format": "text/plain"
            }
        }, 
        {
            "@id": "https://manifests.teklia.com/HIMANIS/JJ086/words_annotations/FRCHANJJ_JJ086_0211V.json/25/line", 
            "@type": "oa:Annotation", 
            "motivation": "oa:painting", 
            "on": "http://bvmm.irht.cnrs.fr/iiif/23674/canvas/canvas-2296777#xywh=2054,0,134,54", 
            "resource": {
                "@type": "cnt:ContentAsText", 
                "chars": "LE", 
                "format": "text/plain"
            }
        }, 
        {
            "@id": "https://manifests.teklia.com/HIMANIS/JJ086/words_annotations/FRCHANJJ_JJ086_0211V.json/26/line", 
            "@type": "oa:Annotation", 
            "motivation": "oa:painting", 
            "on": "http://bvmm.irht.cnrs.fr/iiif/23674/canvas/canvas-2296777#xywh=2054,0,113,54", 
            "resource": {
                "@type": "cnt:ContentAsText", 
                "chars": "DE", 
                "format": "text/plain"
            }
        }, 
        {
            "@id": "https://manifests.teklia.com/HIMANIS/JJ086/words_annotations/FRCHANJJ_JJ086_0211V.json/27/line", 
            "@type": "oa:Annotation", 
            "motivation": "oa:painting", 
            "on": "http://bvmm.irht.cnrs.fr/iiif/23674/canvas/canvas-2296777#xywh=1405,2550,0,25", 
            "resource": {
                "@type": "cnt:ContentAsText", 
                "chars": "G", 
                "format": "text/plain"
            }
        }, 
        {
            "@id": "https://manifests.teklia.com/HIMANIS/JJ086/words_annotations/FRCHANJJ_JJ086_0211V.json/28/line", 
            "@type": "oa:Annotation", 
            "motivation": "oa:painting", 
            "on": "http://bvmm.irht.cnrs.fr/iiif/23674/canvas/canvas-2296777#xywh=2339,0,0,54", 
            "resource": {
                "@type": "cnt:ContentAsText", 
                "chars": "E", 
                "format": "text/plain"
            }
        }, 
        {
            "@id": "https://manifests.teklia.com/HIMANIS/JJ086/words_annotations/FRCHANJJ_JJ086_0211V.json/29/line", 
            "@type": "oa:Annotation", 
            "motivation": "oa:painting", 
            "on": "http://bvmm.irht.cnrs.fr/iiif/23674/canvas/canvas-2296777#xywh=2836,3050,155,68", 
            "resource": {
                "@type": "cnt:ContentAsText", 
                "chars": "ECCL", 
                "format": "text/plain"
            }
        }, 
        {
            "@id": "https://manifests.teklia.com/HIMANIS/JJ086/words_annotations/FRCHANJJ_JJ086_0211V.json/30/line", 
            "@type": "oa:Annotation", 
            "motivation": "oa:painting", 
            "on": "http://bvmm.irht.cnrs.fr/iiif/23674/canvas/canvas-2296777#xywh=578,1813,0,18", 
            "resource": {
                "@type": "cnt:ContentAsText", 
                "chars": "C", 
                "format": "text/plain"
            }
        }, 
        {
            "@id": "https://manifests.teklia.com/HIMANIS/JJ086/words_annotations/FRCHANJJ_JJ086_0211V.json/31/line", 
            "@type": "oa:Annotation", 
            "motivation": "oa:painting", 
            "on": "http://bvmm.irht.cnrs.fr/iiif/23674/canvas/canvas-2296777#xywh=578,1813,0,18", 
            "resource": {
                "@type": "cnt:ContentAsText", 
                "chars": "P", 
                "format": "text/plain"
            }
        }, 
        {
            "@id": "https://manifests.teklia.com/HIMANIS/JJ086/words_annotations/FRCHANJJ_JJ086_0211V.json/32/line", 
            "@type": "oa:Annotation", 
            "motivation": "oa:painting", 
            "on": "http://bvmm.irht.cnrs.fr/iiif/23674/canvas/canvas-2296777#xywh=0,384,211,105", 
            "resource": {
                "@type": "cnt:ContentAsText", 
                "chars": "DE", 
                "format": "text/plain"
            }
        }, 
        {
            "@id": "https://manifests.teklia.com/HIMANIS/JJ086/words_annotations/FRCHANJJ_JJ086_0211V.json/33/line", 
            "@type": "oa:Annotation", 
            "motivation": "oa:painting", 
            "on": "http://bvmm.irht.cnrs.fr/iiif/23674/canvas/canvas-2296777#xywh=1535,2295,56,36", 
            "resource": {
                "@type": "cnt:ContentAsText", 
                "chars": "PER", 
                "format": "text/plain"
            }
        }, 
        {
            "@id": "https://manifests.teklia.com/HIMANIS/JJ086/words_annotations/FRCHANJJ_JJ086_0211V.json/34/line", 
            "@type": "oa:Annotation", 
            "motivation": "oa:painting", 
            "on": "http://bvmm.irht.cnrs.fr/iiif/23674/canvas/canvas-2296777#xywh=290,3218,137,39", 
            "resource": {
                "@type": "cnt:ContentAsText", 
                "chars": "TIER", 
                "format": "text/plain"
            }
        }, 
        {
            "@id": "https://manifests.teklia.com/HIMANIS/JJ086/words_annotations/FRCHANJJ_JJ086_0211V.json/35/line", 
            "@type": "oa:Annotation", 
            "motivation": "oa:painting", 
            "on": "http://bvmm.irht.cnrs.fr/iiif/23674/canvas/canvas-2296777#xywh=1652,2670,0,25", 
            "resource": {
                "@type": "cnt:ContentAsText", 
                "chars": "P", 
                "format": "text/plain"
            }
        }, 
        {
            "@id": "https://manifests.teklia.com/HIMANIS/JJ086/words_annotations/FRCHANJJ_JJ086_0211V.json/36/line", 
            "@type": "oa:Annotation", 
            "motivation": "oa:painting", 
            "on": "http://bvmm.irht.cnrs.fr/iiif/23674/canvas/canvas-2296777#xywh=2576,1831,187,51", 
            "resource": {
                "@type": "cnt:ContentAsText", 
                "chars": "MANIER", 
                "format": "text/plain"
            }
        }, 
        {
            "@id": "https://manifests.teklia.com/HIMANIS/JJ086/words_annotations/FRCHANJJ_JJ086_0211V.json/37/line", 
            "@type": "oa:Annotation", 
            "motivation": "oa:painting", 
            "on": "http://bvmm.irht.cnrs.fr/iiif/23674/canvas/canvas-2296777#xywh=85,3194,0,36", 
            "resource": {
                "@type": "cnt:ContentAsText", 
                "chars": "J", 
                "format": "text/plain"
            }
        }, 
        {
            "@id": "https://manifests.teklia.com/HIMANIS/JJ086/words_annotations/FRCHANJJ_JJ086_0211V.json/38/line", 
            "@type": "oa:Annotation", 
            "motivation": "oa:painting", 
            "on": "http://bvmm.irht.cnrs.fr/iiif/23674/canvas/canvas-2296777#xywh=409,3194,0,36", 
            "resource": {
                "@type": "cnt:ContentAsText", 
                "chars": "L", 
                "format": "text/plain"
            }
        }, 
        {
            "@id": "https://manifests.teklia.com/HIMANIS/JJ086/words_annotations/FRCHANJJ_JJ086_0211V.json/39/line", 
            "@type": "oa:Annotation", 
            "motivation": "oa:painting", 
            "on": "http://bvmm.irht.cnrs.fr/iiif/23674/canvas/canvas-2296777#xywh=3633,1758,54,37", 
            "resource": {
                "@type": "cnt:ContentAsText", 
                "chars": "RAMUS", 
                "format": "text/plain"
            }
        }, 
        {
            "@id": "https://manifests.teklia.com/HIMANIS/JJ086/words_annotations/FRCHANJJ_JJ086_0211V.json/40/line", 
            "@type": "oa:Annotation", 
            "motivation": "oa:painting", 
            "on": "http://bvmm.irht.cnrs.fr/iiif/23674/canvas/canvas-2296777#xywh=3633,1758,54,37", 
            "resource": {
                "@type": "cnt:ContentAsText", 
                "chars": "BAMUS", 
                "format": "text/plain"
            }
        }, 
        {
            "@id": "https://manifests.teklia.com/HIMANIS/JJ086/words_annotations/FRCHANJJ_JJ086_0211V.json/41/line", 
            "@type": "oa:Annotation", 
            "motivation": "oa:painting", 
            "on": "http://bvmm.irht.cnrs.fr/iiif/23674/canvas/canvas-2296777#xywh=3453,3330,0,48", 
            "resource": {
                "@type": "cnt:ContentAsText", 
                "chars": "J", 
                "format": "text/plain"
            }
        }, 
        {
            "@id": "https://manifests.teklia.com/HIMANIS/JJ086/words_annotations/FRCHANJJ_JJ086_0211V.json/42/line", 
            "@type": "oa:Annotation", 
            "motivation": "oa:painting", 
            "on": "http://bvmm.irht.cnrs.fr/iiif/23674/canvas/canvas-2296777#xywh=3453,3330,0,48", 
            "resource": {
                "@type": "cnt:ContentAsText", 
                "chars": "P", 
                "format": "text/plain"
            }
        }, 
        {
            "@id": "https://manifests.teklia.com/HIMANIS/JJ086/words_annotations/FRCHANJJ_JJ086_0211V.json/43/line", 
            "@type": "oa:Annotation", 
            "motivation": "oa:painting", 
            "on": "http://bvmm.irht.cnrs.fr/iiif/23674/canvas/canvas-2296777#xywh=356,489,92,73", 
            "resource": {
                "@type": "cnt:ContentAsText", 
                "chars": "PRE", 
                "format": "text/plain"
            }
        }, 
        {
            "@id": "https://manifests.teklia.com/HIMANIS/JJ086/words_annotations/FRCHANJJ_JJ086_0211V.json/44/line", 
            "@type": "oa:Annotation", 
            "motivation": "oa:painting", 
            "on": "http://bvmm.irht.cnrs.fr/iiif/23674/canvas/canvas-2296777#xywh=290,3218,100,39", 
            "resource": {
                "@type": "cnt:ContentAsText", 
                "chars": "DICTI", 
                "format": "text/plain"
            }
        }, 
        {
            "@id": "https://manifests.teklia.com/HIMANIS/JJ086/words_annotations/FRCHANJJ_JJ086_0211V.json/45/line", 
            "@type": "oa:Annotation", 
            "motivation": "oa:painting", 
            "on": "http://bvmm.irht.cnrs.fr/iiif/23674/canvas/canvas-2296777#xywh=2198,0,175,54", 
            "resource": {
                "@type": "cnt:ContentAsText", 
                "chars": "ET", 
                "format": "text/plain"
            }
        }, 
        {
            "@id": "https://manifests.teklia.com/HIMANIS/JJ086/words_annotations/FRCHANJJ_JJ086_0211V.json/46/line", 
            "@type": "oa:Annotation", 
            "motivation": "oa:painting", 
            "on": "http://bvmm.irht.cnrs.fr/iiif/23674/canvas/canvas-2296777#xywh=2836,3050,155,68", 
            "resource": {
                "@type": "cnt:ContentAsText", 
                "chars": "SECU", 
                "format": "text/plain"
            }
        }, 
        {
            "@id": "https://manifests.teklia.com/HIMANIS/JJ086/words_annotations/FRCHANJJ_JJ086_0211V.json/47/line", 
            "@type": "oa:Annotation", 
            "motivation": "oa:painting", 
            "on": "http://bvmm.irht.cnrs.fr/iiif/23674/canvas/canvas-2296777#xywh=8,4753,337,122", 
            "resource": {
                "@type": "cnt:ContentAsText", 
                "chars": "LES", 
                "format": "text/plain"
            }
        }, 
        {
            "@id": "https://manifests.teklia.com/HIMANIS/JJ086/words_annotations/FRCHANJJ_JJ086_0211V.json/48/line", 
            "@type": "oa:Annotation", 
            "motivation": "oa:painting", 
            "on": "http://bvmm.irht.cnrs.fr/iiif/23674/canvas/canvas-2296777#xywh=3633,1758,54,37", 
            "resource": {
                "@type": "cnt:ContentAsText", 
                "chars": "RIMUS", 
                "format": "text/plain"
            }
        }, 
        {
            "@id": "https://manifests.teklia.com/HIMANIS/JJ086/words_annotations/FRCHANJJ_JJ086_0211V.json/49/line", 
            "@type": "oa:Annotation", 
            "motivation": "oa:painting", 
            "on": "http://bvmm.irht.cnrs.fr/iiif/23674/canvas/canvas-2296777#xywh=92,3134,194,48", 
            "resource": {
                "@type": "cnt:ContentAsText", 
                "chars": "DONACIO", 
                "format": "text/plain"
            }
        }, 
        {
            "@id": "https://manifests.teklia.com/HIMANIS/JJ086/words_annotations/FRCHANJJ_JJ086_0211V.json/50/line", 
            "@type": "oa:Annotation", 
            "motivation": "oa:painting", 
            "on": "http://bvmm.irht.cnrs.fr/iiif/23674/canvas/canvas-2296777#xywh=2590,3134,320,44", 
            "resource": {
                "@type": "cnt:ContentAsText", 
                "chars": "NOSTRE", 
                "format": "text/plain"
            }
        }, 
        {
            "@id": "https://manifests.teklia.com/HIMANIS/JJ086/words_annotations/FRCHANJJ_JJ086_0211V.json/51/line", 
            "@type": "oa:Annotation", 
            "motivation": "oa:painting", 
            "on": "http://bvmm.irht.cnrs.fr/iiif/23674/canvas/canvas-2296777#xywh=3385,2251,64,44", 
            "resource": {
                "@type": "cnt:ContentAsText", 
                "chars": "QUE", 
                "format": "text/plain"
            }
        }, 
        {
            "@id": "https://manifests.teklia.com/HIMANIS/JJ086/words_annotations/FRCHANJJ_JJ086_0211V.json/52/line", 
            "@type": "oa:Annotation", 
            "motivation": "oa:painting", 
            "on": "http://bvmm.irht.cnrs.fr/iiif/23674/canvas/canvas-2296777#xywh=3385,2251,64,44", 
            "resource": {
                "@type": "cnt:ContentAsText", 
                "chars": "QUI", 
                "format": "text/plain"
            }
        }, 
        {
            "@id": "https://manifests.teklia.com/HIMANIS/JJ086/words_annotations/FRCHANJJ_JJ086_0211V.json/53/line", 
            "@type": "oa:Annotation", 
            "motivation": "oa:painting", 
            "on": "http://bvmm.irht.cnrs.fr/iiif/23674/canvas/canvas-2296777#xywh=8,4753,706,122", 
            "resource": {
                "@type": "cnt:ContentAsText", 
                "chars": "SES", 
                "format": "text/plain"
            }
        }, 
        {
            "@id": "https://manifests.teklia.com/HIMANIS/JJ086/words_annotations/FRCHANJJ_JJ086_0211V.json/54/line", 
            "@type": "oa:Annotation", 
            "motivation": "oa:painting", 
            "on": "http://bvmm.irht.cnrs.fr/iiif/23674/canvas/canvas-2296777#xywh=0,384,237,105", 
            "resource": {
                "@type": "cnt:ContentAsText", 
                "chars": "DES", 
                "format": "text/plain"
            }
        }, 
        {
            "@id": "https://manifests.teklia.com/HIMANIS/JJ086/words_annotations/FRCHANJJ_JJ086_0211V.json/55/line", 
            "@type": "oa:Annotation", 
            "motivation": "oa:painting", 
            "on": "http://bvmm.irht.cnrs.fr/iiif/23674/canvas/canvas-2296777#xywh=2291,2017,0,34", 
            "resource": {
                "@type": "cnt:ContentAsText", 
                "chars": "G", 
                "format": "text/plain"
            }
        }, 
        {
            "@id": "https://manifests.teklia.com/HIMANIS/JJ086/words_annotations/FRCHANJJ_JJ086_0211V.json/56/line", 
            "@type": "oa:Annotation", 
            "motivation": "oa:painting", 
            "on": "http://bvmm.irht.cnrs.fr/iiif/23674/canvas/canvas-2296777#xywh=2291,2017,0,34", 
            "resource": {
                "@type": "cnt:ContentAsText", 
                "chars": "S", 
                "format": "text/plain"
            }
        }, 
        {
            "@id": "https://manifests.teklia.com/HIMANIS/JJ086/words_annotations/FRCHANJJ_JJ086_0211V.json/57/line", 
            "@type": "oa:Annotation", 
            "motivation": "oa:painting", 
            "on": "http://bvmm.irht.cnrs.fr/iiif/23674/canvas/canvas-2296777#xywh=0,0,927,113", 
            "resource": {
                "@type": "cnt:ContentAsText", 
                "chars": "CONTENEN", 
                "format": "text/plain"
            }
        }, 
        {
            "@id": "https://manifests.teklia.com/HIMANIS/JJ086/words_annotations/FRCHANJJ_JJ086_0211V.json/58/line", 
            "@type": "oa:Annotation", 
            "motivation": "oa:painting", 
            "on": "http://bvmm.irht.cnrs.fr/iiif/23674/canvas/canvas-2296777#xywh=1435,3134,0,40", 
            "resource": {
                "@type": "cnt:ContentAsText", 
                "chars": "P", 
                "format": "text/plain"
            }
        }, 
        {
            "@id": "https://manifests.teklia.com/HIMANIS/JJ086/words_annotations/FRCHANJJ_JJ086_0211V.json/59/line", 
            "@type": "oa:Annotation", 
            "motivation": "oa:painting", 
            "on": "http://bvmm.irht.cnrs.fr/iiif/23674/canvas/canvas-2296777#xywh=120,2992,606,98", 
            "resource": {
                "@type": "cnt:ContentAsText", 
                "chars": "CHARLES", 
                "format": "text/plain"
            }
        }, 
        {
            "@id": "https://manifests.teklia.com/HIMANIS/JJ086/words_annotations/FRCHANJJ_JJ086_0211V.json/60/line", 
            "@type": "oa:Annotation", 
            "motivation": "oa:painting", 
            "on": "http://bvmm.irht.cnrs.fr/iiif/23674/canvas/canvas-2296777#xywh=96,3279,0,42", 
            "resource": {
                "@type": "cnt:ContentAsText", 
                "chars": "G", 
                "format": "text/plain"
            }
        }, 
        {
            "@id": "https://manifests.teklia.com/HIMANIS/JJ086/words_annotations/FRCHANJJ_JJ086_0211V.json/61/line", 
            "@type": "oa:Annotation", 
            "motivation": "oa:painting", 
            "on": "http://bvmm.irht.cnrs.fr/iiif/23674/canvas/canvas-2296777#xywh=3450,1758,0,37", 
            "resource": {
                "@type": "cnt:ContentAsText", 
                "chars": "J", 
                "format": "text/plain"
            }
        }, 
        {
            "@id": "https://manifests.teklia.com/HIMANIS/JJ086/words_annotations/FRCHANJJ_JJ086_0211V.json/62/line", 
            "@type": "oa:Annotation", 
            "motivation": "oa:painting", 
            "on": "http://bvmm.irht.cnrs.fr/iiif/23674/canvas/canvas-2296777#xywh=96,3279,0,42", 
            "resource": {
                "@type": "cnt:ContentAsText", 
                "chars": "P", 
                "format": "text/plain"
            }
        }, 
        {
            "@id": "https://manifests.teklia.com/HIMANIS/JJ086/words_annotations/FRCHANJJ_JJ086_0211V.json/63/line", 
            "@type": "oa:Annotation", 
            "motivation": "oa:painting", 
            "on": "http://bvmm.irht.cnrs.fr/iiif/23674/canvas/canvas-2296777#xywh=3450,1758,0,37", 
            "resource": {
                "@type": "cnt:ContentAsText", 
                "chars": "P", 
                "format": "text/plain"
            }
        }, 
        {
            "@id": "https://manifests.teklia.com/HIMANIS/JJ086/words_annotations/FRCHANJJ_JJ086_0211V.json/64/line", 
            "@type": "oa:Annotation", 
            "motivation": "oa:painting", 
            "on": "http://bvmm.irht.cnrs.fr/iiif/23674/canvas/canvas-2296777#xywh=96,3279,0,42", 
            "resource": {
                "@type": "cnt:ContentAsText", 
                "chars": "S", 
                "format": "text/plain"
            }
        }, 
        {
            "@id": "https://manifests.teklia.com/HIMANIS/JJ086/words_annotations/FRCHANJJ_JJ086_0211V.json/65/line", 
            "@type": "oa:Annotation", 
            "motivation": "oa:painting", 
            "on": "http://bvmm.irht.cnrs.fr/iiif/23674/canvas/canvas-2296777#xywh=247,661,0,29", 
            "resource": {
                "@type": "cnt:ContentAsText", 
                "chars": "J", 
                "format": "text/plain"
            }
        }, 
        {
            "@id": "https://manifests.teklia.com/HIMANIS/JJ086/words_annotations/FRCHANJJ_JJ086_0211V.json/66/line", 
            "@type": "oa:Annotation", 
            "motivation": "oa:painting", 
            "on": "http://bvmm.irht.cnrs.fr/iiif/23674/canvas/canvas-2296777#xywh=247,661,0,29", 
            "resource": {
                "@type": "cnt:ContentAsText", 
                "chars": "P", 
                "format": "text/plain"
            }
        }, 
        {
            "@id": "https://manifests.teklia.com/HIMANIS/JJ086/words_annotations/FRCHANJJ_JJ086_0211V.json/67/line", 
            "@type": "oa:Annotation", 
            "motivation": "oa:painting", 
            "on": "http://bvmm.irht.cnrs.fr/iiif/23674/canvas/canvas-2296777#xywh=247,661,0,29", 
            "resource": {
                "@type": "cnt:ContentAsText", 
                "chars": "R", 
                "format": "text/plain"
            }
        }, 
        {
            "@id": "https://manifests.teklia.com/HIMANIS/JJ086/words_annotations/FRCHANJJ_JJ086_0211V.json/68/line", 
            "@type": "oa:Annotation", 
            "motivation": "oa:painting", 
            "on": "http://bvmm.irht.cnrs.fr/iiif/23674/canvas/canvas-2296777#xywh=247,661,0,29", 
            "resource": {
                "@type": "cnt:ContentAsText", 
                "chars": "S", 
                "format": "text/plain"
            }
        }, 
        {
            "@id": "https://manifests.teklia.com/HIMANIS/JJ086/words_annotations/FRCHANJJ_JJ086_0211V.json/69/line", 
            "@type": "oa:Annotation", 
            "motivation": "oa:painting", 
            "on": "http://bvmm.irht.cnrs.fr/iiif/23674/canvas/canvas-2296777#xywh=2576,1831,181,51", 
            "resource": {
                "@type": "cnt:ContentAsText", 
                "chars": "TAINE", 
                "format": "text/plain"
            }
        }, 
        {
            "@id": "https://manifests.teklia.com/HIMANIS/JJ086/words_annotations/FRCHANJJ_JJ086_0211V.json/70/line", 
            "@type": "oa:Annotation", 
            "motivation": "oa:painting", 
            "on": "http://bvmm.irht.cnrs.fr/iiif/23674/canvas/canvas-2296777#xywh=3619,1882,68,42", 
            "resource": {
                "@type": "cnt:ContentAsText", 
                "chars": "QUI", 
                "format": "text/plain"
            }
        }, 
        {
            "@id": "https://manifests.teklia.com/HIMANIS/JJ086/words_annotations/FRCHANJJ_JJ086_0211V.json/71/line", 
            "@type": "oa:Annotation", 
            "motivation": "oa:painting", 
            "on": "http://bvmm.irht.cnrs.fr/iiif/23674/canvas/canvas-2296777#xywh=528,3378,13,18", 
            "resource": {
                "@type": "cnt:ContentAsText", 
                "chars": "XL", 
                "format": "text/plain"
            }
        }, 
        {
            "@id": "https://manifests.teklia.com/HIMANIS/JJ086/words_annotations/FRCHANJJ_JJ086_0211V.json/72/line", 
            "@type": "oa:Annotation", 
            "motivation": "oa:painting", 
            "on": "http://bvmm.irht.cnrs.fr/iiif/23674/canvas/canvas-2296777#xywh=3425,3134,0,44", 
            "resource": {
                "@type": "cnt:ContentAsText", 
                "chars": "G", 
                "format": "text/plain"
            }
        }, 
        {
            "@id": "https://manifests.teklia.com/HIMANIS/JJ086/words_annotations/FRCHANJJ_JJ086_0211V.json/73/line", 
            "@type": "oa:Annotation", 
            "motivation": "oa:painting", 
            "on": "http://bvmm.irht.cnrs.fr/iiif/23674/canvas/canvas-2296777#xywh=3425,3134,0,44", 
            "resource": {
                "@type": "cnt:ContentAsText", 
                "chars": "P", 
                "format": "text/plain"
            }
        }, 
        {
            "@id": "https://manifests.teklia.com/HIMANIS/JJ086/words_annotations/FRCHANJJ_JJ086_0211V.json/74/line", 
            "@type": "oa:Annotation", 
            "motivation": "oa:painting", 
            "on": "http://bvmm.irht.cnrs.fr/iiif/23674/canvas/canvas-2296777#xywh=290,3218,145,39", 
            "resource": {
                "@type": "cnt:ContentAsText", 
                "chars": "LICE", 
                "format": "text/plain"
            }
        }, 
        {
            "@id": "https://manifests.teklia.com/HIMANIS/JJ086/words_annotations/FRCHANJJ_JJ086_0211V.json/75/line", 
            "@type": "oa:Annotation", 
            "motivation": "oa:painting", 
            "on": "http://bvmm.irht.cnrs.fr/iiif/23674/canvas/canvas-2296777#xywh=3461,2428,0,30", 
            "resource": {
                "@type": "cnt:ContentAsText", 
                "chars": "C", 
                "format": "text/plain"
            }
        }, 
        {
            "@id": "https://manifests.teklia.com/HIMANIS/JJ086/words_annotations/FRCHANJJ_JJ086_0211V.json/76/line", 
            "@type": "oa:Annotation", 
            "motivation": "oa:painting", 
            "on": "http://bvmm.irht.cnrs.fr/iiif/23674/canvas/canvas-2296777#xywh=3461,2428,0,30", 
            "resource": {
                "@type": "cnt:ContentAsText", 
                "chars": "O", 
                "format": "text/plain"
            }
        }, 
        {
            "@id": "https://manifests.teklia.com/HIMANIS/JJ086/words_annotations/FRCHANJJ_JJ086_0211V.json/77/line", 
            "@type": "oa:Annotation", 
            "motivation": "oa:painting", 
            "on": "http://bvmm.irht.cnrs.fr/iiif/23674/canvas/canvas-2296777#xywh=3461,2428,0,30", 
            "resource": {
                "@type": "cnt:ContentAsText", 
                "chars": "R", 
                "format": "text/plain"
            }
        }
    ]
}