{
    "@context": "http://iiif.io/api/presentation/2/context.json", 
    "@id": "https://manifests.teklia.com/HIMANIS/FR5318/words_annotations/http_gallica.bnf.fr_iiif_ark:_12148_btv1b9060505r_f11_full_full_0_native.jpg.json", 
    "@type": "sc:AnnotationList", 
    "resources": [
        {
            "@id": "https://manifests.teklia.com/HIMANIS/FR5318/words_annotations/http_gallica.bnf.fr_iiif_ark:_12148_btv1b9060505r_f11_full_full_0_native.jpg.json/0/line", 
            "@type": "oa:Annotation", 
            "motivation": "oa:painting", 
            "on": "http://gallica.bnf.fr/iiif/ark:/12148/btv1b9060505r/canvas/f11#xywh=3506,3869,117,44", 
            "resource": {
                "@type": "cnt:ContentAsText", 
                "chars": "DE", 
                "format": "text/plain"
            }
        }, 
        {
            "@id": "https://manifests.teklia.com/HIMANIS/FR5318/words_annotations/http_gallica.bnf.fr_iiif_ark:_12148_btv1b9060505r_f11_full_full_0_native.jpg.json/1/line", 
            "@type": "oa:Annotation", 
            "motivation": "oa:painting", 
            "on": "http://gallica.bnf.fr/iiif/ark:/12148/btv1b9060505r/canvas/f11#xywh=3506,3869,131,44", 
            "resource": {
                "@type": "cnt:ContentAsText", 
                "chars": "RE", 
                "format": "text/plain"
            }
        }, 
        {
            "@id": "https://manifests.teklia.com/HIMANIS/FR5318/words_annotations/http_gallica.bnf.fr_iiif_ark:_12148_btv1b9060505r_f11_full_full_0_native.jpg.json/2/line", 
            "@type": "oa:Annotation", 
            "motivation": "oa:painting", 
            "on": "http://gallica.bnf.fr/iiif/ark:/12148/btv1b9060505r/canvas/f11#xywh=3429,1652,0,72", 
            "resource": {
                "@type": "cnt:ContentAsText", 
                "chars": "J", 
                "format": "text/plain"
            }
        }, 
        {
            "@id": "https://manifests.teklia.com/HIMANIS/FR5318/words_annotations/http_gallica.bnf.fr_iiif_ark:_12148_btv1b9060505r_f11_full_full_0_native.jpg.json/3/line", 
            "@type": "oa:Annotation", 
            "motivation": "oa:painting", 
            "on": "http://gallica.bnf.fr/iiif/ark:/12148/btv1b9060505r/canvas/f11#xywh=97,275,571,191", 
            "resource": {
                "@type": "cnt:ContentAsText", 
                "chars": "SI", 
                "format": "text/plain"
            }
        }, 
        {
            "@id": "https://manifests.teklia.com/HIMANIS/FR5318/words_annotations/http_gallica.bnf.fr_iiif_ark:_12148_btv1b9060505r_f11_full_full_0_native.jpg.json/4/line", 
            "@type": "oa:Annotation", 
            "motivation": "oa:painting", 
            "on": "http://gallica.bnf.fr/iiif/ark:/12148/btv1b9060505r/canvas/f11#xywh=3429,1652,0,72", 
            "resource": {
                "@type": "cnt:ContentAsText", 
                "chars": "P", 
                "format": "text/plain"
            }
        }, 
        {
            "@id": "https://manifests.teklia.com/HIMANIS/FR5318/words_annotations/http_gallica.bnf.fr_iiif_ark:_12148_btv1b9060505r_f11_full_full_0_native.jpg.json/5/line", 
            "@type": "oa:Annotation", 
            "motivation": "oa:painting", 
            "on": "http://gallica.bnf.fr/iiif/ark:/12148/btv1b9060505r/canvas/f11#xywh=97,275,571,191", 
            "resource": {
                "@type": "cnt:ContentAsText", 
                "chars": "SO", 
                "format": "text/plain"
            }
        }, 
        {
            "@id": "https://manifests.teklia.com/HIMANIS/FR5318/words_annotations/http_gallica.bnf.fr_iiif_ark:_12148_btv1b9060505r_f11_full_full_0_native.jpg.json/6/line", 
            "@type": "oa:Annotation", 
            "motivation": "oa:painting", 
            "on": "http://gallica.bnf.fr/iiif/ark:/12148/btv1b9060505r/canvas/f11#xywh=97,275,167,191", 
            "resource": {
                "@type": "cnt:ContentAsText", 
                "chars": "SS", 
                "format": "text/plain"
            }
        }, 
        {
            "@id": "https://manifests.teklia.com/HIMANIS/FR5318/words_annotations/http_gallica.bnf.fr_iiif_ark:_12148_btv1b9060505r_f11_full_full_0_native.jpg.json/7/line", 
            "@type": "oa:Annotation", 
            "motivation": "oa:painting", 
            "on": "http://gallica.bnf.fr/iiif/ark:/12148/btv1b9060505r/canvas/f11#xywh=97,275,571,191", 
            "resource": {
                "@type": "cnt:ContentAsText", 
                "chars": "SU", 
                "format": "text/plain"
            }
        }, 
        {
            "@id": "https://manifests.teklia.com/HIMANIS/FR5318/words_annotations/http_gallica.bnf.fr_iiif_ark:_12148_btv1b9060505r_f11_full_full_0_native.jpg.json/8/line", 
            "@type": "oa:Annotation", 
            "motivation": "oa:painting", 
            "on": "http://gallica.bnf.fr/iiif/ark:/12148/btv1b9060505r/canvas/f11#xywh=3506,3869,123,44", 
            "resource": {
                "@type": "cnt:ContentAsText", 
                "chars": "ET", 
                "format": "text/plain"
            }
        }
    ]
}