{
    "@context": "http://iiif.io/api/presentation/2/context.json", 
    "@id": "https://manifests.teklia.com/HIMANIS/JJ076/words_annotations/FRCHANJJ_JJ076_0053V.json", 
    "@type": "sc:AnnotationList", 
    "resources": [
        {
            "@id": "https://manifests.teklia.com/HIMANIS/JJ076/words_annotations/FRCHANJJ_JJ076_0053V.json/0/line", 
            "@type": "oa:Annotation", 
            "motivation": "oa:painting", 
            "on": "http://bvmm.irht.cnrs.fr/iiif/23658/canvas/canvas-2288946#xywh=2390,4861,522,185", 
            "resource": {
                "@type": "cnt:ContentAsText", 
                "chars": "GRACES", 
                "format": "text/plain"
            }
        }, 
        {
            "@id": "https://manifests.teklia.com/HIMANIS/JJ076/words_annotations/FRCHANJJ_JJ076_0053V.json/1/line", 
            "@type": "oa:Annotation", 
            "motivation": "oa:painting", 
            "on": "http://bvmm.irht.cnrs.fr/iiif/23658/canvas/canvas-2288946#xywh=890,0,494,105", 
            "resource": {
                "@type": "cnt:ContentAsText", 
                "chars": "CONT", 
                "format": "text/plain"
            }
        }, 
        {
            "@id": "https://manifests.teklia.com/HIMANIS/JJ076/words_annotations/FRCHANJJ_JJ076_0053V.json/2/line", 
            "@type": "oa:Annotation", 
            "motivation": "oa:painting", 
            "on": "http://bvmm.irht.cnrs.fr/iiif/23658/canvas/canvas-2288946#xywh=12,4861,1415,185", 
            "resource": {
                "@type": "cnt:ContentAsText", 
                "chars": "TRES", 
                "format": "text/plain"
            }
        }, 
        {
            "@id": "https://manifests.teklia.com/HIMANIS/JJ076/words_annotations/FRCHANJJ_JJ076_0053V.json/3/line", 
            "@type": "oa:Annotation", 
            "motivation": "oa:painting", 
            "on": "http://bvmm.irht.cnrs.fr/iiif/23658/canvas/canvas-2288946#xywh=1786,4861,0,185", 
            "resource": {
                "@type": "cnt:ContentAsText", 
                "chars": "A", 
                "format": "text/plain"
            }
        }, 
        {
            "@id": "https://manifests.teklia.com/HIMANIS/JJ076/words_annotations/FRCHANJJ_JJ076_0053V.json/4/line", 
            "@type": "oa:Annotation", 
            "motivation": "oa:painting", 
            "on": "http://bvmm.irht.cnrs.fr/iiif/23658/canvas/canvas-2288946#xywh=12,4861,1310,185", 
            "resource": {
                "@type": "cnt:ContentAsText", 
                "chars": "TRE", 
                "format": "text/plain"
            }
        }, 
        {
            "@id": "https://manifests.teklia.com/HIMANIS/JJ076/words_annotations/FRCHANJJ_JJ076_0053V.json/5/line", 
            "@type": "oa:Annotation", 
            "motivation": "oa:painting", 
            "on": "http://bvmm.irht.cnrs.fr/iiif/23658/canvas/canvas-2288946#xywh=1705,4861,372,185", 
            "resource": {
                "@type": "cnt:ContentAsText", 
                "chars": "AR", 
                "format": "text/plain"
            }
        }, 
        {
            "@id": "https://manifests.teklia.com/HIMANIS/JJ076/words_annotations/FRCHANJJ_JJ076_0053V.json/6/line", 
            "@type": "oa:Annotation", 
            "motivation": "oa:painting", 
            "on": "http://bvmm.irht.cnrs.fr/iiif/23658/canvas/canvas-2288946#xywh=12,4861,1090,185", 
            "resource": {
                "@type": "cnt:ContentAsText", 
                "chars": "ET", 
                "format": "text/plain"
            }
        }, 
        {
            "@id": "https://manifests.teklia.com/HIMANIS/JJ076/words_annotations/FRCHANJJ_JJ076_0053V.json/7/line", 
            "@type": "oa:Annotation", 
            "motivation": "oa:painting", 
            "on": "http://bvmm.irht.cnrs.fr/iiif/23658/canvas/canvas-2288946#xywh=0,0,316,105", 
            "resource": {
                "@type": "cnt:ContentAsText", 
                "chars": "ET", 
                "format": "text/plain"
            }
        }, 
        {
            "@id": "https://manifests.teklia.com/HIMANIS/JJ076/words_annotations/FRCHANJJ_JJ076_0053V.json/8/line", 
            "@type": "oa:Annotation", 
            "motivation": "oa:painting", 
            "on": "http://bvmm.irht.cnrs.fr/iiif/23658/canvas/canvas-2288946#xywh=2912,4861,290,185", 
            "resource": {
                "@type": "cnt:ContentAsText", 
                "chars": "PAR", 
                "format": "text/plain"
            }
        }, 
        {
            "@id": "https://manifests.teklia.com/HIMANIS/JJ076/words_annotations/FRCHANJJ_JJ076_0053V.json/9/line", 
            "@type": "oa:Annotation", 
            "motivation": "oa:painting", 
            "on": "http://bvmm.irht.cnrs.fr/iiif/23658/canvas/canvas-2288946#xywh=3283,4861,580,185", 
            "resource": {
                "@type": "cnt:ContentAsText", 
                "chars": "GAR", 
                "format": "text/plain"
            }
        }, 
        {
            "@id": "https://manifests.teklia.com/HIMANIS/JJ076/words_annotations/FRCHANJJ_JJ076_0053V.json/10/line", 
            "@type": "oa:Annotation", 
            "motivation": "oa:painting", 
            "on": "http://bvmm.irht.cnrs.fr/iiif/23658/canvas/canvas-2288946#xywh=890,0,494,105", 
            "resource": {
                "@type": "cnt:ContentAsText", 
                "chars": "TENE", 
                "format": "text/plain"
            }
        }, 
        {
            "@id": "https://manifests.teklia.com/HIMANIS/JJ076/words_annotations/FRCHANJJ_JJ076_0053V.json/11/line", 
            "@type": "oa:Annotation", 
            "motivation": "oa:painting", 
            "on": "http://bvmm.irht.cnrs.fr/iiif/23658/canvas/canvas-2288946#xywh=1937,4861,430,185", 
            "resource": {
                "@type": "cnt:ContentAsText", 
                "chars": "GARE", 
                "format": "text/plain"
            }
        }, 
        {
            "@id": "https://manifests.teklia.com/HIMANIS/JJ076/words_annotations/FRCHANJJ_JJ076_0053V.json/12/line", 
            "@type": "oa:Annotation", 
            "motivation": "oa:painting", 
            "on": "http://bvmm.irht.cnrs.fr/iiif/23658/canvas/canvas-2288946#xywh=12,4861,1554,185", 
            "resource": {
                "@type": "cnt:ContentAsText", 
                "chars": "TERRE", 
                "format": "text/plain"
            }
        }, 
        {
            "@id": "https://manifests.teklia.com/HIMANIS/JJ076/words_annotations/FRCHANJJ_JJ076_0053V.json/13/line", 
            "@type": "oa:Annotation", 
            "motivation": "oa:painting", 
            "on": "http://bvmm.irht.cnrs.fr/iiif/23658/canvas/canvas-2288946#xywh=0,0,310,105", 
            "resource": {
                "@type": "cnt:ContentAsText", 
                "chars": "DE", 
                "format": "text/plain"
            }
        }
    ]
}