{
    "@context": "http://iiif.io/api/presentation/2/context.json", 
    "@id": "https://manifests.teklia.com/HIMANIS/LAT10932/words_annotations/http_gallica.bnf.fr_iiif_ark:_12148_btv1b90807673_f23_full_full_0_native.jpg.json", 
    "@type": "sc:AnnotationList", 
    "resources": [
        {
            "@id": "https://manifests.teklia.com/HIMANIS/LAT10932/words_annotations/http_gallica.bnf.fr_iiif_ark:_12148_btv1b90807673_f23_full_full_0_native.jpg.json/0/line", 
            "@type": "oa:Annotation", 
            "motivation": "oa:painting", 
            "on": "http://gallica.bnf.fr/iiif/ark:/12148/btv1b90807673/canvas/f23#xywh=1311,4333,955,98", 
            "resource": {
                "@type": "cnt:ContentAsText", 
                "chars": "DE", 
                "format": "text/plain"
            }
        }, 
        {
            "@id": "https://manifests.teklia.com/HIMANIS/LAT10932/words_annotations/http_gallica.bnf.fr_iiif_ark:_12148_btv1b90807673_f23_full_full_0_native.jpg.json/1/line", 
            "@type": "oa:Annotation", 
            "motivation": "oa:painting", 
            "on": "http://gallica.bnf.fr/iiif/ark:/12148/btv1b90807673/canvas/f23#xywh=1311,4333,961,98", 
            "resource": {
                "@type": "cnt:ContentAsText", 
                "chars": "CE", 
                "format": "text/plain"
            }
        }, 
        {
            "@id": "https://manifests.teklia.com/HIMANIS/LAT10932/words_annotations/http_gallica.bnf.fr_iiif_ark:_12148_btv1b90807673_f23_full_full_0_native.jpg.json/2/line", 
            "@type": "oa:Annotation", 
            "motivation": "oa:painting", 
            "on": "http://gallica.bnf.fr/iiif/ark:/12148/btv1b90807673/canvas/f23#xywh=3222,4318,79,47", 
            "resource": {
                "@type": "cnt:ContentAsText", 
                "chars": "LES", 
                "format": "text/plain"
            }
        }, 
        {
            "@id": "https://manifests.teklia.com/HIMANIS/LAT10932/words_annotations/http_gallica.bnf.fr_iiif_ark:_12148_btv1b90807673_f23_full_full_0_native.jpg.json/3/line", 
            "@type": "oa:Annotation", 
            "motivation": "oa:painting", 
            "on": "http://gallica.bnf.fr/iiif/ark:/12148/btv1b90807673/canvas/f23#xywh=1311,4333,727,98", 
            "resource": {
                "@type": "cnt:ContentAsText", 
                "chars": "EN", 
                "format": "text/plain"
            }
        }, 
        {
            "@id": "https://manifests.teklia.com/HIMANIS/LAT10932/words_annotations/http_gallica.bnf.fr_iiif_ark:_12148_btv1b90807673_f23_full_full_0_native.jpg.json/4/line", 
            "@type": "oa:Annotation", 
            "motivation": "oa:painting", 
            "on": "http://gallica.bnf.fr/iiif/ark:/12148/btv1b90807673/canvas/f23#xywh=1311,4333,419,98", 
            "resource": {
                "@type": "cnt:ContentAsText", 
                "chars": "ET", 
                "format": "text/plain"
            }
        }, 
        {
            "@id": "https://manifests.teklia.com/HIMANIS/LAT10932/words_annotations/http_gallica.bnf.fr_iiif_ark:_12148_btv1b90807673_f23_full_full_0_native.jpg.json/5/line", 
            "@type": "oa:Annotation", 
            "motivation": "oa:painting", 
            "on": "http://gallica.bnf.fr/iiif/ark:/12148/btv1b90807673/canvas/f23#xywh=583,4180,0,78", 
            "resource": {
                "@type": "cnt:ContentAsText", 
                "chars": "J", 
                "format": "text/plain"
            }
        }, 
        {
            "@id": "https://manifests.teklia.com/HIMANIS/LAT10932/words_annotations/http_gallica.bnf.fr_iiif_ark:_12148_btv1b90807673_f23_full_full_0_native.jpg.json/6/line", 
            "@type": "oa:Annotation", 
            "motivation": "oa:painting", 
            "on": "http://gallica.bnf.fr/iiif/ark:/12148/btv1b90807673/canvas/f23#xywh=583,4180,0,78", 
            "resource": {
                "@type": "cnt:ContentAsText", 
                "chars": "P", 
                "format": "text/plain"
            }
        }
    ]
}