{
    "@context": "http://iiif.io/api/presentation/2/context.json", 
    "@id": "https://manifests.teklia.com/HIMANIS/FR5909/words_annotations/http_gallica.bnf.fr_iiif_ark:_12148_btv1b9060762g_f335_full_full_0_native.jpg.json", 
    "@type": "sc:AnnotationList", 
    "resources": [
        {
            "@id": "https://manifests.teklia.com/HIMANIS/FR5909/words_annotations/http_gallica.bnf.fr_iiif_ark:_12148_btv1b9060762g_f335_full_full_0_native.jpg.json/0/line", 
            "@type": "oa:Annotation", 
            "motivation": "oa:painting", 
            "on": "http://gallica.bnf.fr/iiif/ark:/12148/btv1b9060762g/canvas/f335#xywh=2525,3770,189,178", 
            "resource": {
                "@type": "cnt:ContentAsText", 
                "chars": "VOUS", 
                "format": "text/plain"
            }
        }, 
        {
            "@id": "https://manifests.teklia.com/HIMANIS/FR5909/words_annotations/http_gallica.bnf.fr_iiif_ark:_12148_btv1b9060762g_f335_full_full_0_native.jpg.json/1/line", 
            "@type": "oa:Annotation", 
            "motivation": "oa:painting", 
            "on": "http://gallica.bnf.fr/iiif/ark:/12148/btv1b9060762g/canvas/f335#xywh=2473,3185,373,60", 
            "resource": {
                "@type": "cnt:ContentAsText", 
                "chars": "BOUR", 
                "format": "text/plain"
            }
        }, 
        {
            "@id": "https://manifests.teklia.com/HIMANIS/FR5909/words_annotations/http_gallica.bnf.fr_iiif_ark:_12148_btv1b9060762g_f335_full_full_0_native.jpg.json/2/line", 
            "@type": "oa:Annotation", 
            "motivation": "oa:painting", 
            "on": "http://gallica.bnf.fr/iiif/ark:/12148/btv1b9060762g/canvas/f335#xywh=3117,3540,192,122", 
            "resource": {
                "@type": "cnt:ContentAsText", 
                "chars": "TUNITA", 
                "format": "text/plain"
            }
        }, 
        {
            "@id": "https://manifests.teklia.com/HIMANIS/FR5909/words_annotations/http_gallica.bnf.fr_iiif_ark:_12148_btv1b9060762g_f335_full_full_0_native.jpg.json/3/line", 
            "@type": "oa:Annotation", 
            "motivation": "oa:painting", 
            "on": "http://gallica.bnf.fr/iiif/ark:/12148/btv1b9060762g/canvas/f335#xywh=3136,3448,213,109", 
            "resource": {
                "@type": "cnt:ContentAsText", 
                "chars": "PERTIBUS", 
                "format": "text/plain"
            }
        }, 
        {
            "@id": "https://manifests.teklia.com/HIMANIS/FR5909/words_annotations/http_gallica.bnf.fr_iiif_ark:_12148_btv1b9060762g_f335_full_full_0_native.jpg.json/4/line", 
            "@type": "oa:Annotation", 
            "motivation": "oa:painting", 
            "on": "http://gallica.bnf.fr/iiif/ark:/12148/btv1b9060762g/canvas/f335#xywh=2550,3540,261,122", 
            "resource": {
                "@type": "cnt:ContentAsText", 
                "chars": "CINAL", 
                "format": "text/plain"
            }
        }, 
        {
            "@id": "https://manifests.teklia.com/HIMANIS/FR5909/words_annotations/http_gallica.bnf.fr_iiif_ark:_12148_btv1b9060762g_f335_full_full_0_native.jpg.json/5/line", 
            "@type": "oa:Annotation", 
            "motivation": "oa:painting", 
            "on": "http://gallica.bnf.fr/iiif/ark:/12148/btv1b9060762g/canvas/f335#xywh=1537,3540,261,122", 
            "resource": {
                "@type": "cnt:ContentAsText", 
                "chars": "FUTURIS", 
                "format": "text/plain"
            }
        }, 
        {
            "@id": "https://manifests.teklia.com/HIMANIS/FR5909/words_annotations/http_gallica.bnf.fr_iiif_ark:_12148_btv1b9060762g_f335_full_full_0_native.jpg.json/6/line", 
            "@type": "oa:Annotation", 
            "motivation": "oa:painting", 
            "on": "http://gallica.bnf.fr/iiif/ark:/12148/btv1b9060762g/canvas/f335#xywh=2972,3630,266,151", 
            "resource": {
                "@type": "cnt:ContentAsText", 
                "chars": "PORTA", 
                "format": "text/plain"
            }
        }, 
        {
            "@id": "https://manifests.teklia.com/HIMANIS/FR5909/words_annotations/http_gallica.bnf.fr_iiif_ark:_12148_btv1b9060762g_f335_full_full_0_native.jpg.json/7/line", 
            "@type": "oa:Annotation", 
            "motivation": "oa:painting", 
            "on": "http://gallica.bnf.fr/iiif/ark:/12148/btv1b9060762g/canvas/f335#xywh=2976,3035,482,120", 
            "resource": {
                "@type": "cnt:ContentAsText", 
                "chars": "FU", 
                "format": "text/plain"
            }
        }, 
        {
            "@id": "https://manifests.teklia.com/HIMANIS/FR5909/words_annotations/http_gallica.bnf.fr_iiif_ark:_12148_btv1b9060762g_f335_full_full_0_native.jpg.json/8/line", 
            "@type": "oa:Annotation", 
            "motivation": "oa:painting", 
            "on": "http://gallica.bnf.fr/iiif/ark:/12148/btv1b9060762g/canvas/f335#xywh=1340,3035,1432,120", 
            "resource": {
                "@type": "cnt:ContentAsText", 
                "chars": "HIEPISSE", 
                "format": "text/plain"
            }
        }, 
        {
            "@id": "https://manifests.teklia.com/HIMANIS/FR5909/words_annotations/http_gallica.bnf.fr_iiif_ark:_12148_btv1b9060762g_f335_full_full_0_native.jpg.json/9/line", 
            "@type": "oa:Annotation", 
            "motivation": "oa:painting", 
            "on": "http://gallica.bnf.fr/iiif/ark:/12148/btv1b9060762g/canvas/f335#xywh=1731,3630,189,151", 
            "resource": {
                "@type": "cnt:ContentAsText", 
                "chars": "CARIS", 
                "format": "text/plain"
            }
        }, 
        {
            "@id": "https://manifests.teklia.com/HIMANIS/FR5909/words_annotations/http_gallica.bnf.fr_iiif_ark:_12148_btv1b9060762g_f335_full_full_0_native.jpg.json/10/line", 
            "@type": "oa:Annotation", 
            "motivation": "oa:painting", 
            "on": "http://gallica.bnf.fr/iiif/ark:/12148/btv1b9060762g/canvas/f335#xywh=2134,3448,288,109", 
            "resource": {
                "@type": "cnt:ContentAsText", 
                "chars": "COLIN", 
                "format": "text/plain"
            }
        }, 
        {
            "@id": "https://manifests.teklia.com/HIMANIS/FR5909/words_annotations/http_gallica.bnf.fr_iiif_ark:_12148_btv1b9060762g_f335_full_full_0_native.jpg.json/11/line", 
            "@type": "oa:Annotation", 
            "motivation": "oa:painting", 
            "on": "http://gallica.bnf.fr/iiif/ark:/12148/btv1b9060762g/canvas/f335#xywh=2128,3106,139,100", 
            "resource": {
                "@type": "cnt:ContentAsText", 
                "chars": "LIE", 
                "format": "text/plain"
            }
        }, 
        {
            "@id": "https://manifests.teklia.com/HIMANIS/FR5909/words_annotations/http_gallica.bnf.fr_iiif_ark:_12148_btv1b9060762g_f335_full_full_0_native.jpg.json/12/line", 
            "@type": "oa:Annotation", 
            "motivation": "oa:painting", 
            "on": "http://gallica.bnf.fr/iiif/ark:/12148/btv1b9060762g/canvas/f335#xywh=1340,3035,1439,120", 
            "resource": {
                "@type": "cnt:ContentAsText", 
                "chars": "PREMISSIE", 
                "format": "text/plain"
            }
        }, 
        {
            "@id": "https://manifests.teklia.com/HIMANIS/FR5909/words_annotations/http_gallica.bnf.fr_iiif_ark:_12148_btv1b9060762g_f335_full_full_0_native.jpg.json/13/line", 
            "@type": "oa:Annotation", 
            "motivation": "oa:painting", 
            "on": "http://gallica.bnf.fr/iiif/ark:/12148/btv1b9060762g/canvas/f335#xywh=2872,3540,61,122", 
            "resource": {
                "@type": "cnt:ContentAsText", 
                "chars": "QUI", 
                "format": "text/plain"
            }
        }, 
        {
            "@id": "https://manifests.teklia.com/HIMANIS/FR5909/words_annotations/http_gallica.bnf.fr_iiif_ark:_12148_btv1b9060762g_f335_full_full_0_native.jpg.json/14/line", 
            "@type": "oa:Annotation", 
            "motivation": "oa:painting", 
            "on": "http://gallica.bnf.fr/iiif/ark:/12148/btv1b9060762g/canvas/f335#xywh=1221,3448,865,109", 
            "resource": {
                "@type": "cnt:ContentAsText", 
                "chars": "KAROLUT", 
                "format": "text/plain"
            }
        }, 
        {
            "@id": "https://manifests.teklia.com/HIMANIS/FR5909/words_annotations/http_gallica.bnf.fr_iiif_ark:_12148_btv1b9060762g_f335_full_full_0_native.jpg.json/15/line", 
            "@type": "oa:Annotation", 
            "motivation": "oa:painting", 
            "on": "http://gallica.bnf.fr/iiif/ark:/12148/btv1b9060762g/canvas/f335#xywh=3309,3540,62,122", 
            "resource": {
                "@type": "cnt:ContentAsText", 
                "chars": "LE", 
                "format": "text/plain"
            }
        }, 
        {
            "@id": "https://manifests.teklia.com/HIMANIS/FR5909/words_annotations/http_gallica.bnf.fr_iiif_ark:_12148_btv1b9060762g_f335_full_full_0_native.jpg.json/16/line", 
            "@type": "oa:Annotation", 
            "motivation": "oa:painting", 
            "on": "http://gallica.bnf.fr/iiif/ark:/12148/btv1b9060762g/canvas/f335#xywh=2442,3540,54,122", 
            "resource": {
                "@type": "cnt:ContentAsText", 
                "chars": "DE", 
                "format": "text/plain"
            }
        }, 
        {
            "@id": "https://manifests.teklia.com/HIMANIS/FR5909/words_annotations/http_gallica.bnf.fr_iiif_ark:_12148_btv1b9060762g_f335_full_full_0_native.jpg.json/17/line", 
            "@type": "oa:Annotation", 
            "motivation": "oa:painting", 
            "on": "http://gallica.bnf.fr/iiif/ark:/12148/btv1b9060762g/canvas/f335#xywh=2512,3448,267,109", 
            "resource": {
                "@type": "cnt:ContentAsText", 
                "chars": "LAMUS", 
                "format": "text/plain"
            }
        }, 
        {
            "@id": "https://manifests.teklia.com/HIMANIS/FR5909/words_annotations/http_gallica.bnf.fr_iiif_ark:_12148_btv1b9060762g_f335_full_full_0_native.jpg.json/18/line", 
            "@type": "oa:Annotation", 
            "motivation": "oa:painting", 
            "on": "http://gallica.bnf.fr/iiif/ark:/12148/btv1b9060762g/canvas/f335#xywh=2834,3448,254,109", 
            "resource": {
                "@type": "cnt:ContentAsText", 
                "chars": "UNIVERSIS", 
                "format": "text/plain"
            }
        }, 
        {
            "@id": "https://manifests.teklia.com/HIMANIS/FR5909/words_annotations/http_gallica.bnf.fr_iiif_ark:_12148_btv1b9060762g_f335_full_full_0_native.jpg.json/19/line", 
            "@type": "oa:Annotation", 
            "motivation": "oa:painting", 
            "on": "http://gallica.bnf.fr/iiif/ark:/12148/btv1b9060762g/canvas/f335#xywh=2473,3185,0,60", 
            "resource": {
                "@type": "cnt:ContentAsText", 
                "chars": "J", 
                "format": "text/plain"
            }
        }, 
        {
            "@id": "https://manifests.teklia.com/HIMANIS/FR5909/words_annotations/http_gallica.bnf.fr_iiif_ark:_12148_btv1b9060762g_f335_full_full_0_native.jpg.json/20/line", 
            "@type": "oa:Annotation", 
            "motivation": "oa:painting", 
            "on": "http://gallica.bnf.fr/iiif/ark:/12148/btv1b9060762g/canvas/f335#xywh=3156,3106,303,100", 
            "resource": {
                "@type": "cnt:ContentAsText", 
                "chars": "ESTRA", 
                "format": "text/plain"
            }
        }, 
        {
            "@id": "https://manifests.teklia.com/HIMANIS/FR5909/words_annotations/http_gallica.bnf.fr_iiif_ark:_12148_btv1b9060762g_f335_full_full_0_native.jpg.json/21/line", 
            "@type": "oa:Annotation", 
            "motivation": "oa:painting", 
            "on": "http://gallica.bnf.fr/iiif/ark:/12148/btv1b9060762g/canvas/f335#xywh=2525,3770,133,178", 
            "resource": {
                "@type": "cnt:ContentAsText", 
                "chars": "NON", 
                "format": "text/plain"
            }
        }, 
        {
            "@id": "https://manifests.teklia.com/HIMANIS/FR5909/words_annotations/http_gallica.bnf.fr_iiif_ark:_12148_btv1b9060762g_f335_full_full_0_native.jpg.json/22/line", 
            "@type": "oa:Annotation", 
            "motivation": "oa:painting", 
            "on": "http://gallica.bnf.fr/iiif/ark:/12148/btv1b9060762g/canvas/f335#xywh=696,1528,86,63", 
            "resource": {
                "@type": "cnt:ContentAsText", 
                "chars": "PHIL", 
                "format": "text/plain"
            }
        }, 
        {
            "@id": "https://manifests.teklia.com/HIMANIS/FR5909/words_annotations/http_gallica.bnf.fr_iiif_ark:_12148_btv1b9060762g_f335_full_full_0_native.jpg.json/23/line", 
            "@type": "oa:Annotation", 
            "motivation": "oa:painting", 
            "on": "http://gallica.bnf.fr/iiif/ark:/12148/btv1b9060762g/canvas/f335#xywh=3117,3540,192,122", 
            "resource": {
                "@type": "cnt:ContentAsText", 
                "chars": "TANTA", 
                "format": "text/plain"
            }
        }, 
        {
            "@id": "https://manifests.teklia.com/HIMANIS/FR5909/words_annotations/http_gallica.bnf.fr_iiif_ark:_12148_btv1b9060762g_f335_full_full_0_native.jpg.json/24/line", 
            "@type": "oa:Annotation", 
            "motivation": "oa:painting", 
            "on": "http://gallica.bnf.fr/iiif/ark:/12148/btv1b9060762g/canvas/f335#xywh=3295,3630,265,151", 
            "resource": {
                "@type": "cnt:ContentAsText", 
                "chars": "SUPRA", 
                "format": "text/plain"
            }
        }, 
        {
            "@id": "https://manifests.teklia.com/HIMANIS/FR5909/words_annotations/http_gallica.bnf.fr_iiif_ark:_12148_btv1b9060762g_f335_full_full_0_native.jpg.json/25/line", 
            "@type": "oa:Annotation", 
            "motivation": "oa:painting", 
            "on": "http://gallica.bnf.fr/iiif/ark:/12148/btv1b9060762g/canvas/f335#xywh=627,1448,0,80", 
            "resource": {
                "@type": "cnt:ContentAsText", 
                "chars": "J", 
                "format": "text/plain"
            }
        }, 
        {
            "@id": "https://manifests.teklia.com/HIMANIS/FR5909/words_annotations/http_gallica.bnf.fr_iiif_ark:_12148_btv1b9060762g_f335_full_full_0_native.jpg.json/26/line", 
            "@type": "oa:Annotation", 
            "motivation": "oa:painting", 
            "on": "http://gallica.bnf.fr/iiif/ark:/12148/btv1b9060762g/canvas/f335#xywh=3117,3540,192,122", 
            "resource": {
                "@type": "cnt:ContentAsText", 
                "chars": "TANTO", 
                "format": "text/plain"
            }
        }, 
        {
            "@id": "https://manifests.teklia.com/HIMANIS/FR5909/words_annotations/http_gallica.bnf.fr_iiif_ark:_12148_btv1b9060762g_f335_full_full_0_native.jpg.json/27/line", 
            "@type": "oa:Annotation", 
            "motivation": "oa:painting", 
            "on": "http://gallica.bnf.fr/iiif/ark:/12148/btv1b9060762g/canvas/f335#xywh=2458,3230,24,126", 
            "resource": {
                "@type": "cnt:ContentAsText", 
                "chars": "CE", 
                "format": "text/plain"
            }
        }, 
        {
            "@id": "https://manifests.teklia.com/HIMANIS/FR5909/words_annotations/http_gallica.bnf.fr_iiif_ark:_12148_btv1b9060762g_f335_full_full_0_native.jpg.json/28/line", 
            "@type": "oa:Annotation", 
            "motivation": "oa:painting", 
            "on": "http://gallica.bnf.fr/iiif/ark:/12148/btv1b9060762g/canvas/f335#xywh=627,1448,0,80", 
            "resource": {
                "@type": "cnt:ContentAsText", 
                "chars": "P", 
                "format": "text/plain"
            }
        }, 
        {
            "@id": "https://manifests.teklia.com/HIMANIS/FR5909/words_annotations/http_gallica.bnf.fr_iiif_ark:_12148_btv1b9060762g_f335_full_full_0_native.jpg.json/29/line", 
            "@type": "oa:Annotation", 
            "motivation": "oa:painting", 
            "on": "http://gallica.bnf.fr/iiif/ark:/12148/btv1b9060762g/canvas/f335#xywh=2138,3630,190,151", 
            "resource": {
                "@type": "cnt:ContentAsText", 
                "chars": "NOSTRUM", 
                "format": "text/plain"
            }
        }, 
        {
            "@id": "https://manifests.teklia.com/HIMANIS/FR5909/words_annotations/http_gallica.bnf.fr_iiif_ark:_12148_btv1b9060762g_f335_full_full_0_native.jpg.json/30/line", 
            "@type": "oa:Annotation", 
            "motivation": "oa:painting", 
            "on": "http://gallica.bnf.fr/iiif/ark:/12148/btv1b9060762g/canvas/f335#xywh=3309,215,362,133", 
            "resource": {
                "@type": "cnt:ContentAsText", 
                "chars": "DE", 
                "format": "text/plain"
            }
        }, 
        {
            "@id": "https://manifests.teklia.com/HIMANIS/FR5909/words_annotations/http_gallica.bnf.fr_iiif_ark:_12148_btv1b9060762g_f335_full_full_0_native.jpg.json/31/line", 
            "@type": "oa:Annotation", 
            "motivation": "oa:painting", 
            "on": "http://gallica.bnf.fr/iiif/ark:/12148/btv1b9060762g/canvas/f335#xywh=2859,3770,446,178", 
            "resource": {
                "@type": "cnt:ContentAsText", 
                "chars": "MOBILIA", 
                "format": "text/plain"
            }
        }, 
        {
            "@id": "https://manifests.teklia.com/HIMANIS/FR5909/words_annotations/http_gallica.bnf.fr_iiif_ark:_12148_btv1b9060762g_f335_full_full_0_native.jpg.json/32/line", 
            "@type": "oa:Annotation", 
            "motivation": "oa:painting", 
            "on": "http://gallica.bnf.fr/iiif/ark:/12148/btv1b9060762g/canvas/f335#xywh=2138,3630,228,151", 
            "resource": {
                "@type": "cnt:ContentAsText", 
                "chars": "NOSTRIS", 
                "format": "text/plain"
            }
        }, 
        {
            "@id": "https://manifests.teklia.com/HIMANIS/FR5909/words_annotations/http_gallica.bnf.fr_iiif_ark:_12148_btv1b9060762g_f335_full_full_0_native.jpg.json/33/line", 
            "@type": "oa:Annotation", 
            "motivation": "oa:painting", 
            "on": "http://gallica.bnf.fr/iiif/ark:/12148/btv1b9060762g/canvas/f335#xywh=626,1037,99,45", 
            "resource": {
                "@type": "cnt:ContentAsText", 
                "chars": "DE", 
                "format": "text/plain"
            }
        }, 
        {
            "@id": "https://manifests.teklia.com/HIMANIS/FR5909/words_annotations/http_gallica.bnf.fr_iiif_ark:_12148_btv1b9060762g_f335_full_full_0_native.jpg.json/34/line", 
            "@type": "oa:Annotation", 
            "motivation": "oa:painting", 
            "on": "http://gallica.bnf.fr/iiif/ark:/12148/btv1b9060762g/canvas/f335#xywh=2980,3106,94,100", 
            "resource": {
                "@type": "cnt:ContentAsText", 
                "chars": "OU", 
                "format": "text/plain"
            }
        }, 
        {
            "@id": "https://manifests.teklia.com/HIMANIS/FR5909/words_annotations/http_gallica.bnf.fr_iiif_ark:_12148_btv1b9060762g_f335_full_full_0_native.jpg.json/35/line", 
            "@type": "oa:Annotation", 
            "motivation": "oa:painting", 
            "on": "http://gallica.bnf.fr/iiif/ark:/12148/btv1b9060762g/canvas/f335#xywh=2473,3185,179,60", 
            "resource": {
                "@type": "cnt:ContentAsText", 
                "chars": "SI", 
                "format": "text/plain"
            }
        }, 
        {
            "@id": "https://manifests.teklia.com/HIMANIS/FR5909/words_annotations/http_gallica.bnf.fr_iiif_ark:_12148_btv1b9060762g_f335_full_full_0_native.jpg.json/36/line", 
            "@type": "oa:Annotation", 
            "motivation": "oa:painting", 
            "on": "http://gallica.bnf.fr/iiif/ark:/12148/btv1b9060762g/canvas/f335#xywh=3493,1040,66,40", 
            "resource": {
                "@type": "cnt:ContentAsText", 
                "chars": "DE", 
                "format": "text/plain"
            }
        }, 
        {
            "@id": "https://manifests.teklia.com/HIMANIS/FR5909/words_annotations/http_gallica.bnf.fr_iiif_ark:_12148_btv1b9060762g_f335_full_full_0_native.jpg.json/37/line", 
            "@type": "oa:Annotation", 
            "motivation": "oa:painting", 
            "on": "http://gallica.bnf.fr/iiif/ark:/12148/btv1b9060762g/canvas/f335#xywh=1731,3630,293,151", 
            "resource": {
                "@type": "cnt:ContentAsText", 
                "chars": "CARISSE", 
                "format": "text/plain"
            }
        }, 
        {
            "@id": "https://manifests.teklia.com/HIMANIS/FR5909/words_annotations/http_gallica.bnf.fr_iiif_ark:_12148_btv1b9060762g_f335_full_full_0_native.jpg.json/38/line", 
            "@type": "oa:Annotation", 
            "motivation": "oa:painting", 
            "on": "http://gallica.bnf.fr/iiif/ark:/12148/btv1b9060762g/canvas/f335#xywh=2413,3630,483,151", 
            "resource": {
                "@type": "cnt:ContentAsText", 
                "chars": "CONSIDERATA", 
                "format": "text/plain"
            }
        }, 
        {
            "@id": "https://manifests.teklia.com/HIMANIS/FR5909/words_annotations/http_gallica.bnf.fr_iiif_ark:_12148_btv1b9060762g_f335_full_full_0_native.jpg.json/39/line", 
            "@type": "oa:Annotation", 
            "motivation": "oa:painting", 
            "on": "http://gallica.bnf.fr/iiif/ark:/12148/btv1b9060762g/canvas/f335#xywh=2512,3448,260,109", 
            "resource": {
                "@type": "cnt:ContentAsText", 
                "chars": "LAMURS", 
                "format": "text/plain"
            }
        }, 
        {
            "@id": "https://manifests.teklia.com/HIMANIS/FR5909/words_annotations/http_gallica.bnf.fr_iiif_ark:_12148_btv1b9060762g_f335_full_full_0_native.jpg.json/40/line", 
            "@type": "oa:Annotation", 
            "motivation": "oa:painting", 
            "on": "http://gallica.bnf.fr/iiif/ark:/12148/btv1b9060762g/canvas/f335#xywh=2860,3106,69,100", 
            "resource": {
                "@type": "cnt:ContentAsText", 
                "chars": "POUR", 
                "format": "text/plain"
            }
        }, 
        {
            "@id": "https://manifests.teklia.com/HIMANIS/FR5909/words_annotations/http_gallica.bnf.fr_iiif_ark:_12148_btv1b9060762g_f335_full_full_0_native.jpg.json/41/line", 
            "@type": "oa:Annotation", 
            "motivation": "oa:painting", 
            "on": "http://gallica.bnf.fr/iiif/ark:/12148/btv1b9060762g/canvas/f335#xywh=2361,3106,120,100", 
            "resource": {
                "@type": "cnt:ContentAsText", 
                "chars": "POIR", 
                "format": "text/plain"
            }
        }, 
        {
            "@id": "https://manifests.teklia.com/HIMANIS/FR5909/words_annotations/http_gallica.bnf.fr_iiif_ark:_12148_btv1b9060762g_f335_full_full_0_native.jpg.json/42/line", 
            "@type": "oa:Annotation", 
            "motivation": "oa:painting", 
            "on": "http://gallica.bnf.fr/iiif/ark:/12148/btv1b9060762g/canvas/f335#xywh=1589,3770,847,178", 
            "resource": {
                "@type": "cnt:ContentAsText", 
                "chars": "PARISIUS", 
                "format": "text/plain"
            }
        }, 
        {
            "@id": "https://manifests.teklia.com/HIMANIS/FR5909/words_annotations/http_gallica.bnf.fr_iiif_ark:_12148_btv1b9060762g_f335_full_full_0_native.jpg.json/43/line", 
            "@type": "oa:Annotation", 
            "motivation": "oa:painting", 
            "on": "http://gallica.bnf.fr/iiif/ark:/12148/btv1b9060762g/canvas/f335#xywh=1192,3540,284,122", 
            "resource": {
                "@type": "cnt:ContentAsText", 
                "chars": "ET", 
                "format": "text/plain"
            }
        }, 
        {
            "@id": "https://manifests.teklia.com/HIMANIS/FR5909/words_annotations/http_gallica.bnf.fr_iiif_ark:_12148_btv1b9060762g_f335_full_full_0_native.jpg.json/44/line", 
            "@type": "oa:Annotation", 
            "motivation": "oa:painting", 
            "on": "http://gallica.bnf.fr/iiif/ark:/12148/btv1b9060762g/canvas/f335#xywh=2458,3230,182,126", 
            "resource": {
                "@type": "cnt:ContentAsText", 
                "chars": "CETE", 
                "format": "text/plain"
            }
        }, 
        {
            "@id": "https://manifests.teklia.com/HIMANIS/FR5909/words_annotations/http_gallica.bnf.fr_iiif_ark:_12148_btv1b9060762g_f335_full_full_0_native.jpg.json/45/line", 
            "@type": "oa:Annotation", 
            "motivation": "oa:painting", 
            "on": "http://gallica.bnf.fr/iiif/ark:/12148/btv1b9060762g/canvas/f335#xywh=1969,3230,331,126", 
            "resource": {
                "@type": "cnt:ContentAsText", 
                "chars": "DEMORIER", 
                "format": "text/plain"
            }
        }, 
        {
            "@id": "https://manifests.teklia.com/HIMANIS/FR5909/words_annotations/http_gallica.bnf.fr_iiif_ark:_12148_btv1b9060762g_f335_full_full_0_native.jpg.json/46/line", 
            "@type": "oa:Annotation", 
            "motivation": "oa:painting", 
            "on": "http://gallica.bnf.fr/iiif/ark:/12148/btv1b9060762g/canvas/f335#xywh=2980,3106,479,100", 
            "resource": {
                "@type": "cnt:ContentAsText", 
                "chars": "HUGESTRA", 
                "format": "text/plain"
            }
        }, 
        {
            "@id": "https://manifests.teklia.com/HIMANIS/FR5909/words_annotations/http_gallica.bnf.fr_iiif_ark:_12148_btv1b9060762g_f335_full_full_0_native.jpg.json/47/line", 
            "@type": "oa:Annotation", 
            "motivation": "oa:painting", 
            "on": "http://gallica.bnf.fr/iiif/ark:/12148/btv1b9060762g/canvas/f335#xywh=1351,3630,332,151", 
            "resource": {
                "@type": "cnt:ContentAsText", 
                "chars": "ORIUM", 
                "format": "text/plain"
            }
        }, 
        {
            "@id": "https://manifests.teklia.com/HIMANIS/FR5909/words_annotations/http_gallica.bnf.fr_iiif_ark:_12148_btv1b9060762g_f335_full_full_0_native.jpg.json/48/line", 
            "@type": "oa:Annotation", 
            "motivation": "oa:painting", 
            "on": "http://gallica.bnf.fr/iiif/ark:/12148/btv1b9060762g/canvas/f335#xywh=3136,3448,213,109", 
            "resource": {
                "@type": "cnt:ContentAsText", 
                "chars": "PREDIBUS", 
                "format": "text/plain"
            }
        }, 
        {
            "@id": "https://manifests.teklia.com/HIMANIS/FR5909/words_annotations/http_gallica.bnf.fr_iiif_ark:_12148_btv1b9060762g_f335_full_full_0_native.jpg.json/49/line", 
            "@type": "oa:Annotation", 
            "motivation": "oa:painting", 
            "on": "http://gallica.bnf.fr/iiif/ark:/12148/btv1b9060762g/canvas/f335#xywh=3309,215,354,133", 
            "resource": {
                "@type": "cnt:ContentAsText", 
                "chars": "ET", 
                "format": "text/plain"
            }
        }, 
        {
            "@id": "https://manifests.teklia.com/HIMANIS/FR5909/words_annotations/http_gallica.bnf.fr_iiif_ark:_12148_btv1b9060762g_f335_full_full_0_native.jpg.json/50/line", 
            "@type": "oa:Annotation", 
            "motivation": "oa:painting", 
            "on": "http://gallica.bnf.fr/iiif/ark:/12148/btv1b9060762g/canvas/f335#xywh=2128,3106,126,100", 
            "resource": {
                "@type": "cnt:ContentAsText", 
                "chars": "LE", 
                "format": "text/plain"
            }
        }, 
        {
            "@id": "https://manifests.teklia.com/HIMANIS/FR5909/words_annotations/http_gallica.bnf.fr_iiif_ark:_12148_btv1b9060762g_f335_full_full_0_native.jpg.json/51/line", 
            "@type": "oa:Annotation", 
            "motivation": "oa:painting", 
            "on": "http://gallica.bnf.fr/iiif/ark:/12148/btv1b9060762g/canvas/f335#xywh=2298,3106,51,100", 
            "resource": {
                "@type": "cnt:ContentAsText", 
                "chars": "DE", 
                "format": "text/plain"
            }
        }, 
        {
            "@id": "https://manifests.teklia.com/HIMANIS/FR5909/words_annotations/http_gallica.bnf.fr_iiif_ark:_12148_btv1b9060762g_f335_full_full_0_native.jpg.json/52/line", 
            "@type": "oa:Annotation", 
            "motivation": "oa:painting", 
            "on": "http://gallica.bnf.fr/iiif/ark:/12148/btv1b9060762g/canvas/f335#xywh=1921,3540,475,122", 
            "resource": {
                "@type": "cnt:ContentAsText", 
                "chars": "TANTONNI", 
                "format": "text/plain"
            }
        }, 
        {
            "@id": "https://manifests.teklia.com/HIMANIS/FR5909/words_annotations/http_gallica.bnf.fr_iiif_ark:_12148_btv1b9060762g_f335_full_full_0_native.jpg.json/53/line", 
            "@type": "oa:Annotation", 
            "motivation": "oa:painting", 
            "on": "http://gallica.bnf.fr/iiif/ark:/12148/btv1b9060762g/canvas/f335#xywh=3424,3540,146,122", 
            "resource": {
                "@type": "cnt:ContentAsText", 
                "chars": "JAMAIN", 
                "format": "text/plain"
            }
        }, 
        {
            "@id": "https://manifests.teklia.com/HIMANIS/FR5909/words_annotations/http_gallica.bnf.fr_iiif_ark:_12148_btv1b9060762g_f335_full_full_0_native.jpg.json/54/line", 
            "@type": "oa:Annotation", 
            "motivation": "oa:painting", 
            "on": "http://gallica.bnf.fr/iiif/ark:/12148/btv1b9060762g/canvas/f335#xywh=1589,3770,445,178", 
            "resource": {
                "@type": "cnt:ContentAsText", 
                "chars": "SALVO", 
                "format": "text/plain"
            }
        }, 
        {
            "@id": "https://manifests.teklia.com/HIMANIS/FR5909/words_annotations/http_gallica.bnf.fr_iiif_ark:_12148_btv1b9060762g_f335_full_full_0_native.jpg.json/55/line", 
            "@type": "oa:Annotation", 
            "motivation": "oa:painting", 
            "on": "http://gallica.bnf.fr/iiif/ark:/12148/btv1b9060762g/canvas/f335#xywh=2550,3540,261,122", 
            "resource": {
                "@type": "cnt:ContentAsText", 
                "chars": "TINAL", 
                "format": "text/plain"
            }
        }, 
        {
            "@id": "https://manifests.teklia.com/HIMANIS/FR5909/words_annotations/http_gallica.bnf.fr_iiif_ark:_12148_btv1b9060762g_f335_full_full_0_native.jpg.json/56/line", 
            "@type": "oa:Annotation", 
            "motivation": "oa:painting", 
            "on": "http://gallica.bnf.fr/iiif/ark:/12148/btv1b9060762g/canvas/f335#xywh=2473,3185,479,60", 
            "resource": {
                "@type": "cnt:ContentAsText", 
                "chars": "DON", 
                "format": "text/plain"
            }
        }, 
        {
            "@id": "https://manifests.teklia.com/HIMANIS/FR5909/words_annotations/http_gallica.bnf.fr_iiif_ark:_12148_btv1b9060762g_f335_full_full_0_native.jpg.json/57/line", 
            "@type": "oa:Annotation", 
            "motivation": "oa:painting", 
            "on": "http://gallica.bnf.fr/iiif/ark:/12148/btv1b9060762g/canvas/f335#xywh=1339,3106,555,100", 
            "resource": {
                "@type": "cnt:ContentAsText", 
                "chars": "AITRE", 
                "format": "text/plain"
            }
        }, 
        {
            "@id": "https://manifests.teklia.com/HIMANIS/FR5909/words_annotations/http_gallica.bnf.fr_iiif_ark:_12148_btv1b9060762g_f335_full_full_0_native.jpg.json/58/line", 
            "@type": "oa:Annotation", 
            "motivation": "oa:painting", 
            "on": "http://gallica.bnf.fr/iiif/ark:/12148/btv1b9060762g/canvas/f335#xywh=1969,3230,331,126", 
            "resource": {
                "@type": "cnt:ContentAsText", 
                "chars": "DEMOURER", 
                "format": "text/plain"
            }
        }, 
        {
            "@id": "https://manifests.teklia.com/HIMANIS/FR5909/words_annotations/http_gallica.bnf.fr_iiif_ark:_12148_btv1b9060762g_f335_full_full_0_native.jpg.json/59/line", 
            "@type": "oa:Annotation", 
            "motivation": "oa:painting", 
            "on": "http://gallica.bnf.fr/iiif/ark:/12148/btv1b9060762g/canvas/f335#xywh=1537,3540,46,122", 
            "resource": {
                "@type": "cnt:ContentAsText", 
                "chars": "FU", 
                "format": "text/plain"
            }
        }, 
        {
            "@id": "https://manifests.teklia.com/HIMANIS/FR5909/words_annotations/http_gallica.bnf.fr_iiif_ark:_12148_btv1b9060762g_f335_full_full_0_native.jpg.json/60/line", 
            "@type": "oa:Annotation", 
            "motivation": "oa:painting", 
            "on": "http://gallica.bnf.fr/iiif/ark:/12148/btv1b9060762g/canvas/f335#xywh=2550,3540,261,122", 
            "resource": {
                "@type": "cnt:ContentAsText", 
                "chars": "TANNAL", 
                "format": "text/plain"
            }
        }, 
        {
            "@id": "https://manifests.teklia.com/HIMANIS/FR5909/words_annotations/http_gallica.bnf.fr_iiif_ark:_12148_btv1b9060762g_f335_full_full_0_native.jpg.json/61/line", 
            "@type": "oa:Annotation", 
            "motivation": "oa:painting", 
            "on": "http://gallica.bnf.fr/iiif/ark:/12148/btv1b9060762g/canvas/f335#xywh=645,1389,0,55", 
            "resource": {
                "@type": "cnt:ContentAsText", 
                "chars": "P", 
                "format": "text/plain"
            }
        }, 
        {
            "@id": "https://manifests.teklia.com/HIMANIS/FR5909/words_annotations/http_gallica.bnf.fr_iiif_ark:_12148_btv1b9060762g_f335_full_full_0_native.jpg.json/62/line", 
            "@type": "oa:Annotation", 
            "motivation": "oa:painting", 
            "on": "http://gallica.bnf.fr/iiif/ark:/12148/btv1b9060762g/canvas/f335#xywh=1351,3630,332,151", 
            "resource": {
                "@type": "cnt:ContentAsText", 
                "chars": "ARISIUM", 
                "format": "text/plain"
            }
        }, 
        {
            "@id": "https://manifests.teklia.com/HIMANIS/FR5909/words_annotations/http_gallica.bnf.fr_iiif_ark:_12148_btv1b9060762g_f335_full_full_0_native.jpg.json/63/line", 
            "@type": "oa:Annotation", 
            "motivation": "oa:painting", 
            "on": "http://gallica.bnf.fr/iiif/ark:/12148/btv1b9060762g/canvas/f335#xywh=2860,3106,69,100", 
            "resource": {
                "@type": "cnt:ContentAsText", 
                "chars": "PRO", 
                "format": "text/plain"
            }
        }, 
        {
            "@id": "https://manifests.teklia.com/HIMANIS/FR5909/words_annotations/http_gallica.bnf.fr_iiif_ark:_12148_btv1b9060762g_f335_full_full_0_native.jpg.json/64/line", 
            "@type": "oa:Annotation", 
            "motivation": "oa:painting", 
            "on": "http://gallica.bnf.fr/iiif/ark:/12148/btv1b9060762g/canvas/f335#xywh=2473,3185,609,60", 
            "resource": {
                "@type": "cnt:ContentAsText", 
                "chars": "BOURS", 
                "format": "text/plain"
            }
        }, 
        {
            "@id": "https://manifests.teklia.com/HIMANIS/FR5909/words_annotations/http_gallica.bnf.fr_iiif_ark:_12148_btv1b9060762g_f335_full_full_0_native.jpg.json/65/line", 
            "@type": "oa:Annotation", 
            "motivation": "oa:painting", 
            "on": "http://gallica.bnf.fr/iiif/ark:/12148/btv1b9060762g/canvas/f335#xywh=2538,3106,240,100", 
            "resource": {
                "@type": "cnt:ContentAsText", 
                "chars": "GEOISSIE", 
                "format": "text/plain"
            }
        }, 
        {
            "@id": "https://manifests.teklia.com/HIMANIS/FR5909/words_annotations/http_gallica.bnf.fr_iiif_ark:_12148_btv1b9060762g_f335_full_full_0_native.jpg.json/66/line", 
            "@type": "oa:Annotation", 
            "motivation": "oa:painting", 
            "on": "http://gallica.bnf.fr/iiif/ark:/12148/btv1b9060762g/canvas/f335#xywh=2980,3106,113,100", 
            "resource": {
                "@type": "cnt:ContentAsText", 
                "chars": "AUT", 
                "format": "text/plain"
            }
        }, 
        {
            "@id": "https://manifests.teklia.com/HIMANIS/FR5909/words_annotations/http_gallica.bnf.fr_iiif_ark:_12148_btv1b9060762g_f335_full_full_0_native.jpg.json/67/line", 
            "@type": "oa:Annotation", 
            "motivation": "oa:painting", 
            "on": "http://gallica.bnf.fr/iiif/ark:/12148/btv1b9060762g/canvas/f335#xywh=2458,3230,134,126", 
            "resource": {
                "@type": "cnt:ContentAsText", 
                "chars": "CES", 
                "format": "text/plain"
            }
        }, 
        {
            "@id": "https://manifests.teklia.com/HIMANIS/FR5909/words_annotations/http_gallica.bnf.fr_iiif_ark:_12148_btv1b9060762g_f335_full_full_0_native.jpg.json/68/line", 
            "@type": "oa:Annotation", 
            "motivation": "oa:painting", 
            "on": "http://gallica.bnf.fr/iiif/ark:/12148/btv1b9060762g/canvas/f335#xywh=3383,3448,179,109", 
            "resource": {
                "@type": "cnt:ContentAsText", 
                "chars": "PARTENAN", 
                "format": "text/plain"
            }
        }, 
        {
            "@id": "https://manifests.teklia.com/HIMANIS/FR5909/words_annotations/http_gallica.bnf.fr_iiif_ark:_12148_btv1b9060762g_f335_full_full_0_native.jpg.json/69/line", 
            "@type": "oa:Annotation", 
            "motivation": "oa:painting", 
            "on": "http://gallica.bnf.fr/iiif/ark:/12148/btv1b9060762g/canvas/f335#xywh=1932,3106,196,100", 
            "resource": {
                "@type": "cnt:ContentAsText", 
                "chars": "BONNE", 
                "format": "text/plain"
            }
        }, 
        {
            "@id": "https://manifests.teklia.com/HIMANIS/FR5909/words_annotations/http_gallica.bnf.fr_iiif_ark:_12148_btv1b9060762g_f335_full_full_0_native.jpg.json/70/line", 
            "@type": "oa:Annotation", 
            "motivation": "oa:painting", 
            "on": "http://gallica.bnf.fr/iiif/ark:/12148/btv1b9060762g/canvas/f335#xywh=2550,3540,261,122", 
            "resource": {
                "@type": "cnt:ContentAsText", 
                "chars": "TAUNAL", 
                "format": "text/plain"
            }
        }, 
        {
            "@id": "https://manifests.teklia.com/HIMANIS/FR5909/words_annotations/http_gallica.bnf.fr_iiif_ark:_12148_btv1b9060762g_f335_full_full_0_native.jpg.json/71/line", 
            "@type": "oa:Annotation", 
            "motivation": "oa:painting", 
            "on": "http://gallica.bnf.fr/iiif/ark:/12148/btv1b9060762g/canvas/f335#xywh=3424,3540,146,122", 
            "resource": {
                "@type": "cnt:ContentAsText", 
                "chars": "JANUARI", 
                "format": "text/plain"
            }
        }, 
        {
            "@id": "https://manifests.teklia.com/HIMANIS/FR5909/words_annotations/http_gallica.bnf.fr_iiif_ark:_12148_btv1b9060762g_f335_full_full_0_native.jpg.json/72/line", 
            "@type": "oa:Annotation", 
            "motivation": "oa:painting", 
            "on": "http://gallica.bnf.fr/iiif/ark:/12148/btv1b9060762g/canvas/f335#xywh=1629,3540,169,122", 
            "resource": {
                "@type": "cnt:ContentAsText", 
                "chars": "JURIS", 
                "format": "text/plain"
            }
        }, 
        {
            "@id": "https://manifests.teklia.com/HIMANIS/FR5909/words_annotations/http_gallica.bnf.fr_iiif_ark:_12148_btv1b9060762g_f335_full_full_0_native.jpg.json/73/line", 
            "@type": "oa:Annotation", 
            "motivation": "oa:painting", 
            "on": "http://gallica.bnf.fr/iiif/ark:/12148/btv1b9060762g/canvas/f335#xywh=1351,3630,332,151", 
            "resource": {
                "@type": "cnt:ContentAsText", 
                "chars": "ORISIUM", 
                "format": "text/plain"
            }
        }, 
        {
            "@id": "https://manifests.teklia.com/HIMANIS/FR5909/words_annotations/http_gallica.bnf.fr_iiif_ark:_12148_btv1b9060762g_f335_full_full_0_native.jpg.json/74/line", 
            "@type": "oa:Annotation", 
            "motivation": "oa:painting", 
            "on": "http://gallica.bnf.fr/iiif/ark:/12148/btv1b9060762g/canvas/f335#xywh=3383,3448,131,109", 
            "resource": {
                "@type": "cnt:ContentAsText", 
                "chars": "PERPETU", 
                "format": "text/plain"
            }
        }, 
        {
            "@id": "https://manifests.teklia.com/HIMANIS/FR5909/words_annotations/http_gallica.bnf.fr_iiif_ark:_12148_btv1b9060762g_f335_full_full_0_native.jpg.json/75/line", 
            "@type": "oa:Annotation", 
            "motivation": "oa:painting", 
            "on": "http://gallica.bnf.fr/iiif/ark:/12148/btv1b9060762g/canvas/f335#xywh=2855,3035,45,120", 
            "resource": {
                "@type": "cnt:ContentAsText", 
                "chars": "IN", 
                "format": "text/plain"
            }
        }, 
        {
            "@id": "https://manifests.teklia.com/HIMANIS/FR5909/words_annotations/http_gallica.bnf.fr_iiif_ark:_12148_btv1b9060762g_f335_full_full_0_native.jpg.json/76/line", 
            "@type": "oa:Annotation", 
            "motivation": "oa:painting", 
            "on": "http://gallica.bnf.fr/iiif/ark:/12148/btv1b9060762g/canvas/f335#xywh=2363,3230,56,126", 
            "resource": {
                "@type": "cnt:ContentAsText", 
                "chars": "EN", 
                "format": "text/plain"
            }
        }, 
        {
            "@id": "https://manifests.teklia.com/HIMANIS/FR5909/words_annotations/http_gallica.bnf.fr_iiif_ark:_12148_btv1b9060762g_f335_full_full_0_native.jpg.json/77/line", 
            "@type": "oa:Annotation", 
            "motivation": "oa:painting", 
            "on": "http://gallica.bnf.fr/iiif/ark:/12148/btv1b9060762g/canvas/f335#xywh=3383,3448,179,109", 
            "resource": {
                "@type": "cnt:ContentAsText", 
                "chars": "PARTIENT", 
                "format": "text/plain"
            }
        }, 
        {
            "@id": "https://manifests.teklia.com/HIMANIS/FR5909/words_annotations/http_gallica.bnf.fr_iiif_ark:_12148_btv1b9060762g_f335_full_full_0_native.jpg.json/78/line", 
            "@type": "oa:Annotation", 
            "motivation": "oa:painting", 
            "on": "http://gallica.bnf.fr/iiif/ark:/12148/btv1b9060762g/canvas/f335#xywh=3136,3448,213,109", 
            "resource": {
                "@type": "cnt:ContentAsText", 
                "chars": "PARTIBUS", 
                "format": "text/plain"
            }
        }, 
        {
            "@id": "https://manifests.teklia.com/HIMANIS/FR5909/words_annotations/http_gallica.bnf.fr_iiif_ark:_12148_btv1b9060762g_f335_full_full_0_native.jpg.json/79/line", 
            "@type": "oa:Annotation", 
            "motivation": "oa:painting", 
            "on": "http://gallica.bnf.fr/iiif/ark:/12148/btv1b9060762g/canvas/f335#xywh=3445,4643,155,73", 
            "resource": {
                "@type": "cnt:ContentAsText", 
                "chars": "DE", 
                "format": "text/plain"
            }
        }, 
        {
            "@id": "https://manifests.teklia.com/HIMANIS/FR5909/words_annotations/http_gallica.bnf.fr_iiif_ark:_12148_btv1b9060762g_f335_full_full_0_native.jpg.json/80/line", 
            "@type": "oa:Annotation", 
            "motivation": "oa:painting", 
            "on": "http://gallica.bnf.fr/iiif/ark:/12148/btv1b9060762g/canvas/f335#xywh=2980,3106,113,100", 
            "resource": {
                "@type": "cnt:ContentAsText", 
                "chars": "UT", 
                "format": "text/plain"
            }
        }, 
        {
            "@id": "https://manifests.teklia.com/HIMANIS/FR5909/words_annotations/http_gallica.bnf.fr_iiif_ark:_12148_btv1b9060762g_f335_full_full_0_native.jpg.json/81/line", 
            "@type": "oa:Annotation", 
            "motivation": "oa:painting", 
            "on": "http://gallica.bnf.fr/iiif/ark:/12148/btv1b9060762g/canvas/f335#xywh=1314,3196,368,45", 
            "resource": {
                "@type": "cnt:ContentAsText", 
                "chars": "PHIL", 
                "format": "text/plain"
            }
        }, 
        {
            "@id": "https://manifests.teklia.com/HIMANIS/FR5909/words_annotations/http_gallica.bnf.fr_iiif_ark:_12148_btv1b9060762g_f335_full_full_0_native.jpg.json/82/line", 
            "@type": "oa:Annotation", 
            "motivation": "oa:painting", 
            "on": "http://gallica.bnf.fr/iiif/ark:/12148/btv1b9060762g/canvas/f335#xywh=3424,3540,100,122", 
            "resource": {
                "@type": "cnt:ContentAsText", 
                "chars": "JANVIE", 
                "format": "text/plain"
            }
        }, 
        {
            "@id": "https://manifests.teklia.com/HIMANIS/FR5909/words_annotations/http_gallica.bnf.fr_iiif_ark:_12148_btv1b9060762g_f335_full_full_0_native.jpg.json/83/line", 
            "@type": "oa:Annotation", 
            "motivation": "oa:painting", 
            "on": "http://gallica.bnf.fr/iiif/ark:/12148/btv1b9060762g/canvas/f335#xywh=1637,3230,190,126", 
            "resource": {
                "@type": "cnt:ContentAsText", 
                "chars": "VENAUT", 
                "format": "text/plain"
            }
        }, 
        {
            "@id": "https://manifests.teklia.com/HIMANIS/FR5909/words_annotations/http_gallica.bnf.fr_iiif_ark:_12148_btv1b9060762g_f335_full_full_0_native.jpg.json/84/line", 
            "@type": "oa:Annotation", 
            "motivation": "oa:painting", 
            "on": "http://gallica.bnf.fr/iiif/ark:/12148/btv1b9060762g/canvas/f335#xywh=696,1528,0,63", 
            "resource": {
                "@type": "cnt:ContentAsText", 
                "chars": "J", 
                "format": "text/plain"
            }
        }, 
        {
            "@id": "https://manifests.teklia.com/HIMANIS/FR5909/words_annotations/http_gallica.bnf.fr_iiif_ark:_12148_btv1b9060762g_f335_full_full_0_native.jpg.json/85/line", 
            "@type": "oa:Annotation", 
            "motivation": "oa:painting", 
            "on": "http://gallica.bnf.fr/iiif/ark:/12148/btv1b9060762g/canvas/f335#xywh=2525,3770,189,178", 
            "resource": {
                "@type": "cnt:ContentAsText", 
                "chars": "NOUS", 
                "format": "text/plain"
            }
        }, 
        {
            "@id": "https://manifests.teklia.com/HIMANIS/FR5909/words_annotations/http_gallica.bnf.fr_iiif_ark:_12148_btv1b9060762g_f335_full_full_0_native.jpg.json/86/line", 
            "@type": "oa:Annotation", 
            "motivation": "oa:painting", 
            "on": "http://gallica.bnf.fr/iiif/ark:/12148/btv1b9060762g/canvas/f335#xywh=1637,3230,190,126", 
            "resource": {
                "@type": "cnt:ContentAsText", 
                "chars": "BENAUT", 
                "format": "text/plain"
            }
        }, 
        {
            "@id": "https://manifests.teklia.com/HIMANIS/FR5909/words_annotations/http_gallica.bnf.fr_iiif_ark:_12148_btv1b9060762g_f335_full_full_0_native.jpg.json/87/line", 
            "@type": "oa:Annotation", 
            "motivation": "oa:painting", 
            "on": "http://gallica.bnf.fr/iiif/ark:/12148/btv1b9060762g/canvas/f335#xywh=1921,3540,475,122", 
            "resource": {
                "@type": "cnt:ContentAsText", 
                "chars": "TANTONI", 
                "format": "text/plain"
            }
        }, 
        {
            "@id": "https://manifests.teklia.com/HIMANIS/FR5909/words_annotations/http_gallica.bnf.fr_iiif_ark:_12148_btv1b9060762g_f335_full_full_0_native.jpg.json/88/line", 
            "@type": "oa:Annotation", 
            "motivation": "oa:painting", 
            "on": "http://gallica.bnf.fr/iiif/ark:/12148/btv1b9060762g/canvas/f335#xywh=645,1389,108,55", 
            "resource": {
                "@type": "cnt:ContentAsText", 
                "chars": "PA", 
                "format": "text/plain"
            }
        }, 
        {
            "@id": "https://manifests.teklia.com/HIMANIS/FR5909/words_annotations/http_gallica.bnf.fr_iiif_ark:_12148_btv1b9060762g_f335_full_full_0_native.jpg.json/89/line", 
            "@type": "oa:Annotation", 
            "motivation": "oa:painting", 
            "on": "http://gallica.bnf.fr/iiif/ark:/12148/btv1b9060762g/canvas/f335#xywh=645,1389,98,55", 
            "resource": {
                "@type": "cnt:ContentAsText", 
                "chars": "PE", 
                "format": "text/plain"
            }
        }, 
        {
            "@id": "https://manifests.teklia.com/HIMANIS/FR5909/words_annotations/http_gallica.bnf.fr_iiif_ark:_12148_btv1b9060762g_f335_full_full_0_native.jpg.json/90/line", 
            "@type": "oa:Annotation", 
            "motivation": "oa:painting", 
            "on": "http://gallica.bnf.fr/iiif/ark:/12148/btv1b9060762g/canvas/f335#xywh=1921,3540,475,122", 
            "resource": {
                "@type": "cnt:ContentAsText", 
                "chars": "AUTONNI", 
                "format": "text/plain"
            }
        }, 
        {
            "@id": "https://manifests.teklia.com/HIMANIS/FR5909/words_annotations/http_gallica.bnf.fr_iiif_ark:_12148_btv1b9060762g_f335_full_full_0_native.jpg.json/91/line", 
            "@type": "oa:Annotation", 
            "motivation": "oa:painting", 
            "on": "http://gallica.bnf.fr/iiif/ark:/12148/btv1b9060762g/canvas/f335#xywh=1377,3770,212,178", 
            "resource": {
                "@type": "cnt:ContentAsText", 
                "chars": "JUSTICE", 
                "format": "text/plain"
            }
        }, 
        {
            "@id": "https://manifests.teklia.com/HIMANIS/FR5909/words_annotations/http_gallica.bnf.fr_iiif_ark:_12148_btv1b9060762g_f335_full_full_0_native.jpg.json/92/line", 
            "@type": "oa:Annotation", 
            "motivation": "oa:painting", 
            "on": "http://gallica.bnf.fr/iiif/ark:/12148/btv1b9060762g/canvas/f335#xywh=2872,3540,192,122", 
            "resource": {
                "@type": "cnt:ContentAsText", 
                "chars": "QUIA", 
                "format": "text/plain"
            }
        }, 
        {
            "@id": "https://manifests.teklia.com/HIMANIS/FR5909/words_annotations/http_gallica.bnf.fr_iiif_ark:_12148_btv1b9060762g_f335_full_full_0_native.jpg.json/93/line", 
            "@type": "oa:Annotation", 
            "motivation": "oa:painting", 
            "on": "http://gallica.bnf.fr/iiif/ark:/12148/btv1b9060762g/canvas/f335#xywh=1379,3386,0,66", 
            "resource": {
                "@type": "cnt:ContentAsText", 
                "chars": "P", 
                "format": "text/plain"
            }
        }, 
        {
            "@id": "https://manifests.teklia.com/HIMANIS/FR5909/words_annotations/http_gallica.bnf.fr_iiif_ark:_12148_btv1b9060762g_f335_full_full_0_native.jpg.json/94/line", 
            "@type": "oa:Annotation", 
            "motivation": "oa:painting", 
            "on": "http://gallica.bnf.fr/iiif/ark:/12148/btv1b9060762g/canvas/f335#xywh=2979,3540,85,122", 
            "resource": {
                "@type": "cnt:ContentAsText", 
                "chars": "SA", 
                "format": "text/plain"
            }
        }
    ]
}