{
    "@context": "http://iiif.io/api/presentation/2/context.json", 
    "@id": "https://manifests.teklia.com/HIMANIS/LAT10919/words_annotations/http_gallica.bnf.fr_iiif_ark:_12148_btv1b9065926v_f149_full_full_0_native.jpg.json", 
    "@type": "sc:AnnotationList", 
    "resources": [
        {
            "@id": "https://manifests.teklia.com/HIMANIS/LAT10919/words_annotations/http_gallica.bnf.fr_iiif_ark:_12148_btv1b9065926v_f149_full_full_0_native.jpg.json/0/line", 
            "@type": "oa:Annotation", 
            "motivation": "oa:painting", 
            "on": "http://gallica.bnf.fr/iiif/ark:/12148/btv1b9065926v/canvas/f149#xywh=3069,2572,130,59", 
            "resource": {
                "@type": "cnt:ContentAsText", 
                "chars": "QUI", 
                "format": "text/plain"
            }
        }, 
        {
            "@id": "https://manifests.teklia.com/HIMANIS/LAT10919/words_annotations/http_gallica.bnf.fr_iiif_ark:_12148_btv1b9065926v_f149_full_full_0_native.jpg.json/1/line", 
            "@type": "oa:Annotation", 
            "motivation": "oa:painting", 
            "on": "http://gallica.bnf.fr/iiif/ark:/12148/btv1b9065926v/canvas/f149#xywh=3075,2266,126,90", 
            "resource": {
                "@type": "cnt:ContentAsText", 
                "chars": "TER", 
                "format": "text/plain"
            }
        }, 
        {
            "@id": "https://manifests.teklia.com/HIMANIS/LAT10919/words_annotations/http_gallica.bnf.fr_iiif_ark:_12148_btv1b9065926v_f149_full_full_0_native.jpg.json/2/line", 
            "@type": "oa:Annotation", 
            "motivation": "oa:painting", 
            "on": "http://gallica.bnf.fr/iiif/ark:/12148/btv1b9065926v/canvas/f149#xywh=3032,903,0,65", 
            "resource": {
                "@type": "cnt:ContentAsText", 
                "chars": "G", 
                "format": "text/plain"
            }
        }, 
        {
            "@id": "https://manifests.teklia.com/HIMANIS/LAT10919/words_annotations/http_gallica.bnf.fr_iiif_ark:_12148_btv1b9065926v_f149_full_full_0_native.jpg.json/3/line", 
            "@type": "oa:Annotation", 
            "motivation": "oa:painting", 
            "on": "http://gallica.bnf.fr/iiif/ark:/12148/btv1b9065926v/canvas/f149#xywh=3073,2482,0,47", 
            "resource": {
                "@type": "cnt:ContentAsText", 
                "chars": "G", 
                "format": "text/plain"
            }
        }, 
        {
            "@id": "https://manifests.teklia.com/HIMANIS/LAT10919/words_annotations/http_gallica.bnf.fr_iiif_ark:_12148_btv1b9065926v_f149_full_full_0_native.jpg.json/4/line", 
            "@type": "oa:Annotation", 
            "motivation": "oa:painting", 
            "on": "http://gallica.bnf.fr/iiif/ark:/12148/btv1b9065926v/canvas/f149#xywh=3069,2206,0,60", 
            "resource": {
                "@type": "cnt:ContentAsText", 
                "chars": "J", 
                "format": "text/plain"
            }
        }, 
        {
            "@id": "https://manifests.teklia.com/HIMANIS/LAT10919/words_annotations/http_gallica.bnf.fr_iiif_ark:_12148_btv1b9065926v_f149_full_full_0_native.jpg.json/5/line", 
            "@type": "oa:Annotation", 
            "motivation": "oa:painting", 
            "on": "http://gallica.bnf.fr/iiif/ark:/12148/btv1b9065926v/canvas/f149#xywh=3069,2206,0,60", 
            "resource": {
                "@type": "cnt:ContentAsText", 
                "chars": "P", 
                "format": "text/plain"
            }
        }, 
        {
            "@id": "https://manifests.teklia.com/HIMANIS/LAT10919/words_annotations/http_gallica.bnf.fr_iiif_ark:_12148_btv1b9065926v_f149_full_full_0_native.jpg.json/6/line", 
            "@type": "oa:Annotation", 
            "motivation": "oa:painting", 
            "on": "http://gallica.bnf.fr/iiif/ark:/12148/btv1b9065926v/canvas/f149#xywh=3073,2482,0,47", 
            "resource": {
                "@type": "cnt:ContentAsText", 
                "chars": "P", 
                "format": "text/plain"
            }
        }, 
        {
            "@id": "https://manifests.teklia.com/HIMANIS/LAT10919/words_annotations/http_gallica.bnf.fr_iiif_ark:_12148_btv1b9065926v_f149_full_full_0_native.jpg.json/7/line", 
            "@type": "oa:Annotation", 
            "motivation": "oa:painting", 
            "on": "http://gallica.bnf.fr/iiif/ark:/12148/btv1b9065926v/canvas/f149#xywh=3032,903,0,65", 
            "resource": {
                "@type": "cnt:ContentAsText", 
                "chars": "S", 
                "format": "text/plain"
            }
        }, 
        {
            "@id": "https://manifests.teklia.com/HIMANIS/LAT10919/words_annotations/http_gallica.bnf.fr_iiif_ark:_12148_btv1b9065926v_f149_full_full_0_native.jpg.json/8/line", 
            "@type": "oa:Annotation", 
            "motivation": "oa:painting", 
            "on": "http://gallica.bnf.fr/iiif/ark:/12148/btv1b9065926v/canvas/f149#xywh=3061,1753,0,40", 
            "resource": {
                "@type": "cnt:ContentAsText", 
                "chars": "J", 
                "format": "text/plain"
            }
        }, 
        {
            "@id": "https://manifests.teklia.com/HIMANIS/LAT10919/words_annotations/http_gallica.bnf.fr_iiif_ark:_12148_btv1b9065926v_f149_full_full_0_native.jpg.json/9/line", 
            "@type": "oa:Annotation", 
            "motivation": "oa:painting", 
            "on": "http://gallica.bnf.fr/iiif/ark:/12148/btv1b9065926v/canvas/f149#xywh=3094,3065,0,40", 
            "resource": {
                "@type": "cnt:ContentAsText", 
                "chars": "H", 
                "format": "text/plain"
            }
        }, 
        {
            "@id": "https://manifests.teklia.com/HIMANIS/LAT10919/words_annotations/http_gallica.bnf.fr_iiif_ark:_12148_btv1b9065926v_f149_full_full_0_native.jpg.json/10/line", 
            "@type": "oa:Annotation", 
            "motivation": "oa:painting", 
            "on": "http://gallica.bnf.fr/iiif/ark:/12148/btv1b9065926v/canvas/f149#xywh=3093,2838,107,92", 
            "resource": {
                "@type": "cnt:ContentAsText", 
                "chars": "QUI", 
                "format": "text/plain"
            }
        }, 
        {
            "@id": "https://manifests.teklia.com/HIMANIS/LAT10919/words_annotations/http_gallica.bnf.fr_iiif_ark:_12148_btv1b9065926v_f149_full_full_0_native.jpg.json/11/line", 
            "@type": "oa:Annotation", 
            "motivation": "oa:painting", 
            "on": "http://gallica.bnf.fr/iiif/ark:/12148/btv1b9065926v/canvas/f149#xywh=3068,2131,89,75", 
            "resource": {
                "@type": "cnt:ContentAsText", 
                "chars": "QUA", 
                "format": "text/plain"
            }
        }, 
        {
            "@id": "https://manifests.teklia.com/HIMANIS/LAT10919/words_annotations/http_gallica.bnf.fr_iiif_ark:_12148_btv1b9065926v_f149_full_full_0_native.jpg.json/12/line", 
            "@type": "oa:Annotation", 
            "motivation": "oa:painting", 
            "on": "http://gallica.bnf.fr/iiif/ark:/12148/btv1b9065926v/canvas/f149#xywh=3094,3065,0,40", 
            "resource": {
                "@type": "cnt:ContentAsText", 
                "chars": "J", 
                "format": "text/plain"
            }
        }, 
        {
            "@id": "https://manifests.teklia.com/HIMANIS/LAT10919/words_annotations/http_gallica.bnf.fr_iiif_ark:_12148_btv1b9065926v_f149_full_full_0_native.jpg.json/13/line", 
            "@type": "oa:Annotation", 
            "motivation": "oa:painting", 
            "on": "http://gallica.bnf.fr/iiif/ark:/12148/btv1b9065926v/canvas/f149#xywh=2858,1083,341,80", 
            "resource": {
                "@type": "cnt:ContentAsText", 
                "chars": "FAIT", 
                "format": "text/plain"
            }
        }, 
        {
            "@id": "https://manifests.teklia.com/HIMANIS/LAT10919/words_annotations/http_gallica.bnf.fr_iiif_ark:_12148_btv1b9065926v_f149_full_full_0_native.jpg.json/14/line", 
            "@type": "oa:Annotation", 
            "motivation": "oa:painting", 
            "on": "http://gallica.bnf.fr/iiif/ark:/12148/btv1b9065926v/canvas/f149#xywh=9,3906,0,148", 
            "resource": {
                "@type": "cnt:ContentAsText", 
                "chars": "P", 
                "format": "text/plain"
            }
        }, 
        {
            "@id": "https://manifests.teklia.com/HIMANIS/LAT10919/words_annotations/http_gallica.bnf.fr_iiif_ark:_12148_btv1b9065926v_f149_full_full_0_native.jpg.json/15/line", 
            "@type": "oa:Annotation", 
            "motivation": "oa:painting", 
            "on": "http://gallica.bnf.fr/iiif/ark:/12148/btv1b9065926v/canvas/f149#xywh=3094,3065,0,40", 
            "resource": {
                "@type": "cnt:ContentAsText", 
                "chars": "R", 
                "format": "text/plain"
            }
        }, 
        {
            "@id": "https://manifests.teklia.com/HIMANIS/LAT10919/words_annotations/http_gallica.bnf.fr_iiif_ark:_12148_btv1b9065926v_f149_full_full_0_native.jpg.json/16/line", 
            "@type": "oa:Annotation", 
            "motivation": "oa:painting", 
            "on": "http://gallica.bnf.fr/iiif/ark:/12148/btv1b9065926v/canvas/f149#xywh=2960,366,134,115", 
            "resource": {
                "@type": "cnt:ContentAsText", 
                "chars": "DE", 
                "format": "text/plain"
            }
        }, 
        {
            "@id": "https://manifests.teklia.com/HIMANIS/LAT10919/words_annotations/http_gallica.bnf.fr_iiif_ark:_12148_btv1b9065926v_f149_full_full_0_native.jpg.json/17/line", 
            "@type": "oa:Annotation", 
            "motivation": "oa:painting", 
            "on": "http://gallica.bnf.fr/iiif/ark:/12148/btv1b9065926v/canvas/f149#xywh=9,3906,3172,148", 
            "resource": {
                "@type": "cnt:ContentAsText", 
                "chars": "PE", 
                "format": "text/plain"
            }
        }, 
        {
            "@id": "https://manifests.teklia.com/HIMANIS/LAT10919/words_annotations/http_gallica.bnf.fr_iiif_ark:_12148_btv1b9065926v_f149_full_full_0_native.jpg.json/18/line", 
            "@type": "oa:Annotation", 
            "motivation": "oa:painting", 
            "on": "http://gallica.bnf.fr/iiif/ark:/12148/btv1b9065926v/canvas/f149#xywh=3055,1458,123,80", 
            "resource": {
                "@type": "cnt:ContentAsText", 
                "chars": "LA", 
                "format": "text/plain"
            }
        }, 
        {
            "@id": "https://manifests.teklia.com/HIMANIS/LAT10919/words_annotations/http_gallica.bnf.fr_iiif_ark:_12148_btv1b9065926v_f149_full_full_0_native.jpg.json/19/line", 
            "@type": "oa:Annotation", 
            "motivation": "oa:painting", 
            "on": "http://gallica.bnf.fr/iiif/ark:/12148/btv1b9065926v/canvas/f149#xywh=3037,809,165,32", 
            "resource": {
                "@type": "cnt:ContentAsText", 
                "chars": "JEHAN", 
                "format": "text/plain"
            }
        }, 
        {
            "@id": "https://manifests.teklia.com/HIMANIS/LAT10919/words_annotations/http_gallica.bnf.fr_iiif_ark:_12148_btv1b9065926v_f149_full_full_0_native.jpg.json/20/line", 
            "@type": "oa:Annotation", 
            "motivation": "oa:painting", 
            "on": "http://gallica.bnf.fr/iiif/ark:/12148/btv1b9065926v/canvas/f149#xywh=3086,2743,114,95", 
            "resource": {
                "@type": "cnt:ContentAsText", 
                "chars": "IS", 
                "format": "text/plain"
            }
        }, 
        {
            "@id": "https://manifests.teklia.com/HIMANIS/LAT10919/words_annotations/http_gallica.bnf.fr_iiif_ark:_12148_btv1b9065926v_f149_full_full_0_native.jpg.json/21/line", 
            "@type": "oa:Annotation", 
            "motivation": "oa:painting", 
            "on": "http://gallica.bnf.fr/iiif/ark:/12148/btv1b9065926v/canvas/f149#xywh=3117,3169,0,29", 
            "resource": {
                "@type": "cnt:ContentAsText", 
                "chars": "J", 
                "format": "text/plain"
            }
        }, 
        {
            "@id": "https://manifests.teklia.com/HIMANIS/LAT10919/words_annotations/http_gallica.bnf.fr_iiif_ark:_12148_btv1b9065926v_f149_full_full_0_native.jpg.json/22/line", 
            "@type": "oa:Annotation", 
            "motivation": "oa:painting", 
            "on": "http://gallica.bnf.fr/iiif/ark:/12148/btv1b9065926v/canvas/f149#xywh=3088,2947,110,70", 
            "resource": {
                "@type": "cnt:ContentAsText", 
                "chars": "QUA", 
                "format": "text/plain"
            }
        }, 
        {
            "@id": "https://manifests.teklia.com/HIMANIS/LAT10919/words_annotations/http_gallica.bnf.fr_iiif_ark:_12148_btv1b9065926v_f149_full_full_0_native.jpg.json/23/line", 
            "@type": "oa:Annotation", 
            "motivation": "oa:painting", 
            "on": "http://gallica.bnf.fr/iiif/ark:/12148/btv1b9065926v/canvas/f149#xywh=3088,2947,53,70", 
            "resource": {
                "@type": "cnt:ContentAsText", 
                "chars": "QUE", 
                "format": "text/plain"
            }
        }, 
        {
            "@id": "https://manifests.teklia.com/HIMANIS/LAT10919/words_annotations/http_gallica.bnf.fr_iiif_ark:_12148_btv1b9065926v_f149_full_full_0_native.jpg.json/24/line", 
            "@type": "oa:Annotation", 
            "motivation": "oa:painting", 
            "on": "http://gallica.bnf.fr/iiif/ark:/12148/btv1b9065926v/canvas/f149#xywh=3055,1458,123,80", 
            "resource": {
                "@type": "cnt:ContentAsText", 
                "chars": "KAR", 
                "format": "text/plain"
            }
        }, 
        {
            "@id": "https://manifests.teklia.com/HIMANIS/LAT10919/words_annotations/http_gallica.bnf.fr_iiif_ark:_12148_btv1b9065926v_f149_full_full_0_native.jpg.json/25/line", 
            "@type": "oa:Annotation", 
            "motivation": "oa:painting", 
            "on": "http://gallica.bnf.fr/iiif/ark:/12148/btv1b9065926v/canvas/f149#xywh=3088,2947,88,70", 
            "resource": {
                "@type": "cnt:ContentAsText", 
                "chars": "QUI", 
                "format": "text/plain"
            }
        }, 
        {
            "@id": "https://manifests.teklia.com/HIMANIS/LAT10919/words_annotations/http_gallica.bnf.fr_iiif_ark:_12148_btv1b9065926v_f149_full_full_0_native.jpg.json/26/line", 
            "@type": "oa:Annotation", 
            "motivation": "oa:painting", 
            "on": "http://gallica.bnf.fr/iiif/ark:/12148/btv1b9065926v/canvas/f149#xywh=2858,1083,160,80", 
            "resource": {
                "@type": "cnt:ContentAsText", 
                "chars": "ET", 
                "format": "text/plain"
            }
        }, 
        {
            "@id": "https://manifests.teklia.com/HIMANIS/LAT10919/words_annotations/http_gallica.bnf.fr_iiif_ark:_12148_btv1b9065926v_f149_full_full_0_native.jpg.json/27/line", 
            "@type": "oa:Annotation", 
            "motivation": "oa:painting", 
            "on": "http://gallica.bnf.fr/iiif/ark:/12148/btv1b9065926v/canvas/f149#xywh=2720,76,472,123", 
            "resource": {
                "@type": "cnt:ContentAsText", 
                "chars": "DA", 
                "format": "text/plain"
            }
        }, 
        {
            "@id": "https://manifests.teklia.com/HIMANIS/LAT10919/words_annotations/http_gallica.bnf.fr_iiif_ark:_12148_btv1b9065926v_f149_full_full_0_native.jpg.json/28/line", 
            "@type": "oa:Annotation", 
            "motivation": "oa:painting", 
            "on": "http://gallica.bnf.fr/iiif/ark:/12148/btv1b9065926v/canvas/f149#xywh=3055,1458,108,80", 
            "resource": {
                "@type": "cnt:ContentAsText", 
                "chars": "TA", 
                "format": "text/plain"
            }
        }, 
        {
            "@id": "https://manifests.teklia.com/HIMANIS/LAT10919/words_annotations/http_gallica.bnf.fr_iiif_ark:_12148_btv1b9065926v_f149_full_full_0_native.jpg.json/29/line", 
            "@type": "oa:Annotation", 
            "motivation": "oa:painting", 
            "on": "http://gallica.bnf.fr/iiif/ark:/12148/btv1b9065926v/canvas/f149#xywh=3017,1163,190,75", 
            "resource": {
                "@type": "cnt:ContentAsText", 
                "chars": "DITE", 
                "format": "text/plain"
            }
        }, 
        {
            "@id": "https://manifests.teklia.com/HIMANIS/LAT10919/words_annotations/http_gallica.bnf.fr_iiif_ark:_12148_btv1b9065926v_f149_full_full_0_native.jpg.json/30/line", 
            "@type": "oa:Annotation", 
            "motivation": "oa:painting", 
            "on": "http://gallica.bnf.fr/iiif/ark:/12148/btv1b9065926v/canvas/f149#xywh=3066,2356,0,85", 
            "resource": {
                "@type": "cnt:ContentAsText", 
                "chars": "G", 
                "format": "text/plain"
            }
        }, 
        {
            "@id": "https://manifests.teklia.com/HIMANIS/LAT10919/words_annotations/http_gallica.bnf.fr_iiif_ark:_12148_btv1b9065926v_f149_full_full_0_native.jpg.json/31/line", 
            "@type": "oa:Annotation", 
            "motivation": "oa:painting", 
            "on": "http://gallica.bnf.fr/iiif/ark:/12148/btv1b9065926v/canvas/f149#xywh=2858,1083,341,80", 
            "resource": {
                "@type": "cnt:ContentAsText", 
                "chars": "FUIT", 
                "format": "text/plain"
            }
        }, 
        {
            "@id": "https://manifests.teklia.com/HIMANIS/LAT10919/words_annotations/http_gallica.bnf.fr_iiif_ark:_12148_btv1b9065926v_f149_full_full_0_native.jpg.json/32/line", 
            "@type": "oa:Annotation", 
            "motivation": "oa:painting", 
            "on": "http://gallica.bnf.fr/iiif/ark:/12148/btv1b9065926v/canvas/f149#xywh=3066,2356,0,85", 
            "resource": {
                "@type": "cnt:ContentAsText", 
                "chars": "H", 
                "format": "text/plain"
            }
        }, 
        {
            "@id": "https://manifests.teklia.com/HIMANIS/LAT10919/words_annotations/http_gallica.bnf.fr_iiif_ark:_12148_btv1b9065926v_f149_full_full_0_native.jpg.json/33/line", 
            "@type": "oa:Annotation", 
            "motivation": "oa:painting", 
            "on": "http://gallica.bnf.fr/iiif/ark:/12148/btv1b9065926v/canvas/f149#xywh=3096,3250,0,42", 
            "resource": {
                "@type": "cnt:ContentAsText", 
                "chars": "J", 
                "format": "text/plain"
            }
        }, 
        {
            "@id": "https://manifests.teklia.com/HIMANIS/LAT10919/words_annotations/http_gallica.bnf.fr_iiif_ark:_12148_btv1b9065926v_f149_full_full_0_native.jpg.json/34/line", 
            "@type": "oa:Annotation", 
            "motivation": "oa:painting", 
            "on": "http://gallica.bnf.fr/iiif/ark:/12148/btv1b9065926v/canvas/f149#xywh=3082,2658,108,85", 
            "resource": {
                "@type": "cnt:ContentAsText", 
                "chars": "AURO", 
                "format": "text/plain"
            }
        }, 
        {
            "@id": "https://manifests.teklia.com/HIMANIS/LAT10919/words_annotations/http_gallica.bnf.fr_iiif_ark:_12148_btv1b9065926v_f149_full_full_0_native.jpg.json/35/line", 
            "@type": "oa:Annotation", 
            "motivation": "oa:painting", 
            "on": "http://gallica.bnf.fr/iiif/ark:/12148/btv1b9065926v/canvas/f149#xywh=3096,3250,0,42", 
            "resource": {
                "@type": "cnt:ContentAsText", 
                "chars": "P", 
                "format": "text/plain"
            }
        }, 
        {
            "@id": "https://manifests.teklia.com/HIMANIS/LAT10919/words_annotations/http_gallica.bnf.fr_iiif_ark:_12148_btv1b9065926v_f149_full_full_0_native.jpg.json/36/line", 
            "@type": "oa:Annotation", 
            "motivation": "oa:painting", 
            "on": "http://gallica.bnf.fr/iiif/ark:/12148/btv1b9065926v/canvas/f149#xywh=3096,3250,0,42", 
            "resource": {
                "@type": "cnt:ContentAsText", 
                "chars": "R", 
                "format": "text/plain"
            }
        }, 
        {
            "@id": "https://manifests.teklia.com/HIMANIS/LAT10919/words_annotations/http_gallica.bnf.fr_iiif_ark:_12148_btv1b9065926v_f149_full_full_0_native.jpg.json/37/line", 
            "@type": "oa:Annotation", 
            "motivation": "oa:painting", 
            "on": "http://gallica.bnf.fr/iiif/ark:/12148/btv1b9065926v/canvas/f149#xywh=3067,1647,0,43", 
            "resource": {
                "@type": "cnt:ContentAsText", 
                "chars": "G", 
                "format": "text/plain"
            }
        }, 
        {
            "@id": "https://manifests.teklia.com/HIMANIS/LAT10919/words_annotations/http_gallica.bnf.fr_iiif_ark:_12148_btv1b9065926v_f149_full_full_0_native.jpg.json/38/line", 
            "@type": "oa:Annotation", 
            "motivation": "oa:painting", 
            "on": "http://gallica.bnf.fr/iiif/ark:/12148/btv1b9065926v/canvas/f149#xywh=2857,993,44,50", 
            "resource": {
                "@type": "cnt:ContentAsText", 
                "chars": "PHILIPP", 
                "format": "text/plain"
            }
        }, 
        {
            "@id": "https://manifests.teklia.com/HIMANIS/LAT10919/words_annotations/http_gallica.bnf.fr_iiif_ark:_12148_btv1b9065926v_f149_full_full_0_native.jpg.json/39/line", 
            "@type": "oa:Annotation", 
            "motivation": "oa:painting", 
            "on": "http://gallica.bnf.fr/iiif/ark:/12148/btv1b9065926v/canvas/f149#xywh=3052,1539,62,93", 
            "resource": {
                "@type": "cnt:ContentAsText", 
                "chars": "TIS", 
                "format": "text/plain"
            }
        }, 
        {
            "@id": "https://manifests.teklia.com/HIMANIS/LAT10919/words_annotations/http_gallica.bnf.fr_iiif_ark:_12148_btv1b9065926v_f149_full_full_0_native.jpg.json/40/line", 
            "@type": "oa:Annotation", 
            "motivation": "oa:painting", 
            "on": "http://gallica.bnf.fr/iiif/ark:/12148/btv1b9065926v/canvas/f149#xywh=2055,76,634,123", 
            "resource": {
                "@type": "cnt:ContentAsText", 
                "chars": "AIO", 
                "format": "text/plain"
            }
        }, 
        {
            "@id": "https://manifests.teklia.com/HIMANIS/LAT10919/words_annotations/http_gallica.bnf.fr_iiif_ark:_12148_btv1b9065926v_f149_full_full_0_native.jpg.json/41/line", 
            "@type": "oa:Annotation", 
            "motivation": "oa:painting", 
            "on": "http://gallica.bnf.fr/iiif/ark:/12148/btv1b9065926v/canvas/f149#xywh=3050,1328,157,130", 
            "resource": {
                "@type": "cnt:ContentAsText", 
                "chars": "TIBUS", 
                "format": "text/plain"
            }
        }, 
        {
            "@id": "https://manifests.teklia.com/HIMANIS/LAT10919/words_annotations/http_gallica.bnf.fr_iiif_ark:_12148_btv1b9065926v_f149_full_full_0_native.jpg.json/42/line", 
            "@type": "oa:Annotation", 
            "motivation": "oa:painting", 
            "on": "http://gallica.bnf.fr/iiif/ark:/12148/btv1b9065926v/canvas/f149#xywh=3051,1283,0,45", 
            "resource": {
                "@type": "cnt:ContentAsText", 
                "chars": "J", 
                "format": "text/plain"
            }
        }, 
        {
            "@id": "https://manifests.teklia.com/HIMANIS/LAT10919/words_annotations/http_gallica.bnf.fr_iiif_ark:_12148_btv1b9065926v_f149_full_full_0_native.jpg.json/43/line", 
            "@type": "oa:Annotation", 
            "motivation": "oa:painting", 
            "on": "http://gallica.bnf.fr/iiif/ark:/12148/btv1b9065926v/canvas/f149#xywh=3037,809,0,32", 
            "resource": {
                "@type": "cnt:ContentAsText", 
                "chars": "J", 
                "format": "text/plain"
            }
        }, 
        {
            "@id": "https://manifests.teklia.com/HIMANIS/LAT10919/words_annotations/http_gallica.bnf.fr_iiif_ark:_12148_btv1b9065926v_f149_full_full_0_native.jpg.json/44/line", 
            "@type": "oa:Annotation", 
            "motivation": "oa:painting", 
            "on": "http://gallica.bnf.fr/iiif/ark:/12148/btv1b9065926v/canvas/f149#xywh=9,3906,3191,148", 
            "resource": {
                "@type": "cnt:ContentAsText", 
                "chars": "APP", 
                "format": "text/plain"
            }
        }, 
        {
            "@id": "https://manifests.teklia.com/HIMANIS/LAT10919/words_annotations/http_gallica.bnf.fr_iiif_ark:_12148_btv1b9065926v_f149_full_full_0_native.jpg.json/45/line", 
            "@type": "oa:Annotation", 
            "motivation": "oa:painting", 
            "on": "http://gallica.bnf.fr/iiif/ark:/12148/btv1b9065926v/canvas/f149#xywh=2858,1083,140,80", 
            "resource": {
                "@type": "cnt:ContentAsText", 
                "chars": "DE", 
                "format": "text/plain"
            }
        }, 
        {
            "@id": "https://manifests.teklia.com/HIMANIS/LAT10919/words_annotations/http_gallica.bnf.fr_iiif_ark:_12148_btv1b9065926v_f149_full_full_0_native.jpg.json/46/line", 
            "@type": "oa:Annotation", 
            "motivation": "oa:painting", 
            "on": "http://gallica.bnf.fr/iiif/ark:/12148/btv1b9065926v/canvas/f149#xywh=3037,809,157,32", 
            "resource": {
                "@type": "cnt:ContentAsText", 
                "chars": "ET", 
                "format": "text/plain"
            }
        }, 
        {
            "@id": "https://manifests.teklia.com/HIMANIS/LAT10919/words_annotations/http_gallica.bnf.fr_iiif_ark:_12148_btv1b9065926v_f149_full_full_0_native.jpg.json/47/line", 
            "@type": "oa:Annotation", 
            "motivation": "oa:painting", 
            "on": "http://gallica.bnf.fr/iiif/ark:/12148/btv1b9065926v/canvas/f149#xywh=3068,1981,0,90", 
            "resource": {
                "@type": "cnt:ContentAsText", 
                "chars": "M", 
                "format": "text/plain"
            }
        }, 
        {
            "@id": "https://manifests.teklia.com/HIMANIS/LAT10919/words_annotations/http_gallica.bnf.fr_iiif_ark:_12148_btv1b9065926v_f149_full_full_0_native.jpg.json/48/line", 
            "@type": "oa:Annotation", 
            "motivation": "oa:painting", 
            "on": "http://gallica.bnf.fr/iiif/ark:/12148/btv1b9065926v/canvas/f149#xywh=3086,2743,114,95", 
            "resource": {
                "@type": "cnt:ContentAsText", 
                "chars": "BIS", 
                "format": "text/plain"
            }
        }, 
        {
            "@id": "https://manifests.teklia.com/HIMANIS/LAT10919/words_annotations/http_gallica.bnf.fr_iiif_ark:_12148_btv1b9065926v_f149_full_full_0_native.jpg.json/49/line", 
            "@type": "oa:Annotation", 
            "motivation": "oa:painting", 
            "on": "http://gallica.bnf.fr/iiif/ark:/12148/btv1b9065926v/canvas/f149#xywh=3069,2206,0,60", 
            "resource": {
                "@type": "cnt:ContentAsText", 
                "chars": "C", 
                "format": "text/plain"
            }
        }, 
        {
            "@id": "https://manifests.teklia.com/HIMANIS/LAT10919/words_annotations/http_gallica.bnf.fr_iiif_ark:_12148_btv1b9065926v_f149_full_full_0_native.jpg.json/50/line", 
            "@type": "oa:Annotation", 
            "motivation": "oa:painting", 
            "on": "http://gallica.bnf.fr/iiif/ark:/12148/btv1b9065926v/canvas/f149#xywh=2720,76,479,123", 
            "resource": {
                "@type": "cnt:ContentAsText", 
                "chars": "PER", 
                "format": "text/plain"
            }
        }
    ]
}