{
    "@context": "http://iiif.io/api/presentation/2/context.json", 
    "@id": "https://manifests.teklia.com/HIMANIS/LAT10919/words_annotations/http_gallica.bnf.fr_iiif_ark:_12148_btv1b9065926v_f2_full_full_0_native.jpg.json", 
    "@type": "sc:AnnotationList", 
    "resources": [
        {
            "@id": "https://manifests.teklia.com/HIMANIS/LAT10919/words_annotations/http_gallica.bnf.fr_iiif_ark:_12148_btv1b9065926v_f2_full_full_0_native.jpg.json/0/line", 
            "@type": "oa:Annotation", 
            "motivation": "oa:painting", 
            "on": "http://gallica.bnf.fr/iiif/ark:/12148/btv1b9065926v/canvas/f2#xywh=165,3692,159,72", 
            "resource": {
                "@type": "cnt:ContentAsText", 
                "chars": "BALEHAN", 
                "format": "text/plain"
            }
        }, 
        {
            "@id": "https://manifests.teklia.com/HIMANIS/LAT10919/words_annotations/http_gallica.bnf.fr_iiif_ark:_12148_btv1b9065926v_f2_full_full_0_native.jpg.json/1/line", 
            "@type": "oa:Annotation", 
            "motivation": "oa:painting", 
            "on": "http://gallica.bnf.fr/iiif/ark:/12148/btv1b9065926v/canvas/f2#xywh=1836,3844,1021,68", 
            "resource": {
                "@type": "cnt:ContentAsText", 
                "chars": "ET", 
                "format": "text/plain"
            }
        }, 
        {
            "@id": "https://manifests.teklia.com/HIMANIS/LAT10919/words_annotations/http_gallica.bnf.fr_iiif_ark:_12148_btv1b9065926v_f2_full_full_0_native.jpg.json/2/line", 
            "@type": "oa:Annotation", 
            "motivation": "oa:painting", 
            "on": "http://gallica.bnf.fr/iiif/ark:/12148/btv1b9065926v/canvas/f2#xywh=219,3496,148,40", 
            "resource": {
                "@type": "cnt:ContentAsText", 
                "chars": "DE", 
                "format": "text/plain"
            }
        }, 
        {
            "@id": "https://manifests.teklia.com/HIMANIS/LAT10919/words_annotations/http_gallica.bnf.fr_iiif_ark:_12148_btv1b9065926v_f2_full_full_0_native.jpg.json/3/line", 
            "@type": "oa:Annotation", 
            "motivation": "oa:painting", 
            "on": "http://gallica.bnf.fr/iiif/ark:/12148/btv1b9065926v/canvas/f2#xywh=2720,3904,0,102", 
            "resource": {
                "@type": "cnt:ContentAsText", 
                "chars": "M", 
                "format": "text/plain"
            }
        }, 
        {
            "@id": "https://manifests.teklia.com/HIMANIS/LAT10919/words_annotations/http_gallica.bnf.fr_iiif_ark:_12148_btv1b9065926v_f2_full_full_0_native.jpg.json/4/line", 
            "@type": "oa:Annotation", 
            "motivation": "oa:painting", 
            "on": "http://gallica.bnf.fr/iiif/ark:/12148/btv1b9065926v/canvas/f2#xywh=935,2554,68,180", 
            "resource": {
                "@type": "cnt:ContentAsText", 
                "chars": "PER", 
                "format": "text/plain"
            }
        }, 
        {
            "@id": "https://manifests.teklia.com/HIMANIS/LAT10919/words_annotations/http_gallica.bnf.fr_iiif_ark:_12148_btv1b9065926v_f2_full_full_0_native.jpg.json/5/line", 
            "@type": "oa:Annotation", 
            "motivation": "oa:painting", 
            "on": "http://gallica.bnf.fr/iiif/ark:/12148/btv1b9065926v/canvas/f2#xywh=935,2554,68,180", 
            "resource": {
                "@type": "cnt:ContentAsText", 
                "chars": "PAR", 
                "format": "text/plain"
            }
        }, 
        {
            "@id": "https://manifests.teklia.com/HIMANIS/LAT10919/words_annotations/http_gallica.bnf.fr_iiif_ark:_12148_btv1b9065926v_f2_full_full_0_native.jpg.json/6/line", 
            "@type": "oa:Annotation", 
            "motivation": "oa:painting", 
            "on": "http://gallica.bnf.fr/iiif/ark:/12148/btv1b9065926v/canvas/f2#xywh=169,2554,597,180", 
            "resource": {
                "@type": "cnt:ContentAsText", 
                "chars": "ET", 
                "format": "text/plain"
            }
        }, 
        {
            "@id": "https://manifests.teklia.com/HIMANIS/LAT10919/words_annotations/http_gallica.bnf.fr_iiif_ark:_12148_btv1b9065926v_f2_full_full_0_native.jpg.json/7/line", 
            "@type": "oa:Annotation", 
            "motivation": "oa:painting", 
            "on": "http://gallica.bnf.fr/iiif/ark:/12148/btv1b9065926v/canvas/f2#xywh=2859,3576,121,40", 
            "resource": {
                "@type": "cnt:ContentAsText", 
                "chars": "DE", 
                "format": "text/plain"
            }
        }, 
        {
            "@id": "https://manifests.teklia.com/HIMANIS/LAT10919/words_annotations/http_gallica.bnf.fr_iiif_ark:_12148_btv1b9065926v_f2_full_full_0_native.jpg.json/8/line", 
            "@type": "oa:Annotation", 
            "motivation": "oa:painting", 
            "on": "http://gallica.bnf.fr/iiif/ark:/12148/btv1b9065926v/canvas/f2#xywh=166,3756,1816,132", 
            "resource": {
                "@type": "cnt:ContentAsText", 
                "chars": "LONS", 
                "format": "text/plain"
            }
        }, 
        {
            "@id": "https://manifests.teklia.com/HIMANIS/LAT10919/words_annotations/http_gallica.bnf.fr_iiif_ark:_12148_btv1b9065926v_f2_full_full_0_native.jpg.json/9/line", 
            "@type": "oa:Annotation", 
            "motivation": "oa:painting", 
            "on": "http://gallica.bnf.fr/iiif/ark:/12148/btv1b9065926v/canvas/f2#xywh=195,3420,0,76", 
            "resource": {
                "@type": "cnt:ContentAsText", 
                "chars": "J", 
                "format": "text/plain"
            }
        }, 
        {
            "@id": "https://manifests.teklia.com/HIMANIS/LAT10919/words_annotations/http_gallica.bnf.fr_iiif_ark:_12148_btv1b9065926v_f2_full_full_0_native.jpg.json/10/line", 
            "@type": "oa:Annotation", 
            "motivation": "oa:painting", 
            "on": "http://gallica.bnf.fr/iiif/ark:/12148/btv1b9065926v/canvas/f2#xywh=2863,3540,119,36", 
            "resource": {
                "@type": "cnt:ContentAsText", 
                "chars": "DE", 
                "format": "text/plain"
            }
        }, 
        {
            "@id": "https://manifests.teklia.com/HIMANIS/LAT10919/words_annotations/http_gallica.bnf.fr_iiif_ark:_12148_btv1b9065926v_f2_full_full_0_native.jpg.json/11/line", 
            "@type": "oa:Annotation", 
            "motivation": "oa:painting", 
            "on": "http://gallica.bnf.fr/iiif/ark:/12148/btv1b9065926v/canvas/f2#xywh=578,1014,0,35", 
            "resource": {
                "@type": "cnt:ContentAsText", 
                "chars": "J", 
                "format": "text/plain"
            }
        }, 
        {
            "@id": "https://manifests.teklia.com/HIMANIS/LAT10919/words_annotations/http_gallica.bnf.fr_iiif_ark:_12148_btv1b9065926v_f2_full_full_0_native.jpg.json/12/line", 
            "@type": "oa:Annotation", 
            "motivation": "oa:painting", 
            "on": "http://gallica.bnf.fr/iiif/ark:/12148/btv1b9065926v/canvas/f2#xywh=654,2554,112,180", 
            "resource": {
                "@type": "cnt:ContentAsText", 
                "chars": "EST", 
                "format": "text/plain"
            }
        }, 
        {
            "@id": "https://manifests.teklia.com/HIMANIS/LAT10919/words_annotations/http_gallica.bnf.fr_iiif_ark:_12148_btv1b9065926v_f2_full_full_0_native.jpg.json/13/line", 
            "@type": "oa:Annotation", 
            "motivation": "oa:painting", 
            "on": "http://gallica.bnf.fr/iiif/ark:/12148/btv1b9065926v/canvas/f2#xywh=578,1014,0,35", 
            "resource": {
                "@type": "cnt:ContentAsText", 
                "chars": "P", 
                "format": "text/plain"
            }
        }, 
        {
            "@id": "https://manifests.teklia.com/HIMANIS/LAT10919/words_annotations/http_gallica.bnf.fr_iiif_ark:_12148_btv1b9065926v_f2_full_full_0_native.jpg.json/14/line", 
            "@type": "oa:Annotation", 
            "motivation": "oa:painting", 
            "on": "http://gallica.bnf.fr/iiif/ark:/12148/btv1b9065926v/canvas/f2#xywh=166,3756,1136,132", 
            "resource": {
                "@type": "cnt:ContentAsText", 
                "chars": "LES", 
                "format": "text/plain"
            }
        }, 
        {
            "@id": "https://manifests.teklia.com/HIMANIS/LAT10919/words_annotations/http_gallica.bnf.fr_iiif_ark:_12148_btv1b9065926v_f2_full_full_0_native.jpg.json/15/line", 
            "@type": "oa:Annotation", 
            "motivation": "oa:painting", 
            "on": "http://gallica.bnf.fr/iiif/ark:/12148/btv1b9065926v/canvas/f2#xywh=2882,2289,91,30", 
            "resource": {
                "@type": "cnt:ContentAsText", 
                "chars": "DE", 
                "format": "text/plain"
            }
        }, 
        {
            "@id": "https://manifests.teklia.com/HIMANIS/LAT10919/words_annotations/http_gallica.bnf.fr_iiif_ark:_12148_btv1b9065926v_f2_full_full_0_native.jpg.json/16/line", 
            "@type": "oa:Annotation", 
            "motivation": "oa:painting", 
            "on": "http://gallica.bnf.fr/iiif/ark:/12148/btv1b9065926v/canvas/f2#xywh=1800,1294,86,60", 
            "resource": {
                "@type": "cnt:ContentAsText", 
                "chars": "QU", 
                "format": "text/plain"
            }
        }, 
        {
            "@id": "https://manifests.teklia.com/HIMANIS/LAT10919/words_annotations/http_gallica.bnf.fr_iiif_ark:_12148_btv1b9065926v_f2_full_full_0_native.jpg.json/17/line", 
            "@type": "oa:Annotation", 
            "motivation": "oa:painting", 
            "on": "http://gallica.bnf.fr/iiif/ark:/12148/btv1b9065926v/canvas/f2#xywh=1445,1464,0,120", 
            "resource": {
                "@type": "cnt:ContentAsText", 
                "chars": "J", 
                "format": "text/plain"
            }
        }, 
        {
            "@id": "https://manifests.teklia.com/HIMANIS/LAT10919/words_annotations/http_gallica.bnf.fr_iiif_ark:_12148_btv1b9065926v_f2_full_full_0_native.jpg.json/18/line", 
            "@type": "oa:Annotation", 
            "motivation": "oa:painting", 
            "on": "http://gallica.bnf.fr/iiif/ark:/12148/btv1b9065926v/canvas/f2#xywh=1445,1464,0,120", 
            "resource": {
                "@type": "cnt:ContentAsText", 
                "chars": "P", 
                "format": "text/plain"
            }
        }, 
        {
            "@id": "https://manifests.teklia.com/HIMANIS/LAT10919/words_annotations/http_gallica.bnf.fr_iiif_ark:_12148_btv1b9065926v_f2_full_full_0_native.jpg.json/19/line", 
            "@type": "oa:Annotation", 
            "motivation": "oa:painting", 
            "on": "http://gallica.bnf.fr/iiif/ark:/12148/btv1b9065926v/canvas/f2#xywh=169,2554,485,180", 
            "resource": {
                "@type": "cnt:ContentAsText", 
                "chars": "LIBUS", 
                "format": "text/plain"
            }
        }, 
        {
            "@id": "https://manifests.teklia.com/HIMANIS/LAT10919/words_annotations/http_gallica.bnf.fr_iiif_ark:_12148_btv1b9065926v_f2_full_full_0_native.jpg.json/20/line", 
            "@type": "oa:Annotation", 
            "motivation": "oa:painting", 
            "on": "http://gallica.bnf.fr/iiif/ark:/12148/btv1b9065926v/canvas/f2#xywh=169,2554,564,180", 
            "resource": {
                "@type": "cnt:ContentAsText", 
                "chars": "LIBET", 
                "format": "text/plain"
            }
        }, 
        {
            "@id": "https://manifests.teklia.com/HIMANIS/LAT10919/words_annotations/http_gallica.bnf.fr_iiif_ark:_12148_btv1b9065926v_f2_full_full_0_native.jpg.json/21/line", 
            "@type": "oa:Annotation", 
            "motivation": "oa:painting", 
            "on": "http://gallica.bnf.fr/iiif/ark:/12148/btv1b9065926v/canvas/f2#xywh=244,2144,842,45", 
            "resource": {
                "@type": "cnt:ContentAsText", 
                "chars": "ANNO", 
                "format": "text/plain"
            }
        }, 
        {
            "@id": "https://manifests.teklia.com/HIMANIS/LAT10919/words_annotations/http_gallica.bnf.fr_iiif_ark:_12148_btv1b9065926v_f2_full_full_0_native.jpg.json/22/line", 
            "@type": "oa:Annotation", 
            "motivation": "oa:painting", 
            "on": "http://gallica.bnf.fr/iiif/ark:/12148/btv1b9065926v/canvas/f2#xywh=402,3496,16,40", 
            "resource": {
                "@type": "cnt:ContentAsText", 
                "chars": "IL", 
                "format": "text/plain"
            }
        }, 
        {
            "@id": "https://manifests.teklia.com/HIMANIS/LAT10919/words_annotations/http_gallica.bnf.fr_iiif_ark:_12148_btv1b9065926v_f2_full_full_0_native.jpg.json/23/line", 
            "@type": "oa:Annotation", 
            "motivation": "oa:painting", 
            "on": "http://gallica.bnf.fr/iiif/ark:/12148/btv1b9065926v/canvas/f2#xywh=219,3496,176,40", 
            "resource": {
                "@type": "cnt:ContentAsText", 
                "chars": "ET", 
                "format": "text/plain"
            }
        }, 
        {
            "@id": "https://manifests.teklia.com/HIMANIS/LAT10919/words_annotations/http_gallica.bnf.fr_iiif_ark:_12148_btv1b9065926v_f2_full_full_0_native.jpg.json/24/line", 
            "@type": "oa:Annotation", 
            "motivation": "oa:painting", 
            "on": "http://gallica.bnf.fr/iiif/ark:/12148/btv1b9065926v/canvas/f2#xywh=219,3496,168,40", 
            "resource": {
                "@type": "cnt:ContentAsText", 
                "chars": "QUE", 
                "format": "text/plain"
            }
        }, 
        {
            "@id": "https://manifests.teklia.com/HIMANIS/LAT10919/words_annotations/http_gallica.bnf.fr_iiif_ark:_12148_btv1b9065926v_f2_full_full_0_native.jpg.json/25/line", 
            "@type": "oa:Annotation", 
            "motivation": "oa:painting", 
            "on": "http://gallica.bnf.fr/iiif/ark:/12148/btv1b9065926v/canvas/f2#xywh=935,2554,79,180", 
            "resource": {
                "@type": "cnt:ContentAsText", 
                "chars": "PRO", 
                "format": "text/plain"
            }
        }, 
        {
            "@id": "https://manifests.teklia.com/HIMANIS/LAT10919/words_annotations/http_gallica.bnf.fr_iiif_ark:_12148_btv1b9065926v_f2_full_full_0_native.jpg.json/26/line", 
            "@type": "oa:Annotation", 
            "motivation": "oa:painting", 
            "on": "http://gallica.bnf.fr/iiif/ark:/12148/btv1b9065926v/canvas/f2#xywh=166,3756,1012,132", 
            "resource": {
                "@type": "cnt:ContentAsText", 
                "chars": "ELLES", 
                "format": "text/plain"
            }
        }, 
        {
            "@id": "https://manifests.teklia.com/HIMANIS/LAT10919/words_annotations/http_gallica.bnf.fr_iiif_ark:_12148_btv1b9065926v_f2_full_full_0_native.jpg.json/27/line", 
            "@type": "oa:Annotation", 
            "motivation": "oa:painting", 
            "on": "http://gallica.bnf.fr/iiif/ark:/12148/btv1b9065926v/canvas/f2#xywh=2044,48,691,102", 
            "resource": {
                "@type": "cnt:ContentAsText", 
                "chars": "DE", 
                "format": "text/plain"
            }
        }, 
        {
            "@id": "https://manifests.teklia.com/HIMANIS/LAT10919/words_annotations/http_gallica.bnf.fr_iiif_ark:_12148_btv1b9065926v_f2_full_full_0_native.jpg.json/28/line", 
            "@type": "oa:Annotation", 
            "motivation": "oa:painting", 
            "on": "http://gallica.bnf.fr/iiif/ark:/12148/btv1b9065926v/canvas/f2#xywh=1800,1294,0,60", 
            "resource": {
                "@type": "cnt:ContentAsText", 
                "chars": "J", 
                "format": "text/plain"
            }
        }, 
        {
            "@id": "https://manifests.teklia.com/HIMANIS/LAT10919/words_annotations/http_gallica.bnf.fr_iiif_ark:_12148_btv1b9065926v_f2_full_full_0_native.jpg.json/29/line", 
            "@type": "oa:Annotation", 
            "motivation": "oa:painting", 
            "on": "http://gallica.bnf.fr/iiif/ark:/12148/btv1b9065926v/canvas/f2#xywh=1365,1369,546,95", 
            "resource": {
                "@type": "cnt:ContentAsText", 
                "chars": "PHILIPP", 
                "format": "text/plain"
            }
        }, 
        {
            "@id": "https://manifests.teklia.com/HIMANIS/LAT10919/words_annotations/http_gallica.bnf.fr_iiif_ark:_12148_btv1b9065926v_f2_full_full_0_native.jpg.json/30/line", 
            "@type": "oa:Annotation", 
            "motivation": "oa:painting", 
            "on": "http://gallica.bnf.fr/iiif/ark:/12148/btv1b9065926v/canvas/f2#xywh=146,53,89,48", 
            "resource": {
                "@type": "cnt:ContentAsText", 
                "chars": "LE", 
                "format": "text/plain"
            }
        }, 
        {
            "@id": "https://manifests.teklia.com/HIMANIS/LAT10919/words_annotations/http_gallica.bnf.fr_iiif_ark:_12148_btv1b9065926v_f2_full_full_0_native.jpg.json/31/line", 
            "@type": "oa:Annotation", 
            "motivation": "oa:painting", 
            "on": "http://gallica.bnf.fr/iiif/ark:/12148/btv1b9065926v/canvas/f2#xywh=146,53,89,48", 
            "resource": {
                "@type": "cnt:ContentAsText", 
                "chars": "DE", 
                "format": "text/plain"
            }
        }, 
        {
            "@id": "https://manifests.teklia.com/HIMANIS/LAT10919/words_annotations/http_gallica.bnf.fr_iiif_ark:_12148_btv1b9065926v_f2_full_full_0_native.jpg.json/32/line", 
            "@type": "oa:Annotation", 
            "motivation": "oa:painting", 
            "on": "http://gallica.bnf.fr/iiif/ark:/12148/btv1b9065926v/canvas/f2#xywh=2553,197,160,91", 
            "resource": {
                "@type": "cnt:ContentAsText", 
                "chars": "DE", 
                "format": "text/plain"
            }
        }, 
        {
            "@id": "https://manifests.teklia.com/HIMANIS/LAT10919/words_annotations/http_gallica.bnf.fr_iiif_ark:_12148_btv1b9065926v_f2_full_full_0_native.jpg.json/33/line", 
            "@type": "oa:Annotation", 
            "motivation": "oa:painting", 
            "on": "http://gallica.bnf.fr/iiif/ark:/12148/btv1b9065926v/canvas/f2#xywh=2895,2314,0,55", 
            "resource": {
                "@type": "cnt:ContentAsText", 
                "chars": "J", 
                "format": "text/plain"
            }
        }, 
        {
            "@id": "https://manifests.teklia.com/HIMANIS/LAT10919/words_annotations/http_gallica.bnf.fr_iiif_ark:_12148_btv1b9065926v_f2_full_full_0_native.jpg.json/34/line", 
            "@type": "oa:Annotation", 
            "motivation": "oa:painting", 
            "on": "http://gallica.bnf.fr/iiif/ark:/12148/btv1b9065926v/canvas/f2#xywh=2882,2289,99,30", 
            "resource": {
                "@type": "cnt:ContentAsText", 
                "chars": "ET", 
                "format": "text/plain"
            }
        }, 
        {
            "@id": "https://manifests.teklia.com/HIMANIS/LAT10919/words_annotations/http_gallica.bnf.fr_iiif_ark:_12148_btv1b9065926v_f2_full_full_0_native.jpg.json/35/line", 
            "@type": "oa:Annotation", 
            "motivation": "oa:painting", 
            "on": "http://gallica.bnf.fr/iiif/ark:/12148/btv1b9065926v/canvas/f2#xywh=163,2912,0,68", 
            "resource": {
                "@type": "cnt:ContentAsText", 
                "chars": "C", 
                "format": "text/plain"
            }
        }, 
        {
            "@id": "https://manifests.teklia.com/HIMANIS/LAT10919/words_annotations/http_gallica.bnf.fr_iiif_ark:_12148_btv1b9065926v_f2_full_full_0_native.jpg.json/36/line", 
            "@type": "oa:Annotation", 
            "motivation": "oa:painting", 
            "on": "http://gallica.bnf.fr/iiif/ark:/12148/btv1b9065926v/canvas/f2#xywh=406,3692,186,72", 
            "resource": {
                "@type": "cnt:ContentAsText", 
                "chars": "PHILIPPES", 
                "format": "text/plain"
            }
        }, 
        {
            "@id": "https://manifests.teklia.com/HIMANIS/LAT10919/words_annotations/http_gallica.bnf.fr_iiif_ark:_12148_btv1b9065926v_f2_full_full_0_native.jpg.json/37/line", 
            "@type": "oa:Annotation", 
            "motivation": "oa:painting", 
            "on": "http://gallica.bnf.fr/iiif/ark:/12148/btv1b9065926v/canvas/f2#xywh=163,2912,0,68", 
            "resource": {
                "@type": "cnt:ContentAsText", 
                "chars": "J", 
                "format": "text/plain"
            }
        }, 
        {
            "@id": "https://manifests.teklia.com/HIMANIS/LAT10919/words_annotations/http_gallica.bnf.fr_iiif_ark:_12148_btv1b9065926v_f2_full_full_0_native.jpg.json/38/line", 
            "@type": "oa:Annotation", 
            "motivation": "oa:painting", 
            "on": "http://gallica.bnf.fr/iiif/ark:/12148/btv1b9065926v/canvas/f2#xywh=2859,3024,128,52", 
            "resource": {
                "@type": "cnt:ContentAsText", 
                "chars": "DE", 
                "format": "text/plain"
            }
        }, 
        {
            "@id": "https://manifests.teklia.com/HIMANIS/LAT10919/words_annotations/http_gallica.bnf.fr_iiif_ark:_12148_btv1b9065926v_f2_full_full_0_native.jpg.json/39/line", 
            "@type": "oa:Annotation", 
            "motivation": "oa:painting", 
            "on": "http://gallica.bnf.fr/iiif/ark:/12148/btv1b9065926v/canvas/f2#xywh=1138,2554,248,180", 
            "resource": {
                "@type": "cnt:ContentAsText", 
                "chars": "AMPL", 
                "format": "text/plain"
            }
        }, 
        {
            "@id": "https://manifests.teklia.com/HIMANIS/LAT10919/words_annotations/http_gallica.bnf.fr_iiif_ark:_12148_btv1b9065926v_f2_full_full_0_native.jpg.json/40/line", 
            "@type": "oa:Annotation", 
            "motivation": "oa:painting", 
            "on": "http://gallica.bnf.fr/iiif/ark:/12148/btv1b9065926v/canvas/f2#xywh=2868,3380,0,60", 
            "resource": {
                "@type": "cnt:ContentAsText", 
                "chars": "H", 
                "format": "text/plain"
            }
        }, 
        {
            "@id": "https://manifests.teklia.com/HIMANIS/LAT10919/words_annotations/http_gallica.bnf.fr_iiif_ark:_12148_btv1b9065926v_f2_full_full_0_native.jpg.json/41/line", 
            "@type": "oa:Annotation", 
            "motivation": "oa:painting", 
            "on": "http://gallica.bnf.fr/iiif/ark:/12148/btv1b9065926v/canvas/f2#xywh=2868,3380,0,60", 
            "resource": {
                "@type": "cnt:ContentAsText", 
                "chars": "J", 
                "format": "text/plain"
            }
        }, 
        {
            "@id": "https://manifests.teklia.com/HIMANIS/LAT10919/words_annotations/http_gallica.bnf.fr_iiif_ark:_12148_btv1b9065926v_f2_full_full_0_native.jpg.json/42/line", 
            "@type": "oa:Annotation", 
            "motivation": "oa:painting", 
            "on": "http://gallica.bnf.fr/iiif/ark:/12148/btv1b9065926v/canvas/f2#xywh=2868,3380,0,60", 
            "resource": {
                "@type": "cnt:ContentAsText", 
                "chars": "S", 
                "format": "text/plain"
            }
        }, 
        {
            "@id": "https://manifests.teklia.com/HIMANIS/LAT10919/words_annotations/http_gallica.bnf.fr_iiif_ark:_12148_btv1b9065926v_f2_full_full_0_native.jpg.json/43/line", 
            "@type": "oa:Annotation", 
            "motivation": "oa:painting", 
            "on": "http://gallica.bnf.fr/iiif/ark:/12148/btv1b9065926v/canvas/f2#xywh=3,53,220,48", 
            "resource": {
                "@type": "cnt:ContentAsText", 
                "chars": "LES", 
                "format": "text/plain"
            }
        }, 
        {
            "@id": "https://manifests.teklia.com/HIMANIS/LAT10919/words_annotations/http_gallica.bnf.fr_iiif_ark:_12148_btv1b9065926v_f2_full_full_0_native.jpg.json/44/line", 
            "@type": "oa:Annotation", 
            "motivation": "oa:painting", 
            "on": "http://gallica.bnf.fr/iiif/ark:/12148/btv1b9065926v/canvas/f2#xywh=0,4031,3165,29", 
            "resource": {
                "@type": "cnt:ContentAsText", 
                "chars": "DECESSENTES", 
                "format": "text/plain"
            }
        }, 
        {
            "@id": "https://manifests.teklia.com/HIMANIS/LAT10919/words_annotations/http_gallica.bnf.fr_iiif_ark:_12148_btv1b9065926v_f2_full_full_0_native.jpg.json/45/line", 
            "@type": "oa:Annotation", 
            "motivation": "oa:painting", 
            "on": "http://gallica.bnf.fr/iiif/ark:/12148/btv1b9065926v/canvas/f2#xywh=2689,3716,213,72", 
            "resource": {
                "@type": "cnt:ContentAsText", 
                "chars": "LES", 
                "format": "text/plain"
            }
        }, 
        {
            "@id": "https://manifests.teklia.com/HIMANIS/LAT10919/words_annotations/http_gallica.bnf.fr_iiif_ark:_12148_btv1b9065926v_f2_full_full_0_native.jpg.json/46/line", 
            "@type": "oa:Annotation", 
            "motivation": "oa:painting", 
            "on": "http://gallica.bnf.fr/iiif/ark:/12148/btv1b9065926v/canvas/f2#xywh=178,1949,673,105", 
            "resource": {
                "@type": "cnt:ContentAsText", 
                "chars": "DE", 
                "format": "text/plain"
            }
        }, 
        {
            "@id": "https://manifests.teklia.com/HIMANIS/LAT10919/words_annotations/http_gallica.bnf.fr_iiif_ark:_12148_btv1b9065926v_f2_full_full_0_native.jpg.json/47/line", 
            "@type": "oa:Annotation", 
            "motivation": "oa:painting", 
            "on": "http://gallica.bnf.fr/iiif/ark:/12148/btv1b9065926v/canvas/f2#xywh=3,53,131,48", 
            "resource": {
                "@type": "cnt:ContentAsText", 
                "chars": "ET", 
                "format": "text/plain"
            }
        }, 
        {
            "@id": "https://manifests.teklia.com/HIMANIS/LAT10919/words_annotations/http_gallica.bnf.fr_iiif_ark:_12148_btv1b9065926v_f2_full_full_0_native.jpg.json/48/line", 
            "@type": "oa:Annotation", 
            "motivation": "oa:painting", 
            "on": "http://gallica.bnf.fr/iiif/ark:/12148/btv1b9065926v/canvas/f2#xywh=2553,197,172,91", 
            "resource": {
                "@type": "cnt:ContentAsText", 
                "chars": "ET", 
                "format": "text/plain"
            }
        }, 
        {
            "@id": "https://manifests.teklia.com/HIMANIS/LAT10919/words_annotations/http_gallica.bnf.fr_iiif_ark:_12148_btv1b9065926v_f2_full_full_0_native.jpg.json/49/line", 
            "@type": "oa:Annotation", 
            "motivation": "oa:painting", 
            "on": "http://gallica.bnf.fr/iiif/ark:/12148/btv1b9065926v/canvas/f2#xywh=402,3496,215,40", 
            "resource": {
                "@type": "cnt:ContentAsText", 
                "chars": "CCC", 
                "format": "text/plain"
            }
        }, 
        {
            "@id": "https://manifests.teklia.com/HIMANIS/LAT10919/words_annotations/http_gallica.bnf.fr_iiif_ark:_12148_btv1b9065926v_f2_full_full_0_native.jpg.json/50/line", 
            "@type": "oa:Annotation", 
            "motivation": "oa:painting", 
            "on": "http://gallica.bnf.fr/iiif/ark:/12148/btv1b9065926v/canvas/f2#xywh=166,3756,1816,132", 
            "resource": {
                "@type": "cnt:ContentAsText", 
                "chars": "LON", 
                "format": "text/plain"
            }
        }, 
        {
            "@id": "https://manifests.teklia.com/HIMANIS/LAT10919/words_annotations/http_gallica.bnf.fr_iiif_ark:_12148_btv1b9065926v_f2_full_full_0_native.jpg.json/51/line", 
            "@type": "oa:Annotation", 
            "motivation": "oa:painting", 
            "on": "http://gallica.bnf.fr/iiif/ark:/12148/btv1b9065926v/canvas/f2#xywh=1128,3756,174,132", 
            "resource": {
                "@type": "cnt:ContentAsText", 
                "chars": "DE", 
                "format": "text/plain"
            }
        }, 
        {
            "@id": "https://manifests.teklia.com/HIMANIS/LAT10919/words_annotations/http_gallica.bnf.fr_iiif_ark:_12148_btv1b9065926v_f2_full_full_0_native.jpg.json/52/line", 
            "@type": "oa:Annotation", 
            "motivation": "oa:painting", 
            "on": "http://gallica.bnf.fr/iiif/ark:/12148/btv1b9065926v/canvas/f2#xywh=1133,3644,351,60", 
            "resource": {
                "@type": "cnt:ContentAsText", 
                "chars": "DE", 
                "format": "text/plain"
            }
        }, 
        {
            "@id": "https://manifests.teklia.com/HIMANIS/LAT10919/words_annotations/http_gallica.bnf.fr_iiif_ark:_12148_btv1b9065926v_f2_full_full_0_native.jpg.json/53/line", 
            "@type": "oa:Annotation", 
            "motivation": "oa:painting", 
            "on": "http://gallica.bnf.fr/iiif/ark:/12148/btv1b9065926v/canvas/f2#xywh=733,2554,146,180", 
            "resource": {
                "@type": "cnt:ContentAsText", 
                "chars": "DOMUM", 
                "format": "text/plain"
            }
        }, 
        {
            "@id": "https://manifests.teklia.com/HIMANIS/LAT10919/words_annotations/http_gallica.bnf.fr_iiif_ark:_12148_btv1b9065926v_f2_full_full_0_native.jpg.json/54/line", 
            "@type": "oa:Annotation", 
            "motivation": "oa:painting", 
            "on": "http://gallica.bnf.fr/iiif/ark:/12148/btv1b9065926v/canvas/f2#xywh=1133,3644,373,60", 
            "resource": {
                "@type": "cnt:ContentAsText", 
                "chars": "LES", 
                "format": "text/plain"
            }
        }, 
        {
            "@id": "https://manifests.teklia.com/HIMANIS/LAT10919/words_annotations/http_gallica.bnf.fr_iiif_ark:_12148_btv1b9065926v_f2_full_full_0_native.jpg.json/55/line", 
            "@type": "oa:Annotation", 
            "motivation": "oa:painting", 
            "on": "http://gallica.bnf.fr/iiif/ark:/12148/btv1b9065926v/canvas/f2#xywh=166,3756,1808,132", 
            "resource": {
                "@type": "cnt:ContentAsText", 
                "chars": "LOONS", 
                "format": "text/plain"
            }
        }, 
        {
            "@id": "https://manifests.teklia.com/HIMANIS/LAT10919/words_annotations/http_gallica.bnf.fr_iiif_ark:_12148_btv1b9065926v_f2_full_full_0_native.jpg.json/56/line", 
            "@type": "oa:Annotation", 
            "motivation": "oa:painting", 
            "on": "http://gallica.bnf.fr/iiif/ark:/12148/btv1b9065926v/canvas/f2#xywh=1836,3844,1111,68", 
            "resource": {
                "@type": "cnt:ContentAsText", 
                "chars": "LE", 
                "format": "text/plain"
            }
        }, 
        {
            "@id": "https://manifests.teklia.com/HIMANIS/LAT10919/words_annotations/http_gallica.bnf.fr_iiif_ark:_12148_btv1b9065926v_f2_full_full_0_native.jpg.json/57/line", 
            "@type": "oa:Annotation", 
            "motivation": "oa:painting", 
            "on": "http://gallica.bnf.fr/iiif/ark:/12148/btv1b9065926v/canvas/f2#xywh=2956,3844,198,68", 
            "resource": {
                "@type": "cnt:ContentAsText", 
                "chars": "DE", 
                "format": "text/plain"
            }
        }, 
        {
            "@id": "https://manifests.teklia.com/HIMANIS/LAT10919/words_annotations/http_gallica.bnf.fr_iiif_ark:_12148_btv1b9065926v_f2_full_full_0_native.jpg.json/58/line", 
            "@type": "oa:Annotation", 
            "motivation": "oa:painting", 
            "on": "http://gallica.bnf.fr/iiif/ark:/12148/btv1b9065926v/canvas/f2#xywh=842,3692,55,72", 
            "resource": {
                "@type": "cnt:ContentAsText", 
                "chars": "DE", 
                "format": "text/plain"
            }
        }, 
        {
            "@id": "https://manifests.teklia.com/HIMANIS/LAT10919/words_annotations/http_gallica.bnf.fr_iiif_ark:_12148_btv1b9065926v_f2_full_full_0_native.jpg.json/59/line", 
            "@type": "oa:Annotation", 
            "motivation": "oa:painting", 
            "on": "http://gallica.bnf.fr/iiif/ark:/12148/btv1b9065926v/canvas/f2#xywh=1681,1039,0,65", 
            "resource": {
                "@type": "cnt:ContentAsText", 
                "chars": "P", 
                "format": "text/plain"
            }
        }, 
        {
            "@id": "https://manifests.teklia.com/HIMANIS/LAT10919/words_annotations/http_gallica.bnf.fr_iiif_ark:_12148_btv1b9065926v_f2_full_full_0_native.jpg.json/60/line", 
            "@type": "oa:Annotation", 
            "motivation": "oa:painting", 
            "on": "http://gallica.bnf.fr/iiif/ark:/12148/btv1b9065926v/canvas/f2#xywh=1836,3844,1085,68", 
            "resource": {
                "@type": "cnt:ContentAsText", 
                "chars": "QUE", 
                "format": "text/plain"
            }
        }, 
        {
            "@id": "https://manifests.teklia.com/HIMANIS/LAT10919/words_annotations/http_gallica.bnf.fr_iiif_ark:_12148_btv1b9065926v_f2_full_full_0_native.jpg.json/61/line", 
            "@type": "oa:Annotation", 
            "motivation": "oa:painting", 
            "on": "http://gallica.bnf.fr/iiif/ark:/12148/btv1b9065926v/canvas/f2#xywh=166,3756,1012,132", 
            "resource": {
                "@type": "cnt:ContentAsText", 
                "chars": "ELLE", 
                "format": "text/plain"
            }
        }, 
        {
            "@id": "https://manifests.teklia.com/HIMANIS/LAT10919/words_annotations/http_gallica.bnf.fr_iiif_ark:_12148_btv1b9065926v_f2_full_full_0_native.jpg.json/62/line", 
            "@type": "oa:Annotation", 
            "motivation": "oa:painting", 
            "on": "http://gallica.bnf.fr/iiif/ark:/12148/btv1b9065926v/canvas/f2#xywh=1836,3844,1111,68", 
            "resource": {
                "@type": "cnt:ContentAsText", 
                "chars": "QUI", 
                "format": "text/plain"
            }
        }, 
        {
            "@id": "https://manifests.teklia.com/HIMANIS/LAT10919/words_annotations/http_gallica.bnf.fr_iiif_ark:_12148_btv1b9065926v_f2_full_full_0_native.jpg.json/63/line", 
            "@type": "oa:Annotation", 
            "motivation": "oa:painting", 
            "on": "http://gallica.bnf.fr/iiif/ark:/12148/btv1b9065926v/canvas/f2#xywh=191,1909,364,45", 
            "resource": {
                "@type": "cnt:ContentAsText", 
                "chars": "CCC", 
                "format": "text/plain"
            }
        }, 
        {
            "@id": "https://manifests.teklia.com/HIMANIS/LAT10919/words_annotations/http_gallica.bnf.fr_iiif_ark:_12148_btv1b9065926v_f2_full_full_0_native.jpg.json/64/line", 
            "@type": "oa:Annotation", 
            "motivation": "oa:painting", 
            "on": "http://gallica.bnf.fr/iiif/ark:/12148/btv1b9065926v/canvas/f2#xywh=191,1909,378,45", 
            "resource": {
                "@type": "cnt:ContentAsText", 
                "chars": "CON", 
                "format": "text/plain"
            }
        }, 
        {
            "@id": "https://manifests.teklia.com/HIMANIS/LAT10919/words_annotations/http_gallica.bnf.fr_iiif_ark:_12148_btv1b9065926v_f2_full_full_0_native.jpg.json/65/line", 
            "@type": "oa:Annotation", 
            "motivation": "oa:painting", 
            "on": "http://gallica.bnf.fr/iiif/ark:/12148/btv1b9065926v/canvas/f2#xywh=203,3380,61,40", 
            "resource": {
                "@type": "cnt:ContentAsText", 
                "chars": "QU", 
                "format": "text/plain"
            }
        }, 
        {
            "@id": "https://manifests.teklia.com/HIMANIS/LAT10919/words_annotations/http_gallica.bnf.fr_iiif_ark:_12148_btv1b9065926v_f2_full_full_0_native.jpg.json/66/line", 
            "@type": "oa:Annotation", 
            "motivation": "oa:painting", 
            "on": "http://gallica.bnf.fr/iiif/ark:/12148/btv1b9065926v/canvas/f2#xywh=219,3496,150,40", 
            "resource": {
                "@type": "cnt:ContentAsText", 
                "chars": "CE", 
                "format": "text/plain"
            }
        }, 
        {
            "@id": "https://manifests.teklia.com/HIMANIS/LAT10919/words_annotations/http_gallica.bnf.fr_iiif_ark:_12148_btv1b9065926v_f2_full_full_0_native.jpg.json/67/line", 
            "@type": "oa:Annotation", 
            "motivation": "oa:painting", 
            "on": "http://gallica.bnf.fr/iiif/ark:/12148/btv1b9065926v/canvas/f2#xywh=2883,48,0,102", 
            "resource": {
                "@type": "cnt:ContentAsText", 
                "chars": "D", 
                "format": "text/plain"
            }
        }, 
        {
            "@id": "https://manifests.teklia.com/HIMANIS/LAT10919/words_annotations/http_gallica.bnf.fr_iiif_ark:_12148_btv1b9065926v_f2_full_full_0_native.jpg.json/68/line", 
            "@type": "oa:Annotation", 
            "motivation": "oa:painting", 
            "on": "http://gallica.bnf.fr/iiif/ark:/12148/btv1b9065926v/canvas/f2#xywh=1138,2554,248,180", 
            "resource": {
                "@type": "cnt:ContentAsText", 
                "chars": "PAMPL", 
                "format": "text/plain"
            }
        }, 
        {
            "@id": "https://manifests.teklia.com/HIMANIS/LAT10919/words_annotations/http_gallica.bnf.fr_iiif_ark:_12148_btv1b9065926v_f2_full_full_0_native.jpg.json/69/line", 
            "@type": "oa:Annotation", 
            "motivation": "oa:painting", 
            "on": "http://gallica.bnf.fr/iiif/ark:/12148/btv1b9065926v/canvas/f2#xywh=1037,2554,67,180", 
            "resource": {
                "@type": "cnt:ContentAsText", 
                "chars": "DE", 
                "format": "text/plain"
            }
        }, 
        {
            "@id": "https://manifests.teklia.com/HIMANIS/LAT10919/words_annotations/http_gallica.bnf.fr_iiif_ark:_12148_btv1b9065926v_f2_full_full_0_native.jpg.json/70/line", 
            "@type": "oa:Annotation", 
            "motivation": "oa:painting", 
            "on": "http://gallica.bnf.fr/iiif/ark:/12148/btv1b9065926v/canvas/f2#xywh=191,1909,392,45", 
            "resource": {
                "@type": "cnt:ContentAsText", 
                "chars": "COMM", 
                "format": "text/plain"
            }
        }, 
        {
            "@id": "https://manifests.teklia.com/HIMANIS/LAT10919/words_annotations/http_gallica.bnf.fr_iiif_ark:_12148_btv1b9065926v_f2_full_full_0_native.jpg.json/71/line", 
            "@type": "oa:Annotation", 
            "motivation": "oa:painting", 
            "on": "http://gallica.bnf.fr/iiif/ark:/12148/btv1b9065926v/canvas/f2#xywh=0,4031,3165,29", 
            "resource": {
                "@type": "cnt:ContentAsText", 
                "chars": "DECESSORES", 
                "format": "text/plain"
            }
        }, 
        {
            "@id": "https://manifests.teklia.com/HIMANIS/LAT10919/words_annotations/http_gallica.bnf.fr_iiif_ark:_12148_btv1b9065926v_f2_full_full_0_native.jpg.json/72/line", 
            "@type": "oa:Annotation", 
            "motivation": "oa:painting", 
            "on": "http://gallica.bnf.fr/iiif/ark:/12148/btv1b9065926v/canvas/f2#xywh=169,2554,564,180", 
            "resource": {
                "@type": "cnt:ContentAsText", 
                "chars": "LIVRES", 
                "format": "text/plain"
            }
        }, 
        {
            "@id": "https://manifests.teklia.com/HIMANIS/LAT10919/words_annotations/http_gallica.bnf.fr_iiif_ark:_12148_btv1b9065926v_f2_full_full_0_native.jpg.json/73/line", 
            "@type": "oa:Annotation", 
            "motivation": "oa:painting", 
            "on": "http://gallica.bnf.fr/iiif/ark:/12148/btv1b9065926v/canvas/f2#xywh=1836,3844,823,68", 
            "resource": {
                "@type": "cnt:ContentAsText", 
                "chars": "LES", 
                "format": "text/plain"
            }
        }, 
        {
            "@id": "https://manifests.teklia.com/HIMANIS/LAT10919/words_annotations/http_gallica.bnf.fr_iiif_ark:_12148_btv1b9065926v_f2_full_full_0_native.jpg.json/74/line", 
            "@type": "oa:Annotation", 
            "motivation": "oa:painting", 
            "on": "http://gallica.bnf.fr/iiif/ark:/12148/btv1b9065926v/canvas/f2#xywh=191,1909,487,45", 
            "resource": {
                "@type": "cnt:ContentAsText", 
                "chars": "DICT", 
                "format": "text/plain"
            }
        }, 
        {
            "@id": "https://manifests.teklia.com/HIMANIS/LAT10919/words_annotations/http_gallica.bnf.fr_iiif_ark:_12148_btv1b9065926v_f2_full_full_0_native.jpg.json/75/line", 
            "@type": "oa:Annotation", 
            "motivation": "oa:painting", 
            "on": "http://gallica.bnf.fr/iiif/ark:/12148/btv1b9065926v/canvas/f2#xywh=2044,48,845,102", 
            "resource": {
                "@type": "cnt:ContentAsText", 
                "chars": "LES", 
                "format": "text/plain"
            }
        }, 
        {
            "@id": "https://manifests.teklia.com/HIMANIS/LAT10919/words_annotations/http_gallica.bnf.fr_iiif_ark:_12148_btv1b9065926v_f2_full_full_0_native.jpg.json/76/line", 
            "@type": "oa:Annotation", 
            "motivation": "oa:painting", 
            "on": "http://gallica.bnf.fr/iiif/ark:/12148/btv1b9065926v/canvas/f2#xywh=2689,3716,168,72", 
            "resource": {
                "@type": "cnt:ContentAsText", 
                "chars": "ET", 
                "format": "text/plain"
            }
        }, 
        {
            "@id": "https://manifests.teklia.com/HIMANIS/LAT10919/words_annotations/http_gallica.bnf.fr_iiif_ark:_12148_btv1b9065926v_f2_full_full_0_native.jpg.json/77/line", 
            "@type": "oa:Annotation", 
            "motivation": "oa:painting", 
            "on": "http://gallica.bnf.fr/iiif/ark:/12148/btv1b9065926v/canvas/f2#xywh=1128,3756,182,132", 
            "resource": {
                "@type": "cnt:ContentAsText", 
                "chars": "ET", 
                "format": "text/plain"
            }
        }, 
        {
            "@id": "https://manifests.teklia.com/HIMANIS/LAT10919/words_annotations/http_gallica.bnf.fr_iiif_ark:_12148_btv1b9065926v_f2_full_full_0_native.jpg.json/78/line", 
            "@type": "oa:Annotation", 
            "motivation": "oa:painting", 
            "on": "http://gallica.bnf.fr/iiif/ark:/12148/btv1b9065926v/canvas/f2#xywh=720,919,0,40", 
            "resource": {
                "@type": "cnt:ContentAsText", 
                "chars": "G", 
                "format": "text/plain"
            }
        }
    ]
}