{
    "@context": "http://iiif.io/api/presentation/2/context.json", 
    "@id": "https://manifests.teklia.com/HIMANIS/LAT10919/words_annotations/http_gallica.bnf.fr_iiif_ark:_12148_btv1b9065926v_f162_full_full_0_native.jpg.json", 
    "@type": "sc:AnnotationList", 
    "resources": [
        {
            "@id": "https://manifests.teklia.com/HIMANIS/LAT10919/words_annotations/http_gallica.bnf.fr_iiif_ark:_12148_btv1b9065926v_f162_full_full_0_native.jpg.json/0/line", 
            "@type": "oa:Annotation", 
            "motivation": "oa:painting", 
            "on": "http://gallica.bnf.fr/iiif/ark:/12148/btv1b9065926v/canvas/f162#xywh=9,3907,871,146", 
            "resource": {
                "@type": "cnt:ContentAsText", 
                "chars": "OU", 
                "format": "text/plain"
            }
        }, 
        {
            "@id": "https://manifests.teklia.com/HIMANIS/LAT10919/words_annotations/http_gallica.bnf.fr_iiif_ark:_12148_btv1b9065926v_f162_full_full_0_native.jpg.json/1/line", 
            "@type": "oa:Annotation", 
            "motivation": "oa:painting", 
            "on": "http://gallica.bnf.fr/iiif/ark:/12148/btv1b9065926v/canvas/f162#xywh=9,3907,2558,146", 
            "resource": {
                "@type": "cnt:ContentAsText", 
                "chars": "POUR", 
                "format": "text/plain"
            }
        }, 
        {
            "@id": "https://manifests.teklia.com/HIMANIS/LAT10919/words_annotations/http_gallica.bnf.fr_iiif_ark:_12148_btv1b9065926v_f162_full_full_0_native.jpg.json/2/line", 
            "@type": "oa:Annotation", 
            "motivation": "oa:painting", 
            "on": "http://gallica.bnf.fr/iiif/ark:/12148/btv1b9065926v/canvas/f162#xywh=44,2531,181,36", 
            "resource": {
                "@type": "cnt:ContentAsText", 
                "chars": "LES", 
                "format": "text/plain"
            }
        }, 
        {
            "@id": "https://manifests.teklia.com/HIMANIS/LAT10919/words_annotations/http_gallica.bnf.fr_iiif_ark:_12148_btv1b9065926v_f162_full_full_0_native.jpg.json/3/line", 
            "@type": "oa:Annotation", 
            "motivation": "oa:painting", 
            "on": "http://gallica.bnf.fr/iiif/ark:/12148/btv1b9065926v/canvas/f162#xywh=2625,0,577,53", 
            "resource": {
                "@type": "cnt:ContentAsText", 
                "chars": "SAINTE", 
                "format": "text/plain"
            }
        }, 
        {
            "@id": "https://manifests.teklia.com/HIMANIS/LAT10919/words_annotations/http_gallica.bnf.fr_iiif_ark:_12148_btv1b9065926v_f162_full_full_0_native.jpg.json/4/line", 
            "@type": "oa:Annotation", 
            "motivation": "oa:painting", 
            "on": "http://gallica.bnf.fr/iiif/ark:/12148/btv1b9065926v/canvas/f162#xywh=2625,0,577,53", 
            "resource": {
                "@type": "cnt:ContentAsText", 
                "chars": "SANCT", 
                "format": "text/plain"
            }
        }, 
        {
            "@id": "https://manifests.teklia.com/HIMANIS/LAT10919/words_annotations/http_gallica.bnf.fr_iiif_ark:_12148_btv1b9065926v_f162_full_full_0_native.jpg.json/5/line", 
            "@type": "oa:Annotation", 
            "motivation": "oa:painting", 
            "on": "http://gallica.bnf.fr/iiif/ark:/12148/btv1b9065926v/canvas/f162#xywh=0,0,1267,66", 
            "resource": {
                "@type": "cnt:ContentAsText", 
                "chars": "TENEANT", 
                "format": "text/plain"
            }
        }, 
        {
            "@id": "https://manifests.teklia.com/HIMANIS/LAT10919/words_annotations/http_gallica.bnf.fr_iiif_ark:_12148_btv1b9065926v_f162_full_full_0_native.jpg.json/6/line", 
            "@type": "oa:Annotation", 
            "motivation": "oa:painting", 
            "on": "http://gallica.bnf.fr/iiif/ark:/12148/btv1b9065926v/canvas/f162#xywh=9,3907,3072,146", 
            "resource": {
                "@type": "cnt:ContentAsText", 
                "chars": "PU", 
                "format": "text/plain"
            }
        }, 
        {
            "@id": "https://manifests.teklia.com/HIMANIS/LAT10919/words_annotations/http_gallica.bnf.fr_iiif_ark:_12148_btv1b9065926v_f162_full_full_0_native.jpg.json/7/line", 
            "@type": "oa:Annotation", 
            "motivation": "oa:painting", 
            "on": "http://gallica.bnf.fr/iiif/ark:/12148/btv1b9065926v/canvas/f162#xywh=2625,0,577,53", 
            "resource": {
                "@type": "cnt:ContentAsText", 
                "chars": "STEPH", 
                "format": "text/plain"
            }
        }, 
        {
            "@id": "https://manifests.teklia.com/HIMANIS/LAT10919/words_annotations/http_gallica.bnf.fr_iiif_ark:_12148_btv1b9065926v_f162_full_full_0_native.jpg.json/8/line", 
            "@type": "oa:Annotation", 
            "motivation": "oa:painting", 
            "on": "http://gallica.bnf.fr/iiif/ark:/12148/btv1b9065926v/canvas/f162#xywh=44,2531,145,36", 
            "resource": {
                "@type": "cnt:ContentAsText", 
                "chars": "DE", 
                "format": "text/plain"
            }
        }, 
        {
            "@id": "https://manifests.teklia.com/HIMANIS/LAT10919/words_annotations/http_gallica.bnf.fr_iiif_ark:_12148_btv1b9065926v_f162_full_full_0_native.jpg.json/9/line", 
            "@type": "oa:Annotation", 
            "motivation": "oa:painting", 
            "on": "http://gallica.bnf.fr/iiif/ark:/12148/btv1b9065926v/canvas/f162#xywh=0,0,222,66", 
            "resource": {
                "@type": "cnt:ContentAsText", 
                "chars": "ET", 
                "format": "text/plain"
            }
        }, 
        {
            "@id": "https://manifests.teklia.com/HIMANIS/LAT10919/words_annotations/http_gallica.bnf.fr_iiif_ark:_12148_btv1b9065926v_f162_full_full_0_native.jpg.json/10/line", 
            "@type": "oa:Annotation", 
            "motivation": "oa:painting", 
            "on": "http://gallica.bnf.fr/iiif/ark:/12148/btv1b9065926v/canvas/f162#xywh=9,3907,3072,146", 
            "resource": {
                "@type": "cnt:ContentAsText", 
                "chars": "POITOU", 
                "format": "text/plain"
            }
        }, 
        {
            "@id": "https://manifests.teklia.com/HIMANIS/LAT10919/words_annotations/http_gallica.bnf.fr_iiif_ark:_12148_btv1b9065926v_f162_full_full_0_native.jpg.json/11/line", 
            "@type": "oa:Annotation", 
            "motivation": "oa:painting", 
            "on": "http://gallica.bnf.fr/iiif/ark:/12148/btv1b9065926v/canvas/f162#xywh=2421,101,0,90", 
            "resource": {
                "@type": "cnt:ContentAsText", 
                "chars": "C", 
                "format": "text/plain"
            }
        }, 
        {
            "@id": "https://manifests.teklia.com/HIMANIS/LAT10919/words_annotations/http_gallica.bnf.fr_iiif_ark:_12148_btv1b9065926v_f162_full_full_0_native.jpg.json/12/line", 
            "@type": "oa:Annotation", 
            "motivation": "oa:painting", 
            "on": "http://gallica.bnf.fr/iiif/ark:/12148/btv1b9065926v/canvas/f162#xywh=2625,0,580,53", 
            "resource": {
                "@type": "cnt:ContentAsText", 
                "chars": "SAINT-", 
                "format": "text/plain"
            }
        }, 
        {
            "@id": "https://manifests.teklia.com/HIMANIS/LAT10919/words_annotations/http_gallica.bnf.fr_iiif_ark:_12148_btv1b9065926v_f162_full_full_0_native.jpg.json/13/line", 
            "@type": "oa:Annotation", 
            "motivation": "oa:painting", 
            "on": "http://gallica.bnf.fr/iiif/ark:/12148/btv1b9065926v/canvas/f162#xywh=0,0,226,66", 
            "resource": {
                "@type": "cnt:ContentAsText", 
                "chars": "DE", 
                "format": "text/plain"
            }
        }
    ]
}