{
    "@context": "http://iiif.io/api/presentation/2/context.json", 
    "@id": "https://manifests.teklia.com/HIMANIS/LAT10919/words_annotations/http_gallica.bnf.fr_iiif_ark:_12148_btv1b9065926v_f190_full_full_0_native.jpg.json", 
    "@type": "sc:AnnotationList", 
    "resources": [
        {
            "@id": "https://manifests.teklia.com/HIMANIS/LAT10919/words_annotations/http_gallica.bnf.fr_iiif_ark:_12148_btv1b9065926v_f190_full_full_0_native.jpg.json/0/line", 
            "@type": "oa:Annotation", 
            "motivation": "oa:painting", 
            "on": "http://gallica.bnf.fr/iiif/ark:/12148/btv1b9065926v/canvas/f190#xywh=960,2622,251,95", 
            "resource": {
                "@type": "cnt:ContentAsText", 
                "chars": "MONASTE", 
                "format": "text/plain"
            }
        }, 
        {
            "@id": "https://manifests.teklia.com/HIMANIS/LAT10919/words_annotations/http_gallica.bnf.fr_iiif_ark:_12148_btv1b9065926v_f190_full_full_0_native.jpg.json/1/line", 
            "@type": "oa:Annotation", 
            "motivation": "oa:painting", 
            "on": "http://gallica.bnf.fr/iiif/ark:/12148/btv1b9065926v/canvas/f190#xywh=1866,1974,0,42", 
            "resource": {
                "@type": "cnt:ContentAsText", 
                "chars": "R", 
                "format": "text/plain"
            }
        }, 
        {
            "@id": "https://manifests.teklia.com/HIMANIS/LAT10919/words_annotations/http_gallica.bnf.fr_iiif_ark:_12148_btv1b9065926v_f190_full_full_0_native.jpg.json/2/line", 
            "@type": "oa:Annotation", 
            "motivation": "oa:painting", 
            "on": "http://gallica.bnf.fr/iiif/ark:/12148/btv1b9065926v/canvas/f190#xywh=0,3969,1954,79", 
            "resource": {
                "@type": "cnt:ContentAsText", 
                "chars": "QUE", 
                "format": "text/plain"
            }
        }, 
        {
            "@id": "https://manifests.teklia.com/HIMANIS/LAT10919/words_annotations/http_gallica.bnf.fr_iiif_ark:_12148_btv1b9065926v_f190_full_full_0_native.jpg.json/3/line", 
            "@type": "oa:Annotation", 
            "motivation": "oa:painting", 
            "on": "http://gallica.bnf.fr/iiif/ark:/12148/btv1b9065926v/canvas/f190#xywh=1020,2559,195,51", 
            "resource": {
                "@type": "cnt:ContentAsText", 
                "chars": "PICTA", 
                "format": "text/plain"
            }
        }, 
        {
            "@id": "https://manifests.teklia.com/HIMANIS/LAT10919/words_annotations/http_gallica.bnf.fr_iiif_ark:_12148_btv1b9065926v_f190_full_full_0_native.jpg.json/4/line", 
            "@type": "oa:Annotation", 
            "motivation": "oa:painting", 
            "on": "http://gallica.bnf.fr/iiif/ark:/12148/btv1b9065926v/canvas/f190#xywh=1541,118,1666,70", 
            "resource": {
                "@type": "cnt:ContentAsText", 
                "chars": "LETTRE", 
                "format": "text/plain"
            }
        }, 
        {
            "@id": "https://manifests.teklia.com/HIMANIS/LAT10919/words_annotations/http_gallica.bnf.fr_iiif_ark:_12148_btv1b9065926v_f190_full_full_0_native.jpg.json/5/line", 
            "@type": "oa:Annotation", 
            "motivation": "oa:painting", 
            "on": "http://gallica.bnf.fr/iiif/ark:/12148/btv1b9065926v/canvas/f190#xywh=1806,2802,96,54", 
            "resource": {
                "@type": "cnt:ContentAsText", 
                "chars": "DE", 
                "format": "text/plain"
            }
        }, 
        {
            "@id": "https://manifests.teklia.com/HIMANIS/LAT10919/words_annotations/http_gallica.bnf.fr_iiif_ark:_12148_btv1b9065926v_f190_full_full_0_native.jpg.json/6/line", 
            "@type": "oa:Annotation", 
            "motivation": "oa:painting", 
            "on": "http://gallica.bnf.fr/iiif/ark:/12148/btv1b9065926v/canvas/f190#xywh=928,2747,198,40", 
            "resource": {
                "@type": "cnt:ContentAsText", 
                "chars": "NOSTRE", 
                "format": "text/plain"
            }
        }, 
        {
            "@id": "https://manifests.teklia.com/HIMANIS/LAT10919/words_annotations/http_gallica.bnf.fr_iiif_ark:_12148_btv1b9065926v_f190_full_full_0_native.jpg.json/7/line", 
            "@type": "oa:Annotation", 
            "motivation": "oa:painting", 
            "on": "http://gallica.bnf.fr/iiif/ark:/12148/btv1b9065926v/canvas/f190#xywh=1245,2097,284,57", 
            "resource": {
                "@type": "cnt:ContentAsText", 
                "chars": "SON", 
                "format": "text/plain"
            }
        }, 
        {
            "@id": "https://manifests.teklia.com/HIMANIS/LAT10919/words_annotations/http_gallica.bnf.fr_iiif_ark:_12148_btv1b9065926v_f190_full_full_0_native.jpg.json/8/line", 
            "@type": "oa:Annotation", 
            "motivation": "oa:painting", 
            "on": "http://gallica.bnf.fr/iiif/ark:/12148/btv1b9065926v/canvas/f190#xywh=1789,2372,0,55", 
            "resource": {
                "@type": "cnt:ContentAsText", 
                "chars": "P", 
                "format": "text/plain"
            }
        }, 
        {
            "@id": "https://manifests.teklia.com/HIMANIS/LAT10919/words_annotations/http_gallica.bnf.fr_iiif_ark:_12148_btv1b9065926v_f190_full_full_0_native.jpg.json/9/line", 
            "@type": "oa:Annotation", 
            "motivation": "oa:painting", 
            "on": "http://gallica.bnf.fr/iiif/ark:/12148/btv1b9065926v/canvas/f190#xywh=1258,2622,221,95", 
            "resource": {
                "@type": "cnt:ContentAsText", 
                "chars": "SUIS", 
                "format": "text/plain"
            }
        }, 
        {
            "@id": "https://manifests.teklia.com/HIMANIS/LAT10919/words_annotations/http_gallica.bnf.fr_iiif_ark:_12148_btv1b9065926v_f190_full_full_0_native.jpg.json/10/line", 
            "@type": "oa:Annotation", 
            "motivation": "oa:painting", 
            "on": "http://gallica.bnf.fr/iiif/ark:/12148/btv1b9065926v/canvas/f190#xywh=1932,2334,178,34", 
            "resource": {
                "@type": "cnt:ContentAsText", 
                "chars": "CE", 
                "format": "text/plain"
            }
        }, 
        {
            "@id": "https://manifests.teklia.com/HIMANIS/LAT10919/words_annotations/http_gallica.bnf.fr_iiif_ark:_12148_btv1b9065926v_f190_full_full_0_native.jpg.json/11/line", 
            "@type": "oa:Annotation", 
            "motivation": "oa:painting", 
            "on": "http://gallica.bnf.fr/iiif/ark:/12148/btv1b9065926v/canvas/f190#xywh=1979,1185,213,34", 
            "resource": {
                "@type": "cnt:ContentAsText", 
                "chars": "CCC", 
                "format": "text/plain"
            }
        }, 
        {
            "@id": "https://manifests.teklia.com/HIMANIS/LAT10919/words_annotations/http_gallica.bnf.fr_iiif_ark:_12148_btv1b9065926v_f190_full_full_0_native.jpg.json/12/line", 
            "@type": "oa:Annotation", 
            "motivation": "oa:painting", 
            "on": "http://gallica.bnf.fr/iiif/ark:/12148/btv1b9065926v/canvas/f190#xywh=960,2622,263,95", 
            "resource": {
                "@type": "cnt:ContentAsText", 
                "chars": "MONASTER", 
                "format": "text/plain"
            }
        }, 
        {
            "@id": "https://manifests.teklia.com/HIMANIS/LAT10919/words_annotations/http_gallica.bnf.fr_iiif_ark:_12148_btv1b9065926v_f190_full_full_0_native.jpg.json/13/line", 
            "@type": "oa:Annotation", 
            "motivation": "oa:painting", 
            "on": "http://gallica.bnf.fr/iiif/ark:/12148/btv1b9065926v/canvas/f190#xywh=0,3969,340,79", 
            "resource": {
                "@type": "cnt:ContentAsText", 
                "chars": "DE", 
                "format": "text/plain"
            }
        }, 
        {
            "@id": "https://manifests.teklia.com/HIMANIS/LAT10919/words_annotations/http_gallica.bnf.fr_iiif_ark:_12148_btv1b9065926v_f190_full_full_0_native.jpg.json/14/line", 
            "@type": "oa:Annotation", 
            "motivation": "oa:painting", 
            "on": "http://gallica.bnf.fr/iiif/ark:/12148/btv1b9065926v/canvas/f190#xywh=2646,3915,556,133", 
            "resource": {
                "@type": "cnt:ContentAsText", 
                "chars": "DILEC", 
                "format": "text/plain"
            }
        }, 
        {
            "@id": "https://manifests.teklia.com/HIMANIS/LAT10919/words_annotations/http_gallica.bnf.fr_iiif_ark:_12148_btv1b9065926v_f190_full_full_0_native.jpg.json/15/line", 
            "@type": "oa:Annotation", 
            "motivation": "oa:painting", 
            "on": "http://gallica.bnf.fr/iiif/ark:/12148/btv1b9065926v/canvas/f190#xywh=1459,3915,51,54", 
            "resource": {
                "@type": "cnt:ContentAsText", 
                "chars": "DE", 
                "format": "text/plain"
            }
        }, 
        {
            "@id": "https://manifests.teklia.com/HIMANIS/LAT10919/words_annotations/http_gallica.bnf.fr_iiif_ark:_12148_btv1b9065926v_f190_full_full_0_native.jpg.json/16/line", 
            "@type": "oa:Annotation", 
            "motivation": "oa:painting", 
            "on": "http://gallica.bnf.fr/iiif/ark:/12148/btv1b9065926v/canvas/f190#xywh=110,3695,0,29", 
            "resource": {
                "@type": "cnt:ContentAsText", 
                "chars": "J", 
                "format": "text/plain"
            }
        }, 
        {
            "@id": "https://manifests.teklia.com/HIMANIS/LAT10919/words_annotations/http_gallica.bnf.fr_iiif_ark:_12148_btv1b9065926v_f190_full_full_0_native.jpg.json/17/line", 
            "@type": "oa:Annotation", 
            "motivation": "oa:painting", 
            "on": "http://gallica.bnf.fr/iiif/ark:/12148/btv1b9065926v/canvas/f190#xywh=2646,3915,548,133", 
            "resource": {
                "@type": "cnt:ContentAsText", 
                "chars": "DITE", 
                "format": "text/plain"
            }
        }, 
        {
            "@id": "https://manifests.teklia.com/HIMANIS/LAT10919/words_annotations/http_gallica.bnf.fr_iiif_ark:_12148_btv1b9065926v_f190_full_full_0_native.jpg.json/18/line", 
            "@type": "oa:Annotation", 
            "motivation": "oa:painting", 
            "on": "http://gallica.bnf.fr/iiif/ark:/12148/btv1b9065926v/canvas/f190#xywh=1934,0,46,48", 
            "resource": {
                "@type": "cnt:ContentAsText", 
                "chars": "DE", 
                "format": "text/plain"
            }
        }, 
        {
            "@id": "https://manifests.teklia.com/HIMANIS/LAT10919/words_annotations/http_gallica.bnf.fr_iiif_ark:_12148_btv1b9065926v_f190_full_full_0_native.jpg.json/19/line", 
            "@type": "oa:Annotation", 
            "motivation": "oa:painting", 
            "on": "http://gallica.bnf.fr/iiif/ark:/12148/btv1b9065926v/canvas/f190#xywh=1465,3915,304,54", 
            "resource": {
                "@type": "cnt:ContentAsText", 
                "chars": "REX", 
                "format": "text/plain"
            }
        }, 
        {
            "@id": "https://manifests.teklia.com/HIMANIS/LAT10919/words_annotations/http_gallica.bnf.fr_iiif_ark:_12148_btv1b9065926v_f190_full_full_0_native.jpg.json/20/line", 
            "@type": "oa:Annotation", 
            "motivation": "oa:painting", 
            "on": "http://gallica.bnf.fr/iiif/ark:/12148/btv1b9065926v/canvas/f190#xywh=1930,2220,53,31", 
            "resource": {
                "@type": "cnt:ContentAsText", 
                "chars": "DE", 
                "format": "text/plain"
            }
        }, 
        {
            "@id": "https://manifests.teklia.com/HIMANIS/LAT10919/words_annotations/http_gallica.bnf.fr_iiif_ark:_12148_btv1b9065926v_f190_full_full_0_native.jpg.json/21/line", 
            "@type": "oa:Annotation", 
            "motivation": "oa:painting", 
            "on": "http://gallica.bnf.fr/iiif/ark:/12148/btv1b9065926v/canvas/f190#xywh=1930,2220,61,31", 
            "resource": {
                "@type": "cnt:ContentAsText", 
                "chars": "LES", 
                "format": "text/plain"
            }
        }, 
        {
            "@id": "https://manifests.teklia.com/HIMANIS/LAT10919/words_annotations/http_gallica.bnf.fr_iiif_ark:_12148_btv1b9065926v_f190_full_full_0_native.jpg.json/22/line", 
            "@type": "oa:Annotation", 
            "motivation": "oa:painting", 
            "on": "http://gallica.bnf.fr/iiif/ark:/12148/btv1b9065926v/canvas/f190#xywh=1541,118,997,70", 
            "resource": {
                "@type": "cnt:ContentAsText", 
                "chars": "DE", 
                "format": "text/plain"
            }
        }, 
        {
            "@id": "https://manifests.teklia.com/HIMANIS/LAT10919/words_annotations/http_gallica.bnf.fr_iiif_ark:_12148_btv1b9065926v_f190_full_full_0_native.jpg.json/23/line", 
            "@type": "oa:Annotation", 
            "motivation": "oa:painting", 
            "on": "http://gallica.bnf.fr/iiif/ark:/12148/btv1b9065926v/canvas/f190#xywh=227,0,271,63", 
            "resource": {
                "@type": "cnt:ContentAsText", 
                "chars": "DE", 
                "format": "text/plain"
            }
        }, 
        {
            "@id": "https://manifests.teklia.com/HIMANIS/LAT10919/words_annotations/http_gallica.bnf.fr_iiif_ark:_12148_btv1b9065926v_f190_full_full_0_native.jpg.json/24/line", 
            "@type": "oa:Annotation", 
            "motivation": "oa:painting", 
            "on": "http://gallica.bnf.fr/iiif/ark:/12148/btv1b9065926v/canvas/f190#xywh=1806,2802,326,54", 
            "resource": {
                "@type": "cnt:ContentAsText", 
                "chars": "COMITIS", 
                "format": "text/plain"
            }
        }, 
        {
            "@id": "https://manifests.teklia.com/HIMANIS/LAT10919/words_annotations/http_gallica.bnf.fr_iiif_ark:_12148_btv1b9065926v_f190_full_full_0_native.jpg.json/25/line", 
            "@type": "oa:Annotation", 
            "motivation": "oa:painting", 
            "on": "http://gallica.bnf.fr/iiif/ark:/12148/btv1b9065926v/canvas/f190#xywh=1245,2097,184,57", 
            "resource": {
                "@type": "cnt:ContentAsText", 
                "chars": "IPSON", 
                "format": "text/plain"
            }
        }, 
        {
            "@id": "https://manifests.teklia.com/HIMANIS/LAT10919/words_annotations/http_gallica.bnf.fr_iiif_ark:_12148_btv1b9065926v_f190_full_full_0_native.jpg.json/26/line", 
            "@type": "oa:Annotation", 
            "motivation": "oa:painting", 
            "on": "http://gallica.bnf.fr/iiif/ark:/12148/btv1b9065926v/canvas/f190#xywh=1752,2880,142,61", 
            "resource": {
                "@type": "cnt:ContentAsText", 
                "chars": "SINE", 
                "format": "text/plain"
            }
        }, 
        {
            "@id": "https://manifests.teklia.com/HIMANIS/LAT10919/words_annotations/http_gallica.bnf.fr_iiif_ark:_12148_btv1b9065926v_f190_full_full_0_native.jpg.json/27/line", 
            "@type": "oa:Annotation", 
            "motivation": "oa:painting", 
            "on": "http://gallica.bnf.fr/iiif/ark:/12148/btv1b9065926v/canvas/f190#xywh=1815,1185,0,34", 
            "resource": {
                "@type": "cnt:ContentAsText", 
                "chars": "J", 
                "format": "text/plain"
            }
        }, 
        {
            "@id": "https://manifests.teklia.com/HIMANIS/LAT10919/words_annotations/http_gallica.bnf.fr_iiif_ark:_12148_btv1b9065926v_f190_full_full_0_native.jpg.json/28/line", 
            "@type": "oa:Annotation", 
            "motivation": "oa:painting", 
            "on": "http://gallica.bnf.fr/iiif/ark:/12148/btv1b9065926v/canvas/f190#xywh=1815,1185,0,34", 
            "resource": {
                "@type": "cnt:ContentAsText", 
                "chars": "M", 
                "format": "text/plain"
            }
        }, 
        {
            "@id": "https://manifests.teklia.com/HIMANIS/LAT10919/words_annotations/http_gallica.bnf.fr_iiif_ark:_12148_btv1b9065926v_f190_full_full_0_native.jpg.json/29/line", 
            "@type": "oa:Annotation", 
            "motivation": "oa:painting", 
            "on": "http://gallica.bnf.fr/iiif/ark:/12148/btv1b9065926v/canvas/f190#xywh=1752,2880,146,61", 
            "resource": {
                "@type": "cnt:ContentAsText", 
                "chars": "SIONE", 
                "format": "text/plain"
            }
        }, 
        {
            "@id": "https://manifests.teklia.com/HIMANIS/LAT10919/words_annotations/http_gallica.bnf.fr_iiif_ark:_12148_btv1b9065926v_f190_full_full_0_native.jpg.json/30/line", 
            "@type": "oa:Annotation", 
            "motivation": "oa:painting", 
            "on": "http://gallica.bnf.fr/iiif/ark:/12148/btv1b9065926v/canvas/f190#xywh=2024,2707,0,50", 
            "resource": {
                "@type": "cnt:ContentAsText", 
                "chars": "M", 
                "format": "text/plain"
            }
        }, 
        {
            "@id": "https://manifests.teklia.com/HIMANIS/LAT10919/words_annotations/http_gallica.bnf.fr_iiif_ark:_12148_btv1b9065926v_f190_full_full_0_native.jpg.json/31/line", 
            "@type": "oa:Annotation", 
            "motivation": "oa:painting", 
            "on": "http://gallica.bnf.fr/iiif/ark:/12148/btv1b9065926v/canvas/f190#xywh=1459,3915,71,54", 
            "resource": {
                "@type": "cnt:ContentAsText", 
                "chars": "ET", 
                "format": "text/plain"
            }
        }, 
        {
            "@id": "https://manifests.teklia.com/HIMANIS/LAT10919/words_annotations/http_gallica.bnf.fr_iiif_ark:_12148_btv1b9065926v_f190_full_full_0_native.jpg.json/32/line", 
            "@type": "oa:Annotation", 
            "motivation": "oa:painting", 
            "on": "http://gallica.bnf.fr/iiif/ark:/12148/btv1b9065926v/canvas/f190#xywh=2024,2707,126,50", 
            "resource": {
                "@type": "cnt:ContentAsText", 
                "chars": "CCC", 
                "format": "text/plain"
            }
        }, 
        {
            "@id": "https://manifests.teklia.com/HIMANIS/LAT10919/words_annotations/http_gallica.bnf.fr_iiif_ark:_12148_btv1b9065926v_f190_full_full_0_native.jpg.json/33/line", 
            "@type": "oa:Annotation", 
            "motivation": "oa:painting", 
            "on": "http://gallica.bnf.fr/iiif/ark:/12148/btv1b9065926v/canvas/f190#xywh=1952,2880,119,61", 
            "resource": {
                "@type": "cnt:ContentAsText", 
                "chars": "MILLE", 
                "format": "text/plain"
            }
        }, 
        {
            "@id": "https://manifests.teklia.com/HIMANIS/LAT10919/words_annotations/http_gallica.bnf.fr_iiif_ark:_12148_btv1b9065926v_f190_full_full_0_native.jpg.json/34/line", 
            "@type": "oa:Annotation", 
            "motivation": "oa:painting", 
            "on": "http://gallica.bnf.fr/iiif/ark:/12148/btv1b9065926v/canvas/f190#xywh=1943,2622,406,90", 
            "resource": {
                "@type": "cnt:ContentAsText", 
                "chars": "PICTA", 
                "format": "text/plain"
            }
        }, 
        {
            "@id": "https://manifests.teklia.com/HIMANIS/LAT10919/words_annotations/http_gallica.bnf.fr_iiif_ark:_12148_btv1b9065926v_f190_full_full_0_native.jpg.json/35/line", 
            "@type": "oa:Annotation", 
            "motivation": "oa:painting", 
            "on": "http://gallica.bnf.fr/iiif/ark:/12148/btv1b9065926v/canvas/f190#xywh=1684,0,223,48", 
            "resource": {
                "@type": "cnt:ContentAsText", 
                "chars": "ET", 
                "format": "text/plain"
            }
        }, 
        {
            "@id": "https://manifests.teklia.com/HIMANIS/LAT10919/words_annotations/http_gallica.bnf.fr_iiif_ark:_12148_btv1b9065926v_f190_full_full_0_native.jpg.json/36/line", 
            "@type": "oa:Annotation", 
            "motivation": "oa:painting", 
            "on": "http://gallica.bnf.fr/iiif/ark:/12148/btv1b9065926v/canvas/f190#xywh=1866,1974,179,42", 
            "resource": {
                "@type": "cnt:ContentAsText", 
                "chars": "EX", 
                "format": "text/plain"
            }
        }, 
        {
            "@id": "https://manifests.teklia.com/HIMANIS/LAT10919/words_annotations/http_gallica.bnf.fr_iiif_ark:_12148_btv1b9065926v_f190_full_full_0_native.jpg.json/37/line", 
            "@type": "oa:Annotation", 
            "motivation": "oa:painting", 
            "on": "http://gallica.bnf.fr/iiif/ark:/12148/btv1b9065926v/canvas/f190#xywh=0,3603,122,41", 
            "resource": {
                "@type": "cnt:ContentAsText", 
                "chars": "DE", 
                "format": "text/plain"
            }
        }, 
        {
            "@id": "https://manifests.teklia.com/HIMANIS/LAT10919/words_annotations/http_gallica.bnf.fr_iiif_ark:_12148_btv1b9065926v_f190_full_full_0_native.jpg.json/38/line", 
            "@type": "oa:Annotation", 
            "motivation": "oa:painting", 
            "on": "http://gallica.bnf.fr/iiif/ark:/12148/btv1b9065926v/canvas/f190#xywh=1952,2880,134,61", 
            "resource": {
                "@type": "cnt:ContentAsText", 
                "chars": "MILITE", 
                "format": "text/plain"
            }
        }, 
        {
            "@id": "https://manifests.teklia.com/HIMANIS/LAT10919/words_annotations/http_gallica.bnf.fr_iiif_ark:_12148_btv1b9065926v_f190_full_full_0_native.jpg.json/39/line", 
            "@type": "oa:Annotation", 
            "motivation": "oa:painting", 
            "on": "http://gallica.bnf.fr/iiif/ark:/12148/btv1b9065926v/canvas/f190#xywh=1541,118,1015,70", 
            "resource": {
                "@type": "cnt:ContentAsText", 
                "chars": "ET", 
                "format": "text/plain"
            }
        }, 
        {
            "@id": "https://manifests.teklia.com/HIMANIS/LAT10919/words_annotations/http_gallica.bnf.fr_iiif_ark:_12148_btv1b9065926v_f190_full_full_0_native.jpg.json/40/line", 
            "@type": "oa:Annotation", 
            "motivation": "oa:painting", 
            "on": "http://gallica.bnf.fr/iiif/ark:/12148/btv1b9065926v/canvas/f190#xywh=4,0,187,63", 
            "resource": {
                "@type": "cnt:ContentAsText", 
                "chars": "ET", 
                "format": "text/plain"
            }
        }, 
        {
            "@id": "https://manifests.teklia.com/HIMANIS/LAT10919/words_annotations/http_gallica.bnf.fr_iiif_ark:_12148_btv1b9065926v_f190_full_full_0_native.jpg.json/41/line", 
            "@type": "oa:Annotation", 
            "motivation": "oa:painting", 
            "on": "http://gallica.bnf.fr/iiif/ark:/12148/btv1b9065926v/canvas/f190#xywh=1979,1185,222,34", 
            "resource": {
                "@type": "cnt:ContentAsText", 
                "chars": "ET", 
                "format": "text/plain"
            }
        }, 
        {
            "@id": "https://manifests.teklia.com/HIMANIS/LAT10919/words_annotations/http_gallica.bnf.fr_iiif_ark:_12148_btv1b9065926v_f190_full_full_0_native.jpg.json/42/line", 
            "@type": "oa:Annotation", 
            "motivation": "oa:painting", 
            "on": "http://gallica.bnf.fr/iiif/ark:/12148/btv1b9065926v/canvas/f190#xywh=1853,3148,171,134", 
            "resource": {
                "@type": "cnt:ContentAsText", 
                "chars": "FACIMUS", 
                "format": "text/plain"
            }
        }, 
        {
            "@id": "https://manifests.teklia.com/HIMANIS/LAT10919/words_annotations/http_gallica.bnf.fr_iiif_ark:_12148_btv1b9065926v_f190_full_full_0_native.jpg.json/43/line", 
            "@type": "oa:Annotation", 
            "motivation": "oa:painting", 
            "on": "http://gallica.bnf.fr/iiif/ark:/12148/btv1b9065926v/canvas/f190#xywh=1806,2802,326,54", 
            "resource": {
                "@type": "cnt:ContentAsText", 
                "chars": "YCELIERS", 
                "format": "text/plain"
            }
        }, 
        {
            "@id": "https://manifests.teklia.com/HIMANIS/LAT10919/words_annotations/http_gallica.bnf.fr_iiif_ark:_12148_btv1b9065926v_f190_full_full_0_native.jpg.json/44/line", 
            "@type": "oa:Annotation", 
            "motivation": "oa:painting", 
            "on": "http://gallica.bnf.fr/iiif/ark:/12148/btv1b9065926v/canvas/f190#xywh=1312,3915,147,54", 
            "resource": {
                "@type": "cnt:ContentAsText", 
                "chars": "LES", 
                "format": "text/plain"
            }
        }, 
        {
            "@id": "https://manifests.teklia.com/HIMANIS/LAT10919/words_annotations/http_gallica.bnf.fr_iiif_ark:_12148_btv1b9065926v_f190_full_full_0_native.jpg.json/45/line", 
            "@type": "oa:Annotation", 
            "motivation": "oa:painting", 
            "on": "http://gallica.bnf.fr/iiif/ark:/12148/btv1b9065926v/canvas/f190#xywh=1952,2880,126,61", 
            "resource": {
                "@type": "cnt:ContentAsText", 
                "chars": "MILE", 
                "format": "text/plain"
            }
        }, 
        {
            "@id": "https://manifests.teklia.com/HIMANIS/LAT10919/words_annotations/http_gallica.bnf.fr_iiif_ark:_12148_btv1b9065926v_f190_full_full_0_native.jpg.json/46/line", 
            "@type": "oa:Annotation", 
            "motivation": "oa:painting", 
            "on": "http://gallica.bnf.fr/iiif/ark:/12148/btv1b9065926v/canvas/f190#xywh=0,3603,125,41", 
            "resource": {
                "@type": "cnt:ContentAsText", 
                "chars": "ET", 
                "format": "text/plain"
            }
        }, 
        {
            "@id": "https://manifests.teklia.com/HIMANIS/LAT10919/words_annotations/http_gallica.bnf.fr_iiif_ark:_12148_btv1b9065926v_f190_full_full_0_native.jpg.json/47/line", 
            "@type": "oa:Annotation", 
            "motivation": "oa:painting", 
            "on": "http://gallica.bnf.fr/iiif/ark:/12148/btv1b9065926v/canvas/f190#xywh=1684,0,250,48", 
            "resource": {
                "@type": "cnt:ContentAsText", 
                "chars": "LES", 
                "format": "text/plain"
            }
        }, 
        {
            "@id": "https://manifests.teklia.com/HIMANIS/LAT10919/words_annotations/http_gallica.bnf.fr_iiif_ark:_12148_btv1b9065926v_f190_full_full_0_native.jpg.json/48/line", 
            "@type": "oa:Annotation", 
            "motivation": "oa:painting", 
            "on": "http://gallica.bnf.fr/iiif/ark:/12148/btv1b9065926v/canvas/f190#xywh=1932,2334,0,34", 
            "resource": {
                "@type": "cnt:ContentAsText", 
                "chars": "C", 
                "format": "text/plain"
            }
        }, 
        {
            "@id": "https://manifests.teklia.com/HIMANIS/LAT10919/words_annotations/http_gallica.bnf.fr_iiif_ark:_12148_btv1b9065926v_f190_full_full_0_native.jpg.json/49/line", 
            "@type": "oa:Annotation", 
            "motivation": "oa:painting", 
            "on": "http://gallica.bnf.fr/iiif/ark:/12148/btv1b9065926v/canvas/f190#xywh=1932,2334,0,34", 
            "resource": {
                "@type": "cnt:ContentAsText", 
                "chars": "G", 
                "format": "text/plain"
            }
        }, 
        {
            "@id": "https://manifests.teklia.com/HIMANIS/LAT10919/words_annotations/http_gallica.bnf.fr_iiif_ark:_12148_btv1b9065926v_f190_full_full_0_native.jpg.json/50/line", 
            "@type": "oa:Annotation", 
            "motivation": "oa:painting", 
            "on": "http://gallica.bnf.fr/iiif/ark:/12148/btv1b9065926v/canvas/f190#xywh=1932,2334,0,34", 
            "resource": {
                "@type": "cnt:ContentAsText", 
                "chars": "R", 
                "format": "text/plain"
            }
        }, 
        {
            "@id": "https://manifests.teklia.com/HIMANIS/LAT10919/words_annotations/http_gallica.bnf.fr_iiif_ark:_12148_btv1b9065926v_f190_full_full_0_native.jpg.json/51/line", 
            "@type": "oa:Annotation", 
            "motivation": "oa:painting", 
            "on": "http://gallica.bnf.fr/iiif/ark:/12148/btv1b9065926v/canvas/f190#xywh=1943,2622,400,90", 
            "resource": {
                "@type": "cnt:ContentAsText", 
                "chars": "JEHAN", 
                "format": "text/plain"
            }
        }, 
        {
            "@id": "https://manifests.teklia.com/HIMANIS/LAT10919/words_annotations/http_gallica.bnf.fr_iiif_ark:_12148_btv1b9065926v_f190_full_full_0_native.jpg.json/52/line", 
            "@type": "oa:Annotation", 
            "motivation": "oa:painting", 
            "on": "http://gallica.bnf.fr/iiif/ark:/12148/btv1b9065926v/canvas/f190#xywh=1866,1974,0,42", 
            "resource": {
                "@type": "cnt:ContentAsText", 
                "chars": "C", 
                "format": "text/plain"
            }
        }, 
        {
            "@id": "https://manifests.teklia.com/HIMANIS/LAT10919/words_annotations/http_gallica.bnf.fr_iiif_ark:_12148_btv1b9065926v_f190_full_full_0_native.jpg.json/53/line", 
            "@type": "oa:Annotation", 
            "motivation": "oa:painting", 
            "on": "http://gallica.bnf.fr/iiif/ark:/12148/btv1b9065926v/canvas/f190#xywh=928,2747,86,40", 
            "resource": {
                "@type": "cnt:ContentAsText", 
                "chars": "DE", 
                "format": "text/plain"
            }
        }, 
        {
            "@id": "https://manifests.teklia.com/HIMANIS/LAT10919/words_annotations/http_gallica.bnf.fr_iiif_ark:_12148_btv1b9065926v_f190_full_full_0_native.jpg.json/54/line", 
            "@type": "oa:Annotation", 
            "motivation": "oa:painting", 
            "on": "http://gallica.bnf.fr/iiif/ark:/12148/btv1b9065926v/canvas/f190#xywh=1866,1974,0,42", 
            "resource": {
                "@type": "cnt:ContentAsText", 
                "chars": "H", 
                "format": "text/plain"
            }
        }
    ]
}