{
    "@context": "http://iiif.io/api/presentation/2/context.json", 
    "@id": "https://manifests.teklia.com/HIMANIS/LAT10919/words_annotations/http_gallica.bnf.fr_iiif_ark:_12148_btv1b9065926v_f220_full_full_0_native.jpg.json", 
    "@type": "sc:AnnotationList", 
    "resources": [
        {
            "@id": "https://manifests.teklia.com/HIMANIS/LAT10919/words_annotations/http_gallica.bnf.fr_iiif_ark:_12148_btv1b9065926v_f220_full_full_0_native.jpg.json/0/line", 
            "@type": "oa:Annotation", 
            "motivation": "oa:painting", 
            "on": "http://gallica.bnf.fr/iiif/ark:/12148/btv1b9065926v/canvas/f220#xywh=2981,598,0,97", 
            "resource": {
                "@type": "cnt:ContentAsText", 
                "chars": "R", 
                "format": "text/plain"
            }
        }, 
        {
            "@id": "https://manifests.teklia.com/HIMANIS/LAT10919/words_annotations/http_gallica.bnf.fr_iiif_ark:_12148_btv1b9065926v_f220_full_full_0_native.jpg.json/1/line", 
            "@type": "oa:Annotation", 
            "motivation": "oa:painting", 
            "on": "http://gallica.bnf.fr/iiif/ark:/12148/btv1b9065926v/canvas/f220#xywh=3094,2681,0,64", 
            "resource": {
                "@type": "cnt:ContentAsText", 
                "chars": "J", 
                "format": "text/plain"
            }
        }, 
        {
            "@id": "https://manifests.teklia.com/HIMANIS/LAT10919/words_annotations/http_gallica.bnf.fr_iiif_ark:_12148_btv1b9065926v_f220_full_full_0_native.jpg.json/2/line", 
            "@type": "oa:Annotation", 
            "motivation": "oa:painting", 
            "on": "http://gallica.bnf.fr/iiif/ark:/12148/btv1b9065926v/canvas/f220#xywh=3094,2681,0,64", 
            "resource": {
                "@type": "cnt:ContentAsText", 
                "chars": "R", 
                "format": "text/plain"
            }
        }, 
        {
            "@id": "https://manifests.teklia.com/HIMANIS/LAT10919/words_annotations/http_gallica.bnf.fr_iiif_ark:_12148_btv1b9065926v_f220_full_full_0_native.jpg.json/3/line", 
            "@type": "oa:Annotation", 
            "motivation": "oa:painting", 
            "on": "http://gallica.bnf.fr/iiif/ark:/12148/btv1b9065926v/canvas/f220#xywh=3111,2583,94,83", 
            "resource": {
                "@type": "cnt:ContentAsText", 
                "chars": "DERE", 
                "format": "text/plain"
            }
        }, 
        {
            "@id": "https://manifests.teklia.com/HIMANIS/LAT10919/words_annotations/http_gallica.bnf.fr_iiif_ark:_12148_btv1b9065926v_f220_full_full_0_native.jpg.json/4/line", 
            "@type": "oa:Annotation", 
            "motivation": "oa:painting", 
            "on": "http://gallica.bnf.fr/iiif/ark:/12148/btv1b9065926v/canvas/f220#xywh=3052,890,153,97", 
            "resource": {
                "@type": "cnt:ContentAsText", 
                "chars": "CES", 
                "format": "text/plain"
            }
        }, 
        {
            "@id": "https://manifests.teklia.com/HIMANIS/LAT10919/words_annotations/http_gallica.bnf.fr_iiif_ark:_12148_btv1b9065926v_f220_full_full_0_native.jpg.json/5/line", 
            "@type": "oa:Annotation", 
            "motivation": "oa:painting", 
            "on": "http://gallica.bnf.fr/iiif/ark:/12148/btv1b9065926v/canvas/f220#xywh=3075,1224,110,85", 
            "resource": {
                "@type": "cnt:ContentAsText", 
                "chars": "VIE", 
                "format": "text/plain"
            }
        }, 
        {
            "@id": "https://manifests.teklia.com/HIMANIS/LAT10919/words_annotations/http_gallica.bnf.fr_iiif_ark:_12148_btv1b9065926v_f220_full_full_0_native.jpg.json/6/line", 
            "@type": "oa:Annotation", 
            "motivation": "oa:painting", 
            "on": "http://gallica.bnf.fr/iiif/ark:/12148/btv1b9065926v/canvas/f220#xywh=3105,3147,0,52", 
            "resource": {
                "@type": "cnt:ContentAsText", 
                "chars": "G", 
                "format": "text/plain"
            }
        }, 
        {
            "@id": "https://manifests.teklia.com/HIMANIS/LAT10919/words_annotations/http_gallica.bnf.fr_iiif_ark:_12148_btv1b9065926v_f220_full_full_0_native.jpg.json/7/line", 
            "@type": "oa:Annotation", 
            "motivation": "oa:painting", 
            "on": "http://gallica.bnf.fr/iiif/ark:/12148/btv1b9065926v/canvas/f220#xywh=3105,3147,0,52", 
            "resource": {
                "@type": "cnt:ContentAsText", 
                "chars": "S", 
                "format": "text/plain"
            }
        }, 
        {
            "@id": "https://manifests.teklia.com/HIMANIS/LAT10919/words_annotations/http_gallica.bnf.fr_iiif_ark:_12148_btv1b9065926v_f220_full_full_0_native.jpg.json/8/line", 
            "@type": "oa:Annotation", 
            "motivation": "oa:painting", 
            "on": "http://gallica.bnf.fr/iiif/ark:/12148/btv1b9065926v/canvas/f220#xywh=4,0,147,63", 
            "resource": {
                "@type": "cnt:ContentAsText", 
                "chars": "SE", 
                "format": "text/plain"
            }
        }, 
        {
            "@id": "https://manifests.teklia.com/HIMANIS/LAT10919/words_annotations/http_gallica.bnf.fr_iiif_ark:_12148_btv1b9065926v_f220_full_full_0_native.jpg.json/9/line", 
            "@type": "oa:Annotation", 
            "motivation": "oa:painting", 
            "on": "http://gallica.bnf.fr/iiif/ark:/12148/btv1b9065926v/canvas/f220#xywh=3103,2870,64,48", 
            "resource": {
                "@type": "cnt:ContentAsText", 
                "chars": "DI", 
                "format": "text/plain"
            }
        }, 
        {
            "@id": "https://manifests.teklia.com/HIMANIS/LAT10919/words_annotations/http_gallica.bnf.fr_iiif_ark:_12148_btv1b9065926v_f220_full_full_0_native.jpg.json/10/line", 
            "@type": "oa:Annotation", 
            "motivation": "oa:painting", 
            "on": "http://gallica.bnf.fr/iiif/ark:/12148/btv1b9065926v/canvas/f220#xywh=3069,737,122,73", 
            "resource": {
                "@type": "cnt:ContentAsText", 
                "chars": "VEIGNE", 
                "format": "text/plain"
            }
        }, 
        {
            "@id": "https://manifests.teklia.com/HIMANIS/LAT10919/words_annotations/http_gallica.bnf.fr_iiif_ark:_12148_btv1b9065926v_f220_full_full_0_native.jpg.json/11/line", 
            "@type": "oa:Annotation", 
            "motivation": "oa:painting", 
            "on": "http://gallica.bnf.fr/iiif/ark:/12148/btv1b9065926v/canvas/f220#xywh=3075,1224,110,85", 
            "resource": {
                "@type": "cnt:ContentAsText", 
                "chars": "ME", 
                "format": "text/plain"
            }
        }, 
        {
            "@id": "https://manifests.teklia.com/HIMANIS/LAT10919/words_annotations/http_gallica.bnf.fr_iiif_ark:_12148_btv1b9065926v_f220_full_full_0_native.jpg.json/12/line", 
            "@type": "oa:Annotation", 
            "motivation": "oa:painting", 
            "on": "http://gallica.bnf.fr/iiif/ark:/12148/btv1b9065926v/canvas/f220#xywh=3079,1479,106,63", 
            "resource": {
                "@type": "cnt:ContentAsText", 
                "chars": "CII", 
                "format": "text/plain"
            }
        }, 
        {
            "@id": "https://manifests.teklia.com/HIMANIS/LAT10919/words_annotations/http_gallica.bnf.fr_iiif_ark:_12148_btv1b9065926v_f220_full_full_0_native.jpg.json/13/line", 
            "@type": "oa:Annotation", 
            "motivation": "oa:painting", 
            "on": "http://gallica.bnf.fr/iiif/ark:/12148/btv1b9065926v/canvas/f220#xywh=4,0,0,63", 
            "resource": {
                "@type": "cnt:ContentAsText", 
                "chars": "P", 
                "format": "text/plain"
            }
        }, 
        {
            "@id": "https://manifests.teklia.com/HIMANIS/LAT10919/words_annotations/http_gallica.bnf.fr_iiif_ark:_12148_btv1b9065926v_f220_full_full_0_native.jpg.json/14/line", 
            "@type": "oa:Annotation", 
            "motivation": "oa:painting", 
            "on": "http://gallica.bnf.fr/iiif/ark:/12148/btv1b9065926v/canvas/f220#xywh=1119,3910,1487,133", 
            "resource": {
                "@type": "cnt:ContentAsText", 
                "chars": "PHIL", 
                "format": "text/plain"
            }
        }, 
        {
            "@id": "https://manifests.teklia.com/HIMANIS/LAT10919/words_annotations/http_gallica.bnf.fr_iiif_ark:_12148_btv1b9065926v_f220_full_full_0_native.jpg.json/15/line", 
            "@type": "oa:Annotation", 
            "motivation": "oa:painting", 
            "on": "http://gallica.bnf.fr/iiif/ark:/12148/btv1b9065926v/canvas/f220#xywh=3068,840,132,50", 
            "resource": {
                "@type": "cnt:ContentAsText", 
                "chars": "GUILL", 
                "format": "text/plain"
            }
        }, 
        {
            "@id": "https://manifests.teklia.com/HIMANIS/LAT10919/words_annotations/http_gallica.bnf.fr_iiif_ark:_12148_btv1b9065926v_f220_full_full_0_native.jpg.json/16/line", 
            "@type": "oa:Annotation", 
            "motivation": "oa:painting", 
            "on": "http://gallica.bnf.fr/iiif/ark:/12148/btv1b9065926v/canvas/f220#xywh=3075,1224,110,85", 
            "resource": {
                "@type": "cnt:ContentAsText", 
                "chars": "AVE", 
                "format": "text/plain"
            }
        }, 
        {
            "@id": "https://manifests.teklia.com/HIMANIS/LAT10919/words_annotations/http_gallica.bnf.fr_iiif_ark:_12148_btv1b9065926v_f220_full_full_0_native.jpg.json/17/line", 
            "@type": "oa:Annotation", 
            "motivation": "oa:painting", 
            "on": "http://gallica.bnf.fr/iiif/ark:/12148/btv1b9065926v/canvas/f220#xywh=3088,2407,0,46", 
            "resource": {
                "@type": "cnt:ContentAsText", 
                "chars": "I", 
                "format": "text/plain"
            }
        }, 
        {
            "@id": "https://manifests.teklia.com/HIMANIS/LAT10919/words_annotations/http_gallica.bnf.fr_iiif_ark:_12148_btv1b9065926v_f220_full_full_0_native.jpg.json/18/line", 
            "@type": "oa:Annotation", 
            "motivation": "oa:painting", 
            "on": "http://gallica.bnf.fr/iiif/ark:/12148/btv1b9065926v/canvas/f220#xywh=3088,2407,0,46", 
            "resource": {
                "@type": "cnt:ContentAsText", 
                "chars": "J", 
                "format": "text/plain"
            }
        }, 
        {
            "@id": "https://manifests.teklia.com/HIMANIS/LAT10919/words_annotations/http_gallica.bnf.fr_iiif_ark:_12148_btv1b9065926v_f220_full_full_0_native.jpg.json/19/line", 
            "@type": "oa:Annotation", 
            "motivation": "oa:painting", 
            "on": "http://gallica.bnf.fr/iiif/ark:/12148/btv1b9065926v/canvas/f220#xywh=3069,1384,133,95", 
            "resource": {
                "@type": "cnt:ContentAsText", 
                "chars": "UNE", 
                "format": "text/plain"
            }
        }, 
        {
            "@id": "https://manifests.teklia.com/HIMANIS/LAT10919/words_annotations/http_gallica.bnf.fr_iiif_ark:_12148_btv1b9065926v_f220_full_full_0_native.jpg.json/20/line", 
            "@type": "oa:Annotation", 
            "motivation": "oa:painting", 
            "on": "http://gallica.bnf.fr/iiif/ark:/12148/btv1b9065926v/canvas/f220#xywh=3075,1224,126,85", 
            "resource": {
                "@type": "cnt:ContentAsText", 
                "chars": "AIEN", 
                "format": "text/plain"
            }
        }, 
        {
            "@id": "https://manifests.teklia.com/HIMANIS/LAT10919/words_annotations/http_gallica.bnf.fr_iiif_ark:_12148_btv1b9065926v_f220_full_full_0_native.jpg.json/21/line", 
            "@type": "oa:Annotation", 
            "motivation": "oa:painting", 
            "on": "http://gallica.bnf.fr/iiif/ark:/12148/btv1b9065926v/canvas/f220#xywh=3068,840,132,50", 
            "resource": {
                "@type": "cnt:ContentAsText", 
                "chars": "AUCUN", 
                "format": "text/plain"
            }
        }, 
        {
            "@id": "https://manifests.teklia.com/HIMANIS/LAT10919/words_annotations/http_gallica.bnf.fr_iiif_ark:_12148_btv1b9065926v_f220_full_full_0_native.jpg.json/22/line", 
            "@type": "oa:Annotation", 
            "motivation": "oa:painting", 
            "on": "http://gallica.bnf.fr/iiif/ark:/12148/btv1b9065926v/canvas/f220#xywh=3098,2037,92,60", 
            "resource": {
                "@type": "cnt:ContentAsText", 
                "chars": "DITE", 
                "format": "text/plain"
            }
        }, 
        {
            "@id": "https://manifests.teklia.com/HIMANIS/LAT10919/words_annotations/http_gallica.bnf.fr_iiif_ark:_12148_btv1b9065926v_f220_full_full_0_native.jpg.json/23/line", 
            "@type": "oa:Annotation", 
            "motivation": "oa:painting", 
            "on": "http://gallica.bnf.fr/iiif/ark:/12148/btv1b9065926v/canvas/f220#xywh=4,0,163,63", 
            "resource": {
                "@type": "cnt:ContentAsText", 
                "chars": "SIN", 
                "format": "text/plain"
            }
        }, 
        {
            "@id": "https://manifests.teklia.com/HIMANIS/LAT10919/words_annotations/http_gallica.bnf.fr_iiif_ark:_12148_btv1b9065926v_f220_full_full_0_native.jpg.json/24/line", 
            "@type": "oa:Annotation", 
            "motivation": "oa:painting", 
            "on": "http://gallica.bnf.fr/iiif/ark:/12148/btv1b9065926v/canvas/f220#xywh=818,0,441,63", 
            "resource": {
                "@type": "cnt:ContentAsText", 
                "chars": "LA", 
                "format": "text/plain"
            }
        }, 
        {
            "@id": "https://manifests.teklia.com/HIMANIS/LAT10919/words_annotations/http_gallica.bnf.fr_iiif_ark:_12148_btv1b9065926v_f220_full_full_0_native.jpg.json/25/line", 
            "@type": "oa:Annotation", 
            "motivation": "oa:painting", 
            "on": "http://gallica.bnf.fr/iiif/ark:/12148/btv1b9065926v/canvas/f220#xywh=3002,533,118,35", 
            "resource": {
                "@type": "cnt:ContentAsText", 
                "chars": "DE", 
                "format": "text/plain"
            }
        }, 
        {
            "@id": "https://manifests.teklia.com/HIMANIS/LAT10919/words_annotations/http_gallica.bnf.fr_iiif_ark:_12148_btv1b9065926v_f220_full_full_0_native.jpg.json/26/line", 
            "@type": "oa:Annotation", 
            "motivation": "oa:painting", 
            "on": "http://gallica.bnf.fr/iiif/ark:/12148/btv1b9065926v/canvas/f220#xywh=945,0,80,63", 
            "resource": {
                "@type": "cnt:ContentAsText", 
                "chars": "LE", 
                "format": "text/plain"
            }
        }, 
        {
            "@id": "https://manifests.teklia.com/HIMANIS/LAT10919/words_annotations/http_gallica.bnf.fr_iiif_ark:_12148_btv1b9065926v_f220_full_full_0_native.jpg.json/27/line", 
            "@type": "oa:Annotation", 
            "motivation": "oa:painting", 
            "on": "http://gallica.bnf.fr/iiif/ark:/12148/btv1b9065926v/canvas/f220#xywh=818,0,99,63", 
            "resource": {
                "@type": "cnt:ContentAsText", 
                "chars": "DE", 
                "format": "text/plain"
            }
        }, 
        {
            "@id": "https://manifests.teklia.com/HIMANIS/LAT10919/words_annotations/http_gallica.bnf.fr_iiif_ark:_12148_btv1b9065926v_f220_full_full_0_native.jpg.json/28/line", 
            "@type": "oa:Annotation", 
            "motivation": "oa:painting", 
            "on": "http://gallica.bnf.fr/iiif/ark:/12148/btv1b9065926v/canvas/f220#xywh=3098,2037,92,60", 
            "resource": {
                "@type": "cnt:ContentAsText", 
                "chars": "ITE", 
                "format": "text/plain"
            }
        }, 
        {
            "@id": "https://manifests.teklia.com/HIMANIS/LAT10919/words_annotations/http_gallica.bnf.fr_iiif_ark:_12148_btv1b9065926v_f220_full_full_0_native.jpg.json/29/line", 
            "@type": "oa:Annotation", 
            "motivation": "oa:painting", 
            "on": "http://gallica.bnf.fr/iiif/ark:/12148/btv1b9065926v/canvas/f220#xywh=2403,0,274,57", 
            "resource": {
                "@type": "cnt:ContentAsText", 
                "chars": "DE", 
                "format": "text/plain"
            }
        }, 
        {
            "@id": "https://manifests.teklia.com/HIMANIS/LAT10919/words_annotations/http_gallica.bnf.fr_iiif_ark:_12148_btv1b9065926v_f220_full_full_0_native.jpg.json/30/line", 
            "@type": "oa:Annotation", 
            "motivation": "oa:painting", 
            "on": "http://gallica.bnf.fr/iiif/ark:/12148/btv1b9065926v/canvas/f220#xywh=2403,0,801,57", 
            "resource": {
                "@type": "cnt:ContentAsText", 
                "chars": "DILEC", 
                "format": "text/plain"
            }
        }, 
        {
            "@id": "https://manifests.teklia.com/HIMANIS/LAT10919/words_annotations/http_gallica.bnf.fr_iiif_ark:_12148_btv1b9065926v_f220_full_full_0_native.jpg.json/31/line", 
            "@type": "oa:Annotation", 
            "motivation": "oa:painting", 
            "on": "http://gallica.bnf.fr/iiif/ark:/12148/btv1b9065926v/canvas/f220#xywh=3062,1771,0,60", 
            "resource": {
                "@type": "cnt:ContentAsText", 
                "chars": "C", 
                "format": "text/plain"
            }
        }, 
        {
            "@id": "https://manifests.teklia.com/HIMANIS/LAT10919/words_annotations/http_gallica.bnf.fr_iiif_ark:_12148_btv1b9065926v_f220_full_full_0_native.jpg.json/32/line", 
            "@type": "oa:Annotation", 
            "motivation": "oa:painting", 
            "on": "http://gallica.bnf.fr/iiif/ark:/12148/btv1b9065926v/canvas/f220#xywh=3062,1771,0,60", 
            "resource": {
                "@type": "cnt:ContentAsText", 
                "chars": "G", 
                "format": "text/plain"
            }
        }, 
        {
            "@id": "https://manifests.teklia.com/HIMANIS/LAT10919/words_annotations/http_gallica.bnf.fr_iiif_ark:_12148_btv1b9065926v_f220_full_full_0_native.jpg.json/33/line", 
            "@type": "oa:Annotation", 
            "motivation": "oa:painting", 
            "on": "http://gallica.bnf.fr/iiif/ark:/12148/btv1b9065926v/canvas/f220#xywh=2403,0,790,57", 
            "resource": {
                "@type": "cnt:ContentAsText", 
                "chars": "DENIE", 
                "format": "text/plain"
            }
        }, 
        {
            "@id": "https://manifests.teklia.com/HIMANIS/LAT10919/words_annotations/http_gallica.bnf.fr_iiif_ark:_12148_btv1b9065926v_f220_full_full_0_native.jpg.json/34/line", 
            "@type": "oa:Annotation", 
            "motivation": "oa:painting", 
            "on": "http://gallica.bnf.fr/iiif/ark:/12148/btv1b9065926v/canvas/f220#xywh=3072,1004,55,73", 
            "resource": {
                "@type": "cnt:ContentAsText", 
                "chars": "RIE", 
                "format": "text/plain"
            }
        }, 
        {
            "@id": "https://manifests.teklia.com/HIMANIS/LAT10919/words_annotations/http_gallica.bnf.fr_iiif_ark:_12148_btv1b9065926v_f220_full_full_0_native.jpg.json/35/line", 
            "@type": "oa:Annotation", 
            "motivation": "oa:painting", 
            "on": "http://gallica.bnf.fr/iiif/ark:/12148/btv1b9065926v/canvas/f220#xywh=3049,1103,0,65", 
            "resource": {
                "@type": "cnt:ContentAsText", 
                "chars": "P", 
                "format": "text/plain"
            }
        }, 
        {
            "@id": "https://manifests.teklia.com/HIMANIS/LAT10919/words_annotations/http_gallica.bnf.fr_iiif_ark:_12148_btv1b9065926v_f220_full_full_0_native.jpg.json/36/line", 
            "@type": "oa:Annotation", 
            "motivation": "oa:painting", 
            "on": "http://gallica.bnf.fr/iiif/ark:/12148/btv1b9065926v/canvas/f220#xywh=3049,1103,0,65", 
            "resource": {
                "@type": "cnt:ContentAsText", 
                "chars": "R", 
                "format": "text/plain"
            }
        }, 
        {
            "@id": "https://manifests.teklia.com/HIMANIS/LAT10919/words_annotations/http_gallica.bnf.fr_iiif_ark:_12148_btv1b9065926v_f220_full_full_0_native.jpg.json/37/line", 
            "@type": "oa:Annotation", 
            "motivation": "oa:painting", 
            "on": "http://gallica.bnf.fr/iiif/ark:/12148/btv1b9065926v/canvas/f220#xywh=3102,2194,103,91", 
            "resource": {
                "@type": "cnt:ContentAsText", 
                "chars": "SICION", 
                "format": "text/plain"
            }
        }, 
        {
            "@id": "https://manifests.teklia.com/HIMANIS/LAT10919/words_annotations/http_gallica.bnf.fr_iiif_ark:_12148_btv1b9065926v_f220_full_full_0_native.jpg.json/38/line", 
            "@type": "oa:Annotation", 
            "motivation": "oa:painting", 
            "on": "http://gallica.bnf.fr/iiif/ark:/12148/btv1b9065926v/canvas/f220#xywh=2834,2757,370,89", 
            "resource": {
                "@type": "cnt:ContentAsText", 
                "chars": "PHILIPPONI", 
                "format": "text/plain"
            }
        }, 
        {
            "@id": "https://manifests.teklia.com/HIMANIS/LAT10919/words_annotations/http_gallica.bnf.fr_iiif_ark:_12148_btv1b9065926v_f220_full_full_0_native.jpg.json/39/line", 
            "@type": "oa:Annotation", 
            "motivation": "oa:painting", 
            "on": "http://gallica.bnf.fr/iiif/ark:/12148/btv1b9065926v/canvas/f220#xywh=3094,2128,0,48", 
            "resource": {
                "@type": "cnt:ContentAsText", 
                "chars": "J", 
                "format": "text/plain"
            }
        }, 
        {
            "@id": "https://manifests.teklia.com/HIMANIS/LAT10919/words_annotations/http_gallica.bnf.fr_iiif_ark:_12148_btv1b9065926v_f220_full_full_0_native.jpg.json/40/line", 
            "@type": "oa:Annotation", 
            "motivation": "oa:painting", 
            "on": "http://gallica.bnf.fr/iiif/ark:/12148/btv1b9065926v/canvas/f220#xywh=3081,1552,66,90", 
            "resource": {
                "@type": "cnt:ContentAsText", 
                "chars": "EST", 
                "format": "text/plain"
            }
        }, 
        {
            "@id": "https://manifests.teklia.com/HIMANIS/LAT10919/words_annotations/http_gallica.bnf.fr_iiif_ark:_12148_btv1b9065926v_f220_full_full_0_native.jpg.json/41/line", 
            "@type": "oa:Annotation", 
            "motivation": "oa:painting", 
            "on": "http://gallica.bnf.fr/iiif/ark:/12148/btv1b9065926v/canvas/f220#xywh=1674,0,289,48", 
            "resource": {
                "@type": "cnt:ContentAsText", 
                "chars": "LES", 
                "format": "text/plain"
            }
        }, 
        {
            "@id": "https://manifests.teklia.com/HIMANIS/LAT10919/words_annotations/http_gallica.bnf.fr_iiif_ark:_12148_btv1b9065926v_f220_full_full_0_native.jpg.json/42/line", 
            "@type": "oa:Annotation", 
            "motivation": "oa:painting", 
            "on": "http://gallica.bnf.fr/iiif/ark:/12148/btv1b9065926v/canvas/f220#xywh=3069,1384,133,95", 
            "resource": {
                "@type": "cnt:ContentAsText", 
                "chars": "MUNE", 
                "format": "text/plain"
            }
        }, 
        {
            "@id": "https://manifests.teklia.com/HIMANIS/LAT10919/words_annotations/http_gallica.bnf.fr_iiif_ark:_12148_btv1b9065926v_f220_full_full_0_native.jpg.json/43/line", 
            "@type": "oa:Annotation", 
            "motivation": "oa:painting", 
            "on": "http://gallica.bnf.fr/iiif/ark:/12148/btv1b9065926v/canvas/f220#xywh=818,0,99,63", 
            "resource": {
                "@type": "cnt:ContentAsText", 
                "chars": "ET", 
                "format": "text/plain"
            }
        }, 
        {
            "@id": "https://manifests.teklia.com/HIMANIS/LAT10919/words_annotations/http_gallica.bnf.fr_iiif_ark:_12148_btv1b9065926v_f220_full_full_0_native.jpg.json/44/line", 
            "@type": "oa:Annotation", 
            "motivation": "oa:painting", 
            "on": "http://gallica.bnf.fr/iiif/ark:/12148/btv1b9065926v/canvas/f220#xywh=1674,0,280,48", 
            "resource": {
                "@type": "cnt:ContentAsText", 
                "chars": "ET", 
                "format": "text/plain"
            }
        }, 
        {
            "@id": "https://manifests.teklia.com/HIMANIS/LAT10919/words_annotations/http_gallica.bnf.fr_iiif_ark:_12148_btv1b9065926v_f220_full_full_0_native.jpg.json/45/line", 
            "@type": "oa:Annotation", 
            "motivation": "oa:painting", 
            "on": "http://gallica.bnf.fr/iiif/ark:/12148/btv1b9065926v/canvas/f220#xywh=2403,0,285,57", 
            "resource": {
                "@type": "cnt:ContentAsText", 
                "chars": "ET", 
                "format": "text/plain"
            }
        }, 
        {
            "@id": "https://manifests.teklia.com/HIMANIS/LAT10919/words_annotations/http_gallica.bnf.fr_iiif_ark:_12148_btv1b9065926v_f220_full_full_0_native.jpg.json/46/line", 
            "@type": "oa:Annotation", 
            "motivation": "oa:painting", 
            "on": "http://gallica.bnf.fr/iiif/ark:/12148/btv1b9065926v/canvas/f220#xywh=3088,2407,89,46", 
            "resource": {
                "@type": "cnt:ContentAsText", 
                "chars": "DI", 
                "format": "text/plain"
            }
        }, 
        {
            "@id": "https://manifests.teklia.com/HIMANIS/LAT10919/words_annotations/http_gallica.bnf.fr_iiif_ark:_12148_btv1b9065926v_f220_full_full_0_native.jpg.json/47/line", 
            "@type": "oa:Annotation", 
            "motivation": "oa:painting", 
            "on": "http://gallica.bnf.fr/iiif/ark:/12148/btv1b9065926v/canvas/f220#xywh=3110,2322,0,35", 
            "resource": {
                "@type": "cnt:ContentAsText", 
                "chars": "J", 
                "format": "text/plain"
            }
        }, 
        {
            "@id": "https://manifests.teklia.com/HIMANIS/LAT10919/words_annotations/http_gallica.bnf.fr_iiif_ark:_12148_btv1b9065926v_f220_full_full_0_native.jpg.json/48/line", 
            "@type": "oa:Annotation", 
            "motivation": "oa:painting", 
            "on": "http://gallica.bnf.fr/iiif/ark:/12148/btv1b9065926v/canvas/f220#xywh=3110,2322,0,35", 
            "resource": {
                "@type": "cnt:ContentAsText", 
                "chars": "P", 
                "format": "text/plain"
            }
        }, 
        {
            "@id": "https://manifests.teklia.com/HIMANIS/LAT10919/words_annotations/http_gallica.bnf.fr_iiif_ark:_12148_btv1b9065926v_f220_full_full_0_native.jpg.json/49/line", 
            "@type": "oa:Annotation", 
            "motivation": "oa:painting", 
            "on": "http://gallica.bnf.fr/iiif/ark:/12148/btv1b9065926v/canvas/f220#xywh=3110,2322,0,35", 
            "resource": {
                "@type": "cnt:ContentAsText", 
                "chars": "R", 
                "format": "text/plain"
            }
        }, 
        {
            "@id": "https://manifests.teklia.com/HIMANIS/LAT10919/words_annotations/http_gallica.bnf.fr_iiif_ark:_12148_btv1b9065926v_f220_full_full_0_native.jpg.json/50/line", 
            "@type": "oa:Annotation", 
            "motivation": "oa:painting", 
            "on": "http://gallica.bnf.fr/iiif/ark:/12148/btv1b9065926v/canvas/f220#xywh=3079,1479,106,63", 
            "resource": {
                "@type": "cnt:ContentAsText", 
                "chars": "CCC", 
                "format": "text/plain"
            }
        }, 
        {
            "@id": "https://manifests.teklia.com/HIMANIS/LAT10919/words_annotations/http_gallica.bnf.fr_iiif_ark:_12148_btv1b9065926v_f220_full_full_0_native.jpg.json/51/line", 
            "@type": "oa:Annotation", 
            "motivation": "oa:painting", 
            "on": "http://gallica.bnf.fr/iiif/ark:/12148/btv1b9065926v/canvas/f220#xywh=3083,1309,112,75", 
            "resource": {
                "@type": "cnt:ContentAsText", 
                "chars": "CE", 
                "format": "text/plain"
            }
        }, 
        {
            "@id": "https://manifests.teklia.com/HIMANIS/LAT10919/words_annotations/http_gallica.bnf.fr_iiif_ark:_12148_btv1b9065926v_f220_full_full_0_native.jpg.json/52/line", 
            "@type": "oa:Annotation", 
            "motivation": "oa:painting", 
            "on": "http://gallica.bnf.fr/iiif/ark:/12148/btv1b9065926v/canvas/f220#xywh=3051,1957,0,80", 
            "resource": {
                "@type": "cnt:ContentAsText", 
                "chars": "P", 
                "format": "text/plain"
            }
        }, 
        {
            "@id": "https://manifests.teklia.com/HIMANIS/LAT10919/words_annotations/http_gallica.bnf.fr_iiif_ark:_12148_btv1b9065926v_f220_full_full_0_native.jpg.json/53/line", 
            "@type": "oa:Annotation", 
            "motivation": "oa:painting", 
            "on": "http://gallica.bnf.fr/iiif/ark:/12148/btv1b9065926v/canvas/f220#xywh=3085,1642,50,75", 
            "resource": {
                "@type": "cnt:ContentAsText", 
                "chars": "GEN", 
                "format": "text/plain"
            }
        }, 
        {
            "@id": "https://manifests.teklia.com/HIMANIS/LAT10919/words_annotations/http_gallica.bnf.fr_iiif_ark:_12148_btv1b9065926v_f220_full_full_0_native.jpg.json/54/line", 
            "@type": "oa:Annotation", 
            "motivation": "oa:painting", 
            "on": "http://gallica.bnf.fr/iiif/ark:/12148/btv1b9065926v/canvas/f220#xywh=3096,2509,0,45", 
            "resource": {
                "@type": "cnt:ContentAsText", 
                "chars": "H", 
                "format": "text/plain"
            }
        }, 
        {
            "@id": "https://manifests.teklia.com/HIMANIS/LAT10919/words_annotations/http_gallica.bnf.fr_iiif_ark:_12148_btv1b9065926v_f220_full_full_0_native.jpg.json/55/line", 
            "@type": "oa:Annotation", 
            "motivation": "oa:painting", 
            "on": "http://gallica.bnf.fr/iiif/ark:/12148/btv1b9065926v/canvas/f220#xywh=3096,2509,0,45", 
            "resource": {
                "@type": "cnt:ContentAsText", 
                "chars": "J", 
                "format": "text/plain"
            }
        }, 
        {
            "@id": "https://manifests.teklia.com/HIMANIS/LAT10919/words_annotations/http_gallica.bnf.fr_iiif_ark:_12148_btv1b9065926v_f220_full_full_0_native.jpg.json/56/line", 
            "@type": "oa:Annotation", 
            "motivation": "oa:painting", 
            "on": "http://gallica.bnf.fr/iiif/ark:/12148/btv1b9065926v/canvas/f220#xywh=3096,2509,0,45", 
            "resource": {
                "@type": "cnt:ContentAsText", 
                "chars": "R", 
                "format": "text/plain"
            }
        }, 
        {
            "@id": "https://manifests.teklia.com/HIMANIS/LAT10919/words_annotations/http_gallica.bnf.fr_iiif_ark:_12148_btv1b9065926v_f220_full_full_0_native.jpg.json/57/line", 
            "@type": "oa:Annotation", 
            "motivation": "oa:painting", 
            "on": "http://gallica.bnf.fr/iiif/ark:/12148/btv1b9065926v/canvas/f220#xywh=3072,1004,32,73", 
            "resource": {
                "@type": "cnt:ContentAsText", 
                "chars": "RE", 
                "format": "text/plain"
            }
        }, 
        {
            "@id": "https://manifests.teklia.com/HIMANIS/LAT10919/words_annotations/http_gallica.bnf.fr_iiif_ark:_12148_btv1b9065926v_f220_full_full_0_native.jpg.json/58/line", 
            "@type": "oa:Annotation", 
            "motivation": "oa:painting", 
            "on": "http://gallica.bnf.fr/iiif/ark:/12148/btv1b9065926v/canvas/f220#xywh=2785,0,412,57", 
            "resource": {
                "@type": "cnt:ContentAsText", 
                "chars": "NO", 
                "format": "text/plain"
            }
        }, 
        {
            "@id": "https://manifests.teklia.com/HIMANIS/LAT10919/words_annotations/http_gallica.bnf.fr_iiif_ark:_12148_btv1b9065926v_f220_full_full_0_native.jpg.json/59/line", 
            "@type": "oa:Annotation", 
            "motivation": "oa:painting", 
            "on": "http://gallica.bnf.fr/iiif/ark:/12148/btv1b9065926v/canvas/f220#xywh=818,0,215,63", 
            "resource": {
                "@type": "cnt:ContentAsText", 
                "chars": "LETTRE", 
                "format": "text/plain"
            }
        }, 
        {
            "@id": "https://manifests.teklia.com/HIMANIS/LAT10919/words_annotations/http_gallica.bnf.fr_iiif_ark:_12148_btv1b9065926v_f220_full_full_0_native.jpg.json/60/line", 
            "@type": "oa:Annotation", 
            "motivation": "oa:painting", 
            "on": "http://gallica.bnf.fr/iiif/ark:/12148/btv1b9065926v/canvas/f220#xywh=3069,737,122,73", 
            "resource": {
                "@type": "cnt:ContentAsText", 
                "chars": "SEIGNE", 
                "format": "text/plain"
            }
        }, 
        {
            "@id": "https://manifests.teklia.com/HIMANIS/LAT10919/words_annotations/http_gallica.bnf.fr_iiif_ark:_12148_btv1b9065926v_f220_full_full_0_native.jpg.json/61/line", 
            "@type": "oa:Annotation", 
            "motivation": "oa:painting", 
            "on": "http://gallica.bnf.fr/iiif/ark:/12148/btv1b9065926v/canvas/f220#xywh=3083,1309,0,75", 
            "resource": {
                "@type": "cnt:ContentAsText", 
                "chars": "C", 
                "format": "text/plain"
            }
        }, 
        {
            "@id": "https://manifests.teklia.com/HIMANIS/LAT10919/words_annotations/http_gallica.bnf.fr_iiif_ark:_12148_btv1b9065926v_f220_full_full_0_native.jpg.json/62/line", 
            "@type": "oa:Annotation", 
            "motivation": "oa:painting", 
            "on": "http://gallica.bnf.fr/iiif/ark:/12148/btv1b9065926v/canvas/f220#xywh=3069,737,135,73", 
            "resource": {
                "@type": "cnt:ContentAsText", 
                "chars": "VEIGES", 
                "format": "text/plain"
            }
        }, 
        {
            "@id": "https://manifests.teklia.com/HIMANIS/LAT10919/words_annotations/http_gallica.bnf.fr_iiif_ark:_12148_btv1b9065926v_f220_full_full_0_native.jpg.json/63/line", 
            "@type": "oa:Annotation", 
            "motivation": "oa:painting", 
            "on": "http://gallica.bnf.fr/iiif/ark:/12148/btv1b9065926v/canvas/f220#xywh=3108,2938,0,72", 
            "resource": {
                "@type": "cnt:ContentAsText", 
                "chars": "P", 
                "format": "text/plain"
            }
        }, 
        {
            "@id": "https://manifests.teklia.com/HIMANIS/LAT10919/words_annotations/http_gallica.bnf.fr_iiif_ark:_12148_btv1b9065926v_f220_full_full_0_native.jpg.json/64/line", 
            "@type": "oa:Annotation", 
            "motivation": "oa:painting", 
            "on": "http://gallica.bnf.fr/iiif/ark:/12148/btv1b9065926v/canvas/f220#xywh=3068,840,132,50", 
            "resource": {
                "@type": "cnt:ContentAsText", 
                "chars": "GUICH", 
                "format": "text/plain"
            }
        }, 
        {
            "@id": "https://manifests.teklia.com/HIMANIS/LAT10919/words_annotations/http_gallica.bnf.fr_iiif_ark:_12148_btv1b9065926v_f220_full_full_0_native.jpg.json/65/line", 
            "@type": "oa:Annotation", 
            "motivation": "oa:painting", 
            "on": "http://gallica.bnf.fr/iiif/ark:/12148/btv1b9065926v/canvas/f220#xywh=3075,1864,0,44", 
            "resource": {
                "@type": "cnt:ContentAsText", 
                "chars": "H", 
                "format": "text/plain"
            }
        }, 
        {
            "@id": "https://manifests.teklia.com/HIMANIS/LAT10919/words_annotations/http_gallica.bnf.fr_iiif_ark:_12148_btv1b9065926v_f220_full_full_0_native.jpg.json/66/line", 
            "@type": "oa:Annotation", 
            "motivation": "oa:painting", 
            "on": "http://gallica.bnf.fr/iiif/ark:/12148/btv1b9065926v/canvas/f220#xywh=3083,1309,98,75", 
            "resource": {
                "@type": "cnt:ContentAsText", 
                "chars": "TE", 
                "format": "text/plain"
            }
        }, 
        {
            "@id": "https://manifests.teklia.com/HIMANIS/LAT10919/words_annotations/http_gallica.bnf.fr_iiif_ark:_12148_btv1b9065926v_f220_full_full_0_native.jpg.json/67/line", 
            "@type": "oa:Annotation", 
            "motivation": "oa:painting", 
            "on": "http://gallica.bnf.fr/iiif/ark:/12148/btv1b9065926v/canvas/f220#xywh=3075,1864,0,44", 
            "resource": {
                "@type": "cnt:ContentAsText", 
                "chars": "J", 
                "format": "text/plain"
            }
        }, 
        {
            "@id": "https://manifests.teklia.com/HIMANIS/LAT10919/words_annotations/http_gallica.bnf.fr_iiif_ark:_12148_btv1b9065926v_f220_full_full_0_native.jpg.json/68/line", 
            "@type": "oa:Annotation", 
            "motivation": "oa:painting", 
            "on": "http://gallica.bnf.fr/iiif/ark:/12148/btv1b9065926v/canvas/f220#xywh=3083,1309,93,75", 
            "resource": {
                "@type": "cnt:ContentAsText", 
                "chars": "TI", 
                "format": "text/plain"
            }
        }
    ]
}