{
    "@context": "http://iiif.io/api/presentation/2/context.json", 
    "@id": "https://manifests.teklia.com/HIMANIS/JJ068/words_annotations/FRCHANJJ_JJ068_0187R.json", 
    "@type": "sc:AnnotationList", 
    "resources": [
        {
            "@id": "https://manifests.teklia.com/HIMANIS/JJ068/words_annotations/FRCHANJJ_JJ068_0187R.json/0/line", 
            "@type": "oa:Annotation", 
            "motivation": "oa:painting", 
            "on": "http://bvmm.irht.cnrs.fr/iiif/23652/canvas/canvas-2285746#xywh=1905,1110,30,60", 
            "resource": {
                "@type": "cnt:ContentAsText", 
                "chars": "PORR", 
                "format": "text/plain"
            }
        }, 
        {
            "@id": "https://manifests.teklia.com/HIMANIS/JJ068/words_annotations/FRCHANJJ_JJ068_0187R.json/1/line", 
            "@type": "oa:Annotation", 
            "motivation": "oa:painting", 
            "on": "http://bvmm.irht.cnrs.fr/iiif/23652/canvas/canvas-2285746#xywh=420,1515,0,45", 
            "resource": {
                "@type": "cnt:ContentAsText", 
                "chars": "A", 
                "format": "text/plain"
            }
        }, 
        {
            "@id": "https://manifests.teklia.com/HIMANIS/JJ068/words_annotations/FRCHANJJ_JJ068_0187R.json/2/line", 
            "@type": "oa:Annotation", 
            "motivation": "oa:painting", 
            "on": "http://bvmm.irht.cnrs.fr/iiif/23652/canvas/canvas-2285746#xywh=1524,638,85,21", 
            "resource": {
                "@type": "cnt:ContentAsText", 
                "chars": "CCC", 
                "format": "text/plain"
            }
        }, 
        {
            "@id": "https://manifests.teklia.com/HIMANIS/JJ068/words_annotations/FRCHANJJ_JJ068_0187R.json/3/line", 
            "@type": "oa:Annotation", 
            "motivation": "oa:painting", 
            "on": "http://bvmm.irht.cnrs.fr/iiif/23652/canvas/canvas-2285746#xywh=428,1515,180,45", 
            "resource": {
                "@type": "cnt:ContentAsText", 
                "chars": "FAIRE", 
                "format": "text/plain"
            }
        }, 
        {
            "@id": "https://manifests.teklia.com/HIMANIS/JJ068/words_annotations/FRCHANJJ_JJ068_0187R.json/4/line", 
            "@type": "oa:Annotation", 
            "motivation": "oa:painting", 
            "on": "http://bvmm.irht.cnrs.fr/iiif/23652/canvas/canvas-2285746#xywh=367,1585,73,55", 
            "resource": {
                "@type": "cnt:ContentAsText", 
                "chars": "PERIST", 
                "format": "text/plain"
            }
        }, 
        {
            "@id": "https://manifests.teklia.com/HIMANIS/JJ068/words_annotations/FRCHANJJ_JJ068_0187R.json/5/line", 
            "@type": "oa:Annotation", 
            "motivation": "oa:painting", 
            "on": "http://bvmm.irht.cnrs.fr/iiif/23652/canvas/canvas-2285746#xywh=1630,1110,103,60", 
            "resource": {
                "@type": "cnt:ContentAsText", 
                "chars": "ESPECIAL", 
                "format": "text/plain"
            }
        }, 
        {
            "@id": "https://manifests.teklia.com/HIMANIS/JJ068/words_annotations/FRCHANJJ_JJ068_0187R.json/6/line", 
            "@type": "oa:Annotation", 
            "motivation": "oa:painting", 
            "on": "http://bvmm.irht.cnrs.fr/iiif/23652/canvas/canvas-2285746#xywh=476,1260,0,21", 
            "resource": {
                "@type": "cnt:ContentAsText", 
                "chars": "G", 
                "format": "text/plain"
            }
        }, 
        {
            "@id": "https://manifests.teklia.com/HIMANIS/JJ068/words_annotations/FRCHANJJ_JJ068_0187R.json/7/line", 
            "@type": "oa:Annotation", 
            "motivation": "oa:painting", 
            "on": "http://bvmm.irht.cnrs.fr/iiif/23652/canvas/canvas-2285746#xywh=2390,3354,27,61", 
            "resource": {
                "@type": "cnt:ContentAsText", 
                "chars": "ET", 
                "format": "text/plain"
            }
        }, 
        {
            "@id": "https://manifests.teklia.com/HIMANIS/JJ068/words_annotations/FRCHANJJ_JJ068_0187R.json/8/line", 
            "@type": "oa:Annotation", 
            "motivation": "oa:painting", 
            "on": "http://bvmm.irht.cnrs.fr/iiif/23652/canvas/canvas-2285746#xywh=2506,3354,190,61", 
            "resource": {
                "@type": "cnt:ContentAsText", 
                "chars": "CONQUE", 
                "format": "text/plain"
            }
        }, 
        {
            "@id": "https://manifests.teklia.com/HIMANIS/JJ068/words_annotations/FRCHANJJ_JJ068_0187R.json/9/line", 
            "@type": "oa:Annotation", 
            "motivation": "oa:painting", 
            "on": "http://bvmm.irht.cnrs.fr/iiif/23652/canvas/canvas-2285746#xywh=2635,704,163,24", 
            "resource": {
                "@type": "cnt:ContentAsText", 
                "chars": "CCC", 
                "format": "text/plain"
            }
        }, 
        {
            "@id": "https://manifests.teklia.com/HIMANIS/JJ068/words_annotations/FRCHANJJ_JJ068_0187R.json/10/line", 
            "@type": "oa:Annotation", 
            "motivation": "oa:painting", 
            "on": "http://bvmm.irht.cnrs.fr/iiif/23652/canvas/canvas-2285746#xywh=476,1260,0,21", 
            "resource": {
                "@type": "cnt:ContentAsText", 
                "chars": "J", 
                "format": "text/plain"
            }
        }, 
        {
            "@id": "https://manifests.teklia.com/HIMANIS/JJ068/words_annotations/FRCHANJJ_JJ068_0187R.json/11/line", 
            "@type": "oa:Annotation", 
            "motivation": "oa:painting", 
            "on": "http://bvmm.irht.cnrs.fr/iiif/23652/canvas/canvas-2285746#xywh=2143,1283,121,33", 
            "resource": {
                "@type": "cnt:ContentAsText", 
                "chars": "ABSITE", 
                "format": "text/plain"
            }
        }, 
        {
            "@id": "https://manifests.teklia.com/HIMANIS/JJ068/words_annotations/FRCHANJJ_JJ068_0187R.json/12/line", 
            "@type": "oa:Annotation", 
            "motivation": "oa:painting", 
            "on": "http://bvmm.irht.cnrs.fr/iiif/23652/canvas/canvas-2285746#xywh=304,1585,11,55", 
            "resource": {
                "@type": "cnt:ContentAsText", 
                "chars": "OU", 
                "format": "text/plain"
            }
        }, 
        {
            "@id": "https://manifests.teklia.com/HIMANIS/JJ068/words_annotations/FRCHANJJ_JJ068_0187R.json/13/line", 
            "@type": "oa:Annotation", 
            "motivation": "oa:painting", 
            "on": "http://bvmm.irht.cnrs.fr/iiif/23652/canvas/canvas-2285746#xywh=637,253,121,45", 
            "resource": {
                "@type": "cnt:ContentAsText", 
                "chars": "FAISONS", 
                "format": "text/plain"
            }
        }, 
        {
            "@id": "https://manifests.teklia.com/HIMANIS/JJ068/words_annotations/FRCHANJJ_JJ068_0187R.json/14/line", 
            "@type": "oa:Annotation", 
            "motivation": "oa:painting", 
            "on": "http://bvmm.irht.cnrs.fr/iiif/23652/canvas/canvas-2285746#xywh=815,253,69,45", 
            "resource": {
                "@type": "cnt:ContentAsText", 
                "chars": "TOUS", 
                "format": "text/plain"
            }
        }, 
        {
            "@id": "https://manifests.teklia.com/HIMANIS/JJ068/words_annotations/FRCHANJJ_JJ068_0187R.json/15/line", 
            "@type": "oa:Annotation", 
            "motivation": "oa:painting", 
            "on": "http://bvmm.irht.cnrs.fr/iiif/23652/canvas/canvas-2285746#xywh=3239,3327,37,28", 
            "resource": {
                "@type": "cnt:ContentAsText", 
                "chars": "LES", 
                "format": "text/plain"
            }
        }, 
        {
            "@id": "https://manifests.teklia.com/HIMANIS/JJ068/words_annotations/FRCHANJJ_JJ068_0187R.json/16/line", 
            "@type": "oa:Annotation", 
            "motivation": "oa:painting", 
            "on": "http://bvmm.irht.cnrs.fr/iiif/23652/canvas/canvas-2285746#xywh=303,1515,77,45", 
            "resource": {
                "@type": "cnt:ContentAsText", 
                "chars": "PAIS", 
                "format": "text/plain"
            }
        }, 
        {
            "@id": "https://manifests.teklia.com/HIMANIS/JJ068/words_annotations/FRCHANJJ_JJ068_0187R.json/17/line", 
            "@type": "oa:Annotation", 
            "motivation": "oa:painting", 
            "on": "http://bvmm.irht.cnrs.fr/iiif/23652/canvas/canvas-2285746#xywh=305,1668,111,42", 
            "resource": {
                "@type": "cnt:ContentAsText", 
                "chars": "VOLONS", 
                "format": "text/plain"
            }
        }, 
        {
            "@id": "https://manifests.teklia.com/HIMANIS/JJ068/words_annotations/FRCHANJJ_JJ068_0187R.json/18/line", 
            "@type": "oa:Annotation", 
            "motivation": "oa:painting", 
            "on": "http://bvmm.irht.cnrs.fr/iiif/23652/canvas/canvas-2285746#xywh=2752,1171,164,49", 
            "resource": {
                "@type": "cnt:ContentAsText", 
                "chars": "TOUTE", 
                "format": "text/plain"
            }
        }, 
        {
            "@id": "https://manifests.teklia.com/HIMANIS/JJ068/words_annotations/FRCHANJJ_JJ068_0187R.json/19/line", 
            "@type": "oa:Annotation", 
            "motivation": "oa:painting", 
            "on": "http://bvmm.irht.cnrs.fr/iiif/23652/canvas/canvas-2285746#xywh=499,1668,0,42", 
            "resource": {
                "@type": "cnt:ContentAsText", 
                "chars": "A", 
                "format": "text/plain"
            }
        }, 
        {
            "@id": "https://manifests.teklia.com/HIMANIS/JJ068/words_annotations/FRCHANJJ_JJ068_0187R.json/20/line", 
            "@type": "oa:Annotation", 
            "motivation": "oa:painting", 
            "on": "http://bvmm.irht.cnrs.fr/iiif/23652/canvas/canvas-2285746#xywh=2568,1753,0,29", 
            "resource": {
                "@type": "cnt:ContentAsText", 
                "chars": "C", 
                "format": "text/plain"
            }
        }, 
        {
            "@id": "https://manifests.teklia.com/HIMANIS/JJ068/words_annotations/FRCHANJJ_JJ068_0187R.json/21/line", 
            "@type": "oa:Annotation", 
            "motivation": "oa:painting", 
            "on": "http://bvmm.irht.cnrs.fr/iiif/23652/canvas/canvas-2285746#xywh=2390,3354,108,61", 
            "resource": {
                "@type": "cnt:ContentAsText", 
                "chars": "SI", 
                "format": "text/plain"
            }
        }, 
        {
            "@id": "https://manifests.teklia.com/HIMANIS/JJ068/words_annotations/FRCHANJJ_JJ068_0187R.json/22/line", 
            "@type": "oa:Annotation", 
            "motivation": "oa:painting", 
            "on": "http://bvmm.irht.cnrs.fr/iiif/23652/canvas/canvas-2285746#xywh=506,1585,87,55", 
            "resource": {
                "@type": "cnt:ContentAsText", 
                "chars": "FAIRE", 
                "format": "text/plain"
            }
        }, 
        {
            "@id": "https://manifests.teklia.com/HIMANIS/JJ068/words_annotations/FRCHANJJ_JJ068_0187R.json/23/line", 
            "@type": "oa:Annotation", 
            "motivation": "oa:painting", 
            "on": "http://bvmm.irht.cnrs.fr/iiif/23652/canvas/canvas-2285746#xywh=468,253,149,45", 
            "resource": {
                "@type": "cnt:ContentAsText", 
                "chars": "CAVOIR", 
                "format": "text/plain"
            }
        }, 
        {
            "@id": "https://manifests.teklia.com/HIMANIS/JJ068/words_annotations/FRCHANJJ_JJ068_0187R.json/24/line", 
            "@type": "oa:Annotation", 
            "motivation": "oa:painting", 
            "on": "http://bvmm.irht.cnrs.fr/iiif/23652/canvas/canvas-2285746#xywh=625,1585,118,55", 
            "resource": {
                "@type": "cnt:ContentAsText", 
                "chars": "AVANT", 
                "format": "text/plain"
            }
        }, 
        {
            "@id": "https://manifests.teklia.com/HIMANIS/JJ068/words_annotations/FRCHANJJ_JJ068_0187R.json/25/line", 
            "@type": "oa:Annotation", 
            "motivation": "oa:painting", 
            "on": "http://bvmm.irht.cnrs.fr/iiif/23652/canvas/canvas-2285746#xywh=2097,1283,19,33", 
            "resource": {
                "@type": "cnt:ContentAsText", 
                "chars": "ET", 
                "format": "text/plain"
            }
        }, 
        {
            "@id": "https://manifests.teklia.com/HIMANIS/JJ068/words_annotations/FRCHANJJ_JJ068_0187R.json/26/line", 
            "@type": "oa:Annotation", 
            "motivation": "oa:painting", 
            "on": "http://bvmm.irht.cnrs.fr/iiif/23652/canvas/canvas-2285746#xywh=1905,1110,38,60", 
            "resource": {
                "@type": "cnt:ContentAsText", 
                "chars": "PRO", 
                "format": "text/plain"
            }
        }, 
        {
            "@id": "https://manifests.teklia.com/HIMANIS/JJ068/words_annotations/FRCHANJJ_JJ068_0187R.json/27/line", 
            "@type": "oa:Annotation", 
            "motivation": "oa:painting", 
            "on": "http://bvmm.irht.cnrs.fr/iiif/23652/canvas/canvas-2285746#xywh=1905,1110,41,60", 
            "resource": {
                "@type": "cnt:ContentAsText", 
                "chars": "POUR", 
                "format": "text/plain"
            }
        }, 
        {
            "@id": "https://manifests.teklia.com/HIMANIS/JJ068/words_annotations/FRCHANJJ_JJ068_0187R.json/28/line", 
            "@type": "oa:Annotation", 
            "motivation": "oa:painting", 
            "on": "http://bvmm.irht.cnrs.fr/iiif/23652/canvas/canvas-2285746#xywh=785,1585,21,55", 
            "resource": {
                "@type": "cnt:ContentAsText", 
                "chars": "LE", 
                "format": "text/plain"
            }
        }, 
        {
            "@id": "https://manifests.teklia.com/HIMANIS/JJ068/words_annotations/FRCHANJJ_JJ068_0187R.json/29/line", 
            "@type": "oa:Annotation", 
            "motivation": "oa:painting", 
            "on": "http://bvmm.irht.cnrs.fr/iiif/23652/canvas/canvas-2285746#xywh=907,253,37,45", 
            "resource": {
                "@type": "cnt:ContentAsText", 
                "chars": "PRESEN", 
                "format": "text/plain"
            }
        }, 
        {
            "@id": "https://manifests.teklia.com/HIMANIS/JJ068/words_annotations/FRCHANJJ_JJ068_0187R.json/30/line", 
            "@type": "oa:Annotation", 
            "motivation": "oa:painting", 
            "on": "http://bvmm.irht.cnrs.fr/iiif/23652/canvas/canvas-2285746#xywh=428,1515,40,45", 
            "resource": {
                "@type": "cnt:ContentAsText", 
                "chars": "LA", 
                "format": "text/plain"
            }
        }, 
        {
            "@id": "https://manifests.teklia.com/HIMANIS/JJ068/words_annotations/FRCHANJJ_JJ068_0187R.json/31/line", 
            "@type": "oa:Annotation", 
            "motivation": "oa:painting", 
            "on": "http://bvmm.irht.cnrs.fr/iiif/23652/canvas/canvas-2285746#xywh=428,1515,177,45", 
            "resource": {
                "@type": "cnt:ContentAsText", 
                "chars": "PARIS", 
                "format": "text/plain"
            }
        }, 
        {
            "@id": "https://manifests.teklia.com/HIMANIS/JJ068/words_annotations/FRCHANJJ_JJ068_0187R.json/32/line", 
            "@type": "oa:Annotation", 
            "motivation": "oa:painting", 
            "on": "http://bvmm.irht.cnrs.fr/iiif/23652/canvas/canvas-2285746#xywh=1887,1283,163,33", 
            "resource": {
                "@type": "cnt:ContentAsText", 
                "chars": "AVONS", 
                "format": "text/plain"
            }
        }, 
        {
            "@id": "https://manifests.teklia.com/HIMANIS/JJ068/words_annotations/FRCHANJJ_JJ068_0187R.json/33/line", 
            "@type": "oa:Annotation", 
            "motivation": "oa:painting", 
            "on": "http://bvmm.irht.cnrs.fr/iiif/23652/canvas/canvas-2285746#xywh=1532,1110,64,60", 
            "resource": {
                "@type": "cnt:ContentAsText", 
                "chars": "GRACES", 
                "format": "text/plain"
            }
        }, 
        {
            "@id": "https://manifests.teklia.com/HIMANIS/JJ068/words_annotations/FRCHANJJ_JJ068_0187R.json/34/line", 
            "@type": "oa:Annotation", 
            "motivation": "oa:painting", 
            "on": "http://bvmm.irht.cnrs.fr/iiif/23652/canvas/canvas-2285746#xywh=2619,1171,90,49", 
            "resource": {
                "@type": "cnt:ContentAsText", 
                "chars": "AVEC", 
                "format": "text/plain"
            }
        }, 
        {
            "@id": "https://manifests.teklia.com/HIMANIS/JJ068/words_annotations/FRCHANJJ_JJ068_0187R.json/35/line", 
            "@type": "oa:Annotation", 
            "motivation": "oa:painting", 
            "on": "http://bvmm.irht.cnrs.fr/iiif/23652/canvas/canvas-2285746#xywh=2143,1283,121,33", 
            "resource": {
                "@type": "cnt:ContentAsText", 
                "chars": "ALITE", 
                "format": "text/plain"
            }
        }, 
        {
            "@id": "https://manifests.teklia.com/HIMANIS/JJ068/words_annotations/FRCHANJJ_JJ068_0187R.json/36/line", 
            "@type": "oa:Annotation", 
            "motivation": "oa:painting", 
            "on": "http://bvmm.irht.cnrs.fr/iiif/23652/canvas/canvas-2285746#xywh=1471,1110,34,60", 
            "resource": {
                "@type": "cnt:ContentAsText", 
                "chars": "DE", 
                "format": "text/plain"
            }
        }, 
        {
            "@id": "https://manifests.teklia.com/HIMANIS/JJ068/words_annotations/FRCHANJJ_JJ068_0187R.json/37/line", 
            "@type": "oa:Annotation", 
            "motivation": "oa:painting", 
            "on": "http://bvmm.irht.cnrs.fr/iiif/23652/canvas/canvas-2285746#xywh=792,253,0,45", 
            "resource": {
                "@type": "cnt:ContentAsText", 
                "chars": "A", 
                "format": "text/plain"
            }
        }, 
        {
            "@id": "https://manifests.teklia.com/HIMANIS/JJ068/words_annotations/FRCHANJJ_JJ068_0187R.json/38/line", 
            "@type": "oa:Annotation", 
            "motivation": "oa:painting", 
            "on": "http://bvmm.irht.cnrs.fr/iiif/23652/canvas/canvas-2285746#xywh=913,1585,53,55", 
            "resource": {
                "@type": "cnt:ContentAsText", 
                "chars": "SAI", 
                "format": "text/plain"
            }
        }, 
        {
            "@id": "https://manifests.teklia.com/HIMANIS/JJ068/words_annotations/FRCHANJJ_JJ068_0187R.json/39/line", 
            "@type": "oa:Annotation", 
            "motivation": "oa:painting", 
            "on": "http://bvmm.irht.cnrs.fr/iiif/23652/canvas/canvas-2285746#xywh=823,1585,45,55", 
            "resource": {
                "@type": "cnt:ContentAsText", 
                "chars": "DIT", 
                "format": "text/plain"
            }
        }, 
        {
            "@id": "https://manifests.teklia.com/HIMANIS/JJ068/words_annotations/FRCHANJJ_JJ068_0187R.json/40/line", 
            "@type": "oa:Annotation", 
            "motivation": "oa:painting", 
            "on": "http://bvmm.irht.cnrs.fr/iiif/23652/canvas/canvas-2285746#xywh=595,3428,122,84", 
            "resource": {
                "@type": "cnt:ContentAsText", 
                "chars": "XISSE", 
                "format": "text/plain"
            }
        }, 
        {
            "@id": "https://manifests.teklia.com/HIMANIS/JJ068/words_annotations/FRCHANJJ_JJ068_0187R.json/41/line", 
            "@type": "oa:Annotation", 
            "motivation": "oa:painting", 
            "on": "http://bvmm.irht.cnrs.fr/iiif/23652/canvas/canvas-2285746#xywh=1532,1110,53,60", 
            "resource": {
                "@type": "cnt:ContentAsText", 
                "chars": "GRACE", 
                "format": "text/plain"
            }
        }, 
        {
            "@id": "https://manifests.teklia.com/HIMANIS/JJ068/words_annotations/FRCHANJJ_JJ068_0187R.json/42/line", 
            "@type": "oa:Annotation", 
            "motivation": "oa:painting", 
            "on": "http://bvmm.irht.cnrs.fr/iiif/23652/canvas/canvas-2285746#xywh=2306,1283,121,33", 
            "resource": {
                "@type": "cnt:ContentAsText", 
                "chars": "DENIERE", 
                "format": "text/plain"
            }
        }, 
        {
            "@id": "https://manifests.teklia.com/HIMANIS/JJ068/words_annotations/FRCHANJJ_JJ068_0187R.json/43/line", 
            "@type": "oa:Annotation", 
            "motivation": "oa:painting", 
            "on": "http://bvmm.irht.cnrs.fr/iiif/23652/canvas/canvas-2285746#xywh=499,1668,29,42", 
            "resource": {
                "@type": "cnt:ContentAsText", 
                "chars": "AU", 
                "format": "text/plain"
            }
        }, 
        {
            "@id": "https://manifests.teklia.com/HIMANIS/JJ068/words_annotations/FRCHANJJ_JJ068_0187R.json/44/line", 
            "@type": "oa:Annotation", 
            "motivation": "oa:painting", 
            "on": "http://bvmm.irht.cnrs.fr/iiif/23652/canvas/canvas-2285746#xywh=2773,3354,530,61", 
            "resource": {
                "@type": "cnt:ContentAsText", 
                "chars": "AVOIR", 
                "format": "text/plain"
            }
        }, 
        {
            "@id": "https://manifests.teklia.com/HIMANIS/JJ068/words_annotations/FRCHANJJ_JJ068_0187R.json/45/line", 
            "@type": "oa:Annotation", 
            "motivation": "oa:painting", 
            "on": "http://bvmm.irht.cnrs.fr/iiif/23652/canvas/canvas-2285746#xywh=288,1072,93,36", 
            "resource": {
                "@type": "cnt:ContentAsText", 
                "chars": "JEHAN", 
                "format": "text/plain"
            }
        }, 
        {
            "@id": "https://manifests.teklia.com/HIMANIS/JJ068/words_annotations/FRCHANJJ_JJ068_0187R.json/46/line", 
            "@type": "oa:Annotation", 
            "motivation": "oa:painting", 
            "on": "http://bvmm.irht.cnrs.fr/iiif/23652/canvas/canvas-2285746#xywh=1524,638,85,21", 
            "resource": {
                "@type": "cnt:ContentAsText", 
                "chars": "CE", 
                "format": "text/plain"
            }
        }, 
        {
            "@id": "https://manifests.teklia.com/HIMANIS/JJ068/words_annotations/FRCHANJJ_JJ068_0187R.json/47/line", 
            "@type": "oa:Annotation", 
            "motivation": "oa:painting", 
            "on": "http://bvmm.irht.cnrs.fr/iiif/23652/canvas/canvas-2285746#xywh=2734,3354,66,61", 
            "resource": {
                "@type": "cnt:ContentAsText", 
                "chars": "LATE", 
                "format": "text/plain"
            }
        }, 
        {
            "@id": "https://manifests.teklia.com/HIMANIS/JJ068/words_annotations/FRCHANJJ_JJ068_0187R.json/48/line", 
            "@type": "oa:Annotation", 
            "motivation": "oa:painting", 
            "on": "http://bvmm.irht.cnrs.fr/iiif/23652/canvas/canvas-2285746#xywh=907,253,34,45", 
            "resource": {
                "@type": "cnt:ContentAsText", 
                "chars": "POSS", 
                "format": "text/plain"
            }
        }, 
        {
            "@id": "https://manifests.teklia.com/HIMANIS/JJ068/words_annotations/FRCHANJJ_JJ068_0187R.json/49/line", 
            "@type": "oa:Annotation", 
            "motivation": "oa:painting", 
            "on": "http://bvmm.irht.cnrs.fr/iiif/23652/canvas/canvas-2285746#xywh=238,253,0,45", 
            "resource": {
                "@type": "cnt:ContentAsText", 
                "chars": "P", 
                "format": "text/plain"
            }
        }, 
        {
            "@id": "https://manifests.teklia.com/HIMANIS/JJ068/words_annotations/FRCHANJJ_JJ068_0187R.json/50/line", 
            "@type": "oa:Annotation", 
            "motivation": "oa:painting", 
            "on": "http://bvmm.irht.cnrs.fr/iiif/23652/canvas/canvas-2285746#xywh=913,1585,53,55", 
            "resource": {
                "@type": "cnt:ContentAsText", 
                "chars": "FAI", 
                "format": "text/plain"
            }
        }, 
        {
            "@id": "https://manifests.teklia.com/HIMANIS/JJ068/words_annotations/FRCHANJJ_JJ068_0187R.json/51/line", 
            "@type": "oa:Annotation", 
            "motivation": "oa:painting", 
            "on": "http://bvmm.irht.cnrs.fr/iiif/23652/canvas/canvas-2285746#xywh=459,1668,19,42", 
            "resource": {
                "@type": "cnt:ContentAsText", 
                "chars": "ET", 
                "format": "text/plain"
            }
        }, 
        {
            "@id": "https://manifests.teklia.com/HIMANIS/JJ068/words_annotations/FRCHANJJ_JJ068_0187R.json/52/line", 
            "@type": "oa:Annotation", 
            "motivation": "oa:painting", 
            "on": "http://bvmm.irht.cnrs.fr/iiif/23652/canvas/canvas-2285746#xywh=1783,1110,91,60", 
            "resource": {
                "@type": "cnt:ContentAsText", 
                "chars": "PLAIN", 
                "format": "text/plain"
            }
        }
    ]
}