{
    "@context": "http://iiif.io/api/presentation/2/context.json", 
    "@id": "https://manifests.teklia.com/HIMANIS/JJ167/words_annotations/FRAN_0021_28220.json", 
    "@type": "sc:AnnotationList", 
    "resources": [
        {
            "@id": "https://manifests.teklia.com/HIMANIS/JJ167/words_annotations/FRAN_0021_28220.json/0/line", 
            "@type": "oa:Annotation", 
            "motivation": "oa:painting", 
            "on": "http://bvmm.irht.cnrs.fr/iiif/23760/canvas/canvas-2331201#xywh=2222,4157,724,128", 
            "resource": {
                "@type": "cnt:ContentAsText", 
                "chars": "DE", 
                "format": "text/plain"
            }
        }, 
        {
            "@id": "https://manifests.teklia.com/HIMANIS/JJ167/words_annotations/FRAN_0021_28220.json/1/line", 
            "@type": "oa:Annotation", 
            "motivation": "oa:painting", 
            "on": "http://bvmm.irht.cnrs.fr/iiif/23760/canvas/canvas-2331201#xywh=1499,0,0,268", 
            "resource": {
                "@type": "cnt:ContentAsText", 
                "chars": "P", 
                "format": "text/plain"
            }
        }, 
        {
            "@id": "https://manifests.teklia.com/HIMANIS/JJ167/words_annotations/FRAN_0021_28220.json/2/line", 
            "@type": "oa:Annotation", 
            "motivation": "oa:painting", 
            "on": "http://bvmm.irht.cnrs.fr/iiif/23760/canvas/canvas-2331201#xywh=4468,1200,59,60", 
            "resource": {
                "@type": "cnt:ContentAsText", 
                "chars": "DE", 
                "format": "text/plain"
            }
        }, 
        {
            "@id": "https://manifests.teklia.com/HIMANIS/JJ167/words_annotations/FRAN_0021_28220.json/3/line", 
            "@type": "oa:Annotation", 
            "motivation": "oa:painting", 
            "on": "http://bvmm.irht.cnrs.fr/iiif/23760/canvas/canvas-2331201#xywh=213,2353,683,99", 
            "resource": {
                "@type": "cnt:ContentAsText", 
                "chars": "DE", 
                "format": "text/plain"
            }
        }, 
        {
            "@id": "https://manifests.teklia.com/HIMANIS/JJ167/words_annotations/FRAN_0021_28220.json/4/line", 
            "@type": "oa:Annotation", 
            "motivation": "oa:painting", 
            "on": "http://bvmm.irht.cnrs.fr/iiif/23760/canvas/canvas-2331201#xywh=241,229,0,255", 
            "resource": {
                "@type": "cnt:ContentAsText", 
                "chars": "G", 
                "format": "text/plain"
            }
        }, 
        {
            "@id": "https://manifests.teklia.com/HIMANIS/JJ167/words_annotations/FRAN_0021_28220.json/5/line", 
            "@type": "oa:Annotation", 
            "motivation": "oa:painting", 
            "on": "http://bvmm.irht.cnrs.fr/iiif/23760/canvas/canvas-2331201#xywh=241,229,0,255", 
            "resource": {
                "@type": "cnt:ContentAsText", 
                "chars": "P", 
                "format": "text/plain"
            }
        }, 
        {
            "@id": "https://manifests.teklia.com/HIMANIS/JJ167/words_annotations/FRAN_0021_28220.json/6/line", 
            "@type": "oa:Annotation", 
            "motivation": "oa:painting", 
            "on": "http://bvmm.irht.cnrs.fr/iiif/23760/canvas/canvas-2331201#xywh=4275,997,239,103", 
            "resource": {
                "@type": "cnt:ContentAsText", 
                "chars": "LES", 
                "format": "text/plain"
            }
        }, 
        {
            "@id": "https://manifests.teklia.com/HIMANIS/JJ167/words_annotations/FRAN_0021_28220.json/7/line", 
            "@type": "oa:Annotation", 
            "motivation": "oa:painting", 
            "on": "http://bvmm.irht.cnrs.fr/iiif/23760/canvas/canvas-2331201#xywh=2549,4655,0,111", 
            "resource": {
                "@type": "cnt:ContentAsText", 
                "chars": "G", 
                "format": "text/plain"
            }
        }, 
        {
            "@id": "https://manifests.teklia.com/HIMANIS/JJ167/words_annotations/FRAN_0021_28220.json/8/line", 
            "@type": "oa:Annotation", 
            "motivation": "oa:painting", 
            "on": "http://bvmm.irht.cnrs.fr/iiif/23760/canvas/canvas-2331201#xywh=2549,4655,0,111", 
            "resource": {
                "@type": "cnt:ContentAsText", 
                "chars": "J", 
                "format": "text/plain"
            }
        }, 
        {
            "@id": "https://manifests.teklia.com/HIMANIS/JJ167/words_annotations/FRAN_0021_28220.json/9/line", 
            "@type": "oa:Annotation", 
            "motivation": "oa:painting", 
            "on": "http://bvmm.irht.cnrs.fr/iiif/23760/canvas/canvas-2331201#xywh=3034,4157,242,128", 
            "resource": {
                "@type": "cnt:ContentAsText", 
                "chars": "NOST", 
                "format": "text/plain"
            }
        }, 
        {
            "@id": "https://manifests.teklia.com/HIMANIS/JJ167/words_annotations/FRAN_0021_28220.json/10/line", 
            "@type": "oa:Annotation", 
            "motivation": "oa:painting", 
            "on": "http://bvmm.irht.cnrs.fr/iiif/23760/canvas/canvas-2331201#xywh=2222,4157,1070,128", 
            "resource": {
                "@type": "cnt:ContentAsText", 
                "chars": "DONNONS", 
                "format": "text/plain"
            }
        }, 
        {
            "@id": "https://manifests.teklia.com/HIMANIS/JJ167/words_annotations/FRAN_0021_28220.json/11/line", 
            "@type": "oa:Annotation", 
            "motivation": "oa:painting", 
            "on": "http://bvmm.irht.cnrs.fr/iiif/23760/canvas/canvas-2331201#xywh=3034,4157,242,128", 
            "resource": {
                "@type": "cnt:ContentAsText", 
                "chars": "NOUS", 
                "format": "text/plain"
            }
        }, 
        {
            "@id": "https://manifests.teklia.com/HIMANIS/JJ167/words_annotations/FRAN_0021_28220.json/12/line", 
            "@type": "oa:Annotation", 
            "motivation": "oa:painting", 
            "on": "http://bvmm.irht.cnrs.fr/iiif/23760/canvas/canvas-2331201#xywh=2549,4655,0,111", 
            "resource": {
                "@type": "cnt:ContentAsText", 
                "chars": "R", 
                "format": "text/plain"
            }
        }, 
        {
            "@id": "https://manifests.teklia.com/HIMANIS/JJ167/words_annotations/FRAN_0021_28220.json/13/line", 
            "@type": "oa:Annotation", 
            "motivation": "oa:painting", 
            "on": "http://bvmm.irht.cnrs.fr/iiif/23760/canvas/canvas-2331201#xywh=4468,1200,0,60", 
            "resource": {
                "@type": "cnt:ContentAsText", 
                "chars": "E", 
                "format": "text/plain"
            }
        }, 
        {
            "@id": "https://manifests.teklia.com/HIMANIS/JJ167/words_annotations/FRAN_0021_28220.json/14/line", 
            "@type": "oa:Annotation", 
            "motivation": "oa:painting", 
            "on": "http://bvmm.irht.cnrs.fr/iiif/23760/canvas/canvas-2331201#xywh=537,2688,197,90", 
            "resource": {
                "@type": "cnt:ContentAsText", 
                "chars": "LE", 
                "format": "text/plain"
            }
        }, 
        {
            "@id": "https://manifests.teklia.com/HIMANIS/JJ167/words_annotations/FRAN_0021_28220.json/15/line", 
            "@type": "oa:Annotation", 
            "motivation": "oa:painting", 
            "on": "http://bvmm.irht.cnrs.fr/iiif/23760/canvas/canvas-2331201#xywh=4275,997,239,103", 
            "resource": {
                "@type": "cnt:ContentAsText", 
                "chars": "ET", 
                "format": "text/plain"
            }
        }
    ]
}