{
    "@context": "http://iiif.io/api/presentation/2/context.json", 
    "@id": "https://manifests.teklia.com/HIMANIS/JJ167/words_annotations/FRAN_0021_28544.json", 
    "@type": "sc:AnnotationList", 
    "resources": [
        {
            "@id": "https://manifests.teklia.com/HIMANIS/JJ167/words_annotations/FRAN_0021_28544.json/0/line", 
            "@type": "oa:Annotation", 
            "motivation": "oa:painting", 
            "on": "http://bvmm.irht.cnrs.fr/iiif/23760/canvas/canvas-2331535#xywh=3684,1005,90,102", 
            "resource": {
                "@type": "cnt:ContentAsText", 
                "chars": "DUC", 
                "format": "text/plain"
            }
        }, 
        {
            "@id": "https://manifests.teklia.com/HIMANIS/JJ167/words_annotations/FRAN_0021_28544.json/1/line", 
            "@type": "oa:Annotation", 
            "motivation": "oa:painting", 
            "on": "http://bvmm.irht.cnrs.fr/iiif/23760/canvas/canvas-2331535#xywh=2366,1005,386,102", 
            "resource": {
                "@type": "cnt:ContentAsText", 
                "chars": "PAR", 
                "format": "text/plain"
            }
        }, 
        {
            "@id": "https://manifests.teklia.com/HIMANIS/JJ167/words_annotations/FRAN_0021_28544.json/2/line", 
            "@type": "oa:Annotation", 
            "motivation": "oa:painting", 
            "on": "http://bvmm.irht.cnrs.fr/iiif/23760/canvas/canvas-2331535#xywh=2787,4665,126,95", 
            "resource": {
                "@type": "cnt:ContentAsText", 
                "chars": "DE", 
                "format": "text/plain"
            }
        }, 
        {
            "@id": "https://manifests.teklia.com/HIMANIS/JJ167/words_annotations/FRAN_0021_28544.json/3/line", 
            "@type": "oa:Annotation", 
            "motivation": "oa:painting", 
            "on": "http://bvmm.irht.cnrs.fr/iiif/23760/canvas/canvas-2331535#xywh=3753,1242,164,163", 
            "resource": {
                "@type": "cnt:ContentAsText", 
                "chars": "DELAIT", 
                "format": "text/plain"
            }
        }, 
        {
            "@id": "https://manifests.teklia.com/HIMANIS/JJ167/words_annotations/FRAN_0021_28544.json/4/line", 
            "@type": "oa:Annotation", 
            "motivation": "oa:painting", 
            "on": "http://bvmm.irht.cnrs.fr/iiif/23760/canvas/canvas-2331535#xywh=3350,1005,38,102", 
            "resource": {
                "@type": "cnt:ContentAsText", 
                "chars": "OU", 
                "format": "text/plain"
            }
        }, 
        {
            "@id": "https://manifests.teklia.com/HIMANIS/JJ167/words_annotations/FRAN_0021_28544.json/5/line", 
            "@type": "oa:Annotation", 
            "motivation": "oa:painting", 
            "on": "http://bvmm.irht.cnrs.fr/iiif/23760/canvas/canvas-2331535#xywh=3416,865,135,180", 
            "resource": {
                "@type": "cnt:ContentAsText", 
                "chars": "REQUE", 
                "format": "text/plain"
            }
        }, 
        {
            "@id": "https://manifests.teklia.com/HIMANIS/JJ167/words_annotations/FRAN_0021_28544.json/6/line", 
            "@type": "oa:Annotation", 
            "motivation": "oa:painting", 
            "on": "http://bvmm.irht.cnrs.fr/iiif/23760/canvas/canvas-2331535#xywh=4009,1242,215,163", 
            "resource": {
                "@type": "cnt:ContentAsText", 
                "chars": "TALEMILLE", 
                "format": "text/plain"
            }
        }, 
        {
            "@id": "https://manifests.teklia.com/HIMANIS/JJ167/words_annotations/FRAN_0021_28544.json/7/line", 
            "@type": "oa:Annotation", 
            "motivation": "oa:painting", 
            "on": "http://bvmm.irht.cnrs.fr/iiif/23760/canvas/canvas-2331535#xywh=4120,4620,496,40", 
            "resource": {
                "@type": "cnt:ContentAsText", 
                "chars": "DE", 
                "format": "text/plain"
            }
        }, 
        {
            "@id": "https://manifests.teklia.com/HIMANIS/JJ167/words_annotations/FRAN_0021_28544.json/8/line", 
            "@type": "oa:Annotation", 
            "motivation": "oa:painting", 
            "on": "http://bvmm.irht.cnrs.fr/iiif/23760/canvas/canvas-2331535#xywh=3642,865,837,180", 
            "resource": {
                "@type": "cnt:ContentAsText", 
                "chars": "BERANNI", 
                "format": "text/plain"
            }
        }, 
        {
            "@id": "https://manifests.teklia.com/HIMANIS/JJ167/words_annotations/FRAN_0021_28544.json/9/line", 
            "@type": "oa:Annotation", 
            "motivation": "oa:painting", 
            "on": "http://bvmm.irht.cnrs.fr/iiif/23760/canvas/canvas-2331535#xywh=2038,620,2647,106", 
            "resource": {
                "@type": "cnt:ContentAsText", 
                "chars": "SA", 
                "format": "text/plain"
            }
        }, 
        {
            "@id": "https://manifests.teklia.com/HIMANIS/JJ167/words_annotations/FRAN_0021_28544.json/10/line", 
            "@type": "oa:Annotation", 
            "motivation": "oa:painting", 
            "on": "http://bvmm.irht.cnrs.fr/iiif/23760/canvas/canvas-2331535#xywh=2038,620,2647,106", 
            "resource": {
                "@type": "cnt:ContentAsText", 
                "chars": "SE", 
                "format": "text/plain"
            }
        }, 
        {
            "@id": "https://manifests.teklia.com/HIMANIS/JJ167/words_annotations/FRAN_0021_28544.json/11/line", 
            "@type": "oa:Annotation", 
            "motivation": "oa:painting", 
            "on": "http://bvmm.irht.cnrs.fr/iiif/23760/canvas/canvas-2331535#xywh=2721,1242,132,163", 
            "resource": {
                "@type": "cnt:ContentAsText", 
                "chars": "CENS", 
                "format": "text/plain"
            }
        }, 
        {
            "@id": "https://manifests.teklia.com/HIMANIS/JJ167/words_annotations/FRAN_0021_28544.json/12/line", 
            "@type": "oa:Annotation", 
            "motivation": "oa:painting", 
            "on": "http://bvmm.irht.cnrs.fr/iiif/23760/canvas/canvas-2331535#xywh=2601,865,102,180", 
            "resource": {
                "@type": "cnt:ContentAsText", 
                "chars": "CC", 
                "format": "text/plain"
            }
        }, 
        {
            "@id": "https://manifests.teklia.com/HIMANIS/JJ167/words_annotations/FRAN_0021_28544.json/13/line", 
            "@type": "oa:Annotation", 
            "motivation": "oa:painting", 
            "on": "http://bvmm.irht.cnrs.fr/iiif/23760/canvas/canvas-2331535#xywh=3559,1242,164,163", 
            "resource": {
                "@type": "cnt:ContentAsText", 
                "chars": "MESTRE", 
                "format": "text/plain"
            }
        }, 
        {
            "@id": "https://manifests.teklia.com/HIMANIS/JJ167/words_annotations/FRAN_0021_28544.json/14/line", 
            "@type": "oa:Annotation", 
            "motivation": "oa:painting", 
            "on": "http://bvmm.irht.cnrs.fr/iiif/23760/canvas/canvas-2331535#xywh=3945,1125,187,124", 
            "resource": {
                "@type": "cnt:ContentAsText", 
                "chars": "L'ARRES", 
                "format": "text/plain"
            }
        }, 
        {
            "@id": "https://manifests.teklia.com/HIMANIS/JJ167/words_annotations/FRAN_0021_28544.json/15/line", 
            "@type": "oa:Annotation", 
            "motivation": "oa:painting", 
            "on": "http://bvmm.irht.cnrs.fr/iiif/23760/canvas/canvas-2331535#xywh=3156,1125,258,124", 
            "resource": {
                "@type": "cnt:ContentAsText", 
                "chars": "VENDOS", 
                "format": "text/plain"
            }
        }, 
        {
            "@id": "https://manifests.teklia.com/HIMANIS/JJ167/words_annotations/FRAN_0021_28544.json/16/line", 
            "@type": "oa:Annotation", 
            "motivation": "oa:painting", 
            "on": "http://bvmm.irht.cnrs.fr/iiif/23760/canvas/canvas-2331535#xywh=3598,1440,0,55", 
            "resource": {
                "@type": "cnt:ContentAsText", 
                "chars": "J", 
                "format": "text/plain"
            }
        }, 
        {
            "@id": "https://manifests.teklia.com/HIMANIS/JJ167/words_annotations/FRAN_0021_28544.json/17/line", 
            "@type": "oa:Annotation", 
            "motivation": "oa:painting", 
            "on": "http://bvmm.irht.cnrs.fr/iiif/23760/canvas/canvas-2331535#xywh=3598,1440,0,55", 
            "resource": {
                "@type": "cnt:ContentAsText", 
                "chars": "M", 
                "format": "text/plain"
            }
        }, 
        {
            "@id": "https://manifests.teklia.com/HIMANIS/JJ167/words_annotations/FRAN_0021_28544.json/18/line", 
            "@type": "oa:Annotation", 
            "motivation": "oa:painting", 
            "on": "http://bvmm.irht.cnrs.fr/iiif/23760/canvas/canvas-2331535#xywh=3089,1242,153,163", 
            "resource": {
                "@type": "cnt:ContentAsText", 
                "chars": "ROBERTA", 
                "format": "text/plain"
            }
        }, 
        {
            "@id": "https://manifests.teklia.com/HIMANIS/JJ167/words_annotations/FRAN_0021_28544.json/19/line", 
            "@type": "oa:Annotation", 
            "motivation": "oa:painting", 
            "on": "http://bvmm.irht.cnrs.fr/iiif/23760/canvas/canvas-2331535#xywh=3598,1440,0,55", 
            "resource": {
                "@type": "cnt:ContentAsText", 
                "chars": "P", 
                "format": "text/plain"
            }
        }, 
        {
            "@id": "https://manifests.teklia.com/HIMANIS/JJ167/words_annotations/FRAN_0021_28544.json/20/line", 
            "@type": "oa:Annotation", 
            "motivation": "oa:painting", 
            "on": "http://bvmm.irht.cnrs.fr/iiif/23760/canvas/canvas-2331535#xywh=3945,1125,187,124", 
            "resource": {
                "@type": "cnt:ContentAsText", 
                "chars": "L'ARMES", 
                "format": "text/plain"
            }
        }, 
        {
            "@id": "https://manifests.teklia.com/HIMANIS/JJ167/words_annotations/FRAN_0021_28544.json/21/line", 
            "@type": "oa:Annotation", 
            "motivation": "oa:painting", 
            "on": "http://bvmm.irht.cnrs.fr/iiif/23760/canvas/canvas-2331535#xywh=3028,1005,71,102", 
            "resource": {
                "@type": "cnt:ContentAsText", 
                "chars": "SON", 
                "format": "text/plain"
            }
        }, 
        {
            "@id": "https://manifests.teklia.com/HIMANIS/JJ167/words_annotations/FRAN_0021_28544.json/22/line", 
            "@type": "oa:Annotation", 
            "motivation": "oa:painting", 
            "on": "http://bvmm.irht.cnrs.fr/iiif/23760/canvas/canvas-2331535#xywh=3089,1242,81,163", 
            "resource": {
                "@type": "cnt:ContentAsText", 
                "chars": "ROBERT", 
                "format": "text/plain"
            }
        }, 
        {
            "@id": "https://manifests.teklia.com/HIMANIS/JJ167/words_annotations/FRAN_0021_28544.json/23/line", 
            "@type": "oa:Annotation", 
            "motivation": "oa:painting", 
            "on": "http://bvmm.irht.cnrs.fr/iiif/23760/canvas/canvas-2331535#xywh=2330,1076,551,129", 
            "resource": {
                "@type": "cnt:ContentAsText", 
                "chars": "COMBONNE", 
                "format": "text/plain"
            }
        }, 
        {
            "@id": "https://manifests.teklia.com/HIMANIS/JJ167/words_annotations/FRAN_0021_28544.json/24/line", 
            "@type": "oa:Annotation", 
            "motivation": "oa:painting", 
            "on": "http://bvmm.irht.cnrs.fr/iiif/23760/canvas/canvas-2331535#xywh=1879,4665,1345,95", 
            "resource": {
                "@type": "cnt:ContentAsText", 
                "chars": "EN", 
                "format": "text/plain"
            }
        }, 
        {
            "@id": "https://manifests.teklia.com/HIMANIS/JJ167/words_annotations/FRAN_0021_28544.json/25/line", 
            "@type": "oa:Annotation", 
            "motivation": "oa:painting", 
            "on": "http://bvmm.irht.cnrs.fr/iiif/23760/canvas/canvas-2331535#xywh=4009,1242,685,163", 
            "resource": {
                "@type": "cnt:ContentAsText", 
                "chars": "TALEMILLES", 
                "format": "text/plain"
            }
        }, 
        {
            "@id": "https://manifests.teklia.com/HIMANIS/JJ167/words_annotations/FRAN_0021_28544.json/26/line", 
            "@type": "oa:Annotation", 
            "motivation": "oa:painting", 
            "on": "http://bvmm.irht.cnrs.fr/iiif/23760/canvas/canvas-2331535#xywh=2771,1005,19,102", 
            "resource": {
                "@type": "cnt:ContentAsText", 
                "chars": "LE", 
                "format": "text/plain"
            }
        }, 
        {
            "@id": "https://manifests.teklia.com/HIMANIS/JJ167/words_annotations/FRAN_0021_28544.json/27/line", 
            "@type": "oa:Annotation", 
            "motivation": "oa:painting", 
            "on": "http://bvmm.irht.cnrs.fr/iiif/23760/canvas/canvas-2331535#xywh=1879,4665,968,95", 
            "resource": {
                "@type": "cnt:ContentAsText", 
                "chars": "ET", 
                "format": "text/plain"
            }
        }, 
        {
            "@id": "https://manifests.teklia.com/HIMANIS/JJ167/words_annotations/FRAN_0021_28544.json/28/line", 
            "@type": "oa:Annotation", 
            "motivation": "oa:painting", 
            "on": "http://bvmm.irht.cnrs.fr/iiif/23760/canvas/canvas-2331535#xywh=4069,1005,572,102", 
            "resource": {
                "@type": "cnt:ContentAsText", 
                "chars": "DE", 
                "format": "text/plain"
            }
        }, 
        {
            "@id": "https://manifests.teklia.com/HIMANIS/JJ167/words_annotations/FRAN_0021_28544.json/29/line", 
            "@type": "oa:Annotation", 
            "motivation": "oa:painting", 
            "on": "http://bvmm.irht.cnrs.fr/iiif/23760/canvas/canvas-2331535#xywh=685,0,333,177", 
            "resource": {
                "@type": "cnt:ContentAsText", 
                "chars": "DE", 
                "format": "text/plain"
            }
        }, 
        {
            "@id": "https://manifests.teklia.com/HIMANIS/JJ167/words_annotations/FRAN_0021_28544.json/30/line", 
            "@type": "oa:Annotation", 
            "motivation": "oa:painting", 
            "on": "http://bvmm.irht.cnrs.fr/iiif/23760/canvas/canvas-2331535#xywh=2330,1076,567,129", 
            "resource": {
                "@type": "cnt:ContentAsText", 
                "chars": "COMBONNES", 
                "format": "text/plain"
            }
        }, 
        {
            "@id": "https://manifests.teklia.com/HIMANIS/JJ167/words_annotations/FRAN_0021_28544.json/31/line", 
            "@type": "oa:Annotation", 
            "motivation": "oa:painting", 
            "on": "http://bvmm.irht.cnrs.fr/iiif/23760/canvas/canvas-2331535#xywh=2721,1242,132,163", 
            "resource": {
                "@type": "cnt:ContentAsText", 
                "chars": "SENS", 
                "format": "text/plain"
            }
        }, 
        {
            "@id": "https://manifests.teklia.com/HIMANIS/JJ167/words_annotations/FRAN_0021_28544.json/32/line", 
            "@type": "oa:Annotation", 
            "motivation": "oa:painting", 
            "on": "http://bvmm.irht.cnrs.fr/iiif/23760/canvas/canvas-2331535#xywh=2929,1076,49,129", 
            "resource": {
                "@type": "cnt:ContentAsText", 
                "chars": "DE", 
                "format": "text/plain"
            }
        }, 
        {
            "@id": "https://manifests.teklia.com/HIMANIS/JJ167/words_annotations/FRAN_0021_28544.json/33/line", 
            "@type": "oa:Annotation", 
            "motivation": "oa:painting", 
            "on": "http://bvmm.irht.cnrs.fr/iiif/23760/canvas/canvas-2331535#xywh=2721,1242,132,163", 
            "resource": {
                "@type": "cnt:ContentAsText", 
                "chars": "SENZ", 
                "format": "text/plain"
            }
        }, 
        {
            "@id": "https://manifests.teklia.com/HIMANIS/JJ167/words_annotations/FRAN_0021_28544.json/34/line", 
            "@type": "oa:Annotation", 
            "motivation": "oa:painting", 
            "on": "http://bvmm.irht.cnrs.fr/iiif/23760/canvas/canvas-2331535#xywh=3707,1076,73,129", 
            "resource": {
                "@type": "cnt:ContentAsText", 
                "chars": "LES", 
                "format": "text/plain"
            }
        }, 
        {
            "@id": "https://manifests.teklia.com/HIMANIS/JJ167/words_annotations/FRAN_0021_28544.json/35/line", 
            "@type": "oa:Annotation", 
            "motivation": "oa:painting", 
            "on": "http://bvmm.irht.cnrs.fr/iiif/23760/canvas/canvas-2331535#xywh=3089,1242,122,163", 
            "resource": {
                "@type": "cnt:ContentAsText", 
                "chars": "LIBRAS", 
                "format": "text/plain"
            }
        }, 
        {
            "@id": "https://manifests.teklia.com/HIMANIS/JJ167/words_annotations/FRAN_0021_28544.json/36/line", 
            "@type": "oa:Annotation", 
            "motivation": "oa:painting", 
            "on": "http://bvmm.irht.cnrs.fr/iiif/23760/canvas/canvas-2331535#xywh=2038,620,2594,106", 
            "resource": {
                "@type": "cnt:ContentAsText", 
                "chars": "LA", 
                "format": "text/plain"
            }
        }, 
        {
            "@id": "https://manifests.teklia.com/HIMANIS/JJ167/words_annotations/FRAN_0021_28544.json/37/line", 
            "@type": "oa:Annotation", 
            "motivation": "oa:painting", 
            "on": "http://bvmm.irht.cnrs.fr/iiif/23760/canvas/canvas-2331535#xywh=2038,620,2647,106", 
            "resource": {
                "@type": "cnt:ContentAsText", 
                "chars": "LE", 
                "format": "text/plain"
            }
        }, 
        {
            "@id": "https://manifests.teklia.com/HIMANIS/JJ167/words_annotations/FRAN_0021_28544.json/38/line", 
            "@type": "oa:Annotation", 
            "motivation": "oa:painting", 
            "on": "http://bvmm.irht.cnrs.fr/iiif/23760/canvas/canvas-2331535#xywh=2038,620,1190,106", 
            "resource": {
                "@type": "cnt:ContentAsText", 
                "chars": "DE", 
                "format": "text/plain"
            }
        }, 
        {
            "@id": "https://manifests.teklia.com/HIMANIS/JJ167/words_annotations/FRAN_0021_28544.json/39/line", 
            "@type": "oa:Annotation", 
            "motivation": "oa:painting", 
            "on": "http://bvmm.irht.cnrs.fr/iiif/23760/canvas/canvas-2331535#xywh=3642,865,486,180", 
            "resource": {
                "@type": "cnt:ContentAsText", 
                "chars": "BERANI", 
                "format": "text/plain"
            }
        }, 
        {
            "@id": "https://manifests.teklia.com/HIMANIS/JJ167/words_annotations/FRAN_0021_28544.json/40/line", 
            "@type": "oa:Annotation", 
            "motivation": "oa:painting", 
            "on": "http://bvmm.irht.cnrs.fr/iiif/23760/canvas/canvas-2331535#xywh=2038,620,2239,106", 
            "resource": {
                "@type": "cnt:ContentAsText", 
                "chars": "DU", 
                "format": "text/plain"
            }
        }, 
        {
            "@id": "https://manifests.teklia.com/HIMANIS/JJ167/words_annotations/FRAN_0021_28544.json/41/line", 
            "@type": "oa:Annotation", 
            "motivation": "oa:painting", 
            "on": "http://bvmm.irht.cnrs.fr/iiif/23760/canvas/canvas-2331535#xywh=2875,1125,47,124", 
            "resource": {
                "@type": "cnt:ContentAsText", 
                "chars": "LA", 
                "format": "text/plain"
            }
        }, 
        {
            "@id": "https://manifests.teklia.com/HIMANIS/JJ167/words_annotations/FRAN_0021_28544.json/42/line", 
            "@type": "oa:Annotation", 
            "motivation": "oa:painting", 
            "on": "http://bvmm.irht.cnrs.fr/iiif/23760/canvas/canvas-2331535#xywh=2775,4665,580,95", 
            "resource": {
                "@type": "cnt:ContentAsText", 
                "chars": "NOS", 
                "format": "text/plain"
            }
        }, 
        {
            "@id": "https://manifests.teklia.com/HIMANIS/JJ167/words_annotations/FRAN_0021_28544.json/43/line", 
            "@type": "oa:Annotation", 
            "motivation": "oa:painting", 
            "on": "http://bvmm.irht.cnrs.fr/iiif/23760/canvas/canvas-2331535#xywh=2038,620,2587,106", 
            "resource": {
                "@type": "cnt:ContentAsText", 
                "chars": "QUE", 
                "format": "text/plain"
            }
        }, 
        {
            "@id": "https://manifests.teklia.com/HIMANIS/JJ167/words_annotations/FRAN_0021_28544.json/44/line", 
            "@type": "oa:Annotation", 
            "motivation": "oa:painting", 
            "on": "http://bvmm.irht.cnrs.fr/iiif/23760/canvas/canvas-2331535#xywh=3515,1125,63,124", 
            "resource": {
                "@type": "cnt:ContentAsText", 
                "chars": "LE", 
                "format": "text/plain"
            }
        }, 
        {
            "@id": "https://manifests.teklia.com/HIMANIS/JJ167/words_annotations/FRAN_0021_28544.json/45/line", 
            "@type": "oa:Annotation", 
            "motivation": "oa:painting", 
            "on": "http://bvmm.irht.cnrs.fr/iiif/23760/canvas/canvas-2331535#xywh=3574,865,45,180", 
            "resource": {
                "@type": "cnt:ContentAsText", 
                "chars": "LE", 
                "format": "text/plain"
            }
        }, 
        {
            "@id": "https://manifests.teklia.com/HIMANIS/JJ167/words_annotations/FRAN_0021_28544.json/46/line", 
            "@type": "oa:Annotation", 
            "motivation": "oa:painting", 
            "on": "http://bvmm.irht.cnrs.fr/iiif/23760/canvas/canvas-2331535#xywh=2126,865,45,180", 
            "resource": {
                "@type": "cnt:ContentAsText", 
                "chars": "DE", 
                "format": "text/plain"
            }
        }, 
        {
            "@id": "https://manifests.teklia.com/HIMANIS/JJ167/words_annotations/FRAN_0021_28544.json/47/line", 
            "@type": "oa:Annotation", 
            "motivation": "oa:painting", 
            "on": "http://bvmm.irht.cnrs.fr/iiif/23760/canvas/canvas-2331535#xywh=2821,1125,39,124", 
            "resource": {
                "@type": "cnt:ContentAsText", 
                "chars": "DE", 
                "format": "text/plain"
            }
        }, 
        {
            "@id": "https://manifests.teklia.com/HIMANIS/JJ167/words_annotations/FRAN_0021_28544.json/48/line", 
            "@type": "oa:Annotation", 
            "motivation": "oa:painting", 
            "on": "http://bvmm.irht.cnrs.fr/iiif/23760/canvas/canvas-2331535#xywh=2038,620,2647,106", 
            "resource": {
                "@type": "cnt:ContentAsText", 
                "chars": "QUI", 
                "format": "text/plain"
            }
        }, 
        {
            "@id": "https://manifests.teklia.com/HIMANIS/JJ167/words_annotations/FRAN_0021_28544.json/49/line", 
            "@type": "oa:Annotation", 
            "motivation": "oa:painting", 
            "on": "http://bvmm.irht.cnrs.fr/iiif/23760/canvas/canvas-2331535#xywh=2601,865,125,180", 
            "resource": {
                "@type": "cnt:ContentAsText", 
                "chars": "CCC", 
                "format": "text/plain"
            }
        }, 
        {
            "@id": "https://manifests.teklia.com/HIMANIS/JJ167/words_annotations/FRAN_0021_28544.json/50/line", 
            "@type": "oa:Annotation", 
            "motivation": "oa:painting", 
            "on": "http://bvmm.irht.cnrs.fr/iiif/23760/canvas/canvas-2331535#xywh=3262,1242,31,163", 
            "resource": {
                "@type": "cnt:ContentAsText", 
                "chars": "DE", 
                "format": "text/plain"
            }
        }, 
        {
            "@id": "https://manifests.teklia.com/HIMANIS/JJ167/words_annotations/FRAN_0021_28544.json/51/line", 
            "@type": "oa:Annotation", 
            "motivation": "oa:painting", 
            "on": "http://bvmm.irht.cnrs.fr/iiif/23760/canvas/canvas-2331535#xywh=4132,1125,562,124", 
            "resource": {
                "@type": "cnt:ContentAsText", 
                "chars": "QUI", 
                "format": "text/plain"
            }
        }, 
        {
            "@id": "https://manifests.teklia.com/HIMANIS/JJ167/words_annotations/FRAN_0021_28544.json/52/line", 
            "@type": "oa:Annotation", 
            "motivation": "oa:painting", 
            "on": "http://bvmm.irht.cnrs.fr/iiif/23760/canvas/canvas-2331535#xywh=2771,865,271,180", 
            "resource": {
                "@type": "cnt:ContentAsText", 
                "chars": "QUATOREM", 
                "format": "text/plain"
            }
        }, 
        {
            "@id": "https://manifests.teklia.com/HIMANIS/JJ167/words_annotations/FRAN_0021_28544.json/53/line", 
            "@type": "oa:Annotation", 
            "motivation": "oa:painting", 
            "on": "http://bvmm.irht.cnrs.fr/iiif/23760/canvas/canvas-2331535#xywh=3416,865,135,180", 
            "resource": {
                "@type": "cnt:ContentAsText", 
                "chars": "SOMME", 
                "format": "text/plain"
            }
        }, 
        {
            "@id": "https://manifests.teklia.com/HIMANIS/JJ167/words_annotations/FRAN_0021_28544.json/54/line", 
            "@type": "oa:Annotation", 
            "motivation": "oa:painting", 
            "on": "http://bvmm.irht.cnrs.fr/iiif/23760/canvas/canvas-2331535#xywh=3156,1125,0,124", 
            "resource": {
                "@type": "cnt:ContentAsText", 
                "chars": "A", 
                "format": "text/plain"
            }
        }, 
        {
            "@id": "https://manifests.teklia.com/HIMANIS/JJ167/words_annotations/FRAN_0021_28544.json/55/line", 
            "@type": "oa:Annotation", 
            "motivation": "oa:painting", 
            "on": "http://bvmm.irht.cnrs.fr/iiif/23760/canvas/canvas-2331535#xywh=2038,620,876,106", 
            "resource": {
                "@type": "cnt:ContentAsText", 
                "chars": "LES", 
                "format": "text/plain"
            }
        }, 
        {
            "@id": "https://manifests.teklia.com/HIMANIS/JJ167/words_annotations/FRAN_0021_28544.json/56/line", 
            "@type": "oa:Annotation", 
            "motivation": "oa:painting", 
            "on": "http://bvmm.irht.cnrs.fr/iiif/23760/canvas/canvas-2331535#xywh=869,620,3756,106", 
            "resource": {
                "@type": "cnt:ContentAsText", 
                "chars": "DESSUS", 
                "format": "text/plain"
            }
        }, 
        {
            "@id": "https://manifests.teklia.com/HIMANIS/JJ167/words_annotations/FRAN_0021_28544.json/57/line", 
            "@type": "oa:Annotation", 
            "motivation": "oa:painting", 
            "on": "http://bvmm.irht.cnrs.fr/iiif/23760/canvas/canvas-2331535#xywh=3489,1335,442,105", 
            "resource": {
                "@type": "cnt:ContentAsText", 
                "chars": "SESCEPERUY", 
                "format": "text/plain"
            }
        }, 
        {
            "@id": "https://manifests.teklia.com/HIMANIS/JJ167/words_annotations/FRAN_0021_28544.json/58/line", 
            "@type": "oa:Annotation", 
            "motivation": "oa:painting", 
            "on": "http://bvmm.irht.cnrs.fr/iiif/23760/canvas/canvas-2331535#xywh=3427,1005,160,102", 
            "resource": {
                "@type": "cnt:ContentAsText", 
                "chars": "MESSEURS", 
                "format": "text/plain"
            }
        }, 
        {
            "@id": "https://manifests.teklia.com/HIMANIS/JJ167/words_annotations/FRAN_0021_28544.json/59/line", 
            "@type": "oa:Annotation", 
            "motivation": "oa:painting", 
            "on": "http://bvmm.irht.cnrs.fr/iiif/23760/canvas/canvas-2331535#xywh=2929,1076,179,129", 
            "resource": {
                "@type": "cnt:ContentAsText", 
                "chars": "BAR", 
                "format": "text/plain"
            }
        }, 
        {
            "@id": "https://manifests.teklia.com/HIMANIS/JJ167/words_annotations/FRAN_0021_28544.json/60/line", 
            "@type": "oa:Annotation", 
            "motivation": "oa:painting", 
            "on": "http://bvmm.irht.cnrs.fr/iiif/23760/canvas/canvas-2331535#xywh=3753,1242,164,163", 
            "resource": {
                "@type": "cnt:ContentAsText", 
                "chars": "SOLAIT", 
                "format": "text/plain"
            }
        }, 
        {
            "@id": "https://manifests.teklia.com/HIMANIS/JJ167/words_annotations/FRAN_0021_28544.json/61/line", 
            "@type": "oa:Annotation", 
            "motivation": "oa:painting", 
            "on": "http://bvmm.irht.cnrs.fr/iiif/23760/canvas/canvas-2331535#xywh=3164,1076,98,129", 
            "resource": {
                "@type": "cnt:ContentAsText", 
                "chars": "LOYS", 
                "format": "text/plain"
            }
        }, 
        {
            "@id": "https://manifests.teklia.com/HIMANIS/JJ167/words_annotations/FRAN_0021_28544.json/62/line", 
            "@type": "oa:Annotation", 
            "motivation": "oa:painting", 
            "on": "http://bvmm.irht.cnrs.fr/iiif/23760/canvas/canvas-2331535#xywh=3118,1005,180,102", 
            "resource": {
                "@type": "cnt:ContentAsText", 
                "chars": "CONSEIL", 
                "format": "text/plain"
            }
        }, 
        {
            "@id": "https://manifests.teklia.com/HIMANIS/JJ167/words_annotations/FRAN_0021_28544.json/63/line", 
            "@type": "oa:Annotation", 
            "motivation": "oa:painting", 
            "on": "http://bvmm.irht.cnrs.fr/iiif/23760/canvas/canvas-2331535#xywh=2841,4665,514,95", 
            "resource": {
                "@type": "cnt:ContentAsText", 
                "chars": "NO", 
                "format": "text/plain"
            }
        }, 
        {
            "@id": "https://manifests.teklia.com/HIMANIS/JJ167/words_annotations/FRAN_0021_28544.json/64/line", 
            "@type": "oa:Annotation", 
            "motivation": "oa:painting", 
            "on": "http://bvmm.irht.cnrs.fr/iiif/23760/canvas/canvas-2331535#xywh=2205,865,147,180", 
            "resource": {
                "@type": "cnt:ContentAsText", 
                "chars": "GRACE", 
                "format": "text/plain"
            }
        }, 
        {
            "@id": "https://manifests.teklia.com/HIMANIS/JJ167/words_annotations/FRAN_0021_28544.json/65/line", 
            "@type": "oa:Annotation", 
            "motivation": "oa:painting", 
            "on": "http://bvmm.irht.cnrs.fr/iiif/23760/canvas/canvas-2331535#xywh=3753,1242,164,163", 
            "resource": {
                "@type": "cnt:ContentAsText", 
                "chars": "RELAIT", 
                "format": "text/plain"
            }
        }, 
        {
            "@id": "https://manifests.teklia.com/HIMANIS/JJ167/words_annotations/FRAN_0021_28544.json/66/line", 
            "@type": "oa:Annotation", 
            "motivation": "oa:painting", 
            "on": "http://bvmm.irht.cnrs.fr/iiif/23760/canvas/canvas-2331535#xywh=3221,620,0,106", 
            "resource": {
                "@type": "cnt:ContentAsText", 
                "chars": "S", 
                "format": "text/plain"
            }
        }, 
        {
            "@id": "https://manifests.teklia.com/HIMANIS/JJ167/words_annotations/FRAN_0021_28544.json/67/line", 
            "@type": "oa:Annotation", 
            "motivation": "oa:painting", 
            "on": "http://bvmm.irht.cnrs.fr/iiif/23760/canvas/canvas-2331535#xywh=685,0,432,177", 
            "resource": {
                "@type": "cnt:ContentAsText", 
                "chars": "ET", 
                "format": "text/plain"
            }
        }, 
        {
            "@id": "https://manifests.teklia.com/HIMANIS/JJ167/words_annotations/FRAN_0021_28544.json/68/line", 
            "@type": "oa:Annotation", 
            "motivation": "oa:painting", 
            "on": "http://bvmm.irht.cnrs.fr/iiif/23760/canvas/canvas-2331535#xywh=2930,1125,179,124", 
            "resource": {
                "@type": "cnt:ContentAsText", 
                "chars": "MARCHE", 
                "format": "text/plain"
            }
        }, 
        {
            "@id": "https://manifests.teklia.com/HIMANIS/JJ167/words_annotations/FRAN_0021_28544.json/69/line", 
            "@type": "oa:Annotation", 
            "motivation": "oa:painting", 
            "on": "http://bvmm.irht.cnrs.fr/iiif/23760/canvas/canvas-2331535#xywh=3407,1076,41,129", 
            "resource": {
                "@type": "cnt:ContentAsText", 
                "chars": "EN", 
                "format": "text/plain"
            }
        }, 
        {
            "@id": "https://manifests.teklia.com/HIMANIS/JJ167/words_annotations/FRAN_0021_28544.json/70/line", 
            "@type": "oa:Annotation", 
            "motivation": "oa:painting", 
            "on": "http://bvmm.irht.cnrs.fr/iiif/23760/canvas/canvas-2331535#xywh=3132,1076,24,129", 
            "resource": {
                "@type": "cnt:ContentAsText", 
                "chars": "ET", 
                "format": "text/plain"
            }
        }, 
        {
            "@id": "https://manifests.teklia.com/HIMANIS/JJ167/words_annotations/FRAN_0021_28544.json/71/line", 
            "@type": "oa:Annotation", 
            "motivation": "oa:painting", 
            "on": "http://bvmm.irht.cnrs.fr/iiif/23760/canvas/canvas-2331535#xywh=3753,1242,164,163", 
            "resource": {
                "@type": "cnt:ContentAsText", 
                "chars": "FAIT", 
                "format": "text/plain"
            }
        }, 
        {
            "@id": "https://manifests.teklia.com/HIMANIS/JJ167/words_annotations/FRAN_0021_28544.json/72/line", 
            "@type": "oa:Annotation", 
            "motivation": "oa:painting", 
            "on": "http://bvmm.irht.cnrs.fr/iiif/23760/canvas/canvas-2331535#xywh=3291,865,91,180", 
            "resource": {
                "@type": "cnt:ContentAsText", 
                "chars": "NOSTRE", 
                "format": "text/plain"
            }
        }, 
        {
            "@id": "https://manifests.teklia.com/HIMANIS/JJ167/words_annotations/FRAN_0021_28544.json/73/line", 
            "@type": "oa:Annotation", 
            "motivation": "oa:painting", 
            "on": "http://bvmm.irht.cnrs.fr/iiif/23760/canvas/canvas-2331535#xywh=3464,1076,194,129", 
            "resource": {
                "@type": "cnt:ContentAsText", 
                "chars": "BLAMERE", 
                "format": "text/plain"
            }
        }, 
        {
            "@id": "https://manifests.teklia.com/HIMANIS/JJ167/words_annotations/FRAN_0021_28544.json/74/line", 
            "@type": "oa:Annotation", 
            "motivation": "oa:painting", 
            "on": "http://bvmm.irht.cnrs.fr/iiif/23760/canvas/canvas-2331535#xywh=3156,1125,16,124", 
            "resource": {
                "@type": "cnt:ContentAsText", 
                "chars": "IL", 
                "format": "text/plain"
            }
        }, 
        {
            "@id": "https://manifests.teklia.com/HIMANIS/JJ167/words_annotations/FRAN_0021_28544.json/75/line", 
            "@type": "oa:Annotation", 
            "motivation": "oa:painting", 
            "on": "http://bvmm.irht.cnrs.fr/iiif/23760/canvas/canvas-2331535#xywh=3515,1125,24,124", 
            "resource": {
                "@type": "cnt:ContentAsText", 
                "chars": "ET", 
                "format": "text/plain"
            }
        }, 
        {
            "@id": "https://manifests.teklia.com/HIMANIS/JJ167/words_annotations/FRAN_0021_28544.json/76/line", 
            "@type": "oa:Annotation", 
            "motivation": "oa:painting", 
            "on": "http://bvmm.irht.cnrs.fr/iiif/23760/canvas/canvas-2331535#xywh=3110,865,91,180", 
            "resource": {
                "@type": "cnt:ContentAsText", 
                "chars": "ET", 
                "format": "text/plain"
            }
        }, 
        {
            "@id": "https://manifests.teklia.com/HIMANIS/JJ167/words_annotations/FRAN_0021_28544.json/77/line", 
            "@type": "oa:Annotation", 
            "motivation": "oa:painting", 
            "on": "http://bvmm.irht.cnrs.fr/iiif/23760/canvas/canvas-2331535#xywh=2894,1242,164,163", 
            "resource": {
                "@type": "cnt:ContentAsText", 
                "chars": "MESSIRES", 
                "format": "text/plain"
            }
        }, 
        {
            "@id": "https://manifests.teklia.com/HIMANIS/JJ167/words_annotations/FRAN_0021_28544.json/78/line", 
            "@type": "oa:Annotation", 
            "motivation": "oa:painting", 
            "on": "http://bvmm.irht.cnrs.fr/iiif/23760/canvas/canvas-2331535#xywh=3286,1076,89,129", 
            "resource": {
                "@type": "cnt:ContentAsText", 
                "chars": "DUC", 
                "format": "text/plain"
            }
        }, 
        {
            "@id": "https://manifests.teklia.com/HIMANIS/JJ167/words_annotations/FRAN_0021_28544.json/79/line", 
            "@type": "oa:Annotation", 
            "motivation": "oa:painting", 
            "on": "http://bvmm.irht.cnrs.fr/iiif/23760/canvas/canvas-2331535#xywh=2771,865,249,180", 
            "resource": {
                "@type": "cnt:ContentAsText", 
                "chars": "QUATORZE", 
                "format": "text/plain"
            }
        }, 
        {
            "@id": "https://manifests.teklia.com/HIMANIS/JJ167/words_annotations/FRAN_0021_28544.json/80/line", 
            "@type": "oa:Annotation", 
            "motivation": "oa:painting", 
            "on": "http://bvmm.irht.cnrs.fr/iiif/23760/canvas/canvas-2331535#xywh=2842,1005,77,102", 
            "resource": {
                "@type": "cnt:ContentAsText", 
                "chars": "ROY", 
                "format": "text/plain"
            }
        }, 
        {
            "@id": "https://manifests.teklia.com/HIMANIS/JJ167/words_annotations/FRAN_0021_28544.json/81/line", 
            "@type": "oa:Annotation", 
            "motivation": "oa:painting", 
            "on": "http://bvmm.irht.cnrs.fr/iiif/23760/canvas/canvas-2331535#xywh=3844,1005,206,102", 
            "resource": {
                "@type": "cnt:ContentAsText", 
                "chars": "VELEANT", 
                "format": "text/plain"
            }
        }, 
        {
            "@id": "https://manifests.teklia.com/HIMANIS/JJ167/words_annotations/FRAN_0021_28544.json/82/line", 
            "@type": "oa:Annotation", 
            "motivation": "oa:painting", 
            "on": "http://bvmm.irht.cnrs.fr/iiif/23760/canvas/canvas-2331535#xywh=3156,1125,328,124", 
            "resource": {
                "@type": "cnt:ContentAsText", 
                "chars": "VENDOSTRE", 
                "format": "text/plain"
            }
        }, 
        {
            "@id": "https://manifests.teklia.com/HIMANIS/JJ167/words_annotations/FRAN_0021_28544.json/83/line", 
            "@type": "oa:Annotation", 
            "motivation": "oa:painting", 
            "on": "http://bvmm.irht.cnrs.fr/iiif/23760/canvas/canvas-2331535#xywh=2465,865,125,180", 
            "resource": {
                "@type": "cnt:ContentAsText", 
                "chars": "TEL", 
                "format": "text/plain"
            }
        }, 
        {
            "@id": "https://manifests.teklia.com/HIMANIS/JJ167/words_annotations/FRAN_0021_28544.json/84/line", 
            "@type": "oa:Annotation", 
            "motivation": "oa:painting", 
            "on": "http://bvmm.irht.cnrs.fr/iiif/23760/canvas/canvas-2331535#xywh=3642,865,136,180", 
            "resource": {
                "@type": "cnt:ContentAsText", 
                "chars": "BERAN", 
                "format": "text/plain"
            }
        }, 
        {
            "@id": "https://manifests.teklia.com/HIMANIS/JJ167/words_annotations/FRAN_0021_28544.json/85/line", 
            "@type": "oa:Annotation", 
            "motivation": "oa:painting", 
            "on": "http://bvmm.irht.cnrs.fr/iiif/23760/canvas/canvas-2331535#xywh=3607,1005,57,102", 
            "resource": {
                "@type": "cnt:ContentAsText", 
                "chars": "LES", 
                "format": "text/plain"
            }
        }, 
        {
            "@id": "https://manifests.teklia.com/HIMANIS/JJ167/words_annotations/FRAN_0021_28544.json/86/line", 
            "@type": "oa:Annotation", 
            "motivation": "oa:painting", 
            "on": "http://bvmm.irht.cnrs.fr/iiif/23760/canvas/canvas-2331535#xywh=3991,1076,162,129", 
            "resource": {
                "@type": "cnt:ContentAsText", 
                "chars": "D'ALENTON", 
                "format": "text/plain"
            }
        }, 
        {
            "@id": "https://manifests.teklia.com/HIMANIS/JJ167/words_annotations/FRAN_0021_28544.json/87/line", 
            "@type": "oa:Annotation", 
            "motivation": "oa:painting", 
            "on": "http://bvmm.irht.cnrs.fr/iiif/23760/canvas/canvas-2331535#xywh=2894,1242,144,163", 
            "resource": {
                "@type": "cnt:ContentAsText", 
                "chars": "MESSIRE", 
                "format": "text/plain"
            }
        }, 
        {
            "@id": "https://manifests.teklia.com/HIMANIS/JJ167/words_annotations/FRAN_0021_28544.json/88/line", 
            "@type": "oa:Annotation", 
            "motivation": "oa:painting", 
            "on": "http://bvmm.irht.cnrs.fr/iiif/23760/canvas/canvas-2331535#xywh=2364,865,101,180", 
            "resource": {
                "@type": "cnt:ContentAsText", 
                "chars": "MIL", 
                "format": "text/plain"
            }
        }, 
        {
            "@id": "https://manifests.teklia.com/HIMANIS/JJ167/words_annotations/FRAN_0021_28544.json/89/line", 
            "@type": "oa:Annotation", 
            "motivation": "oa:painting", 
            "on": "http://bvmm.irht.cnrs.fr/iiif/23760/canvas/canvas-2331535#xywh=3416,865,135,180", 
            "resource": {
                "@type": "cnt:ContentAsText", 
                "chars": "SEQUE", 
                "format": "text/plain"
            }
        }, 
        {
            "@id": "https://manifests.teklia.com/HIMANIS/JJ167/words_annotations/FRAN_0021_28544.json/90/line", 
            "@type": "oa:Annotation", 
            "motivation": "oa:painting", 
            "on": "http://bvmm.irht.cnrs.fr/iiif/23760/canvas/canvas-2331535#xywh=1142,865,814,180", 
            "resource": {
                "@type": "cnt:ContentAsText", 
                "chars": "MAY", 
                "format": "text/plain"
            }
        }, 
        {
            "@id": "https://manifests.teklia.com/HIMANIS/JJ167/words_annotations/FRAN_0021_28544.json/91/line", 
            "@type": "oa:Annotation", 
            "motivation": "oa:painting", 
            "on": "http://bvmm.irht.cnrs.fr/iiif/23760/canvas/canvas-2331535#xywh=3515,1125,414,124", 
            "resource": {
                "@type": "cnt:ContentAsText", 
                "chars": "POURRESTABLE", 
                "format": "text/plain"
            }
        }, 
        {
            "@id": "https://manifests.teklia.com/HIMANIS/JJ167/words_annotations/FRAN_0021_28544.json/92/line", 
            "@type": "oa:Annotation", 
            "motivation": "oa:painting", 
            "on": "http://bvmm.irht.cnrs.fr/iiif/23760/canvas/canvas-2331535#xywh=1990,865,91,180", 
            "resource": {
                "@type": "cnt:ContentAsText", 
                "chars": "L'AN", 
                "format": "text/plain"
            }
        }, 
        {
            "@id": "https://manifests.teklia.com/HIMANIS/JJ167/words_annotations/FRAN_0021_28544.json/93/line", 
            "@type": "oa:Annotation", 
            "motivation": "oa:painting", 
            "on": "http://bvmm.irht.cnrs.fr/iiif/23760/canvas/canvas-2331535#xywh=3945,1125,171,124", 
            "resource": {
                "@type": "cnt:ContentAsText", 
                "chars": "L'ARRE", 
                "format": "text/plain"
            }
        }, 
        {
            "@id": "https://manifests.teklia.com/HIMANIS/JJ167/words_annotations/FRAN_0021_28544.json/94/line", 
            "@type": "oa:Annotation", 
            "motivation": "oa:painting", 
            "on": "http://bvmm.irht.cnrs.fr/iiif/23760/canvas/canvas-2331535#xywh=3684,1005,115,102", 
            "resource": {
                "@type": "cnt:ContentAsText", 
                "chars": "DUCE", 
                "format": "text/plain"
            }
        }, 
        {
            "@id": "https://manifests.teklia.com/HIMANIS/JJ167/words_annotations/FRAN_0021_28544.json/95/line", 
            "@type": "oa:Annotation", 
            "motivation": "oa:painting", 
            "on": "http://bvmm.irht.cnrs.fr/iiif/23760/canvas/canvas-2331535#xywh=2721,1242,132,163", 
            "resource": {
                "@type": "cnt:ContentAsText", 
                "chars": "NOUS", 
                "format": "text/plain"
            }
        }, 
        {
            "@id": "https://manifests.teklia.com/HIMANIS/JJ167/words_annotations/FRAN_0021_28544.json/96/line", 
            "@type": "oa:Annotation", 
            "motivation": "oa:painting", 
            "on": "http://bvmm.irht.cnrs.fr/iiif/23760/canvas/canvas-2331535#xywh=3812,1076,154,129", 
            "resource": {
                "@type": "cnt:ContentAsText", 
                "chars": "BONTES", 
                "format": "text/plain"
            }
        }, 
        {
            "@id": "https://manifests.teklia.com/HIMANIS/JJ167/words_annotations/FRAN_0021_28544.json/97/line", 
            "@type": "oa:Annotation", 
            "motivation": "oa:painting", 
            "on": "http://bvmm.irht.cnrs.fr/iiif/23760/canvas/canvas-2331535#xywh=4120,4620,524,40", 
            "resource": {
                "@type": "cnt:ContentAsText", 
                "chars": "DES", 
                "format": "text/plain"
            }
        }, 
        {
            "@id": "https://manifests.teklia.com/HIMANIS/JJ167/words_annotations/FRAN_0021_28544.json/98/line", 
            "@type": "oa:Annotation", 
            "motivation": "oa:painting", 
            "on": "http://bvmm.irht.cnrs.fr/iiif/23760/canvas/canvas-2331535#xywh=3507,1125,422,124", 
            "resource": {
                "@type": "cnt:ContentAsText", 
                "chars": "FOURRESTABLE", 
                "format": "text/plain"
            }
        }, 
        {
            "@id": "https://manifests.teklia.com/HIMANIS/JJ167/words_annotations/FRAN_0021_28544.json/99/line", 
            "@type": "oa:Annotation", 
            "motivation": "oa:painting", 
            "on": "http://bvmm.irht.cnrs.fr/iiif/23760/canvas/canvas-2331535#xywh=2842,1005,167,102", 
            "resource": {
                "@type": "cnt:ContentAsText", 
                "chars": "ROYN", 
                "format": "text/plain"
            }
        }, 
        {
            "@id": "https://manifests.teklia.com/HIMANIS/JJ167/words_annotations/FRAN_0021_28544.json/100/line", 
            "@type": "oa:Annotation", 
            "motivation": "oa:painting", 
            "on": "http://bvmm.irht.cnrs.fr/iiif/23760/canvas/canvas-2331535#xywh=3812,1076,154,129", 
            "resource": {
                "@type": "cnt:ContentAsText", 
                "chars": "BOUTES", 
                "format": "text/plain"
            }
        }, 
        {
            "@id": "https://manifests.teklia.com/HIMANIS/JJ167/words_annotations/FRAN_0021_28544.json/101/line", 
            "@type": "oa:Annotation", 
            "motivation": "oa:painting", 
            "on": "http://bvmm.irht.cnrs.fr/iiif/23760/canvas/canvas-2331535#xywh=2446,1125,203,124", 
            "resource": {
                "@type": "cnt:ContentAsText", 
                "chars": "PER", 
                "format": "text/plain"
            }
        }, 
        {
            "@id": "https://manifests.teklia.com/HIMANIS/JJ167/words_annotations/FRAN_0021_28544.json/102/line", 
            "@type": "oa:Annotation", 
            "motivation": "oa:painting", 
            "on": "http://bvmm.irht.cnrs.fr/iiif/23760/canvas/canvas-2331535#xywh=3464,1076,194,129", 
            "resource": {
                "@type": "cnt:ContentAsText", 
                "chars": "BAUMERE", 
                "format": "text/plain"
            }
        }, 
        {
            "@id": "https://manifests.teklia.com/HIMANIS/JJ167/words_annotations/FRAN_0021_28544.json/103/line", 
            "@type": "oa:Annotation", 
            "motivation": "oa:painting", 
            "on": "http://bvmm.irht.cnrs.fr/iiif/23760/canvas/canvas-2331535#xywh=3262,1242,236,163", 
            "resource": {
                "@type": "cnt:ContentAsText", 
                "chars": "BOISSAY", 
                "format": "text/plain"
            }
        }, 
        {
            "@id": "https://manifests.teklia.com/HIMANIS/JJ167/words_annotations/FRAN_0021_28544.json/104/line", 
            "@type": "oa:Annotation", 
            "motivation": "oa:painting", 
            "on": "http://bvmm.irht.cnrs.fr/iiif/23760/canvas/canvas-2331535#xywh=836,3114,142,55", 
            "resource": {
                "@type": "cnt:ContentAsText", 
                "chars": "PHILIPPUS", 
                "format": "text/plain"
            }
        }, 
        {
            "@id": "https://manifests.teklia.com/HIMANIS/JJ167/words_annotations/FRAN_0021_28544.json/105/line", 
            "@type": "oa:Annotation", 
            "motivation": "oa:painting", 
            "on": "http://bvmm.irht.cnrs.fr/iiif/23760/canvas/canvas-2331535#xywh=836,3114,139,55", 
            "resource": {
                "@type": "cnt:ContentAsText", 
                "chars": "PHILIPPES", 
                "format": "text/plain"
            }
        }, 
        {
            "@id": "https://manifests.teklia.com/HIMANIS/JJ167/words_annotations/FRAN_0021_28544.json/106/line", 
            "@type": "oa:Annotation", 
            "motivation": "oa:painting", 
            "on": "http://bvmm.irht.cnrs.fr/iiif/23760/canvas/canvas-2331535#xywh=1879,4665,1452,95", 
            "resource": {
                "@type": "cnt:ContentAsText", 
                "chars": "DEDENTES", 
                "format": "text/plain"
            }
        }
    ]
}