{
    "@context": "http://iiif.io/api/presentation/2/context.json", 
    "@id": "https://manifests.teklia.com/HIMANIS/JJ055/words_annotations/FRCHANJJ_JJ055_0059R.json", 
    "@type": "sc:AnnotationList", 
    "resources": [
        {
            "@id": "https://manifests.teklia.com/HIMANIS/JJ055/words_annotations/FRCHANJJ_JJ055_0059R.json/0/line", 
            "@type": "oa:Annotation", 
            "motivation": "oa:painting", 
            "on": "http://bvmm.irht.cnrs.fr/iiif/23641/canvas/canvas-2280621#xywh=2446,665,705,55", 
            "resource": {
                "@type": "cnt:ContentAsText", 
                "chars": "DONNE", 
                "format": "text/plain"
            }
        }, 
        {
            "@id": "https://manifests.teklia.com/HIMANIS/JJ055/words_annotations/FRCHANJJ_JJ055_0059R.json/1/line", 
            "@type": "oa:Annotation", 
            "motivation": "oa:painting", 
            "on": "http://bvmm.irht.cnrs.fr/iiif/23641/canvas/canvas-2280621#xywh=1480,2010,330,66", 
            "resource": {
                "@type": "cnt:ContentAsText", 
                "chars": "ACCION", 
                "format": "text/plain"
            }
        }, 
        {
            "@id": "https://manifests.teklia.com/HIMANIS/JJ055/words_annotations/FRCHANJJ_JJ055_0059R.json/2/line", 
            "@type": "oa:Annotation", 
            "motivation": "oa:painting", 
            "on": "http://bvmm.irht.cnrs.fr/iiif/23641/canvas/canvas-2280621#xywh=1524,0,844,102", 
            "resource": {
                "@type": "cnt:ContentAsText", 
                "chars": "QUE", 
                "format": "text/plain"
            }
        }, 
        {
            "@id": "https://manifests.teklia.com/HIMANIS/JJ055/words_annotations/FRCHANJJ_JJ055_0059R.json/3/line", 
            "@type": "oa:Annotation", 
            "motivation": "oa:painting", 
            "on": "http://bvmm.irht.cnrs.fr/iiif/23641/canvas/canvas-2280621#xywh=7,1786,1343,114", 
            "resource": {
                "@type": "cnt:ContentAsText", 
                "chars": "DE", 
                "format": "text/plain"
            }
        }, 
        {
            "@id": "https://manifests.teklia.com/HIMANIS/JJ055/words_annotations/FRCHANJJ_JJ055_0059R.json/4/line", 
            "@type": "oa:Annotation", 
            "motivation": "oa:painting", 
            "on": "http://bvmm.irht.cnrs.fr/iiif/23641/canvas/canvas-2280621#xywh=2431,705,268,55", 
            "resource": {
                "@type": "cnt:ContentAsText", 
                "chars": "ET", 
                "format": "text/plain"
            }
        }, 
        {
            "@id": "https://manifests.teklia.com/HIMANIS/JJ055/words_annotations/FRCHANJJ_JJ055_0059R.json/5/line", 
            "@type": "oa:Annotation", 
            "motivation": "oa:painting", 
            "on": "http://bvmm.irht.cnrs.fr/iiif/23641/canvas/canvas-2280621#xywh=2138,835,187,90", 
            "resource": {
                "@type": "cnt:ContentAsText", 
                "chars": "DIT", 
                "format": "text/plain"
            }
        }, 
        {
            "@id": "https://manifests.teklia.com/HIMANIS/JJ055/words_annotations/FRCHANJJ_JJ055_0059R.json/6/line", 
            "@type": "oa:Annotation", 
            "motivation": "oa:painting", 
            "on": "http://bvmm.irht.cnrs.fr/iiif/23641/canvas/canvas-2280621#xywh=7,1786,1400,114", 
            "resource": {
                "@type": "cnt:ContentAsText", 
                "chars": "ET", 
                "format": "text/plain"
            }
        }, 
        {
            "@id": "https://manifests.teklia.com/HIMANIS/JJ055/words_annotations/FRCHANJJ_JJ055_0059R.json/7/line", 
            "@type": "oa:Annotation", 
            "motivation": "oa:painting", 
            "on": "http://bvmm.irht.cnrs.fr/iiif/23641/canvas/canvas-2280621#xywh=1749,3885,1397,93", 
            "resource": {
                "@type": "cnt:ContentAsText", 
                "chars": "DENON", 
                "format": "text/plain"
            }
        }, 
        {
            "@id": "https://manifests.teklia.com/HIMANIS/JJ055/words_annotations/FRCHANJJ_JJ055_0059R.json/8/line", 
            "@type": "oa:Annotation", 
            "motivation": "oa:painting", 
            "on": "http://bvmm.irht.cnrs.fr/iiif/23641/canvas/canvas-2280621#xywh=1855,910,1015,80", 
            "resource": {
                "@type": "cnt:ContentAsText", 
                "chars": "PRESENTE", 
                "format": "text/plain"
            }
        }, 
        {
            "@id": "https://manifests.teklia.com/HIMANIS/JJ055/words_annotations/FRCHANJJ_JJ055_0059R.json/9/line", 
            "@type": "oa:Annotation", 
            "motivation": "oa:painting", 
            "on": "http://bvmm.irht.cnrs.fr/iiif/23641/canvas/canvas-2280621#xywh=2155,835,437,90", 
            "resource": {
                "@type": "cnt:ContentAsText", 
                "chars": "DE", 
                "format": "text/plain"
            }
        }, 
        {
            "@id": "https://manifests.teklia.com/HIMANIS/JJ055/words_annotations/FRCHANJJ_JJ055_0059R.json/10/line", 
            "@type": "oa:Annotation", 
            "motivation": "oa:painting", 
            "on": "http://bvmm.irht.cnrs.fr/iiif/23641/canvas/canvas-2280621#xywh=2144,835,436,90", 
            "resource": {
                "@type": "cnt:ContentAsText", 
                "chars": "ET", 
                "format": "text/plain"
            }
        }, 
        {
            "@id": "https://manifests.teklia.com/HIMANIS/JJ055/words_annotations/FRCHANJJ_JJ055_0059R.json/11/line", 
            "@type": "oa:Annotation", 
            "motivation": "oa:painting", 
            "on": "http://bvmm.irht.cnrs.fr/iiif/23641/canvas/canvas-2280621#xywh=744,1300,101,100", 
            "resource": {
                "@type": "cnt:ContentAsText", 
                "chars": "CEUS", 
                "format": "text/plain"
            }
        }, 
        {
            "@id": "https://manifests.teklia.com/HIMANIS/JJ055/words_annotations/FRCHANJJ_JJ055_0059R.json/12/line", 
            "@type": "oa:Annotation", 
            "motivation": "oa:painting", 
            "on": "http://bvmm.irht.cnrs.fr/iiif/23641/canvas/canvas-2280621#xywh=2172,835,624,90", 
            "resource": {
                "@type": "cnt:ContentAsText", 
                "chars": "FAIRE", 
                "format": "text/plain"
            }
        }, 
        {
            "@id": "https://manifests.teklia.com/HIMANIS/JJ055/words_annotations/FRCHANJJ_JJ055_0059R.json/13/line", 
            "@type": "oa:Annotation", 
            "motivation": "oa:painting", 
            "on": "http://bvmm.irht.cnrs.fr/iiif/23641/canvas/canvas-2280621#xywh=3021,36,102,51", 
            "resource": {
                "@type": "cnt:ContentAsText", 
                "chars": "SIN", 
                "format": "text/plain"
            }
        }, 
        {
            "@id": "https://manifests.teklia.com/HIMANIS/JJ055/words_annotations/FRCHANJJ_JJ055_0059R.json/14/line", 
            "@type": "oa:Annotation", 
            "motivation": "oa:painting", 
            "on": "http://bvmm.irht.cnrs.fr/iiif/23641/canvas/canvas-2280621#xywh=2144,835,181,90", 
            "resource": {
                "@type": "cnt:ContentAsText", 
                "chars": "IN", 
                "format": "text/plain"
            }
        }, 
        {
            "@id": "https://manifests.teklia.com/HIMANIS/JJ055/words_annotations/FRCHANJJ_JJ055_0059R.json/15/line", 
            "@type": "oa:Annotation", 
            "motivation": "oa:painting", 
            "on": "http://bvmm.irht.cnrs.fr/iiif/23641/canvas/canvas-2280621#xywh=1497,2066,0,94", 
            "resource": {
                "@type": "cnt:ContentAsText", 
                "chars": "C", 
                "format": "text/plain"
            }
        }, 
        {
            "@id": "https://manifests.teklia.com/HIMANIS/JJ055/words_annotations/FRCHANJJ_JJ055_0059R.json/16/line", 
            "@type": "oa:Annotation", 
            "motivation": "oa:painting", 
            "on": "http://bvmm.irht.cnrs.fr/iiif/23641/canvas/canvas-2280621#xywh=2198,960,948,110", 
            "resource": {
                "@type": "cnt:ContentAsText", 
                "chars": "PHILIPPES", 
                "format": "text/plain"
            }
        }, 
        {
            "@id": "https://manifests.teklia.com/HIMANIS/JJ055/words_annotations/FRCHANJJ_JJ055_0059R.json/17/line", 
            "@type": "oa:Annotation", 
            "motivation": "oa:painting", 
            "on": "http://bvmm.irht.cnrs.fr/iiif/23641/canvas/canvas-2280621#xywh=1497,2066,0,94", 
            "resource": {
                "@type": "cnt:ContentAsText", 
                "chars": "M", 
                "format": "text/plain"
            }
        }, 
        {
            "@id": "https://manifests.teklia.com/HIMANIS/JJ055/words_annotations/FRCHANJJ_JJ055_0059R.json/18/line", 
            "@type": "oa:Annotation", 
            "motivation": "oa:painting", 
            "on": "http://bvmm.irht.cnrs.fr/iiif/23641/canvas/canvas-2280621#xywh=1497,2066,0,94", 
            "resource": {
                "@type": "cnt:ContentAsText", 
                "chars": "P", 
                "format": "text/plain"
            }
        }, 
        {
            "@id": "https://manifests.teklia.com/HIMANIS/JJ055/words_annotations/FRCHANJJ_JJ055_0059R.json/19/line", 
            "@type": "oa:Annotation", 
            "motivation": "oa:painting", 
            "on": "http://bvmm.irht.cnrs.fr/iiif/23641/canvas/canvas-2280621#xywh=7,1786,1300,114", 
            "resource": {
                "@type": "cnt:ContentAsText", 
                "chars": "LE", 
                "format": "text/plain"
            }
        }, 
        {
            "@id": "https://manifests.teklia.com/HIMANIS/JJ055/words_annotations/FRCHANJJ_JJ055_0059R.json/20/line", 
            "@type": "oa:Annotation", 
            "motivation": "oa:painting", 
            "on": "http://bvmm.irht.cnrs.fr/iiif/23641/canvas/canvas-2280621#xywh=2153,3690,723,95", 
            "resource": {
                "@type": "cnt:ContentAsText", 
                "chars": "OU", 
                "format": "text/plain"
            }
        }, 
        {
            "@id": "https://manifests.teklia.com/HIMANIS/JJ055/words_annotations/FRCHANJJ_JJ055_0059R.json/21/line", 
            "@type": "oa:Annotation", 
            "motivation": "oa:painting", 
            "on": "http://bvmm.irht.cnrs.fr/iiif/23641/canvas/canvas-2280621#xywh=2446,665,705,55", 
            "resource": {
                "@type": "cnt:ContentAsText", 
                "chars": "CONTE", 
                "format": "text/plain"
            }
        }, 
        {
            "@id": "https://manifests.teklia.com/HIMANIS/JJ055/words_annotations/FRCHANJJ_JJ055_0059R.json/22/line", 
            "@type": "oa:Annotation", 
            "motivation": "oa:painting", 
            "on": "http://bvmm.irht.cnrs.fr/iiif/23641/canvas/canvas-2280621#xywh=2091,1490,0,80", 
            "resource": {
                "@type": "cnt:ContentAsText", 
                "chars": "CONTENENCONTINENTE", 
                "format": "text/plain"
            }
        }, 
        {
            "@id": "https://manifests.teklia.com/HIMANIS/JJ055/words_annotations/FRCHANJJ_JJ055_0059R.json/23/line", 
            "@type": "oa:Annotation", 
            "motivation": "oa:painting", 
            "on": "http://bvmm.irht.cnrs.fr/iiif/23641/canvas/canvas-2280621#xywh=2169,195,516,135", 
            "resource": {
                "@type": "cnt:ContentAsText", 
                "chars": "DE", 
                "format": "text/plain"
            }
        }, 
        {
            "@id": "https://manifests.teklia.com/HIMANIS/JJ055/words_annotations/FRCHANJJ_JJ055_0059R.json/24/line", 
            "@type": "oa:Annotation", 
            "motivation": "oa:painting", 
            "on": "http://bvmm.irht.cnrs.fr/iiif/23641/canvas/canvas-2280621#xywh=2149,835,6,90", 
            "resource": {
                "@type": "cnt:ContentAsText", 
                "chars": "LA", 
                "format": "text/plain"
            }
        }, 
        {
            "@id": "https://manifests.teklia.com/HIMANIS/JJ055/words_annotations/FRCHANJJ_JJ055_0059R.json/25/line", 
            "@type": "oa:Annotation", 
            "motivation": "oa:painting", 
            "on": "http://bvmm.irht.cnrs.fr/iiif/23641/canvas/canvas-2280621#xywh=7,1786,1013,114", 
            "resource": {
                "@type": "cnt:ContentAsText", 
                "chars": "NE", 
                "format": "text/plain"
            }
        }, 
        {
            "@id": "https://manifests.teklia.com/HIMANIS/JJ055/words_annotations/FRCHANJJ_JJ055_0059R.json/26/line", 
            "@type": "oa:Annotation", 
            "motivation": "oa:painting", 
            "on": "http://bvmm.irht.cnrs.fr/iiif/23641/canvas/canvas-2280621#xywh=2169,195,847,135", 
            "resource": {
                "@type": "cnt:ContentAsText", 
                "chars": "ET", 
                "format": "text/plain"
            }
        }, 
        {
            "@id": "https://manifests.teklia.com/HIMANIS/JJ055/words_annotations/FRCHANJJ_JJ055_0059R.json/27/line", 
            "@type": "oa:Annotation", 
            "motivation": "oa:painting", 
            "on": "http://bvmm.irht.cnrs.fr/iiif/23641/canvas/canvas-2280621#xywh=1400,1065,249,110", 
            "resource": {
                "@type": "cnt:ContentAsText", 
                "chars": "DE", 
                "format": "text/plain"
            }
        }, 
        {
            "@id": "https://manifests.teklia.com/HIMANIS/JJ055/words_annotations/FRCHANJJ_JJ055_0059R.json/28/line", 
            "@type": "oa:Annotation", 
            "motivation": "oa:painting", 
            "on": "http://bvmm.irht.cnrs.fr/iiif/23641/canvas/canvas-2280621#xywh=136,1786,1386,114", 
            "resource": {
                "@type": "cnt:ContentAsText", 
                "chars": "CAUSE", 
                "format": "text/plain"
            }
        }, 
        {
            "@id": "https://manifests.teklia.com/HIMANIS/JJ055/words_annotations/FRCHANJJ_JJ055_0059R.json/29/line", 
            "@type": "oa:Annotation", 
            "motivation": "oa:painting", 
            "on": "http://bvmm.irht.cnrs.fr/iiif/23641/canvas/canvas-2280621#xywh=0,3885,0,93", 
            "resource": {
                "@type": "cnt:ContentAsText", 
                "chars": "P", 
                "format": "text/plain"
            }
        }, 
        {
            "@id": "https://manifests.teklia.com/HIMANIS/JJ055/words_annotations/FRCHANJJ_JJ055_0059R.json/30/line", 
            "@type": "oa:Annotation", 
            "motivation": "oa:painting", 
            "on": "http://bvmm.irht.cnrs.fr/iiif/23641/canvas/canvas-2280621#xywh=136,1786,1142,114", 
            "resource": {
                "@type": "cnt:ContentAsText", 
                "chars": "CAS", 
                "format": "text/plain"
            }
        }, 
        {
            "@id": "https://manifests.teklia.com/HIMANIS/JJ055/words_annotations/FRCHANJJ_JJ055_0059R.json/31/line", 
            "@type": "oa:Annotation", 
            "motivation": "oa:painting", 
            "on": "http://bvmm.irht.cnrs.fr/iiif/23641/canvas/canvas-2280621#xywh=1706,1855,288,200", 
            "resource": {
                "@type": "cnt:ContentAsText", 
                "chars": "CC", 
                "format": "text/plain"
            }
        }, 
        {
            "@id": "https://manifests.teklia.com/HIMANIS/JJ055/words_annotations/FRCHANJJ_JJ055_0059R.json/32/line", 
            "@type": "oa:Annotation", 
            "motivation": "oa:painting", 
            "on": "http://bvmm.irht.cnrs.fr/iiif/23641/canvas/canvas-2280621#xywh=1382,2166,55,49", 
            "resource": {
                "@type": "cnt:ContentAsText", 
                "chars": "DE", 
                "format": "text/plain"
            }
        }, 
        {
            "@id": "https://manifests.teklia.com/HIMANIS/JJ055/words_annotations/FRCHANJJ_JJ055_0059R.json/33/line", 
            "@type": "oa:Annotation", 
            "motivation": "oa:painting", 
            "on": "http://bvmm.irht.cnrs.fr/iiif/23641/canvas/canvas-2280621#xywh=136,1786,1142,114", 
            "resource": {
                "@type": "cnt:ContentAsText", 
                "chars": "CES", 
                "format": "text/plain"
            }
        }, 
        {
            "@id": "https://manifests.teklia.com/HIMANIS/JJ055/words_annotations/FRCHANJJ_JJ055_0059R.json/34/line", 
            "@type": "oa:Annotation", 
            "motivation": "oa:painting", 
            "on": "http://bvmm.irht.cnrs.fr/iiif/23641/canvas/canvas-2280621#xywh=6,1405,0,95", 
            "resource": {
                "@type": "cnt:ContentAsText", 
                "chars": "G", 
                "format": "text/plain"
            }
        }, 
        {
            "@id": "https://manifests.teklia.com/HIMANIS/JJ055/words_annotations/FRCHANJJ_JJ055_0059R.json/35/line", 
            "@type": "oa:Annotation", 
            "motivation": "oa:painting", 
            "on": "http://bvmm.irht.cnrs.fr/iiif/23641/canvas/canvas-2280621#xywh=140,1300,523,100", 
            "resource": {
                "@type": "cnt:ContentAsText", 
                "chars": "TANT", 
                "format": "text/plain"
            }
        }, 
        {
            "@id": "https://manifests.teklia.com/HIMANIS/JJ055/words_annotations/FRCHANJJ_JJ055_0059R.json/36/line", 
            "@type": "oa:Annotation", 
            "motivation": "oa:painting", 
            "on": "http://bvmm.irht.cnrs.fr/iiif/23641/canvas/canvas-2280621#xywh=6,1405,0,95", 
            "resource": {
                "@type": "cnt:ContentAsText", 
                "chars": "J", 
                "format": "text/plain"
            }
        }, 
        {
            "@id": "https://manifests.teklia.com/HIMANIS/JJ055/words_annotations/FRCHANJJ_JJ055_0059R.json/37/line", 
            "@type": "oa:Annotation", 
            "motivation": "oa:painting", 
            "on": "http://bvmm.irht.cnrs.fr/iiif/23641/canvas/canvas-2280621#xywh=6,1405,0,95", 
            "resource": {
                "@type": "cnt:ContentAsText", 
                "chars": "P", 
                "format": "text/plain"
            }
        }, 
        {
            "@id": "https://manifests.teklia.com/HIMANIS/JJ055/words_annotations/FRCHANJJ_JJ055_0059R.json/38/line", 
            "@type": "oa:Annotation", 
            "motivation": "oa:painting", 
            "on": "http://bvmm.irht.cnrs.fr/iiif/23641/canvas/canvas-2280621#xywh=1513,2010,911,66", 
            "resource": {
                "@type": "cnt:ContentAsText", 
                "chars": "CELLE", 
                "format": "text/plain"
            }
        }, 
        {
            "@id": "https://manifests.teklia.com/HIMANIS/JJ055/words_annotations/FRCHANJJ_JJ055_0059R.json/39/line", 
            "@type": "oa:Annotation", 
            "motivation": "oa:painting", 
            "on": "http://bvmm.irht.cnrs.fr/iiif/23641/canvas/canvas-2280621#xywh=1513,2010,1065,66", 
            "resource": {
                "@type": "cnt:ContentAsText", 
                "chars": "QUELLES", 
                "format": "text/plain"
            }
        }, 
        {
            "@id": "https://manifests.teklia.com/HIMANIS/JJ055/words_annotations/FRCHANJJ_JJ055_0059R.json/40/line", 
            "@type": "oa:Annotation", 
            "motivation": "oa:painting", 
            "on": "http://bvmm.irht.cnrs.fr/iiif/23641/canvas/canvas-2280621#xywh=130,1855,550,200", 
            "resource": {
                "@type": "cnt:ContentAsText", 
                "chars": "IL", 
                "format": "text/plain"
            }
        }, 
        {
            "@id": "https://manifests.teklia.com/HIMANIS/JJ055/words_annotations/FRCHANJJ_JJ055_0059R.json/41/line", 
            "@type": "oa:Annotation", 
            "motivation": "oa:painting", 
            "on": "http://bvmm.irht.cnrs.fr/iiif/23641/canvas/canvas-2280621#xywh=877,1300,623,100", 
            "resource": {
                "@type": "cnt:ContentAsText", 
                "chars": "CONCES", 
                "format": "text/plain"
            }
        }, 
        {
            "@id": "https://manifests.teklia.com/HIMANIS/JJ055/words_annotations/FRCHANJJ_JJ055_0059R.json/42/line", 
            "@type": "oa:Annotation", 
            "motivation": "oa:painting", 
            "on": "http://bvmm.irht.cnrs.fr/iiif/23641/canvas/canvas-2280621#xywh=2295,2066,171,94", 
            "resource": {
                "@type": "cnt:ContentAsText", 
                "chars": "SALVO", 
                "format": "text/plain"
            }
        }, 
        {
            "@id": "https://manifests.teklia.com/HIMANIS/JJ055/words_annotations/FRCHANJJ_JJ055_0059R.json/43/line", 
            "@type": "oa:Annotation", 
            "motivation": "oa:painting", 
            "on": "http://bvmm.irht.cnrs.fr/iiif/23641/canvas/canvas-2280621#xywh=1128,1235,1393,80", 
            "resource": {
                "@type": "cnt:ContentAsText", 
                "chars": "PARIS", 
                "format": "text/plain"
            }
        }, 
        {
            "@id": "https://manifests.teklia.com/HIMANIS/JJ055/words_annotations/FRCHANJJ_JJ055_0059R.json/44/line", 
            "@type": "oa:Annotation", 
            "motivation": "oa:painting", 
            "on": "http://bvmm.irht.cnrs.fr/iiif/23641/canvas/canvas-2280621#xywh=2336,1170,811,70", 
            "resource": {
                "@type": "cnt:ContentAsText", 
                "chars": "DE", 
                "format": "text/plain"
            }
        }, 
        {
            "@id": "https://manifests.teklia.com/HIMANIS/JJ055/words_annotations/FRCHANJJ_JJ055_0059R.json/45/line", 
            "@type": "oa:Annotation", 
            "motivation": "oa:painting", 
            "on": "http://bvmm.irht.cnrs.fr/iiif/23641/canvas/canvas-2280621#xywh=2336,1170,124,70", 
            "resource": {
                "@type": "cnt:ContentAsText", 
                "chars": "DU", 
                "format": "text/plain"
            }
        }, 
        {
            "@id": "https://manifests.teklia.com/HIMANIS/JJ055/words_annotations/FRCHANJJ_JJ055_0059R.json/46/line", 
            "@type": "oa:Annotation", 
            "motivation": "oa:painting", 
            "on": "http://bvmm.irht.cnrs.fr/iiif/23641/canvas/canvas-2280621#xywh=5,1705,1972,81", 
            "resource": {
                "@type": "cnt:ContentAsText", 
                "chars": "DESSUS", 
                "format": "text/plain"
            }
        }, 
        {
            "@id": "https://manifests.teklia.com/HIMANIS/JJ055/words_annotations/FRCHANJJ_JJ055_0059R.json/47/line", 
            "@type": "oa:Annotation", 
            "motivation": "oa:painting", 
            "on": "http://bvmm.irht.cnrs.fr/iiif/23641/canvas/canvas-2280621#xywh=1128,1235,1307,80", 
            "resource": {
                "@type": "cnt:ContentAsText", 
                "chars": "DE", 
                "format": "text/plain"
            }
        }, 
        {
            "@id": "https://manifests.teklia.com/HIMANIS/JJ055/words_annotations/FRCHANJJ_JJ055_0059R.json/48/line", 
            "@type": "oa:Annotation", 
            "motivation": "oa:painting", 
            "on": "http://bvmm.irht.cnrs.fr/iiif/23641/canvas/canvas-2280621#xywh=1098,1235,1594,80", 
            "resource": {
                "@type": "cnt:ContentAsText", 
                "chars": "DESSUS", 
                "format": "text/plain"
            }
        }, 
        {
            "@id": "https://manifests.teklia.com/HIMANIS/JJ055/words_annotations/FRCHANJJ_JJ055_0059R.json/49/line", 
            "@type": "oa:Annotation", 
            "motivation": "oa:painting", 
            "on": "http://bvmm.irht.cnrs.fr/iiif/23641/canvas/canvas-2280621#xywh=1513,2010,297,66", 
            "resource": {
                "@type": "cnt:ContentAsText", 
                "chars": "ROY", 
                "format": "text/plain"
            }
        }, 
        {
            "@id": "https://manifests.teklia.com/HIMANIS/JJ055/words_annotations/FRCHANJJ_JJ055_0059R.json/50/line", 
            "@type": "oa:Annotation", 
            "motivation": "oa:painting", 
            "on": "http://bvmm.irht.cnrs.fr/iiif/23641/canvas/canvas-2280621#xywh=2138,835,187,90", 
            "resource": {
                "@type": "cnt:ContentAsText", 
                "chars": "DITE", 
                "format": "text/plain"
            }
        }, 
        {
            "@id": "https://manifests.teklia.com/HIMANIS/JJ055/words_annotations/FRCHANJJ_JJ055_0059R.json/51/line", 
            "@type": "oa:Annotation", 
            "motivation": "oa:painting", 
            "on": "http://bvmm.irht.cnrs.fr/iiif/23641/canvas/canvas-2280621#xywh=2654,745,490,105", 
            "resource": {
                "@type": "cnt:ContentAsText", 
                "chars": "DE", 
                "format": "text/plain"
            }
        }, 
        {
            "@id": "https://manifests.teklia.com/HIMANIS/JJ055/words_annotations/FRCHANJJ_JJ055_0059R.json/52/line", 
            "@type": "oa:Annotation", 
            "motivation": "oa:painting", 
            "on": "http://bvmm.irht.cnrs.fr/iiif/23641/canvas/canvas-2280621#xywh=1513,2010,535,66", 
            "resource": {
                "@type": "cnt:ContentAsText", 
                "chars": "DE", 
                "format": "text/plain"
            }
        }, 
        {
            "@id": "https://manifests.teklia.com/HIMANIS/JJ055/words_annotations/FRCHANJJ_JJ055_0059R.json/53/line", 
            "@type": "oa:Annotation", 
            "motivation": "oa:painting", 
            "on": "http://bvmm.irht.cnrs.fr/iiif/23641/canvas/canvas-2280621#xywh=2231,745,920,105", 
            "resource": {
                "@type": "cnt:ContentAsText", 
                "chars": "ET", 
                "format": "text/plain"
            }
        }, 
        {
            "@id": "https://manifests.teklia.com/HIMANIS/JJ055/words_annotations/FRCHANJJ_JJ055_0059R.json/54/line", 
            "@type": "oa:Annotation", 
            "motivation": "oa:painting", 
            "on": "http://bvmm.irht.cnrs.fr/iiif/23641/canvas/canvas-2280621#xywh=1098,1235,111,80", 
            "resource": {
                "@type": "cnt:ContentAsText", 
                "chars": "LES", 
                "format": "text/plain"
            }
        }, 
        {
            "@id": "https://manifests.teklia.com/HIMANIS/JJ055/words_annotations/FRCHANJJ_JJ055_0059R.json/55/line", 
            "@type": "oa:Annotation", 
            "motivation": "oa:painting", 
            "on": "http://bvmm.irht.cnrs.fr/iiif/23641/canvas/canvas-2280621#xywh=1480,2010,543,66", 
            "resource": {
                "@type": "cnt:ContentAsText", 
                "chars": "ET", 
                "format": "text/plain"
            }
        }, 
        {
            "@id": "https://manifests.teklia.com/HIMANIS/JJ055/words_annotations/FRCHANJJ_JJ055_0059R.json/56/line", 
            "@type": "oa:Annotation", 
            "motivation": "oa:painting", 
            "on": "http://bvmm.irht.cnrs.fr/iiif/23641/canvas/canvas-2280621#xywh=1855,910,460,80", 
            "resource": {
                "@type": "cnt:ContentAsText", 
                "chars": "ET", 
                "format": "text/plain"
            }
        }, 
        {
            "@id": "https://manifests.teklia.com/HIMANIS/JJ055/words_annotations/FRCHANJJ_JJ055_0059R.json/57/line", 
            "@type": "oa:Annotation", 
            "motivation": "oa:painting", 
            "on": "http://bvmm.irht.cnrs.fr/iiif/23641/canvas/canvas-2280621#xywh=1624,1405,894,90", 
            "resource": {
                "@type": "cnt:ContentAsText", 
                "chars": "DICTES", 
                "format": "text/plain"
            }
        }, 
        {
            "@id": "https://manifests.teklia.com/HIMANIS/JJ055/words_annotations/FRCHANJJ_JJ055_0059R.json/58/line", 
            "@type": "oa:Annotation", 
            "motivation": "oa:painting", 
            "on": "http://bvmm.irht.cnrs.fr/iiif/23641/canvas/canvas-2280621#xywh=1516,1490,776,80", 
            "resource": {
                "@type": "cnt:ContentAsText", 
                "chars": "EN", 
                "format": "text/plain"
            }
        }, 
        {
            "@id": "https://manifests.teklia.com/HIMANIS/JJ055/words_annotations/FRCHANJJ_JJ055_0059R.json/59/line", 
            "@type": "oa:Annotation", 
            "motivation": "oa:painting", 
            "on": "http://bvmm.irht.cnrs.fr/iiif/23641/canvas/canvas-2280621#xywh=1516,1490,121,80", 
            "resource": {
                "@type": "cnt:ContentAsText", 
                "chars": "ET", 
                "format": "text/plain"
            }
        }, 
        {
            "@id": "https://manifests.teklia.com/HIMANIS/JJ055/words_annotations/FRCHANJJ_JJ055_0059R.json/60/line", 
            "@type": "oa:Annotation", 
            "motivation": "oa:painting", 
            "on": "http://bvmm.irht.cnrs.fr/iiif/23641/canvas/canvas-2280621#xywh=2356,1300,340,100", 
            "resource": {
                "@type": "cnt:ContentAsText", 
                "chars": "QUE", 
                "format": "text/plain"
            }
        }, 
        {
            "@id": "https://manifests.teklia.com/HIMANIS/JJ055/words_annotations/FRCHANJJ_JJ055_0059R.json/61/line", 
            "@type": "oa:Annotation", 
            "motivation": "oa:painting", 
            "on": "http://bvmm.irht.cnrs.fr/iiif/23641/canvas/canvas-2280621#xywh=162,905,774,85", 
            "resource": {
                "@type": "cnt:ContentAsText", 
                "chars": "TENANCE", 
                "format": "text/plain"
            }
        }, 
        {
            "@id": "https://manifests.teklia.com/HIMANIS/JJ055/words_annotations/FRCHANJJ_JJ055_0059R.json/62/line", 
            "@type": "oa:Annotation", 
            "motivation": "oa:painting", 
            "on": "http://bvmm.irht.cnrs.fr/iiif/23641/canvas/canvas-2280621#xywh=889,1300,1096,100", 
            "resource": {
                "@type": "cnt:ContentAsText", 
                "chars": "PRESENT", 
                "format": "text/plain"
            }
        }, 
        {
            "@id": "https://manifests.teklia.com/HIMANIS/JJ055/words_annotations/FRCHANJJ_JJ055_0059R.json/63/line", 
            "@type": "oa:Annotation", 
            "motivation": "oa:painting", 
            "on": "http://bvmm.irht.cnrs.fr/iiif/23641/canvas/canvas-2280621#xywh=1480,2010,330,66", 
            "resource": {
                "@type": "cnt:ContentAsText", 
                "chars": "DICION", 
                "format": "text/plain"
            }
        }, 
        {
            "@id": "https://manifests.teklia.com/HIMANIS/JJ055/words_annotations/FRCHANJJ_JJ055_0059R.json/64/line", 
            "@type": "oa:Annotation", 
            "motivation": "oa:painting", 
            "on": "http://bvmm.irht.cnrs.fr/iiif/23641/canvas/canvas-2280621#xywh=3021,36,105,51", 
            "resource": {
                "@type": "cnt:ContentAsText", 
                "chars": "SA", 
                "format": "text/plain"
            }
        }, 
        {
            "@id": "https://manifests.teklia.com/HIMANIS/JJ055/words_annotations/FRCHANJJ_JJ055_0059R.json/65/line", 
            "@type": "oa:Annotation", 
            "motivation": "oa:painting", 
            "on": "http://bvmm.irht.cnrs.fr/iiif/23641/canvas/canvas-2280621#xywh=2153,3690,831,95", 
            "resource": {
                "@type": "cnt:ContentAsText", 
                "chars": "NOSTRE", 
                "format": "text/plain"
            }
        }, 
        {
            "@id": "https://manifests.teklia.com/HIMANIS/JJ055/words_annotations/FRCHANJJ_JJ055_0059R.json/66/line", 
            "@type": "oa:Annotation", 
            "motivation": "oa:painting", 
            "on": "http://bvmm.irht.cnrs.fr/iiif/23641/canvas/canvas-2280621#xywh=1098,1235,1186,80", 
            "resource": {
                "@type": "cnt:ContentAsText", 
                "chars": "DES", 
                "format": "text/plain"
            }
        }, 
        {
            "@id": "https://manifests.teklia.com/HIMANIS/JJ055/words_annotations/FRCHANJJ_JJ055_0059R.json/67/line", 
            "@type": "oa:Annotation", 
            "motivation": "oa:painting", 
            "on": "http://bvmm.irht.cnrs.fr/iiif/23641/canvas/canvas-2280621#xywh=2525,605,620,60", 
            "resource": {
                "@type": "cnt:ContentAsText", 
                "chars": "CONTEN", 
                "format": "text/plain"
            }
        }, 
        {
            "@id": "https://manifests.teklia.com/HIMANIS/JJ055/words_annotations/FRCHANJJ_JJ055_0059R.json/68/line", 
            "@type": "oa:Annotation", 
            "motivation": "oa:painting", 
            "on": "http://bvmm.irht.cnrs.fr/iiif/23641/canvas/canvas-2280621#xywh=1400,1065,1751,110", 
            "resource": {
                "@type": "cnt:ContentAsText", 
                "chars": "PHELIP", 
                "format": "text/plain"
            }
        }, 
        {
            "@id": "https://manifests.teklia.com/HIMANIS/JJ055/words_annotations/FRCHANJJ_JJ055_0059R.json/69/line", 
            "@type": "oa:Annotation", 
            "motivation": "oa:painting", 
            "on": "http://bvmm.irht.cnrs.fr/iiif/23641/canvas/canvas-2280621#xywh=1005,1786,510,114", 
            "resource": {
                "@type": "cnt:ContentAsText", 
                "chars": "TOUS", 
                "format": "text/plain"
            }
        }, 
        {
            "@id": "https://manifests.teklia.com/HIMANIS/JJ055/words_annotations/FRCHANJJ_JJ055_0059R.json/70/line", 
            "@type": "oa:Annotation", 
            "motivation": "oa:painting", 
            "on": "http://bvmm.irht.cnrs.fr/iiif/23641/canvas/canvas-2280621#xywh=1513,2010,919,66", 
            "resource": {
                "@type": "cnt:ContentAsText", 
                "chars": "QUELLE", 
                "format": "text/plain"
            }
        }, 
        {
            "@id": "https://manifests.teklia.com/HIMANIS/JJ055/words_annotations/FRCHANJJ_JJ055_0059R.json/71/line", 
            "@type": "oa:Annotation", 
            "motivation": "oa:painting", 
            "on": "http://bvmm.irht.cnrs.fr/iiif/23641/canvas/canvas-2280621#xywh=1328,1786,0,114", 
            "resource": {
                "@type": "cnt:ContentAsText", 
                "chars": "A", 
                "format": "text/plain"
            }
        }, 
        {
            "@id": "https://manifests.teklia.com/HIMANIS/JJ055/words_annotations/FRCHANJJ_JJ055_0059R.json/72/line", 
            "@type": "oa:Annotation", 
            "motivation": "oa:painting", 
            "on": "http://bvmm.irht.cnrs.fr/iiif/23641/canvas/canvas-2280621#xywh=2336,1170,815,70", 
            "resource": {
                "@type": "cnt:ContentAsText", 
                "chars": "DES", 
                "format": "text/plain"
            }
        }, 
        {
            "@id": "https://manifests.teklia.com/HIMANIS/JJ055/words_annotations/FRCHANJJ_JJ055_0059R.json/73/line", 
            "@type": "oa:Annotation", 
            "motivation": "oa:painting", 
            "on": "http://bvmm.irht.cnrs.fr/iiif/23641/canvas/canvas-2280621#xywh=136,1786,1142,114", 
            "resource": {
                "@type": "cnt:ContentAsText", 
                "chars": "DITES", 
                "format": "text/plain"
            }
        }, 
        {
            "@id": "https://manifests.teklia.com/HIMANIS/JJ055/words_annotations/FRCHANJJ_JJ055_0059R.json/74/line", 
            "@type": "oa:Annotation", 
            "motivation": "oa:painting", 
            "on": "http://bvmm.irht.cnrs.fr/iiif/23641/canvas/canvas-2280621#xywh=877,1300,201,100", 
            "resource": {
                "@type": "cnt:ContentAsText", 
                "chars": "QUELCONQUE", 
                "format": "text/plain"
            }
        }, 
        {
            "@id": "https://manifests.teklia.com/HIMANIS/JJ055/words_annotations/FRCHANJJ_JJ055_0059R.json/75/line", 
            "@type": "oa:Annotation", 
            "motivation": "oa:painting", 
            "on": "http://bvmm.irht.cnrs.fr/iiif/23641/canvas/canvas-2280621#xywh=744,1300,51,100", 
            "resource": {
                "@type": "cnt:ContentAsText", 
                "chars": "CE", 
                "format": "text/plain"
            }
        }, 
        {
            "@id": "https://manifests.teklia.com/HIMANIS/JJ055/words_annotations/FRCHANJJ_JJ055_0059R.json/76/line", 
            "@type": "oa:Annotation", 
            "motivation": "oa:painting", 
            "on": "http://bvmm.irht.cnrs.fr/iiif/23641/canvas/canvas-2280621#xywh=162,905,796,85", 
            "resource": {
                "@type": "cnt:ContentAsText", 
                "chars": "CONTRAINE", 
                "format": "text/plain"
            }
        }, 
        {
            "@id": "https://manifests.teklia.com/HIMANIS/JJ055/words_annotations/FRCHANJJ_JJ055_0059R.json/77/line", 
            "@type": "oa:Annotation", 
            "motivation": "oa:painting", 
            "on": "http://bvmm.irht.cnrs.fr/iiif/23641/canvas/canvas-2280621#xywh=688,1300,31,100", 
            "resource": {
                "@type": "cnt:ContentAsText", 
                "chars": "DE", 
                "format": "text/plain"
            }
        }, 
        {
            "@id": "https://manifests.teklia.com/HIMANIS/JJ055/words_annotations/FRCHANJJ_JJ055_0059R.json/78/line", 
            "@type": "oa:Annotation", 
            "motivation": "oa:painting", 
            "on": "http://bvmm.irht.cnrs.fr/iiif/23641/canvas/canvas-2280621#xywh=889,1300,1014,100", 
            "resource": {
                "@type": "cnt:ContentAsText", 
                "chars": "ET", 
                "format": "text/plain"
            }
        }, 
        {
            "@id": "https://manifests.teklia.com/HIMANIS/JJ055/words_annotations/FRCHANJJ_JJ055_0059R.json/79/line", 
            "@type": "oa:Annotation", 
            "motivation": "oa:painting", 
            "on": "http://bvmm.irht.cnrs.fr/iiif/23641/canvas/canvas-2280621#xywh=2336,1170,177,70", 
            "resource": {
                "@type": "cnt:ContentAsText", 
                "chars": "DIT", 
                "format": "text/plain"
            }
        }, 
        {
            "@id": "https://manifests.teklia.com/HIMANIS/JJ055/words_annotations/FRCHANJJ_JJ055_0059R.json/80/line", 
            "@type": "oa:Annotation", 
            "motivation": "oa:painting", 
            "on": "http://bvmm.irht.cnrs.fr/iiif/23641/canvas/canvas-2280621#xywh=1480,2010,313,66", 
            "resource": {
                "@type": "cnt:ContentAsText", 
                "chars": "ACTION", 
                "format": "text/plain"
            }
        }, 
        {
            "@id": "https://manifests.teklia.com/HIMANIS/JJ055/words_annotations/FRCHANJJ_JJ055_0059R.json/81/line", 
            "@type": "oa:Annotation", 
            "motivation": "oa:painting", 
            "on": "http://bvmm.irht.cnrs.fr/iiif/23641/canvas/canvas-2280621#xywh=1624,1405,1115,90", 
            "resource": {
                "@type": "cnt:ContentAsText", 
                "chars": "OCCASI", 
                "format": "text/plain"
            }
        }, 
        {
            "@id": "https://manifests.teklia.com/HIMANIS/JJ055/words_annotations/FRCHANJJ_JJ055_0059R.json/82/line", 
            "@type": "oa:Annotation", 
            "motivation": "oa:painting", 
            "on": "http://bvmm.irht.cnrs.fr/iiif/23641/canvas/canvas-2280621#xywh=2231,745,920,105", 
            "resource": {
                "@type": "cnt:ContentAsText", 
                "chars": "NOSTRE", 
                "format": "text/plain"
            }
        }, 
        {
            "@id": "https://manifests.teklia.com/HIMANIS/JJ055/words_annotations/FRCHANJJ_JJ055_0059R.json/83/line", 
            "@type": "oa:Annotation", 
            "motivation": "oa:painting", 
            "on": "http://bvmm.irht.cnrs.fr/iiif/23641/canvas/canvas-2280621#xywh=5,1705,41,81", 
            "resource": {
                "@type": "cnt:ContentAsText", 
                "chars": "LES", 
                "format": "text/plain"
            }
        }, 
        {
            "@id": "https://manifests.teklia.com/HIMANIS/JJ055/words_annotations/FRCHANJJ_JJ055_0059R.json/84/line", 
            "@type": "oa:Annotation", 
            "motivation": "oa:painting", 
            "on": "http://bvmm.irht.cnrs.fr/iiif/23641/canvas/canvas-2280621#xywh=1098,1235,1423,80", 
            "resource": {
                "@type": "cnt:ContentAsText", 
                "chars": "PAR", 
                "format": "text/plain"
            }
        }, 
        {
            "@id": "https://manifests.teklia.com/HIMANIS/JJ055/words_annotations/FRCHANJJ_JJ055_0059R.json/85/line", 
            "@type": "oa:Annotation", 
            "motivation": "oa:painting", 
            "on": "http://bvmm.irht.cnrs.fr/iiif/23641/canvas/canvas-2280621#xywh=877,1300,1026,100", 
            "resource": {
                "@type": "cnt:ContentAsText", 
                "chars": "CES", 
                "format": "text/plain"
            }
        }, 
        {
            "@id": "https://manifests.teklia.com/HIMANIS/JJ055/words_annotations/FRCHANJJ_JJ055_0059R.json/86/line", 
            "@type": "oa:Annotation", 
            "motivation": "oa:painting", 
            "on": "http://bvmm.irht.cnrs.fr/iiif/23641/canvas/canvas-2280621#xywh=2138,835,176,90", 
            "resource": {
                "@type": "cnt:ContentAsText", 
                "chars": "DICTIS", 
                "format": "text/plain"
            }
        }, 
        {
            "@id": "https://manifests.teklia.com/HIMANIS/JJ055/words_annotations/FRCHANJJ_JJ055_0059R.json/87/line", 
            "@type": "oa:Annotation", 
            "motivation": "oa:painting", 
            "on": "http://bvmm.irht.cnrs.fr/iiif/23641/canvas/canvas-2280621#xywh=1749,3885,1397,93", 
            "resource": {
                "@type": "cnt:ContentAsText", 
                "chars": "DENANS", 
                "format": "text/plain"
            }
        }, 
        {
            "@id": "https://manifests.teklia.com/HIMANIS/JJ055/words_annotations/FRCHANJJ_JJ055_0059R.json/88/line", 
            "@type": "oa:Annotation", 
            "motivation": "oa:painting", 
            "on": "http://bvmm.irht.cnrs.fr/iiif/23641/canvas/canvas-2280621#xywh=1749,3885,1397,93", 
            "resource": {
                "@type": "cnt:ContentAsText", 
                "chars": "DENANT", 
                "format": "text/plain"
            }
        }, 
        {
            "@id": "https://manifests.teklia.com/HIMANIS/JJ055/words_annotations/FRCHANJJ_JJ055_0059R.json/89/line", 
            "@type": "oa:Annotation", 
            "motivation": "oa:painting", 
            "on": "http://bvmm.irht.cnrs.fr/iiif/23641/canvas/canvas-2280621#xywh=2091,1490,0,80", 
            "resource": {
                "@type": "cnt:ContentAsText", 
                "chars": "CONTENENCONTENENTE", 
                "format": "text/plain"
            }
        }, 
        {
            "@id": "https://manifests.teklia.com/HIMANIS/JJ055/words_annotations/FRCHANJJ_JJ055_0059R.json/90/line", 
            "@type": "oa:Annotation", 
            "motivation": "oa:painting", 
            "on": "http://bvmm.irht.cnrs.fr/iiif/23641/canvas/canvas-2280621#xywh=136,1786,1853,114", 
            "resource": {
                "@type": "cnt:ContentAsText", 
                "chars": "APPELLATAS", 
                "format": "text/plain"
            }
        }, 
        {
            "@id": "https://manifests.teklia.com/HIMANIS/JJ055/words_annotations/FRCHANJJ_JJ055_0059R.json/91/line", 
            "@type": "oa:Annotation", 
            "motivation": "oa:painting", 
            "on": "http://bvmm.irht.cnrs.fr/iiif/23641/canvas/canvas-2280621#xywh=5,1705,1977,81", 
            "resource": {
                "@type": "cnt:ContentAsText", 
                "chars": "CHOSES", 
                "format": "text/plain"
            }
        }, 
        {
            "@id": "https://manifests.teklia.com/HIMANIS/JJ055/words_annotations/FRCHANJJ_JJ055_0059R.json/92/line", 
            "@type": "oa:Annotation", 
            "motivation": "oa:painting", 
            "on": "http://bvmm.irht.cnrs.fr/iiif/23641/canvas/canvas-2280621#xywh=744,1300,101,100", 
            "resource": {
                "@type": "cnt:ContentAsText", 
                "chars": "CAUSE", 
                "format": "text/plain"
            }
        }, 
        {
            "@id": "https://manifests.teklia.com/HIMANIS/JJ055/words_annotations/FRCHANJJ_JJ055_0059R.json/93/line", 
            "@type": "oa:Annotation", 
            "motivation": "oa:painting", 
            "on": "http://bvmm.irht.cnrs.fr/iiif/23641/canvas/canvas-2280621#xywh=2231,745,920,105", 
            "resource": {
                "@type": "cnt:ContentAsText", 
                "chars": "PRESEN", 
                "format": "text/plain"
            }
        }, 
        {
            "@id": "https://manifests.teklia.com/HIMANIS/JJ055/words_annotations/FRCHANJJ_JJ055_0059R.json/94/line", 
            "@type": "oa:Annotation", 
            "motivation": "oa:painting", 
            "on": "http://bvmm.irht.cnrs.fr/iiif/23641/canvas/canvas-2280621#xywh=2446,665,705,55", 
            "resource": {
                "@type": "cnt:ContentAsText", 
                "chars": "PRESEN", 
                "format": "text/plain"
            }
        }, 
        {
            "@id": "https://manifests.teklia.com/HIMANIS/JJ055/words_annotations/FRCHANJJ_JJ055_0059R.json/95/line", 
            "@type": "oa:Annotation", 
            "motivation": "oa:painting", 
            "on": "http://bvmm.irht.cnrs.fr/iiif/23641/canvas/canvas-2280621#xywh=2080,1705,10,81", 
            "resource": {
                "@type": "cnt:ContentAsText", 
                "chars": "DE", 
                "format": "text/plain"
            }
        }, 
        {
            "@id": "https://manifests.teklia.com/HIMANIS/JJ055/words_annotations/FRCHANJJ_JJ055_0059R.json/96/line", 
            "@type": "oa:Annotation", 
            "motivation": "oa:painting", 
            "on": "http://bvmm.irht.cnrs.fr/iiif/23641/canvas/canvas-2280621#xywh=1513,2010,297,66", 
            "resource": {
                "@type": "cnt:ContentAsText", 
                "chars": "NON", 
                "format": "text/plain"
            }
        }, 
        {
            "@id": "https://manifests.teklia.com/HIMANIS/JJ055/words_annotations/FRCHANJJ_JJ055_0059R.json/97/line", 
            "@type": "oa:Annotation", 
            "motivation": "oa:painting", 
            "on": "http://bvmm.irht.cnrs.fr/iiif/23641/canvas/canvas-2280621#xywh=1128,1235,1393,80", 
            "resource": {
                "@type": "cnt:ContentAsText", 
                "chars": "POIT", 
                "format": "text/plain"
            }
        }, 
        {
            "@id": "https://manifests.teklia.com/HIMANIS/JJ055/words_annotations/FRCHANJJ_JJ055_0059R.json/98/line", 
            "@type": "oa:Annotation", 
            "motivation": "oa:painting", 
            "on": "http://bvmm.irht.cnrs.fr/iiif/23641/canvas/canvas-2280621#xywh=1513,2010,535,66", 
            "resource": {
                "@type": "cnt:ContentAsText", 
                "chars": "CELE", 
                "format": "text/plain"
            }
        }, 
        {
            "@id": "https://manifests.teklia.com/HIMANIS/JJ055/words_annotations/FRCHANJJ_JJ055_0059R.json/99/line", 
            "@type": "oa:Annotation", 
            "motivation": "oa:painting", 
            "on": "http://bvmm.irht.cnrs.fr/iiif/23641/canvas/canvas-2280621#xywh=1731,1705,999,81", 
            "resource": {
                "@type": "cnt:ContentAsText", 
                "chars": "QUE", 
                "format": "text/plain"
            }
        }, 
        {
            "@id": "https://manifests.teklia.com/HIMANIS/JJ055/words_annotations/FRCHANJJ_JJ055_0059R.json/100/line", 
            "@type": "oa:Annotation", 
            "motivation": "oa:painting", 
            "on": "http://bvmm.irht.cnrs.fr/iiif/23641/canvas/canvas-2280621#xywh=889,1300,1127,100", 
            "resource": {
                "@type": "cnt:ContentAsText", 
                "chars": "QUOD", 
                "format": "text/plain"
            }
        }, 
        {
            "@id": "https://manifests.teklia.com/HIMANIS/JJ055/words_annotations/FRCHANJJ_JJ055_0059R.json/101/line", 
            "@type": "oa:Annotation", 
            "motivation": "oa:painting", 
            "on": "http://bvmm.irht.cnrs.fr/iiif/23641/canvas/canvas-2280621#xywh=744,1300,89,100", 
            "resource": {
                "@type": "cnt:ContentAsText", 
                "chars": "CUM", 
                "format": "text/plain"
            }
        }, 
        {
            "@id": "https://manifests.teklia.com/HIMANIS/JJ055/words_annotations/FRCHANJJ_JJ055_0059R.json/102/line", 
            "@type": "oa:Annotation", 
            "motivation": "oa:painting", 
            "on": "http://bvmm.irht.cnrs.fr/iiif/23641/canvas/canvas-2280621#xywh=130,1855,2365,200", 
            "resource": {
                "@type": "cnt:ContentAsText", 
                "chars": "SIS", 
                "format": "text/plain"
            }
        }, 
        {
            "@id": "https://manifests.teklia.com/HIMANIS/JJ055/words_annotations/FRCHANJJ_JJ055_0059R.json/103/line", 
            "@type": "oa:Annotation", 
            "motivation": "oa:painting", 
            "on": "http://bvmm.irht.cnrs.fr/iiif/23641/canvas/canvas-2280621#xywh=130,1855,2202,200", 
            "resource": {
                "@type": "cnt:ContentAsText", 
                "chars": "SIT", 
                "format": "text/plain"
            }
        }, 
        {
            "@id": "https://manifests.teklia.com/HIMANIS/JJ055/words_annotations/FRCHANJJ_JJ055_0059R.json/104/line", 
            "@type": "oa:Annotation", 
            "motivation": "oa:painting", 
            "on": "http://bvmm.irht.cnrs.fr/iiif/23641/canvas/canvas-2280621#xywh=2138,835,23,90", 
            "resource": {
                "@type": "cnt:ContentAsText", 
                "chars": "DESSUS", 
                "format": "text/plain"
            }
        }, 
        {
            "@id": "https://manifests.teklia.com/HIMANIS/JJ055/words_annotations/FRCHANJJ_JJ055_0059R.json/105/line", 
            "@type": "oa:Annotation", 
            "motivation": "oa:painting", 
            "on": "http://bvmm.irht.cnrs.fr/iiif/23641/canvas/canvas-2280621#xywh=2198,960,927,110", 
            "resource": {
                "@type": "cnt:ContentAsText", 
                "chars": "PHILIPPU", 
                "format": "text/plain"
            }
        }, 
        {
            "@id": "https://manifests.teklia.com/HIMANIS/JJ055/words_annotations/FRCHANJJ_JJ055_0059R.json/106/line", 
            "@type": "oa:Annotation", 
            "motivation": "oa:painting", 
            "on": "http://bvmm.irht.cnrs.fr/iiif/23641/canvas/canvas-2280621#xywh=140,1300,523,100", 
            "resource": {
                "@type": "cnt:ContentAsText", 
                "chars": "ESTANT", 
                "format": "text/plain"
            }
        }, 
        {
            "@id": "https://manifests.teklia.com/HIMANIS/JJ055/words_annotations/FRCHANJJ_JJ055_0059R.json/107/line", 
            "@type": "oa:Annotation", 
            "motivation": "oa:painting", 
            "on": "http://bvmm.irht.cnrs.fr/iiif/23641/canvas/canvas-2280621#xywh=2138,835,187,90", 
            "resource": {
                "@type": "cnt:ContentAsText", 
                "chars": "DITES", 
                "format": "text/plain"
            }
        }, 
        {
            "@id": "https://manifests.teklia.com/HIMANIS/JJ055/words_annotations/FRCHANJJ_JJ055_0059R.json/108/line", 
            "@type": "oa:Annotation", 
            "motivation": "oa:painting", 
            "on": "http://bvmm.irht.cnrs.fr/iiif/23641/canvas/canvas-2280621#xywh=2155,835,641,90", 
            "resource": {
                "@type": "cnt:ContentAsText", 
                "chars": "DEFFAIRE", 
                "format": "text/plain"
            }
        }
    ]
}