{
    "@context": "http://iiif.io/api/presentation/2/context.json", 
    "@id": "https://manifests.teklia.com/HIMANIS/JJ089/words_annotations/FRCHANJJ_JJ089_0161V.json", 
    "@type": "sc:AnnotationList", 
    "resources": [
        {
            "@id": "https://manifests.teklia.com/HIMANIS/JJ089/words_annotations/FRCHANJJ_JJ089_0161V.json/0/line", 
            "@type": "oa:Annotation", 
            "motivation": "oa:painting", 
            "on": "http://bvmm.irht.cnrs.fr/iiif/23677/canvas/canvas-2297616#xywh=5,3964,3157,82", 
            "resource": {
                "@type": "cnt:ContentAsText", 
                "chars": "EN", 
                "format": "text/plain"
            }
        }, 
        {
            "@id": "https://manifests.teklia.com/HIMANIS/JJ089/words_annotations/FRCHANJJ_JJ089_0161V.json/1/line", 
            "@type": "oa:Annotation", 
            "motivation": "oa:painting", 
            "on": "http://bvmm.irht.cnrs.fr/iiif/23677/canvas/canvas-2297616#xywh=57,2037,0,49", 
            "resource": {
                "@type": "cnt:ContentAsText", 
                "chars": "J", 
                "format": "text/plain"
            }
        }, 
        {
            "@id": "https://manifests.teklia.com/HIMANIS/JJ089/words_annotations/FRCHANJJ_JJ089_0161V.json/2/line", 
            "@type": "oa:Annotation", 
            "motivation": "oa:painting", 
            "on": "http://bvmm.irht.cnrs.fr/iiif/23677/canvas/canvas-2297616#xywh=193,1955,87,69", 
            "resource": {
                "@type": "cnt:ContentAsText", 
                "chars": "ECCLESIE", 
                "format": "text/plain"
            }
        }, 
        {
            "@id": "https://manifests.teklia.com/HIMANIS/JJ089/words_annotations/FRCHANJJ_JJ089_0161V.json/3/line", 
            "@type": "oa:Annotation", 
            "motivation": "oa:painting", 
            "on": "http://bvmm.irht.cnrs.fr/iiif/23677/canvas/canvas-2297616#xywh=403,1955,91,69", 
            "resource": {
                "@type": "cnt:ContentAsText", 
                "chars": "MARI", 
                "format": "text/plain"
            }
        }, 
        {
            "@id": "https://manifests.teklia.com/HIMANIS/JJ089/words_annotations/FRCHANJJ_JJ089_0161V.json/4/line", 
            "@type": "oa:Annotation", 
            "motivation": "oa:painting", 
            "on": "http://bvmm.irht.cnrs.fr/iiif/23677/canvas/canvas-2297616#xywh=5,3964,2706,82", 
            "resource": {
                "@type": "cnt:ContentAsText", 
                "chars": "ET", 
                "format": "text/plain"
            }
        }, 
        {
            "@id": "https://manifests.teklia.com/HIMANIS/JJ089/words_annotations/FRCHANJJ_JJ089_0161V.json/5/line", 
            "@type": "oa:Annotation", 
            "motivation": "oa:painting", 
            "on": "http://bvmm.irht.cnrs.fr/iiif/23677/canvas/canvas-2297616#xywh=57,2037,0,49", 
            "resource": {
                "@type": "cnt:ContentAsText", 
                "chars": "P", 
                "format": "text/plain"
            }
        }, 
        {
            "@id": "https://manifests.teklia.com/HIMANIS/JJ089/words_annotations/FRCHANJJ_JJ089_0161V.json/6/line", 
            "@type": "oa:Annotation", 
            "motivation": "oa:painting", 
            "on": "http://bvmm.irht.cnrs.fr/iiif/23677/canvas/canvas-2297616#xywh=302,1955,79,69", 
            "resource": {
                "@type": "cnt:ContentAsText", 
                "chars": "BEATE", 
                "format": "text/plain"
            }
        }, 
        {
            "@id": "https://manifests.teklia.com/HIMANIS/JJ089/words_annotations/FRCHANJJ_JJ089_0161V.json/7/line", 
            "@type": "oa:Annotation", 
            "motivation": "oa:painting", 
            "on": "http://bvmm.irht.cnrs.fr/iiif/23677/canvas/canvas-2297616#xywh=577,2811,153,90", 
            "resource": {
                "@type": "cnt:ContentAsText", 
                "chars": "PEDAGIN", 
                "format": "text/plain"
            }
        }, 
        {
            "@id": "https://manifests.teklia.com/HIMANIS/JJ089/words_annotations/FRCHANJJ_JJ089_0161V.json/8/line", 
            "@type": "oa:Annotation", 
            "motivation": "oa:painting", 
            "on": "http://bvmm.irht.cnrs.fr/iiif/23677/canvas/canvas-2297616#xywh=2,1846,286,25", 
            "resource": {
                "@type": "cnt:ContentAsText", 
                "chars": "DE", 
                "format": "text/plain"
            }
        }, 
        {
            "@id": "https://manifests.teklia.com/HIMANIS/JJ089/words_annotations/FRCHANJJ_JJ089_0161V.json/9/line", 
            "@type": "oa:Annotation", 
            "motivation": "oa:painting", 
            "on": "http://bvmm.irht.cnrs.fr/iiif/23677/canvas/canvas-2297616#xywh=638,2901,0,50", 
            "resource": {
                "@type": "cnt:ContentAsText", 
                "chars": "G", 
                "format": "text/plain"
            }
        }, 
        {
            "@id": "https://manifests.teklia.com/HIMANIS/JJ089/words_annotations/FRCHANJJ_JJ089_0161V.json/10/line", 
            "@type": "oa:Annotation", 
            "motivation": "oa:painting", 
            "on": "http://bvmm.irht.cnrs.fr/iiif/23677/canvas/canvas-2297616#xywh=66,1955,88,69", 
            "resource": {
                "@type": "cnt:ContentAsText", 
                "chars": "PER", 
                "format": "text/plain"
            }
        }, 
        {
            "@id": "https://manifests.teklia.com/HIMANIS/JJ089/words_annotations/FRCHANJJ_JJ089_0161V.json/11/line", 
            "@type": "oa:Annotation", 
            "motivation": "oa:painting", 
            "on": "http://bvmm.irht.cnrs.fr/iiif/23677/canvas/canvas-2297616#xywh=638,2901,0,50", 
            "resource": {
                "@type": "cnt:ContentAsText", 
                "chars": "H", 
                "format": "text/plain"
            }
        }, 
        {
            "@id": "https://manifests.teklia.com/HIMANIS/JJ089/words_annotations/FRCHANJJ_JJ089_0161V.json/12/line", 
            "@type": "oa:Annotation", 
            "motivation": "oa:painting", 
            "on": "http://bvmm.irht.cnrs.fr/iiif/23677/canvas/canvas-2297616#xywh=1787,1730,0,36", 
            "resource": {
                "@type": "cnt:ContentAsText", 
                "chars": "P", 
                "format": "text/plain"
            }
        }, 
        {
            "@id": "https://manifests.teklia.com/HIMANIS/JJ089/words_annotations/FRCHANJJ_JJ089_0161V.json/13/line", 
            "@type": "oa:Annotation", 
            "motivation": "oa:painting", 
            "on": "http://bvmm.irht.cnrs.fr/iiif/23677/canvas/canvas-2297616#xywh=638,2901,0,50", 
            "resource": {
                "@type": "cnt:ContentAsText", 
                "chars": "R", 
                "format": "text/plain"
            }
        }, 
        {
            "@id": "https://manifests.teklia.com/HIMANIS/JJ089/words_annotations/FRCHANJJ_JJ089_0161V.json/14/line", 
            "@type": "oa:Annotation", 
            "motivation": "oa:painting", 
            "on": "http://bvmm.irht.cnrs.fr/iiif/23677/canvas/canvas-2297616#xywh=638,2901,0,50", 
            "resource": {
                "@type": "cnt:ContentAsText", 
                "chars": "S", 
                "format": "text/plain"
            }
        }, 
        {
            "@id": "https://manifests.teklia.com/HIMANIS/JJ089/words_annotations/FRCHANJJ_JJ089_0161V.json/15/line", 
            "@type": "oa:Annotation", 
            "motivation": "oa:painting", 
            "on": "http://bvmm.irht.cnrs.fr/iiif/23677/canvas/canvas-2297616#xywh=1787,1730,0,36", 
            "resource": {
                "@type": "cnt:ContentAsText", 
                "chars": "R", 
                "format": "text/plain"
            }
        }, 
        {
            "@id": "https://manifests.teklia.com/HIMANIS/JJ089/words_annotations/FRCHANJJ_JJ089_0161V.json/16/line", 
            "@type": "oa:Annotation", 
            "motivation": "oa:painting", 
            "on": "http://bvmm.irht.cnrs.fr/iiif/23677/canvas/canvas-2297616#xywh=587,2951,61,65", 
            "resource": {
                "@type": "cnt:ContentAsText", 
                "chars": "DE", 
                "format": "text/plain"
            }
        }, 
        {
            "@id": "https://manifests.teklia.com/HIMANIS/JJ089/words_annotations/FRCHANJJ_JJ089_0161V.json/17/line", 
            "@type": "oa:Annotation", 
            "motivation": "oa:painting", 
            "on": "http://bvmm.irht.cnrs.fr/iiif/23677/canvas/canvas-2297616#xywh=57,2037,302,49", 
            "resource": {
                "@type": "cnt:ContentAsText", 
                "chars": "ROBERIE", 
                "format": "text/plain"
            }
        }, 
        {
            "@id": "https://manifests.teklia.com/HIMANIS/JJ089/words_annotations/FRCHANJJ_JJ089_0161V.json/18/line", 
            "@type": "oa:Annotation", 
            "motivation": "oa:painting", 
            "on": "http://bvmm.irht.cnrs.fr/iiif/23677/canvas/canvas-2297616#xywh=166,2037,193,49", 
            "resource": {
                "@type": "cnt:ContentAsText", 
                "chars": "BARRIER", 
                "format": "text/plain"
            }
        }, 
        {
            "@id": "https://manifests.teklia.com/HIMANIS/JJ089/words_annotations/FRCHANJJ_JJ089_0161V.json/19/line", 
            "@type": "oa:Annotation", 
            "motivation": "oa:painting", 
            "on": "http://bvmm.irht.cnrs.fr/iiif/23677/canvas/canvas-2297616#xywh=203,1884,0,46", 
            "resource": {
                "@type": "cnt:ContentAsText", 
                "chars": "P", 
                "format": "text/plain"
            }
        }, 
        {
            "@id": "https://manifests.teklia.com/HIMANIS/JJ089/words_annotations/FRCHANJJ_JJ089_0161V.json/20/line", 
            "@type": "oa:Annotation", 
            "motivation": "oa:painting", 
            "on": "http://bvmm.irht.cnrs.fr/iiif/23677/canvas/canvas-2297616#xywh=1172,1473,0,33", 
            "resource": {
                "@type": "cnt:ContentAsText", 
                "chars": "C", 
                "format": "text/plain"
            }
        }, 
        {
            "@id": "https://manifests.teklia.com/HIMANIS/JJ089/words_annotations/FRCHANJJ_JJ089_0161V.json/21/line", 
            "@type": "oa:Annotation", 
            "motivation": "oa:painting", 
            "on": "http://bvmm.irht.cnrs.fr/iiif/23677/canvas/canvas-2297616#xywh=736,2811,62,90", 
            "resource": {
                "@type": "cnt:ContentAsText", 
                "chars": "SEU", 
                "format": "text/plain"
            }
        }, 
        {
            "@id": "https://manifests.teklia.com/HIMANIS/JJ089/words_annotations/FRCHANJJ_JJ089_0161V.json/22/line", 
            "@type": "oa:Annotation", 
            "motivation": "oa:painting", 
            "on": "http://bvmm.irht.cnrs.fr/iiif/23677/canvas/canvas-2297616#xywh=627,2951,85,65", 
            "resource": {
                "@type": "cnt:ContentAsText", 
                "chars": "GRA", 
                "format": "text/plain"
            }
        }, 
        {
            "@id": "https://manifests.teklia.com/HIMANIS/JJ089/words_annotations/FRCHANJJ_JJ089_0161V.json/23/line", 
            "@type": "oa:Annotation", 
            "motivation": "oa:painting", 
            "on": "http://bvmm.irht.cnrs.fr/iiif/23677/canvas/canvas-2297616#xywh=2529,2675,207,55", 
            "resource": {
                "@type": "cnt:ContentAsText", 
                "chars": "POITOU", 
                "format": "text/plain"
            }
        }, 
        {
            "@id": "https://manifests.teklia.com/HIMANIS/JJ089/words_annotations/FRCHANJJ_JJ089_0161V.json/24/line", 
            "@type": "oa:Annotation", 
            "motivation": "oa:painting", 
            "on": "http://bvmm.irht.cnrs.fr/iiif/23677/canvas/canvas-2297616#xywh=57,2037,274,49", 
            "resource": {
                "@type": "cnt:ContentAsText", 
                "chars": "ROYER", 
                "format": "text/plain"
            }
        }, 
        {
            "@id": "https://manifests.teklia.com/HIMANIS/JJ089/words_annotations/FRCHANJJ_JJ089_0161V.json/25/line", 
            "@type": "oa:Annotation", 
            "motivation": "oa:painting", 
            "on": "http://bvmm.irht.cnrs.fr/iiif/23677/canvas/canvas-2297616#xywh=5,3964,3152,82", 
            "resource": {
                "@type": "cnt:ContentAsText", 
                "chars": "AUTRE", 
                "format": "text/plain"
            }
        }, 
        {
            "@id": "https://manifests.teklia.com/HIMANIS/JJ089/words_annotations/FRCHANJJ_JJ089_0161V.json/26/line", 
            "@type": "oa:Annotation", 
            "motivation": "oa:painting", 
            "on": "http://bvmm.irht.cnrs.fr/iiif/23677/canvas/canvas-2297616#xywh=2529,2675,207,55", 
            "resource": {
                "@type": "cnt:ContentAsText", 
                "chars": "PARIS", 
                "format": "text/plain"
            }
        }, 
        {
            "@id": "https://manifests.teklia.com/HIMANIS/JJ089/words_annotations/FRCHANJJ_JJ089_0161V.json/27/line", 
            "@type": "oa:Annotation", 
            "motivation": "oa:painting", 
            "on": "http://bvmm.irht.cnrs.fr/iiif/23677/canvas/canvas-2297616#xywh=2529,2675,62,55", 
            "resource": {
                "@type": "cnt:ContentAsText", 
                "chars": "DE", 
                "format": "text/plain"
            }
        }, 
        {
            "@id": "https://manifests.teklia.com/HIMANIS/JJ089/words_annotations/FRCHANJJ_JJ089_0161V.json/28/line", 
            "@type": "oa:Annotation", 
            "motivation": "oa:painting", 
            "on": "http://bvmm.irht.cnrs.fr/iiif/23677/canvas/canvas-2297616#xywh=619,2951,93,65", 
            "resource": {
                "@type": "cnt:ContentAsText", 
                "chars": "GEN", 
                "format": "text/plain"
            }
        }, 
        {
            "@id": "https://manifests.teklia.com/HIMANIS/JJ089/words_annotations/FRCHANJJ_JJ089_0161V.json/29/line", 
            "@type": "oa:Annotation", 
            "motivation": "oa:painting", 
            "on": "http://bvmm.irht.cnrs.fr/iiif/23677/canvas/canvas-2297616#xywh=563,2951,24,65", 
            "resource": {
                "@type": "cnt:ContentAsText", 
                "chars": "PER", 
                "format": "text/plain"
            }
        }, 
        {
            "@id": "https://manifests.teklia.com/HIMANIS/JJ089/words_annotations/FRCHANJJ_JJ089_0161V.json/30/line", 
            "@type": "oa:Annotation", 
            "motivation": "oa:painting", 
            "on": "http://bvmm.irht.cnrs.fr/iiif/23677/canvas/canvas-2297616#xywh=403,1955,100,69", 
            "resource": {
                "@type": "cnt:ContentAsText", 
                "chars": "MARIE", 
                "format": "text/plain"
            }
        }, 
        {
            "@id": "https://manifests.teklia.com/HIMANIS/JJ089/words_annotations/FRCHANJJ_JJ089_0161V.json/31/line", 
            "@type": "oa:Annotation", 
            "motivation": "oa:painting", 
            "on": "http://bvmm.irht.cnrs.fr/iiif/23677/canvas/canvas-2297616#xywh=0,1422,48,36", 
            "resource": {
                "@type": "cnt:ContentAsText", 
                "chars": "DE", 
                "format": "text/plain"
            }
        }
    ]
}