{
    "@context": "http://iiif.io/api/presentation/2/context.json", 
    "@id": "https://manifests.teklia.com/HIMANIS/JJ089/words_annotations/FRCHANJJ_JJ089_0302V.json", 
    "@type": "sc:AnnotationList", 
    "resources": [
        {
            "@id": "https://manifests.teklia.com/HIMANIS/JJ089/words_annotations/FRCHANJJ_JJ089_0302V.json/0/line", 
            "@type": "oa:Annotation", 
            "motivation": "oa:painting", 
            "on": "http://bvmm.irht.cnrs.fr/iiif/23677/canvas/canvas-2297896#xywh=535,4148,22,9", 
            "resource": {
                "@type": "cnt:ContentAsText", 
                "chars": "LES", 
                "format": "text/plain"
            }
        }, 
        {
            "@id": "https://manifests.teklia.com/HIMANIS/JJ089/words_annotations/FRCHANJJ_JJ089_0302V.json/1/line", 
            "@type": "oa:Annotation", 
            "motivation": "oa:painting", 
            "on": "http://bvmm.irht.cnrs.fr/iiif/23677/canvas/canvas-2297896#xywh=515,4053,118,73", 
            "resource": {
                "@type": "cnt:ContentAsText", 
                "chars": "L'ANZ", 
                "format": "text/plain"
            }
        }, 
        {
            "@id": "https://manifests.teklia.com/HIMANIS/JJ089/words_annotations/FRCHANJJ_JJ089_0302V.json/2/line", 
            "@type": "oa:Annotation", 
            "motivation": "oa:painting", 
            "on": "http://bvmm.irht.cnrs.fr/iiif/23677/canvas/canvas-2297896#xywh=2300,2506,0,29", 
            "resource": {
                "@type": "cnt:ContentAsText", 
                "chars": "J", 
                "format": "text/plain"
            }
        }, 
        {
            "@id": "https://manifests.teklia.com/HIMANIS/JJ089/words_annotations/FRCHANJJ_JJ089_0302V.json/3/line", 
            "@type": "oa:Annotation", 
            "motivation": "oa:painting", 
            "on": "http://bvmm.irht.cnrs.fr/iiif/23677/canvas/canvas-2297896#xywh=2300,2506,0,29", 
            "resource": {
                "@type": "cnt:ContentAsText", 
                "chars": "P", 
                "format": "text/plain"
            }
        }, 
        {
            "@id": "https://manifests.teklia.com/HIMANIS/JJ089/words_annotations/FRCHANJJ_JJ089_0302V.json/4/line", 
            "@type": "oa:Annotation", 
            "motivation": "oa:painting", 
            "on": "http://bvmm.irht.cnrs.fr/iiif/23677/canvas/canvas-2297896#xywh=678,4053,132,73", 
            "resource": {
                "@type": "cnt:ContentAsText", 
                "chars": "MESUR", 
                "format": "text/plain"
            }
        }, 
        {
            "@id": "https://manifests.teklia.com/HIMANIS/JJ089/words_annotations/FRCHANJJ_JJ089_0302V.json/5/line", 
            "@type": "oa:Annotation", 
            "motivation": "oa:painting", 
            "on": "http://bvmm.irht.cnrs.fr/iiif/23677/canvas/canvas-2297896#xywh=2917,3883,257,68", 
            "resource": {
                "@type": "cnt:ContentAsText", 
                "chars": "COURRONT", 
                "format": "text/plain"
            }
        }, 
        {
            "@id": "https://manifests.teklia.com/HIMANIS/JJ089/words_annotations/FRCHANJJ_JJ089_0302V.json/6/line", 
            "@type": "oa:Annotation", 
            "motivation": "oa:painting", 
            "on": "http://bvmm.irht.cnrs.fr/iiif/23677/canvas/canvas-2297896#xywh=293,1664,155,77", 
            "resource": {
                "@type": "cnt:ContentAsText", 
                "chars": "CHARNE", 
                "format": "text/plain"
            }
        }, 
        {
            "@id": "https://manifests.teklia.com/HIMANIS/JJ089/words_annotations/FRCHANJJ_JJ089_0302V.json/7/line", 
            "@type": "oa:Annotation", 
            "motivation": "oa:painting", 
            "on": "http://bvmm.irht.cnrs.fr/iiif/23677/canvas/canvas-2297896#xywh=519,4265,64,28", 
            "resource": {
                "@type": "cnt:ContentAsText", 
                "chars": "CHARLE", 
                "format": "text/plain"
            }
        }, 
        {
            "@id": "https://manifests.teklia.com/HIMANIS/JJ089/words_annotations/FRCHANJJ_JJ089_0302V.json/8/line", 
            "@type": "oa:Annotation", 
            "motivation": "oa:painting", 
            "on": "http://bvmm.irht.cnrs.fr/iiif/23677/canvas/canvas-2297896#xywh=812,1778,5,80", 
            "resource": {
                "@type": "cnt:ContentAsText", 
                "chars": "DE", 
                "format": "text/plain"
            }
        }, 
        {
            "@id": "https://manifests.teklia.com/HIMANIS/JJ089/words_annotations/FRCHANJJ_JJ089_0302V.json/9/line", 
            "@type": "oa:Annotation", 
            "motivation": "oa:painting", 
            "on": "http://bvmm.irht.cnrs.fr/iiif/23677/canvas/canvas-2297896#xywh=505,3766,84,90", 
            "resource": {
                "@type": "cnt:ContentAsText", 
                "chars": "LES", 
                "format": "text/plain"
            }
        }, 
        {
            "@id": "https://manifests.teklia.com/HIMANIS/JJ089/words_annotations/FRCHANJJ_JJ089_0302V.json/10/line", 
            "@type": "oa:Annotation", 
            "motivation": "oa:painting", 
            "on": "http://bvmm.irht.cnrs.fr/iiif/23677/canvas/canvas-2297896#xywh=3093,3208,0,36", 
            "resource": {
                "@type": "cnt:ContentAsText", 
                "chars": "J", 
                "format": "text/plain"
            }
        }, 
        {
            "@id": "https://manifests.teklia.com/HIMANIS/JJ089/words_annotations/FRCHANJJ_JJ089_0302V.json/11/line", 
            "@type": "oa:Annotation", 
            "motivation": "oa:painting", 
            "on": "http://bvmm.irht.cnrs.fr/iiif/23677/canvas/canvas-2297896#xywh=2917,3883,197,68", 
            "resource": {
                "@type": "cnt:ContentAsText", 
                "chars": "COURAN", 
                "format": "text/plain"
            }
        }, 
        {
            "@id": "https://manifests.teklia.com/HIMANIS/JJ089/words_annotations/FRCHANJJ_JJ089_0302V.json/12/line", 
            "@type": "oa:Annotation", 
            "motivation": "oa:painting", 
            "on": "http://bvmm.irht.cnrs.fr/iiif/23677/canvas/canvas-2297896#xywh=521,1664,277,77", 
            "resource": {
                "@type": "cnt:ContentAsText", 
                "chars": "SAINT-SUSTICE", 
                "format": "text/plain"
            }
        }, 
        {
            "@id": "https://manifests.teklia.com/HIMANIS/JJ089/words_annotations/FRCHANJJ_JJ089_0302V.json/13/line", 
            "@type": "oa:Annotation", 
            "motivation": "oa:painting", 
            "on": "http://bvmm.irht.cnrs.fr/iiif/23677/canvas/canvas-2297896#xywh=293,1664,155,77", 
            "resource": {
                "@type": "cnt:ContentAsText", 
                "chars": "JOHANNE", 
                "format": "text/plain"
            }
        }, 
        {
            "@id": "https://manifests.teklia.com/HIMANIS/JJ089/words_annotations/FRCHANJJ_JJ089_0302V.json/14/line", 
            "@type": "oa:Annotation", 
            "motivation": "oa:painting", 
            "on": "http://bvmm.irht.cnrs.fr/iiif/23677/canvas/canvas-2297896#xywh=521,1664,277,77", 
            "resource": {
                "@type": "cnt:ContentAsText", 
                "chars": "SAINT-SUSTICI", 
                "format": "text/plain"
            }
        }, 
        {
            "@id": "https://manifests.teklia.com/HIMANIS/JJ089/words_annotations/FRCHANJJ_JJ089_0302V.json/15/line", 
            "@type": "oa:Annotation", 
            "motivation": "oa:painting", 
            "on": "http://bvmm.irht.cnrs.fr/iiif/23677/canvas/canvas-2297896#xywh=659,1858,0,71", 
            "resource": {
                "@type": "cnt:ContentAsText", 
                "chars": "R", 
                "format": "text/plain"
            }
        }, 
        {
            "@id": "https://manifests.teklia.com/HIMANIS/JJ089/words_annotations/FRCHANJJ_JJ089_0302V.json/16/line", 
            "@type": "oa:Annotation", 
            "motivation": "oa:painting", 
            "on": "http://bvmm.irht.cnrs.fr/iiif/23677/canvas/canvas-2297896#xywh=2917,3883,197,68", 
            "resource": {
                "@type": "cnt:ContentAsText", 
                "chars": "COURRON", 
                "format": "text/plain"
            }
        }, 
        {
            "@id": "https://manifests.teklia.com/HIMANIS/JJ089/words_annotations/FRCHANJJ_JJ089_0302V.json/17/line", 
            "@type": "oa:Annotation", 
            "motivation": "oa:painting", 
            "on": "http://bvmm.irht.cnrs.fr/iiif/23677/canvas/canvas-2297896#xywh=519,4265,76,28", 
            "resource": {
                "@type": "cnt:ContentAsText", 
                "chars": "ET", 
                "format": "text/plain"
            }
        }, 
        {
            "@id": "https://manifests.teklia.com/HIMANIS/JJ089/words_annotations/FRCHANJJ_JJ089_0302V.json/18/line", 
            "@type": "oa:Annotation", 
            "motivation": "oa:painting", 
            "on": "http://bvmm.irht.cnrs.fr/iiif/23677/canvas/canvas-2297896#xywh=1052,1858,85,71", 
            "resource": {
                "@type": "cnt:ContentAsText", 
                "chars": "PHILIPPE", 
                "format": "text/plain"
            }
        }, 
        {
            "@id": "https://manifests.teklia.com/HIMANIS/JJ089/words_annotations/FRCHANJJ_JJ089_0302V.json/19/line", 
            "@type": "oa:Annotation", 
            "motivation": "oa:painting", 
            "on": "http://bvmm.irht.cnrs.fr/iiif/23677/canvas/canvas-2297896#xywh=473,1664,29,77", 
            "resource": {
                "@type": "cnt:ContentAsText", 
                "chars": "DE", 
                "format": "text/plain"
            }
        }, 
        {
            "@id": "https://manifests.teklia.com/HIMANIS/JJ089/words_annotations/FRCHANJJ_JJ089_0302V.json/20/line", 
            "@type": "oa:Annotation", 
            "motivation": "oa:painting", 
            "on": "http://bvmm.irht.cnrs.fr/iiif/23677/canvas/canvas-2297896#xywh=519,4265,97,28", 
            "resource": {
                "@type": "cnt:ContentAsText", 
                "chars": "SALUT", 
                "format": "text/plain"
            }
        }, 
        {
            "@id": "https://manifests.teklia.com/HIMANIS/JJ089/words_annotations/FRCHANJJ_JJ089_0302V.json/21/line", 
            "@type": "oa:Annotation", 
            "motivation": "oa:painting", 
            "on": "http://bvmm.irht.cnrs.fr/iiif/23677/canvas/canvas-2297896#xywh=832,1778,177,80", 
            "resource": {
                "@type": "cnt:ContentAsText", 
                "chars": "LETTRES", 
                "format": "text/plain"
            }
        }, 
        {
            "@id": "https://manifests.teklia.com/HIMANIS/JJ089/words_annotations/FRCHANJJ_JJ089_0302V.json/22/line", 
            "@type": "oa:Annotation", 
            "motivation": "oa:painting", 
            "on": "http://bvmm.irht.cnrs.fr/iiif/23677/canvas/canvas-2297896#xywh=3270,1858,85,71", 
            "resource": {
                "@type": "cnt:ContentAsText", 
                "chars": "ROY", 
                "format": "text/plain"
            }
        }, 
        {
            "@id": "https://manifests.teklia.com/HIMANIS/JJ089/words_annotations/FRCHANJJ_JJ089_0302V.json/23/line", 
            "@type": "oa:Annotation", 
            "motivation": "oa:painting", 
            "on": "http://bvmm.irht.cnrs.fr/iiif/23677/canvas/canvas-2297896#xywh=2006,3365,0,67", 
            "resource": {
                "@type": "cnt:ContentAsText", 
                "chars": "H", 
                "format": "text/plain"
            }
        }, 
        {
            "@id": "https://manifests.teklia.com/HIMANIS/JJ089/words_annotations/FRCHANJJ_JJ089_0302V.json/24/line", 
            "@type": "oa:Annotation", 
            "motivation": "oa:painting", 
            "on": "http://bvmm.irht.cnrs.fr/iiif/23677/canvas/canvas-2297896#xywh=547,3696,287,38", 
            "resource": {
                "@type": "cnt:ContentAsText", 
                "chars": "VO", 
                "format": "text/plain"
            }
        }, 
        {
            "@id": "https://manifests.teklia.com/HIMANIS/JJ089/words_annotations/FRCHANJJ_JJ089_0302V.json/25/line", 
            "@type": "oa:Annotation", 
            "motivation": "oa:painting", 
            "on": "http://bvmm.irht.cnrs.fr/iiif/23677/canvas/canvas-2297896#xywh=2006,3365,0,67", 
            "resource": {
                "@type": "cnt:ContentAsText", 
                "chars": "J", 
                "format": "text/plain"
            }
        }, 
        {
            "@id": "https://manifests.teklia.com/HIMANIS/JJ089/words_annotations/FRCHANJJ_JJ089_0302V.json/26/line", 
            "@type": "oa:Annotation", 
            "motivation": "oa:painting", 
            "on": "http://bvmm.irht.cnrs.fr/iiif/23677/canvas/canvas-2297896#xywh=2006,3365,0,67", 
            "resource": {
                "@type": "cnt:ContentAsText", 
                "chars": "P", 
                "format": "text/plain"
            }
        }, 
        {
            "@id": "https://manifests.teklia.com/HIMANIS/JJ089/words_annotations/FRCHANJJ_JJ089_0302V.json/27/line", 
            "@type": "oa:Annotation", 
            "motivation": "oa:painting", 
            "on": "http://bvmm.irht.cnrs.fr/iiif/23677/canvas/canvas-2297896#xywh=515,4053,118,73", 
            "resource": {
                "@type": "cnt:ContentAsText", 
                "chars": "LANZ", 
                "format": "text/plain"
            }
        }, 
        {
            "@id": "https://manifests.teklia.com/HIMANIS/JJ089/words_annotations/FRCHANJJ_JJ089_0302V.json/28/line", 
            "@type": "oa:Annotation", 
            "motivation": "oa:painting", 
            "on": "http://bvmm.irht.cnrs.fr/iiif/23677/canvas/canvas-2297896#xywh=812,1778,133,80", 
            "resource": {
                "@type": "cnt:ContentAsText", 
                "chars": "ET", 
                "format": "text/plain"
            }
        }, 
        {
            "@id": "https://manifests.teklia.com/HIMANIS/JJ089/words_annotations/FRCHANJJ_JJ089_0302V.json/29/line", 
            "@type": "oa:Annotation", 
            "motivation": "oa:painting", 
            "on": "http://bvmm.irht.cnrs.fr/iiif/23677/canvas/canvas-2297896#xywh=535,4148,18,9", 
            "resource": {
                "@type": "cnt:ContentAsText", 
                "chars": "DE", 
                "format": "text/plain"
            }
        }, 
        {
            "@id": "https://manifests.teklia.com/HIMANIS/JJ089/words_annotations/FRCHANJJ_JJ089_0302V.json/30/line", 
            "@type": "oa:Annotation", 
            "motivation": "oa:painting", 
            "on": "http://bvmm.irht.cnrs.fr/iiif/23677/canvas/canvas-2297896#xywh=2280,4205,14,9", 
            "resource": {
                "@type": "cnt:ContentAsText", 
                "chars": "LE", 
                "format": "text/plain"
            }
        }, 
        {
            "@id": "https://manifests.teklia.com/HIMANIS/JJ089/words_annotations/FRCHANJJ_JJ089_0302V.json/31/line", 
            "@type": "oa:Annotation", 
            "motivation": "oa:painting", 
            "on": "http://bvmm.irht.cnrs.fr/iiif/23677/canvas/canvas-2297896#xywh=2280,4205,13,9", 
            "resource": {
                "@type": "cnt:ContentAsText", 
                "chars": "DE", 
                "format": "text/plain"
            }
        }, 
        {
            "@id": "https://manifests.teklia.com/HIMANIS/JJ089/words_annotations/FRCHANJJ_JJ089_0302V.json/32/line", 
            "@type": "oa:Annotation", 
            "motivation": "oa:painting", 
            "on": "http://bvmm.irht.cnrs.fr/iiif/23677/canvas/canvas-2297896#xywh=1007,4252,46,13", 
            "resource": {
                "@type": "cnt:ContentAsText", 
                "chars": "DE", 
                "format": "text/plain"
            }
        }, 
        {
            "@id": "https://manifests.teklia.com/HIMANIS/JJ089/words_annotations/FRCHANJJ_JJ089_0302V.json/33/line", 
            "@type": "oa:Annotation", 
            "motivation": "oa:painting", 
            "on": "http://bvmm.irht.cnrs.fr/iiif/23677/canvas/canvas-2297896#xywh=652,3766,79,90", 
            "resource": {
                "@type": "cnt:ContentAsText", 
                "chars": "DIZ", 
                "format": "text/plain"
            }
        }, 
        {
            "@id": "https://manifests.teklia.com/HIMANIS/JJ089/words_annotations/FRCHANJJ_JJ089_0302V.json/34/line", 
            "@type": "oa:Annotation", 
            "motivation": "oa:painting", 
            "on": "http://bvmm.irht.cnrs.fr/iiif/23677/canvas/canvas-2297896#xywh=765,3766,45,90", 
            "resource": {
                "@type": "cnt:ContentAsText", 
                "chars": "SIRE", 
                "format": "text/plain"
            }
        }, 
        {
            "@id": "https://manifests.teklia.com/HIMANIS/JJ089/words_annotations/FRCHANJJ_JJ089_0302V.json/35/line", 
            "@type": "oa:Annotation", 
            "motivation": "oa:painting", 
            "on": "http://bvmm.irht.cnrs.fr/iiif/23677/canvas/canvas-2297896#xywh=678,4053,123,73", 
            "resource": {
                "@type": "cnt:ContentAsText", 
                "chars": "MESSE", 
                "format": "text/plain"
            }
        }, 
        {
            "@id": "https://manifests.teklia.com/HIMANIS/JJ089/words_annotations/FRCHANJJ_JJ089_0302V.json/36/line", 
            "@type": "oa:Annotation", 
            "motivation": "oa:painting", 
            "on": "http://bvmm.irht.cnrs.fr/iiif/23677/canvas/canvas-2297896#xywh=678,4053,132,73", 
            "resource": {
                "@type": "cnt:ContentAsText", 
                "chars": "MESON", 
                "format": "text/plain"
            }
        }, 
        {
            "@id": "https://manifests.teklia.com/HIMANIS/JJ089/words_annotations/FRCHANJJ_JJ089_0302V.json/37/line", 
            "@type": "oa:Annotation", 
            "motivation": "oa:painting", 
            "on": "http://bvmm.irht.cnrs.fr/iiif/23677/canvas/canvas-2297896#xywh=1006,4157,0,24", 
            "resource": {
                "@type": "cnt:ContentAsText", 
                "chars": "P", 
                "format": "text/plain"
            }
        }, 
        {
            "@id": "https://manifests.teklia.com/HIMANIS/JJ089/words_annotations/FRCHANJJ_JJ089_0302V.json/38/line", 
            "@type": "oa:Annotation", 
            "motivation": "oa:painting", 
            "on": "http://bvmm.irht.cnrs.fr/iiif/23677/canvas/canvas-2297896#xywh=2685,3883,167,68", 
            "resource": {
                "@type": "cnt:ContentAsText", 
                "chars": "ACIONE", 
                "format": "text/plain"
            }
        }, 
        {
            "@id": "https://manifests.teklia.com/HIMANIS/JJ089/words_annotations/FRCHANJJ_JJ089_0302V.json/39/line", 
            "@type": "oa:Annotation", 
            "motivation": "oa:painting", 
            "on": "http://bvmm.irht.cnrs.fr/iiif/23677/canvas/canvas-2297896#xywh=2685,3883,167,68", 
            "resource": {
                "@type": "cnt:ContentAsText", 
                "chars": "ACIONS", 
                "format": "text/plain"
            }
        }, 
        {
            "@id": "https://manifests.teklia.com/HIMANIS/JJ089/words_annotations/FRCHANJJ_JJ089_0302V.json/40/line", 
            "@type": "oa:Annotation", 
            "motivation": "oa:painting", 
            "on": "http://bvmm.irht.cnrs.fr/iiif/23677/canvas/canvas-2297896#xywh=2266,4205,28,9", 
            "resource": {
                "@type": "cnt:ContentAsText", 
                "chars": "LETTRE", 
                "format": "text/plain"
            }
        }, 
        {
            "@id": "https://manifests.teklia.com/HIMANIS/JJ089/words_annotations/FRCHANJJ_JJ089_0302V.json/41/line", 
            "@type": "oa:Annotation", 
            "motivation": "oa:painting", 
            "on": "http://bvmm.irht.cnrs.fr/iiif/23677/canvas/canvas-2297896#xywh=553,3669,287,21", 
            "resource": {
                "@type": "cnt:ContentAsText", 
                "chars": "AUCUNE", 
                "format": "text/plain"
            }
        }, 
        {
            "@id": "https://manifests.teklia.com/HIMANIS/JJ089/words_annotations/FRCHANJJ_JJ089_0302V.json/42/line", 
            "@type": "oa:Annotation", 
            "motivation": "oa:painting", 
            "on": "http://bvmm.irht.cnrs.fr/iiif/23677/canvas/canvas-2297896#xywh=391,1586,44,58", 
            "resource": {
                "@type": "cnt:ContentAsText", 
                "chars": "XXXX", 
                "format": "text/plain"
            }
        }, 
        {
            "@id": "https://manifests.teklia.com/HIMANIS/JJ089/words_annotations/FRCHANJJ_JJ089_0302V.json/43/line", 
            "@type": "oa:Annotation", 
            "motivation": "oa:painting", 
            "on": "http://bvmm.irht.cnrs.fr/iiif/23677/canvas/canvas-2297896#xywh=2917,3883,257,68", 
            "resource": {
                "@type": "cnt:ContentAsText", 
                "chars": "COURON", 
                "format": "text/plain"
            }
        }, 
        {
            "@id": "https://manifests.teklia.com/HIMANIS/JJ089/words_annotations/FRCHANJJ_JJ089_0302V.json/44/line", 
            "@type": "oa:Annotation", 
            "motivation": "oa:painting", 
            "on": "http://bvmm.irht.cnrs.fr/iiif/23677/canvas/canvas-2297896#xywh=765,3766,39,90", 
            "resource": {
                "@type": "cnt:ContentAsText", 
                "chars": "FRERE", 
                "format": "text/plain"
            }
        }, 
        {
            "@id": "https://manifests.teklia.com/HIMANIS/JJ089/words_annotations/FRCHANJJ_JJ089_0302V.json/45/line", 
            "@type": "oa:Annotation", 
            "motivation": "oa:painting", 
            "on": "http://bvmm.irht.cnrs.fr/iiif/23677/canvas/canvas-2297896#xywh=2266,4205,11,9", 
            "resource": {
                "@type": "cnt:ContentAsText", 
                "chars": "ET", 
                "format": "text/plain"
            }
        }, 
        {
            "@id": "https://manifests.teklia.com/HIMANIS/JJ089/words_annotations/FRCHANJJ_JJ089_0302V.json/46/line", 
            "@type": "oa:Annotation", 
            "motivation": "oa:painting", 
            "on": "http://bvmm.irht.cnrs.fr/iiif/23677/canvas/canvas-2297896#xywh=329,1586,0,58", 
            "resource": {
                "@type": "cnt:ContentAsText", 
                "chars": "R", 
                "format": "text/plain"
            }
        }, 
        {
            "@id": "https://manifests.teklia.com/HIMANIS/JJ089/words_annotations/FRCHANJJ_JJ089_0302V.json/47/line", 
            "@type": "oa:Annotation", 
            "motivation": "oa:painting", 
            "on": "http://bvmm.irht.cnrs.fr/iiif/23677/canvas/canvas-2297896#xywh=953,3587,94,77", 
            "resource": {
                "@type": "cnt:ContentAsText", 
                "chars": "SOIT", 
                "format": "text/plain"
            }
        }, 
        {
            "@id": "https://manifests.teklia.com/HIMANIS/JJ089/words_annotations/FRCHANJJ_JJ089_0302V.json/48/line", 
            "@type": "oa:Annotation", 
            "motivation": "oa:painting", 
            "on": "http://bvmm.irht.cnrs.fr/iiif/23677/canvas/canvas-2297896#xywh=2690,2312,169,22", 
            "resource": {
                "@type": "cnt:ContentAsText", 
                "chars": "QUE", 
                "format": "text/plain"
            }
        }, 
        {
            "@id": "https://manifests.teklia.com/HIMANIS/JJ089/words_annotations/FRCHANJJ_JJ089_0302V.json/49/line", 
            "@type": "oa:Annotation", 
            "motivation": "oa:painting", 
            "on": "http://bvmm.irht.cnrs.fr/iiif/23677/canvas/canvas-2297896#xywh=519,4265,96,28", 
            "resource": {
                "@type": "cnt:ContentAsText", 
                "chars": "COLLATE", 
                "format": "text/plain"
            }
        }, 
        {
            "@id": "https://manifests.teklia.com/HIMANIS/JJ089/words_annotations/FRCHANJJ_JJ089_0302V.json/50/line", 
            "@type": "oa:Annotation", 
            "motivation": "oa:painting", 
            "on": "http://bvmm.irht.cnrs.fr/iiif/23677/canvas/canvas-2297896#xywh=553,3669,287,21", 
            "resource": {
                "@type": "cnt:ContentAsText", 
                "chars": "UNE", 
                "format": "text/plain"
            }
        }, 
        {
            "@id": "https://manifests.teklia.com/HIMANIS/JJ089/words_annotations/FRCHANJJ_JJ089_0302V.json/51/line", 
            "@type": "oa:Annotation", 
            "motivation": "oa:painting", 
            "on": "http://bvmm.irht.cnrs.fr/iiif/23677/canvas/canvas-2297896#xywh=2917,3883,257,68", 
            "resource": {
                "@type": "cnt:ContentAsText", 
                "chars": "COURROIE", 
                "format": "text/plain"
            }
        }, 
        {
            "@id": "https://manifests.teklia.com/HIMANIS/JJ089/words_annotations/FRCHANJJ_JJ089_0302V.json/52/line", 
            "@type": "oa:Annotation", 
            "motivation": "oa:painting", 
            "on": "http://bvmm.irht.cnrs.fr/iiif/23677/canvas/canvas-2297896#xywh=391,1586,40,58", 
            "resource": {
                "@type": "cnt:ContentAsText", 
                "chars": "XXX", 
                "format": "text/plain"
            }
        }
    ]
}