{
    "@context": "http://iiif.io/api/presentation/2/context.json", 
    "@id": "https://manifests.teklia.com/HIMANIS/JJ089/words_annotations/FRCHANJJ_JJ089_0257R.json", 
    "@type": "sc:AnnotationList", 
    "resources": [
        {
            "@id": "https://manifests.teklia.com/HIMANIS/JJ089/words_annotations/FRCHANJJ_JJ089_0257R.json/0/line", 
            "@type": "oa:Annotation", 
            "motivation": "oa:painting", 
            "on": "http://bvmm.irht.cnrs.fr/iiif/23677/canvas/canvas-2297805#xywh=9,1639,0,37", 
            "resource": {
                "@type": "cnt:ContentAsText", 
                "chars": "G", 
                "format": "text/plain"
            }
        }, 
        {
            "@id": "https://manifests.teklia.com/HIMANIS/JJ089/words_annotations/FRCHANJJ_JJ089_0257R.json/1/line", 
            "@type": "oa:Annotation", 
            "motivation": "oa:painting", 
            "on": "http://bvmm.irht.cnrs.fr/iiif/23677/canvas/canvas-2297805#xywh=9,1639,0,37", 
            "resource": {
                "@type": "cnt:ContentAsText", 
                "chars": "H", 
                "format": "text/plain"
            }
        }, 
        {
            "@id": "https://manifests.teklia.com/HIMANIS/JJ089/words_annotations/FRCHANJJ_JJ089_0257R.json/2/line", 
            "@type": "oa:Annotation", 
            "motivation": "oa:painting", 
            "on": "http://bvmm.irht.cnrs.fr/iiif/23677/canvas/canvas-2297805#xywh=9,1639,0,37", 
            "resource": {
                "@type": "cnt:ContentAsText", 
                "chars": "J", 
                "format": "text/plain"
            }
        }, 
        {
            "@id": "https://manifests.teklia.com/HIMANIS/JJ089/words_annotations/FRCHANJJ_JJ089_0257R.json/3/line", 
            "@type": "oa:Annotation", 
            "motivation": "oa:painting", 
            "on": "http://bvmm.irht.cnrs.fr/iiif/23677/canvas/canvas-2297805#xywh=37,3660,242,162", 
            "resource": {
                "@type": "cnt:ContentAsText", 
                "chars": "VOLUI", 
                "format": "text/plain"
            }
        }, 
        {
            "@id": "https://manifests.teklia.com/HIMANIS/JJ089/words_annotations/FRCHANJJ_JJ089_0257R.json/4/line", 
            "@type": "oa:Annotation", 
            "motivation": "oa:painting", 
            "on": "http://bvmm.irht.cnrs.fr/iiif/23677/canvas/canvas-2297805#xywh=2624,3245,201,31", 
            "resource": {
                "@type": "cnt:ContentAsText", 
                "chars": "CE", 
                "format": "text/plain"
            }
        }, 
        {
            "@id": "https://manifests.teklia.com/HIMANIS/JJ089/words_annotations/FRCHANJJ_JJ089_0257R.json/5/line", 
            "@type": "oa:Annotation", 
            "motivation": "oa:painting", 
            "on": "http://bvmm.irht.cnrs.fr/iiif/23677/canvas/canvas-2297805#xywh=2839,3245,118,31", 
            "resource": {
                "@type": "cnt:ContentAsText", 
                "chars": "SALVO", 
                "format": "text/plain"
            }
        }, 
        {
            "@id": "https://manifests.teklia.com/HIMANIS/JJ089/words_annotations/FRCHANJJ_JJ089_0257R.json/6/line", 
            "@type": "oa:Annotation", 
            "motivation": "oa:painting", 
            "on": "http://bvmm.irht.cnrs.fr/iiif/23677/canvas/canvas-2297805#xywh=0,1410,250,234", 
            "resource": {
                "@type": "cnt:ContentAsText", 
                "chars": "OCCASION", 
                "format": "text/plain"
            }
        }, 
        {
            "@id": "https://manifests.teklia.com/HIMANIS/JJ089/words_annotations/FRCHANJJ_JJ089_0257R.json/7/line", 
            "@type": "oa:Annotation", 
            "motivation": "oa:painting", 
            "on": "http://bvmm.irht.cnrs.fr/iiif/23677/canvas/canvas-2297805#xywh=0,1410,235,234", 
            "resource": {
                "@type": "cnt:ContentAsText", 
                "chars": "ABBATIS", 
                "format": "text/plain"
            }
        }, 
        {
            "@id": "https://manifests.teklia.com/HIMANIS/JJ089/words_annotations/FRCHANJJ_JJ089_0257R.json/8/line", 
            "@type": "oa:Annotation", 
            "motivation": "oa:painting", 
            "on": "http://bvmm.irht.cnrs.fr/iiif/23677/canvas/canvas-2297805#xywh=37,3660,272,162", 
            "resource": {
                "@type": "cnt:ContentAsText", 
                "chars": "OLI", 
                "format": "text/plain"
            }
        }
    ]
}