{
    "@context": "http://iiif.io/api/presentation/2/context.json", 
    "@id": "https://manifests.teklia.com/HIMANIS/JJ194/words_annotations/FRAN_0200_08897.json", 
    "@type": "sc:AnnotationList", 
    "resources": [
        {
            "@id": "https://manifests.teklia.com/HIMANIS/JJ194/words_annotations/FRAN_0200_08897.json/0/line", 
            "@type": "oa:Annotation", 
            "motivation": "oa:painting", 
            "on": "http://bvmm.irht.cnrs.fr/iiif/23800/canvas/canvas-2346783#xywh=2763,1217,154,87", 
            "resource": {
                "@type": "cnt:ContentAsText", 
                "chars": "MILITI", 
                "format": "text/plain"
            }
        }, 
        {
            "@id": "https://manifests.teklia.com/HIMANIS/JJ194/words_annotations/FRAN_0200_08897.json/1/line", 
            "@type": "oa:Annotation", 
            "motivation": "oa:painting", 
            "on": "http://bvmm.irht.cnrs.fr/iiif/23800/canvas/canvas-2346783#xywh=2633,862,101,179", 
            "resource": {
                "@type": "cnt:ContentAsText", 
                "chars": "BILLE", 
                "format": "text/plain"
            }
        }, 
        {
            "@id": "https://manifests.teklia.com/HIMANIS/JJ194/words_annotations/FRAN_0200_08897.json/2/line", 
            "@type": "oa:Annotation", 
            "motivation": "oa:painting", 
            "on": "http://bvmm.irht.cnrs.fr/iiif/23800/canvas/canvas-2346783#xywh=2855,1000,373,248", 
            "resource": {
                "@type": "cnt:ContentAsText", 
                "chars": "LETTRES", 
                "format": "text/plain"
            }
        }, 
        {
            "@id": "https://manifests.teklia.com/HIMANIS/JJ194/words_annotations/FRAN_0200_08897.json/3/line", 
            "@type": "oa:Annotation", 
            "motivation": "oa:painting", 
            "on": "http://bvmm.irht.cnrs.fr/iiif/23800/canvas/canvas-2346783#xywh=3336,1000,78,248", 
            "resource": {
                "@type": "cnt:ContentAsText", 
                "chars": "LES", 
                "format": "text/plain"
            }
        }, 
        {
            "@id": "https://manifests.teklia.com/HIMANIS/JJ194/words_annotations/FRAN_0200_08897.json/4/line", 
            "@type": "oa:Annotation", 
            "motivation": "oa:painting", 
            "on": "http://bvmm.irht.cnrs.fr/iiif/23800/canvas/canvas-2346783#xywh=4253,3251,130,37", 
            "resource": {
                "@type": "cnt:ContentAsText", 
                "chars": "DE", 
                "format": "text/plain"
            }
        }, 
        {
            "@id": "https://manifests.teklia.com/HIMANIS/JJ194/words_annotations/FRAN_0200_08897.json/5/line", 
            "@type": "oa:Annotation", 
            "motivation": "oa:painting", 
            "on": "http://bvmm.irht.cnrs.fr/iiif/23800/canvas/canvas-2346783#xywh=1925,1000,341,248", 
            "resource": {
                "@type": "cnt:ContentAsText", 
                "chars": "HABEBITACIONIS", 
                "format": "text/plain"
            }
        }, 
        {
            "@id": "https://manifests.teklia.com/HIMANIS/JJ194/words_annotations/FRAN_0200_08897.json/6/line", 
            "@type": "oa:Annotation", 
            "motivation": "oa:painting", 
            "on": "http://bvmm.irht.cnrs.fr/iiif/23800/canvas/canvas-2346783#xywh=2412,1217,285,87", 
            "resource": {
                "@type": "cnt:ContentAsText", 
                "chars": "LEMOUROUR", 
                "format": "text/plain"
            }
        }, 
        {
            "@id": "https://manifests.teklia.com/HIMANIS/JJ194/words_annotations/FRAN_0200_08897.json/7/line", 
            "@type": "oa:Annotation", 
            "motivation": "oa:painting", 
            "on": "http://bvmm.irht.cnrs.fr/iiif/23800/canvas/canvas-2346783#xywh=2228,487,58,115", 
            "resource": {
                "@type": "cnt:ContentAsText", 
                "chars": "ILLE", 
                "format": "text/plain"
            }
        }, 
        {
            "@id": "https://manifests.teklia.com/HIMANIS/JJ194/words_annotations/FRAN_0200_08897.json/8/line", 
            "@type": "oa:Annotation", 
            "motivation": "oa:painting", 
            "on": "http://bvmm.irht.cnrs.fr/iiif/23800/canvas/canvas-2346783#xywh=1165,4392,917,94", 
            "resource": {
                "@type": "cnt:ContentAsText", 
                "chars": "LA", 
                "format": "text/plain"
            }
        }, 
        {
            "@id": "https://manifests.teklia.com/HIMANIS/JJ194/words_annotations/FRAN_0200_08897.json/9/line", 
            "@type": "oa:Annotation", 
            "motivation": "oa:painting", 
            "on": "http://bvmm.irht.cnrs.fr/iiif/23800/canvas/canvas-2346783#xywh=1466,862,135,179", 
            "resource": {
                "@type": "cnt:ContentAsText", 
                "chars": "PER", 
                "format": "text/plain"
            }
        }, 
        {
            "@id": "https://manifests.teklia.com/HIMANIS/JJ194/words_annotations/FRAN_0200_08897.json/10/line", 
            "@type": "oa:Annotation", 
            "motivation": "oa:painting", 
            "on": "http://bvmm.irht.cnrs.fr/iiif/23800/canvas/canvas-2346783#xywh=1674,4392,361,94", 
            "resource": {
                "@type": "cnt:ContentAsText", 
                "chars": "LE", 
                "format": "text/plain"
            }
        }, 
        {
            "@id": "https://manifests.teklia.com/HIMANIS/JJ194/words_annotations/FRAN_0200_08897.json/11/line", 
            "@type": "oa:Annotation", 
            "motivation": "oa:painting", 
            "on": "http://bvmm.irht.cnrs.fr/iiif/23800/canvas/canvas-2346783#xywh=1674,4392,550,94", 
            "resource": {
                "@type": "cnt:ContentAsText", 
                "chars": "DE", 
                "format": "text/plain"
            }
        }, 
        {
            "@id": "https://manifests.teklia.com/HIMANIS/JJ194/words_annotations/FRAN_0200_08897.json/12/line", 
            "@type": "oa:Annotation", 
            "motivation": "oa:painting", 
            "on": "http://bvmm.irht.cnrs.fr/iiif/23800/canvas/canvas-2346783#xywh=1258,1000,295,248", 
            "resource": {
                "@type": "cnt:ContentAsText", 
                "chars": "DOMINI", 
                "format": "text/plain"
            }
        }, 
        {
            "@id": "https://manifests.teklia.com/HIMANIS/JJ194/words_annotations/FRAN_0200_08897.json/13/line", 
            "@type": "oa:Annotation", 
            "motivation": "oa:painting", 
            "on": "http://bvmm.irht.cnrs.fr/iiif/23800/canvas/canvas-2346783#xywh=814,860,70,94", 
            "resource": {
                "@type": "cnt:ContentAsText", 
                "chars": "ROY", 
                "format": "text/plain"
            }
        }, 
        {
            "@id": "https://manifests.teklia.com/HIMANIS/JJ194/words_annotations/FRAN_0200_08897.json/14/line", 
            "@type": "oa:Annotation", 
            "motivation": "oa:painting", 
            "on": "http://bvmm.irht.cnrs.fr/iiif/23800/canvas/canvas-2346783#xywh=4393,3251,30,37", 
            "resource": {
                "@type": "cnt:ContentAsText", 
                "chars": "NOS", 
                "format": "text/plain"
            }
        }, 
        {
            "@id": "https://manifests.teklia.com/HIMANIS/JJ194/words_annotations/FRAN_0200_08897.json/15/line", 
            "@type": "oa:Annotation", 
            "motivation": "oa:painting", 
            "on": "http://bvmm.irht.cnrs.fr/iiif/23800/canvas/canvas-2346783#xywh=1367,1000,372,248", 
            "resource": {
                "@type": "cnt:ContentAsText", 
                "chars": "ALIA", 
                "format": "text/plain"
            }
        }, 
        {
            "@id": "https://manifests.teklia.com/HIMANIS/JJ194/words_annotations/FRAN_0200_08897.json/16/line", 
            "@type": "oa:Annotation", 
            "motivation": "oa:painting", 
            "on": "http://bvmm.irht.cnrs.fr/iiif/23800/canvas/canvas-2346783#xywh=2228,487,80,115", 
            "resource": {
                "@type": "cnt:ContentAsText", 
                "chars": "SALVO", 
                "format": "text/plain"
            }
        }, 
        {
            "@id": "https://manifests.teklia.com/HIMANIS/JJ194/words_annotations/FRAN_0200_08897.json/17/line", 
            "@type": "oa:Annotation", 
            "motivation": "oa:painting", 
            "on": "http://bvmm.irht.cnrs.fr/iiif/23800/canvas/canvas-2346783#xywh=1367,1000,527,248", 
            "resource": {
                "@type": "cnt:ContentAsText", 
                "chars": "SEU", 
                "format": "text/plain"
            }
        }, 
        {
            "@id": "https://manifests.teklia.com/HIMANIS/JJ194/words_annotations/FRAN_0200_08897.json/18/line", 
            "@type": "oa:Annotation", 
            "motivation": "oa:painting", 
            "on": "http://bvmm.irht.cnrs.fr/iiif/23800/canvas/canvas-2346783#xywh=2924,1281,256,141", 
            "resource": {
                "@type": "cnt:ContentAsText", 
                "chars": "ONNUARII", 
                "format": "text/plain"
            }
        }, 
        {
            "@id": "https://manifests.teklia.com/HIMANIS/JJ194/words_annotations/FRAN_0200_08897.json/19/line", 
            "@type": "oa:Annotation", 
            "motivation": "oa:painting", 
            "on": "http://bvmm.irht.cnrs.fr/iiif/23800/canvas/canvas-2346783#xywh=809,3490,38,24", 
            "resource": {
                "@type": "cnt:ContentAsText", 
                "chars": "CONTE", 
                "format": "text/plain"
            }
        }, 
        {
            "@id": "https://manifests.teklia.com/HIMANIS/JJ194/words_annotations/FRAN_0200_08897.json/20/line", 
            "@type": "oa:Annotation", 
            "motivation": "oa:painting", 
            "on": "http://bvmm.irht.cnrs.fr/iiif/23800/canvas/canvas-2346783#xywh=1534,577,107,85", 
            "resource": {
                "@type": "cnt:ContentAsText", 
                "chars": "PRO", 
                "format": "text/plain"
            }
        }, 
        {
            "@id": "https://manifests.teklia.com/HIMANIS/JJ194/words_annotations/FRAN_0200_08897.json/21/line", 
            "@type": "oa:Annotation", 
            "motivation": "oa:painting", 
            "on": "http://bvmm.irht.cnrs.fr/iiif/23800/canvas/canvas-2346783#xywh=1264,862,281,179", 
            "resource": {
                "@type": "cnt:ContentAsText", 
                "chars": "CLARATA", 
                "format": "text/plain"
            }
        }, 
        {
            "@id": "https://manifests.teklia.com/HIMANIS/JJ194/words_annotations/FRAN_0200_08897.json/22/line", 
            "@type": "oa:Annotation", 
            "motivation": "oa:painting", 
            "on": "http://bvmm.irht.cnrs.fr/iiif/23800/canvas/canvas-2346783#xywh=1466,862,460,179", 
            "resource": {
                "@type": "cnt:ContentAsText", 
                "chars": "HABITANTIBUS", 
                "format": "text/plain"
            }
        }, 
        {
            "@id": "https://manifests.teklia.com/HIMANIS/JJ194/words_annotations/FRAN_0200_08897.json/23/line", 
            "@type": "oa:Annotation", 
            "motivation": "oa:painting", 
            "on": "http://bvmm.irht.cnrs.fr/iiif/23800/canvas/canvas-2346783#xywh=2228,487,153,115", 
            "resource": {
                "@type": "cnt:ContentAsText", 
                "chars": "ILLON", 
                "format": "text/plain"
            }
        }, 
        {
            "@id": "https://manifests.teklia.com/HIMANIS/JJ194/words_annotations/FRAN_0200_08897.json/24/line", 
            "@type": "oa:Annotation", 
            "motivation": "oa:painting", 
            "on": "http://bvmm.irht.cnrs.fr/iiif/23800/canvas/canvas-2346783#xywh=3060,1217,154,87", 
            "resource": {
                "@type": "cnt:ContentAsText", 
                "chars": "REVOIS", 
                "format": "text/plain"
            }
        }, 
        {
            "@id": "https://manifests.teklia.com/HIMANIS/JJ194/words_annotations/FRAN_0200_08897.json/25/line", 
            "@type": "oa:Annotation", 
            "motivation": "oa:painting", 
            "on": "http://bvmm.irht.cnrs.fr/iiif/23800/canvas/canvas-2346783#xywh=1547,707,318,105", 
            "resource": {
                "@type": "cnt:ContentAsText", 
                "chars": "PROBANNE", 
                "format": "text/plain"
            }
        }, 
        {
            "@id": "https://manifests.teklia.com/HIMANIS/JJ194/words_annotations/FRAN_0200_08897.json/26/line", 
            "@type": "oa:Annotation", 
            "motivation": "oa:painting", 
            "on": "http://bvmm.irht.cnrs.fr/iiif/23800/canvas/canvas-2346783#xywh=1891,707,192,105", 
            "resource": {
                "@type": "cnt:ContentAsText", 
                "chars": "QUOD", 
                "format": "text/plain"
            }
        }, 
        {
            "@id": "https://manifests.teklia.com/HIMANIS/JJ194/words_annotations/FRAN_0200_08897.json/27/line", 
            "@type": "oa:Annotation", 
            "motivation": "oa:painting", 
            "on": "http://bvmm.irht.cnrs.fr/iiif/23800/canvas/canvas-2346783#xywh=811,953,164,53", 
            "resource": {
                "@type": "cnt:ContentAsText", 
                "chars": "RO", 
                "format": "text/plain"
            }
        }, 
        {
            "@id": "https://manifests.teklia.com/HIMANIS/JJ194/words_annotations/FRAN_0200_08897.json/28/line", 
            "@type": "oa:Annotation", 
            "motivation": "oa:painting", 
            "on": "http://bvmm.irht.cnrs.fr/iiif/23800/canvas/canvas-2346783#xywh=697,953,271,53", 
            "resource": {
                "@type": "cnt:ContentAsText", 
                "chars": "BO", 
                "format": "text/plain"
            }
        }, 
        {
            "@id": "https://manifests.teklia.com/HIMANIS/JJ194/words_annotations/FRAN_0200_08897.json/29/line", 
            "@type": "oa:Annotation", 
            "motivation": "oa:painting", 
            "on": "http://bvmm.irht.cnrs.fr/iiif/23800/canvas/canvas-2346783#xywh=1665,647,198,95", 
            "resource": {
                "@type": "cnt:ContentAsText", 
                "chars": "TARDO", 
                "format": "text/plain"
            }
        }, 
        {
            "@id": "https://manifests.teklia.com/HIMANIS/JJ194/words_annotations/FRAN_0200_08897.json/30/line", 
            "@type": "oa:Annotation", 
            "motivation": "oa:painting", 
            "on": "http://bvmm.irht.cnrs.fr/iiif/23800/canvas/canvas-2346783#xywh=2775,777,65,103", 
            "resource": {
                "@type": "cnt:ContentAsText", 
                "chars": "SUO", 
                "format": "text/plain"
            }
        }, 
        {
            "@id": "https://manifests.teklia.com/HIMANIS/JJ194/words_annotations/FRAN_0200_08897.json/31/line", 
            "@type": "oa:Annotation", 
            "motivation": "oa:painting", 
            "on": "http://bvmm.irht.cnrs.fr/iiif/23800/canvas/canvas-2346783#xywh=2297,1000,140,248", 
            "resource": {
                "@type": "cnt:ContentAsText", 
                "chars": "PLUS", 
                "format": "text/plain"
            }
        }, 
        {
            "@id": "https://manifests.teklia.com/HIMANIS/JJ194/words_annotations/FRAN_0200_08897.json/32/line", 
            "@type": "oa:Annotation", 
            "motivation": "oa:painting", 
            "on": "http://bvmm.irht.cnrs.fr/iiif/23800/canvas/canvas-2346783#xywh=2182,707,185,105", 
            "resource": {
                "@type": "cnt:ContentAsText", 
                "chars": "HOCON", 
                "format": "text/plain"
            }
        }, 
        {
            "@id": "https://manifests.teklia.com/HIMANIS/JJ194/words_annotations/FRAN_0200_08897.json/33/line", 
            "@type": "oa:Annotation", 
            "motivation": "oa:painting", 
            "on": "http://bvmm.irht.cnrs.fr/iiif/23800/canvas/canvas-2346783#xywh=3329,1217,137,87", 
            "resource": {
                "@type": "cnt:ContentAsText", 
                "chars": "SUIS", 
                "format": "text/plain"
            }
        }, 
        {
            "@id": "https://manifests.teklia.com/HIMANIS/JJ194/words_annotations/FRAN_0200_08897.json/34/line", 
            "@type": "oa:Annotation", 
            "motivation": "oa:painting", 
            "on": "http://bvmm.irht.cnrs.fr/iiif/23800/canvas/canvas-2346783#xywh=1284,777,220,103", 
            "resource": {
                "@type": "cnt:ContentAsText", 
                "chars": "REMISSIO", 
                "format": "text/plain"
            }
        }, 
        {
            "@id": "https://manifests.teklia.com/HIMANIS/JJ194/words_annotations/FRAN_0200_08897.json/35/line", 
            "@type": "oa:Annotation", 
            "motivation": "oa:painting", 
            "on": "http://bvmm.irht.cnrs.fr/iiif/23800/canvas/canvas-2346783#xywh=2012,647,150,95", 
            "resource": {
                "@type": "cnt:ContentAsText", 
                "chars": "AAGES", 
                "format": "text/plain"
            }
        }, 
        {
            "@id": "https://manifests.teklia.com/HIMANIS/JJ194/words_annotations/FRAN_0200_08897.json/36/line", 
            "@type": "oa:Annotation", 
            "motivation": "oa:painting", 
            "on": "http://bvmm.irht.cnrs.fr/iiif/23800/canvas/canvas-2346783#xywh=1971,862,247,179", 
            "resource": {
                "@type": "cnt:ContentAsText", 
                "chars": "HOMINIBUS", 
                "format": "text/plain"
            }
        }, 
        {
            "@id": "https://manifests.teklia.com/HIMANIS/JJ194/words_annotations/FRAN_0200_08897.json/37/line", 
            "@type": "oa:Annotation", 
            "motivation": "oa:painting", 
            "on": "http://bvmm.irht.cnrs.fr/iiif/23800/canvas/canvas-2346783#xywh=2288,647,240,95", 
            "resource": {
                "@type": "cnt:ContentAsText", 
                "chars": "QUI", 
                "format": "text/plain"
            }
        }, 
        {
            "@id": "https://manifests.teklia.com/HIMANIS/JJ194/words_annotations/FRAN_0200_08897.json/38/line", 
            "@type": "oa:Annotation", 
            "motivation": "oa:painting", 
            "on": "http://bvmm.irht.cnrs.fr/iiif/23800/canvas/canvas-2346783#xywh=2367,777,123,103", 
            "resource": {
                "@type": "cnt:ContentAsText", 
                "chars": "COLIO", 
                "format": "text/plain"
            }
        }, 
        {
            "@id": "https://manifests.teklia.com/HIMANIS/JJ194/words_annotations/FRAN_0200_08897.json/39/line", 
            "@type": "oa:Annotation", 
            "motivation": "oa:painting", 
            "on": "http://bvmm.irht.cnrs.fr/iiif/23800/canvas/canvas-2346783#xywh=3430,862,90,179", 
            "resource": {
                "@type": "cnt:ContentAsText", 
                "chars": "REX", 
                "format": "text/plain"
            }
        }, 
        {
            "@id": "https://manifests.teklia.com/HIMANIS/JJ194/words_annotations/FRAN_0200_08897.json/40/line", 
            "@type": "oa:Annotation", 
            "motivation": "oa:painting", 
            "on": "http://bvmm.irht.cnrs.fr/iiif/23800/canvas/canvas-2346783#xywh=1719,1281,239,141", 
            "resource": {
                "@type": "cnt:ContentAsText", 
                "chars": "MAUSSI", 
                "format": "text/plain"
            }
        }, 
        {
            "@id": "https://manifests.teklia.com/HIMANIS/JJ194/words_annotations/FRAN_0200_08897.json/41/line", 
            "@type": "oa:Annotation", 
            "motivation": "oa:painting", 
            "on": "http://bvmm.irht.cnrs.fr/iiif/23800/canvas/canvas-2346783#xywh=1272,487,225,115", 
            "resource": {
                "@type": "cnt:ContentAsText", 
                "chars": "REMISSIO", 
                "format": "text/plain"
            }
        }, 
        {
            "@id": "https://manifests.teklia.com/HIMANIS/JJ194/words_annotations/FRAN_0200_08897.json/42/line", 
            "@type": "oa:Annotation", 
            "motivation": "oa:painting", 
            "on": "http://bvmm.irht.cnrs.fr/iiif/23800/canvas/canvas-2346783#xywh=675,795,104,66", 
            "resource": {
                "@type": "cnt:ContentAsText", 
                "chars": "ET", 
                "format": "text/plain"
            }
        }, 
        {
            "@id": "https://manifests.teklia.com/HIMANIS/JJ194/words_annotations/FRAN_0200_08897.json/43/line", 
            "@type": "oa:Annotation", 
            "motivation": "oa:painting", 
            "on": "http://bvmm.irht.cnrs.fr/iiif/23800/canvas/canvas-2346783#xywh=1165,4392,917,94", 
            "resource": {
                "@type": "cnt:ContentAsText", 
                "chars": "LES", 
                "format": "text/plain"
            }
        }, 
        {
            "@id": "https://manifests.teklia.com/HIMANIS/JJ194/words_annotations/FRAN_0200_08897.json/44/line", 
            "@type": "oa:Annotation", 
            "motivation": "oa:painting", 
            "on": "http://bvmm.irht.cnrs.fr/iiif/23800/canvas/canvas-2346783#xywh=1622,1281,80,141", 
            "resource": {
                "@type": "cnt:ContentAsText", 
                "chars": "DE", 
                "format": "text/plain"
            }
        }, 
        {
            "@id": "https://manifests.teklia.com/HIMANIS/JJ194/words_annotations/FRAN_0200_08897.json/45/line", 
            "@type": "oa:Annotation", 
            "motivation": "oa:painting", 
            "on": "http://bvmm.irht.cnrs.fr/iiif/23800/canvas/canvas-2346783#xywh=2516,1281,62,141", 
            "resource": {
                "@type": "cnt:ContentAsText", 
                "chars": "DU", 
                "format": "text/plain"
            }
        }, 
        {
            "@id": "https://manifests.teklia.com/HIMANIS/JJ194/words_annotations/FRAN_0200_08897.json/46/line", 
            "@type": "oa:Annotation", 
            "motivation": "oa:painting", 
            "on": "http://bvmm.irht.cnrs.fr/iiif/23800/canvas/canvas-2346783#xywh=2309,777,38,103", 
            "resource": {
                "@type": "cnt:ContentAsText", 
                "chars": "ET", 
                "format": "text/plain"
            }
        }, 
        {
            "@id": "https://manifests.teklia.com/HIMANIS/JJ194/words_annotations/FRAN_0200_08897.json/47/line", 
            "@type": "oa:Annotation", 
            "motivation": "oa:painting", 
            "on": "http://bvmm.irht.cnrs.fr/iiif/23800/canvas/canvas-2346783#xywh=1261,577,236,85", 
            "resource": {
                "@type": "cnt:ContentAsText", 
                "chars": "REMISSIO", 
                "format": "text/plain"
            }
        }, 
        {
            "@id": "https://manifests.teklia.com/HIMANIS/JJ194/words_annotations/FRAN_0200_08897.json/48/line", 
            "@type": "oa:Annotation", 
            "motivation": "oa:painting", 
            "on": "http://bvmm.irht.cnrs.fr/iiif/23800/canvas/canvas-2346783#xywh=1547,707,318,105", 
            "resource": {
                "@type": "cnt:ContentAsText", 
                "chars": "PROYAUME", 
                "format": "text/plain"
            }
        }, 
        {
            "@id": "https://manifests.teklia.com/HIMANIS/JJ194/words_annotations/FRAN_0200_08897.json/49/line", 
            "@type": "oa:Annotation", 
            "motivation": "oa:painting", 
            "on": "http://bvmm.irht.cnrs.fr/iiif/23800/canvas/canvas-2346783#xywh=2824,862,180,179", 
            "resource": {
                "@type": "cnt:ContentAsText", 
                "chars": "CIVITATIS", 
                "format": "text/plain"
            }
        }, 
        {
            "@id": "https://manifests.teklia.com/HIMANIS/JJ194/words_annotations/FRAN_0200_08897.json/50/line", 
            "@type": "oa:Annotation", 
            "motivation": "oa:painting", 
            "on": "http://bvmm.irht.cnrs.fr/iiif/23800/canvas/canvas-2346783#xywh=3139,777,103,103", 
            "resource": {
                "@type": "cnt:ContentAsText", 
                "chars": "SALVO", 
                "format": "text/plain"
            }
        }, 
        {
            "@id": "https://manifests.teklia.com/HIMANIS/JJ194/words_annotations/FRAN_0200_08897.json/51/line", 
            "@type": "oa:Annotation", 
            "motivation": "oa:painting", 
            "on": "http://bvmm.irht.cnrs.fr/iiif/23800/canvas/canvas-2346783#xywh=2210,647,54,95", 
            "resource": {
                "@type": "cnt:ContentAsText", 
                "chars": "IIIJ", 
                "format": "text/plain"
            }
        }, 
        {
            "@id": "https://manifests.teklia.com/HIMANIS/JJ194/words_annotations/FRAN_0200_08897.json/52/line", 
            "@type": "oa:Annotation", 
            "motivation": "oa:painting", 
            "on": "http://bvmm.irht.cnrs.fr/iiif/23800/canvas/canvas-2346783#xywh=4253,3251,135,37", 
            "resource": {
                "@type": "cnt:ContentAsText", 
                "chars": "EN", 
                "format": "text/plain"
            }
        }, 
        {
            "@id": "https://manifests.teklia.com/HIMANIS/JJ194/words_annotations/FRAN_0200_08897.json/53/line", 
            "@type": "oa:Annotation", 
            "motivation": "oa:painting", 
            "on": "http://bvmm.irht.cnrs.fr/iiif/23800/canvas/canvas-2346783#xywh=674,575,218,81", 
            "resource": {
                "@type": "cnt:ContentAsText", 
                "chars": "JEHAN", 
                "format": "text/plain"
            }
        }, 
        {
            "@id": "https://manifests.teklia.com/HIMANIS/JJ194/words_annotations/FRAN_0200_08897.json/54/line", 
            "@type": "oa:Annotation", 
            "motivation": "oa:painting", 
            "on": "http://bvmm.irht.cnrs.fr/iiif/23800/canvas/canvas-2346783#xywh=1846,4392,242,94", 
            "resource": {
                "@type": "cnt:ContentAsText", 
                "chars": "ET", 
                "format": "text/plain"
            }
        }, 
        {
            "@id": "https://manifests.teklia.com/HIMANIS/JJ194/words_annotations/FRAN_0200_08897.json/55/line", 
            "@type": "oa:Annotation", 
            "motivation": "oa:painting", 
            "on": "http://bvmm.irht.cnrs.fr/iiif/23800/canvas/canvas-2346783#xywh=2412,1217,324,87", 
            "resource": {
                "@type": "cnt:ContentAsText", 
                "chars": "LEMOUROURT", 
                "format": "text/plain"
            }
        }, 
        {
            "@id": "https://manifests.teklia.com/HIMANIS/JJ194/words_annotations/FRAN_0200_08897.json/56/line", 
            "@type": "oa:Annotation", 
            "motivation": "oa:painting", 
            "on": "http://bvmm.irht.cnrs.fr/iiif/23800/canvas/canvas-2346783#xywh=3250,4352,0,142", 
            "resource": {
                "@type": "cnt:ContentAsText", 
                "chars": "P", 
                "format": "text/plain"
            }
        }, 
        {
            "@id": "https://manifests.teklia.com/HIMANIS/JJ194/words_annotations/FRAN_0200_08897.json/57/line", 
            "@type": "oa:Annotation", 
            "motivation": "oa:painting", 
            "on": "http://bvmm.irht.cnrs.fr/iiif/23800/canvas/canvas-2346783#xywh=666,650,0,71", 
            "resource": {
                "@type": "cnt:ContentAsText", 
                "chars": "H", 
                "format": "text/plain"
            }
        }, 
        {
            "@id": "https://manifests.teklia.com/HIMANIS/JJ194/words_annotations/FRAN_0200_08897.json/58/line", 
            "@type": "oa:Annotation", 
            "motivation": "oa:painting", 
            "on": "http://bvmm.irht.cnrs.fr/iiif/23800/canvas/canvas-2346783#xywh=2210,647,54,95", 
            "resource": {
                "@type": "cnt:ContentAsText", 
                "chars": "IIIIJ", 
                "format": "text/plain"
            }
        }, 
        {
            "@id": "https://manifests.teklia.com/HIMANIS/JJ194/words_annotations/FRAN_0200_08897.json/59/line", 
            "@type": "oa:Annotation", 
            "motivation": "oa:painting", 
            "on": "http://bvmm.irht.cnrs.fr/iiif/23800/canvas/canvas-2346783#xywh=666,650,0,71", 
            "resource": {
                "@type": "cnt:ContentAsText", 
                "chars": "P", 
                "format": "text/plain"
            }
        }, 
        {
            "@id": "https://manifests.teklia.com/HIMANIS/JJ194/words_annotations/FRAN_0200_08897.json/60/line", 
            "@type": "oa:Annotation", 
            "motivation": "oa:painting", 
            "on": "http://bvmm.irht.cnrs.fr/iiif/23800/canvas/canvas-2346783#xywh=3553,1000,233,248", 
            "resource": {
                "@type": "cnt:ContentAsText", 
                "chars": "OMNIBUS", 
                "format": "text/plain"
            }
        }, 
        {
            "@id": "https://manifests.teklia.com/HIMANIS/JJ194/words_annotations/FRAN_0200_08897.json/61/line", 
            "@type": "oa:Annotation", 
            "motivation": "oa:painting", 
            "on": "http://bvmm.irht.cnrs.fr/iiif/23800/canvas/canvas-2346783#xywh=3067,777,52,103", 
            "resource": {
                "@type": "cnt:ContentAsText", 
                "chars": "IIJ", 
                "format": "text/plain"
            }
        }, 
        {
            "@id": "https://manifests.teklia.com/HIMANIS/JJ194/words_annotations/FRAN_0200_08897.json/62/line", 
            "@type": "oa:Annotation", 
            "motivation": "oa:painting", 
            "on": "http://bvmm.irht.cnrs.fr/iiif/23800/canvas/canvas-2346783#xywh=2182,707,199,105", 
            "resource": {
                "@type": "cnt:ContentAsText", 
                "chars": "LEONI", 
                "format": "text/plain"
            }
        }, 
        {
            "@id": "https://manifests.teklia.com/HIMANIS/JJ194/words_annotations/FRAN_0200_08897.json/63/line", 
            "@type": "oa:Annotation", 
            "motivation": "oa:painting", 
            "on": "http://bvmm.irht.cnrs.fr/iiif/23800/canvas/canvas-2346783#xywh=3553,1000,217,248", 
            "resource": {
                "@type": "cnt:ContentAsText", 
                "chars": "ANNUI", 
                "format": "text/plain"
            }
        }, 
        {
            "@id": "https://manifests.teklia.com/HIMANIS/JJ194/words_annotations/FRAN_0200_08897.json/64/line", 
            "@type": "oa:Annotation", 
            "motivation": "oa:painting", 
            "on": "http://bvmm.irht.cnrs.fr/iiif/23800/canvas/canvas-2346783#xywh=710,3241,0,32", 
            "resource": {
                "@type": "cnt:ContentAsText", 
                "chars": "J", 
                "format": "text/plain"
            }
        }, 
        {
            "@id": "https://manifests.teklia.com/HIMANIS/JJ194/words_annotations/FRAN_0200_08897.json/65/line", 
            "@type": "oa:Annotation", 
            "motivation": "oa:painting", 
            "on": "http://bvmm.irht.cnrs.fr/iiif/23800/canvas/canvas-2346783#xywh=2452,1000,47,248", 
            "resource": {
                "@type": "cnt:ContentAsText", 
                "chars": "DIT", 
                "format": "text/plain"
            }
        }, 
        {
            "@id": "https://manifests.teklia.com/HIMANIS/JJ194/words_annotations/FRAN_0200_08897.json/66/line", 
            "@type": "oa:Annotation", 
            "motivation": "oa:painting", 
            "on": "http://bvmm.irht.cnrs.fr/iiif/23800/canvas/canvas-2346783#xywh=759,720,195,76", 
            "resource": {
                "@type": "cnt:ContentAsText", 
                "chars": "BLI", 
                "format": "text/plain"
            }
        }, 
        {
            "@id": "https://manifests.teklia.com/HIMANIS/JJ194/words_annotations/FRAN_0200_08897.json/67/line", 
            "@type": "oa:Annotation", 
            "motivation": "oa:painting", 
            "on": "http://bvmm.irht.cnrs.fr/iiif/23800/canvas/canvas-2346783#xywh=2297,1000,357,248", 
            "resource": {
                "@type": "cnt:ContentAsText", 
                "chars": "COMMIS", 
                "format": "text/plain"
            }
        }, 
        {
            "@id": "https://manifests.teklia.com/HIMANIS/JJ194/words_annotations/FRAN_0200_08897.json/68/line", 
            "@type": "oa:Annotation", 
            "motivation": "oa:painting", 
            "on": "http://bvmm.irht.cnrs.fr/iiif/23800/canvas/canvas-2346783#xywh=3329,862,258,179", 
            "resource": {
                "@type": "cnt:ContentAsText", 
                "chars": "OU", 
                "format": "text/plain"
            }
        }, 
        {
            "@id": "https://manifests.teklia.com/HIMANIS/JJ194/words_annotations/FRAN_0200_08897.json/69/line", 
            "@type": "oa:Annotation", 
            "motivation": "oa:painting", 
            "on": "http://bvmm.irht.cnrs.fr/iiif/23800/canvas/canvas-2346783#xywh=1637,1217,77,87", 
            "resource": {
                "@type": "cnt:ContentAsText", 
                "chars": "PER", 
                "format": "text/plain"
            }
        }, 
        {
            "@id": "https://manifests.teklia.com/HIMANIS/JJ194/words_annotations/FRAN_0200_08897.json/70/line", 
            "@type": "oa:Annotation", 
            "motivation": "oa:painting", 
            "on": "http://bvmm.irht.cnrs.fr/iiif/23800/canvas/canvas-2346783#xywh=1881,487,58,115", 
            "resource": {
                "@type": "cnt:ContentAsText", 
                "chars": "DE", 
                "format": "text/plain"
            }
        }, 
        {
            "@id": "https://manifests.teklia.com/HIMANIS/JJ194/words_annotations/FRAN_0200_08897.json/71/line", 
            "@type": "oa:Annotation", 
            "motivation": "oa:painting", 
            "on": "http://bvmm.irht.cnrs.fr/iiif/23800/canvas/canvas-2346783#xywh=2149,487,50,115", 
            "resource": {
                "@type": "cnt:ContentAsText", 
                "chars": "IIJ", 
                "format": "text/plain"
            }
        }, 
        {
            "@id": "https://manifests.teklia.com/HIMANIS/JJ194/words_annotations/FRAN_0200_08897.json/72/line", 
            "@type": "oa:Annotation", 
            "motivation": "oa:painting", 
            "on": "http://bvmm.irht.cnrs.fr/iiif/23800/canvas/canvas-2346783#xywh=298,327,146,39", 
            "resource": {
                "@type": "cnt:ContentAsText", 
                "chars": "DE", 
                "format": "text/plain"
            }
        }, 
        {
            "@id": "https://manifests.teklia.com/HIMANIS/JJ194/words_annotations/FRAN_0200_08897.json/73/line", 
            "@type": "oa:Annotation", 
            "motivation": "oa:painting", 
            "on": "http://bvmm.irht.cnrs.fr/iiif/23800/canvas/canvas-2346783#xywh=1932,777,169,103", 
            "resource": {
                "@type": "cnt:ContentAsText", 
                "chars": "LONSANT", 
                "format": "text/plain"
            }
        }, 
        {
            "@id": "https://manifests.teklia.com/HIMANIS/JJ194/words_annotations/FRAN_0200_08897.json/74/line", 
            "@type": "oa:Annotation", 
            "motivation": "oa:painting", 
            "on": "http://bvmm.irht.cnrs.fr/iiif/23800/canvas/canvas-2346783#xywh=1284,777,220,103", 
            "resource": {
                "@type": "cnt:ContentAsText", 
                "chars": "PREMISSIO", 
                "format": "text/plain"
            }
        }, 
        {
            "@id": "https://manifests.teklia.com/HIMANIS/JJ194/words_annotations/FRAN_0200_08897.json/75/line", 
            "@type": "oa:Annotation", 
            "motivation": "oa:painting", 
            "on": "http://bvmm.irht.cnrs.fr/iiif/23800/canvas/canvas-2346783#xywh=3605,1281,62,141", 
            "resource": {
                "@type": "cnt:ContentAsText", 
                "chars": "LIVRES", 
                "format": "text/plain"
            }
        }, 
        {
            "@id": "https://manifests.teklia.com/HIMANIS/JJ194/words_annotations/FRAN_0200_08897.json/76/line", 
            "@type": "oa:Annotation", 
            "motivation": "oa:painting", 
            "on": "http://bvmm.irht.cnrs.fr/iiif/23800/canvas/canvas-2346783#xywh=3646,1000,326,248", 
            "resource": {
                "@type": "cnt:ContentAsText", 
                "chars": "EPIS", 
                "format": "text/plain"
            }
        }, 
        {
            "@id": "https://manifests.teklia.com/HIMANIS/JJ194/words_annotations/FRAN_0200_08897.json/77/line", 
            "@type": "oa:Annotation", 
            "motivation": "oa:painting", 
            "on": "http://bvmm.irht.cnrs.fr/iiif/23800/canvas/canvas-2346783#xywh=2029,1281,275,141", 
            "resource": {
                "@type": "cnt:ContentAsText", 
                "chars": "BERTHOLA", 
                "format": "text/plain"
            }
        }, 
        {
            "@id": "https://manifests.teklia.com/HIMANIS/JJ194/words_annotations/FRAN_0200_08897.json/78/line", 
            "@type": "oa:Annotation", 
            "motivation": "oa:painting", 
            "on": "http://bvmm.irht.cnrs.fr/iiif/23800/canvas/canvas-2346783#xywh=4239,2874,85,42", 
            "resource": {
                "@type": "cnt:ContentAsText", 
                "chars": "DE", 
                "format": "text/plain"
            }
        }, 
        {
            "@id": "https://manifests.teklia.com/HIMANIS/JJ194/words_annotations/FRAN_0200_08897.json/79/line", 
            "@type": "oa:Annotation", 
            "motivation": "oa:painting", 
            "on": "http://bvmm.irht.cnrs.fr/iiif/23800/canvas/canvas-2346783#xywh=1484,1217,115,87", 
            "resource": {
                "@type": "cnt:ContentAsText", 
                "chars": "FACTUM", 
                "format": "text/plain"
            }
        }, 
        {
            "@id": "https://manifests.teklia.com/HIMANIS/JJ194/words_annotations/FRAN_0200_08897.json/80/line", 
            "@type": "oa:Annotation", 
            "motivation": "oa:painting", 
            "on": "http://bvmm.irht.cnrs.fr/iiif/23800/canvas/canvas-2346783#xywh=2924,1281,256,141", 
            "resource": {
                "@type": "cnt:ContentAsText", 
                "chars": "CONNUARII", 
                "format": "text/plain"
            }
        }, 
        {
            "@id": "https://manifests.teklia.com/HIMANIS/JJ194/words_annotations/FRAN_0200_08897.json/81/line", 
            "@type": "oa:Annotation", 
            "motivation": "oa:painting", 
            "on": "http://bvmm.irht.cnrs.fr/iiif/23800/canvas/canvas-2346783#xywh=2229,862,371,179", 
            "resource": {
                "@type": "cnt:ContentAsText", 
                "chars": "MILIARIBUS", 
                "format": "text/plain"
            }
        }, 
        {
            "@id": "https://manifests.teklia.com/HIMANIS/JJ194/words_annotations/FRAN_0200_08897.json/82/line", 
            "@type": "oa:Annotation", 
            "motivation": "oa:painting", 
            "on": "http://bvmm.irht.cnrs.fr/iiif/23800/canvas/canvas-2346783#xywh=1547,707,318,105", 
            "resource": {
                "@type": "cnt:ContentAsText", 
                "chars": "PROYANNE", 
                "format": "text/plain"
            }
        }, 
        {
            "@id": "https://manifests.teklia.com/HIMANIS/JJ194/words_annotations/FRAN_0200_08897.json/83/line", 
            "@type": "oa:Annotation", 
            "motivation": "oa:painting", 
            "on": "http://bvmm.irht.cnrs.fr/iiif/23800/canvas/canvas-2346783#xywh=4279,429,139,76", 
            "resource": {
                "@type": "cnt:ContentAsText", 
                "chars": "LODUN", 
                "format": "text/plain"
            }
        }, 
        {
            "@id": "https://manifests.teklia.com/HIMANIS/JJ194/words_annotations/FRAN_0200_08897.json/84/line", 
            "@type": "oa:Annotation", 
            "motivation": "oa:painting", 
            "on": "http://bvmm.irht.cnrs.fr/iiif/23800/canvas/canvas-2346783#xywh=1961,1217,302,87", 
            "resource": {
                "@type": "cnt:ContentAsText", 
                "chars": "LYMODORITE", 
                "format": "text/plain"
            }
        }, 
        {
            "@id": "https://manifests.teklia.com/HIMANIS/JJ194/words_annotations/FRAN_0200_08897.json/85/line", 
            "@type": "oa:Annotation", 
            "motivation": "oa:painting", 
            "on": "http://bvmm.irht.cnrs.fr/iiif/23800/canvas/canvas-2346783#xywh=2809,1000,186,248", 
            "resource": {
                "@type": "cnt:ContentAsText", 
                "chars": "LIVRES", 
                "format": "text/plain"
            }
        }, 
        {
            "@id": "https://manifests.teklia.com/HIMANIS/JJ194/words_annotations/FRAN_0200_08897.json/86/line", 
            "@type": "oa:Annotation", 
            "motivation": "oa:painting", 
            "on": "http://bvmm.irht.cnrs.fr/iiif/23800/canvas/canvas-2346783#xywh=716,3775,0,65", 
            "resource": {
                "@type": "cnt:ContentAsText", 
                "chars": "P", 
                "format": "text/plain"
            }
        }, 
        {
            "@id": "https://manifests.teklia.com/HIMANIS/JJ194/words_annotations/FRAN_0200_08897.json/87/line", 
            "@type": "oa:Annotation", 
            "motivation": "oa:painting", 
            "on": "http://bvmm.irht.cnrs.fr/iiif/23800/canvas/canvas-2346783#xywh=2711,1281,53,141", 
            "resource": {
                "@type": "cnt:ContentAsText", 
                "chars": "ROUS", 
                "format": "text/plain"
            }
        }, 
        {
            "@id": "https://manifests.teklia.com/HIMANIS/JJ194/words_annotations/FRAN_0200_08897.json/88/line", 
            "@type": "oa:Annotation", 
            "motivation": "oa:painting", 
            "on": "http://bvmm.irht.cnrs.fr/iiif/23800/canvas/canvas-2346783#xywh=759,720,181,76", 
            "resource": {
                "@type": "cnt:ContentAsText", 
                "chars": "BO", 
                "format": "text/plain"
            }
        }, 
        {
            "@id": "https://manifests.teklia.com/HIMANIS/JJ194/words_annotations/FRAN_0200_08897.json/89/line", 
            "@type": "oa:Annotation", 
            "motivation": "oa:painting", 
            "on": "http://bvmm.irht.cnrs.fr/iiif/23800/canvas/canvas-2346783#xywh=638,1000,295,248", 
            "resource": {
                "@type": "cnt:ContentAsText", 
                "chars": "JEHAN", 
                "format": "text/plain"
            }
        }, 
        {
            "@id": "https://manifests.teklia.com/HIMANIS/JJ194/words_annotations/FRAN_0200_08897.json/90/line", 
            "@type": "oa:Annotation", 
            "motivation": "oa:painting", 
            "on": "http://bvmm.irht.cnrs.fr/iiif/23800/canvas/canvas-2346783#xywh=2633,862,101,179", 
            "resource": {
                "@type": "cnt:ContentAsText", 
                "chars": "VILLE", 
                "format": "text/plain"
            }
        }, 
        {
            "@id": "https://manifests.teklia.com/HIMANIS/JJ194/words_annotations/FRAN_0200_08897.json/91/line", 
            "@type": "oa:Annotation", 
            "motivation": "oa:painting", 
            "on": "http://bvmm.irht.cnrs.fr/iiif/23800/canvas/canvas-2346783#xywh=1660,777,149,103", 
            "resource": {
                "@type": "cnt:ContentAsText", 
                "chars": "THOMA", 
                "format": "text/plain"
            }
        }, 
        {
            "@id": "https://manifests.teklia.com/HIMANIS/JJ194/words_annotations/FRAN_0200_08897.json/92/line", 
            "@type": "oa:Annotation", 
            "motivation": "oa:painting", 
            "on": "http://bvmm.irht.cnrs.fr/iiif/23800/canvas/canvas-2346783#xywh=3544,1281,70,141", 
            "resource": {
                "@type": "cnt:ContentAsText", 
                "chars": "IL", 
                "format": "text/plain"
            }
        }, 
        {
            "@id": "https://manifests.teklia.com/HIMANIS/JJ194/words_annotations/FRAN_0200_08897.json/93/line", 
            "@type": "oa:Annotation", 
            "motivation": "oa:painting", 
            "on": "http://bvmm.irht.cnrs.fr/iiif/23800/canvas/canvas-2346783#xywh=2182,707,0,105", 
            "resource": {
                "@type": "cnt:ContentAsText", 
                "chars": "J", 
                "format": "text/plain"
            }
        }, 
        {
            "@id": "https://manifests.teklia.com/HIMANIS/JJ194/words_annotations/FRAN_0200_08897.json/94/line", 
            "@type": "oa:Annotation", 
            "motivation": "oa:painting", 
            "on": "http://bvmm.irht.cnrs.fr/iiif/23800/canvas/canvas-2346783#xywh=2809,1000,233,248", 
            "resource": {
                "@type": "cnt:ContentAsText", 
                "chars": "LEURS", 
                "format": "text/plain"
            }
        }, 
        {
            "@id": "https://manifests.teklia.com/HIMANIS/JJ194/words_annotations/FRAN_0200_08897.json/95/line", 
            "@type": "oa:Annotation", 
            "motivation": "oa:painting", 
            "on": "http://bvmm.irht.cnrs.fr/iiif/23800/canvas/canvas-2346783#xywh=2123,577,231,85", 
            "resource": {
                "@type": "cnt:ContentAsText", 
                "chars": "PHILIPPONI", 
                "format": "text/plain"
            }
        }, 
        {
            "@id": "https://manifests.teklia.com/HIMANIS/JJ194/words_annotations/FRAN_0200_08897.json/96/line", 
            "@type": "oa:Annotation", 
            "motivation": "oa:painting", 
            "on": "http://bvmm.irht.cnrs.fr/iiif/23800/canvas/canvas-2346783#xywh=2924,1281,230,141", 
            "resource": {
                "@type": "cnt:ContentAsText", 
                "chars": "ONNUARI", 
                "format": "text/plain"
            }
        }, 
        {
            "@id": "https://manifests.teklia.com/HIMANIS/JJ194/words_annotations/FRAN_0200_08897.json/97/line", 
            "@type": "oa:Annotation", 
            "motivation": "oa:painting", 
            "on": "http://bvmm.irht.cnrs.fr/iiif/23800/canvas/canvas-2346783#xywh=1367,1000,372,248", 
            "resource": {
                "@type": "cnt:ContentAsText", 
                "chars": "ALIAS", 
                "format": "text/plain"
            }
        }, 
        {
            "@id": "https://manifests.teklia.com/HIMANIS/JJ194/words_annotations/FRAN_0200_08897.json/98/line", 
            "@type": "oa:Annotation", 
            "motivation": "oa:painting", 
            "on": "http://bvmm.irht.cnrs.fr/iiif/23800/canvas/canvas-2346783#xywh=1466,862,460,179", 
            "resource": {
                "@type": "cnt:ContentAsText", 
                "chars": "HABITATIBUS", 
                "format": "text/plain"
            }
        }, 
        {
            "@id": "https://manifests.teklia.com/HIMANIS/JJ194/words_annotations/FRAN_0200_08897.json/99/line", 
            "@type": "oa:Annotation", 
            "motivation": "oa:painting", 
            "on": "http://bvmm.irht.cnrs.fr/iiif/23800/canvas/canvas-2346783#xywh=2866,777,175,103", 
            "resource": {
                "@type": "cnt:ContentAsText", 
                "chars": "SERVITORE", 
                "format": "text/plain"
            }
        }, 
        {
            "@id": "https://manifests.teklia.com/HIMANIS/JJ194/words_annotations/FRAN_0200_08897.json/100/line", 
            "@type": "oa:Annotation", 
            "motivation": "oa:painting", 
            "on": "http://bvmm.irht.cnrs.fr/iiif/23800/canvas/canvas-2346783#xywh=2669,1000,171,248", 
            "resource": {
                "@type": "cnt:ContentAsText", 
                "chars": "VOULONS", 
                "format": "text/plain"
            }
        }, 
        {
            "@id": "https://manifests.teklia.com/HIMANIS/JJ194/words_annotations/FRAN_0200_08897.json/101/line", 
            "@type": "oa:Annotation", 
            "motivation": "oa:painting", 
            "on": "http://bvmm.irht.cnrs.fr/iiif/23800/canvas/canvas-2346783#xywh=2029,1281,461,141", 
            "resource": {
                "@type": "cnt:ContentAsText", 
                "chars": "BARAN", 
                "format": "text/plain"
            }
        }, 
        {
            "@id": "https://manifests.teklia.com/HIMANIS/JJ194/words_annotations/FRAN_0200_08897.json/102/line", 
            "@type": "oa:Annotation", 
            "motivation": "oa:painting", 
            "on": "http://bvmm.irht.cnrs.fr/iiif/23800/canvas/canvas-2346783#xywh=675,795,245,66", 
            "resource": {
                "@type": "cnt:ContentAsText", 
                "chars": "BOIS", 
                "format": "text/plain"
            }
        }, 
        {
            "@id": "https://manifests.teklia.com/HIMANIS/JJ194/words_annotations/FRAN_0200_08897.json/103/line", 
            "@type": "oa:Annotation", 
            "motivation": "oa:painting", 
            "on": "http://bvmm.irht.cnrs.fr/iiif/23800/canvas/canvas-2346783#xywh=2149,487,58,115", 
            "resource": {
                "@type": "cnt:ContentAsText", 
                "chars": "IIIJ", 
                "format": "text/plain"
            }
        }, 
        {
            "@id": "https://manifests.teklia.com/HIMANIS/JJ194/words_annotations/FRAN_0200_08897.json/104/line", 
            "@type": "oa:Annotation", 
            "motivation": "oa:painting", 
            "on": "http://bvmm.irht.cnrs.fr/iiif/23800/canvas/canvas-2346783#xywh=2210,647,54,95", 
            "resource": {
                "@type": "cnt:ContentAsText", 
                "chars": "IIJ", 
                "format": "text/plain"
            }
        }, 
        {
            "@id": "https://manifests.teklia.com/HIMANIS/JJ194/words_annotations/FRAN_0200_08897.json/105/line", 
            "@type": "oa:Annotation", 
            "motivation": "oa:painting", 
            "on": "http://bvmm.irht.cnrs.fr/iiif/23800/canvas/canvas-2346783#xywh=2344,1000,93,248", 
            "resource": {
                "@type": "cnt:ContentAsText", 
                "chars": "PARTIE", 
                "format": "text/plain"
            }
        }, 
        {
            "@id": "https://manifests.teklia.com/HIMANIS/JJ194/words_annotations/FRAN_0200_08897.json/106/line", 
            "@type": "oa:Annotation", 
            "motivation": "oa:painting", 
            "on": "http://bvmm.irht.cnrs.fr/iiif/23800/canvas/canvas-2346783#xywh=1351,1000,372,248", 
            "resource": {
                "@type": "cnt:ContentAsText", 
                "chars": "LA", 
                "format": "text/plain"
            }
        }, 
        {
            "@id": "https://manifests.teklia.com/HIMANIS/JJ194/words_annotations/FRAN_0200_08897.json/107/line", 
            "@type": "oa:Annotation", 
            "motivation": "oa:painting", 
            "on": "http://bvmm.irht.cnrs.fr/iiif/23800/canvas/canvas-2346783#xywh=2522,777,221,103", 
            "resource": {
                "@type": "cnt:ContentAsText", 
                "chars": "ALLEMANT", 
                "format": "text/plain"
            }
        }, 
        {
            "@id": "https://manifests.teklia.com/HIMANIS/JJ194/words_annotations/FRAN_0200_08897.json/108/line", 
            "@type": "oa:Annotation", 
            "motivation": "oa:painting", 
            "on": "http://bvmm.irht.cnrs.fr/iiif/23800/canvas/canvas-2346783#xywh=666,1225,357,130", 
            "resource": {
                "@type": "cnt:ContentAsText", 
                "chars": "JONI", 
                "format": "text/plain"
            }
        }, 
        {
            "@id": "https://manifests.teklia.com/HIMANIS/JJ194/words_annotations/FRAN_0200_08897.json/109/line", 
            "@type": "oa:Annotation", 
            "motivation": "oa:painting", 
            "on": "http://bvmm.irht.cnrs.fr/iiif/23800/canvas/canvas-2346783#xywh=2871,1000,589,248", 
            "resource": {
                "@type": "cnt:ContentAsText", 
                "chars": "DE", 
                "format": "text/plain"
            }
        }, 
        {
            "@id": "https://manifests.teklia.com/HIMANIS/JJ194/words_annotations/FRAN_0200_08897.json/110/line", 
            "@type": "oa:Annotation", 
            "motivation": "oa:painting", 
            "on": "http://bvmm.irht.cnrs.fr/iiif/23800/canvas/canvas-2346783#xywh=1367,1000,434,248", 
            "resource": {
                "@type": "cnt:ContentAsText", 
                "chars": "ALIARUM", 
                "format": "text/plain"
            }
        }, 
        {
            "@id": "https://manifests.teklia.com/HIMANIS/JJ194/words_annotations/FRAN_0200_08897.json/111/line", 
            "@type": "oa:Annotation", 
            "motivation": "oa:painting", 
            "on": "http://bvmm.irht.cnrs.fr/iiif/23800/canvas/canvas-2346783#xywh=3060,1217,154,87", 
            "resource": {
                "@type": "cnt:ContentAsText", 
                "chars": "LEROIS", 
                "format": "text/plain"
            }
        }, 
        {
            "@id": "https://manifests.teklia.com/HIMANIS/JJ194/words_annotations/FRAN_0200_08897.json/112/line", 
            "@type": "oa:Annotation", 
            "motivation": "oa:painting", 
            "on": "http://bvmm.irht.cnrs.fr/iiif/23800/canvas/canvas-2346783#xywh=2096,707,73,105", 
            "resource": {
                "@type": "cnt:ContentAsText", 
                "chars": "IIIJ", 
                "format": "text/plain"
            }
        }, 
        {
            "@id": "https://manifests.teklia.com/HIMANIS/JJ194/words_annotations/FRAN_0200_08897.json/113/line", 
            "@type": "oa:Annotation", 
            "motivation": "oa:painting", 
            "on": "http://bvmm.irht.cnrs.fr/iiif/23800/canvas/canvas-2346783#xywh=1269,647,240,95", 
            "resource": {
                "@type": "cnt:ContentAsText", 
                "chars": "REMISSIS", 
                "format": "text/plain"
            }
        }, 
        {
            "@id": "https://manifests.teklia.com/HIMANIS/JJ194/words_annotations/FRAN_0200_08897.json/114/line", 
            "@type": "oa:Annotation", 
            "motivation": "oa:painting", 
            "on": "http://bvmm.irht.cnrs.fr/iiif/23800/canvas/canvas-2346783#xywh=1165,4392,947,94", 
            "resource": {
                "@type": "cnt:ContentAsText", 
                "chars": "DIT", 
                "format": "text/plain"
            }
        }, 
        {
            "@id": "https://manifests.teklia.com/HIMANIS/JJ194/words_annotations/FRAN_0200_08897.json/115/line", 
            "@type": "oa:Annotation", 
            "motivation": "oa:painting", 
            "on": "http://bvmm.irht.cnrs.fr/iiif/23800/canvas/canvas-2346783#xywh=1165,4392,923,94", 
            "resource": {
                "@type": "cnt:ContentAsText", 
                "chars": "DES", 
                "format": "text/plain"
            }
        }, 
        {
            "@id": "https://manifests.teklia.com/HIMANIS/JJ194/words_annotations/FRAN_0200_08897.json/116/line", 
            "@type": "oa:Annotation", 
            "motivation": "oa:painting", 
            "on": "http://bvmm.irht.cnrs.fr/iiif/23800/canvas/canvas-2346783#xywh=2329,1217,55,87", 
            "resource": {
                "@type": "cnt:ContentAsText", 
                "chars": "DE", 
                "format": "text/plain"
            }
        }, 
        {
            "@id": "https://manifests.teklia.com/HIMANIS/JJ194/words_annotations/FRAN_0200_08897.json/117/line", 
            "@type": "oa:Annotation", 
            "motivation": "oa:painting", 
            "on": "http://bvmm.irht.cnrs.fr/iiif/23800/canvas/canvas-2346783#xywh=685,860,117,94", 
            "resource": {
                "@type": "cnt:ContentAsText", 
                "chars": "LI", 
                "format": "text/plain"
            }
        }, 
        {
            "@id": "https://manifests.teklia.com/HIMANIS/JJ194/words_annotations/FRAN_0200_08897.json/118/line", 
            "@type": "oa:Annotation", 
            "motivation": "oa:painting", 
            "on": "http://bvmm.irht.cnrs.fr/iiif/23800/canvas/canvas-2346783#xywh=4279,429,139,76", 
            "resource": {
                "@type": "cnt:ContentAsText", 
                "chars": "JOHAN", 
                "format": "text/plain"
            }
        }, 
        {
            "@id": "https://manifests.teklia.com/HIMANIS/JJ194/words_annotations/FRAN_0200_08897.json/119/line", 
            "@type": "oa:Annotation", 
            "motivation": "oa:painting", 
            "on": "http://bvmm.irht.cnrs.fr/iiif/23800/canvas/canvas-2346783#xywh=1888,577,225,85", 
            "resource": {
                "@type": "cnt:ContentAsText", 
                "chars": "LAVERINI", 
                "format": "text/plain"
            }
        }, 
        {
            "@id": "https://manifests.teklia.com/HIMANIS/JJ194/words_annotations/FRAN_0200_08897.json/120/line", 
            "@type": "oa:Annotation", 
            "motivation": "oa:painting", 
            "on": "http://bvmm.irht.cnrs.fr/iiif/23800/canvas/canvas-2346783#xywh=3494,1217,230,87", 
            "resource": {
                "@type": "cnt:ContentAsText", 
                "chars": "TASTELERIIS", 
                "format": "text/plain"
            }
        }, 
        {
            "@id": "https://manifests.teklia.com/HIMANIS/JJ194/words_annotations/FRAN_0200_08897.json/121/line", 
            "@type": "oa:Annotation", 
            "motivation": "oa:painting", 
            "on": "http://bvmm.irht.cnrs.fr/iiif/23800/canvas/canvas-2346783#xywh=3139,777,103,103", 
            "resource": {
                "@type": "cnt:ContentAsText", 
                "chars": "JULIO", 
                "format": "text/plain"
            }
        }, 
        {
            "@id": "https://manifests.teklia.com/HIMANIS/JJ194/words_annotations/FRAN_0200_08897.json/122/line", 
            "@type": "oa:Annotation", 
            "motivation": "oa:painting", 
            "on": "http://bvmm.irht.cnrs.fr/iiif/23800/canvas/canvas-2346783#xywh=2240,862,68,179", 
            "resource": {
                "@type": "cnt:ContentAsText", 
                "chars": "QUI", 
                "format": "text/plain"
            }
        }, 
        {
            "@id": "https://manifests.teklia.com/HIMANIS/JJ194/words_annotations/FRAN_0200_08897.json/123/line", 
            "@type": "oa:Annotation", 
            "motivation": "oa:painting", 
            "on": "http://bvmm.irht.cnrs.fr/iiif/23800/canvas/canvas-2346783#xywh=1666,707,199,105", 
            "resource": {
                "@type": "cnt:ContentAsText", 
                "chars": "ANNE", 
                "format": "text/plain"
            }
        }, 
        {
            "@id": "https://manifests.teklia.com/HIMANIS/JJ194/words_annotations/FRAN_0200_08897.json/124/line", 
            "@type": "oa:Annotation", 
            "motivation": "oa:painting", 
            "on": "http://bvmm.irht.cnrs.fr/iiif/23800/canvas/canvas-2346783#xywh=1519,487,79,115", 
            "resource": {
                "@type": "cnt:ContentAsText", 
                "chars": "PRO", 
                "format": "text/plain"
            }
        }, 
        {
            "@id": "https://manifests.teklia.com/HIMANIS/JJ194/words_annotations/FRAN_0200_08897.json/125/line", 
            "@type": "oa:Annotation", 
            "motivation": "oa:painting", 
            "on": "http://bvmm.irht.cnrs.fr/iiif/23800/canvas/canvas-2346783#xywh=2133,777,150,103", 
            "resource": {
                "@type": "cnt:ContentAsText", 
                "chars": "MILITE", 
                "format": "text/plain"
            }
        }, 
        {
            "@id": "https://manifests.teklia.com/HIMANIS/JJ194/words_annotations/FRAN_0200_08897.json/126/line", 
            "@type": "oa:Annotation", 
            "motivation": "oa:painting", 
            "on": "http://bvmm.irht.cnrs.fr/iiif/23800/canvas/canvas-2346783#xywh=3250,4352,196,142", 
            "resource": {
                "@type": "cnt:ContentAsText", 
                "chars": "PER", 
                "format": "text/plain"
            }
        }, 
        {
            "@id": "https://manifests.teklia.com/HIMANIS/JJ194/words_annotations/FRAN_0200_08897.json/127/line", 
            "@type": "oa:Annotation", 
            "motivation": "oa:painting", 
            "on": "http://bvmm.irht.cnrs.fr/iiif/23800/canvas/canvas-2346783#xywh=3250,4352,196,142", 
            "resource": {
                "@type": "cnt:ContentAsText", 
                "chars": "PAR", 
                "format": "text/plain"
            }
        }, 
        {
            "@id": "https://manifests.teklia.com/HIMANIS/JJ194/words_annotations/FRAN_0200_08897.json/128/line", 
            "@type": "oa:Annotation", 
            "motivation": "oa:painting", 
            "on": "http://bvmm.irht.cnrs.fr/iiif/23800/canvas/canvas-2346783#xywh=2301,487,101,115", 
            "resource": {
                "@type": "cnt:ContentAsText", 
                "chars": "EN", 
                "format": "text/plain"
            }
        }, 
        {
            "@id": "https://manifests.teklia.com/HIMANIS/JJ194/words_annotations/FRAN_0200_08897.json/129/line", 
            "@type": "oa:Annotation", 
            "motivation": "oa:painting", 
            "on": "http://bvmm.irht.cnrs.fr/iiif/23800/canvas/canvas-2346783#xywh=1898,647,90,95", 
            "resource": {
                "@type": "cnt:ContentAsText", 
                "chars": "DES", 
                "format": "text/plain"
            }
        }, 
        {
            "@id": "https://manifests.teklia.com/HIMANIS/JJ194/words_annotations/FRAN_0200_08897.json/130/line", 
            "@type": "oa:Annotation", 
            "motivation": "oa:painting", 
            "on": "http://bvmm.irht.cnrs.fr/iiif/23800/canvas/canvas-2346783#xywh=659,720,0,76", 
            "resource": {
                "@type": "cnt:ContentAsText", 
                "chars": "P", 
                "format": "text/plain"
            }
        }, 
        {
            "@id": "https://manifests.teklia.com/HIMANIS/JJ194/words_annotations/FRAN_0200_08897.json/131/line", 
            "@type": "oa:Annotation", 
            "motivation": "oa:painting", 
            "on": "http://bvmm.irht.cnrs.fr/iiif/23800/canvas/canvas-2346783#xywh=2596,1281,80,141", 
            "resource": {
                "@type": "cnt:ContentAsText", 
                "chars": "DON", 
                "format": "text/plain"
            }
        }, 
        {
            "@id": "https://manifests.teklia.com/HIMANIS/JJ194/words_annotations/FRAN_0200_08897.json/132/line", 
            "@type": "oa:Annotation", 
            "motivation": "oa:painting", 
            "on": "http://bvmm.irht.cnrs.fr/iiif/23800/canvas/canvas-2346783#xywh=2711,1281,151,141", 
            "resource": {
                "@type": "cnt:ContentAsText", 
                "chars": "ROURS", 
                "format": "text/plain"
            }
        }, 
        {
            "@id": "https://manifests.teklia.com/HIMANIS/JJ194/words_annotations/FRAN_0200_08897.json/133/line", 
            "@type": "oa:Annotation", 
            "motivation": "oa:painting", 
            "on": "http://bvmm.irht.cnrs.fr/iiif/23800/canvas/canvas-2346783#xywh=3060,1217,154,87", 
            "resource": {
                "@type": "cnt:ContentAsText", 
                "chars": "LEVOIS", 
                "format": "text/plain"
            }
        }, 
        {
            "@id": "https://manifests.teklia.com/HIMANIS/JJ194/words_annotations/FRAN_0200_08897.json/134/line", 
            "@type": "oa:Annotation", 
            "motivation": "oa:painting", 
            "on": "http://bvmm.irht.cnrs.fr/iiif/23800/canvas/canvas-2346783#xywh=2855,1000,373,248", 
            "resource": {
                "@type": "cnt:ContentAsText", 
                "chars": "APPARTIES", 
                "format": "text/plain"
            }
        }, 
        {
            "@id": "https://manifests.teklia.com/HIMANIS/JJ194/words_annotations/FRAN_0200_08897.json/135/line", 
            "@type": "oa:Annotation", 
            "motivation": "oa:painting", 
            "on": "http://bvmm.irht.cnrs.fr/iiif/23800/canvas/canvas-2346783#xywh=1543,777,91,103", 
            "resource": {
                "@type": "cnt:ContentAsText", 
                "chars": "PRO", 
                "format": "text/plain"
            }
        }, 
        {
            "@id": "https://manifests.teklia.com/HIMANIS/JJ194/words_annotations/FRAN_0200_08897.json/136/line", 
            "@type": "oa:Annotation", 
            "motivation": "oa:painting", 
            "on": "http://bvmm.irht.cnrs.fr/iiif/23800/canvas/canvas-2346783#xywh=2633,862,101,179", 
            "resource": {
                "@type": "cnt:ContentAsText", 
                "chars": "BAILLE", 
                "format": "text/plain"
            }
        }, 
        {
            "@id": "https://manifests.teklia.com/HIMANIS/JJ194/words_annotations/FRAN_0200_08897.json/137/line", 
            "@type": "oa:Annotation", 
            "motivation": "oa:painting", 
            "on": "http://bvmm.irht.cnrs.fr/iiif/23800/canvas/canvas-2346783#xywh=1888,577,198,85", 
            "resource": {
                "@type": "cnt:ContentAsText", 
                "chars": "LAVERII", 
                "format": "text/plain"
            }
        }, 
        {
            "@id": "https://manifests.teklia.com/HIMANIS/JJ194/words_annotations/FRAN_0200_08897.json/138/line", 
            "@type": "oa:Annotation", 
            "motivation": "oa:painting", 
            "on": "http://bvmm.irht.cnrs.fr/iiif/23800/canvas/canvas-2346783#xywh=1888,577,198,85", 
            "resource": {
                "@type": "cnt:ContentAsText", 
                "chars": "LAVERIN", 
                "format": "text/plain"
            }
        }, 
        {
            "@id": "https://manifests.teklia.com/HIMANIS/JJ194/words_annotations/FRAN_0200_08897.json/139/line", 
            "@type": "oa:Annotation", 
            "motivation": "oa:painting", 
            "on": "http://bvmm.irht.cnrs.fr/iiif/23800/canvas/canvas-2346783#xywh=2711,1281,168,141", 
            "resource": {
                "@type": "cnt:ContentAsText", 
                "chars": "ROUSSI", 
                "format": "text/plain"
            }
        }, 
        {
            "@id": "https://manifests.teklia.com/HIMANIS/JJ194/words_annotations/FRAN_0200_08897.json/140/line", 
            "@type": "oa:Annotation", 
            "motivation": "oa:painting", 
            "on": "http://bvmm.irht.cnrs.fr/iiif/23800/canvas/canvas-2346783#xywh=1719,1281,266,141", 
            "resource": {
                "@type": "cnt:ContentAsText", 
                "chars": "MAUSSIT", 
                "format": "text/plain"
            }
        }, 
        {
            "@id": "https://manifests.teklia.com/HIMANIS/JJ194/words_annotations/FRAN_0200_08897.json/141/line", 
            "@type": "oa:Annotation", 
            "motivation": "oa:painting", 
            "on": "http://bvmm.irht.cnrs.fr/iiif/23800/canvas/canvas-2346783#xywh=1627,487,218,115", 
            "resource": {
                "@type": "cnt:ContentAsText", 
                "chars": "PROFORE", 
                "format": "text/plain"
            }
        }, 
        {
            "@id": "https://manifests.teklia.com/HIMANIS/JJ194/words_annotations/FRAN_0200_08897.json/142/line", 
            "@type": "oa:Annotation", 
            "motivation": "oa:painting", 
            "on": "http://bvmm.irht.cnrs.fr/iiif/23800/canvas/canvas-2346783#xywh=3494,1217,225,87", 
            "resource": {
                "@type": "cnt:ContentAsText", 
                "chars": "TASTELERIS", 
                "format": "text/plain"
            }
        }, 
        {
            "@id": "https://manifests.teklia.com/HIMANIS/JJ194/words_annotations/FRAN_0200_08897.json/143/line", 
            "@type": "oa:Annotation", 
            "motivation": "oa:painting", 
            "on": "http://bvmm.irht.cnrs.fr/iiif/23800/canvas/canvas-2346783#xywh=727,3661,0,85", 
            "resource": {
                "@type": "cnt:ContentAsText", 
                "chars": "J", 
                "format": "text/plain"
            }
        }, 
        {
            "@id": "https://manifests.teklia.com/HIMANIS/JJ194/words_annotations/FRAN_0200_08897.json/144/line", 
            "@type": "oa:Annotation", 
            "motivation": "oa:painting", 
            "on": "http://bvmm.irht.cnrs.fr/iiif/23800/canvas/canvas-2346783#xywh=3420,1281,53,141", 
            "resource": {
                "@type": "cnt:ContentAsText", 
                "chars": "QUE", 
                "format": "text/plain"
            }
        }, 
        {
            "@id": "https://manifests.teklia.com/HIMANIS/JJ194/words_annotations/FRAN_0200_08897.json/145/line", 
            "@type": "oa:Annotation", 
            "motivation": "oa:painting", 
            "on": "http://bvmm.irht.cnrs.fr/iiif/23800/canvas/canvas-2346783#xywh=1627,487,218,115", 
            "resource": {
                "@type": "cnt:ContentAsText", 
                "chars": "PROFORS", 
                "format": "text/plain"
            }
        }, 
        {
            "@id": "https://manifests.teklia.com/HIMANIS/JJ194/words_annotations/FRAN_0200_08897.json/146/line", 
            "@type": "oa:Annotation", 
            "motivation": "oa:painting", 
            "on": "http://bvmm.irht.cnrs.fr/iiif/23800/canvas/canvas-2346783#xywh=3646,1000,341,248", 
            "resource": {
                "@type": "cnt:ContentAsText", 
                "chars": "RAPPONI", 
                "format": "text/plain"
            }
        }, 
        {
            "@id": "https://manifests.teklia.com/HIMANIS/JJ194/words_annotations/FRAN_0200_08897.json/147/line", 
            "@type": "oa:Annotation", 
            "motivation": "oa:painting", 
            "on": "http://bvmm.irht.cnrs.fr/iiif/23800/canvas/canvas-2346783#xywh=2297,1000,124,248", 
            "resource": {
                "@type": "cnt:ContentAsText", 
                "chars": "PARTE", 
                "format": "text/plain"
            }
        }, 
        {
            "@id": "https://manifests.teklia.com/HIMANIS/JJ194/words_annotations/FRAN_0200_08897.json/148/line", 
            "@type": "oa:Annotation", 
            "motivation": "oa:painting", 
            "on": "http://bvmm.irht.cnrs.fr/iiif/23800/canvas/canvas-2346783#xywh=2367,777,123,103", 
            "resource": {
                "@type": "cnt:ContentAsText", 
                "chars": "TOLIO", 
                "format": "text/plain"
            }
        }, 
        {
            "@id": "https://manifests.teklia.com/HIMANIS/JJ194/words_annotations/FRAN_0200_08897.json/149/line", 
            "@type": "oa:Annotation", 
            "motivation": "oa:painting", 
            "on": "http://bvmm.irht.cnrs.fr/iiif/23800/canvas/canvas-2346783#xywh=1165,4392,621,94", 
            "resource": {
                "@type": "cnt:ContentAsText", 
                "chars": "DESSUS", 
                "format": "text/plain"
            }
        }, 
        {
            "@id": "https://manifests.teklia.com/HIMANIS/JJ194/words_annotations/FRAN_0200_08897.json/150/line", 
            "@type": "oa:Annotation", 
            "motivation": "oa:painting", 
            "on": "http://bvmm.irht.cnrs.fr/iiif/23800/canvas/canvas-2346783#xywh=1259,1281,310,141", 
            "resource": {
                "@type": "cnt:ContentAsText", 
                "chars": "CASTELLAIN", 
                "format": "text/plain"
            }
        }, 
        {
            "@id": "https://manifests.teklia.com/HIMANIS/JJ194/words_annotations/FRAN_0200_08897.json/151/line", 
            "@type": "oa:Annotation", 
            "motivation": "oa:painting", 
            "on": "http://bvmm.irht.cnrs.fr/iiif/23800/canvas/canvas-2346783#xywh=2855,1000,559,248", 
            "resource": {
                "@type": "cnt:ContentAsText", 
                "chars": "PARTIES", 
                "format": "text/plain"
            }
        }, 
        {
            "@id": "https://manifests.teklia.com/HIMANIS/JJ194/words_annotations/FRAN_0200_08897.json/152/line", 
            "@type": "oa:Annotation", 
            "motivation": "oa:painting", 
            "on": "http://bvmm.irht.cnrs.fr/iiif/23800/canvas/canvas-2346783#xywh=1519,487,94,115", 
            "resource": {
                "@type": "cnt:ContentAsText", 
                "chars": "PRIO", 
                "format": "text/plain"
            }
        }, 
        {
            "@id": "https://manifests.teklia.com/HIMANIS/JJ194/words_annotations/FRAN_0200_08897.json/153/line", 
            "@type": "oa:Annotation", 
            "motivation": "oa:painting", 
            "on": "http://bvmm.irht.cnrs.fr/iiif/23800/canvas/canvas-2346783#xywh=3295,862,79,179", 
            "resource": {
                "@type": "cnt:ContentAsText", 
                "chars": "INSTRUM", 
                "format": "text/plain"
            }
        }, 
        {
            "@id": "https://manifests.teklia.com/HIMANIS/JJ194/words_annotations/FRAN_0200_08897.json/154/line", 
            "@type": "oa:Annotation", 
            "motivation": "oa:painting", 
            "on": "http://bvmm.irht.cnrs.fr/iiif/23800/canvas/canvas-2346783#xywh=1264,862,202,179", 
            "resource": {
                "@type": "cnt:ContentAsText", 
                "chars": "CHARRA", 
                "format": "text/plain"
            }
        }, 
        {
            "@id": "https://manifests.teklia.com/HIMANIS/JJ194/words_annotations/FRAN_0200_08897.json/155/line", 
            "@type": "oa:Annotation", 
            "motivation": "oa:painting", 
            "on": "http://bvmm.irht.cnrs.fr/iiif/23800/canvas/canvas-2346783#xywh=1758,1217,138,87", 
            "resource": {
                "@type": "cnt:ContentAsText", 
                "chars": "REGEM", 
                "format": "text/plain"
            }
        }, 
        {
            "@id": "https://manifests.teklia.com/HIMANIS/JJ194/words_annotations/FRAN_0200_08897.json/156/line", 
            "@type": "oa:Annotation", 
            "motivation": "oa:painting", 
            "on": "http://bvmm.irht.cnrs.fr/iiif/23800/canvas/canvas-2346783#xywh=3060,1217,154,87", 
            "resource": {
                "@type": "cnt:ContentAsText", 
                "chars": "REGIS", 
                "format": "text/plain"
            }
        }, 
        {
            "@id": "https://manifests.teklia.com/HIMANIS/JJ194/words_annotations/FRAN_0200_08897.json/157/line", 
            "@type": "oa:Annotation", 
            "motivation": "oa:painting", 
            "on": "http://bvmm.irht.cnrs.fr/iiif/23800/canvas/canvas-2346783#xywh=1960,487,116,115", 
            "resource": {
                "@type": "cnt:ContentAsText", 
                "chars": "LOUAN", 
                "format": "text/plain"
            }
        }, 
        {
            "@id": "https://manifests.teklia.com/HIMANIS/JJ194/words_annotations/FRAN_0200_08897.json/158/line", 
            "@type": "oa:Annotation", 
            "motivation": "oa:painting", 
            "on": "http://bvmm.irht.cnrs.fr/iiif/23800/canvas/canvas-2346783#xywh=2522,777,221,103", 
            "resource": {
                "@type": "cnt:ContentAsText", 
                "chars": "ALEMANT", 
                "format": "text/plain"
            }
        }, 
        {
            "@id": "https://manifests.teklia.com/HIMANIS/JJ194/words_annotations/FRAN_0200_08897.json/159/line", 
            "@type": "oa:Annotation", 
            "motivation": "oa:painting", 
            "on": "http://bvmm.irht.cnrs.fr/iiif/23800/canvas/canvas-2346783#xywh=148,68,624,195", 
            "resource": {
                "@type": "cnt:ContentAsText", 
                "chars": "CCC", 
                "format": "text/plain"
            }
        }, 
        {
            "@id": "https://manifests.teklia.com/HIMANIS/JJ194/words_annotations/FRAN_0200_08897.json/160/line", 
            "@type": "oa:Annotation", 
            "motivation": "oa:painting", 
            "on": "http://bvmm.irht.cnrs.fr/iiif/23800/canvas/canvas-2346783#xywh=2906,1281,0,141", 
            "resource": {
                "@type": "cnt:ContentAsText", 
                "chars": "A", 
                "format": "text/plain"
            }
        }, 
        {
            "@id": "https://manifests.teklia.com/HIMANIS/JJ194/words_annotations/FRAN_0200_08897.json/161/line", 
            "@type": "oa:Annotation", 
            "motivation": "oa:painting", 
            "on": "http://bvmm.irht.cnrs.fr/iiif/23800/canvas/canvas-2346783#xywh=719,3513,0,101", 
            "resource": {
                "@type": "cnt:ContentAsText", 
                "chars": "J", 
                "format": "text/plain"
            }
        }, 
        {
            "@id": "https://manifests.teklia.com/HIMANIS/JJ194/words_annotations/FRAN_0200_08897.json/162/line", 
            "@type": "oa:Annotation", 
            "motivation": "oa:painting", 
            "on": "http://bvmm.irht.cnrs.fr/iiif/23800/canvas/canvas-2346783#xywh=3189,1281,204,141", 
            "resource": {
                "@type": "cnt:ContentAsText", 
                "chars": "PERTINENT", 
                "format": "text/plain"
            }
        }, 
        {
            "@id": "https://manifests.teklia.com/HIMANIS/JJ194/words_annotations/FRAN_0200_08897.json/163/line", 
            "@type": "oa:Annotation", 
            "motivation": "oa:painting", 
            "on": "http://bvmm.irht.cnrs.fr/iiif/23800/canvas/canvas-2346783#xywh=719,3513,0,101", 
            "resource": {
                "@type": "cnt:ContentAsText", 
                "chars": "K", 
                "format": "text/plain"
            }
        }, 
        {
            "@id": "https://manifests.teklia.com/HIMANIS/JJ194/words_annotations/FRAN_0200_08897.json/164/line", 
            "@type": "oa:Annotation", 
            "motivation": "oa:painting", 
            "on": "http://bvmm.irht.cnrs.fr/iiif/23800/canvas/canvas-2346783#xywh=1652,577,188,85", 
            "resource": {
                "@type": "cnt:ContentAsText", 
                "chars": "JOHANNE", 
                "format": "text/plain"
            }
        }, 
        {
            "@id": "https://manifests.teklia.com/HIMANIS/JJ194/words_annotations/FRAN_0200_08897.json/165/line", 
            "@type": "oa:Annotation", 
            "motivation": "oa:painting", 
            "on": "http://bvmm.irht.cnrs.fr/iiif/23800/canvas/canvas-2346783#xywh=1932,777,169,103", 
            "resource": {
                "@type": "cnt:ContentAsText", 
                "chars": "LINFANT", 
                "format": "text/plain"
            }
        }, 
        {
            "@id": "https://manifests.teklia.com/HIMANIS/JJ194/words_annotations/FRAN_0200_08897.json/166/line", 
            "@type": "oa:Annotation", 
            "motivation": "oa:painting", 
            "on": "http://bvmm.irht.cnrs.fr/iiif/23800/canvas/canvas-2346783#xywh=1258,1000,233,248", 
            "resource": {
                "@type": "cnt:ContentAsText", 
                "chars": "DOMINALEM", 
                "format": "text/plain"
            }
        }, 
        {
            "@id": "https://manifests.teklia.com/HIMANIS/JJ194/words_annotations/FRAN_0200_08897.json/167/line", 
            "@type": "oa:Annotation", 
            "motivation": "oa:painting", 
            "on": "http://bvmm.irht.cnrs.fr/iiif/23800/canvas/canvas-2346783#xywh=2809,1000,93,248", 
            "resource": {
                "@type": "cnt:ContentAsText", 
                "chars": "ET", 
                "format": "text/plain"
            }
        }, 
        {
            "@id": "https://manifests.teklia.com/HIMANIS/JJ194/words_annotations/FRAN_0200_08897.json/168/line", 
            "@type": "oa:Annotation", 
            "motivation": "oa:painting", 
            "on": "http://bvmm.irht.cnrs.fr/iiif/23800/canvas/canvas-2346783#xywh=1547,707,86,105", 
            "resource": {
                "@type": "cnt:ContentAsText", 
                "chars": "PRO", 
                "format": "text/plain"
            }
        }, 
        {
            "@id": "https://manifests.teklia.com/HIMANIS/JJ194/words_annotations/FRAN_0200_08897.json/169/line", 
            "@type": "oa:Annotation", 
            "motivation": "oa:painting", 
            "on": "http://bvmm.irht.cnrs.fr/iiif/23800/canvas/canvas-2346783#xywh=2182,707,218,105", 
            "resource": {
                "@type": "cnt:ContentAsText", 
                "chars": "LORENI", 
                "format": "text/plain"
            }
        }, 
        {
            "@id": "https://manifests.teklia.com/HIMANIS/JJ194/words_annotations/FRAN_0200_08897.json/170/line", 
            "@type": "oa:Annotation", 
            "motivation": "oa:painting", 
            "on": "http://bvmm.irht.cnrs.fr/iiif/23800/canvas/canvas-2346783#xywh=4239,2874,109,42", 
            "resource": {
                "@type": "cnt:ContentAsText", 
                "chars": "LES", 
                "format": "text/plain"
            }
        }, 
        {
            "@id": "https://manifests.teklia.com/HIMANIS/JJ194/words_annotations/FRAN_0200_08897.json/171/line", 
            "@type": "oa:Annotation", 
            "motivation": "oa:painting", 
            "on": "http://bvmm.irht.cnrs.fr/iiif/23800/canvas/canvas-2346783#xywh=685,860,117,94", 
            "resource": {
                "@type": "cnt:ContentAsText", 
                "chars": "IN", 
                "format": "text/plain"
            }
        }, 
        {
            "@id": "https://manifests.teklia.com/HIMANIS/JJ194/words_annotations/FRAN_0200_08897.json/172/line", 
            "@type": "oa:Annotation", 
            "motivation": "oa:painting", 
            "on": "http://bvmm.irht.cnrs.fr/iiif/23800/canvas/canvas-2346783#xywh=3067,777,52,103", 
            "resource": {
                "@type": "cnt:ContentAsText", 
                "chars": "IIIJ", 
                "format": "text/plain"
            }
        }, 
        {
            "@id": "https://manifests.teklia.com/HIMANIS/JJ194/words_annotations/FRAN_0200_08897.json/173/line", 
            "@type": "oa:Annotation", 
            "motivation": "oa:painting", 
            "on": "http://bvmm.irht.cnrs.fr/iiif/23800/canvas/canvas-2346783#xywh=3257,1217,44,87", 
            "resource": {
                "@type": "cnt:ContentAsText", 
                "chars": "ET", 
                "format": "text/plain"
            }
        }, 
        {
            "@id": "https://manifests.teklia.com/HIMANIS/JJ194/words_annotations/FRAN_0200_08897.json/174/line", 
            "@type": "oa:Annotation", 
            "motivation": "oa:painting", 
            "on": "http://bvmm.irht.cnrs.fr/iiif/23800/canvas/canvas-2346783#xywh=1961,1217,302,87", 
            "resource": {
                "@type": "cnt:ContentAsText", 
                "chars": "RAYMODORITE", 
                "format": "text/plain"
            }
        }, 
        {
            "@id": "https://manifests.teklia.com/HIMANIS/JJ194/words_annotations/FRAN_0200_08897.json/175/line", 
            "@type": "oa:Annotation", 
            "motivation": "oa:painting", 
            "on": "http://bvmm.irht.cnrs.fr/iiif/23800/canvas/canvas-2346783#xywh=1269,1217,132,87", 
            "resource": {
                "@type": "cnt:ContentAsText", 
                "chars": "DONI", 
                "format": "text/plain"
            }
        }, 
        {
            "@id": "https://manifests.teklia.com/HIMANIS/JJ194/words_annotations/FRAN_0200_08897.json/176/line", 
            "@type": "oa:Annotation", 
            "motivation": "oa:painting", 
            "on": "http://bvmm.irht.cnrs.fr/iiif/23800/canvas/canvas-2346783#xywh=2720,1281,142,141", 
            "resource": {
                "@type": "cnt:ContentAsText", 
                "chars": "TOURS", 
                "format": "text/plain"
            }
        }, 
        {
            "@id": "https://manifests.teklia.com/HIMANIS/JJ194/words_annotations/FRAN_0200_08897.json/177/line", 
            "@type": "oa:Annotation", 
            "motivation": "oa:painting", 
            "on": "http://bvmm.irht.cnrs.fr/iiif/23800/canvas/canvas-2346783#xywh=3336,1000,202,248", 
            "resource": {
                "@type": "cnt:ContentAsText", 
                "chars": "NOUS", 
                "format": "text/plain"
            }
        }, 
        {
            "@id": "https://manifests.teklia.com/HIMANIS/JJ194/words_annotations/FRAN_0200_08897.json/178/line", 
            "@type": "oa:Annotation", 
            "motivation": "oa:painting", 
            "on": "http://bvmm.irht.cnrs.fr/iiif/23800/canvas/canvas-2346783#xywh=3037,862,236,179", 
            "resource": {
                "@type": "cnt:ContentAsText", 
                "chars": "BELLATENSIS", 
                "format": "text/plain"
            }
        }, 
        {
            "@id": "https://manifests.teklia.com/HIMANIS/JJ194/words_annotations/FRAN_0200_08897.json/179/line", 
            "@type": "oa:Annotation", 
            "motivation": "oa:painting", 
            "on": "http://bvmm.irht.cnrs.fr/iiif/23800/canvas/canvas-2346783#xywh=759,720,176,76", 
            "resource": {
                "@type": "cnt:ContentAsText", 
                "chars": "BRI", 
                "format": "text/plain"
            }
        }, 
        {
            "@id": "https://manifests.teklia.com/HIMANIS/JJ194/words_annotations/FRAN_0200_08897.json/180/line", 
            "@type": "oa:Annotation", 
            "motivation": "oa:painting", 
            "on": "http://bvmm.irht.cnrs.fr/iiif/23800/canvas/canvas-2346783#xywh=675,795,245,66", 
            "resource": {
                "@type": "cnt:ContentAsText", 
                "chars": "MONS", 
                "format": "text/plain"
            }
        }, 
        {
            "@id": "https://manifests.teklia.com/HIMANIS/JJ194/words_annotations/FRAN_0200_08897.json/181/line", 
            "@type": "oa:Annotation", 
            "motivation": "oa:painting", 
            "on": "http://bvmm.irht.cnrs.fr/iiif/23800/canvas/canvas-2346783#xywh=2229,862,371,179", 
            "resource": {
                "@type": "cnt:ContentAsText", 
                "chars": "MULTORIBUS", 
                "format": "text/plain"
            }
        }, 
        {
            "@id": "https://manifests.teklia.com/HIMANIS/JJ194/words_annotations/FRAN_0200_08897.json/182/line", 
            "@type": "oa:Annotation", 
            "motivation": "oa:painting", 
            "on": "http://bvmm.irht.cnrs.fr/iiif/23800/canvas/canvas-2346783#xywh=1545,647,96,95", 
            "resource": {
                "@type": "cnt:ContentAsText", 
                "chars": "PRO", 
                "format": "text/plain"
            }
        }, 
        {
            "@id": "https://manifests.teklia.com/HIMANIS/JJ194/words_annotations/FRAN_0200_08897.json/183/line", 
            "@type": "oa:Annotation", 
            "motivation": "oa:painting", 
            "on": "http://bvmm.irht.cnrs.fr/iiif/23800/canvas/canvas-2346783#xywh=1256,707,252,105", 
            "resource": {
                "@type": "cnt:ContentAsText", 
                "chars": "REMISSIO", 
                "format": "text/plain"
            }
        }, 
        {
            "@id": "https://manifests.teklia.com/HIMANIS/JJ194/words_annotations/FRAN_0200_08897.json/184/line", 
            "@type": "oa:Annotation", 
            "motivation": "oa:painting", 
            "on": "http://bvmm.irht.cnrs.fr/iiif/23800/canvas/canvas-2346783#xywh=2768,862,34,179", 
            "resource": {
                "@type": "cnt:ContentAsText", 
                "chars": "ET", 
                "format": "text/plain"
            }
        }, 
        {
            "@id": "https://manifests.teklia.com/HIMANIS/JJ194/words_annotations/FRAN_0200_08897.json/185/line", 
            "@type": "oa:Annotation", 
            "motivation": "oa:painting", 
            "on": "http://bvmm.irht.cnrs.fr/iiif/23800/canvas/canvas-2346783#xywh=3250,4352,1085,142", 
            "resource": {
                "@type": "cnt:ContentAsText", 
                "chars": "PHIL", 
                "format": "text/plain"
            }
        }, 
        {
            "@id": "https://manifests.teklia.com/HIMANIS/JJ194/words_annotations/FRAN_0200_08897.json/186/line", 
            "@type": "oa:Annotation", 
            "motivation": "oa:painting", 
            "on": "http://bvmm.irht.cnrs.fr/iiif/23800/canvas/canvas-2346783#xywh=3250,4352,1112,142", 
            "resource": {
                "@type": "cnt:ContentAsText", 
                "chars": "PHEL", 
                "format": "text/plain"
            }
        }, 
        {
            "@id": "https://manifests.teklia.com/HIMANIS/JJ194/words_annotations/FRAN_0200_08897.json/187/line", 
            "@type": "oa:Annotation", 
            "motivation": "oa:painting", 
            "on": "http://bvmm.irht.cnrs.fr/iiif/23800/canvas/canvas-2346783#xywh=3605,1281,240,141", 
            "resource": {
                "@type": "cnt:ContentAsText", 
                "chars": "VERONI", 
                "format": "text/plain"
            }
        }, 
        {
            "@id": "https://manifests.teklia.com/HIMANIS/JJ194/words_annotations/FRAN_0200_08897.json/188/line", 
            "@type": "oa:Annotation", 
            "motivation": "oa:painting", 
            "on": "http://bvmm.irht.cnrs.fr/iiif/23800/canvas/canvas-2346783#xywh=1932,777,169,103", 
            "resource": {
                "@type": "cnt:ContentAsText", 
                "chars": "LENSANT", 
                "format": "text/plain"
            }
        }, 
        {
            "@id": "https://manifests.teklia.com/HIMANIS/JJ194/words_annotations/FRAN_0200_08897.json/189/line", 
            "@type": "oa:Annotation", 
            "motivation": "oa:painting", 
            "on": "http://bvmm.irht.cnrs.fr/iiif/23800/canvas/canvas-2346783#xywh=2669,1000,636,248", 
            "resource": {
                "@type": "cnt:ContentAsText", 
                "chars": "POUR", 
                "format": "text/plain"
            }
        }, 
        {
            "@id": "https://manifests.teklia.com/HIMANIS/JJ194/words_annotations/FRAN_0200_08897.json/190/line", 
            "@type": "oa:Annotation", 
            "motivation": "oa:painting", 
            "on": "http://bvmm.irht.cnrs.fr/iiif/23800/canvas/canvas-2346783#xywh=1925,1000,341,248", 
            "resource": {
                "@type": "cnt:ContentAsText", 
                "chars": "HABITACIONIS", 
                "format": "text/plain"
            }
        }, 
        {
            "@id": "https://manifests.teklia.com/HIMANIS/JJ194/words_annotations/FRAN_0200_08897.json/191/line", 
            "@type": "oa:Annotation", 
            "motivation": "oa:painting", 
            "on": "http://bvmm.irht.cnrs.fr/iiif/23800/canvas/canvas-2346783#xywh=697,953,0,53", 
            "resource": {
                "@type": "cnt:ContentAsText", 
                "chars": "J", 
                "format": "text/plain"
            }
        }, 
        {
            "@id": "https://manifests.teklia.com/HIMANIS/JJ194/words_annotations/FRAN_0200_08897.json/192/line", 
            "@type": "oa:Annotation", 
            "motivation": "oa:painting", 
            "on": "http://bvmm.irht.cnrs.fr/iiif/23800/canvas/canvas-2346783#xywh=670,953,0,53", 
            "resource": {
                "@type": "cnt:ContentAsText", 
                "chars": "P", 
                "format": "text/plain"
            }
        }, 
        {
            "@id": "https://manifests.teklia.com/HIMANIS/JJ194/words_annotations/FRAN_0200_08897.json/193/line", 
            "@type": "oa:Annotation", 
            "motivation": "oa:painting", 
            "on": "http://bvmm.irht.cnrs.fr/iiif/23800/canvas/canvas-2346783#xywh=3605,1281,240,141", 
            "resource": {
                "@type": "cnt:ContentAsText", 
                "chars": "PRONI", 
                "format": "text/plain"
            }
        }, 
        {
            "@id": "https://manifests.teklia.com/HIMANIS/JJ194/words_annotations/FRAN_0200_08897.json/194/line", 
            "@type": "oa:Annotation", 
            "motivation": "oa:painting", 
            "on": "http://bvmm.irht.cnrs.fr/iiif/23800/canvas/canvas-2346783#xywh=1932,777,169,103", 
            "resource": {
                "@type": "cnt:ContentAsText", 
                "chars": "LINSANT", 
                "format": "text/plain"
            }
        }, 
        {
            "@id": "https://manifests.teklia.com/HIMANIS/JJ194/words_annotations/FRAN_0200_08897.json/195/line", 
            "@type": "oa:Annotation", 
            "motivation": "oa:painting", 
            "on": "http://bvmm.irht.cnrs.fr/iiif/23800/canvas/canvas-2346783#xywh=4253,3251,175,37", 
            "resource": {
                "@type": "cnt:ContentAsText", 
                "chars": "LENIER", 
                "format": "text/plain"
            }
        }, 
        {
            "@id": "https://manifests.teklia.com/HIMANIS/JJ194/words_annotations/FRAN_0200_08897.json/196/line", 
            "@type": "oa:Annotation", 
            "motivation": "oa:painting", 
            "on": "http://bvmm.irht.cnrs.fr/iiif/23800/canvas/canvas-2346783#xywh=660,485,246,91", 
            "resource": {
                "@type": "cnt:ContentAsText", 
                "chars": "PHILIPPONI", 
                "format": "text/plain"
            }
        }, 
        {
            "@id": "https://manifests.teklia.com/HIMANIS/JJ194/words_annotations/FRAN_0200_08897.json/197/line", 
            "@type": "oa:Annotation", 
            "motivation": "oa:painting", 
            "on": "http://bvmm.irht.cnrs.fr/iiif/23800/canvas/canvas-2346783#xywh=675,795,0,66", 
            "resource": {
                "@type": "cnt:ContentAsText", 
                "chars": "J", 
                "format": "text/plain"
            }
        }, 
        {
            "@id": "https://manifests.teklia.com/HIMANIS/JJ194/words_annotations/FRAN_0200_08897.json/198/line", 
            "@type": "oa:Annotation", 
            "motivation": "oa:painting", 
            "on": "http://bvmm.irht.cnrs.fr/iiif/23800/canvas/canvas-2346783#xywh=1855,777,58,103", 
            "resource": {
                "@type": "cnt:ContentAsText", 
                "chars": "DE", 
                "format": "text/plain"
            }
        }, 
        {
            "@id": "https://manifests.teklia.com/HIMANIS/JJ194/words_annotations/FRAN_0200_08897.json/199/line", 
            "@type": "oa:Annotation", 
            "motivation": "oa:painting", 
            "on": "http://bvmm.irht.cnrs.fr/iiif/23800/canvas/canvas-2346783#xywh=675,795,0,66", 
            "resource": {
                "@type": "cnt:ContentAsText", 
                "chars": "P", 
                "format": "text/plain"
            }
        }
    ]
}