{
    "@context": "http://iiif.io/api/presentation/2/context.json", 
    "@id": "https://manifests.teklia.com/HIMANIS/JJ194/words_annotations/FRAN_0200_08977.json", 
    "@type": "sc:AnnotationList", 
    "resources": [
        {
            "@id": "https://manifests.teklia.com/HIMANIS/JJ194/words_annotations/FRAN_0200_08977.json/0/line", 
            "@type": "oa:Annotation", 
            "motivation": "oa:painting", 
            "on": "http://bvmm.irht.cnrs.fr/iiif/23800/canvas/canvas-2346863#xywh=364,4313,0,145", 
            "resource": {
                "@type": "cnt:ContentAsText", 
                "chars": "J", 
                "format": "text/plain"
            }
        }, 
        {
            "@id": "https://manifests.teklia.com/HIMANIS/JJ194/words_annotations/FRAN_0200_08977.json/1/line", 
            "@type": "oa:Annotation", 
            "motivation": "oa:painting", 
            "on": "http://bvmm.irht.cnrs.fr/iiif/23800/canvas/canvas-2346863#xywh=3310,3976,0,89", 
            "resource": {
                "@type": "cnt:ContentAsText", 
                "chars": "M", 
                "format": "text/plain"
            }
        }, 
        {
            "@id": "https://manifests.teklia.com/HIMANIS/JJ194/words_annotations/FRAN_0200_08977.json/2/line", 
            "@type": "oa:Annotation", 
            "motivation": "oa:painting", 
            "on": "http://bvmm.irht.cnrs.fr/iiif/23800/canvas/canvas-2346863#xywh=4350,699,180,122", 
            "resource": {
                "@type": "cnt:ContentAsText", 
                "chars": "SAVOI", 
                "format": "text/plain"
            }
        }, 
        {
            "@id": "https://manifests.teklia.com/HIMANIS/JJ194/words_annotations/FRAN_0200_08977.json/3/line", 
            "@type": "oa:Annotation", 
            "motivation": "oa:painting", 
            "on": "http://bvmm.irht.cnrs.fr/iiif/23800/canvas/canvas-2346863#xywh=4422,3322,43,63", 
            "resource": {
                "@type": "cnt:ContentAsText", 
                "chars": "JA", 
                "format": "text/plain"
            }
        }, 
        {
            "@id": "https://manifests.teklia.com/HIMANIS/JJ194/words_annotations/FRAN_0200_08977.json/4/line", 
            "@type": "oa:Annotation", 
            "motivation": "oa:painting", 
            "on": "http://bvmm.irht.cnrs.fr/iiif/23800/canvas/canvas-2346863#xywh=4407,3274,0,50", 
            "resource": {
                "@type": "cnt:ContentAsText", 
                "chars": "R", 
                "format": "text/plain"
            }
        }, 
        {
            "@id": "https://manifests.teklia.com/HIMANIS/JJ194/words_annotations/FRAN_0200_08977.json/5/line", 
            "@type": "oa:Annotation", 
            "motivation": "oa:painting", 
            "on": "http://bvmm.irht.cnrs.fr/iiif/23800/canvas/canvas-2346863#xywh=148,4389,141,72", 
            "resource": {
                "@type": "cnt:ContentAsText", 
                "chars": "DE", 
                "format": "text/plain"
            }
        }, 
        {
            "@id": "https://manifests.teklia.com/HIMANIS/JJ194/words_annotations/FRAN_0200_08977.json/6/line", 
            "@type": "oa:Annotation", 
            "motivation": "oa:painting", 
            "on": "http://bvmm.irht.cnrs.fr/iiif/23800/canvas/canvas-2346863#xywh=3240,3572,184,37", 
            "resource": {
                "@type": "cnt:ContentAsText", 
                "chars": "DE", 
                "format": "text/plain"
            }
        }, 
        {
            "@id": "https://manifests.teklia.com/HIMANIS/JJ194/words_annotations/FRAN_0200_08977.json/7/line", 
            "@type": "oa:Annotation", 
            "motivation": "oa:painting", 
            "on": "http://bvmm.irht.cnrs.fr/iiif/23800/canvas/canvas-2346863#xywh=4422,3322,0,63", 
            "resource": {
                "@type": "cnt:ContentAsText", 
                "chars": "J", 
                "format": "text/plain"
            }
        }, 
        {
            "@id": "https://manifests.teklia.com/HIMANIS/JJ194/words_annotations/FRAN_0200_08977.json/8/line", 
            "@type": "oa:Annotation", 
            "motivation": "oa:painting", 
            "on": "http://bvmm.irht.cnrs.fr/iiif/23800/canvas/canvas-2346863#xywh=79,123,3254,151", 
            "resource": {
                "@type": "cnt:ContentAsText", 
                "chars": "DESSUS", 
                "format": "text/plain"
            }
        }, 
        {
            "@id": "https://manifests.teklia.com/HIMANIS/JJ194/words_annotations/FRAN_0200_08977.json/9/line", 
            "@type": "oa:Annotation", 
            "motivation": "oa:painting", 
            "on": "http://bvmm.irht.cnrs.fr/iiif/23800/canvas/canvas-2346863#xywh=4365,649,132,57", 
            "resource": {
                "@type": "cnt:ContentAsText", 
                "chars": "OLINT", 
                "format": "text/plain"
            }
        }, 
        {
            "@id": "https://manifests.teklia.com/HIMANIS/JJ194/words_annotations/FRAN_0200_08977.json/10/line", 
            "@type": "oa:Annotation", 
            "motivation": "oa:painting", 
            "on": "http://bvmm.irht.cnrs.fr/iiif/23800/canvas/canvas-2346863#xywh=4337,569,131,77", 
            "resource": {
                "@type": "cnt:ContentAsText", 
                "chars": "NOS", 
                "format": "text/plain"
            }
        }, 
        {
            "@id": "https://manifests.teklia.com/HIMANIS/JJ194/words_annotations/FRAN_0200_08977.json/11/line", 
            "@type": "oa:Annotation", 
            "motivation": "oa:painting", 
            "on": "http://bvmm.irht.cnrs.fr/iiif/23800/canvas/canvas-2346863#xywh=368,2206,543,35", 
            "resource": {
                "@type": "cnt:ContentAsText", 
                "chars": "CCC", 
                "format": "text/plain"
            }
        }, 
        {
            "@id": "https://manifests.teklia.com/HIMANIS/JJ194/words_annotations/FRAN_0200_08977.json/12/line", 
            "@type": "oa:Annotation", 
            "motivation": "oa:painting", 
            "on": "http://bvmm.irht.cnrs.fr/iiif/23800/canvas/canvas-2346863#xywh=4350,699,75,122", 
            "resource": {
                "@type": "cnt:ContentAsText", 
                "chars": "SANC", 
                "format": "text/plain"
            }
        }, 
        {
            "@id": "https://manifests.teklia.com/HIMANIS/JJ194/words_annotations/FRAN_0200_08977.json/13/line", 
            "@type": "oa:Annotation", 
            "motivation": "oa:painting", 
            "on": "http://bvmm.irht.cnrs.fr/iiif/23800/canvas/canvas-2346863#xywh=337,3046,142,56", 
            "resource": {
                "@type": "cnt:ContentAsText", 
                "chars": "JOHAN", 
                "format": "text/plain"
            }
        }, 
        {
            "@id": "https://manifests.teklia.com/HIMANIS/JJ194/words_annotations/FRAN_0200_08977.json/14/line", 
            "@type": "oa:Annotation", 
            "motivation": "oa:painting", 
            "on": "http://bvmm.irht.cnrs.fr/iiif/23800/canvas/canvas-2346863#xywh=4350,699,165,122", 
            "resource": {
                "@type": "cnt:ContentAsText", 
                "chars": "SAINT", 
                "format": "text/plain"
            }
        }, 
        {
            "@id": "https://manifests.teklia.com/HIMANIS/JJ194/words_annotations/FRAN_0200_08977.json/15/line", 
            "@type": "oa:Annotation", 
            "motivation": "oa:painting", 
            "on": "http://bvmm.irht.cnrs.fr/iiif/23800/canvas/canvas-2346863#xywh=4349,490,0,75", 
            "resource": {
                "@type": "cnt:ContentAsText", 
                "chars": "H", 
                "format": "text/plain"
            }
        }, 
        {
            "@id": "https://manifests.teklia.com/HIMANIS/JJ194/words_annotations/FRAN_0200_08977.json/16/line", 
            "@type": "oa:Annotation", 
            "motivation": "oa:painting", 
            "on": "http://bvmm.irht.cnrs.fr/iiif/23800/canvas/canvas-2346863#xywh=4365,649,103,57", 
            "resource": {
                "@type": "cnt:ContentAsText", 
                "chars": "CLINA", 
                "format": "text/plain"
            }
        }, 
        {
            "@id": "https://manifests.teklia.com/HIMANIS/JJ194/words_annotations/FRAN_0200_08977.json/17/line", 
            "@type": "oa:Annotation", 
            "motivation": "oa:painting", 
            "on": "http://bvmm.irht.cnrs.fr/iiif/23800/canvas/canvas-2346863#xywh=378,2647,141,26", 
            "resource": {
                "@type": "cnt:ContentAsText", 
                "chars": "DE", 
                "format": "text/plain"
            }
        }, 
        {
            "@id": "https://manifests.teklia.com/HIMANIS/JJ194/words_annotations/FRAN_0200_08977.json/18/line", 
            "@type": "oa:Annotation", 
            "motivation": "oa:painting", 
            "on": "http://bvmm.irht.cnrs.fr/iiif/23800/canvas/canvas-2346863#xywh=3981,4312,0,80", 
            "resource": {
                "@type": "cnt:ContentAsText", 
                "chars": "O", 
                "format": "text/plain"
            }
        }, 
        {
            "@id": "https://manifests.teklia.com/HIMANIS/JJ194/words_annotations/FRAN_0200_08977.json/19/line", 
            "@type": "oa:Annotation", 
            "motivation": "oa:painting", 
            "on": "http://bvmm.irht.cnrs.fr/iiif/23800/canvas/canvas-2346863#xywh=4349,490,0,75", 
            "resource": {
                "@type": "cnt:ContentAsText", 
                "chars": "R", 
                "format": "text/plain"
            }
        }, 
        {
            "@id": "https://manifests.teklia.com/HIMANIS/JJ194/words_annotations/FRAN_0200_08977.json/20/line", 
            "@type": "oa:Annotation", 
            "motivation": "oa:painting", 
            "on": "http://bvmm.irht.cnrs.fr/iiif/23800/canvas/canvas-2346863#xywh=4365,649,132,57", 
            "resource": {
                "@type": "cnt:ContentAsText", 
                "chars": "CLINT", 
                "format": "text/plain"
            }
        }
    ]
}