{
    "@context": "http://iiif.io/api/presentation/2/context.json", 
    "@id": "https://manifests.teklia.com/HORAE/BNF/text_lines/http_gallica.bnf.fr_iiif_ark:_12148_btv1b8571085n_f554_full_full_0_native.json", 
    "@type": "sc:AnnotationList", 
    "resources": []
}