{
    "@context": "http://iiif.io/api/presentation/2/context.json", 
    "@id": "https://manifests.teklia.com/HIMANIS/JJ035/words_annotations/FRCHANJJ_JJ035_0099V.json", 
    "@type": "sc:AnnotationList", 
    "resources": [
        {
            "@id": "https://manifests.teklia.com/HIMANIS/JJ035/words_annotations/FRCHANJJ_JJ035_0099V.json/0/line", 
            "@type": "oa:Annotation", 
            "motivation": "oa:painting", 
            "on": "http://bvmm.irht.cnrs.fr/iiif/23575/canvas/canvas-2270570#xywh=592,404,90,65", 
            "resource": {
                "@type": "cnt:ContentAsText", 
                "chars": "FIDELI", 
                "format": "text/plain"
            }
        }, 
        {
            "@id": "https://manifests.teklia.com/HIMANIS/JJ035/words_annotations/FRCHANJJ_JJ035_0099V.json/1/line", 
            "@type": "oa:Annotation", 
            "motivation": "oa:painting", 
            "on": "http://bvmm.irht.cnrs.fr/iiif/23575/canvas/canvas-2270570#xywh=765,1181,239,60", 
            "resource": {
                "@type": "cnt:ContentAsText", 
                "chars": "DOUZENE", 
                "format": "text/plain"
            }
        }, 
        {
            "@id": "https://manifests.teklia.com/HIMANIS/JJ035/words_annotations/FRCHANJJ_JJ035_0099V.json/2/line", 
            "@type": "oa:Annotation", 
            "motivation": "oa:painting", 
            "on": "http://bvmm.irht.cnrs.fr/iiif/23575/canvas/canvas-2270570#xywh=546,1695,81,99", 
            "resource": {
                "@type": "cnt:ContentAsText", 
                "chars": "NOSTRO", 
                "format": "text/plain"
            }
        }, 
        {
            "@id": "https://manifests.teklia.com/HIMANIS/JJ035/words_annotations/FRCHANJJ_JJ035_0099V.json/3/line", 
            "@type": "oa:Annotation", 
            "motivation": "oa:painting", 
            "on": "http://bvmm.irht.cnrs.fr/iiif/23575/canvas/canvas-2270570#xywh=1010,1806,110,92", 
            "resource": {
                "@type": "cnt:ContentAsText", 
                "chars": "ACCUS", 
                "format": "text/plain"
            }
        }, 
        {
            "@id": "https://manifests.teklia.com/HIMANIS/JJ035/words_annotations/FRCHANJJ_JJ035_0099V.json/4/line", 
            "@type": "oa:Annotation", 
            "motivation": "oa:painting", 
            "on": "http://bvmm.irht.cnrs.fr/iiif/23575/canvas/canvas-2270570#xywh=894,2021,39,105", 
            "resource": {
                "@type": "cnt:ContentAsText", 
                "chars": "DE", 
                "format": "text/plain"
            }
        }, 
        {
            "@id": "https://manifests.teklia.com/HIMANIS/JJ035/words_annotations/FRCHANJJ_JJ035_0099V.json/5/line", 
            "@type": "oa:Annotation", 
            "motivation": "oa:painting", 
            "on": "http://bvmm.irht.cnrs.fr/iiif/23575/canvas/canvas-2270570#xywh=882,1695,37,99", 
            "resource": {
                "@type": "cnt:ContentAsText", 
                "chars": "DE", 
                "format": "text/plain"
            }
        }, 
        {
            "@id": "https://manifests.teklia.com/HIMANIS/JJ035/words_annotations/FRCHANJJ_JJ035_0099V.json/6/line", 
            "@type": "oa:Annotation", 
            "motivation": "oa:painting", 
            "on": "http://bvmm.irht.cnrs.fr/iiif/23575/canvas/canvas-2270570#xywh=1448,1695,106,99", 
            "resource": {
                "@type": "cnt:ContentAsText", 
                "chars": "MILIS", 
                "format": "text/plain"
            }
        }, 
        {
            "@id": "https://manifests.teklia.com/HIMANIS/JJ035/words_annotations/FRCHANJJ_JJ035_0099V.json/7/line", 
            "@type": "oa:Annotation", 
            "motivation": "oa:painting", 
            "on": "http://bvmm.irht.cnrs.fr/iiif/23575/canvas/canvas-2270570#xywh=357,1075,129,79", 
            "resource": {
                "@type": "cnt:ContentAsText", 
                "chars": "DILECTO", 
                "format": "text/plain"
            }
        }, 
        {
            "@id": "https://manifests.teklia.com/HIMANIS/JJ035/words_annotations/FRCHANJJ_JJ035_0099V.json/8/line", 
            "@type": "oa:Annotation", 
            "motivation": "oa:painting", 
            "on": "http://bvmm.irht.cnrs.fr/iiif/23575/canvas/canvas-2270570#xywh=357,947,150,104", 
            "resource": {
                "@type": "cnt:ContentAsText", 
                "chars": "DILECTO", 
                "format": "text/plain"
            }
        }, 
        {
            "@id": "https://manifests.teklia.com/HIMANIS/JJ035/words_annotations/FRCHANJJ_JJ035_0099V.json/9/line", 
            "@type": "oa:Annotation", 
            "motivation": "oa:painting", 
            "on": "http://bvmm.irht.cnrs.fr/iiif/23575/canvas/canvas-2270570#xywh=740,777,175,75", 
            "resource": {
                "@type": "cnt:ContentAsText", 
                "chars": "VICECOMITI", 
                "format": "text/plain"
            }
        }, 
        {
            "@id": "https://manifests.teklia.com/HIMANIS/JJ035/words_annotations/FRCHANJJ_JJ035_0099V.json/10/line", 
            "@type": "oa:Annotation", 
            "motivation": "oa:painting", 
            "on": "http://bvmm.irht.cnrs.fr/iiif/23575/canvas/canvas-2270570#xywh=2040,1361,146,75", 
            "resource": {
                "@type": "cnt:ContentAsText", 
                "chars": "GENTUR", 
                "format": "text/plain"
            }
        }, 
        {
            "@id": "https://manifests.teklia.com/HIMANIS/JJ035/words_annotations/FRCHANJJ_JJ035_0099V.json/11/line", 
            "@type": "oa:Annotation", 
            "motivation": "oa:painting", 
            "on": "http://bvmm.irht.cnrs.fr/iiif/23575/canvas/canvas-2270570#xywh=641,1581,205,105", 
            "resource": {
                "@type": "cnt:ContentAsText", 
                "chars": "RADULPHO", 
                "format": "text/plain"
            }
        }, 
        {
            "@id": "https://manifests.teklia.com/HIMANIS/JJ035/words_annotations/FRCHANJJ_JJ035_0099V.json/12/line", 
            "@type": "oa:Annotation", 
            "motivation": "oa:painting", 
            "on": "http://bvmm.irht.cnrs.fr/iiif/23575/canvas/canvas-2270570#xywh=599,947,39,104", 
            "resource": {
                "@type": "cnt:ContentAsText", 
                "chars": "SI", 
                "format": "text/plain"
            }
        }, 
        {
            "@id": "https://manifests.teklia.com/HIMANIS/JJ035/words_annotations/FRCHANJJ_JJ035_0099V.json/13/line", 
            "@type": "oa:Annotation", 
            "motivation": "oa:painting", 
            "on": "http://bvmm.irht.cnrs.fr/iiif/23575/canvas/canvas-2270570#xywh=578,594,103,86", 
            "resource": {
                "@type": "cnt:ContentAsText", 
                "chars": "FIDELI", 
                "format": "text/plain"
            }
        }, 
        {
            "@id": "https://manifests.teklia.com/HIMANIS/JJ035/words_annotations/FRCHANJJ_JJ035_0099V.json/14/line", 
            "@type": "oa:Annotation", 
            "motivation": "oa:painting", 
            "on": "http://bvmm.irht.cnrs.fr/iiif/23575/canvas/canvas-2270570#xywh=538,1941,71,75", 
            "resource": {
                "@type": "cnt:ContentAsText", 
                "chars": "NOSTRO", 
                "format": "text/plain"
            }
        }, 
        {
            "@id": "https://manifests.teklia.com/HIMANIS/JJ035/words_annotations/FRCHANJJ_JJ035_0099V.json/15/line", 
            "@type": "oa:Annotation", 
            "motivation": "oa:painting", 
            "on": "http://bvmm.irht.cnrs.fr/iiif/23575/canvas/canvas-2270570#xywh=1092,2021,92,105", 
            "resource": {
                "@type": "cnt:ContentAsText", 
                "chars": "FORTI", 
                "format": "text/plain"
            }
        }, 
        {
            "@id": "https://manifests.teklia.com/HIMANIS/JJ035/words_annotations/FRCHANJJ_JJ035_0099V.json/16/line", 
            "@type": "oa:Annotation", 
            "motivation": "oa:painting", 
            "on": "http://bvmm.irht.cnrs.fr/iiif/23575/canvas/canvas-2270570#xywh=591,1075,35,79", 
            "resource": {
                "@type": "cnt:ContentAsText", 
                "chars": "SI", 
                "format": "text/plain"
            }
        }, 
        {
            "@id": "https://manifests.teklia.com/HIMANIS/JJ035/words_annotations/FRCHANJJ_JJ035_0099V.json/17/line", 
            "@type": "oa:Annotation", 
            "motivation": "oa:painting", 
            "on": "http://bvmm.irht.cnrs.fr/iiif/23575/canvas/canvas-2270570#xywh=703,404,62,65", 
            "resource": {
                "@type": "cnt:ContentAsText", 
                "chars": "NOSTRO", 
                "format": "text/plain"
            }
        }, 
        {
            "@id": "https://manifests.teklia.com/HIMANIS/JJ035/words_annotations/FRCHANJJ_JJ035_0099V.json/18/line", 
            "@type": "oa:Annotation", 
            "motivation": "oa:painting", 
            "on": "http://bvmm.irht.cnrs.fr/iiif/23575/canvas/canvas-2270570#xywh=951,1472,192,109", 
            "resource": {
                "@type": "cnt:ContentAsText", 
                "chars": "GOURDON", 
                "format": "text/plain"
            }
        }, 
        {
            "@id": "https://manifests.teklia.com/HIMANIS/JJ035/words_annotations/FRCHANJJ_JJ035_0099V.json/19/line", 
            "@type": "oa:Annotation", 
            "motivation": "oa:painting", 
            "on": "http://bvmm.irht.cnrs.fr/iiif/23575/canvas/canvas-2270570#xywh=647,2246,155,85", 
            "resource": {
                "@type": "cnt:ContentAsText", 
                "chars": "BERANDO", 
                "format": "text/plain"
            }
        }, 
        {
            "@id": "https://manifests.teklia.com/HIMANIS/JJ035/words_annotations/FRCHANJJ_JJ035_0099V.json/20/line", 
            "@type": "oa:Annotation", 
            "motivation": "oa:painting", 
            "on": "http://bvmm.irht.cnrs.fr/iiif/23575/canvas/canvas-2270570#xywh=1061,837,184,105", 
            "resource": {
                "@type": "cnt:ContentAsText", 
                "chars": "RENAON", 
                "format": "text/plain"
            }
        }, 
        {
            "@id": "https://manifests.teklia.com/HIMANIS/JJ035/words_annotations/FRCHANJJ_JJ035_0099V.json/21/line", 
            "@type": "oa:Annotation", 
            "motivation": "oa:painting", 
            "on": "http://bvmm.irht.cnrs.fr/iiif/23575/canvas/canvas-2270570#xywh=952,1581,132,105", 
            "resource": {
                "@type": "cnt:ContentAsText", 
                "chars": "CASTERO", 
                "format": "text/plain"
            }
        }, 
        {
            "@id": "https://manifests.teklia.com/HIMANIS/JJ035/words_annotations/FRCHANJJ_JJ035_0099V.json/22/line", 
            "@type": "oa:Annotation", 
            "motivation": "oa:painting", 
            "on": "http://bvmm.irht.cnrs.fr/iiif/23575/canvas/canvas-2270570#xywh=765,1075,79,79", 
            "resource": {
                "@type": "cnt:ContentAsText", 
                "chars": "BONIS", 
                "format": "text/plain"
            }
        }, 
        {
            "@id": "https://manifests.teklia.com/HIMANIS/JJ035/words_annotations/FRCHANJJ_JJ035_0099V.json/23/line", 
            "@type": "oa:Annotation", 
            "motivation": "oa:painting", 
            "on": "http://bvmm.irht.cnrs.fr/iiif/23575/canvas/canvas-2270570#xywh=1024,777,152,75", 
            "resource": {
                "@type": "cnt:ContentAsText", 
                "chars": "THURENE", 
                "format": "text/plain"
            }
        }, 
        {
            "@id": "https://manifests.teklia.com/HIMANIS/JJ035/words_annotations/FRCHANJJ_JJ035_0099V.json/24/line", 
            "@type": "oa:Annotation", 
            "motivation": "oa:painting", 
            "on": "http://bvmm.irht.cnrs.fr/iiif/23575/canvas/canvas-2270570#xywh=0,3226,2544,108", 
            "resource": {
                "@type": "cnt:ContentAsText", 
                "chars": "PHIL", 
                "format": "text/plain"
            }
        }, 
        {
            "@id": "https://manifests.teklia.com/HIMANIS/JJ035/words_annotations/FRCHANJJ_JJ035_0099V.json/25/line", 
            "@type": "oa:Annotation", 
            "motivation": "oa:painting", 
            "on": "http://bvmm.irht.cnrs.fr/iiif/23575/canvas/canvas-2270570#xywh=998,494,239,100", 
            "resource": {
                "@type": "cnt:ContentAsText", 
                "chars": "BRUNQUELLI", 
                "format": "text/plain"
            }
        }, 
        {
            "@id": "https://manifests.teklia.com/HIMANIS/JJ035/words_annotations/FRCHANJJ_JJ035_0099V.json/26/line", 
            "@type": "oa:Annotation", 
            "motivation": "oa:painting", 
            "on": "http://bvmm.irht.cnrs.fr/iiif/23575/canvas/canvas-2270570#xywh=537,2126,72,115", 
            "resource": {
                "@type": "cnt:ContentAsText", 
                "chars": "NOSTRO", 
                "format": "text/plain"
            }
        }, 
        {
            "@id": "https://manifests.teklia.com/HIMANIS/JJ035/words_annotations/FRCHANJJ_JJ035_0099V.json/27/line", 
            "@type": "oa:Annotation", 
            "motivation": "oa:painting", 
            "on": "http://bvmm.irht.cnrs.fr/iiif/23575/canvas/canvas-2270570#xywh=553,1472,82,109", 
            "resource": {
                "@type": "cnt:ContentAsText", 
                "chars": "NOSTRO", 
                "format": "text/plain"
            }
        }, 
        {
            "@id": "https://manifests.teklia.com/HIMANIS/JJ035/words_annotations/FRCHANJJ_JJ035_0099V.json/28/line", 
            "@type": "oa:Annotation", 
            "motivation": "oa:painting", 
            "on": "http://bvmm.irht.cnrs.fr/iiif/23575/canvas/canvas-2270570#xywh=652,1941,85,75", 
            "resource": {
                "@type": "cnt:ContentAsText", 
                "chars": "DOMINO", 
                "format": "text/plain"
            }
        }, 
        {
            "@id": "https://manifests.teklia.com/HIMANIS/JJ035/words_annotations/FRCHANJJ_JJ035_0099V.json/29/line", 
            "@type": "oa:Annotation", 
            "motivation": "oa:painting", 
            "on": "http://bvmm.irht.cnrs.fr/iiif/23575/canvas/canvas-2270570#xywh=383,1241,118,105", 
            "resource": {
                "@type": "cnt:ContentAsText", 
                "chars": "DILECTO", 
                "format": "text/plain"
            }
        }, 
        {
            "@id": "https://manifests.teklia.com/HIMANIS/JJ035/words_annotations/FRCHANJJ_JJ035_0099V.json/30/line", 
            "@type": "oa:Annotation", 
            "motivation": "oa:painting", 
            "on": "http://bvmm.irht.cnrs.fr/iiif/23575/canvas/canvas-2270570#xywh=664,947,151,104", 
            "resource": {
                "@type": "cnt:ContentAsText", 
                "chars": "SERALIO", 
                "format": "text/plain"
            }
        }, 
        {
            "@id": "https://manifests.teklia.com/HIMANIS/JJ035/words_annotations/FRCHANJJ_JJ035_0099V.json/31/line", 
            "@type": "oa:Annotation", 
            "motivation": "oa:painting", 
            "on": "http://bvmm.irht.cnrs.fr/iiif/23575/canvas/canvas-2270570#xywh=359,1181,136,60", 
            "resource": {
                "@type": "cnt:ContentAsText", 
                "chars": "DILECTO", 
                "format": "text/plain"
            }
        }, 
        {
            "@id": "https://manifests.teklia.com/HIMANIS/JJ035/words_annotations/FRCHANJJ_JJ035_0099V.json/32/line", 
            "@type": "oa:Annotation", 
            "motivation": "oa:painting", 
            "on": "http://bvmm.irht.cnrs.fr/iiif/23575/canvas/canvas-2270570#xywh=531,687,91,90", 
            "resource": {
                "@type": "cnt:ContentAsText", 
                "chars": "SI", 
                "format": "text/plain"
            }
        }, 
        {
            "@id": "https://manifests.teklia.com/HIMANIS/JJ035/words_annotations/FRCHANJJ_JJ035_0099V.json/33/line", 
            "@type": "oa:Annotation", 
            "motivation": "oa:painting", 
            "on": "http://bvmm.irht.cnrs.fr/iiif/23575/canvas/canvas-2270570#xywh=697,594,71,86", 
            "resource": {
                "@type": "cnt:ContentAsText", 
                "chars": "NOSTRO", 
                "format": "text/plain"
            }
        }, 
        {
            "@id": "https://manifests.teklia.com/HIMANIS/JJ035/words_annotations/FRCHANJJ_JJ035_0099V.json/34/line", 
            "@type": "oa:Annotation", 
            "motivation": "oa:painting", 
            "on": "http://bvmm.irht.cnrs.fr/iiif/23575/canvas/canvas-2270570#xywh=929,837,316,105", 
            "resource": {
                "@type": "cnt:ContentAsText", 
                "chars": "VENAON", 
                "format": "text/plain"
            }
        }, 
        {
            "@id": "https://manifests.teklia.com/HIMANIS/JJ035/words_annotations/FRCHANJJ_JJ035_0099V.json/35/line", 
            "@type": "oa:Annotation", 
            "motivation": "oa:painting", 
            "on": "http://bvmm.irht.cnrs.fr/iiif/23575/canvas/canvas-2270570#xywh=578,289,238,115", 
            "resource": {
                "@type": "cnt:ContentAsText", 
                "chars": "PETRIGOREM", 
                "format": "text/plain"
            }
        }, 
        {
            "@id": "https://manifests.teklia.com/HIMANIS/JJ035/words_annotations/FRCHANJJ_JJ035_0099V.json/36/line", 
            "@type": "oa:Annotation", 
            "motivation": "oa:painting", 
            "on": "http://bvmm.irht.cnrs.fr/iiif/23575/canvas/canvas-2270570#xywh=647,2246,155,85", 
            "resource": {
                "@type": "cnt:ContentAsText", 
                "chars": "BRANDO", 
                "format": "text/plain"
            }
        }, 
        {
            "@id": "https://manifests.teklia.com/HIMANIS/JJ035/words_annotations/FRCHANJJ_JJ035_0099V.json/37/line", 
            "@type": "oa:Annotation", 
            "motivation": "oa:painting", 
            "on": "http://bvmm.irht.cnrs.fr/iiif/23575/canvas/canvas-2270570#xywh=4,2598,462,60", 
            "resource": {
                "@type": "cnt:ContentAsText", 
                "chars": "JOYS", 
                "format": "text/plain"
            }
        }, 
        {
            "@id": "https://manifests.teklia.com/HIMANIS/JJ035/words_annotations/FRCHANJJ_JJ035_0099V.json/38/line", 
            "@type": "oa:Annotation", 
            "motivation": "oa:painting", 
            "on": "http://bvmm.irht.cnrs.fr/iiif/23575/canvas/canvas-2270570#xywh=2229,1361,94,75", 
            "resource": {
                "@type": "cnt:ContentAsText", 
                "chars": "TRUM", 
                "format": "text/plain"
            }
        }, 
        {
            "@id": "https://manifests.teklia.com/HIMANIS/JJ035/words_annotations/FRCHANJJ_JJ035_0099V.json/39/line", 
            "@type": "oa:Annotation", 
            "motivation": "oa:painting", 
            "on": "http://bvmm.irht.cnrs.fr/iiif/23575/canvas/canvas-2270570#xywh=578,777,33,75", 
            "resource": {
                "@type": "cnt:ContentAsText", 
                "chars": "SI", 
                "format": "text/plain"
            }
        }, 
        {
            "@id": "https://manifests.teklia.com/HIMANIS/JJ035/words_annotations/FRCHANJJ_JJ035_0099V.json/40/line", 
            "@type": "oa:Annotation", 
            "motivation": "oa:painting", 
            "on": "http://bvmm.irht.cnrs.fr/iiif/23575/canvas/canvas-2270570#xywh=2229,1361,94,75", 
            "resource": {
                "@type": "cnt:ContentAsText", 
                "chars": "DICTUM", 
                "format": "text/plain"
            }
        }, 
        {
            "@id": "https://manifests.teklia.com/HIMANIS/JJ035/words_annotations/FRCHANJJ_JJ035_0099V.json/41/line", 
            "@type": "oa:Annotation", 
            "motivation": "oa:painting", 
            "on": "http://bvmm.irht.cnrs.fr/iiif/23575/canvas/canvas-2270570#xywh=807,2668,144,95", 
            "resource": {
                "@type": "cnt:ContentAsText", 
                "chars": "OSTORE", 
                "format": "text/plain"
            }
        }, 
        {
            "@id": "https://manifests.teklia.com/HIMANIS/JJ035/words_annotations/FRCHANJJ_JJ035_0099V.json/42/line", 
            "@type": "oa:Annotation", 
            "motivation": "oa:painting", 
            "on": "http://bvmm.irht.cnrs.fr/iiif/23575/canvas/canvas-2270570#xywh=970,2126,122,115", 
            "resource": {
                "@type": "cnt:ContentAsText", 
                "chars": "CASTRO", 
                "format": "text/plain"
            }
        }, 
        {
            "@id": "https://manifests.teklia.com/HIMANIS/JJ035/words_annotations/FRCHANJJ_JJ035_0099V.json/43/line", 
            "@type": "oa:Annotation", 
            "motivation": "oa:painting", 
            "on": "http://bvmm.irht.cnrs.fr/iiif/23575/canvas/canvas-2270570#xywh=1126,594,114,86", 
            "resource": {
                "@type": "cnt:ContentAsText", 
                "chars": "PONTE", 
                "format": "text/plain"
            }
        }, 
        {
            "@id": "https://manifests.teklia.com/HIMANIS/JJ035/words_annotations/FRCHANJJ_JJ035_0099V.json/44/line", 
            "@type": "oa:Annotation", 
            "motivation": "oa:painting", 
            "on": "http://bvmm.irht.cnrs.fr/iiif/23575/canvas/canvas-2270570#xywh=807,2668,144,95", 
            "resource": {
                "@type": "cnt:ContentAsText", 
                "chars": "OSTORO", 
                "format": "text/plain"
            }
        }, 
        {
            "@id": "https://manifests.teklia.com/HIMANIS/JJ035/words_annotations/FRCHANJJ_JJ035_0099V.json/45/line", 
            "@type": "oa:Annotation", 
            "motivation": "oa:painting", 
            "on": "http://bvmm.irht.cnrs.fr/iiif/23575/canvas/canvas-2270570#xywh=665,837,79,105", 
            "resource": {
                "@type": "cnt:ContentAsText", 
                "chars": "NOSTRO", 
                "format": "text/plain"
            }
        }, 
        {
            "@id": "https://manifests.teklia.com/HIMANIS/JJ035/words_annotations/FRCHANJJ_JJ035_0099V.json/46/line", 
            "@type": "oa:Annotation", 
            "motivation": "oa:painting", 
            "on": "http://bvmm.irht.cnrs.fr/iiif/23575/canvas/canvas-2270570#xywh=347,1472,178,109", 
            "resource": {
                "@type": "cnt:ContentAsText", 
                "chars": "DILECTO", 
                "format": "text/plain"
            }
        }, 
        {
            "@id": "https://manifests.teklia.com/HIMANIS/JJ035/words_annotations/FRCHANJJ_JJ035_0099V.json/47/line", 
            "@type": "oa:Annotation", 
            "motivation": "oa:painting", 
            "on": "http://bvmm.irht.cnrs.fr/iiif/23575/canvas/canvas-2270570#xywh=361,1371,141,75", 
            "resource": {
                "@type": "cnt:ContentAsText", 
                "chars": "DILECTO", 
                "format": "text/plain"
            }
        }, 
        {
            "@id": "https://manifests.teklia.com/HIMANIS/JJ035/words_annotations/FRCHANJJ_JJ035_0099V.json/48/line", 
            "@type": "oa:Annotation", 
            "motivation": "oa:painting", 
            "on": "http://bvmm.irht.cnrs.fr/iiif/23575/canvas/canvas-2270570#xywh=547,2808,68,77", 
            "resource": {
                "@type": "cnt:ContentAsText", 
                "chars": "NOSTRO", 
                "format": "text/plain"
            }
        }, 
        {
            "@id": "https://manifests.teklia.com/HIMANIS/JJ035/words_annotations/FRCHANJJ_JJ035_0099V.json/49/line", 
            "@type": "oa:Annotation", 
            "motivation": "oa:painting", 
            "on": "http://bvmm.irht.cnrs.fr/iiif/23575/canvas/canvas-2270570#xywh=4,2598,443,60", 
            "resource": {
                "@type": "cnt:ContentAsText", 
                "chars": "JOY", 
                "format": "text/plain"
            }
        }, 
        {
            "@id": "https://manifests.teklia.com/HIMANIS/JJ035/words_annotations/FRCHANJJ_JJ035_0099V.json/50/line", 
            "@type": "oa:Annotation", 
            "motivation": "oa:painting", 
            "on": "http://bvmm.irht.cnrs.fr/iiif/23575/canvas/canvas-2270570#xywh=1010,1806,145,92", 
            "resource": {
                "@type": "cnt:ContentAsText", 
                "chars": "ACCUSE", 
                "format": "text/plain"
            }
        }, 
        {
            "@id": "https://manifests.teklia.com/HIMANIS/JJ035/words_annotations/FRCHANJJ_JJ035_0099V.json/51/line", 
            "@type": "oa:Annotation", 
            "motivation": "oa:painting", 
            "on": "http://bvmm.irht.cnrs.fr/iiif/23575/canvas/canvas-2270570#xywh=49,0,1356,97", 
            "resource": {
                "@type": "cnt:ContentAsText", 
                "chars": "LETTRE", 
                "format": "text/plain"
            }
        }, 
        {
            "@id": "https://manifests.teklia.com/HIMANIS/JJ035/words_annotations/FRCHANJJ_JJ035_0099V.json/52/line", 
            "@type": "oa:Annotation", 
            "motivation": "oa:painting", 
            "on": "http://bvmm.irht.cnrs.fr/iiif/23575/canvas/canvas-2270570#xywh=1100,1695,99,99", 
            "resource": {
                "@type": "cnt:ContentAsText", 
                "chars": "ACCUS", 
                "format": "text/plain"
            }
        }, 
        {
            "@id": "https://manifests.teklia.com/HIMANIS/JJ035/words_annotations/FRCHANJJ_JJ035_0099V.json/53/line", 
            "@type": "oa:Annotation", 
            "motivation": "oa:painting", 
            "on": "http://bvmm.irht.cnrs.fr/iiif/23575/canvas/canvas-2270570#xywh=646,1806,115,92", 
            "resource": {
                "@type": "cnt:ContentAsText", 
                "chars": "PHILIPPUM", 
                "format": "text/plain"
            }
        }, 
        {
            "@id": "https://manifests.teklia.com/HIMANIS/JJ035/words_annotations/FRCHANJJ_JJ035_0099V.json/54/line", 
            "@type": "oa:Annotation", 
            "motivation": "oa:painting", 
            "on": "http://bvmm.irht.cnrs.fr/iiif/23575/canvas/canvas-2270570#xywh=663,2808,78,77", 
            "resource": {
                "@type": "cnt:ContentAsText", 
                "chars": "DOMINO", 
                "format": "text/plain"
            }
        }, 
        {
            "@id": "https://manifests.teklia.com/HIMANIS/JJ035/words_annotations/FRCHANJJ_JJ035_0099V.json/55/line", 
            "@type": "oa:Annotation", 
            "motivation": "oa:painting", 
            "on": "http://bvmm.irht.cnrs.fr/iiif/23575/canvas/canvas-2270570#xywh=367,2021,158,105", 
            "resource": {
                "@type": "cnt:ContentAsText", 
                "chars": "DILECTOS", 
                "format": "text/plain"
            }
        }, 
        {
            "@id": "https://manifests.teklia.com/HIMANIS/JJ035/words_annotations/FRCHANJJ_JJ035_0099V.json/56/line", 
            "@type": "oa:Annotation", 
            "motivation": "oa:painting", 
            "on": "http://bvmm.irht.cnrs.fr/iiif/23575/canvas/canvas-2270570#xywh=1725,1326,141,45", 
            "resource": {
                "@type": "cnt:ContentAsText", 
                "chars": "PICTANCE", 
                "format": "text/plain"
            }
        }, 
        {
            "@id": "https://manifests.teklia.com/HIMANIS/JJ035/words_annotations/FRCHANJJ_JJ035_0099V.json/57/line", 
            "@type": "oa:Annotation", 
            "motivation": "oa:painting", 
            "on": "http://bvmm.irht.cnrs.fr/iiif/23575/canvas/canvas-2270570#xywh=441,289,115,115", 
            "resource": {
                "@type": "cnt:ContentAsText", 
                "chars": "SENESCALLO", 
                "format": "text/plain"
            }
        }, 
        {
            "@id": "https://manifests.teklia.com/HIMANIS/JJ035/words_annotations/FRCHANJJ_JJ035_0099V.json/58/line", 
            "@type": "oa:Annotation", 
            "motivation": "oa:painting", 
            "on": "http://bvmm.irht.cnrs.fr/iiif/23575/canvas/canvas-2270570#xywh=854,947,138,104", 
            "resource": {
                "@type": "cnt:ContentAsText", 
                "chars": "SALENE", 
                "format": "text/plain"
            }
        }, 
        {
            "@id": "https://manifests.teklia.com/HIMANIS/JJ035/words_annotations/FRCHANJJ_JJ035_0099V.json/59/line", 
            "@type": "oa:Annotation", 
            "motivation": "oa:painting", 
            "on": "http://bvmm.irht.cnrs.fr/iiif/23575/canvas/canvas-2270570#xywh=769,687,182,90", 
            "resource": {
                "@type": "cnt:ContentAsText", 
                "chars": "GAUFRIDO", 
                "format": "text/plain"
            }
        }, 
        {
            "@id": "https://manifests.teklia.com/HIMANIS/JJ035/words_annotations/FRCHANJJ_JJ035_0099V.json/60/line", 
            "@type": "oa:Annotation", 
            "motivation": "oa:painting", 
            "on": "http://bvmm.irht.cnrs.fr/iiif/23575/canvas/canvas-2270570#xywh=1779,1361,71,75", 
            "resource": {
                "@type": "cnt:ContentAsText", 
                "chars": "ISTI", 
                "format": "text/plain"
            }
        }, 
        {
            "@id": "https://manifests.teklia.com/HIMANIS/JJ035/words_annotations/FRCHANJJ_JJ035_0099V.json/61/line", 
            "@type": "oa:Annotation", 
            "motivation": "oa:painting", 
            "on": "http://bvmm.irht.cnrs.fr/iiif/23575/canvas/canvas-2270570#xywh=565,494,94,100", 
            "resource": {
                "@type": "cnt:ContentAsText", 
                "chars": "FIDELI", 
                "format": "text/plain"
            }
        }, 
        {
            "@id": "https://manifests.teklia.com/HIMANIS/JJ035/words_annotations/FRCHANJJ_JJ035_0099V.json/62/line", 
            "@type": "oa:Annotation", 
            "motivation": "oa:painting", 
            "on": "http://bvmm.irht.cnrs.fr/iiif/23575/canvas/canvas-2270570#xywh=0,3226,2551,108", 
            "resource": {
                "@type": "cnt:ContentAsText", 
                "chars": "POI", 
                "format": "text/plain"
            }
        }, 
        {
            "@id": "https://manifests.teklia.com/HIMANIS/JJ035/words_annotations/FRCHANJJ_JJ035_0099V.json/63/line", 
            "@type": "oa:Annotation", 
            "motivation": "oa:painting", 
            "on": "http://bvmm.irht.cnrs.fr/iiif/23575/canvas/canvas-2270570#xywh=2352,1361,38,75", 
            "resource": {
                "@type": "cnt:ContentAsText", 
                "chars": "EJUS", 
                "format": "text/plain"
            }
        }, 
        {
            "@id": "https://manifests.teklia.com/HIMANIS/JJ035/words_annotations/FRCHANJJ_JJ035_0099V.json/64/line", 
            "@type": "oa:Annotation", 
            "motivation": "oa:painting", 
            "on": "http://bvmm.irht.cnrs.fr/iiif/23575/canvas/canvas-2270570#xywh=869,1075,55,79", 
            "resource": {
                "@type": "cnt:ContentAsText", 
                "chars": "DE", 
                "format": "text/plain"
            }
        }, 
        {
            "@id": "https://manifests.teklia.com/HIMANIS/JJ035/words_annotations/FRCHANJJ_JJ035_0099V.json/65/line", 
            "@type": "oa:Annotation", 
            "motivation": "oa:painting", 
            "on": "http://bvmm.irht.cnrs.fr/iiif/23575/canvas/canvas-2270570#xywh=1883,1326,0,45", 
            "resource": {
                "@type": "cnt:ContentAsText", 
                "chars": "G", 
                "format": "text/plain"
            }
        }, 
        {
            "@id": "https://manifests.teklia.com/HIMANIS/JJ035/words_annotations/FRCHANJJ_JJ035_0099V.json/66/line", 
            "@type": "oa:Annotation", 
            "motivation": "oa:painting", 
            "on": "http://bvmm.irht.cnrs.fr/iiif/23575/canvas/canvas-2270570#xywh=1409,1806,133,92", 
            "resource": {
                "@type": "cnt:ContentAsText", 
                "chars": "MILITI", 
                "format": "text/plain"
            }
        }, 
        {
            "@id": "https://manifests.teklia.com/HIMANIS/JJ035/words_annotations/FRCHANJJ_JJ035_0099V.json/67/line", 
            "@type": "oa:Annotation", 
            "motivation": "oa:painting", 
            "on": "http://bvmm.irht.cnrs.fr/iiif/23575/canvas/canvas-2270570#xywh=765,1181,30,60", 
            "resource": {
                "@type": "cnt:ContentAsText", 
                "chars": "DE", 
                "format": "text/plain"
            }
        }, 
        {
            "@id": "https://manifests.teklia.com/HIMANIS/JJ035/words_annotations/FRCHANJJ_JJ035_0099V.json/68/line", 
            "@type": "oa:Annotation", 
            "motivation": "oa:painting", 
            "on": "http://bvmm.irht.cnrs.fr/iiif/23575/canvas/canvas-2270570#xywh=530,2246,74,85", 
            "resource": {
                "@type": "cnt:ContentAsText", 
                "chars": "NOSTRO", 
                "format": "text/plain"
            }
        }, 
        {
            "@id": "https://manifests.teklia.com/HIMANIS/JJ035/words_annotations/FRCHANJJ_JJ035_0099V.json/69/line", 
            "@type": "oa:Annotation", 
            "motivation": "oa:painting", 
            "on": "http://bvmm.irht.cnrs.fr/iiif/23575/canvas/canvas-2270570#xywh=526,1181,68,60", 
            "resource": {
                "@type": "cnt:ContentAsText", 
                "chars": "NOSTRO", 
                "format": "text/plain"
            }
        }, 
        {
            "@id": "https://manifests.teklia.com/HIMANIS/JJ035/words_annotations/FRCHANJJ_JJ035_0099V.json/70/line", 
            "@type": "oa:Annotation", 
            "motivation": "oa:painting", 
            "on": "http://bvmm.irht.cnrs.fr/iiif/23575/canvas/canvas-2270570#xywh=311,289,0,115", 
            "resource": {
                "@type": "cnt:ContentAsText", 
                "chars": "J", 
                "format": "text/plain"
            }
        }, 
        {
            "@id": "https://manifests.teklia.com/HIMANIS/JJ035/words_annotations/FRCHANJJ_JJ035_0099V.json/71/line", 
            "@type": "oa:Annotation", 
            "motivation": "oa:painting", 
            "on": "http://bvmm.irht.cnrs.fr/iiif/23575/canvas/canvas-2270570#xywh=991,687,39,90", 
            "resource": {
                "@type": "cnt:ContentAsText", 
                "chars": "DE", 
                "format": "text/plain"
            }
        }, 
        {
            "@id": "https://manifests.teklia.com/HIMANIS/JJ035/words_annotations/FRCHANJJ_JJ035_0099V.json/72/line", 
            "@type": "oa:Annotation", 
            "motivation": "oa:painting", 
            "on": "http://bvmm.irht.cnrs.fr/iiif/23575/canvas/canvas-2270570#xywh=678,494,81,100", 
            "resource": {
                "@type": "cnt:ContentAsText", 
                "chars": "NOSTRO", 
                "format": "text/plain"
            }
        }, 
        {
            "@id": "https://manifests.teklia.com/HIMANIS/JJ035/words_annotations/FRCHANJJ_JJ035_0099V.json/73/line", 
            "@type": "oa:Annotation", 
            "motivation": "oa:painting", 
            "on": "http://bvmm.irht.cnrs.fr/iiif/23575/canvas/canvas-2270570#xywh=645,2126,195,115", 
            "resource": {
                "@type": "cnt:ContentAsText", 
                "chars": "MARFREDO", 
                "format": "text/plain"
            }
        }, 
        {
            "@id": "https://manifests.teklia.com/HIMANIS/JJ035/words_annotations/FRCHANJJ_JJ035_0099V.json/74/line", 
            "@type": "oa:Annotation", 
            "motivation": "oa:painting", 
            "on": "http://bvmm.irht.cnrs.fr/iiif/23575/canvas/canvas-2270570#xywh=951,1472,192,109", 
            "resource": {
                "@type": "cnt:ContentAsText", 
                "chars": "TOURDON", 
                "format": "text/plain"
            }
        }, 
        {
            "@id": "https://manifests.teklia.com/HIMANIS/JJ035/words_annotations/FRCHANJJ_JJ035_0099V.json/75/line", 
            "@type": "oa:Annotation", 
            "motivation": "oa:painting", 
            "on": "http://bvmm.irht.cnrs.fr/iiif/23575/canvas/canvas-2270570#xywh=647,2246,155,85", 
            "resource": {
                "@type": "cnt:ContentAsText", 
                "chars": "BTRANDO", 
                "format": "text/plain"
            }
        }, 
        {
            "@id": "https://manifests.teklia.com/HIMANIS/JJ035/words_annotations/FRCHANJJ_JJ035_0099V.json/76/line", 
            "@type": "oa:Annotation", 
            "motivation": "oa:painting", 
            "on": "http://bvmm.irht.cnrs.fr/iiif/23575/canvas/canvas-2270570#xywh=810,404,128,65", 
            "resource": {
                "@type": "cnt:ContentAsText", 
                "chars": "COMIT", 
                "format": "text/plain"
            }
        }, 
        {
            "@id": "https://manifests.teklia.com/HIMANIS/JJ035/words_annotations/FRCHANJJ_JJ035_0099V.json/77/line", 
            "@type": "oa:Annotation", 
            "motivation": "oa:painting", 
            "on": "http://bvmm.irht.cnrs.fr/iiif/23575/canvas/canvas-2270570#xywh=904,1241,40,105", 
            "resource": {
                "@type": "cnt:ContentAsText", 
                "chars": "DE", 
                "format": "text/plain"
            }
        }, 
        {
            "@id": "https://manifests.teklia.com/HIMANIS/JJ035/words_annotations/FRCHANJJ_JJ035_0099V.json/78/line", 
            "@type": "oa:Annotation", 
            "motivation": "oa:painting", 
            "on": "http://bvmm.irht.cnrs.fr/iiif/23575/canvas/canvas-2270570#xywh=602,1371,193,75", 
            "resource": {
                "@type": "cnt:ContentAsText", 
                "chars": "DE", 
                "format": "text/plain"
            }
        }, 
        {
            "@id": "https://manifests.teklia.com/HIMANIS/JJ035/words_annotations/FRCHANJJ_JJ035_0099V.json/79/line", 
            "@type": "oa:Annotation", 
            "motivation": "oa:painting", 
            "on": "http://bvmm.irht.cnrs.fr/iiif/23575/canvas/canvas-2270570#xywh=1106,2246,134,85", 
            "resource": {
                "@type": "cnt:ContentAsText", 
                "chars": "ACUTOR", 
                "format": "text/plain"
            }
        }, 
        {
            "@id": "https://manifests.teklia.com/HIMANIS/JJ035/words_annotations/FRCHANJJ_JJ035_0099V.json/80/line", 
            "@type": "oa:Annotation", 
            "motivation": "oa:painting", 
            "on": "http://bvmm.irht.cnrs.fr/iiif/23575/canvas/canvas-2270570#xywh=944,777,33,75", 
            "resource": {
                "@type": "cnt:ContentAsText", 
                "chars": "DE", 
                "format": "text/plain"
            }
        }, 
        {
            "@id": "https://manifests.teklia.com/HIMANIS/JJ035/words_annotations/FRCHANJJ_JJ035_0099V.json/81/line", 
            "@type": "oa:Annotation", 
            "motivation": "oa:painting", 
            "on": "http://bvmm.irht.cnrs.fr/iiif/23575/canvas/canvas-2270570#xywh=478,2598,76,60", 
            "resource": {
                "@type": "cnt:ContentAsText", 
                "chars": "SENESCALLO", 
                "format": "text/plain"
            }
        }, 
        {
            "@id": "https://manifests.teklia.com/HIMANIS/JJ035/words_annotations/FRCHANJJ_JJ035_0099V.json/82/line", 
            "@type": "oa:Annotation", 
            "motivation": "oa:painting", 
            "on": "http://bvmm.irht.cnrs.fr/iiif/23575/canvas/canvas-2270570#xywh=1104,1581,390,105", 
            "resource": {
                "@type": "cnt:ContentAsText", 
                "chars": "NONOMINITI", 
                "format": "text/plain"
            }
        }, 
        {
            "@id": "https://manifests.teklia.com/HIMANIS/JJ035/words_annotations/FRCHANJJ_JJ035_0099V.json/83/line", 
            "@type": "oa:Annotation", 
            "motivation": "oa:painting", 
            "on": "http://bvmm.irht.cnrs.fr/iiif/23575/canvas/canvas-2270570#xywh=647,1181,76,60", 
            "resource": {
                "@type": "cnt:ContentAsText", 
                "chars": "DOMINO", 
                "format": "text/plain"
            }
        }, 
        {
            "@id": "https://manifests.teklia.com/HIMANIS/JJ035/words_annotations/FRCHANJJ_JJ035_0099V.json/84/line", 
            "@type": "oa:Annotation", 
            "motivation": "oa:painting", 
            "on": "http://bvmm.irht.cnrs.fr/iiif/23575/canvas/canvas-2270570#xywh=876,1472,41,109", 
            "resource": {
                "@type": "cnt:ContentAsText", 
                "chars": "DE", 
                "format": "text/plain"
            }
        }, 
        {
            "@id": "https://manifests.teklia.com/HIMANIS/JJ035/words_annotations/FRCHANJJ_JJ035_0099V.json/85/line", 
            "@type": "oa:Annotation", 
            "motivation": "oa:painting", 
            "on": "http://bvmm.irht.cnrs.fr/iiif/23575/canvas/canvas-2270570#xywh=630,777,67,75", 
            "resource": {
                "@type": "cnt:ContentAsText", 
                "chars": "NOSTRO", 
                "format": "text/plain"
            }
        }, 
        {
            "@id": "https://manifests.teklia.com/HIMANIS/JJ035/words_annotations/FRCHANJJ_JJ035_0099V.json/86/line", 
            "@type": "oa:Annotation", 
            "motivation": "oa:painting", 
            "on": "http://bvmm.irht.cnrs.fr/iiif/23575/canvas/canvas-2270570#xywh=929,837,99,105", 
            "resource": {
                "@type": "cnt:ContentAsText", 
                "chars": "DE", 
                "format": "text/plain"
            }
        }, 
        {
            "@id": "https://manifests.teklia.com/HIMANIS/JJ035/words_annotations/FRCHANJJ_JJ035_0099V.json/87/line", 
            "@type": "oa:Annotation", 
            "motivation": "oa:painting", 
            "on": "http://bvmm.irht.cnrs.fr/iiif/23575/canvas/canvas-2270570#xywh=398,2553,275,45", 
            "resource": {
                "@type": "cnt:ContentAsText", 
                "chars": "TOUT", 
                "format": "text/plain"
            }
        }, 
        {
            "@id": "https://manifests.teklia.com/HIMANIS/JJ035/words_annotations/FRCHANJJ_JJ035_0099V.json/88/line", 
            "@type": "oa:Annotation", 
            "motivation": "oa:painting", 
            "on": "http://bvmm.irht.cnrs.fr/iiif/23575/canvas/canvas-2270570#xywh=670,2021,191,105", 
            "resource": {
                "@type": "cnt:ContentAsText", 
                "chars": "BERANDO", 
                "format": "text/plain"
            }
        }, 
        {
            "@id": "https://manifests.teklia.com/HIMANIS/JJ035/words_annotations/FRCHANJJ_JJ035_0099V.json/89/line", 
            "@type": "oa:Annotation", 
            "motivation": "oa:painting", 
            "on": "http://bvmm.irht.cnrs.fr/iiif/23575/canvas/canvas-2270570#xywh=1195,1806,185,92", 
            "resource": {
                "@type": "cnt:ContentAsText", 
                "chars": "JUMORI", 
                "format": "text/plain"
            }
        }, 
        {
            "@id": "https://manifests.teklia.com/HIMANIS/JJ035/words_annotations/FRCHANJJ_JJ035_0099V.json/90/line", 
            "@type": "oa:Annotation", 
            "motivation": "oa:painting", 
            "on": "http://bvmm.irht.cnrs.fr/iiif/23575/canvas/canvas-2270570#xywh=968,434,140,60", 
            "resource": {
                "@type": "cnt:ContentAsText", 
                "chars": "PETRA", 
                "format": "text/plain"
            }
        }, 
        {
            "@id": "https://manifests.teklia.com/HIMANIS/JJ035/words_annotations/FRCHANJJ_JJ035_0099V.json/91/line", 
            "@type": "oa:Annotation", 
            "motivation": "oa:painting", 
            "on": "http://bvmm.irht.cnrs.fr/iiif/23575/canvas/canvas-2270570#xywh=361,404,140,65", 
            "resource": {
                "@type": "cnt:ContentAsText", 
                "chars": "MACTO", 
                "format": "text/plain"
            }
        }, 
        {
            "@id": "https://manifests.teklia.com/HIMANIS/JJ035/words_annotations/FRCHANJJ_JJ035_0099V.json/92/line", 
            "@type": "oa:Annotation", 
            "motivation": "oa:painting", 
            "on": "http://bvmm.irht.cnrs.fr/iiif/23575/canvas/canvas-2270570#xywh=1208,1241,125,105", 
            "resource": {
                "@type": "cnt:ContentAsText", 
                "chars": "MILITEM", 
                "format": "text/plain"
            }
        }, 
        {
            "@id": "https://manifests.teklia.com/HIMANIS/JJ035/words_annotations/FRCHANJJ_JJ035_0099V.json/93/line", 
            "@type": "oa:Annotation", 
            "motivation": "oa:painting", 
            "on": "http://bvmm.irht.cnrs.fr/iiif/23575/canvas/canvas-2270570#xywh=2149,1326,416,45", 
            "resource": {
                "@type": "cnt:ContentAsText", 
                "chars": "SCRIPT", 
                "format": "text/plain"
            }
        }, 
        {
            "@id": "https://manifests.teklia.com/HIMANIS/JJ035/words_annotations/FRCHANJJ_JJ035_0099V.json/94/line", 
            "@type": "oa:Annotation", 
            "motivation": "oa:painting", 
            "on": "http://bvmm.irht.cnrs.fr/iiif/23575/canvas/canvas-2270570#xywh=1050,594,38,86", 
            "resource": {
                "@type": "cnt:ContentAsText", 
                "chars": "DE", 
                "format": "text/plain"
            }
        }, 
        {
            "@id": "https://manifests.teklia.com/HIMANIS/JJ035/words_annotations/FRCHANJJ_JJ035_0099V.json/95/line", 
            "@type": "oa:Annotation", 
            "motivation": "oa:painting", 
            "on": "http://bvmm.irht.cnrs.fr/iiif/23575/canvas/canvas-2270570#xywh=1100,1695,155,99", 
            "resource": {
                "@type": "cnt:ContentAsText", 
                "chars": "ACCUSA", 
                "format": "text/plain"
            }
        }, 
        {
            "@id": "https://manifests.teklia.com/HIMANIS/JJ035/words_annotations/FRCHANJJ_JJ035_0099V.json/96/line", 
            "@type": "oa:Annotation", 
            "motivation": "oa:painting", 
            "on": "http://bvmm.irht.cnrs.fr/iiif/23575/canvas/canvas-2270570#xywh=531,1371,71,75", 
            "resource": {
                "@type": "cnt:ContentAsText", 
                "chars": "NOSTRO", 
                "format": "text/plain"
            }
        }, 
        {
            "@id": "https://manifests.teklia.com/HIMANIS/JJ035/words_annotations/FRCHANJJ_JJ035_0099V.json/97/line", 
            "@type": "oa:Annotation", 
            "motivation": "oa:painting", 
            "on": "http://bvmm.irht.cnrs.fr/iiif/23575/canvas/canvas-2270570#xywh=670,1472,144,109", 
            "resource": {
                "@type": "cnt:ContentAsText", 
                "chars": "AYMERICO", 
                "format": "text/plain"
            }
        }, 
        {
            "@id": "https://manifests.teklia.com/HIMANIS/JJ035/words_annotations/FRCHANJJ_JJ035_0099V.json/98/line", 
            "@type": "oa:Annotation", 
            "motivation": "oa:painting", 
            "on": "http://bvmm.irht.cnrs.fr/iiif/23575/canvas/canvas-2270570#xywh=934,1075,159,79", 
            "resource": {
                "@type": "cnt:ContentAsText", 
                "chars": "FUMELLO", 
                "format": "text/plain"
            }
        }, 
        {
            "@id": "https://manifests.teklia.com/HIMANIS/JJ035/words_annotations/FRCHANJJ_JJ035_0099V.json/99/line", 
            "@type": "oa:Annotation", 
            "motivation": "oa:painting", 
            "on": "http://bvmm.irht.cnrs.fr/iiif/23575/canvas/canvas-2270570#xywh=1064,2668,132,95", 
            "resource": {
                "@type": "cnt:ContentAsText", 
                "chars": "BRILLAT", 
                "format": "text/plain"
            }
        }, 
        {
            "@id": "https://manifests.teklia.com/HIMANIS/JJ035/words_annotations/FRCHANJJ_JJ035_0099V.json/100/line", 
            "@type": "oa:Annotation", 
            "motivation": "oa:painting", 
            "on": "http://bvmm.irht.cnrs.fr/iiif/23575/canvas/canvas-2270570#xywh=602,1371,0,75", 
            "resource": {
                "@type": "cnt:ContentAsText", 
                "chars": "P", 
                "format": "text/plain"
            }
        }, 
        {
            "@id": "https://manifests.teklia.com/HIMANIS/JJ035/words_annotations/FRCHANJJ_JJ035_0099V.json/101/line", 
            "@type": "oa:Annotation", 
            "motivation": "oa:painting", 
            "on": "http://bvmm.irht.cnrs.fr/iiif/23575/canvas/canvas-2270570#xywh=670,2021,191,105", 
            "resource": {
                "@type": "cnt:ContentAsText", 
                "chars": "BRANDO", 
                "format": "text/plain"
            }
        }, 
        {
            "@id": "https://manifests.teklia.com/HIMANIS/JJ035/words_annotations/FRCHANJJ_JJ035_0099V.json/102/line", 
            "@type": "oa:Annotation", 
            "motivation": "oa:painting", 
            "on": "http://bvmm.irht.cnrs.fr/iiif/23575/canvas/canvas-2270570#xywh=49,0,1381,97", 
            "resource": {
                "@type": "cnt:ContentAsText", 
                "chars": "LITTER", 
                "format": "text/plain"
            }
        }, 
        {
            "@id": "https://manifests.teklia.com/HIMANIS/JJ035/words_annotations/FRCHANJJ_JJ035_0099V.json/103/line", 
            "@type": "oa:Annotation", 
            "motivation": "oa:painting", 
            "on": "http://bvmm.irht.cnrs.fr/iiif/23575/canvas/canvas-2270570#xywh=633,1241,225,105", 
            "resource": {
                "@type": "cnt:ContentAsText", 
                "chars": "GUYCHARDO", 
                "format": "text/plain"
            }
        }, 
        {
            "@id": "https://manifests.teklia.com/HIMANIS/JJ035/words_annotations/FRCHANJJ_JJ035_0099V.json/104/line", 
            "@type": "oa:Annotation", 
            "motivation": "oa:painting", 
            "on": "http://bvmm.irht.cnrs.fr/iiif/23575/canvas/canvas-2270570#xywh=1031,947,125,104", 
            "resource": {
                "@type": "cnt:ContentAsText", 
                "chars": "MILITI", 
                "format": "text/plain"
            }
        }, 
        {
            "@id": "https://manifests.teklia.com/HIMANIS/JJ035/words_annotations/FRCHANJJ_JJ035_0099V.json/105/line", 
            "@type": "oa:Annotation", 
            "motivation": "oa:painting", 
            "on": "http://bvmm.irht.cnrs.fr/iiif/23575/canvas/canvas-2270570#xywh=765,1075,79,79", 
            "resource": {
                "@type": "cnt:ContentAsText", 
                "chars": "BITUR", 
                "format": "text/plain"
            }
        }, 
        {
            "@id": "https://manifests.teklia.com/HIMANIS/JJ035/words_annotations/FRCHANJJ_JJ035_0099V.json/106/line", 
            "@type": "oa:Annotation", 
            "motivation": "oa:painting", 
            "on": "http://bvmm.irht.cnrs.fr/iiif/23575/canvas/canvas-2270570#xywh=811,594,190,86", 
            "resource": {
                "@type": "cnt:ContentAsText", 
                "chars": "REGINALDO", 
                "format": "text/plain"
            }
        }, 
        {
            "@id": "https://manifests.teklia.com/HIMANIS/JJ035/words_annotations/FRCHANJJ_JJ035_0099V.json/107/line", 
            "@type": "oa:Annotation", 
            "motivation": "oa:painting", 
            "on": "http://bvmm.irht.cnrs.fr/iiif/23575/canvas/canvas-2270570#xywh=1210,2021,145,105", 
            "resource": {
                "@type": "cnt:ContentAsText", 
                "chars": "ARNAUS", 
                "format": "text/plain"
            }
        }, 
        {
            "@id": "https://manifests.teklia.com/HIMANIS/JJ035/words_annotations/FRCHANJJ_JJ035_0099V.json/108/line", 
            "@type": "oa:Annotation", 
            "motivation": "oa:painting", 
            "on": "http://bvmm.irht.cnrs.fr/iiif/23575/canvas/canvas-2270570#xywh=547,947,26,104", 
            "resource": {
                "@type": "cnt:ContentAsText", 
                "chars": "ET", 
                "format": "text/plain"
            }
        }, 
        {
            "@id": "https://manifests.teklia.com/HIMANIS/JJ035/words_annotations/FRCHANJJ_JJ035_0099V.json/109/line", 
            "@type": "oa:Annotation", 
            "motivation": "oa:painting", 
            "on": "http://bvmm.irht.cnrs.fr/iiif/23575/canvas/canvas-2270570#xywh=968,434,166,60", 
            "resource": {
                "@type": "cnt:ContentAsText", 
                "chars": "PETRAM", 
                "format": "text/plain"
            }
        }, 
        {
            "@id": "https://manifests.teklia.com/HIMANIS/JJ035/words_annotations/FRCHANJJ_JJ035_0099V.json/110/line", 
            "@type": "oa:Annotation", 
            "motivation": "oa:painting", 
            "on": "http://bvmm.irht.cnrs.fr/iiif/23575/canvas/canvas-2270570#xywh=968,434,177,60", 
            "resource": {
                "@type": "cnt:ContentAsText", 
                "chars": "PETRAN", 
                "format": "text/plain"
            }
        }, 
        {
            "@id": "https://manifests.teklia.com/HIMANIS/JJ035/words_annotations/FRCHANJJ_JJ035_0099V.json/111/line", 
            "@type": "oa:Annotation", 
            "motivation": "oa:painting", 
            "on": "http://bvmm.irht.cnrs.fr/iiif/23575/canvas/canvas-2270570#xywh=1195,1806,162,92", 
            "resource": {
                "@type": "cnt:ContentAsText", 
                "chars": "JURORI", 
                "format": "text/plain"
            }
        }, 
        {
            "@id": "https://manifests.teklia.com/HIMANIS/JJ035/words_annotations/FRCHANJJ_JJ035_0099V.json/112/line", 
            "@type": "oa:Annotation", 
            "motivation": "oa:painting", 
            "on": "http://bvmm.irht.cnrs.fr/iiif/23575/canvas/canvas-2270570#xywh=536,1075,30,79", 
            "resource": {
                "@type": "cnt:ContentAsText", 
                "chars": "ET", 
                "format": "text/plain"
            }
        }, 
        {
            "@id": "https://manifests.teklia.com/HIMANIS/JJ035/words_annotations/FRCHANJJ_JJ035_0099V.json/113/line", 
            "@type": "oa:Annotation", 
            "motivation": "oa:painting", 
            "on": "http://bvmm.irht.cnrs.fr/iiif/23575/canvas/canvas-2270570#xywh=1957,1326,181,45", 
            "resource": {
                "@type": "cnt:ContentAsText", 
                "chars": "JULIANCE", 
                "format": "text/plain"
            }
        }, 
        {
            "@id": "https://manifests.teklia.com/HIMANIS/JJ035/words_annotations/FRCHANJJ_JJ035_0099V.json/114/line", 
            "@type": "oa:Annotation", 
            "motivation": "oa:painting", 
            "on": "http://bvmm.irht.cnrs.fr/iiif/23575/canvas/canvas-2270570#xywh=369,2246,139,85", 
            "resource": {
                "@type": "cnt:ContentAsText", 
                "chars": "DILECTO", 
                "format": "text/plain"
            }
        }, 
        {
            "@id": "https://manifests.teklia.com/HIMANIS/JJ035/words_annotations/FRCHANJJ_JJ035_0099V.json/115/line", 
            "@type": "oa:Annotation", 
            "motivation": "oa:painting", 
            "on": "http://bvmm.irht.cnrs.fr/iiif/23575/canvas/canvas-2270570#xywh=784,837,145,105", 
            "resource": {
                "@type": "cnt:ContentAsText", 
                "chars": "VICECOMME", 
                "format": "text/plain"
            }
        }, 
        {
            "@id": "https://manifests.teklia.com/HIMANIS/JJ035/words_annotations/FRCHANJJ_JJ035_0099V.json/116/line", 
            "@type": "oa:Annotation", 
            "motivation": "oa:painting", 
            "on": "http://bvmm.irht.cnrs.fr/iiif/23575/canvas/canvas-2270570#xywh=361,404,140,65", 
            "resource": {
                "@type": "cnt:ContentAsText", 
                "chars": "KATO", 
                "format": "text/plain"
            }
        }, 
        {
            "@id": "https://manifests.teklia.com/HIMANIS/JJ035/words_annotations/FRCHANJJ_JJ035_0099V.json/117/line", 
            "@type": "oa:Annotation", 
            "motivation": "oa:painting", 
            "on": "http://bvmm.irht.cnrs.fr/iiif/23575/canvas/canvas-2270570#xywh=311,289,123,115", 
            "resource": {
                "@type": "cnt:ContentAsText", 
                "chars": "IN", 
                "format": "text/plain"
            }
        }, 
        {
            "@id": "https://manifests.teklia.com/HIMANIS/JJ035/words_annotations/FRCHANJJ_JJ035_0099V.json/118/line", 
            "@type": "oa:Annotation", 
            "motivation": "oa:painting", 
            "on": "http://bvmm.irht.cnrs.fr/iiif/23575/canvas/canvas-2270570#xywh=2040,1361,146,75", 
            "resource": {
                "@type": "cnt:ContentAsText", 
                "chars": "GENTIUM", 
                "format": "text/plain"
            }
        }, 
        {
            "@id": "https://manifests.teklia.com/HIMANIS/JJ035/words_annotations/FRCHANJJ_JJ035_0099V.json/119/line", 
            "@type": "oa:Annotation", 
            "motivation": "oa:painting", 
            "on": "http://bvmm.irht.cnrs.fr/iiif/23575/canvas/canvas-2270570#xywh=655,1075,70,79", 
            "resource": {
                "@type": "cnt:ContentAsText", 
                "chars": "NOSTRO", 
                "format": "text/plain"
            }
        }, 
        {
            "@id": "https://manifests.teklia.com/HIMANIS/JJ035/words_annotations/FRCHANJJ_JJ035_0099V.json/120/line", 
            "@type": "oa:Annotation", 
            "motivation": "oa:painting", 
            "on": "http://bvmm.irht.cnrs.fr/iiif/23575/canvas/canvas-2270570#xywh=804,2808,34,77", 
            "resource": {
                "@type": "cnt:ContentAsText", 
                "chars": "DE", 
                "format": "text/plain"
            }
        }, 
        {
            "@id": "https://manifests.teklia.com/HIMANIS/JJ035/words_annotations/FRCHANJJ_JJ035_0099V.json/121/line", 
            "@type": "oa:Annotation", 
            "motivation": "oa:painting", 
            "on": "http://bvmm.irht.cnrs.fr/iiif/23575/canvas/canvas-2270570#xywh=934,1075,159,79", 
            "resource": {
                "@type": "cnt:ContentAsText", 
                "chars": "FURELLO", 
                "format": "text/plain"
            }
        }, 
        {
            "@id": "https://manifests.teklia.com/HIMANIS/JJ035/words_annotations/FRCHANJJ_JJ035_0099V.json/122/line", 
            "@type": "oa:Annotation", 
            "motivation": "oa:painting", 
            "on": "http://bvmm.irht.cnrs.fr/iiif/23575/canvas/canvas-2270570#xywh=2149,1326,75,45", 
            "resource": {
                "@type": "cnt:ContentAsText", 
                "chars": "SCIA", 
                "format": "text/plain"
            }
        }, 
        {
            "@id": "https://manifests.teklia.com/HIMANIS/JJ035/words_annotations/FRCHANJJ_JJ035_0099V.json/123/line", 
            "@type": "oa:Annotation", 
            "motivation": "oa:painting", 
            "on": "http://bvmm.irht.cnrs.fr/iiif/23575/canvas/canvas-2270570#xywh=569,2598,178,60", 
            "resource": {
                "@type": "cnt:ContentAsText", 
                "chars": "MATHENUS", 
                "format": "text/plain"
            }
        }, 
        {
            "@id": "https://manifests.teklia.com/HIMANIS/JJ035/words_annotations/FRCHANJJ_JJ035_0099V.json/124/line", 
            "@type": "oa:Annotation", 
            "motivation": "oa:painting", 
            "on": "http://bvmm.irht.cnrs.fr/iiif/23575/canvas/canvas-2270570#xywh=531,687,23,90", 
            "resource": {
                "@type": "cnt:ContentAsText", 
                "chars": "ET", 
                "format": "text/plain"
            }
        }, 
        {
            "@id": "https://manifests.teklia.com/HIMANIS/JJ035/words_annotations/FRCHANJJ_JJ035_0099V.json/125/line", 
            "@type": "oa:Annotation", 
            "motivation": "oa:painting", 
            "on": "http://bvmm.irht.cnrs.fr/iiif/23575/canvas/canvas-2270570#xywh=546,404,13,65", 
            "resource": {
                "@type": "cnt:ContentAsText", 
                "chars": "ET", 
                "format": "text/plain"
            }
        }, 
        {
            "@id": "https://manifests.teklia.com/HIMANIS/JJ035/words_annotations/FRCHANJJ_JJ035_0099V.json/126/line", 
            "@type": "oa:Annotation", 
            "motivation": "oa:painting", 
            "on": "http://bvmm.irht.cnrs.fr/iiif/23575/canvas/canvas-2270570#xywh=845,2246,42,85", 
            "resource": {
                "@type": "cnt:ContentAsText", 
                "chars": "DE", 
                "format": "text/plain"
            }
        }, 
        {
            "@id": "https://manifests.teklia.com/HIMANIS/JJ035/words_annotations/FRCHANJJ_JJ035_0099V.json/127/line", 
            "@type": "oa:Annotation", 
            "motivation": "oa:painting", 
            "on": "http://bvmm.irht.cnrs.fr/iiif/23575/canvas/canvas-2270570#xywh=966,1371,37,75", 
            "resource": {
                "@type": "cnt:ContentAsText", 
                "chars": "AC", 
                "format": "text/plain"
            }
        }, 
        {
            "@id": "https://manifests.teklia.com/HIMANIS/JJ035/words_annotations/FRCHANJJ_JJ035_0099V.json/128/line", 
            "@type": "oa:Annotation", 
            "motivation": "oa:painting", 
            "on": "http://bvmm.irht.cnrs.fr/iiif/23575/canvas/canvas-2270570#xywh=1121,2126,108,115", 
            "resource": {
                "@type": "cnt:ContentAsText", 
                "chars": "NOUS", 
                "format": "text/plain"
            }
        }, 
        {
            "@id": "https://manifests.teklia.com/HIMANIS/JJ035/words_annotations/FRCHANJJ_JJ035_0099V.json/129/line", 
            "@type": "oa:Annotation", 
            "motivation": "oa:painting", 
            "on": "http://bvmm.irht.cnrs.fr/iiif/23575/canvas/canvas-2270570#xywh=388,2668,144,95", 
            "resource": {
                "@type": "cnt:ContentAsText", 
                "chars": "DILECTOS", 
                "format": "text/plain"
            }
        }, 
        {
            "@id": "https://manifests.teklia.com/HIMANIS/JJ035/words_annotations/FRCHANJJ_JJ035_0099V.json/130/line", 
            "@type": "oa:Annotation", 
            "motivation": "oa:painting", 
            "on": "http://bvmm.irht.cnrs.fr/iiif/23575/canvas/canvas-2270570#xywh=1268,1695,162,99", 
            "resource": {
                "@type": "cnt:ContentAsText", 
                "chars": "SEMORI", 
                "format": "text/plain"
            }
        }, 
        {
            "@id": "https://manifests.teklia.com/HIMANIS/JJ035/words_annotations/FRCHANJJ_JJ035_0099V.json/131/line", 
            "@type": "oa:Annotation", 
            "motivation": "oa:painting", 
            "on": "http://bvmm.irht.cnrs.fr/iiif/23575/canvas/canvas-2270570#xywh=602,1371,104,75", 
            "resource": {
                "@type": "cnt:ContentAsText", 
                "chars": "ET", 
                "format": "text/plain"
            }
        }, 
        {
            "@id": "https://manifests.teklia.com/HIMANIS/JJ035/words_annotations/FRCHANJJ_JJ035_0099V.json/132/line", 
            "@type": "oa:Annotation", 
            "motivation": "oa:painting", 
            "on": "http://bvmm.irht.cnrs.fr/iiif/23575/canvas/canvas-2270570#xywh=528,1241,72,105", 
            "resource": {
                "@type": "cnt:ContentAsText", 
                "chars": "NOSTRO", 
                "format": "text/plain"
            }
        }, 
        {
            "@id": "https://manifests.teklia.com/HIMANIS/JJ035/words_annotations/FRCHANJJ_JJ035_0099V.json/133/line", 
            "@type": "oa:Annotation", 
            "motivation": "oa:painting", 
            "on": "http://bvmm.irht.cnrs.fr/iiif/23575/canvas/canvas-2270570#xywh=380,1806,139,92", 
            "resource": {
                "@type": "cnt:ContentAsText", 
                "chars": "DICTO", 
                "format": "text/plain"
            }
        }, 
        {
            "@id": "https://manifests.teklia.com/HIMANIS/JJ035/words_annotations/FRCHANJJ_JJ035_0099V.json/134/line", 
            "@type": "oa:Annotation", 
            "motivation": "oa:painting", 
            "on": "http://bvmm.irht.cnrs.fr/iiif/23575/canvas/canvas-2270570#xywh=358,2808,160,77", 
            "resource": {
                "@type": "cnt:ContentAsText", 
                "chars": "DILECTO", 
                "format": "text/plain"
            }
        }, 
        {
            "@id": "https://manifests.teklia.com/HIMANIS/JJ035/words_annotations/FRCHANJJ_JJ035_0099V.json/135/line", 
            "@type": "oa:Annotation", 
            "motivation": "oa:painting", 
            "on": "http://bvmm.irht.cnrs.fr/iiif/23575/canvas/canvas-2270570#xywh=1133,1075,169,79", 
            "resource": {
                "@type": "cnt:ContentAsText", 
                "chars": "ARMIGER", 
                "format": "text/plain"
            }
        }, 
        {
            "@id": "https://manifests.teklia.com/HIMANIS/JJ035/words_annotations/FRCHANJJ_JJ035_0099V.json/136/line", 
            "@type": "oa:Annotation", 
            "motivation": "oa:painting", 
            "on": "http://bvmm.irht.cnrs.fr/iiif/23575/canvas/canvas-2270570#xywh=540,777,14,75", 
            "resource": {
                "@type": "cnt:ContentAsText", 
                "chars": "ET", 
                "format": "text/plain"
            }
        }, 
        {
            "@id": "https://manifests.teklia.com/HIMANIS/JJ035/words_annotations/FRCHANJJ_JJ035_0099V.json/137/line", 
            "@type": "oa:Annotation", 
            "motivation": "oa:painting", 
            "on": "http://bvmm.irht.cnrs.fr/iiif/23575/canvas/canvas-2270570#xywh=1191,1472,117,109", 
            "resource": {
                "@type": "cnt:ContentAsText", 
                "chars": "MILITE", 
                "format": "text/plain"
            }
        }, 
        {
            "@id": "https://manifests.teklia.com/HIMANIS/JJ035/words_annotations/FRCHANJJ_JJ035_0099V.json/138/line", 
            "@type": "oa:Annotation", 
            "motivation": "oa:painting", 
            "on": "http://bvmm.irht.cnrs.fr/iiif/23575/canvas/canvas-2270570#xywh=987,2668,35,95", 
            "resource": {
                "@type": "cnt:ContentAsText", 
                "chars": "DE", 
                "format": "text/plain"
            }
        }, 
        {
            "@id": "https://manifests.teklia.com/HIMANIS/JJ035/words_annotations/FRCHANJJ_JJ035_0099V.json/139/line", 
            "@type": "oa:Annotation", 
            "motivation": "oa:painting", 
            "on": "http://bvmm.irht.cnrs.fr/iiif/23575/canvas/canvas-2270570#xywh=398,2553,275,45", 
            "resource": {
                "@type": "cnt:ContentAsText", 
                "chars": "TENEUR", 
                "format": "text/plain"
            }
        }, 
        {
            "@id": "https://manifests.teklia.com/HIMANIS/JJ035/words_annotations/FRCHANJJ_JJ035_0099V.json/140/line", 
            "@type": "oa:Annotation", 
            "motivation": "oa:painting", 
            "on": "http://bvmm.irht.cnrs.fr/iiif/23575/canvas/canvas-2270570#xywh=1191,1472,117,109", 
            "resource": {
                "@type": "cnt:ContentAsText", 
                "chars": "MILITI", 
                "format": "text/plain"
            }
        }, 
        {
            "@id": "https://manifests.teklia.com/HIMANIS/JJ035/words_annotations/FRCHANJJ_JJ035_0099V.json/141/line", 
            "@type": "oa:Annotation", 
            "motivation": "oa:painting", 
            "on": "http://bvmm.irht.cnrs.fr/iiif/23575/canvas/canvas-2270570#xywh=398,2553,0,45", 
            "resource": {
                "@type": "cnt:ContentAsText", 
                "chars": "A", 
                "format": "text/plain"
            }
        }, 
        {
            "@id": "https://manifests.teklia.com/HIMANIS/JJ035/words_annotations/FRCHANJJ_JJ035_0099V.json/142/line", 
            "@type": "oa:Annotation", 
            "motivation": "oa:painting", 
            "on": "http://bvmm.irht.cnrs.fr/iiif/23575/canvas/canvas-2270570#xywh=833,1371,109,75", 
            "resource": {
                "@type": "cnt:ContentAsText", 
                "chars": "CAUSE", 
                "format": "text/plain"
            }
        }, 
        {
            "@id": "https://manifests.teklia.com/HIMANIS/JJ035/words_annotations/FRCHANJJ_JJ035_0099V.json/143/line", 
            "@type": "oa:Annotation", 
            "motivation": "oa:painting", 
            "on": "http://bvmm.irht.cnrs.fr/iiif/23575/canvas/canvas-2270570#xywh=527,837,33,105", 
            "resource": {
                "@type": "cnt:ContentAsText", 
                "chars": "ET", 
                "format": "text/plain"
            }
        }, 
        {
            "@id": "https://manifests.teklia.com/HIMANIS/JJ035/words_annotations/FRCHANJJ_JJ035_0099V.json/144/line", 
            "@type": "oa:Annotation", 
            "motivation": "oa:painting", 
            "on": "http://bvmm.irht.cnrs.fr/iiif/23575/canvas/canvas-2270570#xywh=527,494,19,100", 
            "resource": {
                "@type": "cnt:ContentAsText", 
                "chars": "ET", 
                "format": "text/plain"
            }
        }, 
        {
            "@id": "https://manifests.teklia.com/HIMANIS/JJ035/words_annotations/FRCHANJJ_JJ035_0099V.json/145/line", 
            "@type": "oa:Annotation", 
            "motivation": "oa:painting", 
            "on": "http://bvmm.irht.cnrs.fr/iiif/23575/canvas/canvas-2270570#xywh=1046,1371,66,75", 
            "resource": {
                "@type": "cnt:ContentAsText", 
                "chars": "NUL", 
                "format": "text/plain"
            }
        }, 
        {
            "@id": "https://manifests.teklia.com/HIMANIS/JJ035/words_annotations/FRCHANJJ_JJ035_0099V.json/146/line", 
            "@type": "oa:Annotation", 
            "motivation": "oa:painting", 
            "on": "http://bvmm.irht.cnrs.fr/iiif/23575/canvas/canvas-2270570#xywh=658,1695,174,99", 
            "resource": {
                "@type": "cnt:ContentAsText", 
                "chars": "ARNALDO", 
                "format": "text/plain"
            }
        }, 
        {
            "@id": "https://manifests.teklia.com/HIMANIS/JJ035/words_annotations/FRCHANJJ_JJ035_0099V.json/147/line", 
            "@type": "oa:Annotation", 
            "motivation": "oa:painting", 
            "on": "http://bvmm.irht.cnrs.fr/iiif/23575/canvas/canvas-2270570#xywh=384,687,125,90", 
            "resource": {
                "@type": "cnt:ContentAsText", 
                "chars": "DILECTO", 
                "format": "text/plain"
            }
        }, 
        {
            "@id": "https://manifests.teklia.com/HIMANIS/JJ035/words_annotations/FRCHANJJ_JJ035_0099V.json/148/line", 
            "@type": "oa:Annotation", 
            "motivation": "oa:painting", 
            "on": "http://bvmm.irht.cnrs.fr/iiif/23575/canvas/canvas-2270570#xywh=670,1472,164,109", 
            "resource": {
                "@type": "cnt:ContentAsText", 
                "chars": "AYMERITO", 
                "format": "text/plain"
            }
        }, 
        {
            "@id": "https://manifests.teklia.com/HIMANIS/JJ035/words_annotations/FRCHANJJ_JJ035_0099V.json/149/line", 
            "@type": "oa:Annotation", 
            "motivation": "oa:painting", 
            "on": "http://bvmm.irht.cnrs.fr/iiif/23575/canvas/canvas-2270570#xywh=383,594,114,86", 
            "resource": {
                "@type": "cnt:ContentAsText", 
                "chars": "DILECTO", 
                "format": "text/plain"
            }
        }, 
        {
            "@id": "https://manifests.teklia.com/HIMANIS/JJ035/words_annotations/FRCHANJJ_JJ035_0099V.json/150/line", 
            "@type": "oa:Annotation", 
            "motivation": "oa:painting", 
            "on": "http://bvmm.irht.cnrs.fr/iiif/23575/canvas/canvas-2270570#xywh=395,494,107,100", 
            "resource": {
                "@type": "cnt:ContentAsText", 
                "chars": "DILECTO", 
                "format": "text/plain"
            }
        }, 
        {
            "@id": "https://manifests.teklia.com/HIMANIS/JJ035/words_annotations/FRCHANJJ_JJ035_0099V.json/151/line", 
            "@type": "oa:Annotation", 
            "motivation": "oa:painting", 
            "on": "http://bvmm.irht.cnrs.fr/iiif/23575/canvas/canvas-2270570#xywh=529,594,11,86", 
            "resource": {
                "@type": "cnt:ContentAsText", 
                "chars": "ET", 
                "format": "text/plain"
            }
        }, 
        {
            "@id": "https://manifests.teklia.com/HIMANIS/JJ035/words_annotations/FRCHANJJ_JJ035_0099V.json/152/line", 
            "@type": "oa:Annotation", 
            "motivation": "oa:painting", 
            "on": "http://bvmm.irht.cnrs.fr/iiif/23575/canvas/canvas-2270570#xywh=398,2553,275,45", 
            "resource": {
                "@type": "cnt:ContentAsText", 
                "chars": "TENORE", 
                "format": "text/plain"
            }
        }, 
        {
            "@id": "https://manifests.teklia.com/HIMANIS/JJ035/words_annotations/FRCHANJJ_JJ035_0099V.json/153/line", 
            "@type": "oa:Annotation", 
            "motivation": "oa:painting", 
            "on": "http://bvmm.irht.cnrs.fr/iiif/23575/canvas/canvas-2270570#xywh=784,837,178,105", 
            "resource": {
                "@type": "cnt:ContentAsText", 
                "chars": "VICECOMITI", 
                "format": "text/plain"
            }
        }, 
        {
            "@id": "https://manifests.teklia.com/HIMANIS/JJ035/words_annotations/FRCHANJJ_JJ035_0099V.json/154/line", 
            "@type": "oa:Annotation", 
            "motivation": "oa:painting", 
            "on": "http://bvmm.irht.cnrs.fr/iiif/23575/canvas/canvas-2270570#xywh=664,947,151,104", 
            "resource": {
                "@type": "cnt:ContentAsText", 
                "chars": "SERALIIS", 
                "format": "text/plain"
            }
        }, 
        {
            "@id": "https://manifests.teklia.com/HIMANIS/JJ035/words_annotations/FRCHANJJ_JJ035_0099V.json/155/line", 
            "@type": "oa:Annotation", 
            "motivation": "oa:painting", 
            "on": "http://bvmm.irht.cnrs.fr/iiif/23575/canvas/canvas-2270570#xywh=860,1806,110,92", 
            "resource": {
                "@type": "cnt:ContentAsText", 
                "chars": "MONTE", 
                "format": "text/plain"
            }
        }, 
        {
            "@id": "https://manifests.teklia.com/HIMANIS/JJ035/words_annotations/FRCHANJJ_JJ035_0099V.json/156/line", 
            "@type": "oa:Annotation", 
            "motivation": "oa:painting", 
            "on": "http://bvmm.irht.cnrs.fr/iiif/23575/canvas/canvas-2270570#xywh=664,947,151,104", 
            "resource": {
                "@type": "cnt:ContentAsText", 
                "chars": "CERALIIS", 
                "format": "text/plain"
            }
        }, 
        {
            "@id": "https://manifests.teklia.com/HIMANIS/JJ035/words_annotations/FRCHANJJ_JJ035_0099V.json/157/line", 
            "@type": "oa:Annotation", 
            "motivation": "oa:painting", 
            "on": "http://bvmm.irht.cnrs.fr/iiif/23575/canvas/canvas-2270570#xywh=1879,1361,47,75", 
            "resource": {
                "@type": "cnt:ContentAsText", 
                "chars": "CUM", 
                "format": "text/plain"
            }
        }, 
        {
            "@id": "https://manifests.teklia.com/HIMANIS/JJ035/words_annotations/FRCHANJJ_JJ035_0099V.json/158/line", 
            "@type": "oa:Annotation", 
            "motivation": "oa:painting", 
            "on": "http://bvmm.irht.cnrs.fr/iiif/23575/canvas/canvas-2270570#xywh=542,1806,75,92", 
            "resource": {
                "@type": "cnt:ContentAsText", 
                "chars": "NOSTRO", 
                "format": "text/plain"
            }
        }, 
        {
            "@id": "https://manifests.teklia.com/HIMANIS/JJ035/words_annotations/FRCHANJJ_JJ035_0099V.json/159/line", 
            "@type": "oa:Annotation", 
            "motivation": "oa:painting", 
            "on": "http://bvmm.irht.cnrs.fr/iiif/23575/canvas/canvas-2270570#xywh=650,687,74,90", 
            "resource": {
                "@type": "cnt:ContentAsText", 
                "chars": "NOSTRO", 
                "format": "text/plain"
            }
        }, 
        {
            "@id": "https://manifests.teklia.com/HIMANIS/JJ035/words_annotations/FRCHANJJ_JJ035_0099V.json/160/line", 
            "@type": "oa:Annotation", 
            "motivation": "oa:painting", 
            "on": "http://bvmm.irht.cnrs.fr/iiif/23575/canvas/canvas-2270570#xywh=1210,2021,198,105", 
            "resource": {
                "@type": "cnt:ContentAsText", 
                "chars": "ARNUTEN", 
                "format": "text/plain"
            }
        }, 
        {
            "@id": "https://manifests.teklia.com/HIMANIS/JJ035/words_annotations/FRCHANJJ_JJ035_0099V.json/161/line", 
            "@type": "oa:Annotation", 
            "motivation": "oa:painting", 
            "on": "http://bvmm.irht.cnrs.fr/iiif/23575/canvas/canvas-2270570#xywh=1945,1361,57,75", 
            "resource": {
                "@type": "cnt:ContentAsText", 
                "chars": "CCCO", 
                "format": "text/plain"
            }
        }, 
        {
            "@id": "https://manifests.teklia.com/HIMANIS/JJ035/words_annotations/FRCHANJJ_JJ035_0099V.json/162/line", 
            "@type": "oa:Annotation", 
            "motivation": "oa:painting", 
            "on": "http://bvmm.irht.cnrs.fr/iiif/23575/canvas/canvas-2270570#xywh=369,837,138,105", 
            "resource": {
                "@type": "cnt:ContentAsText", 
                "chars": "DILECTO", 
                "format": "text/plain"
            }
        }, 
        {
            "@id": "https://manifests.teklia.com/HIMANIS/JJ035/words_annotations/FRCHANJJ_JJ035_0099V.json/163/line", 
            "@type": "oa:Annotation", 
            "motivation": "oa:painting", 
            "on": "http://bvmm.irht.cnrs.fr/iiif/23575/canvas/canvas-2270570#xywh=687,2668,78,95", 
            "resource": {
                "@type": "cnt:ContentAsText", 
                "chars": "NOSTRO", 
                "format": "text/plain"
            }
        }, 
        {
            "@id": "https://manifests.teklia.com/HIMANIS/JJ035/words_annotations/FRCHANJJ_JJ035_0099V.json/164/line", 
            "@type": "oa:Annotation", 
            "motivation": "oa:painting", 
            "on": "http://bvmm.irht.cnrs.fr/iiif/23575/canvas/canvas-2270570#xywh=379,777,123,75", 
            "resource": {
                "@type": "cnt:ContentAsText", 
                "chars": "DILECTO", 
                "format": "text/plain"
            }
        }, 
        {
            "@id": "https://manifests.teklia.com/HIMANIS/JJ035/words_annotations/FRCHANJJ_JJ035_0099V.json/165/line", 
            "@type": "oa:Annotation", 
            "motivation": "oa:painting", 
            "on": "http://bvmm.irht.cnrs.fr/iiif/23575/canvas/canvas-2270570#xywh=531,2021,93,105", 
            "resource": {
                "@type": "cnt:ContentAsText", 
                "chars": "NOSTRO", 
                "format": "text/plain"
            }
        }, 
        {
            "@id": "https://manifests.teklia.com/HIMANIS/JJ035/words_annotations/FRCHANJJ_JJ035_0099V.json/166/line", 
            "@type": "oa:Annotation", 
            "motivation": "oa:painting", 
            "on": "http://bvmm.irht.cnrs.fr/iiif/23575/canvas/canvas-2270570#xywh=894,2021,171,105", 
            "resource": {
                "@type": "cnt:ContentAsText", 
                "chars": "DURO", 
                "format": "text/plain"
            }
        }, 
        {
            "@id": "https://manifests.teklia.com/HIMANIS/JJ035/words_annotations/FRCHANJJ_JJ035_0099V.json/167/line", 
            "@type": "oa:Annotation", 
            "motivation": "oa:painting", 
            "on": "http://bvmm.irht.cnrs.fr/iiif/23575/canvas/canvas-2270570#xywh=1647,1361,99,75", 
            "resource": {
                "@type": "cnt:ContentAsText", 
                "chars": "QUIS", 
                "format": "text/plain"
            }
        }, 
        {
            "@id": "https://manifests.teklia.com/HIMANIS/JJ035/words_annotations/FRCHANJJ_JJ035_0099V.json/168/line", 
            "@type": "oa:Annotation", 
            "motivation": "oa:painting", 
            "on": "http://bvmm.irht.cnrs.fr/iiif/23575/canvas/canvas-2270570#xywh=861,1941,66,75", 
            "resource": {
                "@type": "cnt:ContentAsText", 
                "chars": "REDEN", 
                "format": "text/plain"
            }
        }, 
        {
            "@id": "https://manifests.teklia.com/HIMANIS/JJ035/words_annotations/FRCHANJJ_JJ035_0099V.json/169/line", 
            "@type": "oa:Annotation", 
            "motivation": "oa:painting", 
            "on": "http://bvmm.irht.cnrs.fr/iiif/23575/canvas/canvas-2270570#xywh=861,1941,85,75", 
            "resource": {
                "@type": "cnt:ContentAsText", 
                "chars": "REDAM", 
                "format": "text/plain"
            }
        }, 
        {
            "@id": "https://manifests.teklia.com/HIMANIS/JJ035/words_annotations/FRCHANJJ_JJ035_0099V.json/170/line", 
            "@type": "oa:Annotation", 
            "motivation": "oa:painting", 
            "on": "http://bvmm.irht.cnrs.fr/iiif/23575/canvas/canvas-2270570#xywh=914,2246,155,85", 
            "resource": {
                "@type": "cnt:ContentAsText", 
                "chars": "MONTE", 
                "format": "text/plain"
            }
        }, 
        {
            "@id": "https://manifests.teklia.com/HIMANIS/JJ035/words_annotations/FRCHANJJ_JJ035_0099V.json/171/line", 
            "@type": "oa:Annotation", 
            "motivation": "oa:painting", 
            "on": "http://bvmm.irht.cnrs.fr/iiif/23575/canvas/canvas-2270570#xywh=867,2808,155,77", 
            "resource": {
                "@type": "cnt:ContentAsText", 
                "chars": "SENERAC", 
                "format": "text/plain"
            }
        }, 
        {
            "@id": "https://manifests.teklia.com/HIMANIS/JJ035/words_annotations/FRCHANJJ_JJ035_0099V.json/172/line", 
            "@type": "oa:Annotation", 
            "motivation": "oa:painting", 
            "on": "http://bvmm.irht.cnrs.fr/iiif/23575/canvas/canvas-2270570#xywh=1957,1326,135,45", 
            "resource": {
                "@type": "cnt:ContentAsText", 
                "chars": "JULIANTES", 
                "format": "text/plain"
            }
        }, 
        {
            "@id": "https://manifests.teklia.com/HIMANIS/JJ035/words_annotations/FRCHANJJ_JJ035_0099V.json/173/line", 
            "@type": "oa:Annotation", 
            "motivation": "oa:painting", 
            "on": "http://bvmm.irht.cnrs.fr/iiif/23575/canvas/canvas-2270570#xywh=359,1695,162,99", 
            "resource": {
                "@type": "cnt:ContentAsText", 
                "chars": "DILECTO", 
                "format": "text/plain"
            }
        }, 
        {
            "@id": "https://manifests.teklia.com/HIMANIS/JJ035/words_annotations/FRCHANJJ_JJ035_0099V.json/174/line", 
            "@type": "oa:Annotation", 
            "motivation": "oa:painting", 
            "on": "http://bvmm.irht.cnrs.fr/iiif/23575/canvas/canvas-2270570#xywh=867,2808,131,77", 
            "resource": {
                "@type": "cnt:ContentAsText", 
                "chars": "SEVERAT", 
                "format": "text/plain"
            }
        }, 
        {
            "@id": "https://manifests.teklia.com/HIMANIS/JJ035/words_annotations/FRCHANJJ_JJ035_0099V.json/175/line", 
            "@type": "oa:Annotation", 
            "motivation": "oa:painting", 
            "on": "http://bvmm.irht.cnrs.fr/iiif/23575/canvas/canvas-2270570#xywh=867,2808,155,77", 
            "resource": {
                "@type": "cnt:ContentAsText", 
                "chars": "SENERAT", 
                "format": "text/plain"
            }
        }, 
        {
            "@id": "https://manifests.teklia.com/HIMANIS/JJ035/words_annotations/FRCHANJJ_JJ035_0099V.json/176/line", 
            "@type": "oa:Annotation", 
            "motivation": "oa:painting", 
            "on": "http://bvmm.irht.cnrs.fr/iiif/23575/canvas/canvas-2270570#xywh=52,1581,463,105", 
            "resource": {
                "@type": "cnt:ContentAsText", 
                "chars": "DILECTO", 
                "format": "text/plain"
            }
        }, 
        {
            "@id": "https://manifests.teklia.com/HIMANIS/JJ035/words_annotations/FRCHANJJ_JJ035_0099V.json/177/line", 
            "@type": "oa:Annotation", 
            "motivation": "oa:painting", 
            "on": "http://bvmm.irht.cnrs.fr/iiif/23575/canvas/canvas-2270570#xywh=951,1472,192,109", 
            "resource": {
                "@type": "cnt:ContentAsText", 
                "chars": "COURDON", 
                "format": "text/plain"
            }
        }, 
        {
            "@id": "https://manifests.teklia.com/HIMANIS/JJ035/words_annotations/FRCHANJJ_JJ035_0099V.json/178/line", 
            "@type": "oa:Annotation", 
            "motivation": "oa:painting", 
            "on": "http://bvmm.irht.cnrs.fr/iiif/23575/canvas/canvas-2270570#xywh=1064,2668,132,95", 
            "resource": {
                "@type": "cnt:ContentAsText", 
                "chars": "ORILLAT", 
                "format": "text/plain"
            }
        }, 
        {
            "@id": "https://manifests.teklia.com/HIMANIS/JJ035/words_annotations/FRCHANJJ_JJ035_0099V.json/179/line", 
            "@type": "oa:Annotation", 
            "motivation": "oa:painting", 
            "on": "http://bvmm.irht.cnrs.fr/iiif/23575/canvas/canvas-2270570#xywh=1725,1326,147,45", 
            "resource": {
                "@type": "cnt:ContentAsText", 
                "chars": "PICTANCIA", 
                "format": "text/plain"
            }
        }, 
        {
            "@id": "https://manifests.teklia.com/HIMANIS/JJ035/words_annotations/FRCHANJJ_JJ035_0099V.json/180/line", 
            "@type": "oa:Annotation", 
            "motivation": "oa:painting", 
            "on": "http://bvmm.irht.cnrs.fr/iiif/23575/canvas/canvas-2270570#xywh=1104,1581,390,105", 
            "resource": {
                "@type": "cnt:ContentAsText", 
                "chars": "NOVOMINITI", 
                "format": "text/plain"
            }
        }, 
        {
            "@id": "https://manifests.teklia.com/HIMANIS/JJ035/words_annotations/FRCHANJJ_JJ035_0099V.json/181/line", 
            "@type": "oa:Annotation", 
            "motivation": "oa:painting", 
            "on": "http://bvmm.irht.cnrs.fr/iiif/23575/canvas/canvas-2270570#xywh=797,494,163,100", 
            "resource": {
                "@type": "cnt:ContentAsText", 
                "chars": "VICECOMITI", 
                "format": "text/plain"
            }
        }, 
        {
            "@id": "https://manifests.teklia.com/HIMANIS/JJ035/words_annotations/FRCHANJJ_JJ035_0099V.json/182/line", 
            "@type": "oa:Annotation", 
            "motivation": "oa:painting", 
            "on": "http://bvmm.irht.cnrs.fr/iiif/23575/canvas/canvas-2270570#xywh=963,1241,231,105", 
            "resource": {
                "@type": "cnt:ContentAsText", 
                "chars": "COMBARGNI", 
                "format": "text/plain"
            }
        }, 
        {
            "@id": "https://manifests.teklia.com/HIMANIS/JJ035/words_annotations/FRCHANJJ_JJ035_0099V.json/183/line", 
            "@type": "oa:Annotation", 
            "motivation": "oa:painting", 
            "on": "http://bvmm.irht.cnrs.fr/iiif/23575/canvas/canvas-2270570#xywh=328,2126,180,115", 
            "resource": {
                "@type": "cnt:ContentAsText", 
                "chars": "DILECTO", 
                "format": "text/plain"
            }
        }, 
        {
            "@id": "https://manifests.teklia.com/HIMANIS/JJ035/words_annotations/FRCHANJJ_JJ035_0099V.json/184/line", 
            "@type": "oa:Annotation", 
            "motivation": "oa:painting", 
            "on": "http://bvmm.irht.cnrs.fr/iiif/23575/canvas/canvas-2270570#xywh=1104,1581,410,105", 
            "resource": {
                "@type": "cnt:ContentAsText", 
                "chars": "NOVOMISITI", 
                "format": "text/plain"
            }
        }, 
        {
            "@id": "https://manifests.teklia.com/HIMANIS/JJ035/words_annotations/FRCHANJJ_JJ035_0099V.json/185/line", 
            "@type": "oa:Annotation", 
            "motivation": "oa:painting", 
            "on": "http://bvmm.irht.cnrs.fr/iiif/23575/canvas/canvas-2270570#xywh=367,2021,138,105", 
            "resource": {
                "@type": "cnt:ContentAsText", 
                "chars": "DILECTO", 
                "format": "text/plain"
            }
        }, 
        {
            "@id": "https://manifests.teklia.com/HIMANIS/JJ035/words_annotations/FRCHANJJ_JJ035_0099V.json/186/line", 
            "@type": "oa:Annotation", 
            "motivation": "oa:painting", 
            "on": "http://bvmm.irht.cnrs.fr/iiif/23575/canvas/canvas-2270570#xywh=802,1806,35,92", 
            "resource": {
                "@type": "cnt:ContentAsText", 
                "chars": "DE", 
                "format": "text/plain"
            }
        }, 
        {
            "@id": "https://manifests.teklia.com/HIMANIS/JJ035/words_annotations/FRCHANJJ_JJ035_0099V.json/187/line", 
            "@type": "oa:Annotation", 
            "motivation": "oa:painting", 
            "on": "http://bvmm.irht.cnrs.fr/iiif/23575/canvas/canvas-2270570#xywh=886,1581,39,105", 
            "resource": {
                "@type": "cnt:ContentAsText", 
                "chars": "DE", 
                "format": "text/plain"
            }
        }, 
        {
            "@id": "https://manifests.teklia.com/HIMANIS/JJ035/words_annotations/FRCHANJJ_JJ035_0099V.json/188/line", 
            "@type": "oa:Annotation", 
            "motivation": "oa:painting", 
            "on": "http://bvmm.irht.cnrs.fr/iiif/23575/canvas/canvas-2270570#xywh=765,1075,79,79", 
            "resource": {
                "@type": "cnt:ContentAsText", 
                "chars": "BONS", 
                "format": "text/plain"
            }
        }, 
        {
            "@id": "https://manifests.teklia.com/HIMANIS/JJ035/words_annotations/FRCHANJJ_JJ035_0099V.json/189/line", 
            "@type": "oa:Annotation", 
            "motivation": "oa:painting", 
            "on": "http://bvmm.irht.cnrs.fr/iiif/23575/canvas/canvas-2270570#xywh=1064,687,136,90", 
            "resource": {
                "@type": "cnt:ContentAsText", 
                "chars": "PONTE", 
                "format": "text/plain"
            }
        }, 
        {
            "@id": "https://manifests.teklia.com/HIMANIS/JJ035/words_annotations/FRCHANJJ_JJ035_0099V.json/190/line", 
            "@type": "oa:Annotation", 
            "motivation": "oa:painting", 
            "on": "http://bvmm.irht.cnrs.fr/iiif/23575/canvas/canvas-2270570#xywh=377,1941,133,75", 
            "resource": {
                "@type": "cnt:ContentAsText", 
                "chars": "DILECTO", 
                "format": "text/plain"
            }
        }, 
        {
            "@id": "https://manifests.teklia.com/HIMANIS/JJ035/words_annotations/FRCHANJJ_JJ035_0099V.json/191/line", 
            "@type": "oa:Annotation", 
            "motivation": "oa:painting", 
            "on": "http://bvmm.irht.cnrs.fr/iiif/23575/canvas/canvas-2270570#xywh=578,289,223,115", 
            "resource": {
                "@type": "cnt:ContentAsText", 
                "chars": "PETRAGORA", 
                "format": "text/plain"
            }
        }, 
        {
            "@id": "https://manifests.teklia.com/HIMANIS/JJ035/words_annotations/FRCHANJJ_JJ035_0099V.json/192/line", 
            "@type": "oa:Annotation", 
            "motivation": "oa:painting", 
            "on": "http://bvmm.irht.cnrs.fr/iiif/23575/canvas/canvas-2270570#xywh=1182,947,65,104", 
            "resource": {
                "@type": "cnt:ContentAsText", 
                "chars": "NOSTRE", 
                "format": "text/plain"
            }
        }, 
        {
            "@id": "https://manifests.teklia.com/HIMANIS/JJ035/words_annotations/FRCHANJJ_JJ035_0099V.json/193/line", 
            "@type": "oa:Annotation", 
            "motivation": "oa:painting", 
            "on": "http://bvmm.irht.cnrs.fr/iiif/23575/canvas/canvas-2270570#xywh=1182,947,65,104", 
            "resource": {
                "@type": "cnt:ContentAsText", 
                "chars": "NOSTRI", 
                "format": "text/plain"
            }
        }, 
        {
            "@id": "https://manifests.teklia.com/HIMANIS/JJ035/words_annotations/FRCHANJJ_JJ035_0099V.json/194/line", 
            "@type": "oa:Annotation", 
            "motivation": "oa:painting", 
            "on": "http://bvmm.irht.cnrs.fr/iiif/23575/canvas/canvas-2270570#xywh=578,289,230,115", 
            "resource": {
                "@type": "cnt:ContentAsText", 
                "chars": "PETRAGORI", 
                "format": "text/plain"
            }
        }, 
        {
            "@id": "https://manifests.teklia.com/HIMANIS/JJ035/words_annotations/FRCHANJJ_JJ035_0099V.json/195/line", 
            "@type": "oa:Annotation", 
            "motivation": "oa:painting", 
            "on": "http://bvmm.irht.cnrs.fr/iiif/23575/canvas/canvas-2270570#xywh=535,1581,73,105", 
            "resource": {
                "@type": "cnt:ContentAsText", 
                "chars": "NOSTRO", 
                "format": "text/plain"
            }
        }, 
        {
            "@id": "https://manifests.teklia.com/HIMANIS/JJ035/words_annotations/FRCHANJJ_JJ035_0099V.json/196/line", 
            "@type": "oa:Annotation", 
            "motivation": "oa:painting", 
            "on": "http://bvmm.irht.cnrs.fr/iiif/23575/canvas/canvas-2270570#xywh=1182,947,65,104", 
            "resource": {
                "@type": "cnt:ContentAsText", 
                "chars": "NOSTRO", 
                "format": "text/plain"
            }
        }, 
        {
            "@id": "https://manifests.teklia.com/HIMANIS/JJ035/words_annotations/FRCHANJJ_JJ035_0099V.json/197/line", 
            "@type": "oa:Annotation", 
            "motivation": "oa:painting", 
            "on": "http://bvmm.irht.cnrs.fr/iiif/23575/canvas/canvas-2270570#xywh=905,2126,43,115", 
            "resource": {
                "@type": "cnt:ContentAsText", 
                "chars": "DE", 
                "format": "text/plain"
            }
        }, 
        {
            "@id": "https://manifests.teklia.com/HIMANIS/JJ035/words_annotations/FRCHANJJ_JJ035_0099V.json/198/line", 
            "@type": "oa:Annotation", 
            "motivation": "oa:painting", 
            "on": "http://bvmm.irht.cnrs.fr/iiif/23575/canvas/canvas-2270570#xywh=944,1695,118,99", 
            "resource": {
                "@type": "cnt:ContentAsText", 
                "chars": "MONTE", 
                "format": "text/plain"
            }
        }, 
        {
            "@id": "https://manifests.teklia.com/HIMANIS/JJ035/words_annotations/FRCHANJJ_JJ035_0099V.json/199/line", 
            "@type": "oa:Annotation", 
            "motivation": "oa:painting", 
            "on": "http://bvmm.irht.cnrs.fr/iiif/23575/canvas/canvas-2270570#xywh=785,1941,33,75", 
            "resource": {
                "@type": "cnt:ContentAsText", 
                "chars": "DE", 
                "format": "text/plain"
            }
        }
    ]
}