{
    "@context": "http://iiif.io/api/presentation/2/context.json", 
    "@id": "https://manifests.teklia.com/HIMANIS/JJ035/words_annotations/FRCHANJJ_JJ035_0062R.json", 
    "@type": "sc:AnnotationList", 
    "resources": [
        {
            "@id": "https://manifests.teklia.com/HIMANIS/JJ035/words_annotations/FRCHANJJ_JJ035_0062R.json/0/line", 
            "@type": "oa:Annotation", 
            "motivation": "oa:painting", 
            "on": "http://bvmm.irht.cnrs.fr/iiif/23575/canvas/canvas-2270495#xywh=493,2843,0,41", 
            "resource": {
                "@type": "cnt:ContentAsText", 
                "chars": "J", 
                "format": "text/plain"
            }
        }, 
        {
            "@id": "https://manifests.teklia.com/HIMANIS/JJ035/words_annotations/FRCHANJJ_JJ035_0062R.json/1/line", 
            "@type": "oa:Annotation", 
            "motivation": "oa:painting", 
            "on": "http://bvmm.irht.cnrs.fr/iiif/23575/canvas/canvas-2270495#xywh=41,1793,158,39", 
            "resource": {
                "@type": "cnt:ContentAsText", 
                "chars": "DE", 
                "format": "text/plain"
            }
        }, 
        {
            "@id": "https://manifests.teklia.com/HIMANIS/JJ035/words_annotations/FRCHANJJ_JJ035_0062R.json/2/line", 
            "@type": "oa:Annotation", 
            "motivation": "oa:painting", 
            "on": "http://bvmm.irht.cnrs.fr/iiif/23575/canvas/canvas-2270495#xywh=1826,500,193,90", 
            "resource": {
                "@type": "cnt:ContentAsText", 
                "chars": "TRESORIERS", 
                "format": "text/plain"
            }
        }, 
        {
            "@id": "https://manifests.teklia.com/HIMANIS/JJ035/words_annotations/FRCHANJJ_JJ035_0062R.json/3/line", 
            "@type": "oa:Annotation", 
            "motivation": "oa:painting", 
            "on": "http://bvmm.irht.cnrs.fr/iiif/23575/canvas/canvas-2270495#xywh=493,2843,0,41", 
            "resource": {
                "@type": "cnt:ContentAsText", 
                "chars": "P", 
                "format": "text/plain"
            }
        }, 
        {
            "@id": "https://manifests.teklia.com/HIMANIS/JJ035/words_annotations/FRCHANJJ_JJ035_0062R.json/4/line", 
            "@type": "oa:Annotation", 
            "motivation": "oa:painting", 
            "on": "http://bvmm.irht.cnrs.fr/iiif/23575/canvas/canvas-2270495#xywh=1390,1482,78,65", 
            "resource": {
                "@type": "cnt:ContentAsText", 
                "chars": "JORT", 
                "format": "text/plain"
            }
        }, 
        {
            "@id": "https://manifests.teklia.com/HIMANIS/JJ035/words_annotations/FRCHANJJ_JJ035_0062R.json/5/line", 
            "@type": "oa:Annotation", 
            "motivation": "oa:painting", 
            "on": "http://bvmm.irht.cnrs.fr/iiif/23575/canvas/canvas-2270495#xywh=579,933,108,95", 
            "resource": {
                "@type": "cnt:ContentAsText", 
                "chars": "PARIS", 
                "format": "text/plain"
            }
        }, 
        {
            "@id": "https://manifests.teklia.com/HIMANIS/JJ035/words_annotations/FRCHANJJ_JJ035_0062R.json/6/line", 
            "@type": "oa:Annotation", 
            "motivation": "oa:painting", 
            "on": "http://bvmm.irht.cnrs.fr/iiif/23575/canvas/canvas-2270495#xywh=41,1793,516,39", 
            "resource": {
                "@type": "cnt:ContentAsText", 
                "chars": "GILIERS", 
                "format": "text/plain"
            }
        }, 
        {
            "@id": "https://manifests.teklia.com/HIMANIS/JJ035/words_annotations/FRCHANJJ_JJ035_0062R.json/7/line", 
            "@type": "oa:Annotation", 
            "motivation": "oa:painting", 
            "on": "http://bvmm.irht.cnrs.fr/iiif/23575/canvas/canvas-2270495#xywh=1210,1760,155,45", 
            "resource": {
                "@type": "cnt:ContentAsText", 
                "chars": "REGI", 
                "format": "text/plain"
            }
        }, 
        {
            "@id": "https://manifests.teklia.com/HIMANIS/JJ035/words_annotations/FRCHANJJ_JJ035_0062R.json/8/line", 
            "@type": "oa:Annotation", 
            "motivation": "oa:painting", 
            "on": "http://bvmm.irht.cnrs.fr/iiif/23575/canvas/canvas-2270495#xywh=1034,420,101,80", 
            "resource": {
                "@type": "cnt:ContentAsText", 
                "chars": "BIENS", 
                "format": "text/plain"
            }
        }, 
        {
            "@id": "https://manifests.teklia.com/HIMANIS/JJ035/words_annotations/FRCHANJJ_JJ035_0062R.json/9/line", 
            "@type": "oa:Annotation", 
            "motivation": "oa:painting", 
            "on": "http://bvmm.irht.cnrs.fr/iiif/23575/canvas/canvas-2270495#xywh=1741,500,62,90", 
            "resource": {
                "@type": "cnt:ContentAsText", 
                "chars": "NOZ", 
                "format": "text/plain"
            }
        }, 
        {
            "@id": "https://manifests.teklia.com/HIMANIS/JJ035/words_annotations/FRCHANJJ_JJ035_0062R.json/10/line", 
            "@type": "oa:Annotation", 
            "motivation": "oa:painting", 
            "on": "http://bvmm.irht.cnrs.fr/iiif/23575/canvas/canvas-2270495#xywh=48,1987,54,53", 
            "resource": {
                "@type": "cnt:ContentAsText", 
                "chars": "PHILIPPES", 
                "format": "text/plain"
            }
        }, 
        {
            "@id": "https://manifests.teklia.com/HIMANIS/JJ035/words_annotations/FRCHANJJ_JJ035_0062R.json/11/line", 
            "@type": "oa:Annotation", 
            "motivation": "oa:painting", 
            "on": "http://bvmm.irht.cnrs.fr/iiif/23575/canvas/canvas-2270495#xywh=1625,420,91,80", 
            "resource": {
                "@type": "cnt:ContentAsText", 
                "chars": "DELAY", 
                "format": "text/plain"
            }
        }, 
        {
            "@id": "https://manifests.teklia.com/HIMANIS/JJ035/words_annotations/FRCHANJJ_JJ035_0062R.json/12/line", 
            "@type": "oa:Annotation", 
            "motivation": "oa:painting", 
            "on": "http://bvmm.irht.cnrs.fr/iiif/23575/canvas/canvas-2270495#xywh=282,1248,78,33", 
            "resource": {
                "@type": "cnt:ContentAsText", 
                "chars": "CORRE", 
                "format": "text/plain"
            }
        }, 
        {
            "@id": "https://manifests.teklia.com/HIMANIS/JJ035/words_annotations/FRCHANJJ_JJ035_0062R.json/13/line", 
            "@type": "oa:Annotation", 
            "motivation": "oa:painting", 
            "on": "http://bvmm.irht.cnrs.fr/iiif/23575/canvas/canvas-2270495#xywh=282,1248,133,33", 
            "resource": {
                "@type": "cnt:ContentAsText", 
                "chars": "CORNE", 
                "format": "text/plain"
            }
        }, 
        {
            "@id": "https://manifests.teklia.com/HIMANIS/JJ035/words_annotations/FRCHANJJ_JJ035_0062R.json/14/line", 
            "@type": "oa:Annotation", 
            "motivation": "oa:painting", 
            "on": "http://bvmm.irht.cnrs.fr/iiif/23575/canvas/canvas-2270495#xywh=1989,420,50,80", 
            "resource": {
                "@type": "cnt:ContentAsText", 
                "chars": "DES", 
                "format": "text/plain"
            }
        }, 
        {
            "@id": "https://manifests.teklia.com/HIMANIS/JJ035/words_annotations/FRCHANJJ_JJ035_0062R.json/15/line", 
            "@type": "oa:Annotation", 
            "motivation": "oa:painting", 
            "on": "http://bvmm.irht.cnrs.fr/iiif/23575/canvas/canvas-2270495#xywh=1724,330,50,80", 
            "resource": {
                "@type": "cnt:ContentAsText", 
                "chars": "LES", 
                "format": "text/plain"
            }
        }, 
        {
            "@id": "https://manifests.teklia.com/HIMANIS/JJ035/words_annotations/FRCHANJJ_JJ035_0062R.json/16/line", 
            "@type": "oa:Annotation", 
            "motivation": "oa:painting", 
            "on": "http://bvmm.irht.cnrs.fr/iiif/23575/canvas/canvas-2270495#xywh=41,1793,524,39", 
            "resource": {
                "@type": "cnt:ContentAsText", 
                "chars": "GILIERIS", 
                "format": "text/plain"
            }
        }, 
        {
            "@id": "https://manifests.teklia.com/HIMANIS/JJ035/words_annotations/FRCHANJJ_JJ035_0062R.json/17/line", 
            "@type": "oa:Annotation", 
            "motivation": "oa:painting", 
            "on": "http://bvmm.irht.cnrs.fr/iiif/23575/canvas/canvas-2270495#xywh=1867,420,96,80", 
            "resource": {
                "@type": "cnt:ContentAsText", 
                "chars": "GENZ", 
                "format": "text/plain"
            }
        }, 
        {
            "@id": "https://manifests.teklia.com/HIMANIS/JJ035/words_annotations/FRCHANJJ_JJ035_0062R.json/18/line", 
            "@type": "oa:Annotation", 
            "motivation": "oa:painting", 
            "on": "http://bvmm.irht.cnrs.fr/iiif/23575/canvas/canvas-2270495#xywh=15,2119,0,48", 
            "resource": {
                "@type": "cnt:ContentAsText", 
                "chars": "J", 
                "format": "text/plain"
            }
        }, 
        {
            "@id": "https://manifests.teklia.com/HIMANIS/JJ035/words_annotations/FRCHANJJ_JJ035_0062R.json/19/line", 
            "@type": "oa:Annotation", 
            "motivation": "oa:painting", 
            "on": "http://bvmm.irht.cnrs.fr/iiif/23575/canvas/canvas-2270495#xywh=1701,500,0,90", 
            "resource": {
                "@type": "cnt:ContentAsText", 
                "chars": "A", 
                "format": "text/plain"
            }
        }, 
        {
            "@id": "https://manifests.teklia.com/HIMANIS/JJ035/words_annotations/FRCHANJJ_JJ035_0062R.json/20/line", 
            "@type": "oa:Annotation", 
            "motivation": "oa:painting", 
            "on": "http://bvmm.irht.cnrs.fr/iiif/23575/canvas/canvas-2270495#xywh=282,330,71,80", 
            "resource": {
                "@type": "cnt:ContentAsText", 
                "chars": "SANZ", 
                "format": "text/plain"
            }
        }, 
        {
            "@id": "https://manifests.teklia.com/HIMANIS/JJ035/words_annotations/FRCHANJJ_JJ035_0062R.json/21/line", 
            "@type": "oa:Annotation", 
            "motivation": "oa:painting", 
            "on": "http://bvmm.irht.cnrs.fr/iiif/23575/canvas/canvas-2270495#xywh=271,1422,193,40", 
            "resource": {
                "@type": "cnt:ContentAsText", 
                "chars": "CORASTERIS", 
                "format": "text/plain"
            }
        }, 
        {
            "@id": "https://manifests.teklia.com/HIMANIS/JJ035/words_annotations/FRCHANJJ_JJ035_0062R.json/22/line", 
            "@type": "oa:Annotation", 
            "motivation": "oa:painting", 
            "on": "http://bvmm.irht.cnrs.fr/iiif/23575/canvas/canvas-2270495#xywh=52,1879,361,45", 
            "resource": {
                "@type": "cnt:ContentAsText", 
                "chars": "VERS", 
                "format": "text/plain"
            }
        }, 
        {
            "@id": "https://manifests.teklia.com/HIMANIS/JJ035/words_annotations/FRCHANJJ_JJ035_0062R.json/23/line", 
            "@type": "oa:Annotation", 
            "motivation": "oa:painting", 
            "on": "http://bvmm.irht.cnrs.fr/iiif/23575/canvas/canvas-2270495#xywh=1202,1675,184,50", 
            "resource": {
                "@type": "cnt:ContentAsText", 
                "chars": "CONTISSON", 
                "format": "text/plain"
            }
        }, 
        {
            "@id": "https://manifests.teklia.com/HIMANIS/JJ035/words_annotations/FRCHANJJ_JJ035_0062R.json/24/line", 
            "@type": "oa:Annotation", 
            "motivation": "oa:painting", 
            "on": "http://bvmm.irht.cnrs.fr/iiif/23575/canvas/canvas-2270495#xywh=37,2065,60,53", 
            "resource": {
                "@type": "cnt:ContentAsText", 
                "chars": "PHILIPPE", 
                "format": "text/plain"
            }
        }, 
        {
            "@id": "https://manifests.teklia.com/HIMANIS/JJ035/words_annotations/FRCHANJJ_JJ035_0062R.json/25/line", 
            "@type": "oa:Annotation", 
            "motivation": "oa:painting", 
            "on": "http://bvmm.irht.cnrs.fr/iiif/23575/canvas/canvas-2270495#xywh=22,2167,691,82", 
            "resource": {
                "@type": "cnt:ContentAsText", 
                "chars": "ANCE", 
                "format": "text/plain"
            }
        }, 
        {
            "@id": "https://manifests.teklia.com/HIMANIS/JJ035/words_annotations/FRCHANJJ_JJ035_0062R.json/26/line", 
            "@type": "oa:Annotation", 
            "motivation": "oa:painting", 
            "on": "http://bvmm.irht.cnrs.fr/iiif/23575/canvas/canvas-2270495#xywh=2134,330,126,80", 
            "resource": {
                "@type": "cnt:ContentAsText", 
                "chars": "PORRAS", 
                "format": "text/plain"
            }
        }, 
        {
            "@id": "https://manifests.teklia.com/HIMANIS/JJ035/words_annotations/FRCHANJJ_JJ035_0062R.json/27/line", 
            "@type": "oa:Annotation", 
            "motivation": "oa:painting", 
            "on": "http://bvmm.irht.cnrs.fr/iiif/23575/canvas/canvas-2270495#xywh=539,500,28,90", 
            "resource": {
                "@type": "cnt:ContentAsText", 
                "chars": "CE", 
                "format": "text/plain"
            }
        }, 
        {
            "@id": "https://manifests.teklia.com/HIMANIS/JJ035/words_annotations/FRCHANJJ_JJ035_0062R.json/28/line", 
            "@type": "oa:Annotation", 
            "motivation": "oa:painting", 
            "on": "http://bvmm.irht.cnrs.fr/iiif/23575/canvas/canvas-2270495#xywh=284,590,113,86", 
            "resource": {
                "@type": "cnt:ContentAsText", 
                "chars": "DONNE", 
                "format": "text/plain"
            }
        }, 
        {
            "@id": "https://manifests.teklia.com/HIMANIS/JJ035/words_annotations/FRCHANJJ_JJ035_0062R.json/29/line", 
            "@type": "oa:Annotation", 
            "motivation": "oa:painting", 
            "on": "http://bvmm.irht.cnrs.fr/iiif/23575/canvas/canvas-2270495#xywh=271,1422,193,40", 
            "resource": {
                "@type": "cnt:ContentAsText", 
                "chars": "COROSTERIS", 
                "format": "text/plain"
            }
        }, 
        {
            "@id": "https://manifests.teklia.com/HIMANIS/JJ035/words_annotations/FRCHANJJ_JJ035_0062R.json/30/line", 
            "@type": "oa:Annotation", 
            "motivation": "oa:painting", 
            "on": "http://bvmm.irht.cnrs.fr/iiif/23575/canvas/canvas-2270495#xywh=547,1038,90,75", 
            "resource": {
                "@type": "cnt:ContentAsText", 
                "chars": "GRISOR", 
                "format": "text/plain"
            }
        }, 
        {
            "@id": "https://manifests.teklia.com/HIMANIS/JJ035/words_annotations/FRCHANJJ_JJ035_0062R.json/31/line", 
            "@type": "oa:Annotation", 
            "motivation": "oa:painting", 
            "on": "http://bvmm.irht.cnrs.fr/iiif/23575/canvas/canvas-2270495#xywh=493,2843,270,41", 
            "resource": {
                "@type": "cnt:ContentAsText", 
                "chars": "RICHAINE", 
                "format": "text/plain"
            }
        }, 
        {
            "@id": "https://manifests.teklia.com/HIMANIS/JJ035/words_annotations/FRCHANJJ_JJ035_0062R.json/32/line", 
            "@type": "oa:Annotation", 
            "motivation": "oa:painting", 
            "on": "http://bvmm.irht.cnrs.fr/iiif/23575/canvas/canvas-2270495#xywh=353,1038,99,75", 
            "resource": {
                "@type": "cnt:ContentAsText", 
                "chars": "BALLIIS", 
                "format": "text/plain"
            }
        }, 
        {
            "@id": "https://manifests.teklia.com/HIMANIS/JJ035/words_annotations/FRCHANJJ_JJ035_0062R.json/33/line", 
            "@type": "oa:Annotation", 
            "motivation": "oa:painting", 
            "on": "http://bvmm.irht.cnrs.fr/iiif/23575/canvas/canvas-2270495#xywh=271,1422,193,40", 
            "resource": {
                "@type": "cnt:ContentAsText", 
                "chars": "CORESTERIS", 
                "format": "text/plain"
            }
        }, 
        {
            "@id": "https://manifests.teklia.com/HIMANIS/JJ035/words_annotations/FRCHANJJ_JJ035_0062R.json/34/line", 
            "@type": "oa:Annotation", 
            "motivation": "oa:painting", 
            "on": "http://bvmm.irht.cnrs.fr/iiif/23575/canvas/canvas-2270495#xywh=420,1760,66,45", 
            "resource": {
                "@type": "cnt:ContentAsText", 
                "chars": "ET", 
                "format": "text/plain"
            }
        }, 
        {
            "@id": "https://manifests.teklia.com/HIMANIS/JJ035/words_annotations/FRCHANJJ_JJ035_0062R.json/35/line", 
            "@type": "oa:Annotation", 
            "motivation": "oa:painting", 
            "on": "http://bvmm.irht.cnrs.fr/iiif/23575/canvas/canvas-2270495#xywh=428,420,96,80", 
            "resource": {
                "@type": "cnt:ContentAsText", 
                "chars": "SELONC", 
                "format": "text/plain"
            }
        }, 
        {
            "@id": "https://manifests.teklia.com/HIMANIS/JJ035/words_annotations/FRCHANJJ_JJ035_0062R.json/36/line", 
            "@type": "oa:Annotation", 
            "motivation": "oa:painting", 
            "on": "http://bvmm.irht.cnrs.fr/iiif/23575/canvas/canvas-2270495#xywh=271,1422,193,40", 
            "resource": {
                "@type": "cnt:ContentAsText", 
                "chars": "CONSTERIS", 
                "format": "text/plain"
            }
        }, 
        {
            "@id": "https://manifests.teklia.com/HIMANIS/JJ035/words_annotations/FRCHANJJ_JJ035_0062R.json/37/line", 
            "@type": "oa:Annotation", 
            "motivation": "oa:painting", 
            "on": "http://bvmm.irht.cnrs.fr/iiif/23575/canvas/canvas-2270495#xywh=282,420,111,80", 
            "resource": {
                "@type": "cnt:ContentAsText", 
                "chars": "LEVERE", 
                "format": "text/plain"
            }
        }, 
        {
            "@id": "https://manifests.teklia.com/HIMANIS/JJ035/words_annotations/FRCHANJJ_JJ035_0062R.json/38/line", 
            "@type": "oa:Annotation", 
            "motivation": "oa:painting", 
            "on": "http://bvmm.irht.cnrs.fr/iiif/23575/canvas/canvas-2270495#xywh=737,500,142,90", 
            "resource": {
                "@type": "cnt:ContentAsText", 
                "chars": "LEVERAS", 
                "format": "text/plain"
            }
        }, 
        {
            "@id": "https://manifests.teklia.com/HIMANIS/JJ035/words_annotations/FRCHANJJ_JJ035_0062R.json/39/line", 
            "@type": "oa:Annotation", 
            "motivation": "oa:painting", 
            "on": "http://bvmm.irht.cnrs.fr/iiif/23575/canvas/canvas-2270495#xywh=1129,500,226,90", 
            "resource": {
                "@type": "cnt:ContentAsText", 
                "chars": "ENTIEREMENT", 
                "format": "text/plain"
            }
        }, 
        {
            "@id": "https://manifests.teklia.com/HIMANIS/JJ035/words_annotations/FRCHANJJ_JJ035_0062R.json/40/line", 
            "@type": "oa:Annotation", 
            "motivation": "oa:painting", 
            "on": "http://bvmm.irht.cnrs.fr/iiif/23575/canvas/canvas-2270495#xywh=282,420,126,80", 
            "resource": {
                "@type": "cnt:ContentAsText", 
                "chars": "LEVERET", 
                "format": "text/plain"
            }
        }, 
        {
            "@id": "https://manifests.teklia.com/HIMANIS/JJ035/words_annotations/FRCHANJJ_JJ035_0062R.json/41/line", 
            "@type": "oa:Annotation", 
            "motivation": "oa:painting", 
            "on": "http://bvmm.irht.cnrs.fr/iiif/23575/canvas/canvas-2270495#xywh=1094,766,47,93", 
            "resource": {
                "@type": "cnt:ContentAsText", 
                "chars": "SUPER", 
                "format": "text/plain"
            }
        }, 
        {
            "@id": "https://manifests.teklia.com/HIMANIS/JJ035/words_annotations/FRCHANJJ_JJ035_0062R.json/42/line", 
            "@type": "oa:Annotation", 
            "motivation": "oa:painting", 
            "on": "http://bvmm.irht.cnrs.fr/iiif/23575/canvas/canvas-2270495#xywh=1167,330,152,80", 
            "resource": {
                "@type": "cnt:ContentAsText", 
                "chars": "LEVERAS", 
                "format": "text/plain"
            }
        }, 
        {
            "@id": "https://manifests.teklia.com/HIMANIS/JJ035/words_annotations/FRCHANJJ_JJ035_0062R.json/43/line", 
            "@type": "oa:Annotation", 
            "motivation": "oa:painting", 
            "on": "http://bvmm.irht.cnrs.fr/iiif/23575/canvas/canvas-2270495#xywh=282,420,126,80", 
            "resource": {
                "@type": "cnt:ContentAsText", 
                "chars": "LEVERS", 
                "format": "text/plain"
            }
        }, 
        {
            "@id": "https://manifests.teklia.com/HIMANIS/JJ035/words_annotations/FRCHANJJ_JJ035_0062R.json/44/line", 
            "@type": "oa:Annotation", 
            "motivation": "oa:painting", 
            "on": "http://bvmm.irht.cnrs.fr/iiif/23575/canvas/canvas-2270495#xywh=2064,420,167,80", 
            "resource": {
                "@type": "cnt:ContentAsText", 
                "chars": "COMPTES", 
                "format": "text/plain"
            }
        }, 
        {
            "@id": "https://manifests.teklia.com/HIMANIS/JJ035/words_annotations/FRCHANJJ_JJ035_0062R.json/45/line", 
            "@type": "oa:Annotation", 
            "motivation": "oa:painting", 
            "on": "http://bvmm.irht.cnrs.fr/iiif/23575/canvas/canvas-2270495#xywh=353,1038,99,75", 
            "resource": {
                "@type": "cnt:ContentAsText", 
                "chars": "BALLIF", 
                "format": "text/plain"
            }
        }, 
        {
            "@id": "https://manifests.teklia.com/HIMANIS/JJ035/words_annotations/FRCHANJJ_JJ035_0062R.json/46/line", 
            "@type": "oa:Annotation", 
            "motivation": "oa:painting", 
            "on": "http://bvmm.irht.cnrs.fr/iiif/23575/canvas/canvas-2270495#xywh=1094,766,52,93", 
            "resource": {
                "@type": "cnt:ContentAsText", 
                "chars": "SUPP", 
                "format": "text/plain"
            }
        }, 
        {
            "@id": "https://manifests.teklia.com/HIMANIS/JJ035/words_annotations/FRCHANJJ_JJ035_0062R.json/47/line", 
            "@type": "oa:Annotation", 
            "motivation": "oa:painting", 
            "on": "http://bvmm.irht.cnrs.fr/iiif/23575/canvas/canvas-2270495#xywh=579,500,28,90", 
            "resource": {
                "@type": "cnt:ContentAsText", 
                "chars": "QUE", 
                "format": "text/plain"
            }
        }, 
        {
            "@id": "https://manifests.teklia.com/HIMANIS/JJ035/words_annotations/FRCHANJJ_JJ035_0062R.json/48/line", 
            "@type": "oa:Annotation", 
            "motivation": "oa:painting", 
            "on": "http://bvmm.irht.cnrs.fr/iiif/23575/canvas/canvas-2270495#xywh=37,1925,445,45", 
            "resource": {
                "@type": "cnt:ContentAsText", 
                "chars": "SON", 
                "format": "text/plain"
            }
        }, 
        {
            "@id": "https://manifests.teklia.com/HIMANIS/JJ035/words_annotations/FRCHANJJ_JJ035_0062R.json/49/line", 
            "@type": "oa:Annotation", 
            "motivation": "oa:painting", 
            "on": "http://bvmm.irht.cnrs.fr/iiif/23575/canvas/canvas-2270495#xywh=45,1038,303,75", 
            "resource": {
                "@type": "cnt:ContentAsText", 
                "chars": "LE", 
                "format": "text/plain"
            }
        }, 
        {
            "@id": "https://manifests.teklia.com/HIMANIS/JJ035/words_annotations/FRCHANJJ_JJ035_0062R.json/50/line", 
            "@type": "oa:Annotation", 
            "motivation": "oa:painting", 
            "on": "http://bvmm.irht.cnrs.fr/iiif/23575/canvas/canvas-2270495#xywh=485,1038,34,75", 
            "resource": {
                "@type": "cnt:ContentAsText", 
                "chars": "DE", 
                "format": "text/plain"
            }
        }, 
        {
            "@id": "https://manifests.teklia.com/HIMANIS/JJ035/words_annotations/FRCHANJJ_JJ035_0062R.json/51/line", 
            "@type": "oa:Annotation", 
            "motivation": "oa:painting", 
            "on": "http://bvmm.irht.cnrs.fr/iiif/23575/canvas/canvas-2270495#xywh=353,1038,99,75", 
            "resource": {
                "@type": "cnt:ContentAsText", 
                "chars": "BALLIS", 
                "format": "text/plain"
            }
        }, 
        {
            "@id": "https://manifests.teklia.com/HIMANIS/JJ035/words_annotations/FRCHANJJ_JJ035_0062R.json/52/line", 
            "@type": "oa:Annotation", 
            "motivation": "oa:painting", 
            "on": "http://bvmm.irht.cnrs.fr/iiif/23575/canvas/canvas-2270495#xywh=608,590,48,86", 
            "resource": {
                "@type": "cnt:ContentAsText", 
                "chars": "XXXX", 
                "format": "text/plain"
            }
        }, 
        {
            "@id": "https://manifests.teklia.com/HIMANIS/JJ035/words_annotations/FRCHANJJ_JJ035_0062R.json/53/line", 
            "@type": "oa:Annotation", 
            "motivation": "oa:painting", 
            "on": "http://bvmm.irht.cnrs.fr/iiif/23575/canvas/canvas-2270495#xywh=1214,1387,314,45", 
            "resource": {
                "@type": "cnt:ContentAsText", 
                "chars": "AUCTOGES", 
                "format": "text/plain"
            }
        }, 
        {
            "@id": "https://manifests.teklia.com/HIMANIS/JJ035/words_annotations/FRCHANJJ_JJ035_0062R.json/54/line", 
            "@type": "oa:Annotation", 
            "motivation": "oa:painting", 
            "on": "http://bvmm.irht.cnrs.fr/iiif/23575/canvas/canvas-2270495#xywh=22,2167,666,82", 
            "resource": {
                "@type": "cnt:ContentAsText", 
                "chars": "ANNIER", 
                "format": "text/plain"
            }
        }, 
        {
            "@id": "https://manifests.teklia.com/HIMANIS/JJ035/words_annotations/FRCHANJJ_JJ035_0062R.json/55/line", 
            "@type": "oa:Annotation", 
            "motivation": "oa:painting", 
            "on": "http://bvmm.irht.cnrs.fr/iiif/23575/canvas/canvas-2270495#xywh=274,1135,42,66", 
            "resource": {
                "@type": "cnt:ContentAsText", 
                "chars": "LE", 
                "format": "text/plain"
            }
        }, 
        {
            "@id": "https://manifests.teklia.com/HIMANIS/JJ035/words_annotations/FRCHANJJ_JJ035_0062R.json/56/line", 
            "@type": "oa:Annotation", 
            "motivation": "oa:painting", 
            "on": "http://bvmm.irht.cnrs.fr/iiif/23575/canvas/canvas-2270495#xywh=491,1135,29,66", 
            "resource": {
                "@type": "cnt:ContentAsText", 
                "chars": "DE", 
                "format": "text/plain"
            }
        }, 
        {
            "@id": "https://manifests.teklia.com/HIMANIS/JJ035/words_annotations/FRCHANJJ_JJ035_0062R.json/57/line", 
            "@type": "oa:Annotation", 
            "motivation": "oa:painting", 
            "on": "http://bvmm.irht.cnrs.fr/iiif/23575/canvas/canvas-2270495#xywh=274,1135,184,66", 
            "resource": {
                "@type": "cnt:ContentAsText", 
                "chars": "BALLIIS", 
                "format": "text/plain"
            }
        }, 
        {
            "@id": "https://manifests.teklia.com/HIMANIS/JJ035/words_annotations/FRCHANJJ_JJ035_0062R.json/58/line", 
            "@type": "oa:Annotation", 
            "motivation": "oa:painting", 
            "on": "http://bvmm.irht.cnrs.fr/iiif/23575/canvas/canvas-2270495#xywh=835,766,82,93", 
            "resource": {
                "@type": "cnt:ContentAsText", 
                "chars": "ISTIS", 
                "format": "text/plain"
            }
        }, 
        {
            "@id": "https://manifests.teklia.com/HIMANIS/JJ035/words_annotations/FRCHANJJ_JJ035_0062R.json/59/line", 
            "@type": "oa:Annotation", 
            "motivation": "oa:painting", 
            "on": "http://bvmm.irht.cnrs.fr/iiif/23575/canvas/canvas-2270495#xywh=1282,420,141,80", 
            "resource": {
                "@type": "cnt:ContentAsText", 
                "chars": "TOUTOST", 
                "format": "text/plain"
            }
        }, 
        {
            "@id": "https://manifests.teklia.com/HIMANIS/JJ035/words_annotations/FRCHANJJ_JJ035_0062R.json/60/line", 
            "@type": "oa:Annotation", 
            "motivation": "oa:painting", 
            "on": "http://bvmm.irht.cnrs.fr/iiif/23575/canvas/canvas-2270495#xywh=2202,99,0,70", 
            "resource": {
                "@type": "cnt:ContentAsText", 
                "chars": "H", 
                "format": "text/plain"
            }
        }, 
        {
            "@id": "https://manifests.teklia.com/HIMANIS/JJ035/words_annotations/FRCHANJJ_JJ035_0062R.json/61/line", 
            "@type": "oa:Annotation", 
            "motivation": "oa:painting", 
            "on": "http://bvmm.irht.cnrs.fr/iiif/23575/canvas/canvas-2270495#xywh=2202,99,0,70", 
            "resource": {
                "@type": "cnt:ContentAsText", 
                "chars": "J", 
                "format": "text/plain"
            }
        }, 
        {
            "@id": "https://manifests.teklia.com/HIMANIS/JJ035/words_annotations/FRCHANJJ_JJ035_0062R.json/62/line", 
            "@type": "oa:Annotation", 
            "motivation": "oa:painting", 
            "on": "http://bvmm.irht.cnrs.fr/iiif/23575/canvas/canvas-2270495#xywh=2202,99,0,70", 
            "resource": {
                "@type": "cnt:ContentAsText", 
                "chars": "K", 
                "format": "text/plain"
            }
        }, 
        {
            "@id": "https://manifests.teklia.com/HIMANIS/JJ035/words_annotations/FRCHANJJ_JJ035_0062R.json/63/line", 
            "@type": "oa:Annotation", 
            "motivation": "oa:painting", 
            "on": "http://bvmm.irht.cnrs.fr/iiif/23575/canvas/canvas-2270495#xywh=975,330,35,80", 
            "resource": {
                "@type": "cnt:ContentAsText", 
                "chars": "DE", 
                "format": "text/plain"
            }
        }, 
        {
            "@id": "https://manifests.teklia.com/HIMANIS/JJ035/words_annotations/FRCHANJJ_JJ035_0062R.json/64/line", 
            "@type": "oa:Annotation", 
            "motivation": "oa:painting", 
            "on": "http://bvmm.irht.cnrs.fr/iiif/23575/canvas/canvas-2270495#xywh=64,2319,399,100", 
            "resource": {
                "@type": "cnt:ContentAsText", 
                "chars": "CHAUVINO", 
                "format": "text/plain"
            }
        }, 
        {
            "@id": "https://manifests.teklia.com/HIMANIS/JJ035/words_annotations/FRCHANJJ_JJ035_0062R.json/65/line", 
            "@type": "oa:Annotation", 
            "motivation": "oa:painting", 
            "on": "http://bvmm.irht.cnrs.fr/iiif/23575/canvas/canvas-2270495#xywh=2012,330,25,80", 
            "resource": {
                "@type": "cnt:ContentAsText", 
                "chars": "TU", 
                "format": "text/plain"
            }
        }, 
        {
            "@id": "https://manifests.teklia.com/HIMANIS/JJ035/words_annotations/FRCHANJJ_JJ035_0062R.json/66/line", 
            "@type": "oa:Annotation", 
            "motivation": "oa:painting", 
            "on": "http://bvmm.irht.cnrs.fr/iiif/23575/canvas/canvas-2270495#xywh=52,1879,315,45", 
            "resource": {
                "@type": "cnt:ContentAsText", 
                "chars": "PER", 
                "format": "text/plain"
            }
        }, 
        {
            "@id": "https://manifests.teklia.com/HIMANIS/JJ035/words_annotations/FRCHANJJ_JJ035_0062R.json/67/line", 
            "@type": "oa:Annotation", 
            "motivation": "oa:painting", 
            "on": "http://bvmm.irht.cnrs.fr/iiif/23575/canvas/canvas-2270495#xywh=842,420,36,80", 
            "resource": {
                "@type": "cnt:ContentAsText", 
                "chars": "DE", 
                "format": "text/plain"
            }
        }, 
        {
            "@id": "https://manifests.teklia.com/HIMANIS/JJ035/words_annotations/FRCHANJJ_JJ035_0062R.json/68/line", 
            "@type": "oa:Annotation", 
            "motivation": "oa:painting", 
            "on": "http://bvmm.irht.cnrs.fr/iiif/23575/canvas/canvas-2270495#xywh=700,766,71,93", 
            "resource": {
                "@type": "cnt:ContentAsText", 
                "chars": "FUIT", 
                "format": "text/plain"
            }
        }, 
        {
            "@id": "https://manifests.teklia.com/HIMANIS/JJ035/words_annotations/FRCHANJJ_JJ035_0062R.json/69/line", 
            "@type": "oa:Annotation", 
            "motivation": "oa:painting", 
            "on": "http://bvmm.irht.cnrs.fr/iiif/23575/canvas/canvas-2270495#xywh=1805,330,111,80", 
            "resource": {
                "@type": "cnt:ContentAsText", 
                "chars": "SOMMES", 
                "format": "text/plain"
            }
        }, 
        {
            "@id": "https://manifests.teklia.com/HIMANIS/JJ035/words_annotations/FRCHANJJ_JJ035_0062R.json/70/line", 
            "@type": "oa:Annotation", 
            "motivation": "oa:painting", 
            "on": "http://bvmm.irht.cnrs.fr/iiif/23575/canvas/canvas-2270495#xywh=1797,420,55,80", 
            "resource": {
                "@type": "cnt:ContentAsText", 
                "chars": "NOZ", 
                "format": "text/plain"
            }
        }, 
        {
            "@id": "https://manifests.teklia.com/HIMANIS/JJ035/words_annotations/FRCHANJJ_JJ035_0062R.json/71/line", 
            "@type": "oa:Annotation", 
            "motivation": "oa:painting", 
            "on": "http://bvmm.irht.cnrs.fr/iiif/23575/canvas/canvas-2270495#xywh=930,500,159,90", 
            "resource": {
                "@type": "cnt:ContentAsText", 
                "chars": "ASSIGNES", 
                "format": "text/plain"
            }
        }, 
        {
            "@id": "https://manifests.teklia.com/HIMANIS/JJ035/words_annotations/FRCHANJJ_JJ035_0062R.json/72/line", 
            "@type": "oa:Annotation", 
            "motivation": "oa:painting", 
            "on": "http://bvmm.irht.cnrs.fr/iiif/23575/canvas/canvas-2270495#xywh=268,933,60,95", 
            "resource": {
                "@type": "cnt:ContentAsText", 
                "chars": "LE", 
                "format": "text/plain"
            }
        }, 
        {
            "@id": "https://manifests.teklia.com/HIMANIS/JJ035/words_annotations/FRCHANJJ_JJ035_0062R.json/73/line", 
            "@type": "oa:Annotation", 
            "motivation": "oa:painting", 
            "on": "http://bvmm.irht.cnrs.fr/iiif/23575/canvas/canvas-2270495#xywh=507,933,36,95", 
            "resource": {
                "@type": "cnt:ContentAsText", 
                "chars": "DE", 
                "format": "text/plain"
            }
        }, 
        {
            "@id": "https://manifests.teklia.com/HIMANIS/JJ035/words_annotations/FRCHANJJ_JJ035_0062R.json/74/line", 
            "@type": "oa:Annotation", 
            "motivation": "oa:painting", 
            "on": "http://bvmm.irht.cnrs.fr/iiif/23575/canvas/canvas-2270495#xywh=284,500,39,90", 
            "resource": {
                "@type": "cnt:ContentAsText", 
                "chars": "DE", 
                "format": "text/plain"
            }
        }, 
        {
            "@id": "https://manifests.teklia.com/HIMANIS/JJ035/words_annotations/FRCHANJJ_JJ035_0062R.json/75/line", 
            "@type": "oa:Annotation", 
            "motivation": "oa:painting", 
            "on": "http://bvmm.irht.cnrs.fr/iiif/23575/canvas/canvas-2270495#xywh=941,766,129,93", 
            "resource": {
                "@type": "cnt:ContentAsText", 
                "chars": "INQUIBUS", 
                "format": "text/plain"
            }
        }, 
        {
            "@id": "https://manifests.teklia.com/HIMANIS/JJ035/words_annotations/FRCHANJJ_JJ035_0062R.json/76/line", 
            "@type": "oa:Annotation", 
            "motivation": "oa:painting", 
            "on": "http://bvmm.irht.cnrs.fr/iiif/23575/canvas/canvas-2270495#xywh=284,1482,163,65", 
            "resource": {
                "@type": "cnt:ContentAsText", 
                "chars": "ANNIENS", 
                "format": "text/plain"
            }
        }, 
        {
            "@id": "https://manifests.teklia.com/HIMANIS/JJ035/words_annotations/FRCHANJJ_JJ035_0062R.json/77/line", 
            "@type": "oa:Annotation", 
            "motivation": "oa:painting", 
            "on": "http://bvmm.irht.cnrs.fr/iiif/23575/canvas/canvas-2270495#xywh=363,330,106,80", 
            "resource": {
                "@type": "cnt:ContentAsText", 
                "chars": "NULLE", 
                "format": "text/plain"
            }
        }, 
        {
            "@id": "https://manifests.teklia.com/HIMANIS/JJ035/words_annotations/FRCHANJJ_JJ035_0062R.json/78/line", 
            "@type": "oa:Annotation", 
            "motivation": "oa:painting", 
            "on": "http://bvmm.irht.cnrs.fr/iiif/23575/canvas/canvas-2270495#xywh=618,500,34,90", 
            "resource": {
                "@type": "cnt:ContentAsText", 
                "chars": "TU", 
                "format": "text/plain"
            }
        }, 
        {
            "@id": "https://manifests.teklia.com/HIMANIS/JJ035/words_annotations/FRCHANJJ_JJ035_0062R.json/79/line", 
            "@type": "oa:Annotation", 
            "motivation": "oa:painting", 
            "on": "http://bvmm.irht.cnrs.fr/iiif/23575/canvas/canvas-2270495#xywh=1390,1482,152,65", 
            "resource": {
                "@type": "cnt:ContentAsText", 
                "chars": "JORDA", 
                "format": "text/plain"
            }
        }, 
        {
            "@id": "https://manifests.teklia.com/HIMANIS/JJ035/words_annotations/FRCHANJJ_JJ035_0062R.json/80/line", 
            "@type": "oa:Annotation", 
            "motivation": "oa:painting", 
            "on": "http://bvmm.irht.cnrs.fr/iiif/23575/canvas/canvas-2270495#xywh=608,590,32,86", 
            "resource": {
                "@type": "cnt:ContentAsText", 
                "chars": "XX", 
                "format": "text/plain"
            }
        }, 
        {
            "@id": "https://manifests.teklia.com/HIMANIS/JJ035/words_annotations/FRCHANJJ_JJ035_0062R.json/81/line", 
            "@type": "oa:Annotation", 
            "motivation": "oa:painting", 
            "on": "http://bvmm.irht.cnrs.fr/iiif/23575/canvas/canvas-2270495#xywh=78,766,270,93", 
            "resource": {
                "@type": "cnt:ContentAsText", 
                "chars": "FRATRA", 
                "format": "text/plain"
            }
        }, 
        {
            "@id": "https://manifests.teklia.com/HIMANIS/JJ035/words_annotations/FRCHANJJ_JJ035_0062R.json/82/line", 
            "@type": "oa:Annotation", 
            "motivation": "oa:painting", 
            "on": "http://bvmm.irht.cnrs.fr/iiif/23575/canvas/canvas-2270495#xywh=1214,1387,314,45", 
            "resource": {
                "@type": "cnt:ContentAsText", 
                "chars": "GAUCTOGES", 
                "format": "text/plain"
            }
        }, 
        {
            "@id": "https://manifests.teklia.com/HIMANIS/JJ035/words_annotations/FRCHANJJ_JJ035_0062R.json/83/line", 
            "@type": "oa:Annotation", 
            "motivation": "oa:painting", 
            "on": "http://bvmm.irht.cnrs.fr/iiif/23575/canvas/canvas-2270495#xywh=1094,766,52,93", 
            "resource": {
                "@type": "cnt:ContentAsText", 
                "chars": "SUPRA", 
                "format": "text/plain"
            }
        }, 
        {
            "@id": "https://manifests.teklia.com/HIMANIS/JJ035/words_annotations/FRCHANJJ_JJ035_0062R.json/84/line", 
            "@type": "oa:Annotation", 
            "motivation": "oa:painting", 
            "on": "http://bvmm.irht.cnrs.fr/iiif/23575/canvas/canvas-2270495#xywh=1349,330,86,80", 
            "resource": {
                "@type": "cnt:ContentAsText", 
                "chars": "C'ESTRE", 
                "format": "text/plain"
            }
        }, 
        {
            "@id": "https://manifests.teklia.com/HIMANIS/JJ035/words_annotations/FRCHANJJ_JJ035_0062R.json/85/line", 
            "@type": "oa:Annotation", 
            "motivation": "oa:painting", 
            "on": "http://bvmm.irht.cnrs.fr/iiif/23575/canvas/canvas-2270495#xywh=1761,420,0,80", 
            "resource": {
                "@type": "cnt:ContentAsText", 
                "chars": "A", 
                "format": "text/plain"
            }
        }, 
        {
            "@id": "https://manifests.teklia.com/HIMANIS/JJ035/words_annotations/FRCHANJJ_JJ035_0062R.json/86/line", 
            "@type": "oa:Annotation", 
            "motivation": "oa:painting", 
            "on": "http://bvmm.irht.cnrs.fr/iiif/23575/canvas/canvas-2270495#xywh=1094,766,82,93", 
            "resource": {
                "@type": "cnt:ContentAsText", 
                "chars": "SUIS", 
                "format": "text/plain"
            }
        }, 
        {
            "@id": "https://manifests.teklia.com/HIMANIS/JJ035/words_annotations/FRCHANJJ_JJ035_0062R.json/87/line", 
            "@type": "oa:Annotation", 
            "motivation": "oa:painting", 
            "on": "http://bvmm.irht.cnrs.fr/iiif/23575/canvas/canvas-2270495#xywh=803,330,137,80", 
            "resource": {
                "@type": "cnt:ContentAsText", 
                "chars": "PERSONES", 
                "format": "text/plain"
            }
        }, 
        {
            "@id": "https://manifests.teklia.com/HIMANIS/JJ035/words_annotations/FRCHANJJ_JJ035_0062R.json/88/line", 
            "@type": "oa:Annotation", 
            "motivation": "oa:painting", 
            "on": "http://bvmm.irht.cnrs.fr/iiif/23575/canvas/canvas-2270495#xywh=1282,420,146,80", 
            "resource": {
                "@type": "cnt:ContentAsText", 
                "chars": "TOUTEST", 
                "format": "text/plain"
            }
        }, 
        {
            "@id": "https://manifests.teklia.com/HIMANIS/JJ035/words_annotations/FRCHANJJ_JJ035_0062R.json/89/line", 
            "@type": "oa:Annotation", 
            "motivation": "oa:painting", 
            "on": "http://bvmm.irht.cnrs.fr/iiif/23575/canvas/canvas-2270495#xywh=565,420,232,80", 
            "resource": {
                "@type": "cnt:ContentAsText", 
                "chars": "L'ESTIMACION", 
                "format": "text/plain"
            }
        }, 
        {
            "@id": "https://manifests.teklia.com/HIMANIS/JJ035/words_annotations/FRCHANJJ_JJ035_0062R.json/90/line", 
            "@type": "oa:Annotation", 
            "motivation": "oa:painting", 
            "on": "http://bvmm.irht.cnrs.fr/iiif/23575/canvas/canvas-2270495#xywh=1041,330,106,80", 
            "resource": {
                "@type": "cnt:ContentAsText", 
                "chars": "QUITU", 
                "format": "text/plain"
            }
        }, 
        {
            "@id": "https://manifests.teklia.com/HIMANIS/JJ035/words_annotations/FRCHANJJ_JJ035_0062R.json/91/line", 
            "@type": "oa:Annotation", 
            "motivation": "oa:painting", 
            "on": "http://bvmm.irht.cnrs.fr/iiif/23575/canvas/canvas-2270495#xywh=363,330,233,80", 
            "resource": {
                "@type": "cnt:ContentAsText", 
                "chars": "FRANCE", 
                "format": "text/plain"
            }
        }, 
        {
            "@id": "https://manifests.teklia.com/HIMANIS/JJ035/words_annotations/FRCHANJJ_JJ035_0062R.json/92/line", 
            "@type": "oa:Annotation", 
            "motivation": "oa:painting", 
            "on": "http://bvmm.irht.cnrs.fr/iiif/23575/canvas/canvas-2270495#xywh=898,420,101,80", 
            "resource": {
                "@type": "cnt:ContentAsText", 
                "chars": "LEURS", 
                "format": "text/plain"
            }
        }, 
        {
            "@id": "https://manifests.teklia.com/HIMANIS/JJ035/words_annotations/FRCHANJJ_JJ035_0062R.json/93/line", 
            "@type": "oa:Annotation", 
            "motivation": "oa:painting", 
            "on": "http://bvmm.irht.cnrs.fr/iiif/23575/canvas/canvas-2270495#xywh=1349,330,86,80", 
            "resource": {
                "@type": "cnt:ContentAsText", 
                "chars": "CESTE", 
                "format": "text/plain"
            }
        }, 
        {
            "@id": "https://manifests.teklia.com/HIMANIS/JJ035/words_annotations/FRCHANJJ_JJ035_0062R.json/94/line", 
            "@type": "oa:Annotation", 
            "motivation": "oa:painting", 
            "on": "http://bvmm.irht.cnrs.fr/iiif/23575/canvas/canvas-2270495#xywh=299,2249,107,40", 
            "resource": {
                "@type": "cnt:ContentAsText", 
                "chars": "GUIS", 
                "format": "text/plain"
            }
        }, 
        {
            "@id": "https://manifests.teklia.com/HIMANIS/JJ035/words_annotations/FRCHANJJ_JJ035_0062R.json/95/line", 
            "@type": "oa:Annotation", 
            "motivation": "oa:painting", 
            "on": "http://bvmm.irht.cnrs.fr/iiif/23575/canvas/canvas-2270495#xywh=352,933,114,95", 
            "resource": {
                "@type": "cnt:ContentAsText", 
                "chars": "PREVOST", 
                "format": "text/plain"
            }
        }, 
        {
            "@id": "https://manifests.teklia.com/HIMANIS/JJ035/words_annotations/FRCHANJJ_JJ035_0062R.json/96/line", 
            "@type": "oa:Annotation", 
            "motivation": "oa:painting", 
            "on": "http://bvmm.irht.cnrs.fr/iiif/23575/canvas/canvas-2270495#xywh=2064,420,147,80", 
            "resource": {
                "@type": "cnt:ContentAsText", 
                "chars": "COMPTE", 
                "format": "text/plain"
            }
        }, 
        {
            "@id": "https://manifests.teklia.com/HIMANIS/JJ035/words_annotations/FRCHANJJ_JJ035_0062R.json/97/line", 
            "@type": "oa:Annotation", 
            "motivation": "oa:painting", 
            "on": "http://bvmm.irht.cnrs.fr/iiif/23575/canvas/canvas-2270495#xywh=292,2065,155,53", 
            "resource": {
                "@type": "cnt:ContentAsText", 
                "chars": "CASTERIS", 
                "format": "text/plain"
            }
        }, 
        {
            "@id": "https://manifests.teklia.com/HIMANIS/JJ035/words_annotations/FRCHANJJ_JJ035_0062R.json/98/line", 
            "@type": "oa:Annotation", 
            "motivation": "oa:painting", 
            "on": "http://bvmm.irht.cnrs.fr/iiif/23575/canvas/canvas-2270495#xywh=140,2119,348,48", 
            "resource": {
                "@type": "cnt:ContentAsText", 
                "chars": "DE", 
                "format": "text/plain"
            }
        }, 
        {
            "@id": "https://manifests.teklia.com/HIMANIS/JJ035/words_annotations/FRCHANJJ_JJ035_0062R.json/99/line", 
            "@type": "oa:Annotation", 
            "motivation": "oa:painting", 
            "on": "http://bvmm.irht.cnrs.fr/iiif/23575/canvas/canvas-2270495#xywh=22,2167,604,82", 
            "resource": {
                "@type": "cnt:ContentAsText", 
                "chars": "AUTEM", 
                "format": "text/plain"
            }
        }, 
        {
            "@id": "https://manifests.teklia.com/HIMANIS/JJ035/words_annotations/FRCHANJJ_JJ035_0062R.json/100/line", 
            "@type": "oa:Annotation", 
            "motivation": "oa:painting", 
            "on": "http://bvmm.irht.cnrs.fr/iiif/23575/canvas/canvas-2270495#xywh=360,2119,113,48", 
            "resource": {
                "@type": "cnt:ContentAsText", 
                "chars": "DENIERE", 
                "format": "text/plain"
            }
        }, 
        {
            "@id": "https://manifests.teklia.com/HIMANIS/JJ035/words_annotations/FRCHANJJ_JJ035_0062R.json/101/line", 
            "@type": "oa:Annotation", 
            "motivation": "oa:painting", 
            "on": "http://bvmm.irht.cnrs.fr/iiif/23575/canvas/canvas-2270495#xywh=1214,1482,164,65", 
            "resource": {
                "@type": "cnt:ContentAsText", 
                "chars": "PIERRE", 
                "format": "text/plain"
            }
        }, 
        {
            "@id": "https://manifests.teklia.com/HIMANIS/JJ035/words_annotations/FRCHANJJ_JJ035_0062R.json/102/line", 
            "@type": "oa:Annotation", 
            "motivation": "oa:painting", 
            "on": "http://bvmm.irht.cnrs.fr/iiif/23575/canvas/canvas-2270495#xywh=803,330,137,80", 
            "resource": {
                "@type": "cnt:ContentAsText", 
                "chars": "PERSONNES", 
                "format": "text/plain"
            }
        }, 
        {
            "@id": "https://manifests.teklia.com/HIMANIS/JJ035/words_annotations/FRCHANJJ_JJ035_0062R.json/103/line", 
            "@type": "oa:Annotation", 
            "motivation": "oa:painting", 
            "on": "http://bvmm.irht.cnrs.fr/iiif/23575/canvas/canvas-2270495#xywh=284,1482,163,65", 
            "resource": {
                "@type": "cnt:ContentAsText", 
                "chars": "AMIENS", 
                "format": "text/plain"
            }
        }, 
        {
            "@id": "https://manifests.teklia.com/HIMANIS/JJ035/words_annotations/FRCHANJJ_JJ035_0062R.json/104/line", 
            "@type": "oa:Annotation", 
            "motivation": "oa:painting", 
            "on": "http://bvmm.irht.cnrs.fr/iiif/23575/canvas/canvas-2270495#xywh=982,766,100,93", 
            "resource": {
                "@type": "cnt:ContentAsText", 
                "chars": "MISSISE", 
                "format": "text/plain"
            }
        }, 
        {
            "@id": "https://manifests.teklia.com/HIMANIS/JJ035/words_annotations/FRCHANJJ_JJ035_0062R.json/105/line", 
            "@type": "oa:Annotation", 
            "motivation": "oa:painting", 
            "on": "http://bvmm.irht.cnrs.fr/iiif/23575/canvas/canvas-2270495#xywh=1202,1675,162,50", 
            "resource": {
                "@type": "cnt:ContentAsText", 
                "chars": "CONTESSON", 
                "format": "text/plain"
            }
        }, 
        {
            "@id": "https://manifests.teklia.com/HIMANIS/JJ035/words_annotations/FRCHANJJ_JJ035_0062R.json/106/line", 
            "@type": "oa:Annotation", 
            "motivation": "oa:painting", 
            "on": "http://bvmm.irht.cnrs.fr/iiif/23575/canvas/canvas-2270495#xywh=941,766,12,93", 
            "resource": {
                "@type": "cnt:ContentAsText", 
                "chars": "IN", 
                "format": "text/plain"
            }
        }, 
        {
            "@id": "https://manifests.teklia.com/HIMANIS/JJ035/words_annotations/FRCHANJJ_JJ035_0062R.json/107/line", 
            "@type": "oa:Annotation", 
            "motivation": "oa:painting", 
            "on": "http://bvmm.irht.cnrs.fr/iiif/23575/canvas/canvas-2270495#xywh=2073,330,25,80", 
            "resource": {
                "@type": "cnt:ContentAsText", 
                "chars": "EN", 
                "format": "text/plain"
            }
        }, 
        {
            "@id": "https://manifests.teklia.com/HIMANIS/JJ035/words_annotations/FRCHANJJ_JJ035_0062R.json/108/line", 
            "@type": "oa:Annotation", 
            "motivation": "oa:painting", 
            "on": "http://bvmm.irht.cnrs.fr/iiif/23575/canvas/canvas-2270495#xywh=1463,500,63,90", 
            "resource": {
                "@type": "cnt:ContentAsText", 
                "chars": "SANZ", 
                "format": "text/plain"
            }
        }, 
        {
            "@id": "https://manifests.teklia.com/HIMANIS/JJ035/words_annotations/FRCHANJJ_JJ035_0062R.json/109/line", 
            "@type": "oa:Annotation", 
            "motivation": "oa:painting", 
            "on": "http://bvmm.irht.cnrs.fr/iiif/23575/canvas/canvas-2270495#xywh=500,330,202,80", 
            "resource": {
                "@type": "cnt:ContentAsText", 
                "chars": "ET", 
                "format": "text/plain"
            }
        }, 
        {
            "@id": "https://manifests.teklia.com/HIMANIS/JJ035/words_annotations/FRCHANJJ_JJ035_0062R.json/110/line", 
            "@type": "oa:Annotation", 
            "motivation": "oa:painting", 
            "on": "http://bvmm.irht.cnrs.fr/iiif/23575/canvas/canvas-2270495#xywh=293,1987,128,53", 
            "resource": {
                "@type": "cnt:ContentAsText", 
                "chars": "DE", 
                "format": "text/plain"
            }
        }, 
        {
            "@id": "https://manifests.teklia.com/HIMANIS/JJ035/words_annotations/FRCHANJJ_JJ035_0062R.json/111/line", 
            "@type": "oa:Annotation", 
            "motivation": "oa:painting", 
            "on": "http://bvmm.irht.cnrs.fr/iiif/23575/canvas/canvas-2270495#xywh=276,1674,348,70", 
            "resource": {
                "@type": "cnt:ContentAsText", 
                "chars": "SELLIS", 
                "format": "text/plain"
            }
        }, 
        {
            "@id": "https://manifests.teklia.com/HIMANIS/JJ035/words_annotations/FRCHANJJ_JJ035_0062R.json/112/line", 
            "@type": "oa:Annotation", 
            "motivation": "oa:painting", 
            "on": "http://bvmm.irht.cnrs.fr/iiif/23575/canvas/canvas-2270495#xywh=293,1987,145,53", 
            "resource": {
                "@type": "cnt:ContentAsText", 
                "chars": "DI", 
                "format": "text/plain"
            }
        }, 
        {
            "@id": "https://manifests.teklia.com/HIMANIS/JJ035/words_annotations/FRCHANJJ_JJ035_0062R.json/113/line", 
            "@type": "oa:Annotation", 
            "motivation": "oa:painting", 
            "on": "http://bvmm.irht.cnrs.fr/iiif/23575/canvas/canvas-2270495#xywh=1461,330,157,80", 
            "resource": {
                "@type": "cnt:ContentAsText", 
                "chars": "ORDENANCE", 
                "format": "text/plain"
            }
        }, 
        {
            "@id": "https://manifests.teklia.com/HIMANIS/JJ035/words_annotations/FRCHANJJ_JJ035_0062R.json/114/line", 
            "@type": "oa:Annotation", 
            "motivation": "oa:painting", 
            "on": "http://bvmm.irht.cnrs.fr/iiif/23575/canvas/canvas-2270495#xywh=610,1760,0,45", 
            "resource": {
                "@type": "cnt:ContentAsText", 
                "chars": "G", 
                "format": "text/plain"
            }
        }, 
        {
            "@id": "https://manifests.teklia.com/HIMANIS/JJ035/words_annotations/FRCHANJJ_JJ035_0062R.json/115/line", 
            "@type": "oa:Annotation", 
            "motivation": "oa:painting", 
            "on": "http://bvmm.irht.cnrs.fr/iiif/23575/canvas/canvas-2270495#xywh=610,1760,0,45", 
            "resource": {
                "@type": "cnt:ContentAsText", 
                "chars": "J", 
                "format": "text/plain"
            }
        }, 
        {
            "@id": "https://manifests.teklia.com/HIMANIS/JJ035/words_annotations/FRCHANJJ_JJ035_0062R.json/116/line", 
            "@type": "oa:Annotation", 
            "motivation": "oa:painting", 
            "on": "http://bvmm.irht.cnrs.fr/iiif/23575/canvas/canvas-2270495#xywh=1479,420,25,80", 
            "resource": {
                "@type": "cnt:ContentAsText", 
                "chars": "ET", 
                "format": "text/plain"
            }
        }, 
        {
            "@id": "https://manifests.teklia.com/HIMANIS/JJ035/words_annotations/FRCHANJJ_JJ035_0062R.json/117/line", 
            "@type": "oa:Annotation", 
            "motivation": "oa:painting", 
            "on": "http://bvmm.irht.cnrs.fr/iiif/23575/canvas/canvas-2270495#xywh=554,1135,75,66", 
            "resource": {
                "@type": "cnt:ContentAsText", 
                "chars": "ROCIG", 
                "format": "text/plain"
            }
        }, 
        {
            "@id": "https://manifests.teklia.com/HIMANIS/JJ035/words_annotations/FRCHANJJ_JJ035_0062R.json/118/line", 
            "@type": "oa:Annotation", 
            "motivation": "oa:painting", 
            "on": "http://bvmm.irht.cnrs.fr/iiif/23575/canvas/canvas-2270495#xywh=610,1760,0,45", 
            "resource": {
                "@type": "cnt:ContentAsText", 
                "chars": "P", 
                "format": "text/plain"
            }
        }, 
        {
            "@id": "https://manifests.teklia.com/HIMANIS/JJ035/words_annotations/FRCHANJJ_JJ035_0062R.json/119/line", 
            "@type": "oa:Annotation", 
            "motivation": "oa:painting", 
            "on": "http://bvmm.irht.cnrs.fr/iiif/23575/canvas/canvas-2270495#xywh=681,500,34,90", 
            "resource": {
                "@type": "cnt:ContentAsText", 
                "chars": "EN", 
                "format": "text/plain"
            }
        }, 
        {
            "@id": "https://manifests.teklia.com/HIMANIS/JJ035/words_annotations/FRCHANJJ_JJ035_0062R.json/120/line", 
            "@type": "oa:Annotation", 
            "motivation": "oa:painting", 
            "on": "http://bvmm.irht.cnrs.fr/iiif/23575/canvas/canvas-2270495#xywh=484,590,108,86", 
            "resource": {
                "@type": "cnt:ContentAsText", 
                "chars": "THOLAIN", 
                "format": "text/plain"
            }
        }, 
        {
            "@id": "https://manifests.teklia.com/HIMANIS/JJ035/words_annotations/FRCHANJJ_JJ035_0062R.json/121/line", 
            "@type": "oa:Annotation", 
            "motivation": "oa:painting", 
            "on": "http://bvmm.irht.cnrs.fr/iiif/23575/canvas/canvas-2270495#xywh=435,590,0,86", 
            "resource": {
                "@type": "cnt:ContentAsText", 
                "chars": "A", 
                "format": "text/plain"
            }
        }, 
        {
            "@id": "https://manifests.teklia.com/HIMANIS/JJ035/words_annotations/FRCHANJJ_JJ035_0062R.json/122/line", 
            "@type": "oa:Annotation", 
            "motivation": "oa:painting", 
            "on": "http://bvmm.irht.cnrs.fr/iiif/23575/canvas/canvas-2270495#xywh=1401,500,34,90", 
            "resource": {
                "@type": "cnt:ContentAsText", 
                "chars": "ET", 
                "format": "text/plain"
            }
        }, 
        {
            "@id": "https://manifests.teklia.com/HIMANIS/JJ035/words_annotations/FRCHANJJ_JJ035_0062R.json/123/line", 
            "@type": "oa:Annotation", 
            "motivation": "oa:painting", 
            "on": "http://bvmm.irht.cnrs.fr/iiif/23575/canvas/canvas-2270495#xywh=565,766,106,93", 
            "resource": {
                "@type": "cnt:ContentAsText", 
                "chars": "MISSA", 
                "format": "text/plain"
            }
        }, 
        {
            "@id": "https://manifests.teklia.com/HIMANIS/JJ035/words_annotations/FRCHANJJ_JJ035_0062R.json/124/line", 
            "@type": "oa:Annotation", 
            "motivation": "oa:painting", 
            "on": "http://bvmm.irht.cnrs.fr/iiif/23575/canvas/canvas-2270495#xywh=276,1674,146,70", 
            "resource": {
                "@type": "cnt:ContentAsText", 
                "chars": "SEULZ", 
                "format": "text/plain"
            }
        }, 
        {
            "@id": "https://manifests.teklia.com/HIMANIS/JJ035/words_annotations/FRCHANJJ_JJ035_0062R.json/125/line", 
            "@type": "oa:Annotation", 
            "motivation": "oa:painting", 
            "on": "http://bvmm.irht.cnrs.fr/iiif/23575/canvas/canvas-2270495#xywh=420,1760,129,45", 
            "resource": {
                "@type": "cnt:ContentAsText", 
                "chars": "CCC", 
                "format": "text/plain"
            }
        }, 
        {
            "@id": "https://manifests.teklia.com/HIMANIS/JJ035/words_annotations/FRCHANJJ_JJ035_0062R.json/126/line", 
            "@type": "oa:Annotation", 
            "motivation": "oa:painting", 
            "on": "http://bvmm.irht.cnrs.fr/iiif/23575/canvas/canvas-2270495#xywh=1575,1552,50,80", 
            "resource": {
                "@type": "cnt:ContentAsText", 
                "chars": "SA", 
                "format": "text/plain"
            }
        }, 
        {
            "@id": "https://manifests.teklia.com/HIMANIS/JJ035/words_annotations/FRCHANJJ_JJ035_0062R.json/127/line", 
            "@type": "oa:Annotation", 
            "motivation": "oa:painting", 
            "on": "http://bvmm.irht.cnrs.fr/iiif/23575/canvas/canvas-2270495#xywh=276,1674,146,70", 
            "resource": {
                "@type": "cnt:ContentAsText", 
                "chars": "SELIS", 
                "format": "text/plain"
            }
        }, 
        {
            "@id": "https://manifests.teklia.com/HIMANIS/JJ035/words_annotations/FRCHANJJ_JJ035_0062R.json/128/line", 
            "@type": "oa:Annotation", 
            "motivation": "oa:painting", 
            "on": "http://bvmm.irht.cnrs.fr/iiif/23575/canvas/canvas-2270495#xywh=846,590,27,86", 
            "resource": {
                "@type": "cnt:ContentAsText", 
                "chars": "EN", 
                "format": "text/plain"
            }
        }, 
        {
            "@id": "https://manifests.teklia.com/HIMANIS/JJ035/words_annotations/FRCHANJJ_JJ035_0062R.json/129/line", 
            "@type": "oa:Annotation", 
            "motivation": "oa:painting", 
            "on": "http://bvmm.irht.cnrs.fr/iiif/23575/canvas/canvas-2270495#xywh=1575,1552,20,80", 
            "resource": {
                "@type": "cnt:ContentAsText", 
                "chars": "SE", 
                "format": "text/plain"
            }
        }, 
        {
            "@id": "https://manifests.teklia.com/HIMANIS/JJ035/words_annotations/FRCHANJJ_JJ035_0062R.json/130/line", 
            "@type": "oa:Annotation", 
            "motivation": "oa:painting", 
            "on": "http://bvmm.irht.cnrs.fr/iiif/23575/canvas/canvas-2270495#xywh=498,1760,97,45", 
            "resource": {
                "@type": "cnt:ContentAsText", 
                "chars": "CC", 
                "format": "text/plain"
            }
        }, 
        {
            "@id": "https://manifests.teklia.com/HIMANIS/JJ035/words_annotations/FRCHANJJ_JJ035_0062R.json/131/line", 
            "@type": "oa:Annotation", 
            "motivation": "oa:painting", 
            "on": "http://bvmm.irht.cnrs.fr/iiif/23575/canvas/canvas-2270495#xywh=2132,500,74,90", 
            "resource": {
                "@type": "cnt:ContentAsText", 
                "chars": "PAR", 
                "format": "text/plain"
            }
        }, 
        {
            "@id": "https://manifests.teklia.com/HIMANIS/JJ035/words_annotations/FRCHANJJ_JJ035_0062R.json/132/line", 
            "@type": "oa:Annotation", 
            "motivation": "oa:painting", 
            "on": "http://bvmm.irht.cnrs.fr/iiif/23575/canvas/canvas-2270495#xywh=1349,330,86,80", 
            "resource": {
                "@type": "cnt:ContentAsText", 
                "chars": "C'ESTE", 
                "format": "text/plain"
            }
        }, 
        {
            "@id": "https://manifests.teklia.com/HIMANIS/JJ035/words_annotations/FRCHANJJ_JJ035_0062R.json/133/line", 
            "@type": "oa:Annotation", 
            "motivation": "oa:painting", 
            "on": "http://bvmm.irht.cnrs.fr/iiif/23575/canvas/canvas-2270495#xywh=493,2843,272,41", 
            "resource": {
                "@type": "cnt:ContentAsText", 
                "chars": "RICHAUCIE", 
                "format": "text/plain"
            }
        }, 
        {
            "@id": "https://manifests.teklia.com/HIMANIS/JJ035/words_annotations/FRCHANJJ_JJ035_0062R.json/134/line", 
            "@type": "oa:Annotation", 
            "motivation": "oa:painting", 
            "on": "http://bvmm.irht.cnrs.fr/iiif/23575/canvas/canvas-2270495#xywh=1176,420,96,80", 
            "resource": {
                "@type": "cnt:ContentAsText", 
                "chars": "RESENT", 
                "format": "text/plain"
            }
        }, 
        {
            "@id": "https://manifests.teklia.com/HIMANIS/JJ035/words_annotations/FRCHANJJ_JJ035_0062R.json/135/line", 
            "@type": "oa:Annotation", 
            "motivation": "oa:painting", 
            "on": "http://bvmm.irht.cnrs.fr/iiif/23575/canvas/canvas-2270495#xywh=1176,420,96,80", 
            "resource": {
                "@type": "cnt:ContentAsText", 
                "chars": "RESENZ", 
                "format": "text/plain"
            }
        }, 
        {
            "@id": "https://manifests.teklia.com/HIMANIS/JJ035/words_annotations/FRCHANJJ_JJ035_0062R.json/136/line", 
            "@type": "oa:Annotation", 
            "motivation": "oa:painting", 
            "on": "http://bvmm.irht.cnrs.fr/iiif/23575/canvas/canvas-2270495#xywh=608,590,32,86", 
            "resource": {
                "@type": "cnt:ContentAsText", 
                "chars": "XXX", 
                "format": "text/plain"
            }
        }, 
        {
            "@id": "https://manifests.teklia.com/HIMANIS/JJ035/words_annotations/FRCHANJJ_JJ035_0062R.json/137/line", 
            "@type": "oa:Annotation", 
            "motivation": "oa:painting", 
            "on": "http://bvmm.irht.cnrs.fr/iiif/23575/canvas/canvas-2270495#xywh=363,330,116,80", 
            "resource": {
                "@type": "cnt:ContentAsText", 
                "chars": "NULLEE", 
                "format": "text/plain"
            }
        }, 
        {
            "@id": "https://manifests.teklia.com/HIMANIS/JJ035/words_annotations/FRCHANJJ_JJ035_0062R.json/138/line", 
            "@type": "oa:Annotation", 
            "motivation": "oa:painting", 
            "on": "http://bvmm.irht.cnrs.fr/iiif/23575/canvas/canvas-2270495#xywh=905,590,178,86", 
            "resource": {
                "@type": "cnt:ContentAsText", 
                "chars": "JEUDIER", 
                "format": "text/plain"
            }
        }, 
        {
            "@id": "https://manifests.teklia.com/HIMANIS/JJ035/words_annotations/FRCHANJJ_JJ035_0062R.json/139/line", 
            "@type": "oa:Annotation", 
            "motivation": "oa:painting", 
            "on": "http://bvmm.irht.cnrs.fr/iiif/23575/canvas/canvas-2270495#xywh=271,1422,193,40", 
            "resource": {
                "@type": "cnt:ContentAsText", 
                "chars": "COUSTERIS", 
                "format": "text/plain"
            }
        }, 
        {
            "@id": "https://manifests.teklia.com/HIMANIS/JJ035/words_annotations/FRCHANJJ_JJ035_0062R.json/140/line", 
            "@type": "oa:Annotation", 
            "motivation": "oa:painting", 
            "on": "http://bvmm.irht.cnrs.fr/iiif/23575/canvas/canvas-2270495#xywh=547,1038,90,75", 
            "resource": {
                "@type": "cnt:ContentAsText", 
                "chars": "GISOR", 
                "format": "text/plain"
            }
        }, 
        {
            "@id": "https://manifests.teklia.com/HIMANIS/JJ035/words_annotations/FRCHANJJ_JJ035_0062R.json/141/line", 
            "@type": "oa:Annotation", 
            "motivation": "oa:painting", 
            "on": "http://bvmm.irht.cnrs.fr/iiif/23575/canvas/canvas-2270495#xywh=637,1793,0,39", 
            "resource": {
                "@type": "cnt:ContentAsText", 
                "chars": "G", 
                "format": "text/plain"
            }
        }, 
        {
            "@id": "https://manifests.teklia.com/HIMANIS/JJ035/words_annotations/FRCHANJJ_JJ035_0062R.json/142/line", 
            "@type": "oa:Annotation", 
            "motivation": "oa:painting", 
            "on": "http://bvmm.irht.cnrs.fr/iiif/23575/canvas/canvas-2270495#xywh=346,500,85,90", 
            "resource": {
                "@type": "cnt:ContentAsText", 
                "chars": "PARIS", 
                "format": "text/plain"
            }
        }, 
        {
            "@id": "https://manifests.teklia.com/HIMANIS/JJ035/words_annotations/FRCHANJJ_JJ035_0062R.json/143/line", 
            "@type": "oa:Annotation", 
            "motivation": "oa:painting", 
            "on": "http://bvmm.irht.cnrs.fr/iiif/23575/canvas/canvas-2270495#xywh=637,1793,0,39", 
            "resource": {
                "@type": "cnt:ContentAsText", 
                "chars": "P", 
                "format": "text/plain"
            }
        }, 
        {
            "@id": "https://manifests.teklia.com/HIMANIS/JJ035/words_annotations/FRCHANJJ_JJ035_0062R.json/144/line", 
            "@type": "oa:Annotation", 
            "motivation": "oa:painting", 
            "on": "http://bvmm.irht.cnrs.fr/iiif/23575/canvas/canvas-2270495#xywh=1181,1295,183,58", 
            "resource": {
                "@type": "cnt:ContentAsText", 
                "chars": "POICTOU", 
                "format": "text/plain"
            }
        }, 
        {
            "@id": "https://manifests.teklia.com/HIMANIS/JJ035/words_annotations/FRCHANJJ_JJ035_0062R.json/145/line", 
            "@type": "oa:Annotation", 
            "motivation": "oa:painting", 
            "on": "http://bvmm.irht.cnrs.fr/iiif/23575/canvas/canvas-2270495#xywh=1534,420,66,80", 
            "resource": {
                "@type": "cnt:ContentAsText", 
                "chars": "SANZ", 
                "format": "text/plain"
            }
        }, 
        {
            "@id": "https://manifests.teklia.com/HIMANIS/JJ035/words_annotations/FRCHANJJ_JJ035_0062R.json/146/line", 
            "@type": "oa:Annotation", 
            "motivation": "oa:painting", 
            "on": "http://bvmm.irht.cnrs.fr/iiif/23575/canvas/canvas-2270495#xywh=282,420,96,80", 
            "resource": {
                "@type": "cnt:ContentAsText", 
                "chars": "LEVER", 
                "format": "text/plain"
            }
        }, 
        {
            "@id": "https://manifests.teklia.com/HIMANIS/JJ035/words_annotations/FRCHANJJ_JJ035_0062R.json/147/line", 
            "@type": "oa:Annotation", 
            "motivation": "oa:painting", 
            "on": "http://bvmm.irht.cnrs.fr/iiif/23575/canvas/canvas-2270495#xywh=371,766,165,93", 
            "resource": {
                "@type": "cnt:ContentAsText", 
                "chars": "SUPRASCRIPTA", 
                "format": "text/plain"
            }
        }, 
        {
            "@id": "https://manifests.teklia.com/HIMANIS/JJ035/words_annotations/FRCHANJJ_JJ035_0062R.json/148/line", 
            "@type": "oa:Annotation", 
            "motivation": "oa:painting", 
            "on": "http://bvmm.irht.cnrs.fr/iiif/23575/canvas/canvas-2270495#xywh=22,2167,686,82", 
            "resource": {
                "@type": "cnt:ContentAsText", 
                "chars": "ANNE", 
                "format": "text/plain"
            }
        }, 
        {
            "@id": "https://manifests.teklia.com/HIMANIS/JJ035/words_annotations/FRCHANJJ_JJ035_0062R.json/149/line", 
            "@type": "oa:Annotation", 
            "motivation": "oa:painting", 
            "on": "http://bvmm.irht.cnrs.fr/iiif/23575/canvas/canvas-2270495#xywh=394,1987,0,53", 
            "resource": {
                "@type": "cnt:ContentAsText", 
                "chars": "E", 
                "format": "text/plain"
            }
        }, 
        {
            "@id": "https://manifests.teklia.com/HIMANIS/JJ035/words_annotations/FRCHANJJ_JJ035_0062R.json/150/line", 
            "@type": "oa:Annotation", 
            "motivation": "oa:painting", 
            "on": "http://bvmm.irht.cnrs.fr/iiif/23575/canvas/canvas-2270495#xywh=274,1135,184,66", 
            "resource": {
                "@type": "cnt:ContentAsText", 
                "chars": "BALLIS", 
                "format": "text/plain"
            }
        }, 
        {
            "@id": "https://manifests.teklia.com/HIMANIS/JJ035/words_annotations/FRCHANJJ_JJ035_0062R.json/151/line", 
            "@type": "oa:Annotation", 
            "motivation": "oa:painting", 
            "on": "http://bvmm.irht.cnrs.fr/iiif/23575/canvas/canvas-2270495#xywh=905,590,178,86", 
            "resource": {
                "@type": "cnt:ContentAsText", 
                "chars": "JEUNIER", 
                "format": "text/plain"
            }
        }, 
        {
            "@id": "https://manifests.teklia.com/HIMANIS/JJ035/words_annotations/FRCHANJJ_JJ035_0062R.json/152/line", 
            "@type": "oa:Annotation", 
            "motivation": "oa:painting", 
            "on": "http://bvmm.irht.cnrs.fr/iiif/23575/canvas/canvas-2270495#xywh=360,2119,80,48", 
            "resource": {
                "@type": "cnt:ContentAsText", 
                "chars": "DENIE", 
                "format": "text/plain"
            }
        }, 
        {
            "@id": "https://manifests.teklia.com/HIMANIS/JJ035/words_annotations/FRCHANJJ_JJ035_0062R.json/153/line", 
            "@type": "oa:Annotation", 
            "motivation": "oa:painting", 
            "on": "http://bvmm.irht.cnrs.fr/iiif/23575/canvas/canvas-2270495#xywh=302,1552,167,80", 
            "resource": {
                "@type": "cnt:ContentAsText", 
                "chars": "VIVENDUM", 
                "format": "text/plain"
            }
        }, 
        {
            "@id": "https://manifests.teklia.com/HIMANIS/JJ035/words_annotations/FRCHANJJ_JJ035_0062R.json/154/line", 
            "@type": "oa:Annotation", 
            "motivation": "oa:painting", 
            "on": "http://bvmm.irht.cnrs.fr/iiif/23575/canvas/canvas-2270495#xywh=694,590,114,86", 
            "resource": {
                "@type": "cnt:ContentAsText", 
                "chars": "JOURS", 
                "format": "text/plain"
            }
        }, 
        {
            "@id": "https://manifests.teklia.com/HIMANIS/JJ035/words_annotations/FRCHANJJ_JJ035_0062R.json/155/line", 
            "@type": "oa:Annotation", 
            "motivation": "oa:painting", 
            "on": "http://bvmm.irht.cnrs.fr/iiif/23575/canvas/canvas-2270495#xywh=299,2249,107,40", 
            "resource": {
                "@type": "cnt:ContentAsText", 
                "chars": "GUY", 
                "format": "text/plain"
            }
        }, 
        {
            "@id": "https://manifests.teklia.com/HIMANIS/JJ035/words_annotations/FRCHANJJ_JJ035_0062R.json/156/line", 
            "@type": "oa:Annotation", 
            "motivation": "oa:painting", 
            "on": "http://bvmm.irht.cnrs.fr/iiif/23575/canvas/canvas-2270495#xywh=1554,500,102,90", 
            "resource": {
                "@type": "cnt:ContentAsText", 
                "chars": "DELAY", 
                "format": "text/plain"
            }
        }, 
        {
            "@id": "https://manifests.teklia.com/HIMANIS/JJ035/words_annotations/FRCHANJJ_JJ035_0062R.json/157/line", 
            "@type": "oa:Annotation", 
            "motivation": "oa:painting", 
            "on": "http://bvmm.irht.cnrs.fr/iiif/23575/canvas/canvas-2270495#xywh=694,590,114,86", 
            "resource": {
                "@type": "cnt:ContentAsText", 
                "chars": "JOURZ", 
                "format": "text/plain"
            }
        }, 
        {
            "@id": "https://manifests.teklia.com/HIMANIS/JJ035/words_annotations/FRCHANJJ_JJ035_0062R.json/158/line", 
            "@type": "oa:Annotation", 
            "motivation": "oa:painting", 
            "on": "http://bvmm.irht.cnrs.fr/iiif/23575/canvas/canvas-2270495#xywh=140,2119,556,48", 
            "resource": {
                "@type": "cnt:ContentAsText", 
                "chars": "NOSTR", 
                "format": "text/plain"
            }
        }, 
        {
            "@id": "https://manifests.teklia.com/HIMANIS/JJ035/words_annotations/FRCHANJJ_JJ035_0062R.json/159/line", 
            "@type": "oa:Annotation", 
            "motivation": "oa:painting", 
            "on": "http://bvmm.irht.cnrs.fr/iiif/23575/canvas/canvas-2270495#xywh=37,1925,442,45", 
            "resource": {
                "@type": "cnt:ContentAsText", 
                "chars": "CCC", 
                "format": "text/plain"
            }
        }, 
        {
            "@id": "https://manifests.teklia.com/HIMANIS/JJ035/words_annotations/FRCHANJJ_JJ035_0062R.json/160/line", 
            "@type": "oa:Annotation", 
            "motivation": "oa:painting", 
            "on": "http://bvmm.irht.cnrs.fr/iiif/23575/canvas/canvas-2270495#xywh=1210,1552,195,80", 
            "resource": {
                "@type": "cnt:ContentAsText", 
                "chars": "CHOLOSE", 
                "format": "text/plain"
            }
        }, 
        {
            "@id": "https://manifests.teklia.com/HIMANIS/JJ035/words_annotations/FRCHANJJ_JJ035_0062R.json/161/line", 
            "@type": "oa:Annotation", 
            "motivation": "oa:painting", 
            "on": "http://bvmm.irht.cnrs.fr/iiif/23575/canvas/canvas-2270495#xywh=493,2843,270,41", 
            "resource": {
                "@type": "cnt:ContentAsText", 
                "chars": "ROCHAINE", 
                "format": "text/plain"
            }
        }, 
        {
            "@id": "https://manifests.teklia.com/HIMANIS/JJ035/words_annotations/FRCHANJJ_JJ035_0062R.json/162/line", 
            "@type": "oa:Annotation", 
            "motivation": "oa:painting", 
            "on": "http://bvmm.irht.cnrs.fr/iiif/23575/canvas/canvas-2270495#xywh=302,1552,167,80", 
            "resource": {
                "@type": "cnt:ContentAsText", 
                "chars": "VINENDUM", 
                "format": "text/plain"
            }
        }, 
        {
            "@id": "https://manifests.teklia.com/HIMANIS/JJ035/words_annotations/FRCHANJJ_JJ035_0062R.json/163/line", 
            "@type": "oa:Annotation", 
            "motivation": "oa:painting", 
            "on": "http://bvmm.irht.cnrs.fr/iiif/23575/canvas/canvas-2270495#xywh=1962,330,30,80", 
            "resource": {
                "@type": "cnt:ContentAsText", 
                "chars": "QUE", 
                "format": "text/plain"
            }
        }, 
        {
            "@id": "https://manifests.teklia.com/HIMANIS/JJ035/words_annotations/FRCHANJJ_JJ035_0062R.json/164/line", 
            "@type": "oa:Annotation", 
            "motivation": "oa:painting", 
            "on": "http://bvmm.irht.cnrs.fr/iiif/23575/canvas/canvas-2270495#xywh=340,1760,80,45", 
            "resource": {
                "@type": "cnt:ContentAsText", 
                "chars": "GRACE", 
                "format": "text/plain"
            }
        }
    ]
}