{
    "@context": "http://iiif.io/api/presentation/2/context.json", 
    "@id": "https://manifests.teklia.com/HIMANIS/JJ035/words_annotations/FRCHANJJ_JJ035_0068R.json", 
    "@type": "sc:AnnotationList", 
    "resources": [
        {
            "@id": "https://manifests.teklia.com/HIMANIS/JJ035/words_annotations/FRCHANJJ_JJ035_0068R.json/0/line", 
            "@type": "oa:Annotation", 
            "motivation": "oa:painting", 
            "on": "http://bvmm.irht.cnrs.fr/iiif/23575/canvas/canvas-2270507#xywh=291,2752,213,72", 
            "resource": {
                "@type": "cnt:ContentAsText", 
                "chars": "COSTRAVENSIS", 
                "format": "text/plain"
            }
        }, 
        {
            "@id": "https://manifests.teklia.com/HIMANIS/JJ035/words_annotations/FRCHANJJ_JJ035_0068R.json/1/line", 
            "@type": "oa:Annotation", 
            "motivation": "oa:painting", 
            "on": "http://bvmm.irht.cnrs.fr/iiif/23575/canvas/canvas-2270507#xywh=1280,1601,223,78", 
            "resource": {
                "@type": "cnt:ContentAsText", 
                "chars": "CLAROMENT", 
                "format": "text/plain"
            }
        }, 
        {
            "@id": "https://manifests.teklia.com/HIMANIS/JJ035/words_annotations/FRCHANJJ_JJ035_0068R.json/2/line", 
            "@type": "oa:Annotation", 
            "motivation": "oa:painting", 
            "on": "http://bvmm.irht.cnrs.fr/iiif/23575/canvas/canvas-2270507#xywh=319,876,0,24", 
            "resource": {
                "@type": "cnt:ContentAsText", 
                "chars": "P", 
                "format": "text/plain"
            }
        }, 
        {
            "@id": "https://manifests.teklia.com/HIMANIS/JJ035/words_annotations/FRCHANJJ_JJ035_0068R.json/3/line", 
            "@type": "oa:Annotation", 
            "motivation": "oa:painting", 
            "on": "http://bvmm.irht.cnrs.fr/iiif/23575/canvas/canvas-2270507#xywh=319,876,0,24", 
            "resource": {
                "@type": "cnt:ContentAsText", 
                "chars": "R", 
                "format": "text/plain"
            }
        }, 
        {
            "@id": "https://manifests.teklia.com/HIMANIS/JJ035/words_annotations/FRCHANJJ_JJ035_0068R.json/4/line", 
            "@type": "oa:Annotation", 
            "motivation": "oa:painting", 
            "on": "http://bvmm.irht.cnrs.fr/iiif/23575/canvas/canvas-2270507#xywh=291,2946,196,62", 
            "resource": {
                "@type": "cnt:ContentAsText", 
                "chars": "BIGORRIENS", 
                "format": "text/plain"
            }
        }, 
        {
            "@id": "https://manifests.teklia.com/HIMANIS/JJ035/words_annotations/FRCHANJJ_JJ035_0068R.json/5/line", 
            "@type": "oa:Annotation", 
            "motivation": "oa:painting", 
            "on": "http://bvmm.irht.cnrs.fr/iiif/23575/canvas/canvas-2270507#xywh=292,2103,179,52", 
            "resource": {
                "@type": "cnt:ContentAsText", 
                "chars": "CONSTANTE", 
                "format": "text/plain"
            }
        }, 
        {
            "@id": "https://manifests.teklia.com/HIMANIS/JJ035/words_annotations/FRCHANJJ_JJ035_0068R.json/6/line", 
            "@type": "oa:Annotation", 
            "motivation": "oa:painting", 
            "on": "http://bvmm.irht.cnrs.fr/iiif/23575/canvas/canvas-2270507#xywh=1310,695,128,51", 
            "resource": {
                "@type": "cnt:ContentAsText", 
                "chars": "QUING", 
                "format": "text/plain"
            }
        }, 
        {
            "@id": "https://manifests.teklia.com/HIMANIS/JJ035/words_annotations/FRCHANJJ_JJ035_0068R.json/7/line", 
            "@type": "oa:Annotation", 
            "motivation": "oa:painting", 
            "on": "http://bvmm.irht.cnrs.fr/iiif/23575/canvas/canvas-2270507#xywh=1513,1496,99,105", 
            "resource": {
                "@type": "cnt:ContentAsText", 
                "chars": "SITUR", 
                "format": "text/plain"
            }
        }, 
        {
            "@id": "https://manifests.teklia.com/HIMANIS/JJ035/words_annotations/FRCHANJJ_JJ035_0068R.json/8/line", 
            "@type": "oa:Annotation", 
            "motivation": "oa:painting", 
            "on": "http://bvmm.irht.cnrs.fr/iiif/23575/canvas/canvas-2270507#xywh=309,1163,66,34", 
            "resource": {
                "@type": "cnt:ContentAsText", 
                "chars": "DO", 
                "format": "text/plain"
            }
        }, 
        {
            "@id": "https://manifests.teklia.com/HIMANIS/JJ035/words_annotations/FRCHANJJ_JJ035_0068R.json/9/line", 
            "@type": "oa:Annotation", 
            "motivation": "oa:painting", 
            "on": "http://bvmm.irht.cnrs.fr/iiif/23575/canvas/canvas-2270507#xywh=795,2865,180,60", 
            "resource": {
                "@type": "cnt:ContentAsText", 
                "chars": "KAROVENANS", 
                "format": "text/plain"
            }
        }, 
        {
            "@id": "https://manifests.teklia.com/HIMANIS/JJ035/words_annotations/FRCHANJJ_JJ035_0068R.json/10/line", 
            "@type": "oa:Annotation", 
            "motivation": "oa:painting", 
            "on": "http://bvmm.irht.cnrs.fr/iiif/23575/canvas/canvas-2270507#xywh=425,2433,60,39", 
            "resource": {
                "@type": "cnt:ContentAsText", 
                "chars": "PHILIPPUS", 
                "format": "text/plain"
            }
        }, 
        {
            "@id": "https://manifests.teklia.com/HIMANIS/JJ035/words_annotations/FRCHANJJ_JJ035_0068R.json/11/line", 
            "@type": "oa:Annotation", 
            "motivation": "oa:painting", 
            "on": "http://bvmm.irht.cnrs.fr/iiif/23575/canvas/canvas-2270507#xywh=425,2433,57,39", 
            "resource": {
                "@type": "cnt:ContentAsText", 
                "chars": "PHILIPPES", 
                "format": "text/plain"
            }
        }, 
        {
            "@id": "https://manifests.teklia.com/HIMANIS/JJ035/words_annotations/FRCHANJJ_JJ035_0068R.json/12/line", 
            "@type": "oa:Annotation", 
            "motivation": "oa:painting", 
            "on": "http://bvmm.irht.cnrs.fr/iiif/23575/canvas/canvas-2270507#xywh=74,965,414,43", 
            "resource": {
                "@type": "cnt:ContentAsText", 
                "chars": "PREMANSE", 
                "format": "text/plain"
            }
        }, 
        {
            "@id": "https://manifests.teklia.com/HIMANIS/JJ035/words_annotations/FRCHANJJ_JJ035_0068R.json/13/line", 
            "@type": "oa:Annotation", 
            "motivation": "oa:painting", 
            "on": "http://bvmm.irht.cnrs.fr/iiif/23575/canvas/canvas-2270507#xywh=53,1998,381,67", 
            "resource": {
                "@type": "cnt:ContentAsText", 
                "chars": "EBROITEM", 
                "format": "text/plain"
            }
        }, 
        {
            "@id": "https://manifests.teklia.com/HIMANIS/JJ035/words_annotations/FRCHANJJ_JJ035_0068R.json/14/line", 
            "@type": "oa:Annotation", 
            "motivation": "oa:painting", 
            "on": "http://bvmm.irht.cnrs.fr/iiif/23575/canvas/canvas-2270507#xywh=482,2433,264,39", 
            "resource": {
                "@type": "cnt:ContentAsText", 
                "chars": "QUE", 
                "format": "text/plain"
            }
        }, 
        {
            "@id": "https://manifests.teklia.com/HIMANIS/JJ035/words_annotations/FRCHANJJ_JJ035_0068R.json/15/line", 
            "@type": "oa:Annotation", 
            "motivation": "oa:painting", 
            "on": "http://bvmm.irht.cnrs.fr/iiif/23575/canvas/canvas-2270507#xywh=791,2692,319,60", 
            "resource": {
                "@type": "cnt:ContentAsText", 
                "chars": "CASCURRENIR", 
                "format": "text/plain"
            }
        }, 
        {
            "@id": "https://manifests.teklia.com/HIMANIS/JJ035/words_annotations/FRCHANJJ_JJ035_0068R.json/16/line", 
            "@type": "oa:Annotation", 
            "motivation": "oa:painting", 
            "on": "http://bvmm.irht.cnrs.fr/iiif/23575/canvas/canvas-2270507#xywh=754,2752,354,72", 
            "resource": {
                "@type": "cnt:ContentAsText", 
                "chars": "CHASTER", 
                "format": "text/plain"
            }
        }, 
        {
            "@id": "https://manifests.teklia.com/HIMANIS/JJ035/words_annotations/FRCHANJJ_JJ035_0068R.json/17/line", 
            "@type": "oa:Annotation", 
            "motivation": "oa:painting", 
            "on": "http://bvmm.irht.cnrs.fr/iiif/23575/canvas/canvas-2270507#xywh=74,2692,425,60", 
            "resource": {
                "@type": "cnt:ContentAsText", 
                "chars": "CORRENIER", 
                "format": "text/plain"
            }
        }, 
        {
            "@id": "https://manifests.teklia.com/HIMANIS/JJ035/words_annotations/FRCHANJJ_JJ035_0068R.json/18/line", 
            "@type": "oa:Annotation", 
            "motivation": "oa:painting", 
            "on": "http://bvmm.irht.cnrs.fr/iiif/23575/canvas/canvas-2270507#xywh=482,2433,172,39", 
            "resource": {
                "@type": "cnt:ContentAsText", 
                "chars": "ESTOIENT", 
                "format": "text/plain"
            }
        }, 
        {
            "@id": "https://manifests.teklia.com/HIMANIS/JJ035/words_annotations/FRCHANJJ_JJ035_0068R.json/19/line", 
            "@type": "oa:Annotation", 
            "motivation": "oa:painting", 
            "on": "http://bvmm.irht.cnrs.fr/iiif/23575/canvas/canvas-2270507#xywh=604,2946,125,62", 
            "resource": {
                "@type": "cnt:ContentAsText", 
                "chars": "CARBITRA", 
                "format": "text/plain"
            }
        }, 
        {
            "@id": "https://manifests.teklia.com/HIMANIS/JJ035/words_annotations/FRCHANJJ_JJ035_0068R.json/20/line", 
            "@type": "oa:Annotation", 
            "motivation": "oa:painting", 
            "on": "http://bvmm.irht.cnrs.fr/iiif/23575/canvas/canvas-2270507#xywh=364,555,0,18", 
            "resource": {
                "@type": "cnt:ContentAsText", 
                "chars": "P", 
                "format": "text/plain"
            }
        }, 
        {
            "@id": "https://manifests.teklia.com/HIMANIS/JJ035/words_annotations/FRCHANJJ_JJ035_0068R.json/21/line", 
            "@type": "oa:Annotation", 
            "motivation": "oa:painting", 
            "on": "http://bvmm.irht.cnrs.fr/iiif/23575/canvas/canvas-2270507#xywh=529,2364,209,69", 
            "resource": {
                "@type": "cnt:ContentAsText", 
                "chars": "AUXITANIS", 
                "format": "text/plain"
            }
        }, 
        {
            "@id": "https://manifests.teklia.com/HIMANIS/JJ035/words_annotations/FRCHANJJ_JJ035_0068R.json/22/line", 
            "@type": "oa:Annotation", 
            "motivation": "oa:painting", 
            "on": "http://bvmm.irht.cnrs.fr/iiif/23575/canvas/canvas-2270507#xywh=291,1496,204,105", 
            "resource": {
                "@type": "cnt:ContentAsText", 
                "chars": "ARCHIEPIS", 
                "format": "text/plain"
            }
        }, 
        {
            "@id": "https://manifests.teklia.com/HIMANIS/JJ035/words_annotations/FRCHANJJ_JJ035_0068R.json/23/line", 
            "@type": "oa:Annotation", 
            "motivation": "oa:painting", 
            "on": "http://bvmm.irht.cnrs.fr/iiif/23575/canvas/canvas-2270507#xywh=364,555,0,18", 
            "resource": {
                "@type": "cnt:ContentAsText", 
                "chars": "Y", 
                "format": "text/plain"
            }
        }, 
        {
            "@id": "https://manifests.teklia.com/HIMANIS/JJ035/words_annotations/FRCHANJJ_JJ035_0068R.json/24/line", 
            "@type": "oa:Annotation", 
            "motivation": "oa:painting", 
            "on": "http://bvmm.irht.cnrs.fr/iiif/23575/canvas/canvas-2270507#xywh=299,2472,144,70", 
            "resource": {
                "@type": "cnt:ContentAsText", 
                "chars": "AQUEM", 
                "format": "text/plain"
            }
        }, 
        {
            "@id": "https://manifests.teklia.com/HIMANIS/JJ035/words_annotations/FRCHANJJ_JJ035_0068R.json/25/line", 
            "@type": "oa:Annotation", 
            "motivation": "oa:painting", 
            "on": "http://bvmm.irht.cnrs.fr/iiif/23575/canvas/canvas-2270507#xywh=806,2570,117,85", 
            "resource": {
                "@type": "cnt:ContentAsText", 
                "chars": "OLORENSIS", 
                "format": "text/plain"
            }
        }, 
        {
            "@id": "https://manifests.teklia.com/HIMANIS/JJ035/words_annotations/FRCHANJJ_JJ035_0068R.json/26/line", 
            "@type": "oa:Annotation", 
            "motivation": "oa:painting", 
            "on": "http://bvmm.irht.cnrs.fr/iiif/23575/canvas/canvas-2270507#xywh=7,3163,2630,115", 
            "resource": {
                "@type": "cnt:ContentAsText", 
                "chars": "ELLE", 
                "format": "text/plain"
            }
        }, 
        {
            "@id": "https://manifests.teklia.com/HIMANIS/JJ035/words_annotations/FRCHANJJ_JJ035_0068R.json/27/line", 
            "@type": "oa:Annotation", 
            "motivation": "oa:painting", 
            "on": "http://bvmm.irht.cnrs.fr/iiif/23575/canvas/canvas-2270507#xywh=74,2692,596,60", 
            "resource": {
                "@type": "cnt:ContentAsText", 
                "chars": "CORNERIER", 
                "format": "text/plain"
            }
        }, 
        {
            "@id": "https://manifests.teklia.com/HIMANIS/JJ035/words_annotations/FRCHANJJ_JJ035_0068R.json/28/line", 
            "@type": "oa:Annotation", 
            "motivation": "oa:painting", 
            "on": "http://bvmm.irht.cnrs.fr/iiif/23575/canvas/canvas-2270507#xywh=63,1716,404,151", 
            "resource": {
                "@type": "cnt:ContentAsText", 
                "chars": "SAINTENE", 
                "format": "text/plain"
            }
        }, 
        {
            "@id": "https://manifests.teklia.com/HIMANIS/JJ035/words_annotations/FRCHANJJ_JJ035_0068R.json/29/line", 
            "@type": "oa:Annotation", 
            "motivation": "oa:painting", 
            "on": "http://bvmm.irht.cnrs.fr/iiif/23575/canvas/canvas-2270507#xywh=63,1716,404,151", 
            "resource": {
                "@type": "cnt:ContentAsText", 
                "chars": "SAINTENU", 
                "format": "text/plain"
            }
        }, 
        {
            "@id": "https://manifests.teklia.com/HIMANIS/JJ035/words_annotations/FRCHANJJ_JJ035_0068R.json/30/line", 
            "@type": "oa:Annotation", 
            "motivation": "oa:painting", 
            "on": "http://bvmm.irht.cnrs.fr/iiif/23575/canvas/canvas-2270507#xywh=1319,619,120,47", 
            "resource": {
                "@type": "cnt:ContentAsText", 
                "chars": "AUR", 
                "format": "text/plain"
            }
        }, 
        {
            "@id": "https://manifests.teklia.com/HIMANIS/JJ035/words_annotations/FRCHANJJ_JJ035_0068R.json/31/line", 
            "@type": "oa:Annotation", 
            "motivation": "oa:painting", 
            "on": "http://bvmm.irht.cnrs.fr/iiif/23575/canvas/canvas-2270507#xywh=1280,1601,243,78", 
            "resource": {
                "@type": "cnt:ContentAsText", 
                "chars": "CLAROMONTE", 
                "format": "text/plain"
            }
        }, 
        {
            "@id": "https://manifests.teklia.com/HIMANIS/JJ035/words_annotations/FRCHANJJ_JJ035_0068R.json/32/line", 
            "@type": "oa:Annotation", 
            "motivation": "oa:painting", 
            "on": "http://bvmm.irht.cnrs.fr/iiif/23575/canvas/canvas-2270507#xywh=754,2752,354,72", 
            "resource": {
                "@type": "cnt:ContentAsText", 
                "chars": "CASTER", 
                "format": "text/plain"
            }
        }, 
        {
            "@id": "https://manifests.teklia.com/HIMANIS/JJ035/words_annotations/FRCHANJJ_JJ035_0068R.json/33/line", 
            "@type": "oa:Annotation", 
            "motivation": "oa:painting", 
            "on": "http://bvmm.irht.cnrs.fr/iiif/23575/canvas/canvas-2270507#xywh=306,2656,202,48", 
            "resource": {
                "@type": "cnt:ContentAsText", 
                "chars": "PER", 
                "format": "text/plain"
            }
        }, 
        {
            "@id": "https://manifests.teklia.com/HIMANIS/JJ035/words_annotations/FRCHANJJ_JJ035_0068R.json/34/line", 
            "@type": "oa:Annotation", 
            "motivation": "oa:painting", 
            "on": "http://bvmm.irht.cnrs.fr/iiif/23575/canvas/canvas-2270507#xywh=306,2656,208,48", 
            "resource": {
                "@type": "cnt:ContentAsText", 
                "chars": "PAR", 
                "format": "text/plain"
            }
        }, 
        {
            "@id": "https://manifests.teklia.com/HIMANIS/JJ035/words_annotations/FRCHANJJ_JJ035_0068R.json/35/line", 
            "@type": "oa:Annotation", 
            "motivation": "oa:painting", 
            "on": "http://bvmm.irht.cnrs.fr/iiif/23575/canvas/canvas-2270507#xywh=806,2570,117,85", 
            "resource": {
                "@type": "cnt:ContentAsText", 
                "chars": "OLONENSIS", 
                "format": "text/plain"
            }
        }, 
        {
            "@id": "https://manifests.teklia.com/HIMANIS/JJ035/words_annotations/FRCHANJJ_JJ035_0068R.json/36/line", 
            "@type": "oa:Annotation", 
            "motivation": "oa:painting", 
            "on": "http://bvmm.irht.cnrs.fr/iiif/23575/canvas/canvas-2270507#xywh=311,1601,145,78", 
            "resource": {
                "@type": "cnt:ContentAsText", 
                "chars": "NOCENS", 
                "format": "text/plain"
            }
        }, 
        {
            "@id": "https://manifests.teklia.com/HIMANIS/JJ035/words_annotations/FRCHANJJ_JJ035_0068R.json/37/line", 
            "@type": "oa:Annotation", 
            "motivation": "oa:painting", 
            "on": "http://bvmm.irht.cnrs.fr/iiif/23575/canvas/canvas-2270507#xywh=331,2656,455,48", 
            "resource": {
                "@type": "cnt:ContentAsText", 
                "chars": "DES", 
                "format": "text/plain"
            }
        }, 
        {
            "@id": "https://manifests.teklia.com/HIMANIS/JJ035/words_annotations/FRCHANJJ_JJ035_0068R.json/38/line", 
            "@type": "oa:Annotation", 
            "motivation": "oa:painting", 
            "on": "http://bvmm.irht.cnrs.fr/iiif/23575/canvas/canvas-2270507#xywh=795,2865,180,60", 
            "resource": {
                "@type": "cnt:ContentAsText", 
                "chars": "KAROVENSIS", 
                "format": "text/plain"
            }
        }, 
        {
            "@id": "https://manifests.teklia.com/HIMANIS/JJ035/words_annotations/FRCHANJJ_JJ035_0068R.json/39/line", 
            "@type": "oa:Annotation", 
            "motivation": "oa:painting", 
            "on": "http://bvmm.irht.cnrs.fr/iiif/23575/canvas/canvas-2270507#xywh=7,3163,2297,115", 
            "resource": {
                "@type": "cnt:ContentAsText", 
                "chars": "GL", 
                "format": "text/plain"
            }
        }, 
        {
            "@id": "https://manifests.teklia.com/HIMANIS/JJ035/words_annotations/FRCHANJJ_JJ035_0068R.json/40/line", 
            "@type": "oa:Annotation", 
            "motivation": "oa:painting", 
            "on": "http://bvmm.irht.cnrs.fr/iiif/23575/canvas/canvas-2270507#xywh=16,0,420,112", 
            "resource": {
                "@type": "cnt:ContentAsText", 
                "chars": "CONTE", 
                "format": "text/plain"
            }
        }, 
        {
            "@id": "https://manifests.teklia.com/HIMANIS/JJ035/words_annotations/FRCHANJJ_JJ035_0068R.json/41/line", 
            "@type": "oa:Annotation", 
            "motivation": "oa:painting", 
            "on": "http://bvmm.irht.cnrs.fr/iiif/23575/canvas/canvas-2270507#xywh=53,1998,381,67", 
            "resource": {
                "@type": "cnt:ContentAsText", 
                "chars": "EROITEM", 
                "format": "text/plain"
            }
        }, 
        {
            "@id": "https://manifests.teklia.com/HIMANIS/JJ035/words_annotations/FRCHANJJ_JJ035_0068R.json/42/line", 
            "@type": "oa:Annotation", 
            "motivation": "oa:painting", 
            "on": "http://bvmm.irht.cnrs.fr/iiif/23575/canvas/canvas-2270507#xywh=55,1081,361,46", 
            "resource": {
                "@type": "cnt:ContentAsText", 
                "chars": "LETTRES", 
                "format": "text/plain"
            }
        }, 
        {
            "@id": "https://manifests.teklia.com/HIMANIS/JJ035/words_annotations/FRCHANJJ_JJ035_0068R.json/43/line", 
            "@type": "oa:Annotation", 
            "motivation": "oa:painting", 
            "on": "http://bvmm.irht.cnrs.fr/iiif/23575/canvas/canvas-2270507#xywh=299,2472,144,70", 
            "resource": {
                "@type": "cnt:ContentAsText", 
                "chars": "AQUENS", 
                "format": "text/plain"
            }
        }, 
        {
            "@id": "https://manifests.teklia.com/HIMANIS/JJ035/words_annotations/FRCHANJJ_JJ035_0068R.json/44/line", 
            "@type": "oa:Annotation", 
            "motivation": "oa:painting", 
            "on": "http://bvmm.irht.cnrs.fr/iiif/23575/canvas/canvas-2270507#xywh=842,2800,0,37", 
            "resource": {
                "@type": "cnt:ContentAsText", 
                "chars": "J", 
                "format": "text/plain"
            }
        }, 
        {
            "@id": "https://manifests.teklia.com/HIMANIS/JJ035/words_annotations/FRCHANJJ_JJ035_0068R.json/45/line", 
            "@type": "oa:Annotation", 
            "motivation": "oa:painting", 
            "on": "http://bvmm.irht.cnrs.fr/iiif/23575/canvas/canvas-2270507#xywh=482,2433,217,39", 
            "resource": {
                "@type": "cnt:ContentAsText", 
                "chars": "DENIERE", 
                "format": "text/plain"
            }
        }, 
        {
            "@id": "https://manifests.teklia.com/HIMANIS/JJ035/words_annotations/FRCHANJJ_JJ035_0068R.json/46/line", 
            "@type": "oa:Annotation", 
            "motivation": "oa:painting", 
            "on": "http://bvmm.irht.cnrs.fr/iiif/23575/canvas/canvas-2270507#xywh=2543,3031,96,23", 
            "resource": {
                "@type": "cnt:ContentAsText", 
                "chars": "PER", 
                "format": "text/plain"
            }
        }, 
        {
            "@id": "https://manifests.teklia.com/HIMANIS/JJ035/words_annotations/FRCHANJJ_JJ035_0068R.json/47/line", 
            "@type": "oa:Annotation", 
            "motivation": "oa:painting", 
            "on": "http://bvmm.irht.cnrs.fr/iiif/23575/canvas/canvas-2270507#xywh=842,2800,30,37", 
            "resource": {
                "@type": "cnt:ContentAsText", 
                "chars": "JA", 
                "format": "text/plain"
            }
        }, 
        {
            "@id": "https://manifests.teklia.com/HIMANIS/JJ035/words_annotations/FRCHANJJ_JJ035_0068R.json/48/line", 
            "@type": "oa:Annotation", 
            "motivation": "oa:painting", 
            "on": "http://bvmm.irht.cnrs.fr/iiif/23575/canvas/canvas-2270507#xywh=284,2860,120,44", 
            "resource": {
                "@type": "cnt:ContentAsText", 
                "chars": "NORMA", 
                "format": "text/plain"
            }
        }, 
        {
            "@id": "https://manifests.teklia.com/HIMANIS/JJ035/words_annotations/FRCHANJJ_JJ035_0068R.json/49/line", 
            "@type": "oa:Annotation", 
            "motivation": "oa:painting", 
            "on": "http://bvmm.irht.cnrs.fr/iiif/23575/canvas/canvas-2270507#xywh=44,1867,0,54", 
            "resource": {
                "@type": "cnt:ContentAsText", 
                "chars": "M", 
                "format": "text/plain"
            }
        }, 
        {
            "@id": "https://manifests.teklia.com/HIMANIS/JJ035/words_annotations/FRCHANJJ_JJ035_0068R.json/50/line", 
            "@type": "oa:Annotation", 
            "motivation": "oa:painting", 
            "on": "http://bvmm.irht.cnrs.fr/iiif/23575/canvas/canvas-2270507#xywh=1231,1927,240,57", 
            "resource": {
                "@type": "cnt:ContentAsText", 
                "chars": "CE", 
                "format": "text/plain"
            }
        }, 
        {
            "@id": "https://manifests.teklia.com/HIMANIS/JJ035/words_annotations/FRCHANJJ_JJ035_0068R.json/51/line", 
            "@type": "oa:Annotation", 
            "motivation": "oa:painting", 
            "on": "http://bvmm.irht.cnrs.fr/iiif/23575/canvas/canvas-2270507#xywh=2247,177,0,90", 
            "resource": {
                "@type": "cnt:ContentAsText", 
                "chars": "H", 
                "format": "text/plain"
            }
        }, 
        {
            "@id": "https://manifests.teklia.com/HIMANIS/JJ035/words_annotations/FRCHANJJ_JJ035_0068R.json/52/line", 
            "@type": "oa:Annotation", 
            "motivation": "oa:painting", 
            "on": "http://bvmm.irht.cnrs.fr/iiif/23575/canvas/canvas-2270507#xywh=2247,177,0,90", 
            "resource": {
                "@type": "cnt:ContentAsText", 
                "chars": "J", 
                "format": "text/plain"
            }
        }, 
        {
            "@id": "https://manifests.teklia.com/HIMANIS/JJ035/words_annotations/FRCHANJJ_JJ035_0068R.json/53/line", 
            "@type": "oa:Annotation", 
            "motivation": "oa:painting", 
            "on": "http://bvmm.irht.cnrs.fr/iiif/23575/canvas/canvas-2270507#xywh=305,696,141,50", 
            "resource": {
                "@type": "cnt:ContentAsText", 
                "chars": "LODONERR", 
                "format": "text/plain"
            }
        }, 
        {
            "@id": "https://manifests.teklia.com/HIMANIS/JJ035/words_annotations/FRCHANJJ_JJ035_0068R.json/54/line", 
            "@type": "oa:Annotation", 
            "motivation": "oa:painting", 
            "on": "http://bvmm.irht.cnrs.fr/iiif/23575/canvas/canvas-2270507#xywh=1286,2114,0,45", 
            "resource": {
                "@type": "cnt:ContentAsText", 
                "chars": "G", 
                "format": "text/plain"
            }
        }, 
        {
            "@id": "https://manifests.teklia.com/HIMANIS/JJ035/words_annotations/FRCHANJJ_JJ035_0068R.json/55/line", 
            "@type": "oa:Annotation", 
            "motivation": "oa:painting", 
            "on": "http://bvmm.irht.cnrs.fr/iiif/23575/canvas/canvas-2270507#xywh=1286,2114,0,45", 
            "resource": {
                "@type": "cnt:ContentAsText", 
                "chars": "H", 
                "format": "text/plain"
            }
        }, 
        {
            "@id": "https://manifests.teklia.com/HIMANIS/JJ035/words_annotations/FRCHANJJ_JJ035_0068R.json/56/line", 
            "@type": "oa:Annotation", 
            "motivation": "oa:painting", 
            "on": "http://bvmm.irht.cnrs.fr/iiif/23575/canvas/canvas-2270507#xywh=529,2364,214,69", 
            "resource": {
                "@type": "cnt:ContentAsText", 
                "chars": "AUXITANS", 
                "format": "text/plain"
            }
        }, 
        {
            "@id": "https://manifests.teklia.com/HIMANIS/JJ035/words_annotations/FRCHANJJ_JJ035_0068R.json/57/line", 
            "@type": "oa:Annotation", 
            "motivation": "oa:painting", 
            "on": "http://bvmm.irht.cnrs.fr/iiif/23575/canvas/canvas-2270507#xywh=2247,177,0,90", 
            "resource": {
                "@type": "cnt:ContentAsText", 
                "chars": "Y", 
                "format": "text/plain"
            }
        }, 
        {
            "@id": "https://manifests.teklia.com/HIMANIS/JJ035/words_annotations/FRCHANJJ_JJ035_0068R.json/58/line", 
            "@type": "oa:Annotation", 
            "motivation": "oa:painting", 
            "on": "http://bvmm.irht.cnrs.fr/iiif/23575/canvas/canvas-2270507#xywh=1286,2114,0,45", 
            "resource": {
                "@type": "cnt:ContentAsText", 
                "chars": "M", 
                "format": "text/plain"
            }
        }, 
        {
            "@id": "https://manifests.teklia.com/HIMANIS/JJ035/words_annotations/FRCHANJJ_JJ035_0068R.json/59/line", 
            "@type": "oa:Annotation", 
            "motivation": "oa:painting", 
            "on": "http://bvmm.irht.cnrs.fr/iiif/23575/canvas/canvas-2270507#xywh=1286,2114,0,45", 
            "resource": {
                "@type": "cnt:ContentAsText", 
                "chars": "R", 
                "format": "text/plain"
            }
        }, 
        {
            "@id": "https://manifests.teklia.com/HIMANIS/JJ035/words_annotations/FRCHANJJ_JJ035_0068R.json/60/line", 
            "@type": "oa:Annotation", 
            "motivation": "oa:painting", 
            "on": "http://bvmm.irht.cnrs.fr/iiif/23575/canvas/canvas-2270507#xywh=301,763,125,54", 
            "resource": {
                "@type": "cnt:ContentAsText", 
                "chars": "HOLOSE", 
                "format": "text/plain"
            }
        }, 
        {
            "@id": "https://manifests.teklia.com/HIMANIS/JJ035/words_annotations/FRCHANJJ_JJ035_0068R.json/61/line", 
            "@type": "oa:Annotation", 
            "motivation": "oa:painting", 
            "on": "http://bvmm.irht.cnrs.fr/iiif/23575/canvas/canvas-2270507#xywh=1282,1496,191,105", 
            "resource": {
                "@type": "cnt:ContentAsText", 
                "chars": "ARCHIEPS", 
                "format": "text/plain"
            }
        }, 
        {
            "@id": "https://manifests.teklia.com/HIMANIS/JJ035/words_annotations/FRCHANJJ_JJ035_0068R.json/62/line", 
            "@type": "oa:Annotation", 
            "motivation": "oa:painting", 
            "on": "http://bvmm.irht.cnrs.fr/iiif/23575/canvas/canvas-2270507#xywh=1274,447,28,56", 
            "resource": {
                "@type": "cnt:ContentAsText", 
                "chars": "PAR", 
                "format": "text/plain"
            }
        }, 
        {
            "@id": "https://manifests.teklia.com/HIMANIS/JJ035/words_annotations/FRCHANJJ_JJ035_0068R.json/63/line", 
            "@type": "oa:Annotation", 
            "motivation": "oa:painting", 
            "on": "http://bvmm.irht.cnrs.fr/iiif/23575/canvas/canvas-2270507#xywh=565,2946,27,62", 
            "resource": {
                "@type": "cnt:ContentAsText", 
                "chars": "LA", 
                "format": "text/plain"
            }
        }, 
        {
            "@id": "https://manifests.teklia.com/HIMANIS/JJ035/words_annotations/FRCHANJJ_JJ035_0068R.json/64/line", 
            "@type": "oa:Annotation", 
            "motivation": "oa:painting", 
            "on": "http://bvmm.irht.cnrs.fr/iiif/23575/canvas/canvas-2270507#xywh=565,2946,31,62", 
            "resource": {
                "@type": "cnt:ContentAsText", 
                "chars": "LE", 
                "format": "text/plain"
            }
        }, 
        {
            "@id": "https://manifests.teklia.com/HIMANIS/JJ035/words_annotations/FRCHANJJ_JJ035_0068R.json/65/line", 
            "@type": "oa:Annotation", 
            "motivation": "oa:painting", 
            "on": "http://bvmm.irht.cnrs.fr/iiif/23575/canvas/canvas-2270507#xywh=565,2946,16,62", 
            "resource": {
                "@type": "cnt:ContentAsText", 
                "chars": "LI", 
                "format": "text/plain"
            }
        }, 
        {
            "@id": "https://manifests.teklia.com/HIMANIS/JJ035/words_annotations/FRCHANJJ_JJ035_0068R.json/66/line", 
            "@type": "oa:Annotation", 
            "motivation": "oa:painting", 
            "on": "http://bvmm.irht.cnrs.fr/iiif/23575/canvas/canvas-2270507#xywh=2543,3031,0,23", 
            "resource": {
                "@type": "cnt:ContentAsText", 
                "chars": "P", 
                "format": "text/plain"
            }
        }, 
        {
            "@id": "https://manifests.teklia.com/HIMANIS/JJ035/words_annotations/FRCHANJJ_JJ035_0068R.json/67/line", 
            "@type": "oa:Annotation", 
            "motivation": "oa:painting", 
            "on": "http://bvmm.irht.cnrs.fr/iiif/23575/canvas/canvas-2270507#xywh=299,2472,0,70", 
            "resource": {
                "@type": "cnt:ContentAsText", 
                "chars": "A", 
                "format": "text/plain"
            }
        }, 
        {
            "@id": "https://manifests.teklia.com/HIMANIS/JJ035/words_annotations/FRCHANJJ_JJ035_0068R.json/68/line", 
            "@type": "oa:Annotation", 
            "motivation": "oa:painting", 
            "on": "http://bvmm.irht.cnrs.fr/iiif/23575/canvas/canvas-2270507#xywh=2543,3031,47,23", 
            "resource": {
                "@type": "cnt:ContentAsText", 
                "chars": "PA", 
                "format": "text/plain"
            }
        }, 
        {
            "@id": "https://manifests.teklia.com/HIMANIS/JJ035/words_annotations/FRCHANJJ_JJ035_0068R.json/69/line", 
            "@type": "oa:Annotation", 
            "motivation": "oa:painting", 
            "on": "http://bvmm.irht.cnrs.fr/iiif/23575/canvas/canvas-2270507#xywh=627,2433,39,39", 
            "resource": {
                "@type": "cnt:ContentAsText", 
                "chars": "SALVO", 
                "format": "text/plain"
            }
        }, 
        {
            "@id": "https://manifests.teklia.com/HIMANIS/JJ035/words_annotations/FRCHANJJ_JJ035_0068R.json/70/line", 
            "@type": "oa:Annotation", 
            "motivation": "oa:painting", 
            "on": "http://bvmm.irht.cnrs.fr/iiif/23575/canvas/canvas-2270507#xywh=2543,3031,57,23", 
            "resource": {
                "@type": "cnt:ContentAsText", 
                "chars": "PH", 
                "format": "text/plain"
            }
        }, 
        {
            "@id": "https://manifests.teklia.com/HIMANIS/JJ035/words_annotations/FRCHANJJ_JJ035_0068R.json/71/line", 
            "@type": "oa:Annotation", 
            "motivation": "oa:painting", 
            "on": "http://bvmm.irht.cnrs.fr/iiif/23575/canvas/canvas-2270507#xywh=482,2433,155,39", 
            "resource": {
                "@type": "cnt:ContentAsText", 
                "chars": "ET", 
                "format": "text/plain"
            }
        }, 
        {
            "@id": "https://manifests.teklia.com/HIMANIS/JJ035/words_annotations/FRCHANJJ_JJ035_0068R.json/72/line", 
            "@type": "oa:Annotation", 
            "motivation": "oa:painting", 
            "on": "http://bvmm.irht.cnrs.fr/iiif/23575/canvas/canvas-2270507#xywh=305,696,141,50", 
            "resource": {
                "@type": "cnt:ContentAsText", 
                "chars": "RODONERR", 
                "format": "text/plain"
            }
        }, 
        {
            "@id": "https://manifests.teklia.com/HIMANIS/JJ035/words_annotations/FRCHANJJ_JJ035_0068R.json/73/line", 
            "@type": "oa:Annotation", 
            "motivation": "oa:painting", 
            "on": "http://bvmm.irht.cnrs.fr/iiif/23575/canvas/canvas-2270507#xywh=547,1496,106,105", 
            "resource": {
                "@type": "cnt:ContentAsText", 
                "chars": "ROCHA", 
                "format": "text/plain"
            }
        }, 
        {
            "@id": "https://manifests.teklia.com/HIMANIS/JJ035/words_annotations/FRCHANJJ_JJ035_0068R.json/74/line", 
            "@type": "oa:Annotation", 
            "motivation": "oa:painting", 
            "on": "http://bvmm.irht.cnrs.fr/iiif/23575/canvas/canvas-2270507#xywh=547,1496,106,105", 
            "resource": {
                "@type": "cnt:ContentAsText", 
                "chars": "ROCHE", 
                "format": "text/plain"
            }
        }, 
        {
            "@id": "https://manifests.teklia.com/HIMANIS/JJ035/words_annotations/FRCHANJJ_JJ035_0068R.json/75/line", 
            "@type": "oa:Annotation", 
            "motivation": "oa:painting", 
            "on": "http://bvmm.irht.cnrs.fr/iiif/23575/canvas/canvas-2270507#xywh=53,1998,381,67", 
            "resource": {
                "@type": "cnt:ContentAsText", 
                "chars": "DROITEM", 
                "format": "text/plain"
            }
        }, 
        {
            "@id": "https://manifests.teklia.com/HIMANIS/JJ035/words_annotations/FRCHANJJ_JJ035_0068R.json/76/line", 
            "@type": "oa:Annotation", 
            "motivation": "oa:painting", 
            "on": "http://bvmm.irht.cnrs.fr/iiif/23575/canvas/canvas-2270507#xywh=7,3163,2021,115", 
            "resource": {
                "@type": "cnt:ContentAsText", 
                "chars": "LA", 
                "format": "text/plain"
            }
        }, 
        {
            "@id": "https://manifests.teklia.com/HIMANIS/JJ035/words_annotations/FRCHANJJ_JJ035_0068R.json/77/line", 
            "@type": "oa:Annotation", 
            "motivation": "oa:painting", 
            "on": "http://bvmm.irht.cnrs.fr/iiif/23575/canvas/canvas-2270507#xywh=7,3163,2036,115", 
            "resource": {
                "@type": "cnt:ContentAsText", 
                "chars": "LE", 
                "format": "text/plain"
            }
        }, 
        {
            "@id": "https://manifests.teklia.com/HIMANIS/JJ035/words_annotations/FRCHANJJ_JJ035_0068R.json/78/line", 
            "@type": "oa:Annotation", 
            "motivation": "oa:painting", 
            "on": "http://bvmm.irht.cnrs.fr/iiif/23575/canvas/canvas-2270507#xywh=1282,1496,191,105", 
            "resource": {
                "@type": "cnt:ContentAsText", 
                "chars": "ARCHIEPIS", 
                "format": "text/plain"
            }
        }, 
        {
            "@id": "https://manifests.teklia.com/HIMANIS/JJ035/words_annotations/FRCHANJJ_JJ035_0068R.json/79/line", 
            "@type": "oa:Annotation", 
            "motivation": "oa:painting", 
            "on": "http://bvmm.irht.cnrs.fr/iiif/23575/canvas/canvas-2270507#xywh=309,1163,66,34", 
            "resource": {
                "@type": "cnt:ContentAsText", 
                "chars": "VO", 
                "format": "text/plain"
            }
        }, 
        {
            "@id": "https://manifests.teklia.com/HIMANIS/JJ035/words_annotations/FRCHANJJ_JJ035_0068R.json/80/line", 
            "@type": "oa:Annotation", 
            "motivation": "oa:painting", 
            "on": "http://bvmm.irht.cnrs.fr/iiif/23575/canvas/canvas-2270507#xywh=1298,549,0,26", 
            "resource": {
                "@type": "cnt:ContentAsText", 
                "chars": "G", 
                "format": "text/plain"
            }
        }, 
        {
            "@id": "https://manifests.teklia.com/HIMANIS/JJ035/words_annotations/FRCHANJJ_JJ035_0068R.json/81/line", 
            "@type": "oa:Annotation", 
            "motivation": "oa:painting", 
            "on": "http://bvmm.irht.cnrs.fr/iiif/23575/canvas/canvas-2270507#xywh=795,2865,180,60", 
            "resource": {
                "@type": "cnt:ContentAsText", 
                "chars": "KAROVENIR", 
                "format": "text/plain"
            }
        }, 
        {
            "@id": "https://manifests.teklia.com/HIMANIS/JJ035/words_annotations/FRCHANJJ_JJ035_0068R.json/82/line", 
            "@type": "oa:Annotation", 
            "motivation": "oa:painting", 
            "on": "http://bvmm.irht.cnrs.fr/iiif/23575/canvas/canvas-2270507#xywh=795,2865,177,60", 
            "resource": {
                "@type": "cnt:ContentAsText", 
                "chars": "KAROVENIS", 
                "format": "text/plain"
            }
        }, 
        {
            "@id": "https://manifests.teklia.com/HIMANIS/JJ035/words_annotations/FRCHANJJ_JJ035_0068R.json/83/line", 
            "@type": "oa:Annotation", 
            "motivation": "oa:painting", 
            "on": "http://bvmm.irht.cnrs.fr/iiif/23575/canvas/canvas-2270507#xywh=72,1055,236,34", 
            "resource": {
                "@type": "cnt:ContentAsText", 
                "chars": "PHILIPPESCH", 
                "format": "text/plain"
            }
        }, 
        {
            "@id": "https://manifests.teklia.com/HIMANIS/JJ035/words_annotations/FRCHANJJ_JJ035_0068R.json/84/line", 
            "@type": "oa:Annotation", 
            "motivation": "oa:painting", 
            "on": "http://bvmm.irht.cnrs.fr/iiif/23575/canvas/canvas-2270507#xywh=311,1601,145,78", 
            "resource": {
                "@type": "cnt:ContentAsText", 
                "chars": "BROCENS", 
                "format": "text/plain"
            }
        }, 
        {
            "@id": "https://manifests.teklia.com/HIMANIS/JJ035/words_annotations/FRCHANJJ_JJ035_0068R.json/85/line", 
            "@type": "oa:Annotation", 
            "motivation": "oa:painting", 
            "on": "http://bvmm.irht.cnrs.fr/iiif/23575/canvas/canvas-2270507#xywh=1274,1826,67,30", 
            "resource": {
                "@type": "cnt:ContentAsText", 
                "chars": "DE", 
                "format": "text/plain"
            }
        }, 
        {
            "@id": "https://manifests.teklia.com/HIMANIS/JJ035/words_annotations/FRCHANJJ_JJ035_0068R.json/86/line", 
            "@type": "oa:Annotation", 
            "motivation": "oa:painting", 
            "on": "http://bvmm.irht.cnrs.fr/iiif/23575/canvas/canvas-2270507#xywh=47,2065,38,38", 
            "resource": {
                "@type": "cnt:ContentAsText", 
                "chars": "DE", 
                "format": "text/plain"
            }
        }, 
        {
            "@id": "https://manifests.teklia.com/HIMANIS/JJ035/words_annotations/FRCHANJJ_JJ035_0068R.json/87/line", 
            "@type": "oa:Annotation", 
            "motivation": "oa:painting", 
            "on": "http://bvmm.irht.cnrs.fr/iiif/23575/canvas/canvas-2270507#xywh=1319,619,32,47", 
            "resource": {
                "@type": "cnt:ContentAsText", 
                "chars": "AU", 
                "format": "text/plain"
            }
        }, 
        {
            "@id": "https://manifests.teklia.com/HIMANIS/JJ035/words_annotations/FRCHANJJ_JJ035_0068R.json/88/line", 
            "@type": "oa:Annotation", 
            "motivation": "oa:painting", 
            "on": "http://bvmm.irht.cnrs.fr/iiif/23575/canvas/canvas-2270507#xywh=16,0,294,112", 
            "resource": {
                "@type": "cnt:ContentAsText", 
                "chars": "ET", 
                "format": "text/plain"
            }
        }, 
        {
            "@id": "https://manifests.teklia.com/HIMANIS/JJ035/words_annotations/FRCHANJJ_JJ035_0068R.json/89/line", 
            "@type": "oa:Annotation", 
            "motivation": "oa:painting", 
            "on": "http://bvmm.irht.cnrs.fr/iiif/23575/canvas/canvas-2270507#xywh=1288,1711,134,58", 
            "resource": {
                "@type": "cnt:ContentAsText", 
                "chars": "SINE", 
                "format": "text/plain"
            }
        }, 
        {
            "@id": "https://manifests.teklia.com/HIMANIS/JJ035/words_annotations/FRCHANJJ_JJ035_0068R.json/90/line", 
            "@type": "oa:Annotation", 
            "motivation": "oa:painting", 
            "on": "http://bvmm.irht.cnrs.fr/iiif/23575/canvas/canvas-2270507#xywh=291,1496,204,105", 
            "resource": {
                "@type": "cnt:ContentAsText", 
                "chars": "ARCHIEPS", 
                "format": "text/plain"
            }
        }, 
        {
            "@id": "https://manifests.teklia.com/HIMANIS/JJ035/words_annotations/FRCHANJJ_JJ035_0068R.json/91/line", 
            "@type": "oa:Annotation", 
            "motivation": "oa:painting", 
            "on": "http://bvmm.irht.cnrs.fr/iiif/23575/canvas/canvas-2270507#xywh=1231,1927,0,57", 
            "resource": {
                "@type": "cnt:ContentAsText", 
                "chars": "M", 
                "format": "text/plain"
            }
        }, 
        {
            "@id": "https://manifests.teklia.com/HIMANIS/JJ035/words_annotations/FRCHANJJ_JJ035_0068R.json/92/line", 
            "@type": "oa:Annotation", 
            "motivation": "oa:painting", 
            "on": "http://bvmm.irht.cnrs.fr/iiif/23575/canvas/canvas-2270507#xywh=321,618,0,43", 
            "resource": {
                "@type": "cnt:ContentAsText", 
                "chars": "J", 
                "format": "text/plain"
            }
        }, 
        {
            "@id": "https://manifests.teklia.com/HIMANIS/JJ035/words_annotations/FRCHANJJ_JJ035_0068R.json/93/line", 
            "@type": "oa:Annotation", 
            "motivation": "oa:painting", 
            "on": "http://bvmm.irht.cnrs.fr/iiif/23575/canvas/canvas-2270507#xywh=74,2692,706,60", 
            "resource": {
                "@type": "cnt:ContentAsText", 
                "chars": "CORRENIERE", 
                "format": "text/plain"
            }
        }, 
        {
            "@id": "https://manifests.teklia.com/HIMANIS/JJ035/words_annotations/FRCHANJJ_JJ035_0068R.json/94/line", 
            "@type": "oa:Annotation", 
            "motivation": "oa:painting", 
            "on": "http://bvmm.irht.cnrs.fr/iiif/23575/canvas/canvas-2270507#xywh=1267,1867,257,57", 
            "resource": {
                "@type": "cnt:ContentAsText", 
                "chars": "DIX", 
                "format": "text/plain"
            }
        }, 
        {
            "@id": "https://manifests.teklia.com/HIMANIS/JJ035/words_annotations/FRCHANJJ_JJ035_0068R.json/95/line", 
            "@type": "oa:Annotation", 
            "motivation": "oa:painting", 
            "on": "http://bvmm.irht.cnrs.fr/iiif/23575/canvas/canvas-2270507#xywh=1310,695,128,51", 
            "resource": {
                "@type": "cnt:ContentAsText", 
                "chars": "GUING", 
                "format": "text/plain"
            }
        }, 
        {
            "@id": "https://manifests.teklia.com/HIMANIS/JJ035/words_annotations/FRCHANJJ_JJ035_0068R.json/96/line", 
            "@type": "oa:Annotation", 
            "motivation": "oa:painting", 
            "on": "http://bvmm.irht.cnrs.fr/iiif/23575/canvas/canvas-2270507#xywh=1288,1711,109,58", 
            "resource": {
                "@type": "cnt:ContentAsText", 
                "chars": "CHEN", 
                "format": "text/plain"
            }
        }, 
        {
            "@id": "https://manifests.teklia.com/HIMANIS/JJ035/words_annotations/FRCHANJJ_JJ035_0068R.json/97/line", 
            "@type": "oa:Annotation", 
            "motivation": "oa:painting", 
            "on": "http://bvmm.irht.cnrs.fr/iiif/23575/canvas/canvas-2270507#xywh=292,2103,179,52", 
            "resource": {
                "@type": "cnt:ContentAsText", 
                "chars": "CONSTANCE", 
                "format": "text/plain"
            }
        }, 
        {
            "@id": "https://manifests.teklia.com/HIMANIS/JJ035/words_annotations/FRCHANJJ_JJ035_0068R.json/98/line", 
            "@type": "oa:Annotation", 
            "motivation": "oa:painting", 
            "on": "http://bvmm.irht.cnrs.fr/iiif/23575/canvas/canvas-2270507#xywh=291,2752,213,72", 
            "resource": {
                "@type": "cnt:ContentAsText", 
                "chars": "COSARAVENSIS", 
                "format": "text/plain"
            }
        }, 
        {
            "@id": "https://manifests.teklia.com/HIMANIS/JJ035/words_annotations/FRCHANJJ_JJ035_0068R.json/99/line", 
            "@type": "oa:Annotation", 
            "motivation": "oa:painting", 
            "on": "http://bvmm.irht.cnrs.fr/iiif/23575/canvas/canvas-2270507#xywh=1274,1826,0,30", 
            "resource": {
                "@type": "cnt:ContentAsText", 
                "chars": "G", 
                "format": "text/plain"
            }
        }, 
        {
            "@id": "https://manifests.teklia.com/HIMANIS/JJ035/words_annotations/FRCHANJJ_JJ035_0068R.json/100/line", 
            "@type": "oa:Annotation", 
            "motivation": "oa:painting", 
            "on": "http://bvmm.irht.cnrs.fr/iiif/23575/canvas/canvas-2270507#xywh=1274,1826,0,30", 
            "resource": {
                "@type": "cnt:ContentAsText", 
                "chars": "R", 
                "format": "text/plain"
            }
        }, 
        {
            "@id": "https://manifests.teklia.com/HIMANIS/JJ035/words_annotations/FRCHANJJ_JJ035_0068R.json/101/line", 
            "@type": "oa:Annotation", 
            "motivation": "oa:painting", 
            "on": "http://bvmm.irht.cnrs.fr/iiif/23575/canvas/canvas-2270507#xywh=791,2692,319,60", 
            "resource": {
                "@type": "cnt:ContentAsText", 
                "chars": "CAISCURRENIR", 
                "format": "text/plain"
            }
        }, 
        {
            "@id": "https://manifests.teklia.com/HIMANIS/JJ035/words_annotations/FRCHANJJ_JJ035_0068R.json/102/line", 
            "@type": "oa:Annotation", 
            "motivation": "oa:painting", 
            "on": "http://bvmm.irht.cnrs.fr/iiif/23575/canvas/canvas-2270507#xywh=1280,1601,199,78", 
            "resource": {
                "@type": "cnt:ContentAsText", 
                "chars": "CLAROMONT", 
                "format": "text/plain"
            }
        }, 
        {
            "@id": "https://manifests.teklia.com/HIMANIS/JJ035/words_annotations/FRCHANJJ_JJ035_0068R.json/103/line", 
            "@type": "oa:Annotation", 
            "motivation": "oa:painting", 
            "on": "http://bvmm.irht.cnrs.fr/iiif/23575/canvas/canvas-2270507#xywh=482,2433,130,39", 
            "resource": {
                "@type": "cnt:ContentAsText", 
                "chars": "ETC", 
                "format": "text/plain"
            }
        }, 
        {
            "@id": "https://manifests.teklia.com/HIMANIS/JJ035/words_annotations/FRCHANJJ_JJ035_0068R.json/104/line", 
            "@type": "oa:Annotation", 
            "motivation": "oa:painting", 
            "on": "http://bvmm.irht.cnrs.fr/iiif/23575/canvas/canvas-2270507#xywh=331,2656,287,48", 
            "resource": {
                "@type": "cnt:ContentAsText", 
                "chars": "LA", 
                "format": "text/plain"
            }
        }, 
        {
            "@id": "https://manifests.teklia.com/HIMANIS/JJ035/words_annotations/FRCHANJJ_JJ035_0068R.json/105/line", 
            "@type": "oa:Annotation", 
            "motivation": "oa:painting", 
            "on": "http://bvmm.irht.cnrs.fr/iiif/23575/canvas/canvas-2270507#xywh=291,2752,204,72", 
            "resource": {
                "@type": "cnt:ContentAsText", 
                "chars": "COSARAVENSI", 
                "format": "text/plain"
            }
        }, 
        {
            "@id": "https://manifests.teklia.com/HIMANIS/JJ035/words_annotations/FRCHANJJ_JJ035_0068R.json/106/line", 
            "@type": "oa:Annotation", 
            "motivation": "oa:painting", 
            "on": "http://bvmm.irht.cnrs.fr/iiif/23575/canvas/canvas-2270507#xywh=292,2103,163,52", 
            "resource": {
                "@type": "cnt:ContentAsText", 
                "chars": "CONSTANT", 
                "format": "text/plain"
            }
        }, 
        {
            "@id": "https://manifests.teklia.com/HIMANIS/JJ035/words_annotations/FRCHANJJ_JJ035_0068R.json/107/line", 
            "@type": "oa:Annotation", 
            "motivation": "oa:painting", 
            "on": "http://bvmm.irht.cnrs.fr/iiif/23575/canvas/canvas-2270507#xywh=306,2656,300,48", 
            "resource": {
                "@type": "cnt:ContentAsText", 
                "chars": "LE", 
                "format": "text/plain"
            }
        }, 
        {
            "@id": "https://manifests.teklia.com/HIMANIS/JJ035/words_annotations/FRCHANJJ_JJ035_0068R.json/108/line", 
            "@type": "oa:Annotation", 
            "motivation": "oa:painting", 
            "on": "http://bvmm.irht.cnrs.fr/iiif/23575/canvas/canvas-2270507#xywh=331,2656,467,48", 
            "resource": {
                "@type": "cnt:ContentAsText", 
                "chars": "DE", 
                "format": "text/plain"
            }
        }, 
        {
            "@id": "https://manifests.teklia.com/HIMANIS/JJ035/words_annotations/FRCHANJJ_JJ035_0068R.json/109/line", 
            "@type": "oa:Annotation", 
            "motivation": "oa:painting", 
            "on": "http://bvmm.irht.cnrs.fr/iiif/23575/canvas/canvas-2270507#xywh=806,2570,117,85", 
            "resource": {
                "@type": "cnt:ContentAsText", 
                "chars": "OLONENSIUM", 
                "format": "text/plain"
            }
        }, 
        {
            "@id": "https://manifests.teklia.com/HIMANIS/JJ035/words_annotations/FRCHANJJ_JJ035_0068R.json/110/line", 
            "@type": "oa:Annotation", 
            "motivation": "oa:painting", 
            "on": "http://bvmm.irht.cnrs.fr/iiif/23575/canvas/canvas-2270507#xywh=109,1927,259,57", 
            "resource": {
                "@type": "cnt:ContentAsText", 
                "chars": "EX", 
                "format": "text/plain"
            }
        }, 
        {
            "@id": "https://manifests.teklia.com/HIMANIS/JJ035/words_annotations/FRCHANJJ_JJ035_0068R.json/111/line", 
            "@type": "oa:Annotation", 
            "motivation": "oa:painting", 
            "on": "http://bvmm.irht.cnrs.fr/iiif/23575/canvas/canvas-2270507#xywh=291,2752,204,72", 
            "resource": {
                "@type": "cnt:ContentAsText", 
                "chars": "COSTRAVENSI", 
                "format": "text/plain"
            }
        }, 
        {
            "@id": "https://manifests.teklia.com/HIMANIS/JJ035/words_annotations/FRCHANJJ_JJ035_0068R.json/112/line", 
            "@type": "oa:Annotation", 
            "motivation": "oa:painting", 
            "on": "http://bvmm.irht.cnrs.fr/iiif/23575/canvas/canvas-2270507#xywh=1513,1496,119,105", 
            "resource": {
                "@type": "cnt:ContentAsText", 
                "chars": "SITURIS", 
                "format": "text/plain"
            }
        }, 
        {
            "@id": "https://manifests.teklia.com/HIMANIS/JJ035/words_annotations/FRCHANJJ_JJ035_0068R.json/113/line", 
            "@type": "oa:Annotation", 
            "motivation": "oa:painting", 
            "on": "http://bvmm.irht.cnrs.fr/iiif/23575/canvas/canvas-2270507#xywh=1231,1927,280,57", 
            "resource": {
                "@type": "cnt:ContentAsText", 
                "chars": "EX", 
                "format": "text/plain"
            }
        }, 
        {
            "@id": "https://manifests.teklia.com/HIMANIS/JJ035/words_annotations/FRCHANJJ_JJ035_0068R.json/114/line", 
            "@type": "oa:Annotation", 
            "motivation": "oa:painting", 
            "on": "http://bvmm.irht.cnrs.fr/iiif/23575/canvas/canvas-2270507#xywh=44,1867,353,54", 
            "resource": {
                "@type": "cnt:ContentAsText", 
                "chars": "EX", 
                "format": "text/plain"
            }
        }, 
        {
            "@id": "https://manifests.teklia.com/HIMANIS/JJ035/words_annotations/FRCHANJJ_JJ035_0068R.json/115/line", 
            "@type": "oa:Annotation", 
            "motivation": "oa:painting", 
            "on": "http://bvmm.irht.cnrs.fr/iiif/23575/canvas/canvas-2270507#xywh=284,2860,125,44", 
            "resource": {
                "@type": "cnt:ContentAsText", 
                "chars": "KARROI", 
                "format": "text/plain"
            }
        }, 
        {
            "@id": "https://manifests.teklia.com/HIMANIS/JJ035/words_annotations/FRCHANJJ_JJ035_0068R.json/116/line", 
            "@type": "oa:Annotation", 
            "motivation": "oa:painting", 
            "on": "http://bvmm.irht.cnrs.fr/iiif/23575/canvas/canvas-2270507#xywh=331,2656,275,48", 
            "resource": {
                "@type": "cnt:ContentAsText", 
                "chars": "LES", 
                "format": "text/plain"
            }
        }, 
        {
            "@id": "https://manifests.teklia.com/HIMANIS/JJ035/words_annotations/FRCHANJJ_JJ035_0068R.json/117/line", 
            "@type": "oa:Annotation", 
            "motivation": "oa:painting", 
            "on": "http://bvmm.irht.cnrs.fr/iiif/23575/canvas/canvas-2270507#xywh=311,1601,145,78", 
            "resource": {
                "@type": "cnt:ContentAsText", 
                "chars": "LORENS", 
                "format": "text/plain"
            }
        }, 
        {
            "@id": "https://manifests.teklia.com/HIMANIS/JJ035/words_annotations/FRCHANJJ_JJ035_0068R.json/118/line", 
            "@type": "oa:Annotation", 
            "motivation": "oa:painting", 
            "on": "http://bvmm.irht.cnrs.fr/iiif/23575/canvas/canvas-2270507#xywh=299,2472,144,70", 
            "resource": {
                "@type": "cnt:ContentAsText", 
                "chars": "QUEM", 
                "format": "text/plain"
            }
        }, 
        {
            "@id": "https://manifests.teklia.com/HIMANIS/JJ035/words_annotations/FRCHANJJ_JJ035_0068R.json/119/line", 
            "@type": "oa:Annotation", 
            "motivation": "oa:painting", 
            "on": "http://bvmm.irht.cnrs.fr/iiif/23575/canvas/canvas-2270507#xywh=299,2472,144,70", 
            "resource": {
                "@type": "cnt:ContentAsText", 
                "chars": "QUAM", 
                "format": "text/plain"
            }
        }, 
        {
            "@id": "https://manifests.teklia.com/HIMANIS/JJ035/words_annotations/FRCHANJJ_JJ035_0068R.json/120/line", 
            "@type": "oa:Annotation", 
            "motivation": "oa:painting", 
            "on": "http://bvmm.irht.cnrs.fr/iiif/23575/canvas/canvas-2270507#xywh=62,2364,419,69", 
            "resource": {
                "@type": "cnt:ContentAsText", 
                "chars": "ARCHIERS", 
                "format": "text/plain"
            }
        }, 
        {
            "@id": "https://manifests.teklia.com/HIMANIS/JJ035/words_annotations/FRCHANJJ_JJ035_0068R.json/121/line", 
            "@type": "oa:Annotation", 
            "motivation": "oa:painting", 
            "on": "http://bvmm.irht.cnrs.fr/iiif/23575/canvas/canvas-2270507#xywh=1267,1867,253,57", 
            "resource": {
                "@type": "cnt:ContentAsText", 
                "chars": "EX", 
                "format": "text/plain"
            }
        }, 
        {
            "@id": "https://manifests.teklia.com/HIMANIS/JJ035/words_annotations/FRCHANJJ_JJ035_0068R.json/122/line", 
            "@type": "oa:Annotation", 
            "motivation": "oa:painting", 
            "on": "http://bvmm.irht.cnrs.fr/iiif/23575/canvas/canvas-2270507#xywh=340,2585,36,44", 
            "resource": {
                "@type": "cnt:ContentAsText", 
                "chars": "PER", 
                "format": "text/plain"
            }
        }, 
        {
            "@id": "https://manifests.teklia.com/HIMANIS/JJ035/words_annotations/FRCHANJJ_JJ035_0068R.json/123/line", 
            "@type": "oa:Annotation", 
            "motivation": "oa:painting", 
            "on": "http://bvmm.irht.cnrs.fr/iiif/23575/canvas/canvas-2270507#xywh=758,2752,350,72", 
            "resource": {
                "@type": "cnt:ContentAsText", 
                "chars": "QUASTER", 
                "format": "text/plain"
            }
        }, 
        {
            "@id": "https://manifests.teklia.com/HIMANIS/JJ035/words_annotations/FRCHANJJ_JJ035_0068R.json/124/line", 
            "@type": "oa:Annotation", 
            "motivation": "oa:painting", 
            "on": "http://bvmm.irht.cnrs.fr/iiif/23575/canvas/canvas-2270507#xywh=305,696,141,50", 
            "resource": {
                "@type": "cnt:ContentAsText", 
                "chars": "DONERR", 
                "format": "text/plain"
            }
        }, 
        {
            "@id": "https://manifests.teklia.com/HIMANIS/JJ035/words_annotations/FRCHANJJ_JJ035_0068R.json/125/line", 
            "@type": "oa:Annotation", 
            "motivation": "oa:painting", 
            "on": "http://bvmm.irht.cnrs.fr/iiif/23575/canvas/canvas-2270507#xywh=74,965,414,43", 
            "resource": {
                "@type": "cnt:ContentAsText", 
                "chars": "REMANSE", 
                "format": "text/plain"
            }
        }, 
        {
            "@id": "https://manifests.teklia.com/HIMANIS/JJ035/words_annotations/FRCHANJJ_JJ035_0068R.json/126/line", 
            "@type": "oa:Annotation", 
            "motivation": "oa:painting", 
            "on": "http://bvmm.irht.cnrs.fr/iiif/23575/canvas/canvas-2270507#xywh=1301,2233,92,19", 
            "resource": {
                "@type": "cnt:ContentAsText", 
                "chars": "CE", 
                "format": "text/plain"
            }
        }, 
        {
            "@id": "https://manifests.teklia.com/HIMANIS/JJ035/words_annotations/FRCHANJJ_JJ035_0068R.json/127/line", 
            "@type": "oa:Annotation", 
            "motivation": "oa:painting", 
            "on": "http://bvmm.irht.cnrs.fr/iiif/23575/canvas/canvas-2270507#xywh=63,1716,423,151", 
            "resource": {
                "@type": "cnt:ContentAsText", 
                "chars": "SANCTONE", 
                "format": "text/plain"
            }
        }, 
        {
            "@id": "https://manifests.teklia.com/HIMANIS/JJ035/words_annotations/FRCHANJJ_JJ035_0068R.json/128/line", 
            "@type": "oa:Annotation", 
            "motivation": "oa:painting", 
            "on": "http://bvmm.irht.cnrs.fr/iiif/23575/canvas/canvas-2270507#xywh=1288,1711,145,58", 
            "resource": {
                "@type": "cnt:ContentAsText", 
                "chars": "CHENA", 
                "format": "text/plain"
            }
        }, 
        {
            "@id": "https://manifests.teklia.com/HIMANIS/JJ035/words_annotations/FRCHANJJ_JJ035_0068R.json/129/line", 
            "@type": "oa:Annotation", 
            "motivation": "oa:painting", 
            "on": "http://bvmm.irht.cnrs.fr/iiif/23575/canvas/canvas-2270507#xywh=1267,1867,0,57", 
            "resource": {
                "@type": "cnt:ContentAsText", 
                "chars": "S", 
                "format": "text/plain"
            }
        }, 
        {
            "@id": "https://manifests.teklia.com/HIMANIS/JJ035/words_annotations/FRCHANJJ_JJ035_0068R.json/130/line", 
            "@type": "oa:Annotation", 
            "motivation": "oa:painting", 
            "on": "http://bvmm.irht.cnrs.fr/iiif/23575/canvas/canvas-2270507#xywh=1274,447,105,56", 
            "resource": {
                "@type": "cnt:ContentAsText", 
                "chars": "PHIL", 
                "format": "text/plain"
            }
        }, 
        {
            "@id": "https://manifests.teklia.com/HIMANIS/JJ035/words_annotations/FRCHANJJ_JJ035_0068R.json/131/line", 
            "@type": "oa:Annotation", 
            "motivation": "oa:painting", 
            "on": "http://bvmm.irht.cnrs.fr/iiif/23575/canvas/canvas-2270507#xywh=63,1716,414,151", 
            "resource": {
                "@type": "cnt:ContentAsText", 
                "chars": "SANCTONS", 
                "format": "text/plain"
            }
        }, 
        {
            "@id": "https://manifests.teklia.com/HIMANIS/JJ035/words_annotations/FRCHANJJ_JJ035_0068R.json/132/line", 
            "@type": "oa:Annotation", 
            "motivation": "oa:painting", 
            "on": "http://bvmm.irht.cnrs.fr/iiif/23575/canvas/canvas-2270507#xywh=1274,447,0,56", 
            "resource": {
                "@type": "cnt:ContentAsText", 
                "chars": "P", 
                "format": "text/plain"
            }
        }, 
        {
            "@id": "https://manifests.teklia.com/HIMANIS/JJ035/words_annotations/FRCHANJJ_JJ035_0068R.json/133/line", 
            "@type": "oa:Annotation", 
            "motivation": "oa:painting", 
            "on": "http://bvmm.irht.cnrs.fr/iiif/23575/canvas/canvas-2270507#xywh=1301,2233,0,19", 
            "resource": {
                "@type": "cnt:ContentAsText", 
                "chars": "C", 
                "format": "text/plain"
            }
        }, 
        {
            "@id": "https://manifests.teklia.com/HIMANIS/JJ035/words_annotations/FRCHANJJ_JJ035_0068R.json/134/line", 
            "@type": "oa:Annotation", 
            "motivation": "oa:painting", 
            "on": "http://bvmm.irht.cnrs.fr/iiif/23575/canvas/canvas-2270507#xywh=603,2656,0,48", 
            "resource": {
                "@type": "cnt:ContentAsText", 
                "chars": "G", 
                "format": "text/plain"
            }
        }, 
        {
            "@id": "https://manifests.teklia.com/HIMANIS/JJ035/words_annotations/FRCHANJJ_JJ035_0068R.json/135/line", 
            "@type": "oa:Annotation", 
            "motivation": "oa:painting", 
            "on": "http://bvmm.irht.cnrs.fr/iiif/23575/canvas/canvas-2270507#xywh=319,876,0,24", 
            "resource": {
                "@type": "cnt:ContentAsText", 
                "chars": "G", 
                "format": "text/plain"
            }
        }, 
        {
            "@id": "https://manifests.teklia.com/HIMANIS/JJ035/words_annotations/FRCHANJJ_JJ035_0068R.json/136/line", 
            "@type": "oa:Annotation", 
            "motivation": "oa:painting", 
            "on": "http://bvmm.irht.cnrs.fr/iiif/23575/canvas/canvas-2270507#xywh=319,876,0,24", 
            "resource": {
                "@type": "cnt:ContentAsText", 
                "chars": "J", 
                "format": "text/plain"
            }
        }
    ]
}