{
    "@context": "http://iiif.io/api/presentation/2/context.json", 
    "@id": "https://manifests.teklia.com/HIMANIS/JJ035/words_annotations/FRCHANJJ_JJ035_0070R.json", 
    "@type": "sc:AnnotationList", 
    "resources": [
        {
            "@id": "https://manifests.teklia.com/HIMANIS/JJ035/words_annotations/FRCHANJJ_JJ035_0070R.json/0/line", 
            "@type": "oa:Annotation", 
            "motivation": "oa:painting", 
            "on": "http://bvmm.irht.cnrs.fr/iiif/23575/canvas/canvas-2270511#xywh=852,2406,152,110", 
            "resource": {
                "@type": "cnt:ContentAsText", 
                "chars": "CHASCUNES", 
                "format": "text/plain"
            }
        }, 
        {
            "@id": "https://manifests.teklia.com/HIMANIS/JJ035/words_annotations/FRCHANJJ_JJ035_0070R.json/1/line", 
            "@type": "oa:Annotation", 
            "motivation": "oa:painting", 
            "on": "http://bvmm.irht.cnrs.fr/iiif/23575/canvas/canvas-2270511#xywh=8,3158,0,124", 
            "resource": {
                "@type": "cnt:ContentAsText", 
                "chars": "J", 
                "format": "text/plain"
            }
        }, 
        {
            "@id": "https://manifests.teklia.com/HIMANIS/JJ035/words_annotations/FRCHANJJ_JJ035_0070R.json/2/line", 
            "@type": "oa:Annotation", 
            "motivation": "oa:painting", 
            "on": "http://bvmm.irht.cnrs.fr/iiif/23575/canvas/canvas-2270511#xywh=8,3158,0,124", 
            "resource": {
                "@type": "cnt:ContentAsText", 
                "chars": "S", 
                "format": "text/plain"
            }
        }, 
        {
            "@id": "https://manifests.teklia.com/HIMANIS/JJ035/words_annotations/FRCHANJJ_JJ035_0070R.json/3/line", 
            "@type": "oa:Annotation", 
            "motivation": "oa:painting", 
            "on": "http://bvmm.irht.cnrs.fr/iiif/23575/canvas/canvas-2270511#xywh=860,2211,78,95", 
            "resource": {
                "@type": "cnt:ContentAsText", 
                "chars": "XXX", 
                "format": "text/plain"
            }
        }, 
        {
            "@id": "https://manifests.teklia.com/HIMANIS/JJ035/words_annotations/FRCHANJJ_JJ035_0070R.json/4/line", 
            "@type": "oa:Annotation", 
            "motivation": "oa:painting", 
            "on": "http://bvmm.irht.cnrs.fr/iiif/23575/canvas/canvas-2270511#xywh=1812,429,116,97", 
            "resource": {
                "@type": "cnt:ContentAsText", 
                "chars": "SERGENS", 
                "format": "text/plain"
            }
        }, 
        {
            "@id": "https://manifests.teklia.com/HIMANIS/JJ035/words_annotations/FRCHANJJ_JJ035_0070R.json/5/line", 
            "@type": "oa:Annotation", 
            "motivation": "oa:painting", 
            "on": "http://bvmm.irht.cnrs.fr/iiif/23575/canvas/canvas-2270511#xywh=1399,1403,246,81", 
            "resource": {
                "@type": "cnt:ContentAsText", 
                "chars": "REX", 
                "format": "text/plain"
            }
        }, 
        {
            "@id": "https://manifests.teklia.com/HIMANIS/JJ035/words_annotations/FRCHANJJ_JJ035_0070R.json/6/line", 
            "@type": "oa:Annotation", 
            "motivation": "oa:painting", 
            "on": "http://bvmm.irht.cnrs.fr/iiif/23575/canvas/canvas-2270511#xywh=638,2211,30,95", 
            "resource": {
                "@type": "cnt:ContentAsText", 
                "chars": "LA", 
                "format": "text/plain"
            }
        }, 
        {
            "@id": "https://manifests.teklia.com/HIMANIS/JJ035/words_annotations/FRCHANJJ_JJ035_0070R.json/7/line", 
            "@type": "oa:Annotation", 
            "motivation": "oa:painting", 
            "on": "http://bvmm.irht.cnrs.fr/iiif/23575/canvas/canvas-2270511#xywh=1087,2406,104,110", 
            "resource": {
                "@type": "cnt:ContentAsText", 
                "chars": "HOMINI", 
                "format": "text/plain"
            }
        }, 
        {
            "@id": "https://manifests.teklia.com/HIMANIS/JJ035/words_annotations/FRCHANJJ_JJ035_0070R.json/8/line", 
            "@type": "oa:Annotation", 
            "motivation": "oa:painting", 
            "on": "http://bvmm.irht.cnrs.fr/iiif/23575/canvas/canvas-2270511#xywh=1017,954,154,84", 
            "resource": {
                "@type": "cnt:ContentAsText", 
                "chars": "CHASCUN", 
                "format": "text/plain"
            }
        }, 
        {
            "@id": "https://manifests.teklia.com/HIMANIS/JJ035/words_annotations/FRCHANJJ_JJ035_0070R.json/9/line", 
            "@type": "oa:Annotation", 
            "motivation": "oa:painting", 
            "on": "http://bvmm.irht.cnrs.fr/iiif/23575/canvas/canvas-2270511#xywh=75,2211,485,95", 
            "resource": {
                "@type": "cnt:ContentAsText", 
                "chars": "LE", 
                "format": "text/plain"
            }
        }, 
        {
            "@id": "https://manifests.teklia.com/HIMANIS/JJ035/words_annotations/FRCHANJJ_JJ035_0070R.json/10/line", 
            "@type": "oa:Annotation", 
            "motivation": "oa:painting", 
            "on": "http://bvmm.irht.cnrs.fr/iiif/23575/canvas/canvas-2270511#xywh=75,2211,533,95", 
            "resource": {
                "@type": "cnt:ContentAsText", 
                "chars": "DE", 
                "format": "text/plain"
            }
        }, 
        {
            "@id": "https://manifests.teklia.com/HIMANIS/JJ035/words_annotations/FRCHANJJ_JJ035_0070R.json/11/line", 
            "@type": "oa:Annotation", 
            "motivation": "oa:painting", 
            "on": "http://bvmm.irht.cnrs.fr/iiif/23575/canvas/canvas-2270511#xywh=860,2211,66,95", 
            "resource": {
                "@type": "cnt:ContentAsText", 
                "chars": "XX", 
                "format": "text/plain"
            }
        }, 
        {
            "@id": "https://manifests.teklia.com/HIMANIS/JJ035/words_annotations/FRCHANJJ_JJ035_0070R.json/12/line", 
            "@type": "oa:Annotation", 
            "motivation": "oa:painting", 
            "on": "http://bvmm.irht.cnrs.fr/iiif/23575/canvas/canvas-2270511#xywh=639,2406,103,110", 
            "resource": {
                "@type": "cnt:ContentAsText", 
                "chars": "AYCELUI", 
                "format": "text/plain"
            }
        }, 
        {
            "@id": "https://manifests.teklia.com/HIMANIS/JJ035/words_annotations/FRCHANJJ_JJ035_0070R.json/13/line", 
            "@type": "oa:Annotation", 
            "motivation": "oa:painting", 
            "on": "http://bvmm.irht.cnrs.fr/iiif/23575/canvas/canvas-2270511#xywh=50,1038,307,92", 
            "resource": {
                "@type": "cnt:ContentAsText", 
                "chars": "SE", 
                "format": "text/plain"
            }
        }, 
        {
            "@id": "https://manifests.teklia.com/HIMANIS/JJ035/words_annotations/FRCHANJJ_JJ035_0070R.json/14/line", 
            "@type": "oa:Annotation", 
            "motivation": "oa:painting", 
            "on": "http://bvmm.irht.cnrs.fr/iiif/23575/canvas/canvas-2270511#xywh=395,2702,113,72", 
            "resource": {
                "@type": "cnt:ContentAsText", 
                "chars": "SEIGNEUR", 
                "format": "text/plain"
            }
        }, 
        {
            "@id": "https://manifests.teklia.com/HIMANIS/JJ035/words_annotations/FRCHANJJ_JJ035_0070R.json/15/line", 
            "@type": "oa:Annotation", 
            "motivation": "oa:painting", 
            "on": "http://bvmm.irht.cnrs.fr/iiif/23575/canvas/canvas-2270511#xywh=1812,429,141,97", 
            "resource": {
                "@type": "cnt:ContentAsText", 
                "chars": "SERGENTE", 
                "format": "text/plain"
            }
        }, 
        {
            "@id": "https://manifests.teklia.com/HIMANIS/JJ035/words_annotations/FRCHANJJ_JJ035_0070R.json/16/line", 
            "@type": "oa:Annotation", 
            "motivation": "oa:painting", 
            "on": "http://bvmm.irht.cnrs.fr/iiif/23575/canvas/canvas-2270511#xywh=1812,429,141,97", 
            "resource": {
                "@type": "cnt:ContentAsText", 
                "chars": "SERGANTE", 
                "format": "text/plain"
            }
        }, 
        {
            "@id": "https://manifests.teklia.com/HIMANIS/JJ035/words_annotations/FRCHANJJ_JJ035_0070R.json/17/line", 
            "@type": "oa:Annotation", 
            "motivation": "oa:painting", 
            "on": "http://bvmm.irht.cnrs.fr/iiif/23575/canvas/canvas-2270511#xywh=872,2096,49,110", 
            "resource": {
                "@type": "cnt:ContentAsText", 
                "chars": "LES", 
                "format": "text/plain"
            }
        }, 
        {
            "@id": "https://manifests.teklia.com/HIMANIS/JJ035/words_annotations/FRCHANJJ_JJ035_0070R.json/18/line", 
            "@type": "oa:Annotation", 
            "motivation": "oa:painting", 
            "on": "http://bvmm.irht.cnrs.fr/iiif/23575/canvas/canvas-2270511#xywh=995,1403,107,81", 
            "resource": {
                "@type": "cnt:ContentAsText", 
                "chars": "VEXXXV", 
                "format": "text/plain"
            }
        }, 
        {
            "@id": "https://manifests.teklia.com/HIMANIS/JJ035/words_annotations/FRCHANJJ_JJ035_0070R.json/19/line", 
            "@type": "oa:Annotation", 
            "motivation": "oa:painting", 
            "on": "http://bvmm.irht.cnrs.fr/iiif/23575/canvas/canvas-2270511#xywh=388,2096,145,110", 
            "resource": {
                "@type": "cnt:ContentAsText", 
                "chars": "SEIGNOR", 
                "format": "text/plain"
            }
        }, 
        {
            "@id": "https://manifests.teklia.com/HIMANIS/JJ035/words_annotations/FRCHANJJ_JJ035_0070R.json/20/line", 
            "@type": "oa:Annotation", 
            "motivation": "oa:painting", 
            "on": "http://bvmm.irht.cnrs.fr/iiif/23575/canvas/canvas-2270511#xywh=43,1251,298,51", 
            "resource": {
                "@type": "cnt:ContentAsText", 
                "chars": "SE", 
                "format": "text/plain"
            }
        }, 
        {
            "@id": "https://manifests.teklia.com/HIMANIS/JJ035/words_annotations/FRCHANJJ_JJ035_0070R.json/21/line", 
            "@type": "oa:Annotation", 
            "motivation": "oa:painting", 
            "on": "http://bvmm.irht.cnrs.fr/iiif/23575/canvas/canvas-2270511#xywh=485,2516,113,60", 
            "resource": {
                "@type": "cnt:ContentAsText", 
                "chars": "GUILLAUME", 
                "format": "text/plain"
            }
        }, 
        {
            "@id": "https://manifests.teklia.com/HIMANIS/JJ035/words_annotations/FRCHANJJ_JJ035_0070R.json/22/line", 
            "@type": "oa:Annotation", 
            "motivation": "oa:painting", 
            "on": "http://bvmm.irht.cnrs.fr/iiif/23575/canvas/canvas-2270511#xywh=577,1038,99,92", 
            "resource": {
                "@type": "cnt:ContentAsText", 
                "chars": "SAINT", 
                "format": "text/plain"
            }
        }, 
        {
            "@id": "https://manifests.teklia.com/HIMANIS/JJ035/words_annotations/FRCHANJJ_JJ035_0070R.json/23/line", 
            "@type": "oa:Annotation", 
            "motivation": "oa:painting", 
            "on": "http://bvmm.irht.cnrs.fr/iiif/23575/canvas/canvas-2270511#xywh=1122,339,0,87", 
            "resource": {
                "@type": "cnt:ContentAsText", 
                "chars": "L", 
                "format": "text/plain"
            }
        }, 
        {
            "@id": "https://manifests.teklia.com/HIMANIS/JJ035/words_annotations/FRCHANJJ_JJ035_0070R.json/24/line", 
            "@type": "oa:Annotation", 
            "motivation": "oa:painting", 
            "on": "http://bvmm.irht.cnrs.fr/iiif/23575/canvas/canvas-2270511#xywh=630,2096,201,110", 
            "resource": {
                "@type": "cnt:ContentAsText", 
                "chars": "MARQUEIL", 
                "format": "text/plain"
            }
        }, 
        {
            "@id": "https://manifests.teklia.com/HIMANIS/JJ035/words_annotations/FRCHANJJ_JJ035_0070R.json/25/line", 
            "@type": "oa:Annotation", 
            "motivation": "oa:painting", 
            "on": "http://bvmm.irht.cnrs.fr/iiif/23575/canvas/canvas-2270511#xywh=573,2576,231,100", 
            "resource": {
                "@type": "cnt:ContentAsText", 
                "chars": "MONLOYER", 
                "format": "text/plain"
            }
        }, 
        {
            "@id": "https://manifests.teklia.com/HIMANIS/JJ035/words_annotations/FRCHANJJ_JJ035_0070R.json/26/line", 
            "@type": "oa:Annotation", 
            "motivation": "oa:painting", 
            "on": "http://bvmm.irht.cnrs.fr/iiif/23575/canvas/canvas-2270511#xywh=1000,1403,102,81", 
            "resource": {
                "@type": "cnt:ContentAsText", 
                "chars": "XXXV", 
                "format": "text/plain"
            }
        }, 
        {
            "@id": "https://manifests.teklia.com/HIMANIS/JJ035/words_annotations/FRCHANJJ_JJ035_0070R.json/27/line", 
            "@type": "oa:Annotation", 
            "motivation": "oa:painting", 
            "on": "http://bvmm.irht.cnrs.fr/iiif/23575/canvas/canvas-2270511#xywh=1148,1403,123,81", 
            "resource": {
                "@type": "cnt:ContentAsText", 
                "chars": "HOMINES", 
                "format": "text/plain"
            }
        }, 
        {
            "@id": "https://manifests.teklia.com/HIMANIS/JJ035/words_annotations/FRCHANJJ_JJ035_0070R.json/28/line", 
            "@type": "oa:Annotation", 
            "motivation": "oa:painting", 
            "on": "http://bvmm.irht.cnrs.fr/iiif/23575/canvas/canvas-2270511#xywh=50,1856,390,45", 
            "resource": {
                "@type": "cnt:ContentAsText", 
                "chars": "LAURE", 
                "format": "text/plain"
            }
        }, 
        {
            "@id": "https://manifests.teklia.com/HIMANIS/JJ035/words_annotations/FRCHANJJ_JJ035_0070R.json/29/line", 
            "@type": "oa:Annotation", 
            "motivation": "oa:painting", 
            "on": "http://bvmm.irht.cnrs.fr/iiif/23575/canvas/canvas-2270511#xywh=75,2211,270,95", 
            "resource": {
                "@type": "cnt:ContentAsText", 
                "chars": "QUE", 
                "format": "text/plain"
            }
        }, 
        {
            "@id": "https://manifests.teklia.com/HIMANIS/JJ035/words_annotations/FRCHANJJ_JJ035_0070R.json/30/line", 
            "@type": "oa:Annotation", 
            "motivation": "oa:painting", 
            "on": "http://bvmm.irht.cnrs.fr/iiif/23575/canvas/canvas-2270511#xywh=1329,429,171,97", 
            "resource": {
                "@type": "cnt:ContentAsText", 
                "chars": "HOMMES", 
                "format": "text/plain"
            }
        }, 
        {
            "@id": "https://manifests.teklia.com/HIMANIS/JJ035/words_annotations/FRCHANJJ_JJ035_0070R.json/31/line", 
            "@type": "oa:Annotation", 
            "motivation": "oa:painting", 
            "on": "http://bvmm.irht.cnrs.fr/iiif/23575/canvas/canvas-2270511#xywh=1011,429,85,97", 
            "resource": {
                "@type": "cnt:ContentAsText", 
                "chars": "POUR", 
                "format": "text/plain"
            }
        }, 
        {
            "@id": "https://manifests.teklia.com/HIMANIS/JJ035/words_annotations/FRCHANJJ_JJ035_0070R.json/32/line", 
            "@type": "oa:Annotation", 
            "motivation": "oa:painting", 
            "on": "http://bvmm.irht.cnrs.fr/iiif/23575/canvas/canvas-2270511#xywh=545,2806,88,73", 
            "resource": {
                "@type": "cnt:ContentAsText", 
                "chars": "D'ALEGI", 
                "format": "text/plain"
            }
        }, 
        {
            "@id": "https://manifests.teklia.com/HIMANIS/JJ035/words_annotations/FRCHANJJ_JJ035_0070R.json/33/line", 
            "@type": "oa:Annotation", 
            "motivation": "oa:painting", 
            "on": "http://bvmm.irht.cnrs.fr/iiif/23575/canvas/canvas-2270511#xywh=895,1981,29,115", 
            "resource": {
                "@type": "cnt:ContentAsText", 
                "chars": "ET", 
                "format": "text/plain"
            }
        }, 
        {
            "@id": "https://manifests.teklia.com/HIMANIS/JJ035/words_annotations/FRCHANJJ_JJ035_0070R.json/34/line", 
            "@type": "oa:Annotation", 
            "motivation": "oa:painting", 
            "on": "http://bvmm.irht.cnrs.fr/iiif/23575/canvas/canvas-2270511#xywh=301,429,122,97", 
            "resource": {
                "@type": "cnt:ContentAsText", 
                "chars": "MONSEIGNEUR", 
                "format": "text/plain"
            }
        }, 
        {
            "@id": "https://manifests.teklia.com/HIMANIS/JJ035/words_annotations/FRCHANJJ_JJ035_0070R.json/35/line", 
            "@type": "oa:Annotation", 
            "motivation": "oa:painting", 
            "on": "http://bvmm.irht.cnrs.fr/iiif/23575/canvas/canvas-2270511#xywh=640,2516,79,60", 
            "resource": {
                "@type": "cnt:ContentAsText", 
                "chars": "FLOTE", 
                "format": "text/plain"
            }
        }, 
        {
            "@id": "https://manifests.teklia.com/HIMANIS/JJ035/words_annotations/FRCHANJJ_JJ035_0070R.json/36/line", 
            "@type": "oa:Annotation", 
            "motivation": "oa:painting", 
            "on": "http://bvmm.irht.cnrs.fr/iiif/23575/canvas/canvas-2270511#xywh=436,429,116,97", 
            "resource": {
                "@type": "cnt:ContentAsText", 
                "chars": "GRACION", 
                "format": "text/plain"
            }
        }, 
        {
            "@id": "https://manifests.teklia.com/HIMANIS/JJ035/words_annotations/FRCHANJJ_JJ035_0070R.json/37/line", 
            "@type": "oa:Annotation", 
            "motivation": "oa:painting", 
            "on": "http://bvmm.irht.cnrs.fr/iiif/23575/canvas/canvas-2270511#xywh=600,1251,107,51", 
            "resource": {
                "@type": "cnt:ContentAsText", 
                "chars": "SARRARI", 
                "format": "text/plain"
            }
        }, 
        {
            "@id": "https://manifests.teklia.com/HIMANIS/JJ035/words_annotations/FRCHANJJ_JJ035_0070R.json/38/line", 
            "@type": "oa:Annotation", 
            "motivation": "oa:painting", 
            "on": "http://bvmm.irht.cnrs.fr/iiif/23575/canvas/canvas-2270511#xywh=935,2096,131,110", 
            "resource": {
                "@type": "cnt:ContentAsText", 
                "chars": "HOMMES", 
                "format": "text/plain"
            }
        }, 
        {
            "@id": "https://manifests.teklia.com/HIMANIS/JJ035/words_annotations/FRCHANJJ_JJ035_0070R.json/39/line", 
            "@type": "oa:Annotation", 
            "motivation": "oa:painting", 
            "on": "http://bvmm.irht.cnrs.fr/iiif/23575/canvas/canvas-2270511#xywh=293,640,133,73", 
            "resource": {
                "@type": "cnt:ContentAsText", 
                "chars": "MONSEIGNEUR", 
                "format": "text/plain"
            }
        }, 
        {
            "@id": "https://manifests.teklia.com/HIMANIS/JJ035/words_annotations/FRCHANJJ_JJ035_0070R.json/40/line", 
            "@type": "oa:Annotation", 
            "motivation": "oa:painting", 
            "on": "http://bvmm.irht.cnrs.fr/iiif/23575/canvas/canvas-2270511#xywh=796,2096,35,110", 
            "resource": {
                "@type": "cnt:ContentAsText", 
                "chars": "IL", 
                "format": "text/plain"
            }
        }, 
        {
            "@id": "https://manifests.teklia.com/HIMANIS/JJ035/words_annotations/FRCHANJJ_JJ035_0070R.json/41/line", 
            "@type": "oa:Annotation", 
            "motivation": "oa:painting", 
            "on": "http://bvmm.irht.cnrs.fr/iiif/23575/canvas/canvas-2270511#xywh=1399,1403,266,81", 
            "resource": {
                "@type": "cnt:ContentAsText", 
                "chars": "JUXT", 
                "format": "text/plain"
            }
        }, 
        {
            "@id": "https://manifests.teklia.com/HIMANIS/JJ035/words_annotations/FRCHANJJ_JJ035_0070R.json/42/line", 
            "@type": "oa:Annotation", 
            "motivation": "oa:painting", 
            "on": "http://bvmm.irht.cnrs.fr/iiif/23575/canvas/canvas-2270511#xywh=452,528,134,88", 
            "resource": {
                "@type": "cnt:ContentAsText", 
                "chars": "RAYMON", 
                "format": "text/plain"
            }
        }, 
        {
            "@id": "https://manifests.teklia.com/HIMANIS/JJ035/words_annotations/FRCHANJJ_JJ035_0070R.json/43/line", 
            "@type": "oa:Annotation", 
            "motivation": "oa:painting", 
            "on": "http://bvmm.irht.cnrs.fr/iiif/23575/canvas/canvas-2270511#xywh=599,1981,231,115", 
            "resource": {
                "@type": "cnt:ContentAsText", 
                "chars": "BOULOINGNE", 
                "format": "text/plain"
            }
        }, 
        {
            "@id": "https://manifests.teklia.com/HIMANIS/JJ035/words_annotations/FRCHANJJ_JJ035_0070R.json/44/line", 
            "@type": "oa:Annotation", 
            "motivation": "oa:painting", 
            "on": "http://bvmm.irht.cnrs.fr/iiif/23575/canvas/canvas-2270511#xywh=68,1038,440,92", 
            "resource": {
                "@type": "cnt:ContentAsText", 
                "chars": "SEIGNOR", 
                "format": "text/plain"
            }
        }, 
        {
            "@id": "https://manifests.teklia.com/HIMANIS/JJ035/words_annotations/FRCHANJJ_JJ035_0070R.json/45/line", 
            "@type": "oa:Annotation", 
            "motivation": "oa:painting", 
            "on": "http://bvmm.irht.cnrs.fr/iiif/23575/canvas/canvas-2270511#xywh=640,828,29,77", 
            "resource": {
                "@type": "cnt:ContentAsText", 
                "chars": "LA", 
                "format": "text/plain"
            }
        }, 
        {
            "@id": "https://manifests.teklia.com/HIMANIS/JJ035/words_annotations/FRCHANJJ_JJ035_0070R.json/46/line", 
            "@type": "oa:Annotation", 
            "motivation": "oa:painting", 
            "on": "http://bvmm.irht.cnrs.fr/iiif/23575/canvas/canvas-2270511#xywh=582,828,39,77", 
            "resource": {
                "@type": "cnt:ContentAsText", 
                "chars": "DE", 
                "format": "text/plain"
            }
        }, 
        {
            "@id": "https://manifests.teklia.com/HIMANIS/JJ035/words_annotations/FRCHANJJ_JJ035_0070R.json/47/line", 
            "@type": "oa:Annotation", 
            "motivation": "oa:painting", 
            "on": "http://bvmm.irht.cnrs.fr/iiif/23575/canvas/canvas-2270511#xywh=87,2211,443,95", 
            "resource": {
                "@type": "cnt:ContentAsText", 
                "chars": "ROY", 
                "format": "text/plain"
            }
        }, 
        {
            "@id": "https://manifests.teklia.com/HIMANIS/JJ035/words_annotations/FRCHANJJ_JJ035_0070R.json/48/line", 
            "@type": "oa:Annotation", 
            "motivation": "oa:painting", 
            "on": "http://bvmm.irht.cnrs.fr/iiif/23575/canvas/canvas-2270511#xywh=599,2702,160,72", 
            "resource": {
                "@type": "cnt:ContentAsText", 
                "chars": "ROUSSAINE", 
                "format": "text/plain"
            }
        }, 
        {
            "@id": "https://manifests.teklia.com/HIMANIS/JJ035/words_annotations/FRCHANJJ_JJ035_0070R.json/49/line", 
            "@type": "oa:Annotation", 
            "motivation": "oa:painting", 
            "on": "http://bvmm.irht.cnrs.fr/iiif/23575/canvas/canvas-2270511#xywh=1327,915,152,69", 
            "resource": {
                "@type": "cnt:ContentAsText", 
                "chars": "SAINT-", 
                "format": "text/plain"
            }
        }, 
        {
            "@id": "https://manifests.teklia.com/HIMANIS/JJ035/words_annotations/FRCHANJJ_JJ035_0070R.json/50/line", 
            "@type": "oa:Annotation", 
            "motivation": "oa:painting", 
            "on": "http://bvmm.irht.cnrs.fr/iiif/23575/canvas/canvas-2270511#xywh=57,2211,306,95", 
            "resource": {
                "@type": "cnt:ContentAsText", 
                "chars": "LES", 
                "format": "text/plain"
            }
        }, 
        {
            "@id": "https://manifests.teklia.com/HIMANIS/JJ035/words_annotations/FRCHANJJ_JJ035_0070R.json/51/line", 
            "@type": "oa:Annotation", 
            "motivation": "oa:painting", 
            "on": "http://bvmm.irht.cnrs.fr/iiif/23575/canvas/canvas-2270511#xywh=342,2516,128,60", 
            "resource": {
                "@type": "cnt:ContentAsText", 
                "chars": "MONSEIGNEUR", 
                "format": "text/plain"
            }
        }, 
        {
            "@id": "https://manifests.teklia.com/HIMANIS/JJ035/words_annotations/FRCHANJJ_JJ035_0070R.json/52/line", 
            "@type": "oa:Annotation", 
            "motivation": "oa:painting", 
            "on": "http://bvmm.irht.cnrs.fr/iiif/23575/canvas/canvas-2270511#xywh=75,2211,455,95", 
            "resource": {
                "@type": "cnt:ContentAsText", 
                "chars": "ET", 
                "format": "text/plain"
            }
        }, 
        {
            "@id": "https://manifests.teklia.com/HIMANIS/JJ035/words_annotations/FRCHANJJ_JJ035_0070R.json/53/line", 
            "@type": "oa:Annotation", 
            "motivation": "oa:painting", 
            "on": "http://bvmm.irht.cnrs.fr/iiif/23575/canvas/canvas-2270511#xywh=50,1038,18,92", 
            "resource": {
                "@type": "cnt:ContentAsText", 
                "chars": "LE", 
                "format": "text/plain"
            }
        }, 
        {
            "@id": "https://manifests.teklia.com/HIMANIS/JJ035/words_annotations/FRCHANJJ_JJ035_0070R.json/54/line", 
            "@type": "oa:Annotation", 
            "motivation": "oa:painting", 
            "on": "http://bvmm.irht.cnrs.fr/iiif/23575/canvas/canvas-2270511#xywh=525,1038,35,92", 
            "resource": {
                "@type": "cnt:ContentAsText", 
                "chars": "DE", 
                "format": "text/plain"
            }
        }, 
        {
            "@id": "https://manifests.teklia.com/HIMANIS/JJ035/words_annotations/FRCHANJJ_JJ035_0070R.json/55/line", 
            "@type": "oa:Annotation", 
            "motivation": "oa:painting", 
            "on": "http://bvmm.irht.cnrs.fr/iiif/23575/canvas/canvas-2270511#xywh=638,429,91,97", 
            "resource": {
                "@type": "cnt:ContentAsText", 
                "chars": "CLERE", 
                "format": "text/plain"
            }
        }, 
        {
            "@id": "https://manifests.teklia.com/HIMANIS/JJ035/words_annotations/FRCHANJJ_JJ035_0070R.json/56/line", 
            "@type": "oa:Annotation", 
            "motivation": "oa:painting", 
            "on": "http://bvmm.irht.cnrs.fr/iiif/23575/canvas/canvas-2270511#xywh=1549,0,226,62", 
            "resource": {
                "@type": "cnt:ContentAsText", 
                "chars": "DE", 
                "format": "text/plain"
            }
        }, 
        {
            "@id": "https://manifests.teklia.com/HIMANIS/JJ035/words_annotations/FRCHANJJ_JJ035_0070R.json/57/line", 
            "@type": "oa:Annotation", 
            "motivation": "oa:painting", 
            "on": "http://bvmm.irht.cnrs.fr/iiif/23575/canvas/canvas-2270511#xywh=1327,915,148,69", 
            "resource": {
                "@type": "cnt:ContentAsText", 
                "chars": "SAINTE", 
                "format": "text/plain"
            }
        }, 
        {
            "@id": "https://manifests.teklia.com/HIMANIS/JJ035/words_annotations/FRCHANJJ_JJ035_0070R.json/58/line", 
            "@type": "oa:Annotation", 
            "motivation": "oa:painting", 
            "on": "http://bvmm.irht.cnrs.fr/iiif/23575/canvas/canvas-2270511#xywh=600,1251,110,51", 
            "resource": {
                "@type": "cnt:ContentAsText", 
                "chars": "SARRAZIN", 
                "format": "text/plain"
            }
        }, 
        {
            "@id": "https://manifests.teklia.com/HIMANIS/JJ035/words_annotations/FRCHANJJ_JJ035_0070R.json/59/line", 
            "@type": "oa:Annotation", 
            "motivation": "oa:painting", 
            "on": "http://bvmm.irht.cnrs.fr/iiif/23575/canvas/canvas-2270511#xywh=1211,2406,138,110", 
            "resource": {
                "@type": "cnt:ContentAsText", 
                "chars": "D'ARMEN", 
                "format": "text/plain"
            }
        }, 
        {
            "@id": "https://manifests.teklia.com/HIMANIS/JJ035/words_annotations/FRCHANJJ_JJ035_0070R.json/60/line", 
            "@type": "oa:Annotation", 
            "motivation": "oa:painting", 
            "on": "http://bvmm.irht.cnrs.fr/iiif/23575/canvas/canvas-2270511#xywh=60,1150,292,113", 
            "resource": {
                "@type": "cnt:ContentAsText", 
                "chars": "LE", 
                "format": "text/plain"
            }
        }, 
        {
            "@id": "https://manifests.teklia.com/HIMANIS/JJ035/words_annotations/FRCHANJJ_JJ035_0070R.json/61/line", 
            "@type": "oa:Annotation", 
            "motivation": "oa:painting", 
            "on": "http://bvmm.irht.cnrs.fr/iiif/23575/canvas/canvas-2270511#xywh=515,1150,50,113", 
            "resource": {
                "@type": "cnt:ContentAsText", 
                "chars": "DE", 
                "format": "text/plain"
            }
        }, 
        {
            "@id": "https://manifests.teklia.com/HIMANIS/JJ035/words_annotations/FRCHANJJ_JJ035_0070R.json/62/line", 
            "@type": "oa:Annotation", 
            "motivation": "oa:painting", 
            "on": "http://bvmm.irht.cnrs.fr/iiif/23575/canvas/canvas-2270511#xywh=1104,915,214,69", 
            "resource": {
                "@type": "cnt:ContentAsText", 
                "chars": "DE", 
                "format": "text/plain"
            }
        }, 
        {
            "@id": "https://manifests.teklia.com/HIMANIS/JJ035/words_annotations/FRCHANJJ_JJ035_0070R.json/63/line", 
            "@type": "oa:Annotation", 
            "motivation": "oa:painting", 
            "on": "http://bvmm.irht.cnrs.fr/iiif/23575/canvas/canvas-2270511#xywh=1211,2406,138,110", 
            "resource": {
                "@type": "cnt:ContentAsText", 
                "chars": "D'ARMES", 
                "format": "text/plain"
            }
        }, 
        {
            "@id": "https://manifests.teklia.com/HIMANIS/JJ035/words_annotations/FRCHANJJ_JJ035_0070R.json/64/line", 
            "@type": "oa:Annotation", 
            "motivation": "oa:painting", 
            "on": "http://bvmm.irht.cnrs.fr/iiif/23575/canvas/canvas-2270511#xywh=60,1150,299,113", 
            "resource": {
                "@type": "cnt:ContentAsText", 
                "chars": "LES", 
                "format": "text/plain"
            }
        }, 
        {
            "@id": "https://manifests.teklia.com/HIMANIS/JJ035/words_annotations/FRCHANJJ_JJ035_0070R.json/65/line", 
            "@type": "oa:Annotation", 
            "motivation": "oa:painting", 
            "on": "http://bvmm.irht.cnrs.fr/iiif/23575/canvas/canvas-2270511#xywh=1327,915,148,69", 
            "resource": {
                "@type": "cnt:ContentAsText", 
                "chars": "NOSTRE", 
                "format": "text/plain"
            }
        }, 
        {
            "@id": "https://manifests.teklia.com/HIMANIS/JJ035/words_annotations/FRCHANJJ_JJ035_0070R.json/66/line", 
            "@type": "oa:Annotation", 
            "motivation": "oa:painting", 
            "on": "http://bvmm.irht.cnrs.fr/iiif/23575/canvas/canvas-2270511#xywh=449,640,138,73", 
            "resource": {
                "@type": "cnt:ContentAsText", 
                "chars": "JOCERAN", 
                "format": "text/plain"
            }
        }, 
        {
            "@id": "https://manifests.teklia.com/HIMANIS/JJ035/words_annotations/FRCHANJJ_JJ035_0070R.json/67/line", 
            "@type": "oa:Annotation", 
            "motivation": "oa:painting", 
            "on": "http://bvmm.irht.cnrs.fr/iiif/23575/canvas/canvas-2270511#xywh=304,2702,68,72", 
            "resource": {
                "@type": "cnt:ContentAsText", 
                "chars": "SE", 
                "format": "text/plain"
            }
        }, 
        {
            "@id": "https://manifests.teklia.com/HIMANIS/JJ035/words_annotations/FRCHANJJ_JJ035_0070R.json/68/line", 
            "@type": "oa:Annotation", 
            "motivation": "oa:painting", 
            "on": "http://bvmm.irht.cnrs.fr/iiif/23575/canvas/canvas-2270511#xywh=43,1251,298,51", 
            "resource": {
                "@type": "cnt:ContentAsText", 
                "chars": "LE", 
                "format": "text/plain"
            }
        }, 
        {
            "@id": "https://manifests.teklia.com/HIMANIS/JJ035/words_annotations/FRCHANJJ_JJ035_0070R.json/69/line", 
            "@type": "oa:Annotation", 
            "motivation": "oa:painting", 
            "on": "http://bvmm.irht.cnrs.fr/iiif/23575/canvas/canvas-2270511#xywh=532,1251,32,51", 
            "resource": {
                "@type": "cnt:ContentAsText", 
                "chars": "DE", 
                "format": "text/plain"
            }
        }, 
        {
            "@id": "https://manifests.teklia.com/HIMANIS/JJ035/words_annotations/FRCHANJJ_JJ035_0070R.json/70/line", 
            "@type": "oa:Annotation", 
            "motivation": "oa:painting", 
            "on": "http://bvmm.irht.cnrs.fr/iiif/23575/canvas/canvas-2270511#xywh=370,1251,133,51", 
            "resource": {
                "@type": "cnt:ContentAsText", 
                "chars": "SEIGNOR", 
                "format": "text/plain"
            }
        }, 
        {
            "@id": "https://manifests.teklia.com/HIMANIS/JJ035/words_annotations/FRCHANJJ_JJ035_0070R.json/71/line", 
            "@type": "oa:Annotation", 
            "motivation": "oa:painting", 
            "on": "http://bvmm.irht.cnrs.fr/iiif/23575/canvas/canvas-2270511#xywh=273,1150,228,113", 
            "resource": {
                "@type": "cnt:ContentAsText", 
                "chars": "SEIGNOR", 
                "format": "text/plain"
            }
        }, 
        {
            "@id": "https://manifests.teklia.com/HIMANIS/JJ035/words_annotations/FRCHANJJ_JJ035_0070R.json/72/line", 
            "@type": "oa:Annotation", 
            "motivation": "oa:painting", 
            "on": "http://bvmm.irht.cnrs.fr/iiif/23575/canvas/canvas-2270511#xywh=33,954,312,84", 
            "resource": {
                "@type": "cnt:ContentAsText", 
                "chars": "LE", 
                "format": "text/plain"
            }
        }, 
        {
            "@id": "https://manifests.teklia.com/HIMANIS/JJ035/words_annotations/FRCHANJJ_JJ035_0070R.json/73/line", 
            "@type": "oa:Annotation", 
            "motivation": "oa:painting", 
            "on": "http://bvmm.irht.cnrs.fr/iiif/23575/canvas/canvas-2270511#xywh=568,954,31,84", 
            "resource": {
                "@type": "cnt:ContentAsText", 
                "chars": "DE", 
                "format": "text/plain"
            }
        }, 
        {
            "@id": "https://manifests.teklia.com/HIMANIS/JJ035/words_annotations/FRCHANJJ_JJ035_0070R.json/74/line", 
            "@type": "oa:Annotation", 
            "motivation": "oa:painting", 
            "on": "http://bvmm.irht.cnrs.fr/iiif/23575/canvas/canvas-2270511#xywh=599,2702,160,72", 
            "resource": {
                "@type": "cnt:ContentAsText", 
                "chars": "ROUSSAINNE", 
                "format": "text/plain"
            }
        }, 
        {
            "@id": "https://manifests.teklia.com/HIMANIS/JJ035/words_annotations/FRCHANJJ_JJ035_0070R.json/75/line", 
            "@type": "oa:Annotation", 
            "motivation": "oa:painting", 
            "on": "http://bvmm.irht.cnrs.fr/iiif/23575/canvas/canvas-2270511#xywh=711,1038,92,92", 
            "resource": {
                "@type": "cnt:ContentAsText", 
                "chars": "DIDIER", 
                "format": "text/plain"
            }
        }, 
        {
            "@id": "https://manifests.teklia.com/HIMANIS/JJ035/words_annotations/FRCHANJJ_JJ035_0070R.json/76/line", 
            "@type": "oa:Annotation", 
            "motivation": "oa:painting", 
            "on": "http://bvmm.irht.cnrs.fr/iiif/23575/canvas/canvas-2270511#xywh=625,528,88,88", 
            "resource": {
                "@type": "cnt:ContentAsText", 
                "chars": "JOCE", 
                "format": "text/plain"
            }
        }, 
        {
            "@id": "https://manifests.teklia.com/HIMANIS/JJ035/words_annotations/FRCHANJJ_JJ035_0070R.json/77/line", 
            "@type": "oa:Annotation", 
            "motivation": "oa:painting", 
            "on": "http://bvmm.irht.cnrs.fr/iiif/23575/canvas/canvas-2270511#xywh=286,753,54,61", 
            "resource": {
                "@type": "cnt:ContentAsText", 
                "chars": "LE", 
                "format": "text/plain"
            }
        }, 
        {
            "@id": "https://manifests.teklia.com/HIMANIS/JJ035/words_annotations/FRCHANJJ_JJ035_0070R.json/78/line", 
            "@type": "oa:Annotation", 
            "motivation": "oa:painting", 
            "on": "http://bvmm.irht.cnrs.fr/iiif/23575/canvas/canvas-2270511#xywh=283,339,50,87", 
            "resource": {
                "@type": "cnt:ContentAsText", 
                "chars": "LE", 
                "format": "text/plain"
            }
        }, 
        {
            "@id": "https://manifests.teklia.com/HIMANIS/JJ035/words_annotations/FRCHANJJ_JJ035_0070R.json/79/line", 
            "@type": "oa:Annotation", 
            "motivation": "oa:painting", 
            "on": "http://bvmm.irht.cnrs.fr/iiif/23575/canvas/canvas-2270511#xywh=540,753,31,61", 
            "resource": {
                "@type": "cnt:ContentAsText", 
                "chars": "DE", 
                "format": "text/plain"
            }
        }, 
        {
            "@id": "https://manifests.teklia.com/HIMANIS/JJ035/words_annotations/FRCHANJJ_JJ035_0070R.json/80/line", 
            "@type": "oa:Annotation", 
            "motivation": "oa:painting", 
            "on": "http://bvmm.irht.cnrs.fr/iiif/23575/canvas/canvas-2270511#xywh=508,339,33,87", 
            "resource": {
                "@type": "cnt:ContentAsText", 
                "chars": "DE", 
                "format": "text/plain"
            }
        }, 
        {
            "@id": "https://manifests.teklia.com/HIMANIS/JJ035/words_annotations/FRCHANJJ_JJ035_0070R.json/81/line", 
            "@type": "oa:Annotation", 
            "motivation": "oa:painting", 
            "on": "http://bvmm.irht.cnrs.fr/iiif/23575/canvas/canvas-2270511#xywh=401,2316,136,90", 
            "resource": {
                "@type": "cnt:ContentAsText", 
                "chars": "CONTE", 
                "format": "text/plain"
            }
        }, 
        {
            "@id": "https://manifests.teklia.com/HIMANIS/JJ035/words_annotations/FRCHANJJ_JJ035_0070R.json/82/line", 
            "@type": "oa:Annotation", 
            "motivation": "oa:painting", 
            "on": "http://bvmm.irht.cnrs.fr/iiif/23575/canvas/canvas-2270511#xywh=722,339,33,87", 
            "resource": {
                "@type": "cnt:ContentAsText", 
                "chars": "XX", 
                "format": "text/plain"
            }
        }, 
        {
            "@id": "https://manifests.teklia.com/HIMANIS/JJ035/words_annotations/FRCHANJJ_JJ035_0070R.json/83/line", 
            "@type": "oa:Annotation", 
            "motivation": "oa:painting", 
            "on": "http://bvmm.irht.cnrs.fr/iiif/23575/canvas/canvas-2270511#xywh=579,1150,36,113", 
            "resource": {
                "@type": "cnt:ContentAsText", 
                "chars": "CHAN", 
                "format": "text/plain"
            }
        }, 
        {
            "@id": "https://manifests.teklia.com/HIMANIS/JJ035/words_annotations/FRCHANJJ_JJ035_0070R.json/84/line", 
            "@type": "oa:Annotation", 
            "motivation": "oa:painting", 
            "on": "http://bvmm.irht.cnrs.fr/iiif/23575/canvas/canvas-2270511#xywh=579,1150,29,113", 
            "resource": {
                "@type": "cnt:ContentAsText", 
                "chars": "CHAS", 
                "format": "text/plain"
            }
        }, 
        {
            "@id": "https://manifests.teklia.com/HIMANIS/JJ035/words_annotations/FRCHANJJ_JJ035_0070R.json/85/line", 
            "@type": "oa:Annotation", 
            "motivation": "oa:painting", 
            "on": "http://bvmm.irht.cnrs.fr/iiif/23575/canvas/canvas-2270511#xywh=930,339,88,87", 
            "resource": {
                "@type": "cnt:ContentAsText", 
                "chars": "D'ARME", 
                "format": "text/plain"
            }
        }, 
        {
            "@id": "https://manifests.teklia.com/HIMANIS/JJ035/words_annotations/FRCHANJJ_JJ035_0070R.json/86/line", 
            "@type": "oa:Annotation", 
            "motivation": "oa:painting", 
            "on": "http://bvmm.irht.cnrs.fr/iiif/23575/canvas/canvas-2270511#xywh=589,429,36,97", 
            "resource": {
                "@type": "cnt:ContentAsText", 
                "chars": "DE", 
                "format": "text/plain"
            }
        }, 
        {
            "@id": "https://manifests.teklia.com/HIMANIS/JJ035/words_annotations/FRCHANJJ_JJ035_0070R.json/87/line", 
            "@type": "oa:Annotation", 
            "motivation": "oa:painting", 
            "on": "http://bvmm.irht.cnrs.fr/iiif/23575/canvas/canvas-2270511#xywh=894,429,31,97", 
            "resource": {
                "@type": "cnt:ContentAsText", 
                "chars": "LI", 
                "format": "text/plain"
            }
        }, 
        {
            "@id": "https://manifests.teklia.com/HIMANIS/JJ035/words_annotations/FRCHANJJ_JJ035_0070R.json/88/line", 
            "@type": "oa:Annotation", 
            "motivation": "oa:painting", 
            "on": "http://bvmm.irht.cnrs.fr/iiif/23575/canvas/canvas-2270511#xywh=1329,429,24,97", 
            "resource": {
                "@type": "cnt:ContentAsText", 
                "chars": "XX", 
                "format": "text/plain"
            }
        }, 
        {
            "@id": "https://manifests.teklia.com/HIMANIS/JJ035/words_annotations/FRCHANJJ_JJ035_0070R.json/89/line", 
            "@type": "oa:Annotation", 
            "motivation": "oa:painting", 
            "on": "http://bvmm.irht.cnrs.fr/iiif/23575/canvas/canvas-2270511#xywh=371,753,131,61", 
            "resource": {
                "@type": "cnt:ContentAsText", 
                "chars": "SEIGNER", 
                "format": "text/plain"
            }
        }, 
        {
            "@id": "https://manifests.teklia.com/HIMANIS/JJ035/words_annotations/FRCHANJJ_JJ035_0070R.json/90/line", 
            "@type": "oa:Annotation", 
            "motivation": "oa:painting", 
            "on": "http://bvmm.irht.cnrs.fr/iiif/23575/canvas/canvas-2270511#xywh=790,1403,0,81", 
            "resource": {
                "@type": "cnt:ContentAsText", 
                "chars": "P", 
                "format": "text/plain"
            }
        }, 
        {
            "@id": "https://manifests.teklia.com/HIMANIS/JJ035/words_annotations/FRCHANJJ_JJ035_0070R.json/91/line", 
            "@type": "oa:Annotation", 
            "motivation": "oa:painting", 
            "on": "http://bvmm.irht.cnrs.fr/iiif/23575/canvas/canvas-2270511#xywh=1186,528,44,88", 
            "resource": {
                "@type": "cnt:ContentAsText", 
                "chars": "IIIJ", 
                "format": "text/plain"
            }
        }, 
        {
            "@id": "https://manifests.teklia.com/HIMANIS/JJ035/words_annotations/FRCHANJJ_JJ035_0070R.json/92/line", 
            "@type": "oa:Annotation", 
            "motivation": "oa:painting", 
            "on": "http://bvmm.irht.cnrs.fr/iiif/23575/canvas/canvas-2270511#xywh=602,753,181,61", 
            "resource": {
                "@type": "cnt:ContentAsText", 
                "chars": "CHARRONTON", 
                "format": "text/plain"
            }
        }, 
        {
            "@id": "https://manifests.teklia.com/HIMANIS/JJ035/words_annotations/FRCHANJJ_JJ035_0070R.json/93/line", 
            "@type": "oa:Annotation", 
            "motivation": "oa:painting", 
            "on": "http://bvmm.irht.cnrs.fr/iiif/23575/canvas/canvas-2270511#xywh=1148,1403,123,81", 
            "resource": {
                "@type": "cnt:ContentAsText", 
                "chars": "HOMMES", 
                "format": "text/plain"
            }
        }, 
        {
            "@id": "https://manifests.teklia.com/HIMANIS/JJ035/words_annotations/FRCHANJJ_JJ035_0070R.json/94/line", 
            "@type": "oa:Annotation", 
            "motivation": "oa:painting", 
            "on": "http://bvmm.irht.cnrs.fr/iiif/23575/canvas/canvas-2270511#xywh=626,954,222,84", 
            "resource": {
                "@type": "cnt:ContentAsText", 
                "chars": "POULLEGNAC", 
                "format": "text/plain"
            }
        }, 
        {
            "@id": "https://manifests.teklia.com/HIMANIS/JJ035/words_annotations/FRCHANJJ_JJ035_0070R.json/95/line", 
            "@type": "oa:Annotation", 
            "motivation": "oa:painting", 
            "on": "http://bvmm.irht.cnrs.fr/iiif/23575/canvas/canvas-2270511#xywh=1312,1403,87,81", 
            "resource": {
                "@type": "cnt:ContentAsText", 
                "chars": "D'ARME", 
                "format": "text/plain"
            }
        }, 
        {
            "@id": "https://manifests.teklia.com/HIMANIS/JJ035/words_annotations/FRCHANJJ_JJ035_0070R.json/96/line", 
            "@type": "oa:Annotation", 
            "motivation": "oa:painting", 
            "on": "http://bvmm.irht.cnrs.fr/iiif/23575/canvas/canvas-2270511#xywh=1027,2702,27,72", 
            "resource": {
                "@type": "cnt:ContentAsText", 
                "chars": "PER", 
                "format": "text/plain"
            }
        }, 
        {
            "@id": "https://manifests.teklia.com/HIMANIS/JJ035/words_annotations/FRCHANJJ_JJ035_0070R.json/97/line", 
            "@type": "oa:Annotation", 
            "motivation": "oa:painting", 
            "on": "http://bvmm.irht.cnrs.fr/iiif/23575/canvas/canvas-2270511#xywh=936,528,144,88", 
            "resource": {
                "@type": "cnt:ContentAsText", 
                "chars": "D'ARMES", 
                "format": "text/plain"
            }
        }, 
        {
            "@id": "https://manifests.teklia.com/HIMANIS/JJ035/words_annotations/FRCHANJJ_JJ035_0070R.json/98/line", 
            "@type": "oa:Annotation", 
            "motivation": "oa:painting", 
            "on": "http://bvmm.irht.cnrs.fr/iiif/23575/canvas/canvas-2270511#xywh=722,339,181,87", 
            "resource": {
                "@type": "cnt:ContentAsText", 
                "chars": "HOMMES", 
                "format": "text/plain"
            }
        }, 
        {
            "@id": "https://manifests.teklia.com/HIMANIS/JJ035/words_annotations/FRCHANJJ_JJ035_0070R.json/99/line", 
            "@type": "oa:Annotation", 
            "motivation": "oa:painting", 
            "on": "http://bvmm.irht.cnrs.fr/iiif/23575/canvas/canvas-2270511#xywh=1530,429,141,97", 
            "resource": {
                "@type": "cnt:ContentAsText", 
                "chars": "D'ARMES", 
                "format": "text/plain"
            }
        }, 
        {
            "@id": "https://manifests.teklia.com/HIMANIS/JJ035/words_annotations/FRCHANJJ_JJ035_0070R.json/100/line", 
            "@type": "oa:Annotation", 
            "motivation": "oa:painting", 
            "on": "http://bvmm.irht.cnrs.fr/iiif/23575/canvas/canvas-2270511#xywh=397,1981,115,115", 
            "resource": {
                "@type": "cnt:ContentAsText", 
                "chars": "CONTE", 
                "format": "text/plain"
            }
        }, 
        {
            "@id": "https://manifests.teklia.com/HIMANIS/JJ035/words_annotations/FRCHANJJ_JJ035_0070R.json/101/line", 
            "@type": "oa:Annotation", 
            "motivation": "oa:painting", 
            "on": "http://bvmm.irht.cnrs.fr/iiif/23575/canvas/canvas-2270511#xywh=930,339,88,87", 
            "resource": {
                "@type": "cnt:ContentAsText", 
                "chars": "D'ARMES", 
                "format": "text/plain"
            }
        }, 
        {
            "@id": "https://manifests.teklia.com/HIMANIS/JJ035/words_annotations/FRCHANJJ_JJ035_0070R.json/102/line", 
            "@type": "oa:Annotation", 
            "motivation": "oa:painting", 
            "on": "http://bvmm.irht.cnrs.fr/iiif/23575/canvas/canvas-2270511#xywh=1077,2702,132,72", 
            "resource": {
                "@type": "cnt:ContentAsText", 
                "chars": "HOMMES", 
                "format": "text/plain"
            }
        }, 
        {
            "@id": "https://manifests.teklia.com/HIMANIS/JJ035/words_annotations/FRCHANJJ_JJ035_0070R.json/103/line", 
            "@type": "oa:Annotation", 
            "motivation": "oa:painting", 
            "on": "http://bvmm.irht.cnrs.fr/iiif/23575/canvas/canvas-2270511#xywh=50,1038,226,92", 
            "resource": {
                "@type": "cnt:ContentAsText", 
                "chars": "ET", 
                "format": "text/plain"
            }
        }, 
        {
            "@id": "https://manifests.teklia.com/HIMANIS/JJ035/words_annotations/FRCHANJJ_JJ035_0070R.json/104/line", 
            "@type": "oa:Annotation", 
            "motivation": "oa:painting", 
            "on": "http://bvmm.irht.cnrs.fr/iiif/23575/canvas/canvas-2270511#xywh=630,2096,159,110", 
            "resource": {
                "@type": "cnt:ContentAsText", 
                "chars": "MARQUE", 
                "format": "text/plain"
            }
        }, 
        {
            "@id": "https://manifests.teklia.com/HIMANIS/JJ035/words_annotations/FRCHANJJ_JJ035_0070R.json/105/line", 
            "@type": "oa:Annotation", 
            "motivation": "oa:painting", 
            "on": "http://bvmm.irht.cnrs.fr/iiif/23575/canvas/canvas-2270511#xywh=1549,0,242,62", 
            "resource": {
                "@type": "cnt:ContentAsText", 
                "chars": "ET", 
                "format": "text/plain"
            }
        }, 
        {
            "@id": "https://manifests.teklia.com/HIMANIS/JJ035/words_annotations/FRCHANJJ_JJ035_0070R.json/106/line", 
            "@type": "oa:Annotation", 
            "motivation": "oa:painting", 
            "on": "http://bvmm.irht.cnrs.fr/iiif/23575/canvas/canvas-2270511#xywh=452,828,96,77", 
            "resource": {
                "@type": "cnt:ContentAsText", 
                "chars": "BERAN", 
                "format": "text/plain"
            }
        }, 
        {
            "@id": "https://manifests.teklia.com/HIMANIS/JJ035/words_annotations/FRCHANJJ_JJ035_0070R.json/107/line", 
            "@type": "oa:Annotation", 
            "motivation": "oa:painting", 
            "on": "http://bvmm.irht.cnrs.fr/iiif/23575/canvas/canvas-2270511#xywh=1018,2406,7,110", 
            "resource": {
                "@type": "cnt:ContentAsText", 
                "chars": "XX", 
                "format": "text/plain"
            }
        }, 
        {
            "@id": "https://manifests.teklia.com/HIMANIS/JJ035/words_annotations/FRCHANJJ_JJ035_0070R.json/108/line", 
            "@type": "oa:Annotation", 
            "motivation": "oa:painting", 
            "on": "http://bvmm.irht.cnrs.fr/iiif/23575/canvas/canvas-2270511#xywh=1127,429,43,97", 
            "resource": {
                "@type": "cnt:ContentAsText", 
                "chars": "SON", 
                "format": "text/plain"
            }
        }, 
        {
            "@id": "https://manifests.teklia.com/HIMANIS/JJ035/words_annotations/FRCHANJJ_JJ035_0070R.json/109/line", 
            "@type": "oa:Annotation", 
            "motivation": "oa:painting", 
            "on": "http://bvmm.irht.cnrs.fr/iiif/23575/canvas/canvas-2270511#xywh=790,1403,143,81", 
            "resource": {
                "@type": "cnt:ContentAsText", 
                "chars": "SUR", 
                "format": "text/plain"
            }
        }, 
        {
            "@id": "https://manifests.teklia.com/HIMANIS/JJ035/words_annotations/FRCHANJJ_JJ035_0070R.json/110/line", 
            "@type": "oa:Annotation", 
            "motivation": "oa:painting", 
            "on": "http://bvmm.irht.cnrs.fr/iiif/23575/canvas/canvas-2270511#xywh=854,2702,132,72", 
            "resource": {
                "@type": "cnt:ContentAsText", 
                "chars": "CHASCUN", 
                "format": "text/plain"
            }
        }, 
        {
            "@id": "https://manifests.teklia.com/HIMANIS/JJ035/words_annotations/FRCHANJJ_JJ035_0070R.json/111/line", 
            "@type": "oa:Annotation", 
            "motivation": "oa:painting", 
            "on": "http://bvmm.irht.cnrs.fr/iiif/23575/canvas/canvas-2270511#xywh=304,2702,68,72", 
            "resource": {
                "@type": "cnt:ContentAsText", 
                "chars": "LE", 
                "format": "text/plain"
            }
        }, 
        {
            "@id": "https://manifests.teklia.com/HIMANIS/JJ035/words_annotations/FRCHANJJ_JJ035_0070R.json/112/line", 
            "@type": "oa:Annotation", 
            "motivation": "oa:painting", 
            "on": "http://bvmm.irht.cnrs.fr/iiif/23575/canvas/canvas-2270511#xywh=711,1038,92,92", 
            "resource": {
                "@type": "cnt:ContentAsText", 
                "chars": "DIDIE", 
                "format": "text/plain"
            }
        }, 
        {
            "@id": "https://manifests.teklia.com/HIMANIS/JJ035/words_annotations/FRCHANJJ_JJ035_0070R.json/113/line", 
            "@type": "oa:Annotation", 
            "motivation": "oa:painting", 
            "on": "http://bvmm.irht.cnrs.fr/iiif/23575/canvas/canvas-2270511#xywh=1241,2702,132,72", 
            "resource": {
                "@type": "cnt:ContentAsText", 
                "chars": "DE", 
                "format": "text/plain"
            }
        }, 
        {
            "@id": "https://manifests.teklia.com/HIMANIS/JJ035/words_annotations/FRCHANJJ_JJ035_0070R.json/114/line", 
            "@type": "oa:Annotation", 
            "motivation": "oa:painting", 
            "on": "http://bvmm.irht.cnrs.fr/iiif/23575/canvas/canvas-2270511#xywh=1206,429,92,97", 
            "resource": {
                "@type": "cnt:ContentAsText", 
                "chars": "PERE", 
                "format": "text/plain"
            }
        }, 
        {
            "@id": "https://manifests.teklia.com/HIMANIS/JJ035/words_annotations/FRCHANJJ_JJ035_0070R.json/115/line", 
            "@type": "oa:Annotation", 
            "motivation": "oa:painting", 
            "on": "http://bvmm.irht.cnrs.fr/iiif/23575/canvas/canvas-2270511#xywh=852,2406,145,110", 
            "resource": {
                "@type": "cnt:ContentAsText", 
                "chars": "CHASCUNE", 
                "format": "text/plain"
            }
        }, 
        {
            "@id": "https://manifests.teklia.com/HIMANIS/JJ035/words_annotations/FRCHANJJ_JJ035_0070R.json/116/line", 
            "@type": "oa:Annotation", 
            "motivation": "oa:painting", 
            "on": "http://bvmm.irht.cnrs.fr/iiif/23575/canvas/canvas-2270511#xywh=995,1403,107,81", 
            "resource": {
                "@type": "cnt:ContentAsText", 
                "chars": "VEXXV", 
                "format": "text/plain"
            }
        }, 
        {
            "@id": "https://manifests.teklia.com/HIMANIS/JJ035/words_annotations/FRCHANJJ_JJ035_0070R.json/117/line", 
            "@type": "oa:Annotation", 
            "motivation": "oa:painting", 
            "on": "http://bvmm.irht.cnrs.fr/iiif/23575/canvas/canvas-2270511#xywh=1247,528,150,88", 
            "resource": {
                "@type": "cnt:ContentAsText", 
                "chars": "SIGANS", 
                "format": "text/plain"
            }
        }, 
        {
            "@id": "https://manifests.teklia.com/HIMANIS/JJ035/words_annotations/FRCHANJJ_JJ035_0070R.json/118/line", 
            "@type": "oa:Annotation", 
            "motivation": "oa:painting", 
            "on": "http://bvmm.irht.cnrs.fr/iiif/23575/canvas/canvas-2270511#xywh=57,2211,18,95", 
            "resource": {
                "@type": "cnt:ContentAsText", 
                "chars": "PER", 
                "format": "text/plain"
            }
        }, 
        {
            "@id": "https://manifests.teklia.com/HIMANIS/JJ035/words_annotations/FRCHANJJ_JJ035_0070R.json/119/line", 
            "@type": "oa:Annotation", 
            "motivation": "oa:painting", 
            "on": "http://bvmm.irht.cnrs.fr/iiif/23575/canvas/canvas-2270511#xywh=57,2211,12,95", 
            "resource": {
                "@type": "cnt:ContentAsText", 
                "chars": "PAR", 
                "format": "text/plain"
            }
        }, 
        {
            "@id": "https://manifests.teklia.com/HIMANIS/JJ035/words_annotations/FRCHANJJ_JJ035_0070R.json/120/line", 
            "@type": "oa:Annotation", 
            "motivation": "oa:painting", 
            "on": "http://bvmm.irht.cnrs.fr/iiif/23575/canvas/canvas-2270511#xywh=860,2211,275,95", 
            "resource": {
                "@type": "cnt:ContentAsText", 
                "chars": "HOMMES", 
                "format": "text/plain"
            }
        }, 
        {
            "@id": "https://manifests.teklia.com/HIMANIS/JJ035/words_annotations/FRCHANJJ_JJ035_0070R.json/121/line", 
            "@type": "oa:Annotation", 
            "motivation": "oa:painting", 
            "on": "http://bvmm.irht.cnrs.fr/iiif/23575/canvas/canvas-2270511#xywh=1130,528,28,88", 
            "resource": {
                "@type": "cnt:ContentAsText", 
                "chars": "ET", 
                "format": "text/plain"
            }
        }, 
        {
            "@id": "https://manifests.teklia.com/HIMANIS/JJ035/words_annotations/FRCHANJJ_JJ035_0070R.json/122/line", 
            "@type": "oa:Annotation", 
            "motivation": "oa:painting", 
            "on": "http://bvmm.irht.cnrs.fr/iiif/23575/canvas/canvas-2270511#xywh=329,2806,50,73", 
            "resource": {
                "@type": "cnt:ContentAsText", 
                "chars": "LE", 
                "format": "text/plain"
            }
        }, 
        {
            "@id": "https://manifests.teklia.com/HIMANIS/JJ035/words_annotations/FRCHANJJ_JJ035_0070R.json/123/line", 
            "@type": "oa:Annotation", 
            "motivation": "oa:painting", 
            "on": "http://bvmm.irht.cnrs.fr/iiif/23575/canvas/canvas-2270511#xywh=322,2576,50,100", 
            "resource": {
                "@type": "cnt:ContentAsText", 
                "chars": "LE", 
                "format": "text/plain"
            }
        }, 
        {
            "@id": "https://manifests.teklia.com/HIMANIS/JJ035/words_annotations/FRCHANJJ_JJ035_0070R.json/124/line", 
            "@type": "oa:Annotation", 
            "motivation": "oa:painting", 
            "on": "http://bvmm.irht.cnrs.fr/iiif/23575/canvas/canvas-2270511#xywh=529,2576,31,100", 
            "resource": {
                "@type": "cnt:ContentAsText", 
                "chars": "DE", 
                "format": "text/plain"
            }
        }, 
        {
            "@id": "https://manifests.teklia.com/HIMANIS/JJ035/words_annotations/FRCHANJJ_JJ035_0070R.json/125/line", 
            "@type": "oa:Annotation", 
            "motivation": "oa:painting", 
            "on": "http://bvmm.irht.cnrs.fr/iiif/23575/canvas/canvas-2270511#xywh=599,2702,160,72", 
            "resource": {
                "@type": "cnt:ContentAsText", 
                "chars": "BOISSAINE", 
                "format": "text/plain"
            }
        }, 
        {
            "@id": "https://manifests.teklia.com/HIMANIS/JJ035/words_annotations/FRCHANJJ_JJ035_0070R.json/126/line", 
            "@type": "oa:Annotation", 
            "motivation": "oa:painting", 
            "on": "http://bvmm.irht.cnrs.fr/iiif/23575/canvas/canvas-2270511#xywh=75,2211,288,95", 
            "resource": {
                "@type": "cnt:ContentAsText", 
                "chars": "DES", 
                "format": "text/plain"
            }
        }, 
        {
            "@id": "https://manifests.teklia.com/HIMANIS/JJ035/words_annotations/FRCHANJJ_JJ035_0070R.json/127/line", 
            "@type": "oa:Annotation", 
            "motivation": "oa:painting", 
            "on": "http://bvmm.irht.cnrs.fr/iiif/23575/canvas/canvas-2270511#xywh=1549,0,316,62", 
            "resource": {
                "@type": "cnt:ContentAsText", 
                "chars": "DITE", 
                "format": "text/plain"
            }
        }, 
        {
            "@id": "https://manifests.teklia.com/HIMANIS/JJ035/words_annotations/FRCHANJJ_JJ035_0070R.json/128/line", 
            "@type": "oa:Annotation", 
            "motivation": "oa:painting", 
            "on": "http://bvmm.irht.cnrs.fr/iiif/23575/canvas/canvas-2270511#xywh=1077,2702,132,72", 
            "resource": {
                "@type": "cnt:ContentAsText", 
                "chars": "HOMINES", 
                "format": "text/plain"
            }
        }, 
        {
            "@id": "https://manifests.teklia.com/HIMANIS/JJ035/words_annotations/FRCHANJJ_JJ035_0070R.json/129/line", 
            "@type": "oa:Annotation", 
            "motivation": "oa:painting", 
            "on": "http://bvmm.irht.cnrs.fr/iiif/23575/canvas/canvas-2270511#xywh=1399,1403,87,81", 
            "resource": {
                "@type": "cnt:ContentAsText", 
                "chars": "ET", 
                "format": "text/plain"
            }
        }, 
        {
            "@id": "https://manifests.teklia.com/HIMANIS/JJ035/words_annotations/FRCHANJJ_JJ035_0070R.json/130/line", 
            "@type": "oa:Annotation", 
            "motivation": "oa:painting", 
            "on": "http://bvmm.irht.cnrs.fr/iiif/23575/canvas/canvas-2270511#xywh=2591,3025,40,21", 
            "resource": {
                "@type": "cnt:ContentAsText", 
                "chars": "DE", 
                "format": "text/plain"
            }
        }, 
        {
            "@id": "https://manifests.teklia.com/HIMANIS/JJ035/words_annotations/FRCHANJJ_JJ035_0070R.json/131/line", 
            "@type": "oa:Annotation", 
            "motivation": "oa:painting", 
            "on": "http://bvmm.irht.cnrs.fr/iiif/23575/canvas/canvas-2270511#xywh=60,1150,221,113", 
            "resource": {
                "@type": "cnt:ContentAsText", 
                "chars": "PAR", 
                "format": "text/plain"
            }
        }, 
        {
            "@id": "https://manifests.teklia.com/HIMANIS/JJ035/words_annotations/FRCHANJJ_JJ035_0070R.json/132/line", 
            "@type": "oa:Annotation", 
            "motivation": "oa:painting", 
            "on": "http://bvmm.irht.cnrs.fr/iiif/23575/canvas/canvas-2270511#xywh=1177,2211,90,95", 
            "resource": {
                "@type": "cnt:ContentAsText", 
                "chars": "D'ARMES", 
                "format": "text/plain"
            }
        }, 
        {
            "@id": "https://manifests.teklia.com/HIMANIS/JJ035/words_annotations/FRCHANJJ_JJ035_0070R.json/133/line", 
            "@type": "oa:Annotation", 
            "motivation": "oa:painting", 
            "on": "http://bvmm.irht.cnrs.fr/iiif/23575/canvas/canvas-2270511#xywh=1101,2096,131,110", 
            "resource": {
                "@type": "cnt:ContentAsText", 
                "chars": "D'ARMES", 
                "format": "text/plain"
            }
        }, 
        {
            "@id": "https://manifests.teklia.com/HIMANIS/JJ035/words_annotations/FRCHANJJ_JJ035_0070R.json/134/line", 
            "@type": "oa:Annotation", 
            "motivation": "oa:painting", 
            "on": "http://bvmm.irht.cnrs.fr/iiif/23575/canvas/canvas-2270511#xywh=14,1981,354,115", 
            "resource": {
                "@type": "cnt:ContentAsText", 
                "chars": "SE", 
                "format": "text/plain"
            }
        }, 
        {
            "@id": "https://manifests.teklia.com/HIMANIS/JJ035/words_annotations/FRCHANJJ_JJ035_0070R.json/135/line", 
            "@type": "oa:Annotation", 
            "motivation": "oa:painting", 
            "on": "http://bvmm.irht.cnrs.fr/iiif/23575/canvas/canvas-2270511#xywh=1084,339,11,87", 
            "resource": {
                "@type": "cnt:ContentAsText", 
                "chars": "ET", 
                "format": "text/plain"
            }
        }, 
        {
            "@id": "https://manifests.teklia.com/HIMANIS/JJ035/words_annotations/FRCHANJJ_JJ035_0070R.json/136/line", 
            "@type": "oa:Annotation", 
            "motivation": "oa:painting", 
            "on": "http://bvmm.irht.cnrs.fr/iiif/23575/canvas/canvas-2270511#xywh=1111,1981,159,115", 
            "resource": {
                "@type": "cnt:ContentAsText", 
                "chars": "D'ARMES", 
                "format": "text/plain"
            }
        }, 
        {
            "@id": "https://manifests.teklia.com/HIMANIS/JJ035/words_annotations/FRCHANJJ_JJ035_0070R.json/137/line", 
            "@type": "oa:Annotation", 
            "motivation": "oa:painting", 
            "on": "http://bvmm.irht.cnrs.fr/iiif/23575/canvas/canvas-2270511#xywh=722,339,55,87", 
            "resource": {
                "@type": "cnt:ContentAsText", 
                "chars": "EX", 
                "format": "text/plain"
            }
        }, 
        {
            "@id": "https://manifests.teklia.com/HIMANIS/JJ035/words_annotations/FRCHANJJ_JJ035_0070R.json/138/line", 
            "@type": "oa:Annotation", 
            "motivation": "oa:painting", 
            "on": "http://bvmm.irht.cnrs.fr/iiif/23575/canvas/canvas-2270511#xywh=1812,429,116,97", 
            "resource": {
                "@type": "cnt:ContentAsText", 
                "chars": "SERGANS", 
                "format": "text/plain"
            }
        }, 
        {
            "@id": "https://manifests.teklia.com/HIMANIS/JJ035/words_annotations/FRCHANJJ_JJ035_0070R.json/139/line", 
            "@type": "oa:Annotation", 
            "motivation": "oa:painting", 
            "on": "http://bvmm.irht.cnrs.fr/iiif/23575/canvas/canvas-2270511#xywh=1812,429,104,97", 
            "resource": {
                "@type": "cnt:ContentAsText", 
                "chars": "SERGANT", 
                "format": "text/plain"
            }
        }, 
        {
            "@id": "https://manifests.teklia.com/HIMANIS/JJ035/words_annotations/FRCHANJJ_JJ035_0070R.json/140/line", 
            "@type": "oa:Annotation", 
            "motivation": "oa:painting", 
            "on": "http://bvmm.irht.cnrs.fr/iiif/23575/canvas/canvas-2270511#xywh=487,2406,138,110", 
            "resource": {
                "@type": "cnt:ContentAsText", 
                "chars": "GARI", 
                "format": "text/plain"
            }
        }, 
        {
            "@id": "https://manifests.teklia.com/HIMANIS/JJ035/words_annotations/FRCHANJJ_JJ035_0070R.json/141/line", 
            "@type": "oa:Annotation", 
            "motivation": "oa:painting", 
            "on": "http://bvmm.irht.cnrs.fr/iiif/23575/canvas/canvas-2270511#xywh=1751,429,49,97", 
            "resource": {
                "@type": "cnt:ContentAsText", 
                "chars": "IN", 
                "format": "text/plain"
            }
        }, 
        {
            "@id": "https://manifests.teklia.com/HIMANIS/JJ035/words_annotations/FRCHANJJ_JJ035_0070R.json/142/line", 
            "@type": "oa:Annotation", 
            "motivation": "oa:painting", 
            "on": "http://bvmm.irht.cnrs.fr/iiif/23575/canvas/canvas-2270511#xywh=1329,429,0,97", 
            "resource": {
                "@type": "cnt:ContentAsText", 
                "chars": "X", 
                "format": "text/plain"
            }
        }, 
        {
            "@id": "https://manifests.teklia.com/HIMANIS/JJ035/words_annotations/FRCHANJJ_JJ035_0070R.json/143/line", 
            "@type": "oa:Annotation", 
            "motivation": "oa:painting", 
            "on": "http://bvmm.irht.cnrs.fr/iiif/23575/canvas/canvas-2270511#xywh=50,1856,390,45", 
            "resource": {
                "@type": "cnt:ContentAsText", 
                "chars": "LARC", 
                "format": "text/plain"
            }
        }, 
        {
            "@id": "https://manifests.teklia.com/HIMANIS/JJ035/words_annotations/FRCHANJJ_JJ035_0070R.json/144/line", 
            "@type": "oa:Annotation", 
            "motivation": "oa:painting", 
            "on": "http://bvmm.irht.cnrs.fr/iiif/23575/canvas/canvas-2270511#xywh=371,753,131,61", 
            "resource": {
                "@type": "cnt:ContentAsText", 
                "chars": "SEIGNEUR", 
                "format": "text/plain"
            }
        }, 
        {
            "@id": "https://manifests.teklia.com/HIMANIS/JJ035/words_annotations/FRCHANJJ_JJ035_0070R.json/145/line", 
            "@type": "oa:Annotation", 
            "motivation": "oa:painting", 
            "on": "http://bvmm.irht.cnrs.fr/iiif/23575/canvas/canvas-2270511#xywh=1708,429,24,97", 
            "resource": {
                "@type": "cnt:ContentAsText", 
                "chars": "ET", 
                "format": "text/plain"
            }
        }, 
        {
            "@id": "https://manifests.teklia.com/HIMANIS/JJ035/words_annotations/FRCHANJJ_JJ035_0070R.json/146/line", 
            "@type": "oa:Annotation", 
            "motivation": "oa:painting", 
            "on": "http://bvmm.irht.cnrs.fr/iiif/23575/canvas/canvas-2270511#xywh=372,954,159,84", 
            "resource": {
                "@type": "cnt:ContentAsText", 
                "chars": "VISCONTE", 
                "format": "text/plain"
            }
        }, 
        {
            "@id": "https://manifests.teklia.com/HIMANIS/JJ035/words_annotations/FRCHANJJ_JJ035_0070R.json/147/line", 
            "@type": "oa:Annotation", 
            "motivation": "oa:painting", 
            "on": "http://bvmm.irht.cnrs.fr/iiif/23575/canvas/canvas-2270511#xywh=302,528,139,88", 
            "resource": {
                "@type": "cnt:ContentAsText", 
                "chars": "MONSEIGNEUR", 
                "format": "text/plain"
            }
        }, 
        {
            "@id": "https://manifests.teklia.com/HIMANIS/JJ035/words_annotations/FRCHANJJ_JJ035_0070R.json/148/line", 
            "@type": "oa:Annotation", 
            "motivation": "oa:painting", 
            "on": "http://bvmm.irht.cnrs.fr/iiif/23575/canvas/canvas-2270511#xywh=722,339,181,87", 
            "resource": {
                "@type": "cnt:ContentAsText", 
                "chars": "COMMES", 
                "format": "text/plain"
            }
        }, 
        {
            "@id": "https://manifests.teklia.com/HIMANIS/JJ035/words_annotations/FRCHANJJ_JJ035_0070R.json/149/line", 
            "@type": "oa:Annotation", 
            "motivation": "oa:painting", 
            "on": "http://bvmm.irht.cnrs.fr/iiif/23575/canvas/canvas-2270511#xywh=1436,954,53,84", 
            "resource": {
                "@type": "cnt:ContentAsText", 
                "chars": "D'AR", 
                "format": "text/plain"
            }
        }, 
        {
            "@id": "https://manifests.teklia.com/HIMANIS/JJ035/words_annotations/FRCHANJJ_JJ035_0070R.json/150/line", 
            "@type": "oa:Annotation", 
            "motivation": "oa:painting", 
            "on": "http://bvmm.irht.cnrs.fr/iiif/23575/canvas/canvas-2270511#xywh=563,339,132,87", 
            "resource": {
                "@type": "cnt:ContentAsText", 
                "chars": "CRACOLE", 
                "format": "text/plain"
            }
        }, 
        {
            "@id": "https://manifests.teklia.com/HIMANIS/JJ035/words_annotations/FRCHANJJ_JJ035_0070R.json/151/line", 
            "@type": "oa:Annotation", 
            "motivation": "oa:painting", 
            "on": "http://bvmm.irht.cnrs.fr/iiif/23575/canvas/canvas-2270511#xywh=1436,954,42,84", 
            "resource": {
                "@type": "cnt:ContentAsText", 
                "chars": "D'AU", 
                "format": "text/plain"
            }
        }, 
        {
            "@id": "https://manifests.teklia.com/HIMANIS/JJ035/words_annotations/FRCHANJJ_JJ035_0070R.json/152/line", 
            "@type": "oa:Annotation", 
            "motivation": "oa:painting", 
            "on": "http://bvmm.irht.cnrs.fr/iiif/23575/canvas/canvas-2270511#xywh=563,339,132,87", 
            "resource": {
                "@type": "cnt:ContentAsText", 
                "chars": "CRACOLO", 
                "format": "text/plain"
            }
        }, 
        {
            "@id": "https://manifests.teklia.com/HIMANIS/JJ035/words_annotations/FRCHANJJ_JJ035_0070R.json/153/line", 
            "@type": "oa:Annotation", 
            "motivation": "oa:painting", 
            "on": "http://bvmm.irht.cnrs.fr/iiif/23575/canvas/canvas-2270511#xywh=693,828,73,77", 
            "resource": {
                "@type": "cnt:ContentAsText", 
                "chars": "RODE", 
                "format": "text/plain"
            }
        }, 
        {
            "@id": "https://manifests.teklia.com/HIMANIS/JJ035/words_annotations/FRCHANJJ_JJ035_0070R.json/154/line", 
            "@type": "oa:Annotation", 
            "motivation": "oa:painting", 
            "on": "http://bvmm.irht.cnrs.fr/iiif/23575/canvas/canvas-2270511#xywh=322,2576,194,100", 
            "resource": {
                "@type": "cnt:ContentAsText", 
                "chars": "SEIGNEUR", 
                "format": "text/plain"
            }
        }, 
        {
            "@id": "https://manifests.teklia.com/HIMANIS/JJ035/words_annotations/FRCHANJJ_JJ035_0070R.json/155/line", 
            "@type": "oa:Annotation", 
            "motivation": "oa:painting", 
            "on": "http://bvmm.irht.cnrs.fr/iiif/23575/canvas/canvas-2270511#xywh=68,1038,440,92", 
            "resource": {
                "@type": "cnt:ContentAsText", 
                "chars": "SEIGNER", 
                "format": "text/plain"
            }
        }, 
        {
            "@id": "https://manifests.teklia.com/HIMANIS/JJ035/words_annotations/FRCHANJJ_JJ035_0070R.json/156/line", 
            "@type": "oa:Annotation", 
            "motivation": "oa:painting", 
            "on": "http://bvmm.irht.cnrs.fr/iiif/23575/canvas/canvas-2270511#xywh=1822,0,0,62", 
            "resource": {
                "@type": "cnt:ContentAsText", 
                "chars": "E", 
                "format": "text/plain"
            }
        }, 
        {
            "@id": "https://manifests.teklia.com/HIMANIS/JJ035/words_annotations/FRCHANJJ_JJ035_0070R.json/157/line", 
            "@type": "oa:Annotation", 
            "motivation": "oa:painting", 
            "on": "http://bvmm.irht.cnrs.fr/iiif/23575/canvas/canvas-2270511#xywh=176,2406,290,110", 
            "resource": {
                "@type": "cnt:ContentAsText", 
                "chars": "MONSEIGNEUR", 
                "format": "text/plain"
            }
        }, 
        {
            "@id": "https://manifests.teklia.com/HIMANIS/JJ035/words_annotations/FRCHANJJ_JJ035_0070R.json/158/line", 
            "@type": "oa:Annotation", 
            "motivation": "oa:painting", 
            "on": "http://bvmm.irht.cnrs.fr/iiif/23575/canvas/canvas-2270511#xywh=1018,2406,28,110", 
            "resource": {
                "@type": "cnt:ContentAsText", 
                "chars": "XXX", 
                "format": "text/plain"
            }
        }, 
        {
            "@id": "https://manifests.teklia.com/HIMANIS/JJ035/words_annotations/FRCHANJJ_JJ035_0070R.json/159/line", 
            "@type": "oa:Annotation", 
            "motivation": "oa:painting", 
            "on": "http://bvmm.irht.cnrs.fr/iiif/23575/canvas/canvas-2270511#xywh=449,640,138,73", 
            "resource": {
                "@type": "cnt:ContentAsText", 
                "chars": "HOCERAN", 
                "format": "text/plain"
            }
        }, 
        {
            "@id": "https://manifests.teklia.com/HIMANIS/JJ035/words_annotations/FRCHANJJ_JJ035_0070R.json/160/line", 
            "@type": "oa:Annotation", 
            "motivation": "oa:painting", 
            "on": "http://bvmm.irht.cnrs.fr/iiif/23575/canvas/canvas-2270511#xywh=628,640,101,73", 
            "resource": {
                "@type": "cnt:ContentAsText", 
                "chars": "MAL", 
                "format": "text/plain"
            }
        }, 
        {
            "@id": "https://manifests.teklia.com/HIMANIS/JJ035/words_annotations/FRCHANJJ_JJ035_0070R.json/161/line", 
            "@type": "oa:Annotation", 
            "motivation": "oa:painting", 
            "on": "http://bvmm.irht.cnrs.fr/iiif/23575/canvas/canvas-2270511#xywh=1186,528,44,88", 
            "resource": {
                "@type": "cnt:ContentAsText", 
                "chars": "IIJ", 
                "format": "text/plain"
            }
        }, 
        {
            "@id": "https://manifests.teklia.com/HIMANIS/JJ035/words_annotations/FRCHANJJ_JJ035_0070R.json/162/line", 
            "@type": "oa:Annotation", 
            "motivation": "oa:painting", 
            "on": "http://bvmm.irht.cnrs.fr/iiif/23575/canvas/canvas-2270511#xywh=931,1981,144,115", 
            "resource": {
                "@type": "cnt:ContentAsText", 
                "chars": "HOMMES", 
                "format": "text/plain"
            }
        }, 
        {
            "@id": "https://manifests.teklia.com/HIMANIS/JJ035/words_annotations/FRCHANJJ_JJ035_0070R.json/163/line", 
            "@type": "oa:Annotation", 
            "motivation": "oa:painting", 
            "on": "http://bvmm.irht.cnrs.fr/iiif/23575/canvas/canvas-2270511#xywh=593,2316,215,90", 
            "resource": {
                "@type": "cnt:ContentAsText", 
                "chars": "HONDAMBLE", 
                "format": "text/plain"
            }
        }, 
        {
            "@id": "https://manifests.teklia.com/HIMANIS/JJ035/words_annotations/FRCHANJJ_JJ035_0070R.json/164/line", 
            "@type": "oa:Annotation", 
            "motivation": "oa:painting", 
            "on": "http://bvmm.irht.cnrs.fr/iiif/23575/canvas/canvas-2270511#xywh=1266,954,127,84", 
            "resource": {
                "@type": "cnt:ContentAsText", 
                "chars": "HOMMES", 
                "format": "text/plain"
            }
        }, 
        {
            "@id": "https://manifests.teklia.com/HIMANIS/JJ035/words_annotations/FRCHANJJ_JJ035_0070R.json/165/line", 
            "@type": "oa:Annotation", 
            "motivation": "oa:painting", 
            "on": "http://bvmm.irht.cnrs.fr/iiif/23575/canvas/canvas-2270511#xywh=1018,2406,48,110", 
            "resource": {
                "@type": "cnt:ContentAsText", 
                "chars": "EX", 
                "format": "text/plain"
            }
        }, 
        {
            "@id": "https://manifests.teklia.com/HIMANIS/JJ035/words_annotations/FRCHANJJ_JJ035_0070R.json/166/line", 
            "@type": "oa:Annotation", 
            "motivation": "oa:painting", 
            "on": "http://bvmm.irht.cnrs.fr/iiif/23575/canvas/canvas-2270511#xywh=790,1403,174,81", 
            "resource": {
                "@type": "cnt:ContentAsText", 
                "chars": "PER", 
                "format": "text/plain"
            }
        }, 
        {
            "@id": "https://manifests.teklia.com/HIMANIS/JJ035/words_annotations/FRCHANJJ_JJ035_0070R.json/167/line", 
            "@type": "oa:Annotation", 
            "motivation": "oa:painting", 
            "on": "http://bvmm.irht.cnrs.fr/iiif/23575/canvas/canvas-2270511#xywh=790,1403,179,81", 
            "resource": {
                "@type": "cnt:ContentAsText", 
                "chars": "PAR", 
                "format": "text/plain"
            }
        }, 
        {
            "@id": "https://manifests.teklia.com/HIMANIS/JJ035/words_annotations/FRCHANJJ_JJ035_0070R.json/168/line", 
            "@type": "oa:Annotation", 
            "motivation": "oa:painting", 
            "on": "http://bvmm.irht.cnrs.fr/iiif/23575/canvas/canvas-2270511#xywh=87,2211,869,95", 
            "resource": {
                "@type": "cnt:ContentAsText", 
                "chars": "TOURS", 
                "format": "text/plain"
            }
        }, 
        {
            "@id": "https://manifests.teklia.com/HIMANIS/JJ035/words_annotations/FRCHANJJ_JJ035_0070R.json/169/line", 
            "@type": "oa:Annotation", 
            "motivation": "oa:painting", 
            "on": "http://bvmm.irht.cnrs.fr/iiif/23575/canvas/canvas-2270511#xywh=355,339,126,87", 
            "resource": {
                "@type": "cnt:ContentAsText", 
                "chars": "SEIGNOR", 
                "format": "text/plain"
            }
        }, 
        {
            "@id": "https://manifests.teklia.com/HIMANIS/JJ035/words_annotations/FRCHANJJ_JJ035_0070R.json/170/line", 
            "@type": "oa:Annotation", 
            "motivation": "oa:painting", 
            "on": "http://bvmm.irht.cnrs.fr/iiif/23575/canvas/canvas-2270511#xywh=545,2806,88,73", 
            "resource": {
                "@type": "cnt:ContentAsText", 
                "chars": "VALEGI", 
                "format": "text/plain"
            }
        }, 
        {
            "@id": "https://manifests.teklia.com/HIMANIS/JJ035/words_annotations/FRCHANJJ_JJ035_0070R.json/171/line", 
            "@type": "oa:Annotation", 
            "motivation": "oa:painting", 
            "on": "http://bvmm.irht.cnrs.fr/iiif/23575/canvas/canvas-2270511#xywh=1122,339,39,87", 
            "resource": {
                "@type": "cnt:ContentAsText", 
                "chars": "VI", 
                "format": "text/plain"
            }
        }, 
        {
            "@id": "https://manifests.teklia.com/HIMANIS/JJ035/words_annotations/FRCHANJJ_JJ035_0070R.json/172/line", 
            "@type": "oa:Annotation", 
            "motivation": "oa:painting", 
            "on": "http://bvmm.irht.cnrs.fr/iiif/23575/canvas/canvas-2270511#xywh=407,2806,115,73", 
            "resource": {
                "@type": "cnt:ContentAsText", 
                "chars": "SEIGNEUR", 
                "format": "text/plain"
            }
        }, 
        {
            "@id": "https://manifests.teklia.com/HIMANIS/JJ035/words_annotations/FRCHANJJ_JJ035_0070R.json/173/line", 
            "@type": "oa:Annotation", 
            "motivation": "oa:painting", 
            "on": "http://bvmm.irht.cnrs.fr/iiif/23575/canvas/canvas-2270511#xywh=302,828,130,77", 
            "resource": {
                "@type": "cnt:ContentAsText", 
                "chars": "MONSEIGNEUR", 
                "format": "text/plain"
            }
        }, 
        {
            "@id": "https://manifests.teklia.com/HIMANIS/JJ035/words_annotations/FRCHANJJ_JJ035_0070R.json/174/line", 
            "@type": "oa:Annotation", 
            "motivation": "oa:painting", 
            "on": "http://bvmm.irht.cnrs.fr/iiif/23575/canvas/canvas-2270511#xywh=1549,0,316,62", 
            "resource": {
                "@type": "cnt:ContentAsText", 
                "chars": "TENE", 
                "format": "text/plain"
            }
        }, 
        {
            "@id": "https://manifests.teklia.com/HIMANIS/JJ035/words_annotations/FRCHANJJ_JJ035_0070R.json/175/line", 
            "@type": "oa:Annotation", 
            "motivation": "oa:painting", 
            "on": "http://bvmm.irht.cnrs.fr/iiif/23575/canvas/canvas-2270511#xywh=273,1150,242,113", 
            "resource": {
                "@type": "cnt:ContentAsText", 
                "chars": "SEIGNEUR", 
                "format": "text/plain"
            }
        }, 
        {
            "@id": "https://manifests.teklia.com/HIMANIS/JJ035/words_annotations/FRCHANJJ_JJ035_0070R.json/176/line", 
            "@type": "oa:Annotation", 
            "motivation": "oa:painting", 
            "on": "http://bvmm.irht.cnrs.fr/iiif/23575/canvas/canvas-2270511#xywh=534,1981,36,115", 
            "resource": {
                "@type": "cnt:ContentAsText", 
                "chars": "DE", 
                "format": "text/plain"
            }
        }, 
        {
            "@id": "https://manifests.teklia.com/HIMANIS/JJ035/words_annotations/FRCHANJJ_JJ035_0070R.json/177/line", 
            "@type": "oa:Annotation", 
            "motivation": "oa:painting", 
            "on": "http://bvmm.irht.cnrs.fr/iiif/23575/canvas/canvas-2270511#xywh=1312,1403,92,81", 
            "resource": {
                "@type": "cnt:ContentAsText", 
                "chars": "D'ARMES", 
                "format": "text/plain"
            }
        }, 
        {
            "@id": "https://manifests.teklia.com/HIMANIS/JJ035/words_annotations/FRCHANJJ_JJ035_0070R.json/178/line", 
            "@type": "oa:Annotation", 
            "motivation": "oa:painting", 
            "on": "http://bvmm.irht.cnrs.fr/iiif/23575/canvas/canvas-2270511#xywh=87,2211,719,95", 
            "resource": {
                "@type": "cnt:ContentAsText", 
                "chars": "TOUR", 
                "format": "text/plain"
            }
        }, 
        {
            "@id": "https://manifests.teklia.com/HIMANIS/JJ035/words_annotations/FRCHANJJ_JJ035_0070R.json/179/line", 
            "@type": "oa:Annotation", 
            "motivation": "oa:painting", 
            "on": "http://bvmm.irht.cnrs.fr/iiif/23575/canvas/canvas-2270511#xywh=775,528,116,88", 
            "resource": {
                "@type": "cnt:ContentAsText", 
                "chars": "HOMMES", 
                "format": "text/plain"
            }
        }, 
        {
            "@id": "https://manifests.teklia.com/HIMANIS/JJ035/words_annotations/FRCHANJJ_JJ035_0070R.json/180/line", 
            "@type": "oa:Annotation", 
            "motivation": "oa:painting", 
            "on": "http://bvmm.irht.cnrs.fr/iiif/23575/canvas/canvas-2270511#xywh=2449,76,0,38", 
            "resource": {
                "@type": "cnt:ContentAsText", 
                "chars": "J", 
                "format": "text/plain"
            }
        }, 
        {
            "@id": "https://manifests.teklia.com/HIMANIS/JJ035/words_annotations/FRCHANJJ_JJ035_0070R.json/181/line", 
            "@type": "oa:Annotation", 
            "motivation": "oa:painting", 
            "on": "http://bvmm.irht.cnrs.fr/iiif/23575/canvas/canvas-2270511#xywh=2449,76,0,38", 
            "resource": {
                "@type": "cnt:ContentAsText", 
                "chars": "P", 
                "format": "text/plain"
            }
        }, 
        {
            "@id": "https://manifests.teklia.com/HIMANIS/JJ035/words_annotations/FRCHANJJ_JJ035_0070R.json/182/line", 
            "@type": "oa:Annotation", 
            "motivation": "oa:painting", 
            "on": "http://bvmm.irht.cnrs.fr/iiif/23575/canvas/canvas-2270511#xywh=57,2316,316,90", 
            "resource": {
                "@type": "cnt:ContentAsText", 
                "chars": "LE", 
                "format": "text/plain"
            }
        }, 
        {
            "@id": "https://manifests.teklia.com/HIMANIS/JJ035/words_annotations/FRCHANJJ_JJ035_0070R.json/183/line", 
            "@type": "oa:Annotation", 
            "motivation": "oa:painting", 
            "on": "http://bvmm.irht.cnrs.fr/iiif/23575/canvas/canvas-2270511#xywh=548,2316,29,90", 
            "resource": {
                "@type": "cnt:ContentAsText", 
                "chars": "DE", 
                "format": "text/plain"
            }
        }, 
        {
            "@id": "https://manifests.teklia.com/HIMANIS/JJ035/words_annotations/FRCHANJJ_JJ035_0070R.json/184/line", 
            "@type": "oa:Annotation", 
            "motivation": "oa:painting", 
            "on": "http://bvmm.irht.cnrs.fr/iiif/23575/canvas/canvas-2270511#xywh=50,1856,261,45", 
            "resource": {
                "@type": "cnt:ContentAsText", 
                "chars": "DE", 
                "format": "text/plain"
            }
        }, 
        {
            "@id": "https://manifests.teklia.com/HIMANIS/JJ035/words_annotations/FRCHANJJ_JJ035_0070R.json/185/line", 
            "@type": "oa:Annotation", 
            "motivation": "oa:painting", 
            "on": "http://bvmm.irht.cnrs.fr/iiif/23575/canvas/canvas-2270511#xywh=371,753,131,61", 
            "resource": {
                "@type": "cnt:ContentAsText", 
                "chars": "SEIGNOR", 
                "format": "text/plain"
            }
        }, 
        {
            "@id": "https://manifests.teklia.com/HIMANIS/JJ035/words_annotations/FRCHANJJ_JJ035_0070R.json/186/line", 
            "@type": "oa:Annotation", 
            "motivation": "oa:painting", 
            "on": "http://bvmm.irht.cnrs.fr/iiif/23575/canvas/canvas-2270511#xywh=1211,2406,152,110", 
            "resource": {
                "@type": "cnt:ContentAsText", 
                "chars": "D'ARMEME", 
                "format": "text/plain"
            }
        }, 
        {
            "@id": "https://manifests.teklia.com/HIMANIS/JJ035/words_annotations/FRCHANJJ_JJ035_0070R.json/187/line", 
            "@type": "oa:Annotation", 
            "motivation": "oa:painting", 
            "on": "http://bvmm.irht.cnrs.fr/iiif/23575/canvas/canvas-2270511#xywh=1436,954,42,84", 
            "resource": {
                "@type": "cnt:ContentAsText", 
                "chars": "D'A", 
                "format": "text/plain"
            }
        }, 
        {
            "@id": "https://manifests.teklia.com/HIMANIS/JJ035/words_annotations/FRCHANJJ_JJ035_0070R.json/188/line", 
            "@type": "oa:Annotation", 
            "motivation": "oa:painting", 
            "on": "http://bvmm.irht.cnrs.fr/iiif/23575/canvas/canvas-2270511#xywh=600,1251,110,51", 
            "resource": {
                "@type": "cnt:ContentAsText", 
                "chars": "SARRAIN", 
                "format": "text/plain"
            }
        }, 
        {
            "@id": "https://manifests.teklia.com/HIMANIS/JJ035/words_annotations/FRCHANJJ_JJ035_0070R.json/189/line", 
            "@type": "oa:Annotation", 
            "motivation": "oa:painting", 
            "on": "http://bvmm.irht.cnrs.fr/iiif/23575/canvas/canvas-2270511#xywh=63,2096,304,110", 
            "resource": {
                "@type": "cnt:ContentAsText", 
                "chars": "LE", 
                "format": "text/plain"
            }
        }, 
        {
            "@id": "https://manifests.teklia.com/HIMANIS/JJ035/words_annotations/FRCHANJJ_JJ035_0070R.json/190/line", 
            "@type": "oa:Annotation", 
            "motivation": "oa:painting", 
            "on": "http://bvmm.irht.cnrs.fr/iiif/23575/canvas/canvas-2270511#xywh=561,2096,35,110", 
            "resource": {
                "@type": "cnt:ContentAsText", 
                "chars": "DE", 
                "format": "text/plain"
            }
        }
    ]
}