{
    "@context": "http://iiif.io/api/presentation/2/context.json", 
    "@id": "https://manifests.teklia.com/HIMANIS/FR5271/words_annotations/http_gallica.bnf.fr_iiif_ark:_12148_btv1b90604893_f27_full_full_0_native.jpg.json", 
    "@type": "sc:AnnotationList", 
    "resources": [
        {
            "@id": "https://manifests.teklia.com/HIMANIS/FR5271/words_annotations/http_gallica.bnf.fr_iiif_ark:_12148_btv1b90604893_f27_full_full_0_native.jpg.json/0/line", 
            "@type": "oa:Annotation", 
            "motivation": "oa:painting", 
            "on": "http://gallica.bnf.fr/iiif/ark:/12148/btv1b90604893/canvas/f27#xywh=1914,3413,0,50", 
            "resource": {
                "@type": "cnt:ContentAsText", 
                "chars": "P", 
                "format": "text/plain"
            }
        }, 
        {
            "@id": "https://manifests.teklia.com/HIMANIS/FR5271/words_annotations/http_gallica.bnf.fr_iiif_ark:_12148_btv1b90604893_f27_full_full_0_native.jpg.json/1/line", 
            "@type": "oa:Annotation", 
            "motivation": "oa:painting", 
            "on": "http://gallica.bnf.fr/iiif/ark:/12148/btv1b90604893/canvas/f27#xywh=1463,2667,82,219", 
            "resource": {
                "@type": "cnt:ContentAsText", 
                "chars": "OU", 
                "format": "text/plain"
            }
        }, 
        {
            "@id": "https://manifests.teklia.com/HIMANIS/FR5271/words_annotations/http_gallica.bnf.fr_iiif_ark:_12148_btv1b90604893_f27_full_full_0_native.jpg.json/2/line", 
            "@type": "oa:Annotation", 
            "motivation": "oa:painting", 
            "on": "http://gallica.bnf.fr/iiif/ark:/12148/btv1b90604893/canvas/f27#xywh=1945,3277,293,146", 
            "resource": {
                "@type": "cnt:ContentAsText", 
                "chars": "FRANCE", 
                "format": "text/plain"
            }
        }, 
        {
            "@id": "https://manifests.teklia.com/HIMANIS/FR5271/words_annotations/http_gallica.bnf.fr_iiif_ark:_12148_btv1b90604893_f27_full_full_0_native.jpg.json/3/line", 
            "@type": "oa:Annotation", 
            "motivation": "oa:painting", 
            "on": "http://gallica.bnf.fr/iiif/ark:/12148/btv1b90604893/canvas/f27#xywh=1480,2048,6,90", 
            "resource": {
                "@type": "cnt:ContentAsText", 
                "chars": "DE", 
                "format": "text/plain"
            }
        }, 
        {
            "@id": "https://manifests.teklia.com/HIMANIS/FR5271/words_annotations/http_gallica.bnf.fr_iiif_ark:_12148_btv1b90604893_f27_full_full_0_native.jpg.json/4/line", 
            "@type": "oa:Annotation", 
            "motivation": "oa:painting", 
            "on": "http://gallica.bnf.fr/iiif/ark:/12148/btv1b90604893/canvas/f27#xywh=3518,4164,0,51", 
            "resource": {
                "@type": "cnt:ContentAsText", 
                "chars": "P", 
                "format": "text/plain"
            }
        }, 
        {
            "@id": "https://manifests.teklia.com/HIMANIS/FR5271/words_annotations/http_gallica.bnf.fr_iiif_ark:_12148_btv1b90604893_f27_full_full_0_native.jpg.json/5/line", 
            "@type": "oa:Annotation", 
            "motivation": "oa:painting", 
            "on": "http://gallica.bnf.fr/iiif/ark:/12148/btv1b90604893/canvas/f27#xywh=1967,1173,334,185", 
            "resource": {
                "@type": "cnt:ContentAsText", 
                "chars": "FACONS", 
                "format": "text/plain"
            }
        }, 
        {
            "@id": "https://manifests.teklia.com/HIMANIS/FR5271/words_annotations/http_gallica.bnf.fr_iiif_ark:_12148_btv1b90604893_f27_full_full_0_native.jpg.json/6/line", 
            "@type": "oa:Annotation", 
            "motivation": "oa:painting", 
            "on": "http://gallica.bnf.fr/iiif/ark:/12148/btv1b90604893/canvas/f27#xywh=2739,1882,251,201", 
            "resource": {
                "@type": "cnt:ContentAsText", 
                "chars": "DEVAIL", 
                "format": "text/plain"
            }
        }, 
        {
            "@id": "https://manifests.teklia.com/HIMANIS/FR5271/words_annotations/http_gallica.bnf.fr_iiif_ark:_12148_btv1b90604893_f27_full_full_0_native.jpg.json/7/line", 
            "@type": "oa:Annotation", 
            "motivation": "oa:painting", 
            "on": "http://gallica.bnf.fr/iiif/ark:/12148/btv1b90604893/canvas/f27#xywh=2523,3087,381,196", 
            "resource": {
                "@type": "cnt:ContentAsText", 
                "chars": "GUERLES", 
                "format": "text/plain"
            }
        }, 
        {
            "@id": "https://manifests.teklia.com/HIMANIS/FR5271/words_annotations/http_gallica.bnf.fr_iiif_ark:_12148_btv1b90604893_f27_full_full_0_native.jpg.json/8/line", 
            "@type": "oa:Annotation", 
            "motivation": "oa:painting", 
            "on": "http://gallica.bnf.fr/iiif/ark:/12148/btv1b90604893/canvas/f27#xywh=2258,692,181,206", 
            "resource": {
                "@type": "cnt:ContentAsText", 
                "chars": "UNE", 
                "format": "text/plain"
            }
        }, 
        {
            "@id": "https://manifests.teklia.com/HIMANIS/FR5271/words_annotations/http_gallica.bnf.fr_iiif_ark:_12148_btv1b90604893_f27_full_full_0_native.jpg.json/9/line", 
            "@type": "oa:Annotation", 
            "motivation": "oa:painting", 
            "on": "http://gallica.bnf.fr/iiif/ark:/12148/btv1b90604893/canvas/f27#xywh=1280,692,721,206", 
            "resource": {
                "@type": "cnt:ContentAsText", 
                "chars": "SANDEMENT", 
                "format": "text/plain"
            }
        }, 
        {
            "@id": "https://manifests.teklia.com/HIMANIS/FR5271/words_annotations/http_gallica.bnf.fr_iiif_ark:_12148_btv1b90604893_f27_full_full_0_native.jpg.json/10/line", 
            "@type": "oa:Annotation", 
            "motivation": "oa:painting", 
            "on": "http://gallica.bnf.fr/iiif/ark:/12148/btv1b90604893/canvas/f27#xywh=3350,1282,0,120", 
            "resource": {
                "@type": "cnt:ContentAsText", 
                "chars": "P", 
                "format": "text/plain"
            }
        }, 
        {
            "@id": "https://manifests.teklia.com/HIMANIS/FR5271/words_annotations/http_gallica.bnf.fr_iiif_ark:_12148_btv1b90604893_f27_full_full_0_native.jpg.json/11/line", 
            "@type": "oa:Annotation", 
            "motivation": "oa:painting", 
            "on": "http://gallica.bnf.fr/iiif/ark:/12148/btv1b90604893/canvas/f27#xywh=3244,1032,612,141", 
            "resource": {
                "@type": "cnt:ContentAsText", 
                "chars": "OU", 
                "format": "text/plain"
            }
        }, 
        {
            "@id": "https://manifests.teklia.com/HIMANIS/FR5271/words_annotations/http_gallica.bnf.fr_iiif_ark:_12148_btv1b90604893_f27_full_full_0_native.jpg.json/12/line", 
            "@type": "oa:Annotation", 
            "motivation": "oa:painting", 
            "on": "http://gallica.bnf.fr/iiif/ark:/12148/btv1b90604893/canvas/f27#xywh=2432,3642,95,167", 
            "resource": {
                "@type": "cnt:ContentAsText", 
                "chars": "EN", 
                "format": "text/plain"
            }
        }, 
        {
            "@id": "https://manifests.teklia.com/HIMANIS/FR5271/words_annotations/http_gallica.bnf.fr_iiif_ark:_12148_btv1b90604893_f27_full_full_0_native.jpg.json/13/line", 
            "@type": "oa:Annotation", 
            "motivation": "oa:painting", 
            "on": "http://gallica.bnf.fr/iiif/ark:/12148/btv1b90604893/canvas/f27#xywh=2324,4045,354,171", 
            "resource": {
                "@type": "cnt:ContentAsText", 
                "chars": "PERSONNE", 
                "format": "text/plain"
            }
        }, 
        {
            "@id": "https://manifests.teklia.com/HIMANIS/FR5271/words_annotations/http_gallica.bnf.fr_iiif_ark:_12148_btv1b90604893_f27_full_full_0_native.jpg.json/14/line", 
            "@type": "oa:Annotation", 
            "motivation": "oa:painting", 
            "on": "http://gallica.bnf.fr/iiif/ark:/12148/btv1b90604893/canvas/f27#xywh=1152,3642,410,167", 
            "resource": {
                "@type": "cnt:ContentAsText", 
                "chars": "AU", 
                "format": "text/plain"
            }
        }, 
        {
            "@id": "https://manifests.teklia.com/HIMANIS/FR5271/words_annotations/http_gallica.bnf.fr_iiif_ark:_12148_btv1b90604893_f27_full_full_0_native.jpg.json/15/line", 
            "@type": "oa:Annotation", 
            "motivation": "oa:painting", 
            "on": "http://gallica.bnf.fr/iiif/ark:/12148/btv1b90604893/canvas/f27#xywh=2384,2667,316,219", 
            "resource": {
                "@type": "cnt:ContentAsText", 
                "chars": "VACQUE", 
                "format": "text/plain"
            }
        }, 
        {
            "@id": "https://manifests.teklia.com/HIMANIS/FR5271/words_annotations/http_gallica.bnf.fr_iiif_ark:_12148_btv1b90604893_f27_full_full_0_native.jpg.json/16/line", 
            "@type": "oa:Annotation", 
            "motivation": "oa:painting", 
            "on": "http://gallica.bnf.fr/iiif/ark:/12148/btv1b90604893/canvas/f27#xywh=2505,4210,295,181", 
            "resource": {
                "@type": "cnt:ContentAsText", 
                "chars": "JOYEUX", 
                "format": "text/plain"
            }
        }, 
        {
            "@id": "https://manifests.teklia.com/HIMANIS/FR5271/words_annotations/http_gallica.bnf.fr_iiif_ark:_12148_btv1b90604893_f27_full_full_0_native.jpg.json/17/line", 
            "@type": "oa:Annotation", 
            "motivation": "oa:painting", 
            "on": "http://gallica.bnf.fr/iiif/ark:/12148/btv1b90604893/canvas/f27#xywh=2028,4210,250,181", 
            "resource": {
                "@type": "cnt:ContentAsText", 
                "chars": "CAUSE", 
                "format": "text/plain"
            }
        }, 
        {
            "@id": "https://manifests.teklia.com/HIMANIS/FR5271/words_annotations/http_gallica.bnf.fr_iiif_ark:_12148_btv1b90604893_f27_full_full_0_native.jpg.json/18/line", 
            "@type": "oa:Annotation", 
            "motivation": "oa:painting", 
            "on": "http://gallica.bnf.fr/iiif/ark:/12148/btv1b90604893/canvas/f27#xywh=2994,3427,780,231", 
            "resource": {
                "@type": "cnt:ContentAsText", 
                "chars": "JURE", 
                "format": "text/plain"
            }
        }, 
        {
            "@id": "https://manifests.teklia.com/HIMANIS/FR5271/words_annotations/http_gallica.bnf.fr_iiif_ark:_12148_btv1b90604893_f27_full_full_0_native.jpg.json/19/line", 
            "@type": "oa:Annotation", 
            "motivation": "oa:painting", 
            "on": "http://gallica.bnf.fr/iiif/ark:/12148/btv1b90604893/canvas/f27#xywh=1363,1032,399,141", 
            "resource": {
                "@type": "cnt:ContentAsText", 
                "chars": "RABAS", 
                "format": "text/plain"
            }
        }, 
        {
            "@id": "https://manifests.teklia.com/HIMANIS/FR5271/words_annotations/http_gallica.bnf.fr_iiif_ark:_12148_btv1b90604893_f27_full_full_0_native.jpg.json/20/line", 
            "@type": "oa:Annotation", 
            "motivation": "oa:painting", 
            "on": "http://gallica.bnf.fr/iiif/ark:/12148/btv1b90604893/canvas/f27#xywh=1468,2382,204,191", 
            "resource": {
                "@type": "cnt:ContentAsText", 
                "chars": "LERIT", 
                "format": "text/plain"
            }
        }, 
        {
            "@id": "https://manifests.teklia.com/HIMANIS/FR5271/words_annotations/http_gallica.bnf.fr_iiif_ark:_12148_btv1b90604893_f27_full_full_0_native.jpg.json/21/line", 
            "@type": "oa:Annotation", 
            "motivation": "oa:painting", 
            "on": "http://gallica.bnf.fr/iiif/ark:/12148/btv1b90604893/canvas/f27#xywh=2412,1882,126,201", 
            "resource": {
                "@type": "cnt:ContentAsText", 
                "chars": "SEL", 
                "format": "text/plain"
            }
        }, 
        {
            "@id": "https://manifests.teklia.com/HIMANIS/FR5271/words_annotations/http_gallica.bnf.fr_iiif_ark:_12148_btv1b90604893_f27_full_full_0_native.jpg.json/22/line", 
            "@type": "oa:Annotation", 
            "motivation": "oa:painting", 
            "on": "http://gallica.bnf.fr/iiif/ark:/12148/btv1b90604893/canvas/f27#xywh=2846,2382,108,191", 
            "resource": {
                "@type": "cnt:ContentAsText", 
                "chars": "L'UY", 
                "format": "text/plain"
            }
        }, 
        {
            "@id": "https://manifests.teklia.com/HIMANIS/FR5271/words_annotations/http_gallica.bnf.fr_iiif_ark:_12148_btv1b90604893_f27_full_full_0_native.jpg.json/23/line", 
            "@type": "oa:Annotation", 
            "motivation": "oa:painting", 
            "on": "http://gallica.bnf.fr/iiif/ark:/12148/btv1b90604893/canvas/f27#xywh=2412,1882,126,201", 
            "resource": {
                "@type": "cnt:ContentAsText", 
                "chars": "SES", 
                "format": "text/plain"
            }
        }, 
        {
            "@id": "https://manifests.teklia.com/HIMANIS/FR5271/words_annotations/http_gallica.bnf.fr_iiif_ark:_12148_btv1b90604893_f27_full_full_0_native.jpg.json/24/line", 
            "@type": "oa:Annotation", 
            "motivation": "oa:painting", 
            "on": "http://gallica.bnf.fr/iiif/ark:/12148/btv1b90604893/canvas/f27#xywh=2600,3642,682,167", 
            "resource": {
                "@type": "cnt:ContentAsText", 
                "chars": "L'AIN", 
                "format": "text/plain"
            }
        }, 
        {
            "@id": "https://manifests.teklia.com/HIMANIS/FR5271/words_annotations/http_gallica.bnf.fr_iiif_ark:_12148_btv1b90604893_f27_full_full_0_native.jpg.json/25/line", 
            "@type": "oa:Annotation", 
            "motivation": "oa:painting", 
            "on": "http://gallica.bnf.fr/iiif/ark:/12148/btv1b90604893/canvas/f27#xywh=3642,4210,91,181", 
            "resource": {
                "@type": "cnt:ContentAsText", 
                "chars": "ROY", 
                "format": "text/plain"
            }
        }, 
        {
            "@id": "https://manifests.teklia.com/HIMANIS/FR5271/words_annotations/http_gallica.bnf.fr_iiif_ark:_12148_btv1b90604893_f27_full_full_0_native.jpg.json/26/line", 
            "@type": "oa:Annotation", 
            "motivation": "oa:painting", 
            "on": "http://gallica.bnf.fr/iiif/ark:/12148/btv1b90604893/canvas/f27#xywh=2846,2382,120,191", 
            "resource": {
                "@type": "cnt:ContentAsText", 
                "chars": "LUI", 
                "format": "text/plain"
            }
        }, 
        {
            "@id": "https://manifests.teklia.com/HIMANIS/FR5271/words_annotations/http_gallica.bnf.fr_iiif_ark:_12148_btv1b90604893_f27_full_full_0_native.jpg.json/27/line", 
            "@type": "oa:Annotation", 
            "motivation": "oa:painting", 
            "on": "http://gallica.bnf.fr/iiif/ark:/12148/btv1b90604893/canvas/f27#xywh=1086,3427,867,231", 
            "resource": {
                "@type": "cnt:ContentAsText", 
                "chars": "EFFIANCES", 
                "format": "text/plain"
            }
        }, 
        {
            "@id": "https://manifests.teklia.com/HIMANIS/FR5271/words_annotations/http_gallica.bnf.fr_iiif_ark:_12148_btv1b90604893_f27_full_full_0_native.jpg.json/28/line", 
            "@type": "oa:Annotation", 
            "motivation": "oa:painting", 
            "on": "http://gallica.bnf.fr/iiif/ark:/12148/btv1b90604893/canvas/f27#xywh=320,104,0,320", 
            "resource": {
                "@type": "cnt:ContentAsText", 
                "chars": "G", 
                "format": "text/plain"
            }
        }, 
        {
            "@id": "https://manifests.teklia.com/HIMANIS/FR5271/words_annotations/http_gallica.bnf.fr_iiif_ark:_12148_btv1b90604893_f27_full_full_0_native.jpg.json/29/line", 
            "@type": "oa:Annotation", 
            "motivation": "oa:painting", 
            "on": "http://gallica.bnf.fr/iiif/ark:/12148/btv1b90604893/canvas/f27#xywh=320,104,0,320", 
            "resource": {
                "@type": "cnt:ContentAsText", 
                "chars": "J", 
                "format": "text/plain"
            }
        }, 
        {
            "@id": "https://manifests.teklia.com/HIMANIS/FR5271/words_annotations/http_gallica.bnf.fr_iiif_ark:_12148_btv1b90604893_f27_full_full_0_native.jpg.json/30/line", 
            "@type": "oa:Annotation", 
            "motivation": "oa:painting", 
            "on": "http://gallica.bnf.fr/iiif/ark:/12148/btv1b90604893/canvas/f27#xywh=320,104,0,320", 
            "resource": {
                "@type": "cnt:ContentAsText", 
                "chars": "P", 
                "format": "text/plain"
            }
        }, 
        {
            "@id": "https://manifests.teklia.com/HIMANIS/FR5271/words_annotations/http_gallica.bnf.fr_iiif_ark:_12148_btv1b90604893_f27_full_full_0_native.jpg.json/31/line", 
            "@type": "oa:Annotation", 
            "motivation": "oa:painting", 
            "on": "http://gallica.bnf.fr/iiif/ark:/12148/btv1b90604893/canvas/f27#xywh=2846,2382,120,191", 
            "resource": {
                "@type": "cnt:ContentAsText", 
                "chars": "LUY", 
                "format": "text/plain"
            }
        }, 
        {
            "@id": "https://manifests.teklia.com/HIMANIS/FR5271/words_annotations/http_gallica.bnf.fr_iiif_ark:_12148_btv1b90604893_f27_full_full_0_native.jpg.json/32/line", 
            "@type": "oa:Annotation", 
            "motivation": "oa:painting", 
            "on": "http://gallica.bnf.fr/iiif/ark:/12148/btv1b90604893/canvas/f27#xywh=320,104,0,320", 
            "resource": {
                "@type": "cnt:ContentAsText", 
                "chars": "S", 
                "format": "text/plain"
            }
        }, 
        {
            "@id": "https://manifests.teklia.com/HIMANIS/FR5271/words_annotations/http_gallica.bnf.fr_iiif_ark:_12148_btv1b90604893_f27_full_full_0_native.jpg.json/33/line", 
            "@type": "oa:Annotation", 
            "motivation": "oa:painting", 
            "on": "http://gallica.bnf.fr/iiif/ark:/12148/btv1b90604893/canvas/f27#xywh=1967,1173,334,185", 
            "resource": {
                "@type": "cnt:ContentAsText", 
                "chars": "FRATORS", 
                "format": "text/plain"
            }
        }, 
        {
            "@id": "https://manifests.teklia.com/HIMANIS/FR5271/words_annotations/http_gallica.bnf.fr_iiif_ark:_12148_btv1b90604893_f27_full_full_0_native.jpg.json/34/line", 
            "@type": "oa:Annotation", 
            "motivation": "oa:painting", 
            "on": "http://gallica.bnf.fr/iiif/ark:/12148/btv1b90604893/canvas/f27#xywh=1469,3277,73,146", 
            "resource": {
                "@type": "cnt:ContentAsText", 
                "chars": "LE", 
                "format": "text/plain"
            }
        }, 
        {
            "@id": "https://manifests.teklia.com/HIMANIS/FR5271/words_annotations/http_gallica.bnf.fr_iiif_ark:_12148_btv1b90604893_f27_full_full_0_native.jpg.json/35/line", 
            "@type": "oa:Annotation", 
            "motivation": "oa:painting", 
            "on": "http://gallica.bnf.fr/iiif/ark:/12148/btv1b90604893/canvas/f27#xywh=1186,4210,694,181", 
            "resource": {
                "@type": "cnt:ContentAsText", 
                "chars": "REMISSION", 
                "format": "text/plain"
            }
        }, 
        {
            "@id": "https://manifests.teklia.com/HIMANIS/FR5271/words_annotations/http_gallica.bnf.fr_iiif_ark:_12148_btv1b90604893_f27_full_full_0_native.jpg.json/36/line", 
            "@type": "oa:Annotation", 
            "motivation": "oa:painting", 
            "on": "http://gallica.bnf.fr/iiif/ark:/12148/btv1b90604893/canvas/f27#xywh=1826,3277,83,146", 
            "resource": {
                "@type": "cnt:ContentAsText", 
                "chars": "DE", 
                "format": "text/plain"
            }
        }, 
        {
            "@id": "https://manifests.teklia.com/HIMANIS/FR5271/words_annotations/http_gallica.bnf.fr_iiif_ark:_12148_btv1b90604893_f27_full_full_0_native.jpg.json/37/line", 
            "@type": "oa:Annotation", 
            "motivation": "oa:painting", 
            "on": "http://gallica.bnf.fr/iiif/ark:/12148/btv1b90604893/canvas/f27#xywh=2412,3087,74,196", 
            "resource": {
                "@type": "cnt:ContentAsText", 
                "chars": "DE", 
                "format": "text/plain"
            }
        }, 
        {
            "@id": "https://manifests.teklia.com/HIMANIS/FR5271/words_annotations/http_gallica.bnf.fr_iiif_ark:_12148_btv1b90604893_f27_full_full_0_native.jpg.json/38/line", 
            "@type": "oa:Annotation", 
            "motivation": "oa:painting", 
            "on": "http://gallica.bnf.fr/iiif/ark:/12148/btv1b90604893/canvas/f27#xywh=1230,4045,622,171", 
            "resource": {
                "@type": "cnt:ContentAsText", 
                "chars": "REMISSION", 
                "format": "text/plain"
            }
        }, 
        {
            "@id": "https://manifests.teklia.com/HIMANIS/FR5271/words_annotations/http_gallica.bnf.fr_iiif_ark:_12148_btv1b90604893_f27_full_full_0_native.jpg.json/39/line", 
            "@type": "oa:Annotation", 
            "motivation": "oa:painting", 
            "on": "http://gallica.bnf.fr/iiif/ark:/12148/btv1b90604893/canvas/f27#xywh=2600,1882,88,201", 
            "resource": {
                "@type": "cnt:ContentAsText", 
                "chars": "EN", 
                "format": "text/plain"
            }
        }, 
        {
            "@id": "https://manifests.teklia.com/HIMANIS/FR5271/words_annotations/http_gallica.bnf.fr_iiif_ark:_12148_btv1b90604893_f27_full_full_0_native.jpg.json/40/line", 
            "@type": "oa:Annotation", 
            "motivation": "oa:painting", 
            "on": "http://gallica.bnf.fr/iiif/ark:/12148/btv1b90604893/canvas/f27#xywh=1430,4376,323,177", 
            "resource": {
                "@type": "cnt:ContentAsText", 
                "chars": "QUIRES", 
                "format": "text/plain"
            }
        }, 
        {
            "@id": "https://manifests.teklia.com/HIMANIS/FR5271/words_annotations/http_gallica.bnf.fr_iiif_ark:_12148_btv1b90604893_f27_full_full_0_native.jpg.json/41/line", 
            "@type": "oa:Annotation", 
            "motivation": "oa:painting", 
            "on": "http://gallica.bnf.fr/iiif/ark:/12148/btv1b90604893/canvas/f27#xywh=2043,3087,86,196", 
            "resource": {
                "@type": "cnt:ContentAsText", 
                "chars": "DU", 
                "format": "text/plain"
            }
        }, 
        {
            "@id": "https://manifests.teklia.com/HIMANIS/FR5271/words_annotations/http_gallica.bnf.fr_iiif_ark:_12148_btv1b90604893_f27_full_full_0_native.jpg.json/42/line", 
            "@type": "oa:Annotation", 
            "motivation": "oa:painting", 
            "on": "http://gallica.bnf.fr/iiif/ark:/12148/btv1b90604893/canvas/f27#xywh=460,1519,85,42", 
            "resource": {
                "@type": "cnt:ContentAsText", 
                "chars": "ET", 
                "format": "text/plain"
            }
        }, 
        {
            "@id": "https://manifests.teklia.com/HIMANIS/FR5271/words_annotations/http_gallica.bnf.fr_iiif_ark:_12148_btv1b90604893_f27_full_full_0_native.jpg.json/43/line", 
            "@type": "oa:Annotation", 
            "motivation": "oa:painting", 
            "on": "http://gallica.bnf.fr/iiif/ark:/12148/btv1b90604893/canvas/f27#xywh=1469,1882,126,201", 
            "resource": {
                "@type": "cnt:ContentAsText", 
                "chars": "ET", 
                "format": "text/plain"
            }
        }, 
        {
            "@id": "https://manifests.teklia.com/HIMANIS/FR5271/words_annotations/http_gallica.bnf.fr_iiif_ark:_12148_btv1b90604893_f27_full_full_0_native.jpg.json/44/line", 
            "@type": "oa:Annotation", 
            "motivation": "oa:painting", 
            "on": "http://gallica.bnf.fr/iiif/ark:/12148/btv1b90604893/canvas/f27#xywh=1622,863,195,115", 
            "resource": {
                "@type": "cnt:ContentAsText", 
                "chars": "LA", 
                "format": "text/plain"
            }
        }, 
        {
            "@id": "https://manifests.teklia.com/HIMANIS/FR5271/words_annotations/http_gallica.bnf.fr_iiif_ark:_12148_btv1b90604893_f27_full_full_0_native.jpg.json/45/line", 
            "@type": "oa:Annotation", 
            "motivation": "oa:painting", 
            "on": "http://gallica.bnf.fr/iiif/ark:/12148/btv1b90604893/canvas/f27#xywh=1127,3829,1052,153", 
            "resource": {
                "@type": "cnt:ContentAsText", 
                "chars": "FRANCHISSEMUR", 
                "format": "text/plain"
            }
        }, 
        {
            "@id": "https://manifests.teklia.com/HIMANIS/FR5271/words_annotations/http_gallica.bnf.fr_iiif_ark:_12148_btv1b90604893_f27_full_full_0_native.jpg.json/46/line", 
            "@type": "oa:Annotation", 
            "motivation": "oa:painting", 
            "on": "http://gallica.bnf.fr/iiif/ark:/12148/btv1b90604893/canvas/f27#xywh=1916,2667,413,219", 
            "resource": {
                "@type": "cnt:ContentAsText", 
                "chars": "POURROIT", 
                "format": "text/plain"
            }
        }, 
        {
            "@id": "https://manifests.teklia.com/HIMANIS/FR5271/words_annotations/http_gallica.bnf.fr_iiif_ark:_12148_btv1b90604893_f27_full_full_0_native.jpg.json/47/line", 
            "@type": "oa:Annotation", 
            "motivation": "oa:painting", 
            "on": "http://gallica.bnf.fr/iiif/ark:/12148/btv1b90604893/canvas/f27#xywh=2869,4210,477,181", 
            "resource": {
                "@type": "cnt:ContentAsText", 
                "chars": "ADVENEUR", 
                "format": "text/plain"
            }
        }, 
        {
            "@id": "https://manifests.teklia.com/HIMANIS/FR5271/words_annotations/http_gallica.bnf.fr_iiif_ark:_12148_btv1b90604893_f27_full_full_0_native.jpg.json/48/line", 
            "@type": "oa:Annotation", 
            "motivation": "oa:painting", 
            "on": "http://gallica.bnf.fr/iiif/ark:/12148/btv1b90604893/canvas/f27#xywh=2094,1407,114,166", 
            "resource": {
                "@type": "cnt:ContentAsText", 
                "chars": "LES", 
                "format": "text/plain"
            }
        }, 
        {
            "@id": "https://manifests.teklia.com/HIMANIS/FR5271/words_annotations/http_gallica.bnf.fr_iiif_ark:_12148_btv1b90604893_f27_full_full_0_native.jpg.json/49/line", 
            "@type": "oa:Annotation", 
            "motivation": "oa:painting", 
            "on": "http://gallica.bnf.fr/iiif/ark:/12148/btv1b90604893/canvas/f27#xywh=2889,1032,62,141", 
            "resource": {
                "@type": "cnt:ContentAsText", 
                "chars": "DE", 
                "format": "text/plain"
            }
        }, 
        {
            "@id": "https://manifests.teklia.com/HIMANIS/FR5271/words_annotations/http_gallica.bnf.fr_iiif_ark:_12148_btv1b90604893_f27_full_full_0_native.jpg.json/50/line", 
            "@type": "oa:Annotation", 
            "motivation": "oa:painting", 
            "on": "http://gallica.bnf.fr/iiif/ark:/12148/btv1b90604893/canvas/f27#xywh=2917,1612,139,223", 
            "resource": {
                "@type": "cnt:ContentAsText", 
                "chars": "LETTRE", 
                "format": "text/plain"
            }
        }, 
        {
            "@id": "https://manifests.teklia.com/HIMANIS/FR5271/words_annotations/http_gallica.bnf.fr_iiif_ark:_12148_btv1b90604893_f27_full_full_0_native.jpg.json/51/line", 
            "@type": "oa:Annotation", 
            "motivation": "oa:painting", 
            "on": "http://gallica.bnf.fr/iiif/ark:/12148/btv1b90604893/canvas/f27#xywh=1720,1882,227,201", 
            "resource": {
                "@type": "cnt:ContentAsText", 
                "chars": "POUR", 
                "format": "text/plain"
            }
        }, 
        {
            "@id": "https://manifests.teklia.com/HIMANIS/FR5271/words_annotations/http_gallica.bnf.fr_iiif_ark:_12148_btv1b90604893_f27_full_full_0_native.jpg.json/52/line", 
            "@type": "oa:Annotation", 
            "motivation": "oa:painting", 
            "on": "http://gallica.bnf.fr/iiif/ark:/12148/btv1b90604893/canvas/f27#xywh=2369,2162,168,191", 
            "resource": {
                "@type": "cnt:ContentAsText", 
                "chars": "DUI", 
                "format": "text/plain"
            }
        }, 
        {
            "@id": "https://manifests.teklia.com/HIMANIS/FR5271/words_annotations/http_gallica.bnf.fr_iiif_ark:_12148_btv1b90604893_f27_full_full_0_native.jpg.json/53/line", 
            "@type": "oa:Annotation", 
            "motivation": "oa:painting", 
            "on": "http://gallica.bnf.fr/iiif/ark:/12148/btv1b90604893/canvas/f27#xywh=1495,1173,242,185", 
            "resource": {
                "@type": "cnt:ContentAsText", 
                "chars": "AILLES", 
                "format": "text/plain"
            }
        }, 
        {
            "@id": "https://manifests.teklia.com/HIMANIS/FR5271/words_annotations/http_gallica.bnf.fr_iiif_ark:_12148_btv1b90604893_f27_full_full_0_native.jpg.json/54/line", 
            "@type": "oa:Annotation", 
            "motivation": "oa:painting", 
            "on": "http://gallica.bnf.fr/iiif/ark:/12148/btv1b90604893/canvas/f27#xywh=1831,2162,442,191", 
            "resource": {
                "@type": "cnt:ContentAsText", 
                "chars": "COMMISSION", 
                "format": "text/plain"
            }
        }, 
        {
            "@id": "https://manifests.teklia.com/HIMANIS/FR5271/words_annotations/http_gallica.bnf.fr_iiif_ark:_12148_btv1b90604893_f27_full_full_0_native.jpg.json/55/line", 
            "@type": "oa:Annotation", 
            "motivation": "oa:painting", 
            "on": "http://gallica.bnf.fr/iiif/ark:/12148/btv1b90604893/canvas/f27#xywh=1896,1407,63,166", 
            "resource": {
                "@type": "cnt:ContentAsText", 
                "chars": "SUR", 
                "format": "text/plain"
            }
        }, 
        {
            "@id": "https://manifests.teklia.com/HIMANIS/FR5271/words_annotations/http_gallica.bnf.fr_iiif_ark:_12148_btv1b90604893_f27_full_full_0_native.jpg.json/56/line", 
            "@type": "oa:Annotation", 
            "motivation": "oa:painting", 
            "on": "http://gallica.bnf.fr/iiif/ark:/12148/btv1b90604893/canvas/f27#xywh=511,979,100,50", 
            "resource": {
                "@type": "cnt:ContentAsText", 
                "chars": "LE", 
                "format": "text/plain"
            }
        }, 
        {
            "@id": "https://manifests.teklia.com/HIMANIS/FR5271/words_annotations/http_gallica.bnf.fr_iiif_ark:_12148_btv1b90604893_f27_full_full_0_native.jpg.json/57/line", 
            "@type": "oa:Annotation", 
            "motivation": "oa:painting", 
            "on": "http://gallica.bnf.fr/iiif/ark:/12148/btv1b90604893/canvas/f27#xywh=2477,692,464,206", 
            "resource": {
                "@type": "cnt:ContentAsText", 
                "chars": "DESCHARGE", 
                "format": "text/plain"
            }
        }, 
        {
            "@id": "https://manifests.teklia.com/HIMANIS/FR5271/words_annotations/http_gallica.bnf.fr_iiif_ark:_12148_btv1b90604893_f27_full_full_0_native.jpg.json/58/line", 
            "@type": "oa:Annotation", 
            "motivation": "oa:painting", 
            "on": "http://gallica.bnf.fr/iiif/ark:/12148/btv1b90604893/canvas/f27#xywh=511,979,84,50", 
            "resource": {
                "@type": "cnt:ContentAsText", 
                "chars": "DE", 
                "format": "text/plain"
            }
        }, 
        {
            "@id": "https://manifests.teklia.com/HIMANIS/FR5271/words_annotations/http_gallica.bnf.fr_iiif_ark:_12148_btv1b90604893_f27_full_full_0_native.jpg.json/59/line", 
            "@type": "oa:Annotation", 
            "motivation": "oa:painting", 
            "on": "http://gallica.bnf.fr/iiif/ark:/12148/btv1b90604893/canvas/f27#xywh=2434,2887,226,190", 
            "resource": {
                "@type": "cnt:ContentAsText", 
                "chars": "PRENRE", 
                "format": "text/plain"
            }
        }, 
        {
            "@id": "https://manifests.teklia.com/HIMANIS/FR5271/words_annotations/http_gallica.bnf.fr_iiif_ark:_12148_btv1b90604893_f27_full_full_0_native.jpg.json/60/line", 
            "@type": "oa:Annotation", 
            "motivation": "oa:painting", 
            "on": "http://gallica.bnf.fr/iiif/ark:/12148/btv1b90604893/canvas/f27#xywh=2562,3829,172,153", 
            "resource": {
                "@type": "cnt:ContentAsText", 
                "chars": "SEIG", 
                "format": "text/plain"
            }
        }, 
        {
            "@id": "https://manifests.teklia.com/HIMANIS/FR5271/words_annotations/http_gallica.bnf.fr_iiif_ark:_12148_btv1b90604893_f27_full_full_0_native.jpg.json/61/line", 
            "@type": "oa:Annotation", 
            "motivation": "oa:painting", 
            "on": "http://gallica.bnf.fr/iiif/ark:/12148/btv1b90604893/canvas/f27#xywh=2743,2887,72,190", 
            "resource": {
                "@type": "cnt:ContentAsText", 
                "chars": "EN", 
                "format": "text/plain"
            }
        }, 
        {
            "@id": "https://manifests.teklia.com/HIMANIS/FR5271/words_annotations/http_gallica.bnf.fr_iiif_ark:_12148_btv1b90604893_f27_full_full_0_native.jpg.json/62/line", 
            "@type": "oa:Annotation", 
            "motivation": "oa:painting", 
            "on": "http://gallica.bnf.fr/iiif/ark:/12148/btv1b90604893/canvas/f27#xywh=2562,3829,239,153", 
            "resource": {
                "@type": "cnt:ContentAsText", 
                "chars": "SEEL", 
                "format": "text/plain"
            }
        }, 
        {
            "@id": "https://manifests.teklia.com/HIMANIS/FR5271/words_annotations/http_gallica.bnf.fr_iiif_ark:_12148_btv1b90604893_f27_full_full_0_native.jpg.json/63/line", 
            "@type": "oa:Annotation", 
            "motivation": "oa:painting", 
            "on": "http://gallica.bnf.fr/iiif/ark:/12148/btv1b90604893/canvas/f27#xywh=1258,2887,796,190", 
            "resource": {
                "@type": "cnt:ContentAsText", 
                "chars": "NOBLIGACION", 
                "format": "text/plain"
            }
        }, 
        {
            "@id": "https://manifests.teklia.com/HIMANIS/FR5271/words_annotations/http_gallica.bnf.fr_iiif_ark:_12148_btv1b90604893_f27_full_full_0_native.jpg.json/64/line", 
            "@type": "oa:Annotation", 
            "motivation": "oa:painting", 
            "on": "http://gallica.bnf.fr/iiif/ark:/12148/btv1b90604893/canvas/f27#xywh=2019,2382,491,191", 
            "resource": {
                "@type": "cnt:ContentAsText", 
                "chars": "BESONNIER", 
                "format": "text/plain"
            }
        }, 
        {
            "@id": "https://manifests.teklia.com/HIMANIS/FR5271/words_annotations/http_gallica.bnf.fr_iiif_ark:_12148_btv1b90604893_f27_full_full_0_native.jpg.json/65/line", 
            "@type": "oa:Annotation", 
            "motivation": "oa:painting", 
            "on": "http://gallica.bnf.fr/iiif/ark:/12148/btv1b90604893/canvas/f27#xywh=2576,4376,66,177", 
            "resource": {
                "@type": "cnt:ContentAsText", 
                "chars": "LA", 
                "format": "text/plain"
            }
        }, 
        {
            "@id": "https://manifests.teklia.com/HIMANIS/FR5271/words_annotations/http_gallica.bnf.fr_iiif_ark:_12148_btv1b90604893_f27_full_full_0_native.jpg.json/66/line", 
            "@type": "oa:Annotation", 
            "motivation": "oa:painting", 
            "on": "http://gallica.bnf.fr/iiif/ark:/12148/btv1b90604893/canvas/f27#xywh=2647,3427,130,231", 
            "resource": {
                "@type": "cnt:ContentAsText", 
                "chars": "ROY", 
                "format": "text/plain"
            }
        }, 
        {
            "@id": "https://manifests.teklia.com/HIMANIS/FR5271/words_annotations/http_gallica.bnf.fr_iiif_ark:_12148_btv1b90604893_f27_full_full_0_native.jpg.json/67/line", 
            "@type": "oa:Annotation", 
            "motivation": "oa:painting", 
            "on": "http://gallica.bnf.fr/iiif/ark:/12148/btv1b90604893/canvas/f27#xywh=2570,2382,228,191", 
            "resource": {
                "@type": "cnt:ContentAsText", 
                "chars": "POUR", 
                "format": "text/plain"
            }
        }, 
        {
            "@id": "https://manifests.teklia.com/HIMANIS/FR5271/words_annotations/http_gallica.bnf.fr_iiif_ark:_12148_btv1b90604893_f27_full_full_0_native.jpg.json/68/line", 
            "@type": "oa:Annotation", 
            "motivation": "oa:painting", 
            "on": "http://gallica.bnf.fr/iiif/ark:/12148/btv1b90604893/canvas/f27#xywh=3868,839,0,58", 
            "resource": {
                "@type": "cnt:ContentAsText", 
                "chars": "J", 
                "format": "text/plain"
            }
        }, 
        {
            "@id": "https://manifests.teklia.com/HIMANIS/FR5271/words_annotations/http_gallica.bnf.fr_iiif_ark:_12148_btv1b90604893_f27_full_full_0_native.jpg.json/69/line", 
            "@type": "oa:Annotation", 
            "motivation": "oa:painting", 
            "on": "http://gallica.bnf.fr/iiif/ark:/12148/btv1b90604893/canvas/f27#xywh=3868,839,0,58", 
            "resource": {
                "@type": "cnt:ContentAsText", 
                "chars": "P", 
                "format": "text/plain"
            }
        }, 
        {
            "@id": "https://manifests.teklia.com/HIMANIS/FR5271/words_annotations/http_gallica.bnf.fr_iiif_ark:_12148_btv1b90604893_f27_full_full_0_native.jpg.json/70/line", 
            "@type": "oa:Annotation", 
            "motivation": "oa:painting", 
            "on": "http://gallica.bnf.fr/iiif/ark:/12148/btv1b90604893/canvas/f27#xywh=1402,1612,598,223", 
            "resource": {
                "@type": "cnt:ContentAsText", 
                "chars": "QUITTANT", 
                "format": "text/plain"
            }
        }, 
        {
            "@id": "https://manifests.teklia.com/HIMANIS/FR5271/words_annotations/http_gallica.bnf.fr_iiif_ark:_12148_btv1b90604893_f27_full_full_0_native.jpg.json/71/line", 
            "@type": "oa:Annotation", 
            "motivation": "oa:painting", 
            "on": "http://gallica.bnf.fr/iiif/ark:/12148/btv1b90604893/canvas/f27#xywh=2978,3087,381,196", 
            "resource": {
                "@type": "cnt:ContentAsText", 
                "chars": "CONTRE", 
                "format": "text/plain"
            }
        }, 
        {
            "@id": "https://manifests.teklia.com/HIMANIS/FR5271/words_annotations/http_gallica.bnf.fr_iiif_ark:_12148_btv1b90604893_f27_full_full_0_native.jpg.json/72/line", 
            "@type": "oa:Annotation", 
            "motivation": "oa:painting", 
            "on": "http://gallica.bnf.fr/iiif/ark:/12148/btv1b90604893/canvas/f27#xywh=2639,1612,180,223", 
            "resource": {
                "@type": "cnt:ContentAsText", 
                "chars": "DICTES", 
                "format": "text/plain"
            }
        }, 
        {
            "@id": "https://manifests.teklia.com/HIMANIS/FR5271/words_annotations/http_gallica.bnf.fr_iiif_ark:_12148_btv1b90604893_f27_full_full_0_native.jpg.json/73/line", 
            "@type": "oa:Annotation", 
            "motivation": "oa:painting", 
            "on": "http://gallica.bnf.fr/iiif/ark:/12148/btv1b90604893/canvas/f27#xywh=1967,1173,334,185", 
            "resource": {
                "@type": "cnt:ContentAsText", 
                "chars": "FRANCORS", 
                "format": "text/plain"
            }
        }, 
        {
            "@id": "https://manifests.teklia.com/HIMANIS/FR5271/words_annotations/http_gallica.bnf.fr_iiif_ark:_12148_btv1b90604893_f27_full_full_0_native.jpg.json/74/line", 
            "@type": "oa:Annotation", 
            "motivation": "oa:painting", 
            "on": "http://gallica.bnf.fr/iiif/ark:/12148/btv1b90604893/canvas/f27#xywh=3396,1243,0,84", 
            "resource": {
                "@type": "cnt:ContentAsText", 
                "chars": "P", 
                "format": "text/plain"
            }
        }, 
        {
            "@id": "https://manifests.teklia.com/HIMANIS/FR5271/words_annotations/http_gallica.bnf.fr_iiif_ark:_12148_btv1b90604893_f27_full_full_0_native.jpg.json/75/line", 
            "@type": "oa:Annotation", 
            "motivation": "oa:painting", 
            "on": "http://gallica.bnf.fr/iiif/ark:/12148/btv1b90604893/canvas/f27#xywh=1628,2667,82,219", 
            "resource": {
                "@type": "cnt:ContentAsText", 
                "chars": "IL", 
                "format": "text/plain"
            }
        }, 
        {
            "@id": "https://manifests.teklia.com/HIMANIS/FR5271/words_annotations/http_gallica.bnf.fr_iiif_ark:_12148_btv1b90604893_f27_full_full_0_native.jpg.json/76/line", 
            "@type": "oa:Annotation", 
            "motivation": "oa:painting", 
            "on": "http://gallica.bnf.fr/iiif/ark:/12148/btv1b90604893/canvas/f27#xywh=3002,2667,357,219", 
            "resource": {
                "@type": "cnt:ContentAsText", 
                "chars": "FRANCORE", 
                "format": "text/plain"
            }
        }, 
        {
            "@id": "https://manifests.teklia.com/HIMANIS/FR5271/words_annotations/http_gallica.bnf.fr_iiif_ark:_12148_btv1b90604893_f27_full_full_0_native.jpg.json/77/line", 
            "@type": "oa:Annotation", 
            "motivation": "oa:painting", 
            "on": "http://gallica.bnf.fr/iiif/ark:/12148/btv1b90604893/canvas/f27#xywh=2022,1882,327,201", 
            "resource": {
                "@type": "cnt:ContentAsText", 
                "chars": "VENDRE", 
                "format": "text/plain"
            }
        }, 
        {
            "@id": "https://manifests.teklia.com/HIMANIS/FR5271/words_annotations/http_gallica.bnf.fr_iiif_ark:_12148_btv1b90604893_f27_full_full_0_native.jpg.json/78/line", 
            "@type": "oa:Annotation", 
            "motivation": "oa:painting", 
            "on": "http://gallica.bnf.fr/iiif/ark:/12148/btv1b90604893/canvas/f27#xywh=2823,2667,96,219", 
            "resource": {
                "@type": "cnt:ContentAsText", 
                "chars": "EN", 
                "format": "text/plain"
            }
        }, 
        {
            "@id": "https://manifests.teklia.com/HIMANIS/FR5271/words_annotations/http_gallica.bnf.fr_iiif_ark:_12148_btv1b90604893_f27_full_full_0_native.jpg.json/79/line", 
            "@type": "oa:Annotation", 
            "motivation": "oa:painting", 
            "on": "http://gallica.bnf.fr/iiif/ark:/12148/btv1b90604893/canvas/f27#xywh=2357,3277,74,146", 
            "resource": {
                "@type": "cnt:ContentAsText", 
                "chars": "EN", 
                "format": "text/plain"
            }
        }, 
        {
            "@id": "https://manifests.teklia.com/HIMANIS/FR5271/words_annotations/http_gallica.bnf.fr_iiif_ark:_12148_btv1b90604893_f27_full_full_0_native.jpg.json/80/line", 
            "@type": "oa:Annotation", 
            "motivation": "oa:painting", 
            "on": "http://gallica.bnf.fr/iiif/ark:/12148/btv1b90604893/canvas/f27#xywh=2727,2667,41,219", 
            "resource": {
                "@type": "cnt:ContentAsText", 
                "chars": "ET", 
                "format": "text/plain"
            }
        }, 
        {
            "@id": "https://manifests.teklia.com/HIMANIS/FR5271/words_annotations/http_gallica.bnf.fr_iiif_ark:_12148_btv1b90604893_f27_full_full_0_native.jpg.json/81/line", 
            "@type": "oa:Annotation", 
            "motivation": "oa:painting", 
            "on": "http://gallica.bnf.fr/iiif/ark:/12148/btv1b90604893/canvas/f27#xywh=1086,3427,867,231", 
            "resource": {
                "@type": "cnt:ContentAsText", 
                "chars": "DEFFIANCES", 
                "format": "text/plain"
            }
        }, 
        {
            "@id": "https://manifests.teklia.com/HIMANIS/FR5271/words_annotations/http_gallica.bnf.fr_iiif_ark:_12148_btv1b90604893_f27_full_full_0_native.jpg.json/82/line", 
            "@type": "oa:Annotation", 
            "motivation": "oa:painting", 
            "on": "http://gallica.bnf.fr/iiif/ark:/12148/btv1b90604893/canvas/f27#xywh=2954,692,360,206", 
            "resource": {
                "@type": "cnt:ContentAsText", 
                "chars": "PERDUE", 
                "format": "text/plain"
            }
        }, 
        {
            "@id": "https://manifests.teklia.com/HIMANIS/FR5271/words_annotations/http_gallica.bnf.fr_iiif_ark:_12148_btv1b90604893_f27_full_full_0_native.jpg.json/83/line", 
            "@type": "oa:Annotation", 
            "motivation": "oa:painting", 
            "on": "http://gallica.bnf.fr/iiif/ark:/12148/btv1b90604893/canvas/f27#xywh=3099,2162,0,191", 
            "resource": {
                "@type": "cnt:ContentAsText", 
                "chars": "A", 
                "format": "text/plain"
            }
        }, 
        {
            "@id": "https://manifests.teklia.com/HIMANIS/FR5271/words_annotations/http_gallica.bnf.fr_iiif_ark:_12148_btv1b90604893_f27_full_full_0_native.jpg.json/84/line", 
            "@type": "oa:Annotation", 
            "motivation": "oa:painting", 
            "on": "http://gallica.bnf.fr/iiif/ark:/12148/btv1b90604893/canvas/f27#xywh=2019,2382,491,191", 
            "resource": {
                "@type": "cnt:ContentAsText", 
                "chars": "BESOIGNIER", 
                "format": "text/plain"
            }
        }, 
        {
            "@id": "https://manifests.teklia.com/HIMANIS/FR5271/words_annotations/http_gallica.bnf.fr_iiif_ark:_12148_btv1b90604893_f27_full_full_0_native.jpg.json/85/line", 
            "@type": "oa:Annotation", 
            "motivation": "oa:painting", 
            "on": "http://gallica.bnf.fr/iiif/ark:/12148/btv1b90604893/canvas/f27#xywh=2334,4210,91,181", 
            "resource": {
                "@type": "cnt:ContentAsText", 
                "chars": "DU", 
                "format": "text/plain"
            }
        }, 
        {
            "@id": "https://manifests.teklia.com/HIMANIS/FR5271/words_annotations/http_gallica.bnf.fr_iiif_ark:_12148_btv1b90604893_f27_full_full_0_native.jpg.json/86/line", 
            "@type": "oa:Annotation", 
            "motivation": "oa:painting", 
            "on": "http://gallica.bnf.fr/iiif/ark:/12148/btv1b90604893/canvas/f27#xywh=1485,863,87,115", 
            "resource": {
                "@type": "cnt:ContentAsText", 
                "chars": "EN", 
                "format": "text/plain"
            }
        }, 
        {
            "@id": "https://manifests.teklia.com/HIMANIS/FR5271/words_annotations/http_gallica.bnf.fr_iiif_ark:_12148_btv1b90604893_f27_full_full_0_native.jpg.json/87/line", 
            "@type": "oa:Annotation", 
            "motivation": "oa:painting", 
            "on": "http://gallica.bnf.fr/iiif/ark:/12148/btv1b90604893/canvas/f27#xywh=1588,2382,84,191", 
            "resource": {
                "@type": "cnt:ContentAsText", 
                "chars": "DIT", 
                "format": "text/plain"
            }
        }, 
        {
            "@id": "https://manifests.teklia.com/HIMANIS/FR5271/words_annotations/http_gallica.bnf.fr_iiif_ark:_12148_btv1b90604893_f27_full_full_0_native.jpg.json/88/line", 
            "@type": "oa:Annotation", 
            "motivation": "oa:painting", 
            "on": "http://gallica.bnf.fr/iiif/ark:/12148/btv1b90604893/canvas/f27#xywh=1699,2162,84,191", 
            "resource": {
                "@type": "cnt:ContentAsText", 
                "chars": "DE", 
                "format": "text/plain"
            }
        }, 
        {
            "@id": "https://manifests.teklia.com/HIMANIS/FR5271/words_annotations/http_gallica.bnf.fr_iiif_ark:_12148_btv1b90604893_f27_full_full_0_native.jpg.json/89/line", 
            "@type": "oa:Annotation", 
            "motivation": "oa:painting", 
            "on": "http://gallica.bnf.fr/iiif/ark:/12148/btv1b90604893/canvas/f27#xywh=2954,692,360,206", 
            "resource": {
                "@type": "cnt:ContentAsText", 
                "chars": "PRODUE", 
                "format": "text/plain"
            }
        }, 
        {
            "@id": "https://manifests.teklia.com/HIMANIS/FR5271/words_annotations/http_gallica.bnf.fr_iiif_ark:_12148_btv1b90604893_f27_full_full_0_native.jpg.json/90/line", 
            "@type": "oa:Annotation", 
            "motivation": "oa:painting", 
            "on": "http://gallica.bnf.fr/iiif/ark:/12148/btv1b90604893/canvas/f27#xywh=2739,1882,289,201", 
            "resource": {
                "@type": "cnt:ContentAsText", 
                "chars": "DEVAILL", 
                "format": "text/plain"
            }
        }, 
        {
            "@id": "https://manifests.teklia.com/HIMANIS/FR5271/words_annotations/http_gallica.bnf.fr_iiif_ark:_12148_btv1b90604893_f27_full_full_0_native.jpg.json/91/line", 
            "@type": "oa:Annotation", 
            "motivation": "oa:painting", 
            "on": "http://gallica.bnf.fr/iiif/ark:/12148/btv1b90604893/canvas/f27#xywh=2369,2162,96,191", 
            "resource": {
                "@type": "cnt:ContentAsText", 
                "chars": "DU", 
                "format": "text/plain"
            }
        }, 
        {
            "@id": "https://manifests.teklia.com/HIMANIS/FR5271/words_annotations/http_gallica.bnf.fr_iiif_ark:_12148_btv1b90604893_f27_full_full_0_native.jpg.json/92/line", 
            "@type": "oa:Annotation", 
            "motivation": "oa:painting", 
            "on": "http://gallica.bnf.fr/iiif/ark:/12148/btv1b90604893/canvas/f27#xywh=2917,1612,208,223", 
            "resource": {
                "@type": "cnt:ContentAsText", 
                "chars": "LITTER", 
                "format": "text/plain"
            }
        }, 
        {
            "@id": "https://manifests.teklia.com/HIMANIS/FR5271/words_annotations/http_gallica.bnf.fr_iiif_ark:_12148_btv1b90604893_f27_full_full_0_native.jpg.json/93/line", 
            "@type": "oa:Annotation", 
            "motivation": "oa:painting", 
            "on": "http://gallica.bnf.fr/iiif/ark:/12148/btv1b90604893/canvas/f27#xywh=1430,4376,278,177", 
            "resource": {
                "@type": "cnt:ContentAsText", 
                "chars": "QUIRE", 
                "format": "text/plain"
            }
        }, 
        {
            "@id": "https://manifests.teklia.com/HIMANIS/FR5271/words_annotations/http_gallica.bnf.fr_iiif_ark:_12148_btv1b90604893_f27_full_full_0_native.jpg.json/94/line", 
            "@type": "oa:Annotation", 
            "motivation": "oa:painting", 
            "on": "http://gallica.bnf.fr/iiif/ark:/12148/btv1b90604893/canvas/f27#xywh=3183,2162,239,191", 
            "resource": {
                "@type": "cnt:ContentAsText", 
                "chars": "SON", 
                "format": "text/plain"
            }
        }, 
        {
            "@id": "https://manifests.teklia.com/HIMANIS/FR5271/words_annotations/http_gallica.bnf.fr_iiif_ark:_12148_btv1b90604893_f27_full_full_0_native.jpg.json/95/line", 
            "@type": "oa:Annotation", 
            "motivation": "oa:painting", 
            "on": "http://gallica.bnf.fr/iiif/ark:/12148/btv1b90604893/canvas/f27#xywh=2620,2162,419,191", 
            "resource": {
                "@type": "cnt:ContentAsText", 
                "chars": "RESONNER", 
                "format": "text/plain"
            }
        }, 
        {
            "@id": "https://manifests.teklia.com/HIMANIS/FR5271/words_annotations/http_gallica.bnf.fr_iiif_ark:_12148_btv1b90604893_f27_full_full_0_native.jpg.json/96/line", 
            "@type": "oa:Annotation", 
            "motivation": "oa:painting", 
            "on": "http://gallica.bnf.fr/iiif/ark:/12148/btv1b90604893/canvas/f27#xywh=2246,3829,239,153", 
            "resource": {
                "@type": "cnt:ContentAsText", 
                "chars": "DOMINE", 
                "format": "text/plain"
            }
        }, 
        {
            "@id": "https://manifests.teklia.com/HIMANIS/FR5271/words_annotations/http_gallica.bnf.fr_iiif_ark:_12148_btv1b90604893_f27_full_full_0_native.jpg.json/97/line", 
            "@type": "oa:Annotation", 
            "motivation": "oa:painting", 
            "on": "http://gallica.bnf.fr/iiif/ark:/12148/btv1b90604893/canvas/f27#xywh=1959,4210,0,181", 
            "resource": {
                "@type": "cnt:ContentAsText", 
                "chars": "A", 
                "format": "text/plain"
            }
        }, 
        {
            "@id": "https://manifests.teklia.com/HIMANIS/FR5271/words_annotations/http_gallica.bnf.fr_iiif_ark:_12148_btv1b90604893_f27_full_full_0_native.jpg.json/98/line", 
            "@type": "oa:Annotation", 
            "motivation": "oa:painting", 
            "on": "http://gallica.bnf.fr/iiif/ark:/12148/btv1b90604893/canvas/f27#xywh=1127,3829,1052,153", 
            "resource": {
                "@type": "cnt:ContentAsText", 
                "chars": "FFRANCHISSEMUR", 
                "format": "text/plain"
            }
        }, 
        {
            "@id": "https://manifests.teklia.com/HIMANIS/FR5271/words_annotations/http_gallica.bnf.fr_iiif_ark:_12148_btv1b90604893_f27_full_full_0_native.jpg.json/99/line", 
            "@type": "oa:Annotation", 
            "motivation": "oa:painting", 
            "on": "http://gallica.bnf.fr/iiif/ark:/12148/btv1b90604893/canvas/f27#xywh=2642,4376,134,177", 
            "resource": {
                "@type": "cnt:ContentAsText", 
                "chars": "CUM", 
                "format": "text/plain"
            }
        }, 
        {
            "@id": "https://manifests.teklia.com/HIMANIS/FR5271/words_annotations/http_gallica.bnf.fr_iiif_ark:_12148_btv1b90604893_f27_full_full_0_native.jpg.json/100/line", 
            "@type": "oa:Annotation", 
            "motivation": "oa:painting", 
            "on": "http://gallica.bnf.fr/iiif/ark:/12148/btv1b90604893/canvas/f27#xywh=1468,2382,108,191", 
            "resource": {
                "@type": "cnt:ContentAsText", 
                "chars": "LE", 
                "format": "text/plain"
            }
        }, 
        {
            "@id": "https://manifests.teklia.com/HIMANIS/FR5271/words_annotations/http_gallica.bnf.fr_iiif_ark:_12148_btv1b90604893_f27_full_full_0_native.jpg.json/101/line", 
            "@type": "oa:Annotation", 
            "motivation": "oa:painting", 
            "on": "http://gallica.bnf.fr/iiif/ark:/12148/btv1b90604893/canvas/f27#xywh=1852,1173,69,185", 
            "resource": {
                "@type": "cnt:ContentAsText", 
                "chars": "EN", 
                "format": "text/plain"
            }
        }, 
        {
            "@id": "https://manifests.teklia.com/HIMANIS/FR5271/words_annotations/http_gallica.bnf.fr_iiif_ark:_12148_btv1b90604893_f27_full_full_0_native.jpg.json/102/line", 
            "@type": "oa:Annotation", 
            "motivation": "oa:painting", 
            "on": "http://gallica.bnf.fr/iiif/ark:/12148/btv1b90604893/canvas/f27#xywh=3457,2382,240,191", 
            "resource": {
                "@type": "cnt:ContentAsText", 
                "chars": "XX", 
                "format": "text/plain"
            }
        }, 
        {
            "@id": "https://manifests.teklia.com/HIMANIS/FR5271/words_annotations/http_gallica.bnf.fr_iiif_ark:_12148_btv1b90604893_f27_full_full_0_native.jpg.json/103/line", 
            "@type": "oa:Annotation", 
            "motivation": "oa:painting", 
            "on": "http://gallica.bnf.fr/iiif/ark:/12148/btv1b90604893/canvas/f27#xywh=1842,4376,456,177", 
            "resource": {
                "@type": "cnt:ContentAsText", 
                "chars": "REMISSION", 
                "format": "text/plain"
            }
        }, 
        {
            "@id": "https://manifests.teklia.com/HIMANIS/FR5271/words_annotations/http_gallica.bnf.fr_iiif_ark:_12148_btv1b90604893_f27_full_full_0_native.jpg.json/104/line", 
            "@type": "oa:Annotation", 
            "motivation": "oa:painting", 
            "on": "http://gallica.bnf.fr/iiif/ark:/12148/btv1b90604893/canvas/f27#xywh=2562,3829,76,153", 
            "resource": {
                "@type": "cnt:ContentAsText", 
                "chars": "SEN", 
                "format": "text/plain"
            }
        }, 
        {
            "@id": "https://manifests.teklia.com/HIMANIS/FR5271/words_annotations/http_gallica.bnf.fr_iiif_ark:_12148_btv1b90604893_f27_full_full_0_native.jpg.json/105/line", 
            "@type": "oa:Annotation", 
            "motivation": "oa:painting", 
            "on": "http://gallica.bnf.fr/iiif/ark:/12148/btv1b90604893/canvas/f27#xywh=2043,3087,307,196", 
            "resource": {
                "@type": "cnt:ContentAsText", 
                "chars": "DUC", 
                "format": "text/plain"
            }
        }, 
        {
            "@id": "https://manifests.teklia.com/HIMANIS/FR5271/words_annotations/http_gallica.bnf.fr_iiif_ark:_12148_btv1b90604893_f27_full_full_0_native.jpg.json/106/line", 
            "@type": "oa:Annotation", 
            "motivation": "oa:painting", 
            "on": "http://gallica.bnf.fr/iiif/ark:/12148/btv1b90604893/canvas/f27#xywh=2562,3829,67,153", 
            "resource": {
                "@type": "cnt:ContentAsText", 
                "chars": "SER", 
                "format": "text/plain"
            }
        }, 
        {
            "@id": "https://manifests.teklia.com/HIMANIS/FR5271/words_annotations/http_gallica.bnf.fr_iiif_ark:_12148_btv1b90604893_f27_full_full_0_native.jpg.json/107/line", 
            "@type": "oa:Annotation", 
            "motivation": "oa:painting", 
            "on": "http://gallica.bnf.fr/iiif/ark:/12148/btv1b90604893/canvas/f27#xywh=2065,692,77,206", 
            "resource": {
                "@type": "cnt:ContentAsText", 
                "chars": "SUR", 
                "format": "text/plain"
            }
        }, 
        {
            "@id": "https://manifests.teklia.com/HIMANIS/FR5271/words_annotations/http_gallica.bnf.fr_iiif_ark:_12148_btv1b90604893_f27_full_full_0_native.jpg.json/108/line", 
            "@type": "oa:Annotation", 
            "motivation": "oa:painting", 
            "on": "http://gallica.bnf.fr/iiif/ark:/12148/btv1b90604893/canvas/f27#xywh=2504,3277,229,146", 
            "resource": {
                "@type": "cnt:ContentAsText", 
                "chars": "L'ATUM", 
                "format": "text/plain"
            }
        }, 
        {
            "@id": "https://manifests.teklia.com/HIMANIS/FR5271/words_annotations/http_gallica.bnf.fr_iiif_ark:_12148_btv1b90604893_f27_full_full_0_native.jpg.json/109/line", 
            "@type": "oa:Annotation", 
            "motivation": "oa:painting", 
            "on": "http://gallica.bnf.fr/iiif/ark:/12148/btv1b90604893/canvas/f27#xywh=2090,1032,311,141", 
            "resource": {
                "@type": "cnt:ContentAsText", 
                "chars": "HERITANS", 
                "format": "text/plain"
            }
        }, 
        {
            "@id": "https://manifests.teklia.com/HIMANIS/FR5271/words_annotations/http_gallica.bnf.fr_iiif_ark:_12148_btv1b90604893_f27_full_full_0_native.jpg.json/110/line", 
            "@type": "oa:Annotation", 
            "motivation": "oa:painting", 
            "on": "http://gallica.bnf.fr/iiif/ark:/12148/btv1b90604893/canvas/f27#xywh=2191,3087,159,196", 
            "resource": {
                "@type": "cnt:ContentAsText", 
                "chars": "DIT", 
                "format": "text/plain"
            }
        }, 
        {
            "@id": "https://manifests.teklia.com/HIMANIS/FR5271/words_annotations/http_gallica.bnf.fr_iiif_ark:_12148_btv1b90604893_f27_full_full_0_native.jpg.json/111/line", 
            "@type": "oa:Annotation", 
            "motivation": "oa:painting", 
            "on": "http://gallica.bnf.fr/iiif/ark:/12148/btv1b90604893/canvas/f27#xywh=2090,1032,311,141", 
            "resource": {
                "@type": "cnt:ContentAsText", 
                "chars": "HERITANZ", 
                "format": "text/plain"
            }
        }, 
        {
            "@id": "https://manifests.teklia.com/HIMANIS/FR5271/words_annotations/http_gallica.bnf.fr_iiif_ark:_12148_btv1b90604893_f27_full_full_0_native.jpg.json/112/line", 
            "@type": "oa:Annotation", 
            "motivation": "oa:painting", 
            "on": "http://gallica.bnf.fr/iiif/ark:/12148/btv1b90604893/canvas/f27#xywh=3014,2382,0,191", 
            "resource": {
                "@type": "cnt:ContentAsText", 
                "chars": "A", 
                "format": "text/plain"
            }
        }, 
        {
            "@id": "https://manifests.teklia.com/HIMANIS/FR5271/words_annotations/http_gallica.bnf.fr_iiif_ark:_12148_btv1b90604893_f27_full_full_0_native.jpg.json/113/line", 
            "@type": "oa:Annotation", 
            "motivation": "oa:painting", 
            "on": "http://gallica.bnf.fr/iiif/ark:/12148/btv1b90604893/canvas/f27#xywh=2620,2162,419,191", 
            "resource": {
                "@type": "cnt:ContentAsText", 
                "chars": "RESONIER", 
                "format": "text/plain"
            }
        }, 
        {
            "@id": "https://manifests.teklia.com/HIMANIS/FR5271/words_annotations/http_gallica.bnf.fr_iiif_ark:_12148_btv1b90604893_f27_full_full_0_native.jpg.json/114/line", 
            "@type": "oa:Annotation", 
            "motivation": "oa:painting", 
            "on": "http://gallica.bnf.fr/iiif/ark:/12148/btv1b90604893/canvas/f27#xywh=2886,2887,273,190", 
            "resource": {
                "@type": "cnt:ContentAsText", 
                "chars": "FACOIS", 
                "format": "text/plain"
            }
        }, 
        {
            "@id": "https://manifests.teklia.com/HIMANIS/FR5271/words_annotations/http_gallica.bnf.fr_iiif_ark:_12148_btv1b90604893_f27_full_full_0_native.jpg.json/115/line", 
            "@type": "oa:Annotation", 
            "motivation": "oa:painting", 
            "on": "http://gallica.bnf.fr/iiif/ark:/12148/btv1b90604893/canvas/f27#xywh=2387,4376,100,177", 
            "resource": {
                "@type": "cnt:ContentAsText", 
                "chars": "EN", 
                "format": "text/plain"
            }
        }, 
        {
            "@id": "https://manifests.teklia.com/HIMANIS/FR5271/words_annotations/http_gallica.bnf.fr_iiif_ark:_12148_btv1b90604893_f27_full_full_0_native.jpg.json/116/line", 
            "@type": "oa:Annotation", 
            "motivation": "oa:painting", 
            "on": "http://gallica.bnf.fr/iiif/ark:/12148/btv1b90604893/canvas/f27#xywh=2002,3642,304,167", 
            "resource": {
                "@type": "cnt:ContentAsText", 
                "chars": "JULIERS", 
                "format": "text/plain"
            }
        }, 
        {
            "@id": "https://manifests.teklia.com/HIMANIS/FR5271/words_annotations/http_gallica.bnf.fr_iiif_ark:_12148_btv1b90604893_f27_full_full_0_native.jpg.json/117/line", 
            "@type": "oa:Annotation", 
            "motivation": "oa:painting", 
            "on": "http://gallica.bnf.fr/iiif/ark:/12148/btv1b90604893/canvas/f27#xywh=2505,4210,295,181", 
            "resource": {
                "@type": "cnt:ContentAsText", 
                "chars": "POYEUX", 
                "format": "text/plain"
            }
        }, 
        {
            "@id": "https://manifests.teklia.com/HIMANIS/FR5271/words_annotations/http_gallica.bnf.fr_iiif_ark:_12148_btv1b90604893_f27_full_full_0_native.jpg.json/118/line", 
            "@type": "oa:Annotation", 
            "motivation": "oa:painting", 
            "on": "http://gallica.bnf.fr/iiif/ark:/12148/btv1b90604893/canvas/f27#xywh=1495,1173,242,185", 
            "resource": {
                "@type": "cnt:ContentAsText", 
                "chars": "SAILLES", 
                "format": "text/plain"
            }
        }, 
        {
            "@id": "https://manifests.teklia.com/HIMANIS/FR5271/words_annotations/http_gallica.bnf.fr_iiif_ark:_12148_btv1b90604893_f27_full_full_0_native.jpg.json/119/line", 
            "@type": "oa:Annotation", 
            "motivation": "oa:painting", 
            "on": "http://gallica.bnf.fr/iiif/ark:/12148/btv1b90604893/canvas/f27#xywh=2271,1407,156,166", 
            "resource": {
                "@type": "cnt:ContentAsText", 
                "chars": "DITES", 
                "format": "text/plain"
            }
        }, 
        {
            "@id": "https://manifests.teklia.com/HIMANIS/FR5271/words_annotations/http_gallica.bnf.fr_iiif_ark:_12148_btv1b90604893_f27_full_full_0_native.jpg.json/120/line", 
            "@type": "oa:Annotation", 
            "motivation": "oa:painting", 
            "on": "http://gallica.bnf.fr/iiif/ark:/12148/btv1b90604893/canvas/f27#xywh=2324,4045,354,171", 
            "resource": {
                "@type": "cnt:ContentAsText", 
                "chars": "PERSONE", 
                "format": "text/plain"
            }
        }, 
        {
            "@id": "https://manifests.teklia.com/HIMANIS/FR5271/words_annotations/http_gallica.bnf.fr_iiif_ark:_12148_btv1b90604893_f27_full_full_0_native.jpg.json/121/line", 
            "@type": "oa:Annotation", 
            "motivation": "oa:painting", 
            "on": "http://gallica.bnf.fr/iiif/ark:/12148/btv1b90604893/canvas/f27#xywh=1625,3642,167,167", 
            "resource": {
                "@type": "cnt:ContentAsText", 
                "chars": "DUC", 
                "format": "text/plain"
            }
        }, 
        {
            "@id": "https://manifests.teklia.com/HIMANIS/FR5271/words_annotations/http_gallica.bnf.fr_iiif_ark:_12148_btv1b90604893_f27_full_full_0_native.jpg.json/122/line", 
            "@type": "oa:Annotation", 
            "motivation": "oa:painting", 
            "on": "http://gallica.bnf.fr/iiif/ark:/12148/btv1b90604893/canvas/f27#xywh=2152,4045,86,171", 
            "resource": {
                "@type": "cnt:ContentAsText", 
                "chars": "UN", 
                "format": "text/plain"
            }
        }, 
        {
            "@id": "https://manifests.teklia.com/HIMANIS/FR5271/words_annotations/http_gallica.bnf.fr_iiif_ark:_12148_btv1b90604893_f27_full_full_0_native.jpg.json/123/line", 
            "@type": "oa:Annotation", 
            "motivation": "oa:painting", 
            "on": "http://gallica.bnf.fr/iiif/ark:/12148/btv1b90604893/canvas/f27#xywh=1457,2547,157,156", 
            "resource": {
                "@type": "cnt:ContentAsText", 
                "chars": "NON", 
                "format": "text/plain"
            }
        }, 
        {
            "@id": "https://manifests.teklia.com/HIMANIS/FR5271/words_annotations/http_gallica.bnf.fr_iiif_ark:_12148_btv1b90604893_f27_full_full_0_native.jpg.json/124/line", 
            "@type": "oa:Annotation", 
            "motivation": "oa:painting", 
            "on": "http://gallica.bnf.fr/iiif/ark:/12148/btv1b90604893/canvas/f27#xywh=2605,1032,169,141", 
            "resource": {
                "@type": "cnt:ContentAsText", 
                "chars": "VILLES", 
                "format": "text/plain"
            }
        }, 
        {
            "@id": "https://manifests.teklia.com/HIMANIS/FR5271/words_annotations/http_gallica.bnf.fr_iiif_ark:_12148_btv1b90604893_f27_full_full_0_native.jpg.json/125/line", 
            "@type": "oa:Annotation", 
            "motivation": "oa:painting", 
            "on": "http://gallica.bnf.fr/iiif/ark:/12148/btv1b90604893/canvas/f27#xywh=2011,3427,405,231", 
            "resource": {
                "@type": "cnt:ContentAsText", 
                "chars": "ENVOIES", 
                "format": "text/plain"
            }
        }, 
        {
            "@id": "https://manifests.teklia.com/HIMANIS/FR5271/words_annotations/http_gallica.bnf.fr_iiif_ark:_12148_btv1b90604893_f27_full_full_0_native.jpg.json/126/line", 
            "@type": "oa:Annotation", 
            "motivation": "oa:painting", 
            "on": "http://gallica.bnf.fr/iiif/ark:/12148/btv1b90604893/canvas/f27#xywh=1752,2667,96,219", 
            "resource": {
                "@type": "cnt:ContentAsText", 
                "chars": "NE", 
                "format": "text/plain"
            }
        }, 
        {
            "@id": "https://manifests.teklia.com/HIMANIS/FR5271/words_annotations/http_gallica.bnf.fr_iiif_ark:_12148_btv1b90604893_f27_full_full_0_native.jpg.json/127/line", 
            "@type": "oa:Annotation", 
            "motivation": "oa:painting", 
            "on": "http://gallica.bnf.fr/iiif/ark:/12148/btv1b90604893/canvas/f27#xywh=1194,3087,787,196", 
            "resource": {
                "@type": "cnt:ContentAsText", 
                "chars": "GEFFRANCES", 
                "format": "text/plain"
            }
        }, 
        {
            "@id": "https://manifests.teklia.com/HIMANIS/FR5271/words_annotations/http_gallica.bnf.fr_iiif_ark:_12148_btv1b90604893_f27_full_full_0_native.jpg.json/128/line", 
            "@type": "oa:Annotation", 
            "motivation": "oa:painting", 
            "on": "http://gallica.bnf.fr/iiif/ark:/12148/btv1b90604893/canvas/f27#xywh=3460,4210,91,181", 
            "resource": {
                "@type": "cnt:ContentAsText", 
                "chars": "UN", 
                "format": "text/plain"
            }
        }, 
        {
            "@id": "https://manifests.teklia.com/HIMANIS/FR5271/words_annotations/http_gallica.bnf.fr_iiif_ark:_12148_btv1b90604893_f27_full_full_0_native.jpg.json/129/line", 
            "@type": "oa:Annotation", 
            "motivation": "oa:painting", 
            "on": "http://gallica.bnf.fr/iiif/ark:/12148/btv1b90604893/canvas/f27#xywh=3460,4210,91,181", 
            "resource": {
                "@type": "cnt:ContentAsText", 
                "chars": "EN", 
                "format": "text/plain"
            }
        }, 
        {
            "@id": "https://manifests.teklia.com/HIMANIS/FR5271/words_annotations/http_gallica.bnf.fr_iiif_ark:_12148_btv1b90604893_f27_full_full_0_native.jpg.json/130/line", 
            "@type": "oa:Annotation", 
            "motivation": "oa:painting", 
            "on": "http://gallica.bnf.fr/iiif/ark:/12148/btv1b90604893/canvas/f27#xywh=436,1782,154,102", 
            "resource": {
                "@type": "cnt:ContentAsText", 
                "chars": "PUS", 
                "format": "text/plain"
            }
        }, 
        {
            "@id": "https://manifests.teklia.com/HIMANIS/FR5271/words_annotations/http_gallica.bnf.fr_iiif_ark:_12148_btv1b90604893_f27_full_full_0_native.jpg.json/131/line", 
            "@type": "oa:Annotation", 
            "motivation": "oa:painting", 
            "on": "http://gallica.bnf.fr/iiif/ark:/12148/btv1b90604893/canvas/f27#xywh=2820,3427,130,231", 
            "resource": {
                "@type": "cnt:ContentAsText", 
                "chars": "DES", 
                "format": "text/plain"
            }
        }, 
        {
            "@id": "https://manifests.teklia.com/HIMANIS/FR5271/words_annotations/http_gallica.bnf.fr_iiif_ark:_12148_btv1b90604893_f27_full_full_0_native.jpg.json/132/line", 
            "@type": "oa:Annotation", 
            "motivation": "oa:painting", 
            "on": "http://gallica.bnf.fr/iiif/ark:/12148/btv1b90604893/canvas/f27#xywh=3253,2382,120,191", 
            "resource": {
                "@type": "cnt:ContentAsText", 
                "chars": "SON", 
                "format": "text/plain"
            }
        }, 
        {
            "@id": "https://manifests.teklia.com/HIMANIS/FR5271/words_annotations/http_gallica.bnf.fr_iiif_ark:_12148_btv1b90604893_f27_full_full_0_native.jpg.json/133/line", 
            "@type": "oa:Annotation", 
            "motivation": "oa:painting", 
            "on": "http://gallica.bnf.fr/iiif/ark:/12148/btv1b90604893/canvas/f27#xywh=1851,1032,186,141", 
            "resource": {
                "@type": "cnt:ContentAsText", 
                "chars": "POUR", 
                "format": "text/plain"
            }
        }, 
        {
            "@id": "https://manifests.teklia.com/HIMANIS/FR5271/words_annotations/http_gallica.bnf.fr_iiif_ark:_12148_btv1b90604893_f27_full_full_0_native.jpg.json/134/line", 
            "@type": "oa:Annotation", 
            "motivation": "oa:painting", 
            "on": "http://gallica.bnf.fr/iiif/ark:/12148/btv1b90604893/canvas/f27#xywh=436,1782,154,102", 
            "resource": {
                "@type": "cnt:ContentAsText", 
                "chars": "PES", 
                "format": "text/plain"
            }
        }, 
        {
            "@id": "https://manifests.teklia.com/HIMANIS/FR5271/words_annotations/http_gallica.bnf.fr_iiif_ark:_12148_btv1b90604893_f27_full_full_0_native.jpg.json/135/line", 
            "@type": "oa:Annotation", 
            "motivation": "oa:painting", 
            "on": "http://gallica.bnf.fr/iiif/ark:/12148/btv1b90604893/canvas/f27#xywh=1588,3277,147,146", 
            "resource": {
                "@type": "cnt:ContentAsText", 
                "chars": "ROY", 
                "format": "text/plain"
            }
        }, 
        {
            "@id": "https://manifests.teklia.com/HIMANIS/FR5271/words_annotations/http_gallica.bnf.fr_iiif_ark:_12148_btv1b90604893_f27_full_full_0_native.jpg.json/136/line", 
            "@type": "oa:Annotation", 
            "motivation": "oa:painting", 
            "on": "http://gallica.bnf.fr/iiif/ark:/12148/btv1b90604893/canvas/f27#xywh=2434,2887,226,190", 
            "resource": {
                "@type": "cnt:ContentAsText", 
                "chars": "PRESTE", 
                "format": "text/plain"
            }
        }, 
        {
            "@id": "https://manifests.teklia.com/HIMANIS/FR5271/words_annotations/http_gallica.bnf.fr_iiif_ark:_12148_btv1b90604893_f27_full_full_0_native.jpg.json/137/line", 
            "@type": "oa:Annotation", 
            "motivation": "oa:painting", 
            "on": "http://gallica.bnf.fr/iiif/ark:/12148/btv1b90604893/canvas/f27#xywh=1938,4045,96,171", 
            "resource": {
                "@type": "cnt:ContentAsText", 
                "chars": "POR", 
                "format": "text/plain"
            }
        }, 
        {
            "@id": "https://manifests.teklia.com/HIMANIS/FR5271/words_annotations/http_gallica.bnf.fr_iiif_ark:_12148_btv1b90604893_f27_full_full_0_native.jpg.json/138/line", 
            "@type": "oa:Annotation", 
            "motivation": "oa:painting", 
            "on": "http://gallica.bnf.fr/iiif/ark:/12148/btv1b90604893/canvas/f27#xywh=1845,3642,84,167", 
            "resource": {
                "@type": "cnt:ContentAsText", 
                "chars": "DE", 
                "format": "text/plain"
            }
        }, 
        {
            "@id": "https://manifests.teklia.com/HIMANIS/FR5271/words_annotations/http_gallica.bnf.fr_iiif_ark:_12148_btv1b90604893_f27_full_full_0_native.jpg.json/139/line", 
            "@type": "oa:Annotation", 
            "motivation": "oa:painting", 
            "on": "http://gallica.bnf.fr/iiif/ark:/12148/btv1b90604893/canvas/f27#xywh=3337,3387,0,80", 
            "resource": {
                "@type": "cnt:ContentAsText", 
                "chars": "P", 
                "format": "text/plain"
            }
        }, 
        {
            "@id": "https://manifests.teklia.com/HIMANIS/FR5271/words_annotations/http_gallica.bnf.fr_iiif_ark:_12148_btv1b90604893_f27_full_full_0_native.jpg.json/140/line", 
            "@type": "oa:Annotation", 
            "motivation": "oa:painting", 
            "on": "http://gallica.bnf.fr/iiif/ark:/12148/btv1b90604893/canvas/f27#xywh=3337,3387,0,80", 
            "resource": {
                "@type": "cnt:ContentAsText", 
                "chars": "Y", 
                "format": "text/plain"
            }
        }, 
        {
            "@id": "https://manifests.teklia.com/HIMANIS/FR5271/words_annotations/http_gallica.bnf.fr_iiif_ark:_12148_btv1b90604893_f27_full_full_0_native.jpg.json/141/line", 
            "@type": "oa:Annotation", 
            "motivation": "oa:painting", 
            "on": "http://gallica.bnf.fr/iiif/ark:/12148/btv1b90604893/canvas/f27#xywh=1741,2547,69,156", 
            "resource": {
                "@type": "cnt:ContentAsText", 
                "chars": "EN", 
                "format": "text/plain"
            }
        }, 
        {
            "@id": "https://manifests.teklia.com/HIMANIS/FR5271/words_annotations/http_gallica.bnf.fr_iiif_ark:_12148_btv1b90604893_f27_full_full_0_native.jpg.json/142/line", 
            "@type": "oa:Annotation", 
            "motivation": "oa:painting", 
            "on": "http://gallica.bnf.fr/iiif/ark:/12148/btv1b90604893/canvas/f27#xywh=1459,1407,375,166", 
            "resource": {
                "@type": "cnt:ContentAsText", 
                "chars": "ACTACHE", 
                "format": "text/plain"
            }
        }, 
        {
            "@id": "https://manifests.teklia.com/HIMANIS/FR5271/words_annotations/http_gallica.bnf.fr_iiif_ark:_12148_btv1b90604893_f27_full_full_0_native.jpg.json/143/line", 
            "@type": "oa:Annotation", 
            "motivation": "oa:painting", 
            "on": "http://gallica.bnf.fr/iiif/ark:/12148/btv1b90604893/canvas/f27#xywh=2246,3829,239,153", 
            "resource": {
                "@type": "cnt:ContentAsText", 
                "chars": "DONNE", 
                "format": "text/plain"
            }
        }, 
        {
            "@id": "https://manifests.teklia.com/HIMANIS/FR5271/words_annotations/http_gallica.bnf.fr_iiif_ark:_12148_btv1b90604893_f27_full_full_0_native.jpg.json/144/line", 
            "@type": "oa:Annotation", 
            "motivation": "oa:painting", 
            "on": "http://gallica.bnf.fr/iiif/ark:/12148/btv1b90604893/canvas/f27#xywh=2416,1612,181,223", 
            "resource": {
                "@type": "cnt:ContentAsText", 
                "chars": "AUX", 
                "format": "text/plain"
            }
        }, 
        {
            "@id": "https://manifests.teklia.com/HIMANIS/FR5271/words_annotations/http_gallica.bnf.fr_iiif_ark:_12148_btv1b90604893_f27_full_full_0_native.jpg.json/145/line", 
            "@type": "oa:Annotation", 
            "motivation": "oa:painting", 
            "on": "http://gallica.bnf.fr/iiif/ark:/12148/btv1b90604893/canvas/f27#xywh=2528,3940,0,72", 
            "resource": {
                "@type": "cnt:ContentAsText", 
                "chars": "P", 
                "format": "text/plain"
            }
        }, 
        {
            "@id": "https://manifests.teklia.com/HIMANIS/FR5271/words_annotations/http_gallica.bnf.fr_iiif_ark:_12148_btv1b90604893_f27_full_full_0_native.jpg.json/146/line", 
            "@type": "oa:Annotation", 
            "motivation": "oa:painting", 
            "on": "http://gallica.bnf.fr/iiif/ark:/12148/btv1b90604893/canvas/f27#xywh=3457,2382,108,191", 
            "resource": {
                "@type": "cnt:ContentAsText", 
                "chars": "UN", 
                "format": "text/plain"
            }
        }, 
        {
            "@id": "https://manifests.teklia.com/HIMANIS/FR5271/words_annotations/http_gallica.bnf.fr_iiif_ark:_12148_btv1b90604893_f27_full_full_0_native.jpg.json/147/line", 
            "@type": "oa:Annotation", 
            "motivation": "oa:painting", 
            "on": "http://gallica.bnf.fr/iiif/ark:/12148/btv1b90604893/canvas/f27#xywh=3457,2382,108,191", 
            "resource": {
                "@type": "cnt:ContentAsText", 
                "chars": "NON", 
                "format": "text/plain"
            }
        }, 
        {
            "@id": "https://manifests.teklia.com/HIMANIS/FR5271/words_annotations/http_gallica.bnf.fr_iiif_ark:_12148_btv1b90604893_f27_full_full_0_native.jpg.json/148/line", 
            "@type": "oa:Annotation", 
            "motivation": "oa:painting", 
            "on": "http://gallica.bnf.fr/iiif/ark:/12148/btv1b90604893/canvas/f27#xywh=3110,2382,71,191", 
            "resource": {
                "@type": "cnt:ContentAsText", 
                "chars": "EN", 
                "format": "text/plain"
            }
        }, 
        {
            "@id": "https://manifests.teklia.com/HIMANIS/FR5271/words_annotations/http_gallica.bnf.fr_iiif_ark:_12148_btv1b90604893_f27_full_full_0_native.jpg.json/149/line", 
            "@type": "oa:Annotation", 
            "motivation": "oa:painting", 
            "on": "http://gallica.bnf.fr/iiif/ark:/12148/btv1b90604893/canvas/f27#xywh=2791,2547,490,156", 
            "resource": {
                "@type": "cnt:ContentAsText", 
                "chars": "PERTICULIERE", 
                "format": "text/plain"
            }
        }, 
        {
            "@id": "https://manifests.teklia.com/HIMANIS/FR5271/words_annotations/http_gallica.bnf.fr_iiif_ark:_12148_btv1b90604893_f27_full_full_0_native.jpg.json/150/line", 
            "@type": "oa:Annotation", 
            "motivation": "oa:painting", 
            "on": "http://gallica.bnf.fr/iiif/ark:/12148/btv1b90604893/canvas/f27#xywh=2488,3427,87,231", 
            "resource": {
                "@type": "cnt:ContentAsText", 
                "chars": "DU", 
                "format": "text/plain"
            }
        }, 
        {
            "@id": "https://manifests.teklia.com/HIMANIS/FR5271/words_annotations/http_gallica.bnf.fr_iiif_ark:_12148_btv1b90604893_f27_full_full_0_native.jpg.json/151/line", 
            "@type": "oa:Annotation", 
            "motivation": "oa:painting", 
            "on": "http://gallica.bnf.fr/iiif/ark:/12148/btv1b90604893/canvas/f27#xywh=2242,2547,441,156", 
            "resource": {
                "@type": "cnt:ContentAsText", 
                "chars": "COMMISSION", 
                "format": "text/plain"
            }
        }, 
        {
            "@id": "https://manifests.teklia.com/HIMANIS/FR5271/words_annotations/http_gallica.bnf.fr_iiif_ark:_12148_btv1b90604893_f27_full_full_0_native.jpg.json/152/line", 
            "@type": "oa:Annotation", 
            "motivation": "oa:painting", 
            "on": "http://gallica.bnf.fr/iiif/ark:/12148/btv1b90604893/canvas/f27#xywh=2149,2887,155,190", 
            "resource": {
                "@type": "cnt:ContentAsText", 
                "chars": "D'UN", 
                "format": "text/plain"
            }
        }, 
        {
            "@id": "https://manifests.teklia.com/HIMANIS/FR5271/words_annotations/http_gallica.bnf.fr_iiif_ark:_12148_btv1b90604893_f27_full_full_0_native.jpg.json/153/line", 
            "@type": "oa:Annotation", 
            "motivation": "oa:painting", 
            "on": "http://gallica.bnf.fr/iiif/ark:/12148/btv1b90604893/canvas/f27#xywh=1258,2887,796,190", 
            "resource": {
                "@type": "cnt:ContentAsText", 
                "chars": "OBLIGACION", 
                "format": "text/plain"
            }
        }, 
        {
            "@id": "https://manifests.teklia.com/HIMANIS/FR5271/words_annotations/http_gallica.bnf.fr_iiif_ark:_12148_btv1b90604893_f27_full_full_0_native.jpg.json/154/line", 
            "@type": "oa:Annotation", 
            "motivation": "oa:painting", 
            "on": "http://gallica.bnf.fr/iiif/ark:/12148/btv1b90604893/canvas/f27#xywh=2434,2887,226,190", 
            "resource": {
                "@type": "cnt:ContentAsText", 
                "chars": "PRENTE", 
                "format": "text/plain"
            }
        }, 
        {
            "@id": "https://manifests.teklia.com/HIMANIS/FR5271/words_annotations/http_gallica.bnf.fr_iiif_ark:_12148_btv1b90604893_f27_full_full_0_native.jpg.json/155/line", 
            "@type": "oa:Annotation", 
            "motivation": "oa:painting", 
            "on": "http://gallica.bnf.fr/iiif/ark:/12148/btv1b90604893/canvas/f27#xywh=2027,1612,334,223", 
            "resource": {
                "@type": "cnt:ContentAsText", 
                "chars": "SERVANT", 
                "format": "text/plain"
            }
        }, 
        {
            "@id": "https://manifests.teklia.com/HIMANIS/FR5271/words_annotations/http_gallica.bnf.fr_iiif_ark:_12148_btv1b90604893_f27_full_full_0_native.jpg.json/156/line", 
            "@type": "oa:Annotation", 
            "motivation": "oa:painting", 
            "on": "http://gallica.bnf.fr/iiif/ark:/12148/btv1b90604893/canvas/f27#xywh=1402,1612,598,223", 
            "resource": {
                "@type": "cnt:ContentAsText", 
                "chars": "QUICTANS", 
                "format": "text/plain"
            }
        }, 
        {
            "@id": "https://manifests.teklia.com/HIMANIS/FR5271/words_annotations/http_gallica.bnf.fr_iiif_ark:_12148_btv1b90604893_f27_full_full_0_native.jpg.json/157/line", 
            "@type": "oa:Annotation", 
            "motivation": "oa:painting", 
            "on": "http://gallica.bnf.fr/iiif/ark:/12148/btv1b90604893/canvas/f27#xywh=1402,1612,598,223", 
            "resource": {
                "@type": "cnt:ContentAsText", 
                "chars": "QUICTANT", 
                "format": "text/plain"
            }
        }, 
        {
            "@id": "https://manifests.teklia.com/HIMANIS/FR5271/words_annotations/http_gallica.bnf.fr_iiif_ark:_12148_btv1b90604893_f27_full_full_0_native.jpg.json/158/line", 
            "@type": "oa:Annotation", 
            "motivation": "oa:painting", 
            "on": "http://gallica.bnf.fr/iiif/ark:/12148/btv1b90604893/canvas/f27#xywh=3457,2382,527,191", 
            "resource": {
                "@type": "cnt:ContentAsText", 
                "chars": "XXI", 
                "format": "text/plain"
            }
        }, 
        {
            "@id": "https://manifests.teklia.com/HIMANIS/FR5271/words_annotations/http_gallica.bnf.fr_iiif_ark:_12148_btv1b90604893_f27_full_full_0_native.jpg.json/159/line", 
            "@type": "oa:Annotation", 
            "motivation": "oa:painting", 
            "on": "http://gallica.bnf.fr/iiif/ark:/12148/btv1b90604893/canvas/f27#xywh=2489,1407,84,166", 
            "resource": {
                "@type": "cnt:ContentAsText", 
                "chars": "LE", 
                "format": "text/plain"
            }
        }, 
        {
            "@id": "https://manifests.teklia.com/HIMANIS/FR5271/words_annotations/http_gallica.bnf.fr_iiif_ark:_12148_btv1b90604893_f27_full_full_0_native.jpg.json/160/line", 
            "@type": "oa:Annotation", 
            "motivation": "oa:painting", 
            "on": "http://gallica.bnf.fr/iiif/ark:/12148/btv1b90604893/canvas/f27#xywh=1879,2547,323,156", 
            "resource": {
                "@type": "cnt:ContentAsText", 
                "chars": "AUCUNE", 
                "format": "text/plain"
            }
        }, 
        {
            "@id": "https://manifests.teklia.com/HIMANIS/FR5271/words_annotations/http_gallica.bnf.fr_iiif_ark:_12148_btv1b90604893_f27_full_full_0_native.jpg.json/161/line", 
            "@type": "oa:Annotation", 
            "motivation": "oa:painting", 
            "on": "http://gallica.bnf.fr/iiif/ark:/12148/btv1b90604893/canvas/f27#xywh=2489,1407,84,166", 
            "resource": {
                "@type": "cnt:ContentAsText", 
                "chars": "LI", 
                "format": "text/plain"
            }
        }, 
        {
            "@id": "https://manifests.teklia.com/HIMANIS/FR5271/words_annotations/http_gallica.bnf.fr_iiif_ark:_12148_btv1b90604893_f27_full_full_0_native.jpg.json/162/line", 
            "@type": "oa:Annotation", 
            "motivation": "oa:painting", 
            "on": "http://gallica.bnf.fr/iiif/ark:/12148/btv1b90604893/canvas/f27#xywh=3457,2382,252,191", 
            "resource": {
                "@type": "cnt:ContentAsText", 
                "chars": "XXX", 
                "format": "text/plain"
            }
        }, 
        {
            "@id": "https://manifests.teklia.com/HIMANIS/FR5271/words_annotations/http_gallica.bnf.fr_iiif_ark:_12148_btv1b90604893_f27_full_full_0_native.jpg.json/163/line", 
            "@type": "oa:Annotation", 
            "motivation": "oa:painting", 
            "on": "http://gallica.bnf.fr/iiif/ark:/12148/btv1b90604893/canvas/f27#xywh=3013,1032,160,141", 
            "resource": {
                "@type": "cnt:ContentAsText", 
                "chars": "AIDE", 
                "format": "text/plain"
            }
        }, 
        {
            "@id": "https://manifests.teklia.com/HIMANIS/FR5271/words_annotations/http_gallica.bnf.fr_iiif_ark:_12148_btv1b90604893_f27_full_full_0_native.jpg.json/164/line", 
            "@type": "oa:Annotation", 
            "motivation": "oa:painting", 
            "on": "http://gallica.bnf.fr/iiif/ark:/12148/btv1b90604893/canvas/f27#xywh=521,4641,79,45", 
            "resource": {
                "@type": "cnt:ContentAsText", 
                "chars": "PHILIPPUS", 
                "format": "text/plain"
            }
        }, 
        {
            "@id": "https://manifests.teklia.com/HIMANIS/FR5271/words_annotations/http_gallica.bnf.fr_iiif_ark:_12148_btv1b90604893_f27_full_full_0_native.jpg.json/165/line", 
            "@type": "oa:Annotation", 
            "motivation": "oa:painting", 
            "on": "http://gallica.bnf.fr/iiif/ark:/12148/btv1b90604893/canvas/f27#xywh=521,4641,79,45", 
            "resource": {
                "@type": "cnt:ContentAsText", 
                "chars": "PHILIPPES", 
                "format": "text/plain"
            }
        }, 
        {
            "@id": "https://manifests.teklia.com/HIMANIS/FR5271/words_annotations/http_gallica.bnf.fr_iiif_ark:_12148_btv1b90604893_f27_full_full_0_native.jpg.json/166/line", 
            "@type": "oa:Annotation", 
            "motivation": "oa:painting", 
            "on": "http://gallica.bnf.fr/iiif/ark:/12148/btv1b90604893/canvas/f27#xywh=1430,4376,256,177", 
            "resource": {
                "@type": "cnt:ContentAsText", 
                "chars": "MAURI", 
                "format": "text/plain"
            }
        }, 
        {
            "@id": "https://manifests.teklia.com/HIMANIS/FR5271/words_annotations/http_gallica.bnf.fr_iiif_ark:_12148_btv1b90604893_f27_full_full_0_native.jpg.json/167/line", 
            "@type": "oa:Annotation", 
            "motivation": "oa:painting", 
            "on": "http://gallica.bnf.fr/iiif/ark:/12148/btv1b90604893/canvas/f27#xywh=1469,1882,189,201", 
            "resource": {
                "@type": "cnt:ContentAsText", 
                "chars": "TE", 
                "format": "text/plain"
            }
        }, 
        {
            "@id": "https://manifests.teklia.com/HIMANIS/FR5271/words_annotations/http_gallica.bnf.fr_iiif_ark:_12148_btv1b90604893_f27_full_full_0_native.jpg.json/168/line", 
            "@type": "oa:Annotation", 
            "motivation": "oa:painting", 
            "on": "http://gallica.bnf.fr/iiif/ark:/12148/btv1b90604893/canvas/f27#xywh=460,1519,77,42", 
            "resource": {
                "@type": "cnt:ContentAsText", 
                "chars": "DE", 
                "format": "text/plain"
            }
        }, 
        {
            "@id": "https://manifests.teklia.com/HIMANIS/FR5271/words_annotations/http_gallica.bnf.fr_iiif_ark:_12148_btv1b90604893_f27_full_full_0_native.jpg.json/169/line", 
            "@type": "oa:Annotation", 
            "motivation": "oa:painting", 
            "on": "http://gallica.bnf.fr/iiif/ark:/12148/btv1b90604893/canvas/f27#xywh=1280,692,721,206", 
            "resource": {
                "@type": "cnt:ContentAsText", 
                "chars": "MANDEMENT", 
                "format": "text/plain"
            }
        }
    ]
}