{
    "@context": "http://iiif.io/api/presentation/2/context.json", 
    "@id": "https://manifests.teklia.com/HIMANIS/FR5271/words_annotations/http_gallica.bnf.fr_iiif_ark:_12148_btv1b90604893_f171_full_full_0_native.jpg.json", 
    "@type": "sc:AnnotationList", 
    "resources": [
        {
            "@id": "https://manifests.teklia.com/HIMANIS/FR5271/words_annotations/http_gallica.bnf.fr_iiif_ark:_12148_btv1b90604893_f171_full_full_0_native.jpg.json/0/line", 
            "@type": "oa:Annotation", 
            "motivation": "oa:painting", 
            "on": "http://gallica.bnf.fr/iiif/ark:/12148/btv1b90604893/canvas/f171#xywh=1901,2075,311,103", 
            "resource": {
                "@type": "cnt:ContentAsText", 
                "chars": "CCC", 
                "format": "text/plain"
            }
        }, 
        {
            "@id": "https://manifests.teklia.com/HIMANIS/FR5271/words_annotations/http_gallica.bnf.fr_iiif_ark:_12148_btv1b90604893_f171_full_full_0_native.jpg.json/1/line", 
            "@type": "oa:Annotation", 
            "motivation": "oa:painting", 
            "on": "http://gallica.bnf.fr/iiif/ark:/12148/btv1b90604893/canvas/f171#xywh=465,1678,94,44", 
            "resource": {
                "@type": "cnt:ContentAsText", 
                "chars": "LES", 
                "format": "text/plain"
            }
        }, 
        {
            "@id": "https://manifests.teklia.com/HIMANIS/FR5271/words_annotations/http_gallica.bnf.fr_iiif_ark:_12148_btv1b90604893_f171_full_full_0_native.jpg.json/2/line", 
            "@type": "oa:Annotation", 
            "motivation": "oa:painting", 
            "on": "http://gallica.bnf.fr/iiif/ark:/12148/btv1b90604893/canvas/f171#xywh=465,1678,144,44", 
            "resource": {
                "@type": "cnt:ContentAsText", 
                "chars": "DILEC", 
                "format": "text/plain"
            }
        }, 
        {
            "@id": "https://manifests.teklia.com/HIMANIS/FR5271/words_annotations/http_gallica.bnf.fr_iiif_ark:_12148_btv1b90604893_f171_full_full_0_native.jpg.json/3/line", 
            "@type": "oa:Annotation", 
            "motivation": "oa:painting", 
            "on": "http://gallica.bnf.fr/iiif/ark:/12148/btv1b90604893/canvas/f171#xywh=465,1678,141,44", 
            "resource": {
                "@type": "cnt:ContentAsText", 
                "chars": "LITTER", 
                "format": "text/plain"
            }
        }, 
        {
            "@id": "https://manifests.teklia.com/HIMANIS/FR5271/words_annotations/http_gallica.bnf.fr_iiif_ark:_12148_btv1b90604893_f171_full_full_0_native.jpg.json/4/line", 
            "@type": "oa:Annotation", 
            "motivation": "oa:painting", 
            "on": "http://gallica.bnf.fr/iiif/ark:/12148/btv1b90604893/canvas/f171#xywh=494,2029,137,68", 
            "resource": {
                "@type": "cnt:ContentAsText", 
                "chars": "JE", 
                "format": "text/plain"
            }
        }, 
        {
            "@id": "https://manifests.teklia.com/HIMANIS/FR5271/words_annotations/http_gallica.bnf.fr_iiif_ark:_12148_btv1b90604893_f171_full_full_0_native.jpg.json/5/line", 
            "@type": "oa:Annotation", 
            "motivation": "oa:painting", 
            "on": "http://gallica.bnf.fr/iiif/ark:/12148/btv1b90604893/canvas/f171#xywh=2816,134,1315,244", 
            "resource": {
                "@type": "cnt:ContentAsText", 
                "chars": "POUR", 
                "format": "text/plain"
            }
        }, 
        {
            "@id": "https://manifests.teklia.com/HIMANIS/FR5271/words_annotations/http_gallica.bnf.fr_iiif_ark:_12148_btv1b90604893_f171_full_full_0_native.jpg.json/6/line", 
            "@type": "oa:Annotation", 
            "motivation": "oa:painting", 
            "on": "http://gallica.bnf.fr/iiif/ark:/12148/btv1b90604893/canvas/f171#xywh=465,1678,141,44", 
            "resource": {
                "@type": "cnt:ContentAsText", 
                "chars": "LETTRE", 
                "format": "text/plain"
            }
        }, 
        {
            "@id": "https://manifests.teklia.com/HIMANIS/FR5271/words_annotations/http_gallica.bnf.fr_iiif_ark:_12148_btv1b90604893_f171_full_full_0_native.jpg.json/7/line", 
            "@type": "oa:Annotation", 
            "motivation": "oa:painting", 
            "on": "http://gallica.bnf.fr/iiif/ark:/12148/btv1b90604893/canvas/f171#xywh=384,134,1912,244", 
            "resource": {
                "@type": "cnt:ContentAsText", 
                "chars": "IN", 
                "format": "text/plain"
            }
        }, 
        {
            "@id": "https://manifests.teklia.com/HIMANIS/FR5271/words_annotations/http_gallica.bnf.fr_iiif_ark:_12148_btv1b90604893_f171_full_full_0_native.jpg.json/8/line", 
            "@type": "oa:Annotation", 
            "motivation": "oa:painting", 
            "on": "http://gallica.bnf.fr/iiif/ark:/12148/btv1b90604893/canvas/f171#xywh=501,2205,0,42", 
            "resource": {
                "@type": "cnt:ContentAsText", 
                "chars": "P", 
                "format": "text/plain"
            }
        }, 
        {
            "@id": "https://manifests.teklia.com/HIMANIS/FR5271/words_annotations/http_gallica.bnf.fr_iiif_ark:_12148_btv1b90604893_f171_full_full_0_native.jpg.json/9/line", 
            "@type": "oa:Annotation", 
            "motivation": "oa:painting", 
            "on": "http://gallica.bnf.fr/iiif/ark:/12148/btv1b90604893/canvas/f171#xywh=530,1439,47,45", 
            "resource": {
                "@type": "cnt:ContentAsText", 
                "chars": "PHILIPPES", 
                "format": "text/plain"
            }
        }, 
        {
            "@id": "https://manifests.teklia.com/HIMANIS/FR5271/words_annotations/http_gallica.bnf.fr_iiif_ark:_12148_btv1b90604893_f171_full_full_0_native.jpg.json/10/line", 
            "@type": "oa:Annotation", 
            "motivation": "oa:painting", 
            "on": "http://gallica.bnf.fr/iiif/ark:/12148/btv1b90604893/canvas/f171#xywh=1901,2075,0,103", 
            "resource": {
                "@type": "cnt:ContentAsText", 
                "chars": "G", 
                "format": "text/plain"
            }
        }, 
        {
            "@id": "https://manifests.teklia.com/HIMANIS/FR5271/words_annotations/http_gallica.bnf.fr_iiif_ark:_12148_btv1b90604893_f171_full_full_0_native.jpg.json/11/line", 
            "@type": "oa:Annotation", 
            "motivation": "oa:painting", 
            "on": "http://gallica.bnf.fr/iiif/ark:/12148/btv1b90604893/canvas/f171#xywh=433,1109,137,78", 
            "resource": {
                "@type": "cnt:ContentAsText", 
                "chars": "ET", 
                "format": "text/plain"
            }
        }, 
        {
            "@id": "https://manifests.teklia.com/HIMANIS/FR5271/words_annotations/http_gallica.bnf.fr_iiif_ark:_12148_btv1b90604893_f171_full_full_0_native.jpg.json/12/line", 
            "@type": "oa:Annotation", 
            "motivation": "oa:painting", 
            "on": "http://gallica.bnf.fr/iiif/ark:/12148/btv1b90604893/canvas/f171#xywh=559,1678,47,44", 
            "resource": {
                "@type": "cnt:ContentAsText", 
                "chars": "DE", 
                "format": "text/plain"
            }
        }, 
        {
            "@id": "https://manifests.teklia.com/HIMANIS/FR5271/words_annotations/http_gallica.bnf.fr_iiif_ark:_12148_btv1b90604893_f171_full_full_0_native.jpg.json/13/line", 
            "@type": "oa:Annotation", 
            "motivation": "oa:painting", 
            "on": "http://gallica.bnf.fr/iiif/ark:/12148/btv1b90604893/canvas/f171#xywh=2063,2222,0,109", 
            "resource": {
                "@type": "cnt:ContentAsText", 
                "chars": "G", 
                "format": "text/plain"
            }
        }, 
        {
            "@id": "https://manifests.teklia.com/HIMANIS/FR5271/words_annotations/http_gallica.bnf.fr_iiif_ark:_12148_btv1b90604893_f171_full_full_0_native.jpg.json/14/line", 
            "@type": "oa:Annotation", 
            "motivation": "oa:painting", 
            "on": "http://gallica.bnf.fr/iiif/ark:/12148/btv1b90604893/canvas/f171#xywh=2063,2222,0,109", 
            "resource": {
                "@type": "cnt:ContentAsText", 
                "chars": "J", 
                "format": "text/plain"
            }
        }, 
        {
            "@id": "https://manifests.teklia.com/HIMANIS/FR5271/words_annotations/http_gallica.bnf.fr_iiif_ark:_12148_btv1b90604893_f171_full_full_0_native.jpg.json/15/line", 
            "@type": "oa:Annotation", 
            "motivation": "oa:painting", 
            "on": "http://gallica.bnf.fr/iiif/ark:/12148/btv1b90604893/canvas/f171#xywh=521,4578,0,98", 
            "resource": {
                "@type": "cnt:ContentAsText", 
                "chars": "H", 
                "format": "text/plain"
            }
        }, 
        {
            "@id": "https://manifests.teklia.com/HIMANIS/FR5271/words_annotations/http_gallica.bnf.fr_iiif_ark:_12148_btv1b90604893_f171_full_full_0_native.jpg.json/16/line", 
            "@type": "oa:Annotation", 
            "motivation": "oa:painting", 
            "on": "http://gallica.bnf.fr/iiif/ark:/12148/btv1b90604893/canvas/f171#xywh=521,4578,0,98", 
            "resource": {
                "@type": "cnt:ContentAsText", 
                "chars": "J", 
                "format": "text/plain"
            }
        }, 
        {
            "@id": "https://manifests.teklia.com/HIMANIS/FR5271/words_annotations/http_gallica.bnf.fr_iiif_ark:_12148_btv1b90604893_f171_full_full_0_native.jpg.json/17/line", 
            "@type": "oa:Annotation", 
            "motivation": "oa:painting", 
            "on": "http://gallica.bnf.fr/iiif/ark:/12148/btv1b90604893/canvas/f171#xywh=494,2029,128,68", 
            "resource": {
                "@type": "cnt:ContentAsText", 
                "chars": "EN", 
                "format": "text/plain"
            }
        }, 
        {
            "@id": "https://manifests.teklia.com/HIMANIS/FR5271/words_annotations/http_gallica.bnf.fr_iiif_ark:_12148_btv1b90604893_f171_full_full_0_native.jpg.json/18/line", 
            "@type": "oa:Annotation", 
            "motivation": "oa:painting", 
            "on": "http://gallica.bnf.fr/iiif/ark:/12148/btv1b90604893/canvas/f171#xywh=465,1678,86,44", 
            "resource": {
                "@type": "cnt:ContentAsText", 
                "chars": "LE", 
                "format": "text/plain"
            }
        }, 
        {
            "@id": "https://manifests.teklia.com/HIMANIS/FR5271/words_annotations/http_gallica.bnf.fr_iiif_ark:_12148_btv1b90604893_f171_full_full_0_native.jpg.json/19/line", 
            "@type": "oa:Annotation", 
            "motivation": "oa:painting", 
            "on": "http://gallica.bnf.fr/iiif/ark:/12148/btv1b90604893/canvas/f171#xywh=494,2029,128,68", 
            "resource": {
                "@type": "cnt:ContentAsText", 
                "chars": "ET", 
                "format": "text/plain"
            }
        }, 
        {
            "@id": "https://manifests.teklia.com/HIMANIS/FR5271/words_annotations/http_gallica.bnf.fr_iiif_ark:_12148_btv1b90604893_f171_full_full_0_native.jpg.json/20/line", 
            "@type": "oa:Annotation", 
            "motivation": "oa:painting", 
            "on": "http://gallica.bnf.fr/iiif/ark:/12148/btv1b90604893/canvas/f171#xywh=488,2245,0,67", 
            "resource": {
                "@type": "cnt:ContentAsText", 
                "chars": "J", 
                "format": "text/plain"
            }
        }, 
        {
            "@id": "https://manifests.teklia.com/HIMANIS/FR5271/words_annotations/http_gallica.bnf.fr_iiif_ark:_12148_btv1b90604893_f171_full_full_0_native.jpg.json/21/line", 
            "@type": "oa:Annotation", 
            "motivation": "oa:painting", 
            "on": "http://gallica.bnf.fr/iiif/ark:/12148/btv1b90604893/canvas/f171#xywh=530,1439,53,45", 
            "resource": {
                "@type": "cnt:ContentAsText", 
                "chars": "PHILIPPUS", 
                "format": "text/plain"
            }
        }
    ]
}