{
    "@context": "http://iiif.io/api/presentation/2/context.json", 
    "@id": "https://manifests.teklia.com/HIMANIS/FR5271/words_annotations/http_gallica.bnf.fr_iiif_ark:_12148_btv1b90604893_f241_full_full_0_native.jpg.json", 
    "@type": "sc:AnnotationList", 
    "resources": [
        {
            "@id": "https://manifests.teklia.com/HIMANIS/FR5271/words_annotations/http_gallica.bnf.fr_iiif_ark:_12148_btv1b90604893_f241_full_full_0_native.jpg.json/0/line", 
            "@type": "oa:Annotation", 
            "motivation": "oa:painting", 
            "on": "http://gallica.bnf.fr/iiif/ark:/12148/btv1b90604893/canvas/f241#xywh=578,5123,115,83", 
            "resource": {
                "@type": "cnt:ContentAsText", 
                "chars": "ET", 
                "format": "text/plain"
            }
        }, 
        {
            "@id": "https://manifests.teklia.com/HIMANIS/FR5271/words_annotations/http_gallica.bnf.fr_iiif_ark:_12148_btv1b90604893_f241_full_full_0_native.jpg.json/1/line", 
            "@type": "oa:Annotation", 
            "motivation": "oa:painting", 
            "on": "http://gallica.bnf.fr/iiif/ark:/12148/btv1b90604893/canvas/f241#xywh=520,4089,0,95", 
            "resource": {
                "@type": "cnt:ContentAsText", 
                "chars": "H", 
                "format": "text/plain"
            }
        }, 
        {
            "@id": "https://manifests.teklia.com/HIMANIS/FR5271/words_annotations/http_gallica.bnf.fr_iiif_ark:_12148_btv1b90604893_f241_full_full_0_native.jpg.json/2/line", 
            "@type": "oa:Annotation", 
            "motivation": "oa:painting", 
            "on": "http://gallica.bnf.fr/iiif/ark:/12148/btv1b90604893/canvas/f241#xywh=520,4089,0,95", 
            "resource": {
                "@type": "cnt:ContentAsText", 
                "chars": "J", 
                "format": "text/plain"
            }
        }, 
        {
            "@id": "https://manifests.teklia.com/HIMANIS/FR5271/words_annotations/http_gallica.bnf.fr_iiif_ark:_12148_btv1b90604893_f241_full_full_0_native.jpg.json/3/line", 
            "@type": "oa:Annotation", 
            "motivation": "oa:painting", 
            "on": "http://gallica.bnf.fr/iiif/ark:/12148/btv1b90604893/canvas/f241#xywh=3820,783,0,99", 
            "resource": {
                "@type": "cnt:ContentAsText", 
                "chars": "P", 
                "format": "text/plain"
            }
        }, 
        {
            "@id": "https://manifests.teklia.com/HIMANIS/FR5271/words_annotations/http_gallica.bnf.fr_iiif_ark:_12148_btv1b90604893_f241_full_full_0_native.jpg.json/4/line", 
            "@type": "oa:Annotation", 
            "motivation": "oa:painting", 
            "on": "http://gallica.bnf.fr/iiif/ark:/12148/btv1b90604893/canvas/f241#xywh=578,5123,0,83", 
            "resource": {
                "@type": "cnt:ContentAsText", 
                "chars": "D", 
                "format": "text/plain"
            }
        }, 
        {
            "@id": "https://manifests.teklia.com/HIMANIS/FR5271/words_annotations/http_gallica.bnf.fr_iiif_ark:_12148_btv1b90604893_f241_full_full_0_native.jpg.json/5/line", 
            "@type": "oa:Annotation", 
            "motivation": "oa:painting", 
            "on": "http://gallica.bnf.fr/iiif/ark:/12148/btv1b90604893/canvas/f241#xywh=578,5123,0,83", 
            "resource": {
                "@type": "cnt:ContentAsText", 
                "chars": "J", 
                "format": "text/plain"
            }
        }, 
        {
            "@id": "https://manifests.teklia.com/HIMANIS/FR5271/words_annotations/http_gallica.bnf.fr_iiif_ark:_12148_btv1b90604893_f241_full_full_0_native.jpg.json/6/line", 
            "@type": "oa:Annotation", 
            "motivation": "oa:painting", 
            "on": "http://gallica.bnf.fr/iiif/ark:/12148/btv1b90604893/canvas/f241#xywh=464,1612,51,39", 
            "resource": {
                "@type": "cnt:ContentAsText", 
                "chars": "PHILI", 
                "format": "text/plain"
            }
        }, 
        {
            "@id": "https://manifests.teklia.com/HIMANIS/FR5271/words_annotations/http_gallica.bnf.fr_iiif_ark:_12148_btv1b90604893_f241_full_full_0_native.jpg.json/7/line", 
            "@type": "oa:Annotation", 
            "motivation": "oa:painting", 
            "on": "http://gallica.bnf.fr/iiif/ark:/12148/btv1b90604893/canvas/f241#xywh=1256,167,2838,313", 
            "resource": {
                "@type": "cnt:ContentAsText", 
                "chars": "INDIGNACION", 
                "format": "text/plain"
            }
        }, 
        {
            "@id": "https://manifests.teklia.com/HIMANIS/FR5271/words_annotations/http_gallica.bnf.fr_iiif_ark:_12148_btv1b90604893_f241_full_full_0_native.jpg.json/8/line", 
            "@type": "oa:Annotation", 
            "motivation": "oa:painting", 
            "on": "http://gallica.bnf.fr/iiif/ark:/12148/btv1b90604893/canvas/f241#xywh=1256,167,2838,313", 
            "resource": {
                "@type": "cnt:ContentAsText", 
                "chars": "INDINACION", 
                "format": "text/plain"
            }
        }, 
        {
            "@id": "https://manifests.teklia.com/HIMANIS/FR5271/words_annotations/http_gallica.bnf.fr_iiif_ark:_12148_btv1b90604893_f241_full_full_0_native.jpg.json/9/line", 
            "@type": "oa:Annotation", 
            "motivation": "oa:painting", 
            "on": "http://gallica.bnf.fr/iiif/ark:/12148/btv1b90604893/canvas/f241#xywh=3705,2749,103,82", 
            "resource": {
                "@type": "cnt:ContentAsText", 
                "chars": "ET", 
                "format": "text/plain"
            }
        }
    ]
}