{
    "@context": "http://iiif.io/api/presentation/2/context.json", 
    "@id": "https://manifests.teklia.com/HIMANIS/JJ128/words_annotations/FRAN_0021_13170.json", 
    "@type": "sc:AnnotationList", 
    "resources": [
        {
            "@id": "https://manifests.teklia.com/HIMANIS/JJ128/words_annotations/FRAN_0021_13170.json/0/line", 
            "@type": "oa:Annotation", 
            "motivation": "oa:painting", 
            "on": "http://bvmm.irht.cnrs.fr/iiif/23714/canvas/canvas-2311715#xywh=1017,780,196,148", 
            "resource": {
                "@type": "cnt:ContentAsText", 
                "chars": "REMISSIS", 
                "format": "text/plain"
            }
        }, 
        {
            "@id": "https://manifests.teklia.com/HIMANIS/JJ128/words_annotations/FRAN_0021_13170.json/1/line", 
            "@type": "oa:Annotation", 
            "motivation": "oa:painting", 
            "on": "http://bvmm.irht.cnrs.fr/iiif/23714/canvas/canvas-2311715#xywh=1726,958,42,134", 
            "resource": {
                "@type": "cnt:ContentAsText", 
                "chars": "DE", 
                "format": "text/plain"
            }
        }, 
        {
            "@id": "https://manifests.teklia.com/HIMANIS/JJ128/words_annotations/FRAN_0021_13170.json/2/line", 
            "@type": "oa:Annotation", 
            "motivation": "oa:painting", 
            "on": "http://bvmm.irht.cnrs.fr/iiif/23714/canvas/canvas-2311715#xywh=1843,1107,185,246", 
            "resource": {
                "@type": "cnt:ContentAsText", 
                "chars": "LEUR", 
                "format": "text/plain"
            }
        }, 
        {
            "@id": "https://manifests.teklia.com/HIMANIS/JJ128/words_annotations/FRAN_0021_13170.json/3/line", 
            "@type": "oa:Annotation", 
            "motivation": "oa:painting", 
            "on": "http://bvmm.irht.cnrs.fr/iiif/23714/canvas/canvas-2311715#xywh=1565,855,221,168", 
            "resource": {
                "@type": "cnt:ContentAsText", 
                "chars": "THEOBALDI", 
                "format": "text/plain"
            }
        }, 
        {
            "@id": "https://manifests.teklia.com/HIMANIS/JJ128/words_annotations/FRAN_0021_13170.json/4/line", 
            "@type": "oa:Annotation", 
            "motivation": "oa:painting", 
            "on": "http://bvmm.irht.cnrs.fr/iiif/23714/canvas/canvas-2311715#xywh=1357,1824,112,162", 
            "resource": {
                "@type": "cnt:ContentAsText", 
                "chars": "JOHANNE", 
                "format": "text/plain"
            }
        }, 
        {
            "@id": "https://manifests.teklia.com/HIMANIS/JJ128/words_annotations/FRAN_0021_13170.json/5/line", 
            "@type": "oa:Annotation", 
            "motivation": "oa:painting", 
            "on": "http://bvmm.irht.cnrs.fr/iiif/23714/canvas/canvas-2311715#xywh=1529,780,149,148", 
            "resource": {
                "@type": "cnt:ContentAsText", 
                "chars": "MALET", 
                "format": "text/plain"
            }
        }, 
        {
            "@id": "https://manifests.teklia.com/HIMANIS/JJ128/words_annotations/FRAN_0021_13170.json/6/line", 
            "@type": "oa:Annotation", 
            "motivation": "oa:painting", 
            "on": "http://bvmm.irht.cnrs.fr/iiif/23714/canvas/canvas-2311715#xywh=1025,1746,205,126", 
            "resource": {
                "@type": "cnt:ContentAsText", 
                "chars": "REMISSIO", 
                "format": "text/plain"
            }
        }, 
        {
            "@id": "https://manifests.teklia.com/HIMANIS/JJ128/words_annotations/FRAN_0021_13170.json/7/line", 
            "@type": "oa:Annotation", 
            "motivation": "oa:painting", 
            "on": "http://bvmm.irht.cnrs.fr/iiif/23714/canvas/canvas-2311715#xywh=1642,1624,146,179", 
            "resource": {
                "@type": "cnt:ContentAsText", 
                "chars": "FONTE", 
                "format": "text/plain"
            }
        }, 
        {
            "@id": "https://manifests.teklia.com/HIMANIS/JJ128/words_annotations/FRAN_0021_13170.json/8/line", 
            "@type": "oa:Annotation", 
            "motivation": "oa:painting", 
            "on": "http://bvmm.irht.cnrs.fr/iiif/23714/canvas/canvas-2311715#xywh=1357,1746,95,126", 
            "resource": {
                "@type": "cnt:ContentAsText", 
                "chars": "JOHANNE", 
                "format": "text/plain"
            }
        }, 
        {
            "@id": "https://manifests.teklia.com/HIMANIS/JJ128/words_annotations/FRAN_0021_13170.json/9/line", 
            "@type": "oa:Annotation", 
            "motivation": "oa:painting", 
            "on": "http://bvmm.irht.cnrs.fr/iiif/23714/canvas/canvas-2311715#xywh=1843,1107,62,246", 
            "resource": {
                "@type": "cnt:ContentAsText", 
                "chars": "DE", 
                "format": "text/plain"
            }
        }, 
        {
            "@id": "https://manifests.teklia.com/HIMANIS/JJ128/words_annotations/FRAN_0021_13170.json/10/line", 
            "@type": "oa:Annotation", 
            "motivation": "oa:painting", 
            "on": "http://bvmm.irht.cnrs.fr/iiif/23714/canvas/canvas-2311715#xywh=2212,1107,231,246", 
            "resource": {
                "@type": "cnt:ContentAsText", 
                "chars": "BARONSOIT", 
                "format": "text/plain"
            }
        }, 
        {
            "@id": "https://manifests.teklia.com/HIMANIS/JJ128/words_annotations/FRAN_0021_13170.json/11/line", 
            "@type": "oa:Annotation", 
            "motivation": "oa:painting", 
            "on": "http://bvmm.irht.cnrs.fr/iiif/23714/canvas/canvas-2311715#xywh=598,1624,247,179", 
            "resource": {
                "@type": "cnt:ContentAsText", 
                "chars": "JURI", 
                "format": "text/plain"
            }
        }, 
        {
            "@id": "https://manifests.teklia.com/HIMANIS/JJ128/words_annotations/FRAN_0021_13170.json/12/line", 
            "@type": "oa:Annotation", 
            "motivation": "oa:painting", 
            "on": "http://bvmm.irht.cnrs.fr/iiif/23714/canvas/canvas-2311715#xywh=690,1107,169,246", 
            "resource": {
                "@type": "cnt:ContentAsText", 
                "chars": "IPSOS", 
                "format": "text/plain"
            }
        }, 
        {
            "@id": "https://manifests.teklia.com/HIMANIS/JJ128/words_annotations/FRAN_0021_13170.json/13/line", 
            "@type": "oa:Annotation", 
            "motivation": "oa:painting", 
            "on": "http://bvmm.irht.cnrs.fr/iiif/23714/canvas/canvas-2311715#xywh=1516,958,177,134", 
            "resource": {
                "@type": "cnt:ContentAsText", 
                "chars": "JAQUETO", 
                "format": "text/plain"
            }
        }, 
        {
            "@id": "https://manifests.teklia.com/HIMANIS/JJ128/words_annotations/FRAN_0021_13170.json/14/line", 
            "@type": "oa:Annotation", 
            "motivation": "oa:painting", 
            "on": "http://bvmm.irht.cnrs.fr/iiif/23714/canvas/canvas-2311715#xywh=481,608,403,215", 
            "resource": {
                "@type": "cnt:ContentAsText", 
                "chars": "NOSTRI", 
                "format": "text/plain"
            }
        }, 
        {
            "@id": "https://manifests.teklia.com/HIMANIS/JJ128/words_annotations/FRAN_0021_13170.json/15/line", 
            "@type": "oa:Annotation", 
            "motivation": "oa:painting", 
            "on": "http://bvmm.irht.cnrs.fr/iiif/23714/canvas/canvas-2311715#xywh=2156,958,143,134", 
            "resource": {
                "@type": "cnt:ContentAsText", 
                "chars": "UXORE", 
                "format": "text/plain"
            }
        }, 
        {
            "@id": "https://manifests.teklia.com/HIMANIS/JJ128/words_annotations/FRAN_0021_13170.json/16/line", 
            "@type": "oa:Annotation", 
            "motivation": "oa:painting", 
            "on": "http://bvmm.irht.cnrs.fr/iiif/23714/canvas/canvas-2311715#xywh=1359,1282,255,156", 
            "resource": {
                "@type": "cnt:ContentAsText", 
                "chars": "REGNANDO", 
                "format": "text/plain"
            }
        }, 
        {
            "@id": "https://manifests.teklia.com/HIMANIS/JJ128/words_annotations/FRAN_0021_13170.json/17/line", 
            "@type": "oa:Annotation", 
            "motivation": "oa:painting", 
            "on": "http://bvmm.irht.cnrs.fr/iiif/23714/canvas/canvas-2311715#xywh=1253,1570,88,128", 
            "resource": {
                "@type": "cnt:ContentAsText", 
                "chars": "PRO", 
                "format": "text/plain"
            }
        }, 
        {
            "@id": "https://manifests.teklia.com/HIMANIS/JJ128/words_annotations/FRAN_0021_13170.json/18/line", 
            "@type": "oa:Annotation", 
            "motivation": "oa:painting", 
            "on": "http://bvmm.irht.cnrs.fr/iiif/23714/canvas/canvas-2311715#xywh=1357,1824,122,162", 
            "resource": {
                "@type": "cnt:ContentAsText", 
                "chars": "JOHANNES", 
                "format": "text/plain"
            }
        }, 
        {
            "@id": "https://manifests.teklia.com/HIMANIS/JJ128/words_annotations/FRAN_0021_13170.json/19/line", 
            "@type": "oa:Annotation", 
            "motivation": "oa:painting", 
            "on": "http://bvmm.irht.cnrs.fr/iiif/23714/canvas/canvas-2311715#xywh=481,608,403,215", 
            "resource": {
                "@type": "cnt:ContentAsText", 
                "chars": "SI", 
                "format": "text/plain"
            }
        }, 
        {
            "@id": "https://manifests.teklia.com/HIMANIS/JJ128/words_annotations/FRAN_0021_13170.json/20/line", 
            "@type": "oa:Annotation", 
            "motivation": "oa:painting", 
            "on": "http://bvmm.irht.cnrs.fr/iiif/23714/canvas/canvas-2311715#xywh=1541,1361,156,156", 
            "resource": {
                "@type": "cnt:ContentAsText", 
                "chars": "THON", 
                "format": "text/plain"
            }
        }, 
        {
            "@id": "https://manifests.teklia.com/HIMANIS/JJ128/words_annotations/FRAN_0021_13170.json/21/line", 
            "@type": "oa:Annotation", 
            "motivation": "oa:painting", 
            "on": "http://bvmm.irht.cnrs.fr/iiif/23714/canvas/canvas-2311715#xywh=1541,1361,137,156", 
            "resource": {
                "@type": "cnt:ContentAsText", 
                "chars": "THOU", 
                "format": "text/plain"
            }
        }, 
        {
            "@id": "https://manifests.teklia.com/HIMANIS/JJ128/words_annotations/FRAN_0021_13170.json/22/line", 
            "@type": "oa:Annotation", 
            "motivation": "oa:painting", 
            "on": "http://bvmm.irht.cnrs.fr/iiif/23714/canvas/canvas-2311715#xywh=708,1361,529,156", 
            "resource": {
                "@type": "cnt:ContentAsText", 
                "chars": "REMISSIO", 
                "format": "text/plain"
            }
        }, 
        {
            "@id": "https://manifests.teklia.com/HIMANIS/JJ128/words_annotations/FRAN_0021_13170.json/23/line", 
            "@type": "oa:Annotation", 
            "motivation": "oa:painting", 
            "on": "http://bvmm.irht.cnrs.fr/iiif/23714/canvas/canvas-2311715#xywh=1981,1361,98,156", 
            "resource": {
                "@type": "cnt:ContentAsText", 
                "chars": "PRE", 
                "format": "text/plain"
            }
        }, 
        {
            "@id": "https://manifests.teklia.com/HIMANIS/JJ128/words_annotations/FRAN_0021_13170.json/24/line", 
            "@type": "oa:Annotation", 
            "motivation": "oa:painting", 
            "on": "http://bvmm.irht.cnrs.fr/iiif/23714/canvas/canvas-2311715#xywh=736,1824,143,162", 
            "resource": {
                "@type": "cnt:ContentAsText", 
                "chars": "IPSOS", 
                "format": "text/plain"
            }
        }, 
        {
            "@id": "https://manifests.teklia.com/HIMANIS/JJ128/words_annotations/FRAN_0021_13170.json/25/line", 
            "@type": "oa:Annotation", 
            "motivation": "oa:painting", 
            "on": "http://bvmm.irht.cnrs.fr/iiif/23714/canvas/canvas-2311715#xywh=136,1107,262,246", 
            "resource": {
                "@type": "cnt:ContentAsText", 
                "chars": "PHILIPPUS", 
                "format": "text/plain"
            }
        }, 
        {
            "@id": "https://manifests.teklia.com/HIMANIS/JJ128/words_annotations/FRAN_0021_13170.json/26/line", 
            "@type": "oa:Annotation", 
            "motivation": "oa:painting", 
            "on": "http://bvmm.irht.cnrs.fr/iiif/23714/canvas/canvas-2311715#xywh=136,1107,262,246", 
            "resource": {
                "@type": "cnt:ContentAsText", 
                "chars": "PHILIPPES", 
                "format": "text/plain"
            }
        }, 
        {
            "@id": "https://manifests.teklia.com/HIMANIS/JJ128/words_annotations/FRAN_0021_13170.json/27/line", 
            "@type": "oa:Annotation", 
            "motivation": "oa:painting", 
            "on": "http://bvmm.irht.cnrs.fr/iiif/23714/canvas/canvas-2311715#xywh=1266,1361,79,156", 
            "resource": {
                "@type": "cnt:ContentAsText", 
                "chars": "PRO", 
                "format": "text/plain"
            }
        }, 
        {
            "@id": "https://manifests.teklia.com/HIMANIS/JJ128/words_annotations/FRAN_0021_13170.json/28/line", 
            "@type": "oa:Annotation", 
            "motivation": "oa:painting", 
            "on": "http://bvmm.irht.cnrs.fr/iiif/23714/canvas/canvas-2311715#xywh=2566,1107,215,246", 
            "resource": {
                "@type": "cnt:ContentAsText", 
                "chars": "PLURIUM", 
                "format": "text/plain"
            }
        }, 
        {
            "@id": "https://manifests.teklia.com/HIMANIS/JJ128/words_annotations/FRAN_0021_13170.json/29/line", 
            "@type": "oa:Annotation", 
            "motivation": "oa:painting", 
            "on": "http://bvmm.irht.cnrs.fr/iiif/23714/canvas/canvas-2311715#xywh=1021,1824,316,162", 
            "resource": {
                "@type": "cnt:ContentAsText", 
                "chars": "REMISSIORO", 
                "format": "text/plain"
            }
        }, 
        {
            "@id": "https://manifests.teklia.com/HIMANIS/JJ128/words_annotations/FRAN_0021_13170.json/30/line", 
            "@type": "oa:Annotation", 
            "motivation": "oa:painting", 
            "on": "http://bvmm.irht.cnrs.fr/iiif/23714/canvas/canvas-2311715#xywh=2029,958,101,134", 
            "resource": {
                "@type": "cnt:ContentAsText", 
                "chars": "EJUS", 
                "format": "text/plain"
            }
        }, 
        {
            "@id": "https://manifests.teklia.com/HIMANIS/JJ128/words_annotations/FRAN_0021_13170.json/31/line", 
            "@type": "oa:Annotation", 
            "motivation": "oa:painting", 
            "on": "http://bvmm.irht.cnrs.fr/iiif/23714/canvas/canvas-2311715#xywh=481,608,403,215", 
            "resource": {
                "@type": "cnt:ContentAsText", 
                "chars": "POSSI", 
                "format": "text/plain"
            }
        }, 
        {
            "@id": "https://manifests.teklia.com/HIMANIS/JJ128/words_annotations/FRAN_0021_13170.json/32/line", 
            "@type": "oa:Annotation", 
            "motivation": "oa:painting", 
            "on": "http://bvmm.irht.cnrs.fr/iiif/23714/canvas/canvas-2311715#xywh=598,1624,314,179", 
            "resource": {
                "@type": "cnt:ContentAsText", 
                "chars": "JURII", 
                "format": "text/plain"
            }
        }, 
        {
            "@id": "https://manifests.teklia.com/HIMANIS/JJ128/words_annotations/FRAN_0021_13170.json/33/line", 
            "@type": "oa:Annotation", 
            "motivation": "oa:painting", 
            "on": "http://bvmm.irht.cnrs.fr/iiif/23714/canvas/canvas-2311715#xywh=690,1107,661,246", 
            "resource": {
                "@type": "cnt:ContentAsText", 
                "chars": "CONTENARIOS", 
                "format": "text/plain"
            }
        }, 
        {
            "@id": "https://manifests.teklia.com/HIMANIS/JJ128/words_annotations/FRAN_0021_13170.json/34/line", 
            "@type": "oa:Annotation", 
            "motivation": "oa:painting", 
            "on": "http://bvmm.irht.cnrs.fr/iiif/23714/canvas/canvas-2311715#xywh=1794,958,160,134", 
            "resource": {
                "@type": "cnt:ContentAsText", 
                "chars": "GRAVA", 
                "format": "text/plain"
            }
        }, 
        {
            "@id": "https://manifests.teklia.com/HIMANIS/JJ128/words_annotations/FRAN_0021_13170.json/35/line", 
            "@type": "oa:Annotation", 
            "motivation": "oa:painting", 
            "on": "http://bvmm.irht.cnrs.fr/iiif/23714/canvas/canvas-2311715#xywh=798,1045,426,133", 
            "resource": {
                "@type": "cnt:ContentAsText", 
                "chars": "REMISSIO", 
                "format": "text/plain"
            }
        }, 
        {
            "@id": "https://manifests.teklia.com/HIMANIS/JJ128/words_annotations/FRAN_0021_13170.json/36/line", 
            "@type": "oa:Annotation", 
            "motivation": "oa:painting", 
            "on": "http://bvmm.irht.cnrs.fr/iiif/23714/canvas/canvas-2311715#xywh=2032,4592,568,146", 
            "resource": {
                "@type": "cnt:ContentAsText", 
                "chars": "DUXERUNT", 
                "format": "text/plain"
            }
        }, 
        {
            "@id": "https://manifests.teklia.com/HIMANIS/JJ128/words_annotations/FRAN_0021_13170.json/37/line", 
            "@type": "oa:Annotation", 
            "motivation": "oa:painting", 
            "on": "http://bvmm.irht.cnrs.fr/iiif/23714/canvas/canvas-2311715#xywh=699,1570,192,128", 
            "resource": {
                "@type": "cnt:ContentAsText", 
                "chars": "PONI", 
                "format": "text/plain"
            }
        }, 
        {
            "@id": "https://manifests.teklia.com/HIMANIS/JJ128/words_annotations/FRAN_0021_13170.json/38/line", 
            "@type": "oa:Annotation", 
            "motivation": "oa:painting", 
            "on": "http://bvmm.irht.cnrs.fr/iiif/23714/canvas/canvas-2311715#xywh=1829,855,42,168", 
            "resource": {
                "@type": "cnt:ContentAsText", 
                "chars": "AL", 
                "format": "text/plain"
            }
        }, 
        {
            "@id": "https://manifests.teklia.com/HIMANIS/JJ128/words_annotations/FRAN_0021_13170.json/39/line", 
            "@type": "oa:Annotation", 
            "motivation": "oa:painting", 
            "on": "http://bvmm.irht.cnrs.fr/iiif/23714/canvas/canvas-2311715#xywh=148,1624,214,179", 
            "resource": {
                "@type": "cnt:ContentAsText", 
                "chars": "PHILIPPES", 
                "format": "text/plain"
            }
        }, 
        {
            "@id": "https://manifests.teklia.com/HIMANIS/JJ128/words_annotations/FRAN_0021_13170.json/40/line", 
            "@type": "oa:Annotation", 
            "motivation": "oa:painting", 
            "on": "http://bvmm.irht.cnrs.fr/iiif/23714/canvas/canvas-2311715#xywh=1382,1107,277,246", 
            "resource": {
                "@type": "cnt:ContentAsText", 
                "chars": "REMISSIONE", 
                "format": "text/plain"
            }
        }, 
        {
            "@id": "https://manifests.teklia.com/HIMANIS/JJ128/words_annotations/FRAN_0021_13170.json/41/line", 
            "@type": "oa:Annotation", 
            "motivation": "oa:painting", 
            "on": "http://bvmm.irht.cnrs.fr/iiif/23714/canvas/canvas-2311715#xywh=798,1045,66,133", 
            "resource": {
                "@type": "cnt:ContentAsText", 
                "chars": "UN", 
                "format": "text/plain"
            }
        }, 
        {
            "@id": "https://manifests.teklia.com/HIMANIS/JJ128/words_annotations/FRAN_0021_13170.json/42/line", 
            "@type": "oa:Annotation", 
            "motivation": "oa:painting", 
            "on": "http://bvmm.irht.cnrs.fr/iiif/23714/canvas/canvas-2311715#xywh=271,1045,151,133", 
            "resource": {
                "@type": "cnt:ContentAsText", 
                "chars": "PHILIPPES", 
                "format": "text/plain"
            }
        }, 
        {
            "@id": "https://manifests.teklia.com/HIMANIS/JJ128/words_annotations/FRAN_0021_13170.json/43/line", 
            "@type": "oa:Annotation", 
            "motivation": "oa:painting", 
            "on": "http://bvmm.irht.cnrs.fr/iiif/23714/canvas/canvas-2311715#xywh=722,1045,34,133", 
            "resource": {
                "@type": "cnt:ContentAsText", 
                "chars": "IN", 
                "format": "text/plain"
            }
        }, 
        {
            "@id": "https://manifests.teklia.com/HIMANIS/JJ128/words_annotations/FRAN_0021_13170.json/44/line", 
            "@type": "oa:Annotation", 
            "motivation": "oa:painting", 
            "on": "http://bvmm.irht.cnrs.fr/iiif/23714/canvas/canvas-2311715#xywh=798,1045,66,133", 
            "resource": {
                "@type": "cnt:ContentAsText", 
                "chars": "EN", 
                "format": "text/plain"
            }
        }, 
        {
            "@id": "https://manifests.teklia.com/HIMANIS/JJ128/words_annotations/FRAN_0021_13170.json/45/line", 
            "@type": "oa:Annotation", 
            "motivation": "oa:painting", 
            "on": "http://bvmm.irht.cnrs.fr/iiif/23714/canvas/canvas-2311715#xywh=3786,930,106,83", 
            "resource": {
                "@type": "cnt:ContentAsText", 
                "chars": "ET", 
                "format": "text/plain"
            }
        }, 
        {
            "@id": "https://manifests.teklia.com/HIMANIS/JJ128/words_annotations/FRAN_0021_13170.json/46/line", 
            "@type": "oa:Annotation", 
            "motivation": "oa:painting", 
            "on": "http://bvmm.irht.cnrs.fr/iiif/23714/canvas/canvas-2311715#xywh=622,1045,59,133", 
            "resource": {
                "@type": "cnt:ContentAsText", 
                "chars": "ET", 
                "format": "text/plain"
            }
        }, 
        {
            "@id": "https://manifests.teklia.com/HIMANIS/JJ128/words_annotations/FRAN_0021_13170.json/47/line", 
            "@type": "oa:Annotation", 
            "motivation": "oa:painting", 
            "on": "http://bvmm.irht.cnrs.fr/iiif/23714/canvas/canvas-2311715#xywh=700,1746,182,126", 
            "resource": {
                "@type": "cnt:ContentAsText", 
                "chars": "NOSTRIS", 
                "format": "text/plain"
            }
        }, 
        {
            "@id": "https://manifests.teklia.com/HIMANIS/JJ128/words_annotations/FRAN_0021_13170.json/48/line", 
            "@type": "oa:Annotation", 
            "motivation": "oa:painting", 
            "on": "http://bvmm.irht.cnrs.fr/iiif/23714/canvas/canvas-2311715#xywh=1343,780,158,148", 
            "resource": {
                "@type": "cnt:ContentAsText", 
                "chars": "ROBERTO", 
                "format": "text/plain"
            }
        }, 
        {
            "@id": "https://manifests.teklia.com/HIMANIS/JJ128/words_annotations/FRAN_0021_13170.json/49/line", 
            "@type": "oa:Annotation", 
            "motivation": "oa:painting", 
            "on": "http://bvmm.irht.cnrs.fr/iiif/23714/canvas/canvas-2311715#xywh=1611,1824,41,162", 
            "resource": {
                "@type": "cnt:ContentAsText", 
                "chars": "DE", 
                "format": "text/plain"
            }
        }, 
        {
            "@id": "https://manifests.teklia.com/HIMANIS/JJ128/words_annotations/FRAN_0021_13170.json/50/line", 
            "@type": "oa:Annotation", 
            "motivation": "oa:painting", 
            "on": "http://bvmm.irht.cnrs.fr/iiif/23714/canvas/canvas-2311715#xywh=1249,1624,67,179", 
            "resource": {
                "@type": "cnt:ContentAsText", 
                "chars": "PRO", 
                "format": "text/plain"
            }
        }, 
        {
            "@id": "https://manifests.teklia.com/HIMANIS/JJ128/words_annotations/FRAN_0021_13170.json/51/line", 
            "@type": "oa:Annotation", 
            "motivation": "oa:painting", 
            "on": "http://bvmm.irht.cnrs.fr/iiif/23714/canvas/canvas-2311715#xywh=1357,1570,88,128", 
            "resource": {
                "@type": "cnt:ContentAsText", 
                "chars": "JOHANNE", 
                "format": "text/plain"
            }
        }, 
        {
            "@id": "https://manifests.teklia.com/HIMANIS/JJ128/words_annotations/FRAN_0021_13170.json/52/line", 
            "@type": "oa:Annotation", 
            "motivation": "oa:painting", 
            "on": "http://bvmm.irht.cnrs.fr/iiif/23714/canvas/canvas-2311715#xywh=1979,958,25,134", 
            "resource": {
                "@type": "cnt:ContentAsText", 
                "chars": "ET", 
                "format": "text/plain"
            }
        }, 
        {
            "@id": "https://manifests.teklia.com/HIMANIS/JJ128/words_annotations/FRAN_0021_13170.json/53/line", 
            "@type": "oa:Annotation", 
            "motivation": "oa:painting", 
            "on": "http://bvmm.irht.cnrs.fr/iiif/23714/canvas/canvas-2311715#xywh=1251,1282,88,156", 
            "resource": {
                "@type": "cnt:ContentAsText", 
                "chars": "PRO", 
                "format": "text/plain"
            }
        }, 
        {
            "@id": "https://manifests.teklia.com/HIMANIS/JJ128/words_annotations/FRAN_0021_13170.json/54/line", 
            "@type": "oa:Annotation", 
            "motivation": "oa:painting", 
            "on": "http://bvmm.irht.cnrs.fr/iiif/23714/canvas/canvas-2311715#xywh=1349,1479,88,127", 
            "resource": {
                "@type": "cnt:ContentAsText", 
                "chars": "JOHANNE", 
                "format": "text/plain"
            }
        }, 
        {
            "@id": "https://manifests.teklia.com/HIMANIS/JJ128/words_annotations/FRAN_0021_13170.json/55/line", 
            "@type": "oa:Annotation", 
            "motivation": "oa:painting", 
            "on": "http://bvmm.irht.cnrs.fr/iiif/23714/canvas/canvas-2311715#xywh=2474,1107,61,246", 
            "resource": {
                "@type": "cnt:ContentAsText", 
                "chars": "AC", 
                "format": "text/plain"
            }
        }, 
        {
            "@id": "https://manifests.teklia.com/HIMANIS/JJ128/words_annotations/FRAN_0021_13170.json/56/line", 
            "@type": "oa:Annotation", 
            "motivation": "oa:painting", 
            "on": "http://bvmm.irht.cnrs.fr/iiif/23714/canvas/canvas-2311715#xywh=1355,1361,107,156", 
            "resource": {
                "@type": "cnt:ContentAsText", 
                "chars": "JOHANNE", 
                "format": "text/plain"
            }
        }, 
        {
            "@id": "https://manifests.teklia.com/HIMANIS/JJ128/words_annotations/FRAN_0021_13170.json/57/line", 
            "@type": "oa:Annotation", 
            "motivation": "oa:painting", 
            "on": "http://bvmm.irht.cnrs.fr/iiif/23714/canvas/canvas-2311715#xywh=1016,855,222,168", 
            "resource": {
                "@type": "cnt:ContentAsText", 
                "chars": "REMISSIS", 
                "format": "text/plain"
            }
        }, 
        {
            "@id": "https://manifests.teklia.com/HIMANIS/JJ128/words_annotations/FRAN_0021_13170.json/58/line", 
            "@type": "oa:Annotation", 
            "motivation": "oa:painting", 
            "on": "http://bvmm.irht.cnrs.fr/iiif/23714/canvas/canvas-2311715#xywh=582,1107,93,246", 
            "resource": {
                "@type": "cnt:ContentAsText", 
                "chars": "ET", 
                "format": "text/plain"
            }
        }, 
        {
            "@id": "https://manifests.teklia.com/HIMANIS/JJ128/words_annotations/FRAN_0021_13170.json/59/line", 
            "@type": "oa:Annotation", 
            "motivation": "oa:painting", 
            "on": "http://bvmm.irht.cnrs.fr/iiif/23714/canvas/canvas-2311715#xywh=691,958,134,134", 
            "resource": {
                "@type": "cnt:ContentAsText", 
                "chars": "MONS", 
                "format": "text/plain"
            }
        }, 
        {
            "@id": "https://manifests.teklia.com/HIMANIS/JJ128/words_annotations/FRAN_0021_13170.json/60/line", 
            "@type": "oa:Annotation", 
            "motivation": "oa:painting", 
            "on": "http://bvmm.irht.cnrs.fr/iiif/23714/canvas/canvas-2311715#xywh=1892,855,295,168", 
            "resource": {
                "@type": "cnt:ContentAsText", 
                "chars": "BLASTENCOURT", 
                "format": "text/plain"
            }
        }, 
        {
            "@id": "https://manifests.teklia.com/HIMANIS/JJ128/words_annotations/FRAN_0021_13170.json/61/line", 
            "@type": "oa:Annotation", 
            "motivation": "oa:painting", 
            "on": "http://bvmm.irht.cnrs.fr/iiif/23714/canvas/canvas-2311715#xywh=1483,1746,158,126", 
            "resource": {
                "@type": "cnt:ContentAsText", 
                "chars": "PELLART", 
                "format": "text/plain"
            }
        }, 
        {
            "@id": "https://manifests.teklia.com/HIMANIS/JJ128/words_annotations/FRAN_0021_13170.json/62/line", 
            "@type": "oa:Annotation", 
            "motivation": "oa:painting", 
            "on": "http://bvmm.irht.cnrs.fr/iiif/23714/canvas/canvas-2311715#xywh=1514,608,40,215", 
            "resource": {
                "@type": "cnt:ContentAsText", 
                "chars": "LA", 
                "format": "text/plain"
            }
        }, 
        {
            "@id": "https://manifests.teklia.com/HIMANIS/JJ128/words_annotations/FRAN_0021_13170.json/63/line", 
            "@type": "oa:Annotation", 
            "motivation": "oa:painting", 
            "on": "http://bvmm.irht.cnrs.fr/iiif/23714/canvas/canvas-2311715#xywh=690,1107,184,246", 
            "resource": {
                "@type": "cnt:ContentAsText", 
                "chars": "APPONI", 
                "format": "text/plain"
            }
        }, 
        {
            "@id": "https://manifests.teklia.com/HIMANIS/JJ128/words_annotations/FRAN_0021_13170.json/64/line", 
            "@type": "oa:Annotation", 
            "motivation": "oa:painting", 
            "on": "http://bvmm.irht.cnrs.fr/iiif/23714/canvas/canvas-2311715#xywh=1474,608,27,215", 
            "resource": {
                "@type": "cnt:ContentAsText", 
                "chars": "DE", 
                "format": "text/plain"
            }
        }, 
        {
            "@id": "https://manifests.teklia.com/HIMANIS/JJ128/words_annotations/FRAN_0021_13170.json/65/line", 
            "@type": "oa:Annotation", 
            "motivation": "oa:painting", 
            "on": "http://bvmm.irht.cnrs.fr/iiif/23714/canvas/canvas-2311715#xywh=435,4592,2165,146", 
            "resource": {
                "@type": "cnt:ContentAsText", 
                "chars": "LLENIENDUXERUNT", 
                "format": "text/plain"
            }
        }, 
        {
            "@id": "https://manifests.teklia.com/HIMANIS/JJ128/words_annotations/FRAN_0021_13170.json/66/line", 
            "@type": "oa:Annotation", 
            "motivation": "oa:painting", 
            "on": "http://bvmm.irht.cnrs.fr/iiif/23714/canvas/canvas-2311715#xywh=700,1746,87,126", 
            "resource": {
                "@type": "cnt:ContentAsText", 
                "chars": "NOSTRO", 
                "format": "text/plain"
            }
        }, 
        {
            "@id": "https://manifests.teklia.com/HIMANIS/JJ128/words_annotations/FRAN_0021_13170.json/67/line", 
            "@type": "oa:Annotation", 
            "motivation": "oa:painting", 
            "on": "http://bvmm.irht.cnrs.fr/iiif/23714/canvas/canvas-2311715#xywh=1581,608,188,215", 
            "resource": {
                "@type": "cnt:ContentAsText", 
                "chars": "VENDERIE", 
                "format": "text/plain"
            }
        }, 
        {
            "@id": "https://manifests.teklia.com/HIMANIS/JJ128/words_annotations/FRAN_0021_13170.json/68/line", 
            "@type": "oa:Annotation", 
            "motivation": "oa:painting", 
            "on": "http://bvmm.irht.cnrs.fr/iiif/23714/canvas/canvas-2311715#xywh=1339,1624,213,179", 
            "resource": {
                "@type": "cnt:ContentAsText", 
                "chars": "LAURENCIO", 
                "format": "text/plain"
            }
        }, 
        {
            "@id": "https://manifests.teklia.com/HIMANIS/JJ128/words_annotations/FRAN_0021_13170.json/69/line", 
            "@type": "oa:Annotation", 
            "motivation": "oa:painting", 
            "on": "http://bvmm.irht.cnrs.fr/iiif/23714/canvas/canvas-2311715#xywh=1843,1107,92,246", 
            "resource": {
                "@type": "cnt:ContentAsText", 
                "chars": "SUR", 
                "format": "text/plain"
            }
        }, 
        {
            "@id": "https://manifests.teklia.com/HIMANIS/JJ128/words_annotations/FRAN_0021_13170.json/70/line", 
            "@type": "oa:Annotation", 
            "motivation": "oa:painting", 
            "on": "http://bvmm.irht.cnrs.fr/iiif/23714/canvas/canvas-2311715#xywh=690,1107,661,246", 
            "resource": {
                "@type": "cnt:ContentAsText", 
                "chars": "COMPENARIOS", 
                "format": "text/plain"
            }
        }, 
        {
            "@id": "https://manifests.teklia.com/HIMANIS/JJ128/words_annotations/FRAN_0021_13170.json/71/line", 
            "@type": "oa:Annotation", 
            "motivation": "oa:painting", 
            "on": "http://bvmm.irht.cnrs.fr/iiif/23714/canvas/canvas-2311715#xywh=624,1282,59,156", 
            "resource": {
                "@type": "cnt:ContentAsText", 
                "chars": "ETC", 
                "format": "text/plain"
            }
        }, 
        {
            "@id": "https://manifests.teklia.com/HIMANIS/JJ128/words_annotations/FRAN_0021_13170.json/72/line", 
            "@type": "oa:Annotation", 
            "motivation": "oa:painting", 
            "on": "http://bvmm.irht.cnrs.fr/iiif/23714/canvas/canvas-2311715#xywh=708,1361,128,156", 
            "resource": {
                "@type": "cnt:ContentAsText", 
                "chars": "JUS", 
                "format": "text/plain"
            }
        }, 
        {
            "@id": "https://manifests.teklia.com/HIMANIS/JJ128/words_annotations/FRAN_0021_13170.json/73/line", 
            "@type": "oa:Annotation", 
            "motivation": "oa:painting", 
            "on": "http://bvmm.irht.cnrs.fr/iiif/23714/canvas/canvas-2311715#xywh=1888,1282,157,156", 
            "resource": {
                "@type": "cnt:ContentAsText", 
                "chars": "BUXERIE", 
                "format": "text/plain"
            }
        }, 
        {
            "@id": "https://manifests.teklia.com/HIMANIS/JJ128/words_annotations/FRAN_0021_13170.json/74/line", 
            "@type": "oa:Annotation", 
            "motivation": "oa:painting", 
            "on": "http://bvmm.irht.cnrs.fr/iiif/23714/canvas/canvas-2311715#xywh=1020,1570,208,128", 
            "resource": {
                "@type": "cnt:ContentAsText", 
                "chars": "REMISSIO", 
                "format": "text/plain"
            }
        }, 
        {
            "@id": "https://manifests.teklia.com/HIMANIS/JJ128/words_annotations/FRAN_0021_13170.json/75/line", 
            "@type": "oa:Annotation", 
            "motivation": "oa:painting", 
            "on": "http://bvmm.irht.cnrs.fr/iiif/23714/canvas/canvas-2311715#xywh=935,399,0,96", 
            "resource": {
                "@type": "cnt:ContentAsText", 
                "chars": "P", 
                "format": "text/plain"
            }
        }, 
        {
            "@id": "https://manifests.teklia.com/HIMANIS/JJ128/words_annotations/FRAN_0021_13170.json/76/line", 
            "@type": "oa:Annotation", 
            "motivation": "oa:painting", 
            "on": "http://bvmm.irht.cnrs.fr/iiif/23714/canvas/canvas-2311715#xywh=1489,1824,82,162", 
            "resource": {
                "@type": "cnt:ContentAsText", 
                "chars": "DOMINO", 
                "format": "text/plain"
            }
        }, 
        {
            "@id": "https://manifests.teklia.com/HIMANIS/JJ128/words_annotations/FRAN_0021_13170.json/77/line", 
            "@type": "oa:Annotation", 
            "motivation": "oa:painting", 
            "on": "http://bvmm.irht.cnrs.fr/iiif/23714/canvas/canvas-2311715#xywh=163,1746,506,126", 
            "resource": {
                "@type": "cnt:ContentAsText", 
                "chars": "ET", 
                "format": "text/plain"
            }
        }, 
        {
            "@id": "https://manifests.teklia.com/HIMANIS/JJ128/words_annotations/FRAN_0021_13170.json/78/line", 
            "@type": "oa:Annotation", 
            "motivation": "oa:painting", 
            "on": "http://bvmm.irht.cnrs.fr/iiif/23714/canvas/canvas-2311715#xywh=691,958,673,134", 
            "resource": {
                "@type": "cnt:ContentAsText", 
                "chars": "SALVAGARDIA", 
                "format": "text/plain"
            }
        }, 
        {
            "@id": "https://manifests.teklia.com/HIMANIS/JJ128/words_annotations/FRAN_0021_13170.json/79/line", 
            "@type": "oa:Annotation", 
            "motivation": "oa:painting", 
            "on": "http://bvmm.irht.cnrs.fr/iiif/23714/canvas/canvas-2311715#xywh=713,1479,199,127", 
            "resource": {
                "@type": "cnt:ContentAsText", 
                "chars": "JURON", 
                "format": "text/plain"
            }
        }, 
        {
            "@id": "https://manifests.teklia.com/HIMANIS/JJ128/words_annotations/FRAN_0021_13170.json/80/line", 
            "@type": "oa:Annotation", 
            "motivation": "oa:painting", 
            "on": "http://bvmm.irht.cnrs.fr/iiif/23714/canvas/canvas-2311715#xywh=708,1361,275,156", 
            "resource": {
                "@type": "cnt:ContentAsText", 
                "chars": "QUO", 
                "format": "text/plain"
            }
        }, 
        {
            "@id": "https://manifests.teklia.com/HIMANIS/JJ128/words_annotations/FRAN_0021_13170.json/81/line", 
            "@type": "oa:Annotation", 
            "motivation": "oa:painting", 
            "on": "http://bvmm.irht.cnrs.fr/iiif/23714/canvas/canvas-2311715#xywh=435,4592,1587,146", 
            "resource": {
                "@type": "cnt:ContentAsText", 
                "chars": "LLENIENT", 
                "format": "text/plain"
            }
        }, 
        {
            "@id": "https://manifests.teklia.com/HIMANIS/JJ128/words_annotations/FRAN_0021_13170.json/82/line", 
            "@type": "oa:Annotation", 
            "motivation": "oa:painting", 
            "on": "http://bvmm.irht.cnrs.fr/iiif/23714/canvas/canvas-2311715#xywh=1477,1570,233,128", 
            "resource": {
                "@type": "cnt:ContentAsText", 
                "chars": "LAURENCII", 
                "format": "text/plain"
            }
        }, 
        {
            "@id": "https://manifests.teklia.com/HIMANIS/JJ128/words_annotations/FRAN_0021_13170.json/83/line", 
            "@type": "oa:Annotation", 
            "motivation": "oa:painting", 
            "on": "http://bvmm.irht.cnrs.fr/iiif/23714/canvas/canvas-2311715#xywh=1477,1479,485,127", 
            "resource": {
                "@type": "cnt:ContentAsText", 
                "chars": "THEOBALDI", 
                "format": "text/plain"
            }
        }, 
        {
            "@id": "https://manifests.teklia.com/HIMANIS/JJ128/words_annotations/FRAN_0021_13170.json/84/line", 
            "@type": "oa:Annotation", 
            "motivation": "oa:painting", 
            "on": "http://bvmm.irht.cnrs.fr/iiif/23714/canvas/canvas-2311715#xywh=690,1107,184,246", 
            "resource": {
                "@type": "cnt:ContentAsText", 
                "chars": "IPSORUM", 
                "format": "text/plain"
            }
        }, 
        {
            "@id": "https://manifests.teklia.com/HIMANIS/JJ128/words_annotations/FRAN_0021_13170.json/85/line", 
            "@type": "oa:Annotation", 
            "motivation": "oa:painting", 
            "on": "http://bvmm.irht.cnrs.fr/iiif/23714/canvas/canvas-2311715#xywh=376,780,437,148", 
            "resource": {
                "@type": "cnt:ContentAsText", 
                "chars": "JURI", 
                "format": "text/plain"
            }
        }, 
        {
            "@id": "https://manifests.teklia.com/HIMANIS/JJ128/words_annotations/FRAN_0021_13170.json/86/line", 
            "@type": "oa:Annotation", 
            "motivation": "oa:painting", 
            "on": "http://bvmm.irht.cnrs.fr/iiif/23714/canvas/canvas-2311715#xywh=1354,855,190,168", 
            "resource": {
                "@type": "cnt:ContentAsText", 
                "chars": "THOMA", 
                "format": "text/plain"
            }
        }, 
        {
            "@id": "https://manifests.teklia.com/HIMANIS/JJ128/words_annotations/FRAN_0021_13170.json/87/line", 
            "@type": "oa:Annotation", 
            "motivation": "oa:painting", 
            "on": "http://bvmm.irht.cnrs.fr/iiif/23714/canvas/canvas-2311715#xywh=1248,855,85,168", 
            "resource": {
                "@type": "cnt:ContentAsText", 
                "chars": "PRO", 
                "format": "text/plain"
            }
        }, 
        {
            "@id": "https://manifests.teklia.com/HIMANIS/JJ128/words_annotations/FRAN_0021_13170.json/88/line", 
            "@type": "oa:Annotation", 
            "motivation": "oa:painting", 
            "on": "http://bvmm.irht.cnrs.fr/iiif/23714/canvas/canvas-2311715#xywh=2059,1824,224,162", 
            "resource": {
                "@type": "cnt:ContentAsText", 
                "chars": "ET", 
                "format": "text/plain"
            }
        }, 
        {
            "@id": "https://manifests.teklia.com/HIMANIS/JJ128/words_annotations/FRAN_0021_13170.json/89/line", 
            "@type": "oa:Annotation", 
            "motivation": "oa:painting", 
            "on": "http://bvmm.irht.cnrs.fr/iiif/23714/canvas/canvas-2311715#xywh=133,608,322,215", 
            "resource": {
                "@type": "cnt:ContentAsText", 
                "chars": "PHILIPPES", 
                "format": "text/plain"
            }
        }, 
        {
            "@id": "https://manifests.teklia.com/HIMANIS/JJ128/words_annotations/FRAN_0021_13170.json/90/line", 
            "@type": "oa:Annotation", 
            "motivation": "oa:painting", 
            "on": "http://bvmm.irht.cnrs.fr/iiif/23714/canvas/canvas-2311715#xywh=1349,1045,101,133", 
            "resource": {
                "@type": "cnt:ContentAsText", 
                "chars": "JOHANNE", 
                "format": "text/plain"
            }
        }, 
        {
            "@id": "https://manifests.teklia.com/HIMANIS/JJ128/words_annotations/FRAN_0021_13170.json/91/line", 
            "@type": "oa:Annotation", 
            "motivation": "oa:painting", 
            "on": "http://bvmm.irht.cnrs.fr/iiif/23714/canvas/canvas-2311715#xywh=2212,1107,231,246", 
            "resource": {
                "@type": "cnt:ContentAsText", 
                "chars": "BOISSOIT", 
                "format": "text/plain"
            }
        }, 
        {
            "@id": "https://manifests.teklia.com/HIMANIS/JJ128/words_annotations/FRAN_0021_13170.json/92/line", 
            "@type": "oa:Annotation", 
            "motivation": "oa:painting", 
            "on": "http://bvmm.irht.cnrs.fr/iiif/23714/canvas/canvas-2311715#xywh=1340,608,80,215", 
            "resource": {
                "@type": "cnt:ContentAsText", 
                "chars": "JOHAN", 
                "format": "text/plain"
            }
        }, 
        {
            "@id": "https://manifests.teklia.com/HIMANIS/JJ128/words_annotations/FRAN_0021_13170.json/93/line", 
            "@type": "oa:Annotation", 
            "motivation": "oa:painting", 
            "on": "http://bvmm.irht.cnrs.fr/iiif/23714/canvas/canvas-2311715#xywh=124,1282,284,156", 
            "resource": {
                "@type": "cnt:ContentAsText", 
                "chars": "PHILIPPE", 
                "format": "text/plain"
            }
        }, 
        {
            "@id": "https://manifests.teklia.com/HIMANIS/JJ128/words_annotations/FRAN_0021_13170.json/94/line", 
            "@type": "oa:Annotation", 
            "motivation": "oa:painting", 
            "on": "http://bvmm.irht.cnrs.fr/iiif/23714/canvas/canvas-2311715#xywh=1482,1361,39,156", 
            "resource": {
                "@type": "cnt:ContentAsText", 
                "chars": "LA", 
                "format": "text/plain"
            }
        }, 
        {
            "@id": "https://manifests.teklia.com/HIMANIS/JJ128/words_annotations/FRAN_0021_13170.json/95/line", 
            "@type": "oa:Annotation", 
            "motivation": "oa:painting", 
            "on": "http://bvmm.irht.cnrs.fr/iiif/23714/canvas/canvas-2311715#xywh=1830,1282,39,156", 
            "resource": {
                "@type": "cnt:ContentAsText", 
                "chars": "LA", 
                "format": "text/plain"
            }
        }, 
        {
            "@id": "https://manifests.teklia.com/HIMANIS/JJ128/words_annotations/FRAN_0021_13170.json/96/line", 
            "@type": "oa:Annotation", 
            "motivation": "oa:painting", 
            "on": "http://bvmm.irht.cnrs.fr/iiif/23714/canvas/canvas-2311715#xywh=3786,930,117,83", 
            "resource": {
                "@type": "cnt:ContentAsText", 
                "chars": "LES", 
                "format": "text/plain"
            }
        }, 
        {
            "@id": "https://manifests.teklia.com/HIMANIS/JJ128/words_annotations/FRAN_0021_13170.json/97/line", 
            "@type": "oa:Annotation", 
            "motivation": "oa:painting", 
            "on": "http://bvmm.irht.cnrs.fr/iiif/23714/canvas/canvas-2311715#xywh=1586,1624,34,179", 
            "resource": {
                "@type": "cnt:ContentAsText", 
                "chars": "DE", 
                "format": "text/plain"
            }
        }, 
        {
            "@id": "https://manifests.teklia.com/HIMANIS/JJ128/words_annotations/FRAN_0021_13170.json/98/line", 
            "@type": "oa:Annotation", 
            "motivation": "oa:painting", 
            "on": "http://bvmm.irht.cnrs.fr/iiif/23714/canvas/canvas-2311715#xywh=1761,1282,49,156", 
            "resource": {
                "@type": "cnt:ContentAsText", 
                "chars": "DE", 
                "format": "text/plain"
            }
        }, 
        {
            "@id": "https://manifests.teklia.com/HIMANIS/JJ128/words_annotations/FRAN_0021_13170.json/99/line", 
            "@type": "oa:Annotation", 
            "motivation": "oa:painting", 
            "on": "http://bvmm.irht.cnrs.fr/iiif/23714/canvas/canvas-2311715#xywh=2089,1107,92,246", 
            "resource": {
                "@type": "cnt:ContentAsText", 
                "chars": "DIT", 
                "format": "text/plain"
            }
        }, 
        {
            "@id": "https://manifests.teklia.com/HIMANIS/JJ128/words_annotations/FRAN_0021_13170.json/100/line", 
            "@type": "oa:Annotation", 
            "motivation": "oa:painting", 
            "on": "http://bvmm.irht.cnrs.fr/iiif/23714/canvas/canvas-2311715#xywh=1659,1107,169,246", 
            "resource": {
                "@type": "cnt:ContentAsText", 
                "chars": "QUIBUS", 
                "format": "text/plain"
            }
        }, 
        {
            "@id": "https://manifests.teklia.com/HIMANIS/JJ128/words_annotations/FRAN_0021_13170.json/101/line", 
            "@type": "oa:Annotation", 
            "motivation": "oa:painting", 
            "on": "http://bvmm.irht.cnrs.fr/iiif/23714/canvas/canvas-2311715#xywh=690,1107,169,246", 
            "resource": {
                "@type": "cnt:ContentAsText", 
                "chars": "IPSIUS", 
                "format": "text/plain"
            }
        }, 
        {
            "@id": "https://manifests.teklia.com/HIMANIS/JJ128/words_annotations/FRAN_0021_13170.json/102/line", 
            "@type": "oa:Annotation", 
            "motivation": "oa:painting", 
            "on": "http://bvmm.irht.cnrs.fr/iiif/23714/canvas/canvas-2311715#xywh=2153,1282,118,156", 
            "resource": {
                "@type": "cnt:ContentAsText", 
                "chars": "PRILIBUS", 
                "format": "text/plain"
            }
        }, 
        {
            "@id": "https://manifests.teklia.com/HIMANIS/JJ128/words_annotations/FRAN_0021_13170.json/103/line", 
            "@type": "oa:Annotation", 
            "motivation": "oa:painting", 
            "on": "http://bvmm.irht.cnrs.fr/iiif/23714/canvas/canvas-2311715#xywh=1249,1045,84,133", 
            "resource": {
                "@type": "cnt:ContentAsText", 
                "chars": "PRO", 
                "format": "text/plain"
            }
        }, 
        {
            "@id": "https://manifests.teklia.com/HIMANIS/JJ128/words_annotations/FRAN_0021_13170.json/104/line", 
            "@type": "oa:Annotation", 
            "motivation": "oa:painting", 
            "on": "http://bvmm.irht.cnrs.fr/iiif/23714/canvas/canvas-2311715#xywh=124,1282,314,156", 
            "resource": {
                "@type": "cnt:ContentAsText", 
                "chars": "PHILIPPES", 
                "format": "text/plain"
            }
        }, 
        {
            "@id": "https://manifests.teklia.com/HIMANIS/JJ128/words_annotations/FRAN_0021_13170.json/105/line", 
            "@type": "oa:Annotation", 
            "motivation": "oa:painting", 
            "on": "http://bvmm.irht.cnrs.fr/iiif/23714/canvas/canvas-2311715#xywh=376,780,297,148", 
            "resource": {
                "@type": "cnt:ContentAsText", 
                "chars": "ET", 
                "format": "text/plain"
            }
        }, 
        {
            "@id": "https://manifests.teklia.com/HIMANIS/JJ128/words_annotations/FRAN_0021_13170.json/106/line", 
            "@type": "oa:Annotation", 
            "motivation": "oa:painting", 
            "on": "http://bvmm.irht.cnrs.fr/iiif/23714/canvas/canvas-2311715#xywh=1888,1282,167,156", 
            "resource": {
                "@type": "cnt:ContentAsText", 
                "chars": "BUXERINE", 
                "format": "text/plain"
            }
        }, 
        {
            "@id": "https://manifests.teklia.com/HIMANIS/JJ128/words_annotations/FRAN_0021_13170.json/107/line", 
            "@type": "oa:Annotation", 
            "motivation": "oa:painting", 
            "on": "http://bvmm.irht.cnrs.fr/iiif/23714/canvas/canvas-2311715#xywh=1529,780,149,148", 
            "resource": {
                "@type": "cnt:ContentAsText", 
                "chars": "MALLET", 
                "format": "text/plain"
            }
        }, 
        {
            "@id": "https://manifests.teklia.com/HIMANIS/JJ128/words_annotations/FRAN_0021_13170.json/108/line", 
            "@type": "oa:Annotation", 
            "motivation": "oa:painting", 
            "on": "http://bvmm.irht.cnrs.fr/iiif/23714/canvas/canvas-2311715#xywh=2099,1361,303,156", 
            "resource": {
                "@type": "cnt:ContentAsText", 
                "chars": "EJUS", 
                "format": "text/plain"
            }
        }, 
        {
            "@id": "https://manifests.teklia.com/HIMANIS/JJ128/words_annotations/FRAN_0021_13170.json/109/line", 
            "@type": "oa:Annotation", 
            "motivation": "oa:painting", 
            "on": "http://bvmm.irht.cnrs.fr/iiif/23714/canvas/canvas-2311715#xywh=1254,1746,79,126", 
            "resource": {
                "@type": "cnt:ContentAsText", 
                "chars": "PRO", 
                "format": "text/plain"
            }
        }, 
        {
            "@id": "https://manifests.teklia.com/HIMANIS/JJ128/words_annotations/FRAN_0021_13170.json/110/line", 
            "@type": "oa:Annotation", 
            "motivation": "oa:painting", 
            "on": "http://bvmm.irht.cnrs.fr/iiif/23714/canvas/canvas-2311715#xywh=1775,1361,177,156", 
            "resource": {
                "@type": "cnt:ContentAsText", 
                "chars": "ROBERTO", 
                "format": "text/plain"
            }
        }, 
        {
            "@id": "https://manifests.teklia.com/HIMANIS/JJ128/words_annotations/FRAN_0021_13170.json/111/line", 
            "@type": "oa:Annotation", 
            "motivation": "oa:painting", 
            "on": "http://bvmm.irht.cnrs.fr/iiif/23714/canvas/canvas-2311715#xywh=700,1746,182,126", 
            "resource": {
                "@type": "cnt:ContentAsText", 
                "chars": "NOSTROS", 
                "format": "text/plain"
            }
        }, 
        {
            "@id": "https://manifests.teklia.com/HIMANIS/JJ128/words_annotations/FRAN_0021_13170.json/112/line", 
            "@type": "oa:Annotation", 
            "motivation": "oa:painting", 
            "on": "http://bvmm.irht.cnrs.fr/iiif/23714/canvas/canvas-2311715#xywh=1634,1282,98,156", 
            "resource": {
                "@type": "cnt:ContentAsText", 
                "chars": "DOMINO", 
                "format": "text/plain"
            }
        }, 
        {
            "@id": "https://manifests.teklia.com/HIMANIS/JJ128/words_annotations/FRAN_0021_13170.json/113/line", 
            "@type": "oa:Annotation", 
            "motivation": "oa:painting", 
            "on": "http://bvmm.irht.cnrs.fr/iiif/23714/canvas/canvas-2311715#xywh=1241,780,84,148", 
            "resource": {
                "@type": "cnt:ContentAsText", 
                "chars": "PRO", 
                "format": "text/plain"
            }
        }, 
        {
            "@id": "https://manifests.teklia.com/HIMANIS/JJ128/words_annotations/FRAN_0021_13170.json/114/line", 
            "@type": "oa:Annotation", 
            "motivation": "oa:painting", 
            "on": "http://bvmm.irht.cnrs.fr/iiif/23714/canvas/canvas-2311715#xywh=376,780,511,148", 
            "resource": {
                "@type": "cnt:ContentAsText", 
                "chars": "JURII", 
                "format": "text/plain"
            }
        }, 
        {
            "@id": "https://manifests.teklia.com/HIMANIS/JJ128/words_annotations/FRAN_0021_13170.json/115/line", 
            "@type": "oa:Annotation", 
            "motivation": "oa:painting", 
            "on": "http://bvmm.irht.cnrs.fr/iiif/23714/canvas/canvas-2311715#xywh=1357,1746,103,126", 
            "resource": {
                "@type": "cnt:ContentAsText", 
                "chars": "JOHANNES", 
                "format": "text/plain"
            }
        }, 
        {
            "@id": "https://manifests.teklia.com/HIMANIS/JJ128/words_annotations/FRAN_0021_13170.json/116/line", 
            "@type": "oa:Annotation", 
            "motivation": "oa:painting", 
            "on": "http://bvmm.irht.cnrs.fr/iiif/23714/canvas/canvas-2311715#xywh=481,608,751,215", 
            "resource": {
                "@type": "cnt:ContentAsText", 
                "chars": "MISSIS", 
                "format": "text/plain"
            }
        }, 
        {
            "@id": "https://manifests.teklia.com/HIMANIS/JJ128/words_annotations/FRAN_0021_13170.json/117/line", 
            "@type": "oa:Annotation", 
            "motivation": "oa:painting", 
            "on": "http://bvmm.irht.cnrs.fr/iiif/23714/canvas/canvas-2311715#xywh=1246,1479,79,127", 
            "resource": {
                "@type": "cnt:ContentAsText", 
                "chars": "PRO", 
                "format": "text/plain"
            }
        }, 
        {
            "@id": "https://manifests.teklia.com/HIMANIS/JJ128/words_annotations/FRAN_0021_13170.json/118/line", 
            "@type": "oa:Annotation", 
            "motivation": "oa:painting", 
            "on": "http://bvmm.irht.cnrs.fr/iiif/23714/canvas/canvas-2311715#xywh=1026,1282,206,156", 
            "resource": {
                "@type": "cnt:ContentAsText", 
                "chars": "REMISSIS", 
                "format": "text/plain"
            }
        }, 
        {
            "@id": "https://manifests.teklia.com/HIMANIS/JJ128/words_annotations/FRAN_0021_13170.json/119/line", 
            "@type": "oa:Annotation", 
            "motivation": "oa:painting", 
            "on": "http://bvmm.irht.cnrs.fr/iiif/23714/canvas/canvas-2311715#xywh=690,1107,646,246", 
            "resource": {
                "@type": "cnt:ContentAsText", 
                "chars": "CONSENTIS", 
                "format": "text/plain"
            }
        }, 
        {
            "@id": "https://manifests.teklia.com/HIMANIS/JJ128/words_annotations/FRAN_0021_13170.json/120/line", 
            "@type": "oa:Annotation", 
            "motivation": "oa:painting", 
            "on": "http://bvmm.irht.cnrs.fr/iiif/23714/canvas/canvas-2311715#xywh=1340,608,120,215", 
            "resource": {
                "@type": "cnt:ContentAsText", 
                "chars": "JOHANNE", 
                "format": "text/plain"
            }
        }, 
        {
            "@id": "https://manifests.teklia.com/HIMANIS/JJ128/words_annotations/FRAN_0021_13170.json/121/line", 
            "@type": "oa:Annotation", 
            "motivation": "oa:painting", 
            "on": "http://bvmm.irht.cnrs.fr/iiif/23714/canvas/canvas-2311715#xywh=245,780,158,148", 
            "resource": {
                "@type": "cnt:ContentAsText", 
                "chars": "PHILIPPES", 
                "format": "text/plain"
            }
        }, 
        {
            "@id": "https://manifests.teklia.com/HIMANIS/JJ128/words_annotations/FRAN_0021_13170.json/122/line", 
            "@type": "oa:Annotation", 
            "motivation": "oa:painting", 
            "on": "http://bvmm.irht.cnrs.fr/iiif/23714/canvas/canvas-2311715#xywh=1340,608,120,215", 
            "resource": {
                "@type": "cnt:ContentAsText", 
                "chars": "JOHANNI", 
                "format": "text/plain"
            }
        }, 
        {
            "@id": "https://manifests.teklia.com/HIMANIS/JJ128/words_annotations/FRAN_0021_13170.json/123/line", 
            "@type": "oa:Annotation", 
            "motivation": "oa:painting", 
            "on": "http://bvmm.irht.cnrs.fr/iiif/23714/canvas/canvas-2311715#xywh=481,608,751,215", 
            "resource": {
                "@type": "cnt:ContentAsText", 
                "chars": "COMMISSIS", 
                "format": "text/plain"
            }
        }, 
        {
            "@id": "https://manifests.teklia.com/HIMANIS/JJ128/words_annotations/FRAN_0021_13170.json/124/line", 
            "@type": "oa:Annotation", 
            "motivation": "oa:painting", 
            "on": "http://bvmm.irht.cnrs.fr/iiif/23714/canvas/canvas-2311715#xywh=1406,958,84,134", 
            "resource": {
                "@type": "cnt:ContentAsText", 
                "chars": "PRO", 
                "format": "text/plain"
            }
        }, 
        {
            "@id": "https://manifests.teklia.com/HIMANIS/JJ128/words_annotations/FRAN_0021_13170.json/125/line", 
            "@type": "oa:Annotation", 
            "motivation": "oa:painting", 
            "on": "http://bvmm.irht.cnrs.fr/iiif/23714/canvas/canvas-2311715#xywh=1483,1045,201,133", 
            "resource": {
                "@type": "cnt:ContentAsText", 
                "chars": "FAUSSART", 
                "format": "text/plain"
            }
        }, 
        {
            "@id": "https://manifests.teklia.com/HIMANIS/JJ128/words_annotations/FRAN_0021_13170.json/126/line", 
            "@type": "oa:Annotation", 
            "motivation": "oa:painting", 
            "on": "http://bvmm.irht.cnrs.fr/iiif/23714/canvas/canvas-2311715#xywh=1843,1107,215,246", 
            "resource": {
                "@type": "cnt:ContentAsText", 
                "chars": "LEURS", 
                "format": "text/plain"
            }
        }, 
        {
            "@id": "https://manifests.teklia.com/HIMANIS/JJ128/words_annotations/FRAN_0021_13170.json/127/line", 
            "@type": "oa:Annotation", 
            "motivation": "oa:painting", 
            "on": "http://bvmm.irht.cnrs.fr/iiif/23714/canvas/canvas-2311715#xywh=1023,1479,199,127", 
            "resource": {
                "@type": "cnt:ContentAsText", 
                "chars": "REMISSIO", 
                "format": "text/plain"
            }
        }, 
        {
            "@id": "https://manifests.teklia.com/HIMANIS/JJ128/words_annotations/FRAN_0021_13170.json/128/line", 
            "@type": "oa:Annotation", 
            "motivation": "oa:painting", 
            "on": "http://bvmm.irht.cnrs.fr/iiif/23714/canvas/canvas-2311715#xywh=129,1570,0,128", 
            "resource": {
                "@type": "cnt:ContentAsText", 
                "chars": "J", 
                "format": "text/plain"
            }
        }, 
        {
            "@id": "https://manifests.teklia.com/HIMANIS/JJ128/words_annotations/FRAN_0021_13170.json/129/line", 
            "@type": "oa:Annotation", 
            "motivation": "oa:painting", 
            "on": "http://bvmm.irht.cnrs.fr/iiif/23714/canvas/canvas-2311715#xywh=1717,1361,29,156", 
            "resource": {
                "@type": "cnt:ContentAsText", 
                "chars": "ET", 
                "format": "text/plain"
            }
        }, 
        {
            "@id": "https://manifests.teklia.com/HIMANIS/JJ128/words_annotations/FRAN_0021_13170.json/130/line", 
            "@type": "oa:Annotation", 
            "motivation": "oa:painting", 
            "on": "http://bvmm.irht.cnrs.fr/iiif/23714/canvas/canvas-2311715#xywh=129,1570,0,128", 
            "resource": {
                "@type": "cnt:ContentAsText", 
                "chars": "P", 
                "format": "text/plain"
            }
        }, 
        {
            "@id": "https://manifests.teklia.com/HIMANIS/JJ128/words_annotations/FRAN_0021_13170.json/131/line", 
            "@type": "oa:Annotation", 
            "motivation": "oa:painting", 
            "on": "http://bvmm.irht.cnrs.fr/iiif/23714/canvas/canvas-2311715#xywh=2089,1107,108,246", 
            "resource": {
                "@type": "cnt:ContentAsText", 
                "chars": "DICTI", 
                "format": "text/plain"
            }
        }, 
        {
            "@id": "https://manifests.teklia.com/HIMANIS/JJ128/words_annotations/FRAN_0021_13170.json/132/line", 
            "@type": "oa:Annotation", 
            "motivation": "oa:painting", 
            "on": "http://bvmm.irht.cnrs.fr/iiif/23714/canvas/canvas-2311715#xywh=2084,1282,49,156", 
            "resource": {
                "@type": "cnt:ContentAsText", 
                "chars": "AC", 
                "format": "text/plain"
            }
        }, 
        {
            "@id": "https://manifests.teklia.com/HIMANIS/JJ128/words_annotations/FRAN_0021_13170.json/133/line", 
            "@type": "oa:Annotation", 
            "motivation": "oa:painting", 
            "on": "http://bvmm.irht.cnrs.fr/iiif/23714/canvas/canvas-2311715#xywh=598,1624,89,179", 
            "resource": {
                "@type": "cnt:ContentAsText", 
                "chars": "ET", 
                "format": "text/plain"
            }
        }, 
        {
            "@id": "https://manifests.teklia.com/HIMANIS/JJ128/words_annotations/FRAN_0021_13170.json/134/line", 
            "@type": "oa:Annotation", 
            "motivation": "oa:painting", 
            "on": "http://bvmm.irht.cnrs.fr/iiif/23714/canvas/canvas-2311715#xywh=442,1479,247,127", 
            "resource": {
                "@type": "cnt:ContentAsText", 
                "chars": "ET", 
                "format": "text/plain"
            }
        }, 
        {
            "@id": "https://manifests.teklia.com/HIMANIS/JJ128/words_annotations/FRAN_0021_13170.json/135/line", 
            "@type": "oa:Annotation", 
            "motivation": "oa:painting", 
            "on": "http://bvmm.irht.cnrs.fr/iiif/23714/canvas/canvas-2311715#xywh=624,1282,39,156", 
            "resource": {
                "@type": "cnt:ContentAsText", 
                "chars": "ET", 
                "format": "text/plain"
            }
        }, 
        {
            "@id": "https://manifests.teklia.com/HIMANIS/JJ128/words_annotations/FRAN_0021_13170.json/136/line", 
            "@type": "oa:Annotation", 
            "motivation": "oa:painting", 
            "on": "http://bvmm.irht.cnrs.fr/iiif/23714/canvas/canvas-2311715#xywh=1013,1624,202,179", 
            "resource": {
                "@type": "cnt:ContentAsText", 
                "chars": "REMISSIS", 
                "format": "text/plain"
            }
        }, 
        {
            "@id": "https://manifests.teklia.com/HIMANIS/JJ128/words_annotations/FRAN_0021_13170.json/137/line", 
            "@type": "oa:Annotation", 
            "motivation": "oa:painting", 
            "on": "http://bvmm.irht.cnrs.fr/iiif/23714/canvas/canvas-2311715#xywh=1359,1282,245,156", 
            "resource": {
                "@type": "cnt:ContentAsText", 
                "chars": "REGNALDO", 
                "format": "text/plain"
            }
        }, 
        {
            "@id": "https://manifests.teklia.com/HIMANIS/JJ128/words_annotations/FRAN_0021_13170.json/138/line", 
            "@type": "oa:Annotation", 
            "motivation": "oa:painting", 
            "on": "http://bvmm.irht.cnrs.fr/iiif/23714/canvas/canvas-2311715#xywh=1246,608,67,215", 
            "resource": {
                "@type": "cnt:ContentAsText", 
                "chars": "PRO", 
                "format": "text/plain"
            }
        }, 
        {
            "@id": "https://manifests.teklia.com/HIMANIS/JJ128/words_annotations/FRAN_0021_13170.json/139/line", 
            "@type": "oa:Annotation", 
            "motivation": "oa:painting", 
            "on": "http://bvmm.irht.cnrs.fr/iiif/23714/canvas/canvas-2311715#xywh=129,1570,562,128", 
            "resource": {
                "@type": "cnt:ContentAsText", 
                "chars": "ET", 
                "format": "text/plain"
            }
        }, 
        {
            "@id": "https://manifests.teklia.com/HIMANIS/JJ128/words_annotations/FRAN_0021_13170.json/140/line", 
            "@type": "oa:Annotation", 
            "motivation": "oa:painting", 
            "on": "http://bvmm.irht.cnrs.fr/iiif/23714/canvas/canvas-2311715#xywh=1672,1824,306,162", 
            "resource": {
                "@type": "cnt:ContentAsText", 
                "chars": "COLOMBIERES", 
                "format": "text/plain"
            }
        }, 
        {
            "@id": "https://manifests.teklia.com/HIMANIS/JJ128/words_annotations/FRAN_0021_13170.json/141/line", 
            "@type": "oa:Annotation", 
            "motivation": "oa:painting", 
            "on": "http://bvmm.irht.cnrs.fr/iiif/23714/canvas/canvas-2311715#xywh=2310,1282,118,156", 
            "resource": {
                "@type": "cnt:ContentAsText", 
                "chars": "ALIIS", 
                "format": "text/plain"
            }
        }, 
        {
            "@id": "https://manifests.teklia.com/HIMANIS/JJ128/words_annotations/FRAN_0021_13170.json/142/line", 
            "@type": "oa:Annotation", 
            "motivation": "oa:painting", 
            "on": "http://bvmm.irht.cnrs.fr/iiif/23714/canvas/canvas-2311715#xywh=2827,1107,200,246", 
            "resource": {
                "@type": "cnt:ContentAsText", 
                "chars": "ALIORUM", 
                "format": "text/plain"
            }
        }, 
        {
            "@id": "https://manifests.teklia.com/HIMANIS/JJ128/words_annotations/FRAN_0021_13170.json/143/line", 
            "@type": "oa:Annotation", 
            "motivation": "oa:painting", 
            "on": "http://bvmm.irht.cnrs.fr/iiif/23714/canvas/canvas-2311715#xywh=271,1045,125,133", 
            "resource": {
                "@type": "cnt:ContentAsText", 
                "chars": "PHILIPPE", 
                "format": "text/plain"
            }
        }, 
        {
            "@id": "https://manifests.teklia.com/HIMANIS/JJ128/words_annotations/FRAN_0021_13170.json/144/line", 
            "@type": "oa:Annotation", 
            "motivation": "oa:painting", 
            "on": "http://bvmm.irht.cnrs.fr/iiif/23714/canvas/canvas-2311715#xywh=130,855,717,168", 
            "resource": {
                "@type": "cnt:ContentAsText", 
                "chars": "PHILIPPUS", 
                "format": "text/plain"
            }
        }, 
        {
            "@id": "https://manifests.teklia.com/HIMANIS/JJ128/words_annotations/FRAN_0021_13170.json/145/line", 
            "@type": "oa:Annotation", 
            "motivation": "oa:painting", 
            "on": "http://bvmm.irht.cnrs.fr/iiif/23714/canvas/canvas-2311715#xywh=713,1479,143,127", 
            "resource": {
                "@type": "cnt:ContentAsText", 
                "chars": "JURION", 
                "format": "text/plain"
            }
        }, 
        {
            "@id": "https://manifests.teklia.com/HIMANIS/JJ128/words_annotations/FRAN_0021_13170.json/146/line", 
            "@type": "oa:Annotation", 
            "motivation": "oa:painting", 
            "on": "http://bvmm.irht.cnrs.fr/iiif/23714/canvas/canvas-2311715#xywh=3786,930,96,83", 
            "resource": {
                "@type": "cnt:ContentAsText", 
                "chars": "DE", 
                "format": "text/plain"
            }
        }
    ]
}