{
    "@context": "http://iiif.io/api/presentation/2/context.json", 
    "@id": "https://manifests.teklia.com/HIMANIS/JJ084/words_annotations/FRCHANJJ_JJ084_0012V.json", 
    "@type": "sc:AnnotationList", 
    "resources": [
        {
            "@id": "https://manifests.teklia.com/HIMANIS/JJ084/words_annotations/FRCHANJJ_JJ084_0012V.json/0/line", 
            "@type": "oa:Annotation", 
            "motivation": "oa:painting", 
            "on": "http://bvmm.irht.cnrs.fr/iiif/23672/canvas/canvas-2295360#xywh=1743,1363,167,102", 
            "resource": {
                "@type": "cnt:ContentAsText", 
                "chars": "PROPOSITI", 
                "format": "text/plain"
            }
        }, 
        {
            "@id": "https://manifests.teklia.com/HIMANIS/JJ084/words_annotations/FRCHANJJ_JJ084_0012V.json/1/line", 
            "@type": "oa:Annotation", 
            "motivation": "oa:painting", 
            "on": "http://bvmm.irht.cnrs.fr/iiif/23672/canvas/canvas-2295360#xywh=390,813,0,25", 
            "resource": {
                "@type": "cnt:ContentAsText", 
                "chars": "P", 
                "format": "text/plain"
            }
        }, 
        {
            "@id": "https://manifests.teklia.com/HIMANIS/JJ084/words_annotations/FRCHANJJ_JJ084_0012V.json/2/line", 
            "@type": "oa:Annotation", 
            "motivation": "oa:painting", 
            "on": "http://bvmm.irht.cnrs.fr/iiif/23672/canvas/canvas-2295360#xywh=1323,1747,91,69", 
            "resource": {
                "@type": "cnt:ContentAsText", 
                "chars": "POURRE", 
                "format": "text/plain"
            }
        }, 
        {
            "@id": "https://manifests.teklia.com/HIMANIS/JJ084/words_annotations/FRCHANJJ_JJ084_0012V.json/3/line", 
            "@type": "oa:Annotation", 
            "motivation": "oa:painting", 
            "on": "http://bvmm.irht.cnrs.fr/iiif/23672/canvas/canvas-2295360#xywh=1237,577,201,103", 
            "resource": {
                "@type": "cnt:ContentAsText", 
                "chars": "LAMBRO", 
                "format": "text/plain"
            }
        }, 
        {
            "@id": "https://manifests.teklia.com/HIMANIS/JJ084/words_annotations/FRCHANJJ_JJ084_0012V.json/4/line", 
            "@type": "oa:Annotation", 
            "motivation": "oa:painting", 
            "on": "http://bvmm.irht.cnrs.fr/iiif/23672/canvas/canvas-2295360#xywh=390,813,0,25", 
            "resource": {
                "@type": "cnt:ContentAsText", 
                "chars": "R", 
                "format": "text/plain"
            }
        }, 
        {
            "@id": "https://manifests.teklia.com/HIMANIS/JJ084/words_annotations/FRCHANJJ_JJ084_0012V.json/5/line", 
            "@type": "oa:Annotation", 
            "motivation": "oa:painting", 
            "on": "http://bvmm.irht.cnrs.fr/iiif/23672/canvas/canvas-2295360#xywh=2607,1641,273,80", 
            "resource": {
                "@type": "cnt:ContentAsText", 
                "chars": "ABATISIBLE", 
                "format": "text/plain"
            }
        }, 
        {
            "@id": "https://manifests.teklia.com/HIMANIS/JJ084/words_annotations/FRCHANJJ_JJ084_0012V.json/6/line", 
            "@type": "oa:Annotation", 
            "motivation": "oa:painting", 
            "on": "http://bvmm.irht.cnrs.fr/iiif/23672/canvas/canvas-2295360#xywh=1548,577,291,103", 
            "resource": {
                "@type": "cnt:ContentAsText", 
                "chars": "MONTIGNIACO", 
                "format": "text/plain"
            }
        }, 
        {
            "@id": "https://manifests.teklia.com/HIMANIS/JJ084/words_annotations/FRCHANJJ_JJ084_0012V.json/7/line", 
            "@type": "oa:Annotation", 
            "motivation": "oa:painting", 
            "on": "http://bvmm.irht.cnrs.fr/iiif/23672/canvas/canvas-2295360#xywh=1351,1363,154,102", 
            "resource": {
                "@type": "cnt:ContentAsText", 
                "chars": "GRALLO", 
                "format": "text/plain"
            }
        }, 
        {
            "@id": "https://manifests.teklia.com/HIMANIS/JJ084/words_annotations/FRCHANJJ_JJ084_0012V.json/8/line", 
            "@type": "oa:Annotation", 
            "motivation": "oa:painting", 
            "on": "http://bvmm.irht.cnrs.fr/iiif/23672/canvas/canvas-2295360#xywh=1743,1363,167,102", 
            "resource": {
                "@type": "cnt:ContentAsText", 
                "chars": "PREPOSITI", 
                "format": "text/plain"
            }
        }, 
        {
            "@id": "https://manifests.teklia.com/HIMANIS/JJ084/words_annotations/FRCHANJJ_JJ084_0012V.json/9/line", 
            "@type": "oa:Annotation", 
            "motivation": "oa:painting", 
            "on": "http://bvmm.irht.cnrs.fr/iiif/23672/canvas/canvas-2295360#xywh=1388,787,329,28", 
            "resource": {
                "@type": "cnt:ContentAsText", 
                "chars": "PICTA", 
                "format": "text/plain"
            }
        }, 
        {
            "@id": "https://manifests.teklia.com/HIMANIS/JJ084/words_annotations/FRCHANJJ_JJ084_0012V.json/10/line", 
            "@type": "oa:Annotation", 
            "motivation": "oa:painting", 
            "on": "http://bvmm.irht.cnrs.fr/iiif/23672/canvas/canvas-2295360#xywh=2809,1641,71,80", 
            "resource": {
                "@type": "cnt:ContentAsText", 
                "chars": "LA", 
                "format": "text/plain"
            }
        }, 
        {
            "@id": "https://manifests.teklia.com/HIMANIS/JJ084/words_annotations/FRCHANJJ_JJ084_0012V.json/11/line", 
            "@type": "oa:Annotation", 
            "motivation": "oa:painting", 
            "on": "http://bvmm.irht.cnrs.fr/iiif/23672/canvas/canvas-2295360#xywh=2021,1187,107,106", 
            "resource": {
                "@type": "cnt:ContentAsText", 
                "chars": "PHILIPPE", 
                "format": "text/plain"
            }
        }, 
        {
            "@id": "https://manifests.teklia.com/HIMANIS/JJ084/words_annotations/FRCHANJJ_JJ084_0012V.json/12/line", 
            "@type": "oa:Annotation", 
            "motivation": "oa:painting", 
            "on": "http://bvmm.irht.cnrs.fr/iiif/23672/canvas/canvas-2295360#xywh=2536,1641,41,80", 
            "resource": {
                "@type": "cnt:ContentAsText", 
                "chars": "DE", 
                "format": "text/plain"
            }
        }, 
        {
            "@id": "https://manifests.teklia.com/HIMANIS/JJ084/words_annotations/FRCHANJJ_JJ084_0012V.json/13/line", 
            "@type": "oa:Annotation", 
            "motivation": "oa:painting", 
            "on": "http://bvmm.irht.cnrs.fr/iiif/23672/canvas/canvas-2295360#xywh=1323,1747,48,69", 
            "resource": {
                "@type": "cnt:ContentAsText", 
                "chars": "JOLE", 
                "format": "text/plain"
            }
        }, 
        {
            "@id": "https://manifests.teklia.com/HIMANIS/JJ084/words_annotations/FRCHANJJ_JJ084_0012V.json/14/line", 
            "@type": "oa:Annotation", 
            "motivation": "oa:painting", 
            "on": "http://bvmm.irht.cnrs.fr/iiif/23672/canvas/canvas-2295360#xywh=1462,1747,127,69", 
            "resource": {
                "@type": "cnt:ContentAsText", 
                "chars": "MESS", 
                "format": "text/plain"
            }
        }, 
        {
            "@id": "https://manifests.teklia.com/HIMANIS/JJ084/words_annotations/FRCHANJJ_JJ084_0012V.json/15/line", 
            "@type": "oa:Annotation", 
            "motivation": "oa:painting", 
            "on": "http://bvmm.irht.cnrs.fr/iiif/23672/canvas/canvas-2295360#xywh=1288,1187,93,106", 
            "resource": {
                "@type": "cnt:ContentAsText", 
                "chars": "PRO", 
                "format": "text/plain"
            }
        }, 
        {
            "@id": "https://manifests.teklia.com/HIMANIS/JJ084/words_annotations/FRCHANJJ_JJ084_0012V.json/16/line", 
            "@type": "oa:Annotation", 
            "motivation": "oa:painting", 
            "on": "http://bvmm.irht.cnrs.fr/iiif/23672/canvas/canvas-2295360#xywh=1688,1944,123,34", 
            "resource": {
                "@type": "cnt:ContentAsText", 
                "chars": "VE", 
                "format": "text/plain"
            }
        }, 
        {
            "@id": "https://manifests.teklia.com/HIMANIS/JJ084/words_annotations/FRCHANJJ_JJ084_0012V.json/17/line", 
            "@type": "oa:Annotation", 
            "motivation": "oa:painting", 
            "on": "http://bvmm.irht.cnrs.fr/iiif/23672/canvas/canvas-2295360#xywh=1235,860,62,61", 
            "resource": {
                "@type": "cnt:ContentAsText", 
                "chars": "PRIO", 
                "format": "text/plain"
            }
        }, 
        {
            "@id": "https://manifests.teklia.com/HIMANIS/JJ084/words_annotations/FRCHANJJ_JJ084_0012V.json/18/line", 
            "@type": "oa:Annotation", 
            "motivation": "oa:painting", 
            "on": "http://bvmm.irht.cnrs.fr/iiif/23672/canvas/canvas-2295360#xywh=1394,1815,96,81", 
            "resource": {
                "@type": "cnt:ContentAsText", 
                "chars": "PHELIPPE", 
                "format": "text/plain"
            }
        }, 
        {
            "@id": "https://manifests.teklia.com/HIMANIS/JJ084/words_annotations/FRCHANJJ_JJ084_0012V.json/19/line", 
            "@type": "oa:Annotation", 
            "motivation": "oa:painting", 
            "on": "http://bvmm.irht.cnrs.fr/iiif/23672/canvas/canvas-2295360#xywh=1504,1548,140,97", 
            "resource": {
                "@type": "cnt:ContentAsText", 
                "chars": "QUERO", 
                "format": "text/plain"
            }
        }, 
        {
            "@id": "https://manifests.teklia.com/HIMANIS/JJ084/words_annotations/FRCHANJJ_JJ084_0012V.json/20/line", 
            "@type": "oa:Annotation", 
            "motivation": "oa:painting", 
            "on": "http://bvmm.irht.cnrs.fr/iiif/23672/canvas/canvas-2295360#xywh=1017,1747,123,69", 
            "resource": {
                "@type": "cnt:ContentAsText", 
                "chars": "CAIT", 
                "format": "text/plain"
            }
        }, 
        {
            "@id": "https://manifests.teklia.com/HIMANIS/JJ084/words_annotations/FRCHANJJ_JJ084_0012V.json/21/line", 
            "@type": "oa:Annotation", 
            "motivation": "oa:painting", 
            "on": "http://bvmm.irht.cnrs.fr/iiif/23672/canvas/canvas-2295360#xywh=2297,2432,75,100", 
            "resource": {
                "@type": "cnt:ContentAsText", 
                "chars": "FIR", 
                "format": "text/plain"
            }
        }, 
        {
            "@id": "https://manifests.teklia.com/HIMANIS/JJ084/words_annotations/FRCHANJJ_JJ084_0012V.json/22/line", 
            "@type": "oa:Annotation", 
            "motivation": "oa:painting", 
            "on": "http://bvmm.irht.cnrs.fr/iiif/23672/canvas/canvas-2295360#xywh=1011,787,381,28", 
            "resource": {
                "@type": "cnt:ContentAsText", 
                "chars": "CCC", 
                "format": "text/plain"
            }
        }, 
        {
            "@id": "https://manifests.teklia.com/HIMANIS/JJ084/words_annotations/FRCHANJJ_JJ084_0012V.json/23/line", 
            "@type": "oa:Annotation", 
            "motivation": "oa:painting", 
            "on": "http://bvmm.irht.cnrs.fr/iiif/23672/canvas/canvas-2295360#xywh=1323,1747,52,69", 
            "resource": {
                "@type": "cnt:ContentAsText", 
                "chars": "POLE", 
                "format": "text/plain"
            }
        }, 
        {
            "@id": "https://manifests.teklia.com/HIMANIS/JJ084/words_annotations/FRCHANJJ_JJ084_0012V.json/24/line", 
            "@type": "oa:Annotation", 
            "motivation": "oa:painting", 
            "on": "http://bvmm.irht.cnrs.fr/iiif/23672/canvas/canvas-2295360#xywh=1710,1463,201,74", 
            "resource": {
                "@type": "cnt:ContentAsText", 
                "chars": "SUPER", 
                "format": "text/plain"
            }
        }, 
        {
            "@id": "https://manifests.teklia.com/HIMANIS/JJ084/words_annotations/FRCHANJJ_JJ084_0012V.json/25/line", 
            "@type": "oa:Annotation", 
            "motivation": "oa:painting", 
            "on": "http://bvmm.irht.cnrs.fr/iiif/23672/canvas/canvas-2295360#xywh=2087,1291,140,74", 
            "resource": {
                "@type": "cnt:ContentAsText", 
                "chars": "MONT", 
                "format": "text/plain"
            }
        }, 
        {
            "@id": "https://manifests.teklia.com/HIMANIS/JJ084/words_annotations/FRCHANJJ_JJ084_0012V.json/26/line", 
            "@type": "oa:Annotation", 
            "motivation": "oa:painting", 
            "on": "http://bvmm.irht.cnrs.fr/iiif/23672/canvas/canvas-2295360#xywh=1394,1815,107,81", 
            "resource": {
                "@type": "cnt:ContentAsText", 
                "chars": "POLIBERE", 
                "format": "text/plain"
            }
        }, 
        {
            "@id": "https://manifests.teklia.com/HIMANIS/JJ084/words_annotations/FRCHANJJ_JJ084_0012V.json/27/line", 
            "@type": "oa:Annotation", 
            "motivation": "oa:painting", 
            "on": "http://bvmm.irht.cnrs.fr/iiif/23672/canvas/canvas-2295360#xywh=1394,1815,96,81", 
            "resource": {
                "@type": "cnt:ContentAsText", 
                "chars": "PHILIPPE", 
                "format": "text/plain"
            }
        }, 
        {
            "@id": "https://manifests.teklia.com/HIMANIS/JJ084/words_annotations/FRCHANJJ_JJ084_0012V.json/28/line", 
            "@type": "oa:Annotation", 
            "motivation": "oa:painting", 
            "on": "http://bvmm.irht.cnrs.fr/iiif/23672/canvas/canvas-2295360#xywh=1298,787,90,28", 
            "resource": {
                "@type": "cnt:ContentAsText", 
                "chars": "CE", 
                "format": "text/plain"
            }
        }, 
        {
            "@id": "https://manifests.teklia.com/HIMANIS/JJ084/words_annotations/FRCHANJJ_JJ084_0012V.json/29/line", 
            "@type": "oa:Annotation", 
            "motivation": "oa:painting", 
            "on": "http://bvmm.irht.cnrs.fr/iiif/23672/canvas/canvas-2295360#xywh=1387,2294,161,76", 
            "resource": {
                "@type": "cnt:ContentAsText", 
                "chars": "EXPLICIT", 
                "format": "text/plain"
            }
        }, 
        {
            "@id": "https://manifests.teklia.com/HIMANIS/JJ084/words_annotations/FRCHANJJ_JJ084_0012V.json/30/line", 
            "@type": "oa:Annotation", 
            "motivation": "oa:painting", 
            "on": "http://bvmm.irht.cnrs.fr/iiif/23672/canvas/canvas-2295360#xywh=1407,4701,1838,109", 
            "resource": {
                "@type": "cnt:ContentAsText", 
                "chars": "ET", 
                "format": "text/plain"
            }
        }, 
        {
            "@id": "https://manifests.teklia.com/HIMANIS/JJ084/words_annotations/FRCHANJJ_JJ084_0012V.json/31/line", 
            "@type": "oa:Annotation", 
            "motivation": "oa:painting", 
            "on": "http://bvmm.irht.cnrs.fr/iiif/23672/canvas/canvas-2295360#xywh=1040,1548,214,97", 
            "resource": {
                "@type": "cnt:ContentAsText", 
                "chars": "REMISSIO", 
                "format": "text/plain"
            }
        }, 
        {
            "@id": "https://manifests.teklia.com/HIMANIS/JJ084/words_annotations/FRCHANJJ_JJ084_0012V.json/32/line", 
            "@type": "oa:Annotation", 
            "motivation": "oa:painting", 
            "on": "http://bvmm.irht.cnrs.fr/iiif/23672/canvas/canvas-2295360#xywh=1011,787,254,28", 
            "resource": {
                "@type": "cnt:ContentAsText", 
                "chars": "CY", 
                "format": "text/plain"
            }
        }, 
        {
            "@id": "https://manifests.teklia.com/HIMANIS/JJ084/words_annotations/FRCHANJJ_JJ084_0012V.json/33/line", 
            "@type": "oa:Annotation", 
            "motivation": "oa:painting", 
            "on": "http://bvmm.irht.cnrs.fr/iiif/23672/canvas/canvas-2295360#xywh=994,1116,239,73", 
            "resource": {
                "@type": "cnt:ContentAsText", 
                "chars": "PREMISSIS", 
                "format": "text/plain"
            }
        }, 
        {
            "@id": "https://manifests.teklia.com/HIMANIS/JJ084/words_annotations/FRCHANJJ_JJ084_0012V.json/34/line", 
            "@type": "oa:Annotation", 
            "motivation": "oa:painting", 
            "on": "http://bvmm.irht.cnrs.fr/iiif/23672/canvas/canvas-2295360#xywh=1388,787,199,28", 
            "resource": {
                "@type": "cnt:ContentAsText", 
                "chars": "PER", 
                "format": "text/plain"
            }
        }, 
        {
            "@id": "https://manifests.teklia.com/HIMANIS/JJ084/words_annotations/FRCHANJJ_JJ084_0012V.json/35/line", 
            "@type": "oa:Annotation", 
            "motivation": "oa:painting", 
            "on": "http://bvmm.irht.cnrs.fr/iiif/23672/canvas/canvas-2295360#xywh=1348,1116,102,73", 
            "resource": {
                "@type": "cnt:ContentAsText", 
                "chars": "PETRO", 
                "format": "text/plain"
            }
        }, 
        {
            "@id": "https://manifests.teklia.com/HIMANIS/JJ084/words_annotations/FRCHANJJ_JJ084_0012V.json/36/line", 
            "@type": "oa:Annotation", 
            "motivation": "oa:painting", 
            "on": "http://bvmm.irht.cnrs.fr/iiif/23672/canvas/canvas-2295360#xywh=1514,685,248,55", 
            "resource": {
                "@type": "cnt:ContentAsText", 
                "chars": "DONNELLE", 
                "format": "text/plain"
            }
        }, 
        {
            "@id": "https://manifests.teklia.com/HIMANIS/JJ084/words_annotations/FRCHANJJ_JJ084_0012V.json/37/line", 
            "@type": "oa:Annotation", 
            "motivation": "oa:painting", 
            "on": "http://bvmm.irht.cnrs.fr/iiif/23672/canvas/canvas-2295360#xywh=985,928,200,107", 
            "resource": {
                "@type": "cnt:ContentAsText", 
                "chars": "REMISSIO", 
                "format": "text/plain"
            }
        }, 
        {
            "@id": "https://manifests.teklia.com/HIMANIS/JJ084/words_annotations/FRCHANJJ_JJ084_0012V.json/38/line", 
            "@type": "oa:Annotation", 
            "motivation": "oa:painting", 
            "on": "http://bvmm.irht.cnrs.fr/iiif/23672/canvas/canvas-2295360#xywh=1544,1363,19,102", 
            "resource": {
                "@type": "cnt:ContentAsText", 
                "chars": "ET", 
                "format": "text/plain"
            }
        }, 
        {
            "@id": "https://manifests.teklia.com/HIMANIS/JJ084/words_annotations/FRCHANJJ_JJ084_0012V.json/39/line", 
            "@type": "oa:Annotation", 
            "motivation": "oa:painting", 
            "on": "http://bvmm.irht.cnrs.fr/iiif/23672/canvas/canvas-2295360#xywh=2607,1641,137,80", 
            "resource": {
                "@type": "cnt:ContentAsText", 
                "chars": "ABATIS", 
                "format": "text/plain"
            }
        }, 
        {
            "@id": "https://manifests.teklia.com/HIMANIS/JJ084/words_annotations/FRCHANJJ_JJ084_0012V.json/40/line", 
            "@type": "oa:Annotation", 
            "motivation": "oa:painting", 
            "on": "http://bvmm.irht.cnrs.fr/iiif/23672/canvas/canvas-2295360#xywh=958,577,253,103", 
            "resource": {
                "@type": "cnt:ContentAsText", 
                "chars": "REMISSIORUM", 
                "format": "text/plain"
            }
        }, 
        {
            "@id": "https://manifests.teklia.com/HIMANIS/JJ084/words_annotations/FRCHANJJ_JJ084_0012V.json/41/line", 
            "@type": "oa:Annotation", 
            "motivation": "oa:painting", 
            "on": "http://bvmm.irht.cnrs.fr/iiif/23672/canvas/canvas-2295360#xywh=578,1969,0,26", 
            "resource": {
                "@type": "cnt:ContentAsText", 
                "chars": "G", 
                "format": "text/plain"
            }
        }, 
        {
            "@id": "https://manifests.teklia.com/HIMANIS/JJ084/words_annotations/FRCHANJJ_JJ084_0012V.json/42/line", 
            "@type": "oa:Annotation", 
            "motivation": "oa:painting", 
            "on": "http://bvmm.irht.cnrs.fr/iiif/23672/canvas/canvas-2295360#xywh=948,1187,280,106", 
            "resource": {
                "@type": "cnt:ContentAsText", 
                "chars": "REMISSIO", 
                "format": "text/plain"
            }
        }, 
        {
            "@id": "https://manifests.teklia.com/HIMANIS/JJ084/words_annotations/FRCHANJJ_JJ084_0012V.json/43/line", 
            "@type": "oa:Annotation", 
            "motivation": "oa:painting", 
            "on": "http://bvmm.irht.cnrs.fr/iiif/23672/canvas/canvas-2295360#xywh=631,1969,0,26", 
            "resource": {
                "@type": "cnt:ContentAsText", 
                "chars": "J", 
                "format": "text/plain"
            }
        }, 
        {
            "@id": "https://manifests.teklia.com/HIMANIS/JJ084/words_annotations/FRCHANJJ_JJ084_0012V.json/44/line", 
            "@type": "oa:Annotation", 
            "motivation": "oa:painting", 
            "on": "http://bvmm.irht.cnrs.fr/iiif/23672/canvas/canvas-2295360#xywh=578,1969,0,26", 
            "resource": {
                "@type": "cnt:ContentAsText", 
                "chars": "P", 
                "format": "text/plain"
            }
        }, 
        {
            "@id": "https://manifests.teklia.com/HIMANIS/JJ084/words_annotations/FRCHANJJ_JJ084_0012V.json/45/line", 
            "@type": "oa:Annotation", 
            "motivation": "oa:painting", 
            "on": "http://bvmm.irht.cnrs.fr/iiif/23672/canvas/canvas-2295360#xywh=2400,1641,96,80", 
            "resource": {
                "@type": "cnt:ContentAsText", 
                "chars": "VILLE", 
                "format": "text/plain"
            }
        }, 
        {
            "@id": "https://manifests.teklia.com/HIMANIS/JJ084/words_annotations/FRCHANJJ_JJ084_0012V.json/46/line", 
            "@type": "oa:Annotation", 
            "motivation": "oa:painting", 
            "on": "http://bvmm.irht.cnrs.fr/iiif/23672/canvas/canvas-2295360#xywh=1316,860,166,61", 
            "resource": {
                "@type": "cnt:ContentAsText", 
                "chars": "GUILLO", 
                "format": "text/plain"
            }
        }, 
        {
            "@id": "https://manifests.teklia.com/HIMANIS/JJ084/words_annotations/FRCHANJJ_JJ084_0012V.json/47/line", 
            "@type": "oa:Annotation", 
            "motivation": "oa:painting", 
            "on": "http://bvmm.irht.cnrs.fr/iiif/23672/canvas/canvas-2295360#xywh=1351,1363,154,102", 
            "resource": {
                "@type": "cnt:ContentAsText", 
                "chars": "GALLIVO", 
                "format": "text/plain"
            }
        }, 
        {
            "@id": "https://manifests.teklia.com/HIMANIS/JJ084/words_annotations/FRCHANJJ_JJ084_0012V.json/48/line", 
            "@type": "oa:Annotation", 
            "motivation": "oa:painting", 
            "on": "http://bvmm.irht.cnrs.fr/iiif/23672/canvas/canvas-2295360#xywh=1218,1747,92,69", 
            "resource": {
                "@type": "cnt:ContentAsText", 
                "chars": "PRO", 
                "format": "text/plain"
            }
        }, 
        {
            "@id": "https://manifests.teklia.com/HIMANIS/JJ084/words_annotations/FRCHANJJ_JJ084_0012V.json/49/line", 
            "@type": "oa:Annotation", 
            "motivation": "oa:painting", 
            "on": "http://bvmm.irht.cnrs.fr/iiif/23672/canvas/canvas-2295360#xywh=377,942,152,85", 
            "resource": {
                "@type": "cnt:ContentAsText", 
                "chars": "QUIT", 
                "format": "text/plain"
            }
        }, 
        {
            "@id": "https://manifests.teklia.com/HIMANIS/JJ084/words_annotations/FRCHANJJ_JJ084_0012V.json/50/line", 
            "@type": "oa:Annotation", 
            "motivation": "oa:painting", 
            "on": "http://bvmm.irht.cnrs.fr/iiif/23672/canvas/canvas-2295360#xywh=1003,1363,206,102", 
            "resource": {
                "@type": "cnt:ContentAsText", 
                "chars": "REMISSIO", 
                "format": "text/plain"
            }
        }, 
        {
            "@id": "https://manifests.teklia.com/HIMANIS/JJ084/words_annotations/FRCHANJJ_JJ084_0012V.json/51/line", 
            "@type": "oa:Annotation", 
            "motivation": "oa:painting", 
            "on": "http://bvmm.irht.cnrs.fr/iiif/23672/canvas/canvas-2295360#xywh=1884,577,175,103", 
            "resource": {
                "@type": "cnt:ContentAsText", 
                "chars": "SEAUCHII", 
                "format": "text/plain"
            }
        }, 
        {
            "@id": "https://manifests.teklia.com/HIMANIS/JJ084/words_annotations/FRCHANJJ_JJ084_0012V.json/52/line", 
            "@type": "oa:Annotation", 
            "motivation": "oa:painting", 
            "on": "http://bvmm.irht.cnrs.fr/iiif/23672/canvas/canvas-2295360#xywh=1566,1641,16,80", 
            "resource": {
                "@type": "cnt:ContentAsText", 
                "chars": "ET", 
                "format": "text/plain"
            }
        }, 
        {
            "@id": "https://manifests.teklia.com/HIMANIS/JJ084/words_annotations/FRCHANJJ_JJ084_0012V.json/53/line", 
            "@type": "oa:Annotation", 
            "motivation": "oa:painting", 
            "on": "http://bvmm.irht.cnrs.fr/iiif/23672/canvas/canvas-2295360#xywh=1086,1641,11,80", 
            "resource": {
                "@type": "cnt:ContentAsText", 
                "chars": "AU", 
                "format": "text/plain"
            }
        }, 
        {
            "@id": "https://manifests.teklia.com/HIMANIS/JJ084/words_annotations/FRCHANJJ_JJ084_0012V.json/54/line", 
            "@type": "oa:Annotation", 
            "motivation": "oa:painting", 
            "on": "http://bvmm.irht.cnrs.fr/iiif/23672/canvas/canvas-2295360#xywh=2123,2432,162,100", 
            "resource": {
                "@type": "cnt:ContentAsText", 
                "chars": "COLLATIO", 
                "format": "text/plain"
            }
        }, 
        {
            "@id": "https://manifests.teklia.com/HIMANIS/JJ084/words_annotations/FRCHANJJ_JJ084_0012V.json/55/line", 
            "@type": "oa:Annotation", 
            "motivation": "oa:painting", 
            "on": "http://bvmm.irht.cnrs.fr/iiif/23672/canvas/canvas-2295360#xywh=1408,1187,253,106", 
            "resource": {
                "@type": "cnt:ContentAsText", 
                "chars": "ARNULPLIO", 
                "format": "text/plain"
            }
        }, 
        {
            "@id": "https://manifests.teklia.com/HIMANIS/JJ084/words_annotations/FRCHANJJ_JJ084_0012V.json/56/line", 
            "@type": "oa:Annotation", 
            "motivation": "oa:painting", 
            "on": "http://bvmm.irht.cnrs.fr/iiif/23672/canvas/canvas-2295360#xywh=1017,1747,118,69", 
            "resource": {
                "@type": "cnt:ContentAsText", 
                "chars": "AIT", 
                "format": "text/plain"
            }
        }, 
        {
            "@id": "https://manifests.teklia.com/HIMANIS/JJ084/words_annotations/FRCHANJJ_JJ084_0012V.json/57/line", 
            "@type": "oa:Annotation", 
            "motivation": "oa:painting", 
            "on": "http://bvmm.irht.cnrs.fr/iiif/23672/canvas/canvas-2295360#xywh=905,0,430,95", 
            "resource": {
                "@type": "cnt:ContentAsText", 
                "chars": "DE", 
                "format": "text/plain"
            }
        }, 
        {
            "@id": "https://manifests.teklia.com/HIMANIS/JJ084/words_annotations/FRCHANJJ_JJ084_0012V.json/58/line", 
            "@type": "oa:Annotation", 
            "motivation": "oa:painting", 
            "on": "http://bvmm.irht.cnrs.fr/iiif/23672/canvas/canvas-2295360#xywh=1340,685,140,55", 
            "resource": {
                "@type": "cnt:ContentAsText", 
                "chars": "JOHANNE", 
                "format": "text/plain"
            }
        }, 
        {
            "@id": "https://manifests.teklia.com/HIMANIS/JJ084/words_annotations/FRCHANJJ_JJ084_0012V.json/59/line", 
            "@type": "oa:Annotation", 
            "motivation": "oa:painting", 
            "on": "http://bvmm.irht.cnrs.fr/iiif/23672/canvas/canvas-2295360#xywh=2213,1641,152,80", 
            "resource": {
                "@type": "cnt:ContentAsText", 
                "chars": "PERSONIS", 
                "format": "text/plain"
            }
        }, 
        {
            "@id": "https://manifests.teklia.com/HIMANIS/JJ084/words_annotations/FRCHANJJ_JJ084_0012V.json/60/line", 
            "@type": "oa:Annotation", 
            "motivation": "oa:painting", 
            "on": "http://bvmm.irht.cnrs.fr/iiif/23672/canvas/canvas-2295360#xywh=1530,1040,39,77", 
            "resource": {
                "@type": "cnt:ContentAsText", 
                "chars": "DE", 
                "format": "text/plain"
            }
        }, 
        {
            "@id": "https://manifests.teklia.com/HIMANIS/JJ084/words_annotations/FRCHANJJ_JJ084_0012V.json/61/line", 
            "@type": "oa:Annotation", 
            "motivation": "oa:painting", 
            "on": "http://bvmm.irht.cnrs.fr/iiif/23672/canvas/canvas-2295360#xywh=1351,1363,154,102", 
            "resource": {
                "@type": "cnt:ContentAsText", 
                "chars": "GRALLIVO", 
                "format": "text/plain"
            }
        }, 
        {
            "@id": "https://manifests.teklia.com/HIMANIS/JJ084/words_annotations/FRCHANJJ_JJ084_0012V.json/62/line", 
            "@type": "oa:Annotation", 
            "motivation": "oa:painting", 
            "on": "http://bvmm.irht.cnrs.fr/iiif/23672/canvas/canvas-2295360#xywh=1161,1747,0,69", 
            "resource": {
                "@type": "cnt:ContentAsText", 
                "chars": "A", 
                "format": "text/plain"
            }
        }, 
        {
            "@id": "https://manifests.teklia.com/HIMANIS/JJ084/words_annotations/FRCHANJJ_JJ084_0012V.json/63/line", 
            "@type": "oa:Annotation", 
            "motivation": "oa:painting", 
            "on": "http://bvmm.irht.cnrs.fr/iiif/23672/canvas/canvas-2295360#xywh=1388,787,329,28", 
            "resource": {
                "@type": "cnt:ContentAsText", 
                "chars": "POICT", 
                "format": "text/plain"
            }
        }, 
        {
            "@id": "https://manifests.teklia.com/HIMANIS/JJ084/words_annotations/FRCHANJJ_JJ084_0012V.json/64/line", 
            "@type": "oa:Annotation", 
            "motivation": "oa:painting", 
            "on": "http://bvmm.irht.cnrs.fr/iiif/23672/canvas/canvas-2295360#xywh=1486,1116,33,73", 
            "resource": {
                "@type": "cnt:ContentAsText", 
                "chars": "DE", 
                "format": "text/plain"
            }
        }, 
        {
            "@id": "https://manifests.teklia.com/HIMANIS/JJ084/words_annotations/FRCHANJJ_JJ084_0012V.json/65/line", 
            "@type": "oa:Annotation", 
            "motivation": "oa:painting", 
            "on": "http://bvmm.irht.cnrs.fr/iiif/23672/canvas/canvas-2295360#xywh=997,1815,249,81", 
            "resource": {
                "@type": "cnt:ContentAsText", 
                "chars": "REMISSIO", 
                "format": "text/plain"
            }
        }, 
        {
            "@id": "https://manifests.teklia.com/HIMANIS/JJ084/words_annotations/FRCHANJJ_JJ084_0012V.json/66/line", 
            "@type": "oa:Annotation", 
            "motivation": "oa:painting", 
            "on": "http://bvmm.irht.cnrs.fr/iiif/23672/canvas/canvas-2295360#xywh=981,860,208,61", 
            "resource": {
                "@type": "cnt:ContentAsText", 
                "chars": "REMISSIS", 
                "format": "text/plain"
            }
        }, 
        {
            "@id": "https://manifests.teklia.com/HIMANIS/JJ084/words_annotations/FRCHANJJ_JJ084_0012V.json/67/line", 
            "@type": "oa:Annotation", 
            "motivation": "oa:painting", 
            "on": "http://bvmm.irht.cnrs.fr/iiif/23672/canvas/canvas-2295360#xywh=1177,1641,0,80", 
            "resource": {
                "@type": "cnt:ContentAsText", 
                "chars": "A", 
                "format": "text/plain"
            }
        }, 
        {
            "@id": "https://manifests.teklia.com/HIMANIS/JJ084/words_annotations/FRCHANJJ_JJ084_0012V.json/68/line", 
            "@type": "oa:Annotation", 
            "motivation": "oa:painting", 
            "on": "http://bvmm.irht.cnrs.fr/iiif/23672/canvas/canvas-2295360#xywh=1476,577,46,103", 
            "resource": {
                "@type": "cnt:ContentAsText", 
                "chars": "DE", 
                "format": "text/plain"
            }
        }, 
        {
            "@id": "https://manifests.teklia.com/HIMANIS/JJ084/words_annotations/FRCHANJJ_JJ084_0012V.json/69/line", 
            "@type": "oa:Annotation", 
            "motivation": "oa:painting", 
            "on": "http://bvmm.irht.cnrs.fr/iiif/23672/canvas/canvas-2295360#xywh=1364,1548,128,97", 
            "resource": {
                "@type": "cnt:ContentAsText", 
                "chars": "HANE", 
                "format": "text/plain"
            }
        }, 
        {
            "@id": "https://manifests.teklia.com/HIMANIS/JJ084/words_annotations/FRCHANJJ_JJ084_0012V.json/70/line", 
            "@type": "oa:Annotation", 
            "motivation": "oa:painting", 
            "on": "http://bvmm.irht.cnrs.fr/iiif/23672/canvas/canvas-2295360#xywh=1351,1363,154,102", 
            "resource": {
                "@type": "cnt:ContentAsText", 
                "chars": "GALLO", 
                "format": "text/plain"
            }
        }, 
        {
            "@id": "https://manifests.teklia.com/HIMANIS/JJ084/words_annotations/FRCHANJJ_JJ084_0012V.json/71/line", 
            "@type": "oa:Annotation", 
            "motivation": "oa:painting", 
            "on": "http://bvmm.irht.cnrs.fr/iiif/23672/canvas/canvas-2295360#xywh=1432,787,101,28", 
            "resource": {
                "@type": "cnt:ContentAsText", 
                "chars": "DE", 
                "format": "text/plain"
            }
        }, 
        {
            "@id": "https://manifests.teklia.com/HIMANIS/JJ084/words_annotations/FRCHANJJ_JJ084_0012V.json/72/line", 
            "@type": "oa:Annotation", 
            "motivation": "oa:painting", 
            "on": "http://bvmm.irht.cnrs.fr/iiif/23672/canvas/canvas-2295360#xywh=2021,1187,113,106", 
            "resource": {
                "@type": "cnt:ContentAsText", 
                "chars": "PHILIPPES", 
                "format": "text/plain"
            }
        }, 
        {
            "@id": "https://manifests.teklia.com/HIMANIS/JJ084/words_annotations/FRCHANJJ_JJ084_0012V.json/73/line", 
            "@type": "oa:Annotation", 
            "motivation": "oa:painting", 
            "on": "http://bvmm.irht.cnrs.fr/iiif/23672/canvas/canvas-2295360#xywh=974,685,206,55", 
            "resource": {
                "@type": "cnt:ContentAsText", 
                "chars": "REMISSIS", 
                "format": "text/plain"
            }
        }, 
        {
            "@id": "https://manifests.teklia.com/HIMANIS/JJ084/words_annotations/FRCHANJJ_JJ084_0012V.json/74/line", 
            "@type": "oa:Annotation", 
            "motivation": "oa:painting", 
            "on": "http://bvmm.irht.cnrs.fr/iiif/23672/canvas/canvas-2295360#xywh=1432,787,0,28", 
            "resource": {
                "@type": "cnt:ContentAsText", 
                "chars": "A", 
                "format": "text/plain"
            }
        }, 
        {
            "@id": "https://manifests.teklia.com/HIMANIS/JJ084/words_annotations/FRCHANJJ_JJ084_0012V.json/75/line", 
            "@type": "oa:Annotation", 
            "motivation": "oa:painting", 
            "on": "http://bvmm.irht.cnrs.fr/iiif/23672/canvas/canvas-2295360#xywh=1380,1040,112,77", 
            "resource": {
                "@type": "cnt:ContentAsText", 
                "chars": "PETRO", 
                "format": "text/plain"
            }
        }, 
        {
            "@id": "https://manifests.teklia.com/HIMANIS/JJ084/words_annotations/FRCHANJJ_JJ084_0012V.json/76/line", 
            "@type": "oa:Annotation", 
            "motivation": "oa:painting", 
            "on": "http://bvmm.irht.cnrs.fr/iiif/23672/canvas/canvas-2295360#xywh=1792,1291,61,74", 
            "resource": {
                "@type": "cnt:ContentAsText", 
                "chars": "RO", 
                "format": "text/plain"
            }
        }, 
        {
            "@id": "https://manifests.teklia.com/HIMANIS/JJ084/words_annotations/FRCHANJJ_JJ084_0012V.json/77/line", 
            "@type": "oa:Annotation", 
            "motivation": "oa:painting", 
            "on": "http://bvmm.irht.cnrs.fr/iiif/23672/canvas/canvas-2295360#xywh=1517,860,216,61", 
            "resource": {
                "@type": "cnt:ContentAsText", 
                "chars": "PREDIGNA", 
                "format": "text/plain"
            }
        }, 
        {
            "@id": "https://manifests.teklia.com/HIMANIS/JJ084/words_annotations/FRCHANJJ_JJ084_0012V.json/78/line", 
            "@type": "oa:Annotation", 
            "motivation": "oa:painting", 
            "on": "http://bvmm.irht.cnrs.fr/iiif/23672/canvas/canvas-2295360#xywh=1514,685,248,55", 
            "resource": {
                "@type": "cnt:ContentAsText", 
                "chars": "CONNELLE", 
                "format": "text/plain"
            }
        }, 
        {
            "@id": "https://manifests.teklia.com/HIMANIS/JJ084/words_annotations/FRCHANJJ_JJ084_0012V.json/79/line", 
            "@type": "oa:Annotation", 
            "motivation": "oa:painting", 
            "on": "http://bvmm.irht.cnrs.fr/iiif/23672/canvas/canvas-2295360#xywh=1546,1116,138,73", 
            "resource": {
                "@type": "cnt:ContentAsText", 
                "chars": "BAUDIS", 
                "format": "text/plain"
            }
        }, 
        {
            "@id": "https://manifests.teklia.com/HIMANIS/JJ084/words_annotations/FRCHANJJ_JJ084_0012V.json/80/line", 
            "@type": "oa:Annotation", 
            "motivation": "oa:painting", 
            "on": "http://bvmm.irht.cnrs.fr/iiif/23672/canvas/canvas-2295360#xywh=1248,1363,77,102", 
            "resource": {
                "@type": "cnt:ContentAsText", 
                "chars": "PRO", 
                "format": "text/plain"
            }
        }, 
        {
            "@id": "https://manifests.teklia.com/HIMANIS/JJ084/words_annotations/FRCHANJJ_JJ084_0012V.json/81/line", 
            "@type": "oa:Annotation", 
            "motivation": "oa:painting", 
            "on": "http://bvmm.irht.cnrs.fr/iiif/23672/canvas/canvas-2295360#xywh=994,1116,239,73", 
            "resource": {
                "@type": "cnt:ContentAsText", 
                "chars": "REMISSIS", 
                "format": "text/plain"
            }
        }, 
        {
            "@id": "https://manifests.teklia.com/HIMANIS/JJ084/words_annotations/FRCHANJJ_JJ084_0012V.json/82/line", 
            "@type": "oa:Annotation", 
            "motivation": "oa:painting", 
            "on": "http://bvmm.irht.cnrs.fr/iiif/23672/canvas/canvas-2295360#xywh=1872,1291,107,74", 
            "resource": {
                "@type": "cnt:ContentAsText", 
                "chars": "JOLE", 
                "format": "text/plain"
            }
        }, 
        {
            "@id": "https://manifests.teklia.com/HIMANIS/JJ084/words_annotations/FRCHANJJ_JJ084_0012V.json/83/line", 
            "@type": "oa:Annotation", 
            "motivation": "oa:painting", 
            "on": "http://bvmm.irht.cnrs.fr/iiif/23672/canvas/canvas-2295360#xywh=1745,1291,94,74", 
            "resource": {
                "@type": "cnt:ContentAsText", 
                "chars": "PRORO", 
                "format": "text/plain"
            }
        }, 
        {
            "@id": "https://manifests.teklia.com/HIMANIS/JJ084/words_annotations/FRCHANJJ_JJ084_0012V.json/84/line", 
            "@type": "oa:Annotation", 
            "motivation": "oa:painting", 
            "on": "http://bvmm.irht.cnrs.fr/iiif/23672/canvas/canvas-2295360#xywh=1048,2439,170,124", 
            "resource": {
                "@type": "cnt:ContentAsText", 
                "chars": "COLLEM", 
                "format": "text/plain"
            }
        }, 
        {
            "@id": "https://manifests.teklia.com/HIMANIS/JJ084/words_annotations/FRCHANJJ_JJ084_0012V.json/85/line", 
            "@type": "oa:Annotation", 
            "motivation": "oa:painting", 
            "on": "http://bvmm.irht.cnrs.fr/iiif/23672/canvas/canvas-2295360#xywh=1048,2439,170,124", 
            "resource": {
                "@type": "cnt:ContentAsText", 
                "chars": "COLLAM", 
                "format": "text/plain"
            }
        }, 
        {
            "@id": "https://manifests.teklia.com/HIMANIS/JJ084/words_annotations/FRCHANJJ_JJ084_0012V.json/86/line", 
            "@type": "oa:Annotation", 
            "motivation": "oa:painting", 
            "on": "http://bvmm.irht.cnrs.fr/iiif/23672/canvas/canvas-2295360#xywh=1247,1116,74,73", 
            "resource": {
                "@type": "cnt:ContentAsText", 
                "chars": "PRO", 
                "format": "text/plain"
            }
        }, 
        {
            "@id": "https://manifests.teklia.com/HIMANIS/JJ084/words_annotations/FRCHANJJ_JJ084_0012V.json/87/line", 
            "@type": "oa:Annotation", 
            "motivation": "oa:painting", 
            "on": "http://bvmm.irht.cnrs.fr/iiif/23672/canvas/canvas-2295360#xywh=1517,860,255,61", 
            "resource": {
                "@type": "cnt:ContentAsText", 
                "chars": "PREDIGNUM", 
                "format": "text/plain"
            }
        }, 
        {
            "@id": "https://manifests.teklia.com/HIMANIS/JJ084/words_annotations/FRCHANJJ_JJ084_0012V.json/88/line", 
            "@type": "oa:Annotation", 
            "motivation": "oa:painting", 
            "on": "http://bvmm.irht.cnrs.fr/iiif/23672/canvas/canvas-2295360#xywh=2174,1187,127,106", 
            "resource": {
                "@type": "cnt:ContentAsText", 
                "chars": "LIMO", 
                "format": "text/plain"
            }
        }, 
        {
            "@id": "https://manifests.teklia.com/HIMANIS/JJ084/words_annotations/FRCHANJJ_JJ084_0012V.json/89/line", 
            "@type": "oa:Annotation", 
            "motivation": "oa:painting", 
            "on": "http://bvmm.irht.cnrs.fr/iiif/23672/canvas/canvas-2295360#xywh=1425,0,209,95", 
            "resource": {
                "@type": "cnt:ContentAsText", 
                "chars": "ET", 
                "format": "text/plain"
            }
        }, 
        {
            "@id": "https://manifests.teklia.com/HIMANIS/JJ084/words_annotations/FRCHANJJ_JJ084_0012V.json/90/line", 
            "@type": "oa:Annotation", 
            "motivation": "oa:painting", 
            "on": "http://bvmm.irht.cnrs.fr/iiif/23672/canvas/canvas-2295360#xywh=704,2059,27,14", 
            "resource": {
                "@type": "cnt:ContentAsText", 
                "chars": "DE", 
                "format": "text/plain"
            }
        }, 
        {
            "@id": "https://manifests.teklia.com/HIMANIS/JJ084/words_annotations/FRCHANJJ_JJ084_0012V.json/91/line", 
            "@type": "oa:Annotation", 
            "motivation": "oa:painting", 
            "on": "http://bvmm.irht.cnrs.fr/iiif/23672/canvas/canvas-2295360#xywh=1569,1040,68,77", 
            "resource": {
                "@type": "cnt:ContentAsText", 
                "chars": "AC", 
                "format": "text/plain"
            }
        }, 
        {
            "@id": "https://manifests.teklia.com/HIMANIS/JJ084/words_annotations/FRCHANJJ_JJ084_0012V.json/92/line", 
            "@type": "oa:Annotation", 
            "motivation": "oa:painting", 
            "on": "http://bvmm.irht.cnrs.fr/iiif/23672/canvas/canvas-2295360#xywh=1277,1815,76,81", 
            "resource": {
                "@type": "cnt:ContentAsText", 
                "chars": "PRO", 
                "format": "text/plain"
            }
        }, 
        {
            "@id": "https://manifests.teklia.com/HIMANIS/JJ084/words_annotations/FRCHANJJ_JJ084_0012V.json/93/line", 
            "@type": "oa:Annotation", 
            "motivation": "oa:painting", 
            "on": "http://bvmm.irht.cnrs.fr/iiif/23672/canvas/canvas-2295360#xywh=1408,1187,253,106", 
            "resource": {
                "@type": "cnt:ContentAsText", 
                "chars": "ARNULPRO", 
                "format": "text/plain"
            }
        }, 
        {
            "@id": "https://manifests.teklia.com/HIMANIS/JJ084/words_annotations/FRCHANJJ_JJ084_0012V.json/94/line", 
            "@type": "oa:Annotation", 
            "motivation": "oa:painting", 
            "on": "http://bvmm.irht.cnrs.fr/iiif/23672/canvas/canvas-2295360#xywh=1365,2439,69,124", 
            "resource": {
                "@type": "cnt:ContentAsText", 
                "chars": "EST", 
                "format": "text/plain"
            }
        }, 
        {
            "@id": "https://manifests.teklia.com/HIMANIS/JJ084/words_annotations/FRCHANJJ_JJ084_0012V.json/95/line", 
            "@type": "oa:Annotation", 
            "motivation": "oa:painting", 
            "on": "http://bvmm.irht.cnrs.fr/iiif/23672/canvas/canvas-2295360#xywh=1235,860,62,61", 
            "resource": {
                "@type": "cnt:ContentAsText", 
                "chars": "PERIO", 
                "format": "text/plain"
            }
        }, 
        {
            "@id": "https://manifests.teklia.com/HIMANIS/JJ084/words_annotations/FRCHANJJ_JJ084_0012V.json/96/line", 
            "@type": "oa:Annotation", 
            "motivation": "oa:painting", 
            "on": "http://bvmm.irht.cnrs.fr/iiif/23672/canvas/canvas-2295360#xywh=1235,860,62,61", 
            "resource": {
                "@type": "cnt:ContentAsText", 
                "chars": "PARIO", 
                "format": "text/plain"
            }
        }, 
        {
            "@id": "https://manifests.teklia.com/HIMANIS/JJ084/words_annotations/FRCHANJJ_JJ084_0012V.json/97/line", 
            "@type": "oa:Annotation", 
            "motivation": "oa:painting", 
            "on": "http://bvmm.irht.cnrs.fr/iiif/23672/canvas/canvas-2295360#xywh=1569,1040,68,77", 
            "resource": {
                "@type": "cnt:ContentAsText", 
                "chars": "AL", 
                "format": "text/plain"
            }
        }, 
        {
            "@id": "https://manifests.teklia.com/HIMANIS/JJ084/words_annotations/FRCHANJJ_JJ084_0012V.json/98/line", 
            "@type": "oa:Annotation", 
            "motivation": "oa:painting", 
            "on": "http://bvmm.irht.cnrs.fr/iiif/23672/canvas/canvas-2295360#xywh=1237,577,194,103", 
            "resource": {
                "@type": "cnt:ContentAsText", 
                "chars": "LAMBRIS", 
                "format": "text/plain"
            }
        }, 
        {
            "@id": "https://manifests.teklia.com/HIMANIS/JJ084/words_annotations/FRCHANJJ_JJ084_0012V.json/99/line", 
            "@type": "oa:Annotation", 
            "motivation": "oa:painting", 
            "on": "http://bvmm.irht.cnrs.fr/iiif/23672/canvas/canvas-2295360#xywh=1681,1187,207,106", 
            "resource": {
                "@type": "cnt:ContentAsText", 
                "chars": "FRANQUEL", 
                "format": "text/plain"
            }
        }, 
        {
            "@id": "https://manifests.teklia.com/HIMANIS/JJ084/words_annotations/FRCHANJJ_JJ084_0012V.json/100/line", 
            "@type": "oa:Annotation", 
            "motivation": "oa:painting", 
            "on": "http://bvmm.irht.cnrs.fr/iiif/23672/canvas/canvas-2295360#xywh=1245,928,74,107", 
            "resource": {
                "@type": "cnt:ContentAsText", 
                "chars": "PRO", 
                "format": "text/plain"
            }
        }, 
        {
            "@id": "https://manifests.teklia.com/HIMANIS/JJ084/words_annotations/FRCHANJJ_JJ084_0012V.json/101/line", 
            "@type": "oa:Annotation", 
            "motivation": "oa:painting", 
            "on": "http://bvmm.irht.cnrs.fr/iiif/23672/canvas/canvas-2295360#xywh=1048,2439,178,124", 
            "resource": {
                "@type": "cnt:ContentAsText", 
                "chars": "COLLAUME", 
                "format": "text/plain"
            }
        }, 
        {
            "@id": "https://manifests.teklia.com/HIMANIS/JJ084/words_annotations/FRCHANJJ_JJ084_0012V.json/102/line", 
            "@type": "oa:Annotation", 
            "motivation": "oa:painting", 
            "on": "http://bvmm.irht.cnrs.fr/iiif/23672/canvas/canvas-2295360#xywh=1681,1187,253,106", 
            "resource": {
                "@type": "cnt:ContentAsText", 
                "chars": "FRANQUELE", 
                "format": "text/plain"
            }
        }, 
        {
            "@id": "https://manifests.teklia.com/HIMANIS/JJ084/words_annotations/FRCHANJJ_JJ084_0012V.json/103/line", 
            "@type": "oa:Annotation", 
            "motivation": "oa:painting", 
            "on": "http://bvmm.irht.cnrs.fr/iiif/23672/canvas/canvas-2295360#xywh=1514,685,248,55", 
            "resource": {
                "@type": "cnt:ContentAsText", 
                "chars": "CONCELLE", 
                "format": "text/plain"
            }
        }, 
        {
            "@id": "https://manifests.teklia.com/HIMANIS/JJ084/words_annotations/FRCHANJJ_JJ084_0012V.json/104/line", 
            "@type": "oa:Annotation", 
            "motivation": "oa:painting", 
            "on": "http://bvmm.irht.cnrs.fr/iiif/23672/canvas/canvas-2295360#xywh=1551,1815,153,81", 
            "resource": {
                "@type": "cnt:ContentAsText", 
                "chars": "REVET", 
                "format": "text/plain"
            }
        }, 
        {
            "@id": "https://manifests.teklia.com/HIMANIS/JJ084/words_annotations/FRCHANJJ_JJ084_0012V.json/105/line", 
            "@type": "oa:Annotation", 
            "motivation": "oa:painting", 
            "on": "http://bvmm.irht.cnrs.fr/iiif/23672/canvas/canvas-2295360#xywh=1551,1815,153,81", 
            "resource": {
                "@type": "cnt:ContentAsText", 
                "chars": "RIVET", 
                "format": "text/plain"
            }
        }, 
        {
            "@id": "https://manifests.teklia.com/HIMANIS/JJ084/words_annotations/FRCHANJJ_JJ084_0012V.json/106/line", 
            "@type": "oa:Annotation", 
            "motivation": "oa:painting", 
            "on": "http://bvmm.irht.cnrs.fr/iiif/23672/canvas/canvas-2295360#xywh=1884,577,175,103", 
            "resource": {
                "@type": "cnt:ContentAsText", 
                "chars": "SERICHII", 
                "format": "text/plain"
            }
        }, 
        {
            "@id": "https://manifests.teklia.com/HIMANIS/JJ084/words_annotations/FRCHANJJ_JJ084_0012V.json/107/line", 
            "@type": "oa:Annotation", 
            "motivation": "oa:painting", 
            "on": "http://bvmm.irht.cnrs.fr/iiif/23672/canvas/canvas-2295360#xywh=1002,1291,393,74", 
            "resource": {
                "@type": "cnt:ContentAsText", 
                "chars": "CONFIRMUACIO", 
                "format": "text/plain"
            }
        }, 
        {
            "@id": "https://manifests.teklia.com/HIMANIS/JJ084/words_annotations/FRCHANJJ_JJ084_0012V.json/108/line", 
            "@type": "oa:Annotation", 
            "motivation": "oa:painting", 
            "on": "http://bvmm.irht.cnrs.fr/iiif/23672/canvas/canvas-2295360#xywh=1423,1291,285,74", 
            "resource": {
                "@type": "cnt:ContentAsText", 
                "chars": "REMISSIONIS", 
                "format": "text/plain"
            }
        }, 
        {
            "@id": "https://manifests.teklia.com/HIMANIS/JJ084/words_annotations/FRCHANJJ_JJ084_0012V.json/109/line", 
            "@type": "oa:Annotation", 
            "motivation": "oa:painting", 
            "on": "http://bvmm.irht.cnrs.fr/iiif/23672/canvas/canvas-2295360#xywh=1974,1187,27,106", 
            "resource": {
                "@type": "cnt:ContentAsText", 
                "chars": "ET", 
                "format": "text/plain"
            }
        }, 
        {
            "@id": "https://manifests.teklia.com/HIMANIS/JJ084/words_annotations/FRCHANJJ_JJ084_0012V.json/110/line", 
            "@type": "oa:Annotation", 
            "motivation": "oa:painting", 
            "on": "http://bvmm.irht.cnrs.fr/iiif/23672/canvas/canvas-2295360#xywh=1348,1116,115,73", 
            "resource": {
                "@type": "cnt:ContentAsText", 
                "chars": "PETRIS", 
                "format": "text/plain"
            }
        }, 
        {
            "@id": "https://manifests.teklia.com/HIMANIS/JJ084/words_annotations/FRCHANJJ_JJ084_0012V.json/111/line", 
            "@type": "oa:Annotation", 
            "motivation": "oa:painting", 
            "on": "http://bvmm.irht.cnrs.fr/iiif/23672/canvas/canvas-2295360#xywh=1487,2029,0,32", 
            "resource": {
                "@type": "cnt:ContentAsText", 
                "chars": "DE", 
                "format": "text/plain"
            }
        }, 
        {
            "@id": "https://manifests.teklia.com/HIMANIS/JJ084/words_annotations/FRCHANJJ_JJ084_0012V.json/112/line", 
            "@type": "oa:Annotation", 
            "motivation": "oa:painting", 
            "on": "http://bvmm.irht.cnrs.fr/iiif/23672/canvas/canvas-2295360#xywh=1582,1363,129,102", 
            "resource": {
                "@type": "cnt:ContentAsText", 
                "chars": "PRETIO", 
                "format": "text/plain"
            }
        }, 
        {
            "@id": "https://manifests.teklia.com/HIMANIS/JJ084/words_annotations/FRCHANJJ_JJ084_0012V.json/113/line", 
            "@type": "oa:Annotation", 
            "motivation": "oa:painting", 
            "on": "http://bvmm.irht.cnrs.fr/iiif/23672/canvas/canvas-2295360#xywh=1011,787,173,28", 
            "resource": {
                "@type": "cnt:ContentAsText", 
                "chars": "AC", 
                "format": "text/plain"
            }
        }, 
        {
            "@id": "https://manifests.teklia.com/HIMANIS/JJ084/words_annotations/FRCHANJJ_JJ084_0012V.json/114/line", 
            "@type": "oa:Annotation", 
            "motivation": "oa:painting", 
            "on": "http://bvmm.irht.cnrs.fr/iiif/23672/canvas/canvas-2295360#xywh=1233,2439,85,124", 
            "resource": {
                "@type": "cnt:ContentAsText", 
                "chars": "FACTA", 
                "format": "text/plain"
            }
        }, 
        {
            "@id": "https://manifests.teklia.com/HIMANIS/JJ084/words_annotations/FRCHANJJ_JJ084_0012V.json/115/line", 
            "@type": "oa:Annotation", 
            "motivation": "oa:painting", 
            "on": "http://bvmm.irht.cnrs.fr/iiif/23672/canvas/canvas-2295360#xywh=1303,1548,42,97", 
            "resource": {
                "@type": "cnt:ContentAsText", 
                "chars": "PRO", 
                "format": "text/plain"
            }
        }, 
        {
            "@id": "https://manifests.teklia.com/HIMANIS/JJ084/words_annotations/FRCHANJJ_JJ084_0012V.json/116/line", 
            "@type": "oa:Annotation", 
            "motivation": "oa:painting", 
            "on": "http://bvmm.irht.cnrs.fr/iiif/23672/canvas/canvas-2295360#xywh=377,942,47,85", 
            "resource": {
                "@type": "cnt:ContentAsText", 
                "chars": "ONI", 
                "format": "text/plain"
            }
        }, 
        {
            "@id": "https://manifests.teklia.com/HIMANIS/JJ084/words_annotations/FRCHANJJ_JJ084_0012V.json/117/line", 
            "@type": "oa:Annotation", 
            "motivation": "oa:painting", 
            "on": "http://bvmm.irht.cnrs.fr/iiif/23672/canvas/canvas-2295360#xywh=1011,1040,209,77", 
            "resource": {
                "@type": "cnt:ContentAsText", 
                "chars": "REMISSIO", 
                "format": "text/plain"
            }
        }, 
        {
            "@id": "https://manifests.teklia.com/HIMANIS/JJ084/words_annotations/FRCHANJJ_JJ084_0012V.json/118/line", 
            "@type": "oa:Annotation", 
            "motivation": "oa:painting", 
            "on": "http://bvmm.irht.cnrs.fr/iiif/23672/canvas/canvas-2295360#xywh=1688,1944,0,34", 
            "resource": {
                "@type": "cnt:ContentAsText", 
                "chars": "S", 
                "format": "text/plain"
            }
        }, 
        {
            "@id": "https://manifests.teklia.com/HIMANIS/JJ084/words_annotations/FRCHANJJ_JJ084_0012V.json/119/line", 
            "@type": "oa:Annotation", 
            "motivation": "oa:painting", 
            "on": "http://bvmm.irht.cnrs.fr/iiif/23672/canvas/canvas-2295360#xywh=375,687,0,55", 
            "resource": {
                "@type": "cnt:ContentAsText", 
                "chars": "G", 
                "format": "text/plain"
            }
        }, 
        {
            "@id": "https://manifests.teklia.com/HIMANIS/JJ084/words_annotations/FRCHANJJ_JJ084_0012V.json/120/line", 
            "@type": "oa:Annotation", 
            "motivation": "oa:painting", 
            "on": "http://bvmm.irht.cnrs.fr/iiif/23672/canvas/canvas-2295360#xywh=1936,1363,97,102", 
            "resource": {
                "@type": "cnt:ContentAsText", 
                "chars": "FRIBUS", 
                "format": "text/plain"
            }
        }, 
        {
            "@id": "https://manifests.teklia.com/HIMANIS/JJ084/words_annotations/FRCHANJJ_JJ084_0012V.json/121/line", 
            "@type": "oa:Annotation", 
            "motivation": "oa:painting", 
            "on": "http://bvmm.irht.cnrs.fr/iiif/23672/canvas/canvas-2295360#xywh=375,687,0,55", 
            "resource": {
                "@type": "cnt:ContentAsText", 
                "chars": "P", 
                "format": "text/plain"
            }
        }, 
        {
            "@id": "https://manifests.teklia.com/HIMANIS/JJ084/words_annotations/FRCHANJJ_JJ084_0012V.json/122/line", 
            "@type": "oa:Annotation", 
            "motivation": "oa:painting", 
            "on": "http://bvmm.irht.cnrs.fr/iiif/23672/canvas/canvas-2295360#xywh=1607,1641,192,80", 
            "resource": {
                "@type": "cnt:ContentAsText", 
                "chars": "STABLIS", 
                "format": "text/plain"
            }
        }, 
        {
            "@id": "https://manifests.teklia.com/HIMANIS/JJ084/words_annotations/FRCHANJJ_JJ084_0012V.json/123/line", 
            "@type": "oa:Annotation", 
            "motivation": "oa:painting", 
            "on": "http://bvmm.irht.cnrs.fr/iiif/23672/canvas/canvas-2295360#xywh=1346,928,106,107", 
            "resource": {
                "@type": "cnt:ContentAsText", 
                "chars": "JOHANNE", 
                "format": "text/plain"
            }
        }, 
        {
            "@id": "https://manifests.teklia.com/HIMANIS/JJ084/words_annotations/FRCHANJJ_JJ084_0012V.json/124/line", 
            "@type": "oa:Annotation", 
            "motivation": "oa:painting", 
            "on": "http://bvmm.irht.cnrs.fr/iiif/23672/canvas/canvas-2295360#xywh=1890,1641,283,80", 
            "resource": {
                "@type": "cnt:ContentAsText", 
                "chars": "SINGULARIBUS", 
                "format": "text/plain"
            }
        }, 
        {
            "@id": "https://manifests.teklia.com/HIMANIS/JJ084/words_annotations/FRCHANJJ_JJ084_0012V.json/125/line", 
            "@type": "oa:Annotation", 
            "motivation": "oa:painting", 
            "on": "http://bvmm.irht.cnrs.fr/iiif/23672/canvas/canvas-2295360#xywh=1687,1548,134,97", 
            "resource": {
                "@type": "cnt:ContentAsText", 
                "chars": "ROBUS", 
                "format": "text/plain"
            }
        }, 
        {
            "@id": "https://manifests.teklia.com/HIMANIS/JJ084/words_annotations/FRCHANJJ_JJ084_0012V.json/126/line", 
            "@type": "oa:Annotation", 
            "motivation": "oa:painting", 
            "on": "http://bvmm.irht.cnrs.fr/iiif/23672/canvas/canvas-2295360#xywh=1487,2029,255,32", 
            "resource": {
                "@type": "cnt:ContentAsText", 
                "chars": "CCC", 
                "format": "text/plain"
            }
        }, 
        {
            "@id": "https://manifests.teklia.com/HIMANIS/JJ084/words_annotations/FRCHANJJ_JJ084_0012V.json/127/line", 
            "@type": "oa:Annotation", 
            "motivation": "oa:painting", 
            "on": "http://bvmm.irht.cnrs.fr/iiif/23672/canvas/canvas-2295360#xywh=2297,2432,81,100", 
            "resource": {
                "@type": "cnt:ContentAsText", 
                "chars": "FAIT", 
                "format": "text/plain"
            }
        }, 
        {
            "@id": "https://manifests.teklia.com/HIMANIS/JJ084/words_annotations/FRCHANJJ_JJ084_0012V.json/128/line", 
            "@type": "oa:Annotation", 
            "motivation": "oa:painting", 
            "on": "http://bvmm.irht.cnrs.fr/iiif/23672/canvas/canvas-2295360#xywh=379,1550,0,97", 
            "resource": {
                "@type": "cnt:ContentAsText", 
                "chars": "G", 
                "format": "text/plain"
            }
        }, 
        {
            "@id": "https://manifests.teklia.com/HIMANIS/JJ084/words_annotations/FRCHANJJ_JJ084_0012V.json/129/line", 
            "@type": "oa:Annotation", 
            "motivation": "oa:painting", 
            "on": "http://bvmm.irht.cnrs.fr/iiif/23672/canvas/canvas-2295360#xywh=1276,1463,98,74", 
            "resource": {
                "@type": "cnt:ContentAsText", 
                "chars": "PRO", 
                "format": "text/plain"
            }
        }, 
        {
            "@id": "https://manifests.teklia.com/HIMANIS/JJ084/words_annotations/FRCHANJJ_JJ084_0012V.json/130/line", 
            "@type": "oa:Annotation", 
            "motivation": "oa:painting", 
            "on": "http://bvmm.irht.cnrs.fr/iiif/23672/canvas/canvas-2295360#xywh=1479,928,87,107", 
            "resource": {
                "@type": "cnt:ContentAsText", 
                "chars": "BOU", 
                "format": "text/plain"
            }
        }, 
        {
            "@id": "https://manifests.teklia.com/HIMANIS/JJ084/words_annotations/FRCHANJJ_JJ084_0012V.json/131/line", 
            "@type": "oa:Annotation", 
            "motivation": "oa:painting", 
            "on": "http://bvmm.irht.cnrs.fr/iiif/23672/canvas/canvas-2295360#xywh=704,2059,30,14", 
            "resource": {
                "@type": "cnt:ContentAsText", 
                "chars": "ET", 
                "format": "text/plain"
            }
        }, 
        {
            "@id": "https://manifests.teklia.com/HIMANIS/JJ084/words_annotations/FRCHANJJ_JJ084_0012V.json/132/line", 
            "@type": "oa:Annotation", 
            "motivation": "oa:painting", 
            "on": "http://bvmm.irht.cnrs.fr/iiif/23672/canvas/canvas-2295360#xywh=1364,1548,280,97", 
            "resource": {
                "@type": "cnt:ContentAsText", 
                "chars": "HANEQUERO", 
                "format": "text/plain"
            }
        }, 
        {
            "@id": "https://manifests.teklia.com/HIMANIS/JJ084/words_annotations/FRCHANJJ_JJ084_0012V.json/133/line", 
            "@type": "oa:Annotation", 
            "motivation": "oa:painting", 
            "on": "http://bvmm.irht.cnrs.fr/iiif/23672/canvas/canvas-2295360#xywh=1582,1363,129,102", 
            "resource": {
                "@type": "cnt:ContentAsText", 
                "chars": "PETIO", 
                "format": "text/plain"
            }
        }, 
        {
            "@id": "https://manifests.teklia.com/HIMANIS/JJ084/words_annotations/FRCHANJJ_JJ084_0012V.json/134/line", 
            "@type": "oa:Annotation", 
            "motivation": "oa:painting", 
            "on": "http://bvmm.irht.cnrs.fr/iiif/23672/canvas/canvas-2295360#xywh=1213,1641,81,80", 
            "resource": {
                "@type": "cnt:ContentAsText", 
                "chars": "PRO", 
                "format": "text/plain"
            }
        }, 
        {
            "@id": "https://manifests.teklia.com/HIMANIS/JJ084/words_annotations/FRCHANJJ_JJ084_0012V.json/135/line", 
            "@type": "oa:Annotation", 
            "motivation": "oa:painting", 
            "on": "http://bvmm.irht.cnrs.fr/iiif/23672/canvas/canvas-2295360#xywh=1745,1291,33,74", 
            "resource": {
                "@type": "cnt:ContentAsText", 
                "chars": "PRO", 
                "format": "text/plain"
            }
        }, 
        {
            "@id": "https://manifests.teklia.com/HIMANIS/JJ084/words_annotations/FRCHANJJ_JJ084_0012V.json/136/line", 
            "@type": "oa:Annotation", 
            "motivation": "oa:painting", 
            "on": "http://bvmm.irht.cnrs.fr/iiif/23672/canvas/canvas-2295360#xywh=1019,1463,210,74", 
            "resource": {
                "@type": "cnt:ContentAsText", 
                "chars": "REMISSIO", 
                "format": "text/plain"
            }
        }, 
        {
            "@id": "https://manifests.teklia.com/HIMANIS/JJ084/words_annotations/FRCHANJJ_JJ084_0012V.json/137/line", 
            "@type": "oa:Annotation", 
            "motivation": "oa:painting", 
            "on": "http://bvmm.irht.cnrs.fr/iiif/23672/canvas/canvas-2295360#xywh=1273,1040,73,77", 
            "resource": {
                "@type": "cnt:ContentAsText", 
                "chars": "PRO", 
                "format": "text/plain"
            }
        }, 
        {
            "@id": "https://manifests.teklia.com/HIMANIS/JJ084/words_annotations/FRCHANJJ_JJ084_0012V.json/138/line", 
            "@type": "oa:Annotation", 
            "motivation": "oa:painting", 
            "on": "http://bvmm.irht.cnrs.fr/iiif/23672/canvas/canvas-2295360#xywh=1407,4701,1810,109", 
            "resource": {
                "@type": "cnt:ContentAsText", 
                "chars": "DE", 
                "format": "text/plain"
            }
        }, 
        {
            "@id": "https://manifests.teklia.com/HIMANIS/JJ084/words_annotations/FRCHANJJ_JJ084_0012V.json/139/line", 
            "@type": "oa:Annotation", 
            "motivation": "oa:painting", 
            "on": "http://bvmm.irht.cnrs.fr/iiif/23672/canvas/canvas-2295360#xywh=1442,2029,45,32", 
            "resource": {
                "@type": "cnt:ContentAsText", 
                "chars": "IN", 
                "format": "text/plain"
            }
        }, 
        {
            "@id": "https://manifests.teklia.com/HIMANIS/JJ084/words_annotations/FRCHANJJ_JJ084_0012V.json/140/line", 
            "@type": "oa:Annotation", 
            "motivation": "oa:painting", 
            "on": "http://bvmm.irht.cnrs.fr/iiif/23672/canvas/canvas-2295360#xywh=1442,2029,45,32", 
            "resource": {
                "@type": "cnt:ContentAsText", 
                "chars": "AN", 
                "format": "text/plain"
            }
        }, 
        {
            "@id": "https://manifests.teklia.com/HIMANIS/JJ084/words_annotations/FRCHANJJ_JJ084_0012V.json/141/line", 
            "@type": "oa:Annotation", 
            "motivation": "oa:painting", 
            "on": "http://bvmm.irht.cnrs.fr/iiif/23672/canvas/canvas-2295360#xywh=1442,2029,45,32", 
            "resource": {
                "@type": "cnt:ContentAsText", 
                "chars": "AU", 
                "format": "text/plain"
            }
        }, 
        {
            "@id": "https://manifests.teklia.com/HIMANIS/JJ084/words_annotations/FRCHANJJ_JJ084_0012V.json/142/line", 
            "@type": "oa:Annotation", 
            "motivation": "oa:painting", 
            "on": "http://bvmm.irht.cnrs.fr/iiif/23672/canvas/canvas-2295360#xywh=1998,1291,42,74", 
            "resource": {
                "@type": "cnt:ContentAsText", 
                "chars": "DE", 
                "format": "text/plain"
            }
        }, 
        {
            "@id": "https://manifests.teklia.com/HIMANIS/JJ084/words_annotations/FRCHANJJ_JJ084_0012V.json/143/line", 
            "@type": "oa:Annotation", 
            "motivation": "oa:painting", 
            "on": "http://bvmm.irht.cnrs.fr/iiif/23672/canvas/canvas-2295360#xywh=1229,685,73,55", 
            "resource": {
                "@type": "cnt:ContentAsText", 
                "chars": "PRO", 
                "format": "text/plain"
            }
        }, 
        {
            "@id": "https://manifests.teklia.com/HIMANIS/JJ084/words_annotations/FRCHANJJ_JJ084_0012V.json/144/line", 
            "@type": "oa:Annotation", 
            "motivation": "oa:painting", 
            "on": "http://bvmm.irht.cnrs.fr/iiif/23672/canvas/canvas-2295360#xywh=1359,1641,157,80", 
            "resource": {
                "@type": "cnt:ContentAsText", 
                "chars": "MAJORE", 
                "format": "text/plain"
            }
        }, 
        {
            "@id": "https://manifests.teklia.com/HIMANIS/JJ084/words_annotations/FRCHANJJ_JJ084_0012V.json/145/line", 
            "@type": "oa:Annotation", 
            "motivation": "oa:painting", 
            "on": "http://bvmm.irht.cnrs.fr/iiif/23672/canvas/canvas-2295360#xywh=1884,577,175,103", 
            "resource": {
                "@type": "cnt:ContentAsText", 
                "chars": "SEANCHII", 
                "format": "text/plain"
            }
        }, 
        {
            "@id": "https://manifests.teklia.com/HIMANIS/JJ084/words_annotations/FRCHANJJ_JJ084_0012V.json/146/line", 
            "@type": "oa:Annotation", 
            "motivation": "oa:painting", 
            "on": "http://bvmm.irht.cnrs.fr/iiif/23672/canvas/canvas-2295360#xywh=2213,1641,152,80", 
            "resource": {
                "@type": "cnt:ContentAsText", 
                "chars": "PERSONNIS", 
                "format": "text/plain"
            }
        }, 
        {
            "@id": "https://manifests.teklia.com/HIMANIS/JJ084/words_annotations/FRCHANJJ_JJ084_0012V.json/147/line", 
            "@type": "oa:Annotation", 
            "motivation": "oa:painting", 
            "on": "http://bvmm.irht.cnrs.fr/iiif/23672/canvas/canvas-2295360#xywh=1874,1711,184,30", 
            "resource": {
                "@type": "cnt:ContentAsText", 
                "chars": "PO", 
                "format": "text/plain"
            }
        }, 
        {
            "@id": "https://manifests.teklia.com/HIMANIS/JJ084/words_annotations/FRCHANJJ_JJ084_0012V.json/148/line", 
            "@type": "oa:Annotation", 
            "motivation": "oa:painting", 
            "on": "http://bvmm.irht.cnrs.fr/iiif/23672/canvas/canvas-2295360#xywh=1416,1463,243,74", 
            "resource": {
                "@type": "cnt:ContentAsText", 
                "chars": "LAURENTO", 
                "format": "text/plain"
            }
        }, 
        {
            "@id": "https://manifests.teklia.com/HIMANIS/JJ084/words_annotations/FRCHANJJ_JJ084_0012V.json/149/line", 
            "@type": "oa:Annotation", 
            "motivation": "oa:painting", 
            "on": "http://bvmm.irht.cnrs.fr/iiif/23672/canvas/canvas-2295360#xywh=390,813,0,25", 
            "resource": {
                "@type": "cnt:ContentAsText", 
                "chars": "G", 
                "format": "text/plain"
            }
        }, 
        {
            "@id": "https://manifests.teklia.com/HIMANIS/JJ084/words_annotations/FRCHANJJ_JJ084_0012V.json/150/line", 
            "@type": "oa:Annotation", 
            "motivation": "oa:painting", 
            "on": "http://bvmm.irht.cnrs.fr/iiif/23672/canvas/canvas-2295360#xywh=1874,1711,0,30", 
            "resource": {
                "@type": "cnt:ContentAsText", 
                "chars": "O", 
                "format": "text/plain"
            }
        }, 
        {
            "@id": "https://manifests.teklia.com/HIMANIS/JJ084/words_annotations/FRCHANJJ_JJ084_0012V.json/151/line", 
            "@type": "oa:Annotation", 
            "motivation": "oa:painting", 
            "on": "http://bvmm.irht.cnrs.fr/iiif/23672/canvas/canvas-2295360#xywh=1388,787,329,28", 
            "resource": {
                "@type": "cnt:ContentAsText", 
                "chars": "PIER", 
                "format": "text/plain"
            }
        }, 
        {
            "@id": "https://manifests.teklia.com/HIMANIS/JJ084/words_annotations/FRCHANJJ_JJ084_0012V.json/152/line", 
            "@type": "oa:Annotation", 
            "motivation": "oa:painting", 
            "on": "http://bvmm.irht.cnrs.fr/iiif/23672/canvas/canvas-2295360#xywh=390,813,0,25", 
            "resource": {
                "@type": "cnt:ContentAsText", 
                "chars": "J", 
                "format": "text/plain"
            }
        }
    ]
}