{
    "@context": "http://iiif.io/api/presentation/2/context.json", 
    "@id": "https://manifests.teklia.com/HIMANIS/JJ075/words_annotations/FRCHANJJ_JJ075_0298V.json", 
    "@type": "sc:AnnotationList", 
    "resources": [
        {
            "@id": "https://manifests.teklia.com/HIMANIS/JJ075/words_annotations/FRCHANJJ_JJ075_0298V.json/0/line", 
            "@type": "oa:Annotation", 
            "motivation": "oa:painting", 
            "on": "http://bvmm.irht.cnrs.fr/iiif/23657/canvas/canvas-2288681#xywh=0,4918,3539,141", 
            "resource": {
                "@type": "cnt:ContentAsText", 
                "chars": "PRESEN", 
                "format": "text/plain"
            }
        }, 
        {
            "@id": "https://manifests.teklia.com/HIMANIS/JJ075/words_annotations/FRCHANJJ_JJ075_0298V.json/1/line", 
            "@type": "oa:Annotation", 
            "motivation": "oa:painting", 
            "on": "http://bvmm.irht.cnrs.fr/iiif/23657/canvas/canvas-2288681#xywh=0,4918,2723,141", 
            "resource": {
                "@type": "cnt:ContentAsText", 
                "chars": "ET", 
                "format": "text/plain"
            }
        }, 
        {
            "@id": "https://manifests.teklia.com/HIMANIS/JJ075/words_annotations/FRCHANJJ_JJ075_0298V.json/2/line", 
            "@type": "oa:Annotation", 
            "motivation": "oa:painting", 
            "on": "http://bvmm.irht.cnrs.fr/iiif/23657/canvas/canvas-2288681#xywh=0,0,564,96", 
            "resource": {
                "@type": "cnt:ContentAsText", 
                "chars": "TE", 
                "format": "text/plain"
            }
        }, 
        {
            "@id": "https://manifests.teklia.com/HIMANIS/JJ075/words_annotations/FRCHANJJ_JJ075_0298V.json/3/line", 
            "@type": "oa:Annotation", 
            "motivation": "oa:painting", 
            "on": "http://bvmm.irht.cnrs.fr/iiif/23657/canvas/canvas-2288681#xywh=0,0,570,96", 
            "resource": {
                "@type": "cnt:ContentAsText", 
                "chars": "CT", 
                "format": "text/plain"
            }
        }, 
        {
            "@id": "https://manifests.teklia.com/HIMANIS/JJ075/words_annotations/FRCHANJJ_JJ075_0298V.json/4/line", 
            "@type": "oa:Annotation", 
            "motivation": "oa:painting", 
            "on": "http://bvmm.irht.cnrs.fr/iiif/23657/canvas/canvas-2288681#xywh=0,0,558,96", 
            "resource": {
                "@type": "cnt:ContentAsText", 
                "chars": "ET", 
                "format": "text/plain"
            }
        }, 
        {
            "@id": "https://manifests.teklia.com/HIMANIS/JJ075/words_annotations/FRCHANJJ_JJ075_0298V.json/5/line", 
            "@type": "oa:Annotation", 
            "motivation": "oa:painting", 
            "on": "http://bvmm.irht.cnrs.fr/iiif/23657/canvas/canvas-2288681#xywh=2966,4448,0,50", 
            "resource": {
                "@type": "cnt:ContentAsText", 
                "chars": "P", 
                "format": "text/plain"
            }
        }, 
        {
            "@id": "https://manifests.teklia.com/HIMANIS/JJ075/words_annotations/FRCHANJJ_JJ075_0298V.json/6/line", 
            "@type": "oa:Annotation", 
            "motivation": "oa:painting", 
            "on": "http://bvmm.irht.cnrs.fr/iiif/23657/canvas/canvas-2288681#xywh=0,4918,3565,141", 
            "resource": {
                "@type": "cnt:ContentAsText", 
                "chars": "DESSUS", 
                "format": "text/plain"
            }
        }, 
        {
            "@id": "https://manifests.teklia.com/HIMANIS/JJ075/words_annotations/FRCHANJJ_JJ075_0298V.json/7/line", 
            "@type": "oa:Annotation", 
            "motivation": "oa:painting", 
            "on": "http://bvmm.irht.cnrs.fr/iiif/23657/canvas/canvas-2288681#xywh=1867,1021,0,36", 
            "resource": {
                "@type": "cnt:ContentAsText", 
                "chars": "J", 
                "format": "text/plain"
            }
        }
    ]
}