{
    "@context": "http://iiif.io/api/presentation/2/context.json", 
    "@id": "https://manifests.teklia.com/HIMANIS/JJ081/words_annotations/FRCHANJJ_JJ081_0346V.json", 
    "@type": "sc:AnnotationList", 
    "resources": [
        {
            "@id": "https://manifests.teklia.com/HIMANIS/JJ081/words_annotations/FRCHANJJ_JJ081_0346V.json/0/line", 
            "@type": "oa:Annotation", 
            "motivation": "oa:painting", 
            "on": "http://bvmm.irht.cnrs.fr/iiif/23669/canvas/canvas-2294225#xywh=2436,1104,176,68", 
            "resource": {
                "@type": "cnt:ContentAsText", 
                "chars": "DEVANT", 
                "format": "text/plain"
            }
        }, 
        {
            "@id": "https://manifests.teklia.com/HIMANIS/JJ081/words_annotations/FRCHANJJ_JJ081_0346V.json/1/line", 
            "@type": "oa:Annotation", 
            "motivation": "oa:painting", 
            "on": "http://bvmm.irht.cnrs.fr/iiif/23669/canvas/canvas-2294225#xywh=1467,1092,256,80", 
            "resource": {
                "@type": "cnt:ContentAsText", 
                "chars": "PARAR", 
                "format": "text/plain"
            }
        }, 
        {
            "@id": "https://manifests.teklia.com/HIMANIS/JJ081/words_annotations/FRCHANJJ_JJ081_0346V.json/2/line", 
            "@type": "oa:Annotation", 
            "motivation": "oa:painting", 
            "on": "http://bvmm.irht.cnrs.fr/iiif/23669/canvas/canvas-2294225#xywh=1054,932,136,80", 
            "resource": {
                "@type": "cnt:ContentAsText", 
                "chars": "GUILLER", 
                "format": "text/plain"
            }
        }, 
        {
            "@id": "https://manifests.teklia.com/HIMANIS/JJ081/words_annotations/FRCHANJJ_JJ081_0346V.json/3/line", 
            "@type": "oa:Annotation", 
            "motivation": "oa:painting", 
            "on": "http://bvmm.irht.cnrs.fr/iiif/23669/canvas/canvas-2294225#xywh=1054,932,136,80", 
            "resource": {
                "@type": "cnt:ContentAsText", 
                "chars": "GUILLES", 
                "format": "text/plain"
            }
        }, 
        {
            "@id": "https://manifests.teklia.com/HIMANIS/JJ081/words_annotations/FRCHANJJ_JJ081_0346V.json/4/line", 
            "@type": "oa:Annotation", 
            "motivation": "oa:painting", 
            "on": "http://bvmm.irht.cnrs.fr/iiif/23669/canvas/canvas-2294225#xywh=1907,932,177,80", 
            "resource": {
                "@type": "cnt:ContentAsText", 
                "chars": "BERNA", 
                "format": "text/plain"
            }
        }, 
        {
            "@id": "https://manifests.teklia.com/HIMANIS/JJ081/words_annotations/FRCHANJJ_JJ081_0346V.json/5/line", 
            "@type": "oa:Annotation", 
            "motivation": "oa:painting", 
            "on": "http://bvmm.irht.cnrs.fr/iiif/23669/canvas/canvas-2294225#xywh=1316,932,31,80", 
            "resource": {
                "@type": "cnt:ContentAsText", 
                "chars": "LA", 
                "format": "text/plain"
            }
        }, 
        {
            "@id": "https://manifests.teklia.com/HIMANIS/JJ081/words_annotations/FRCHANJJ_JJ081_0346V.json/6/line", 
            "@type": "oa:Annotation", 
            "motivation": "oa:painting", 
            "on": "http://bvmm.irht.cnrs.fr/iiif/23669/canvas/canvas-2294225#xywh=1256,932,35,80", 
            "resource": {
                "@type": "cnt:ContentAsText", 
                "chars": "DE", 
                "format": "text/plain"
            }
        }, 
        {
            "@id": "https://manifests.teklia.com/HIMANIS/JJ081/words_annotations/FRCHANJJ_JJ081_0346V.json/7/line", 
            "@type": "oa:Annotation", 
            "motivation": "oa:painting", 
            "on": "http://bvmm.irht.cnrs.fr/iiif/23669/canvas/canvas-2294225#xywh=1582,604,144,72", 
            "resource": {
                "@type": "cnt:ContentAsText", 
                "chars": "RAISON", 
                "format": "text/plain"
            }
        }, 
        {
            "@id": "https://manifests.teklia.com/HIMANIS/JJ081/words_annotations/FRCHANJJ_JJ081_0346V.json/8/line", 
            "@type": "oa:Annotation", 
            "motivation": "oa:painting", 
            "on": "http://bvmm.irht.cnrs.fr/iiif/23669/canvas/canvas-2294225#xywh=2252,984,166,56", 
            "resource": {
                "@type": "cnt:ContentAsText", 
                "chars": "DE", 
                "format": "text/plain"
            }
        }, 
        {
            "@id": "https://manifests.teklia.com/HIMANIS/JJ081/words_annotations/FRCHANJJ_JJ081_0346V.json/9/line", 
            "@type": "oa:Annotation", 
            "motivation": "oa:painting", 
            "on": "http://bvmm.irht.cnrs.fr/iiif/23669/canvas/canvas-2294225#xywh=1191,676,338,56", 
            "resource": {
                "@type": "cnt:ContentAsText", 
                "chars": "CONSTREES", 
                "format": "text/plain"
            }
        }, 
        {
            "@id": "https://manifests.teklia.com/HIMANIS/JJ081/words_annotations/FRCHANJJ_JJ081_0346V.json/10/line", 
            "@type": "oa:Annotation", 
            "motivation": "oa:painting", 
            "on": "http://bvmm.irht.cnrs.fr/iiif/23669/canvas/canvas-2294225#xywh=2097,0,1605,128", 
            "resource": {
                "@type": "cnt:ContentAsText", 
                "chars": "LETTRES", 
                "format": "text/plain"
            }
        }, 
        {
            "@id": "https://manifests.teklia.com/HIMANIS/JJ081/words_annotations/FRCHANJJ_JJ081_0346V.json/11/line", 
            "@type": "oa:Annotation", 
            "motivation": "oa:painting", 
            "on": "http://bvmm.irht.cnrs.fr/iiif/23669/canvas/canvas-2294225#xywh=2162,1172,192,36", 
            "resource": {
                "@type": "cnt:ContentAsText", 
                "chars": "GUILLE", 
                "format": "text/plain"
            }
        }, 
        {
            "@id": "https://manifests.teklia.com/HIMANIS/JJ081/words_annotations/FRCHANJJ_JJ081_0346V.json/12/line", 
            "@type": "oa:Annotation", 
            "motivation": "oa:painting", 
            "on": "http://bvmm.irht.cnrs.fr/iiif/23669/canvas/canvas-2294225#xywh=1626,1208,317,80", 
            "resource": {
                "@type": "cnt:ContentAsText", 
                "chars": "CARCERII", 
                "format": "text/plain"
            }
        }, 
        {
            "@id": "https://manifests.teklia.com/HIMANIS/JJ081/words_annotations/FRCHANJJ_JJ081_0346V.json/13/line", 
            "@type": "oa:Annotation", 
            "motivation": "oa:painting", 
            "on": "http://bvmm.irht.cnrs.fr/iiif/23669/canvas/canvas-2294225#xywh=3636,2989,33,15", 
            "resource": {
                "@type": "cnt:ContentAsText", 
                "chars": "ET", 
                "format": "text/plain"
            }
        }, 
        {
            "@id": "https://manifests.teklia.com/HIMANIS/JJ081/words_annotations/FRCHANJJ_JJ081_0346V.json/14/line", 
            "@type": "oa:Annotation", 
            "motivation": "oa:painting", 
            "on": "http://bvmm.irht.cnrs.fr/iiif/23669/canvas/canvas-2294225#xywh=2568,872,0,44", 
            "resource": {
                "@type": "cnt:ContentAsText", 
                "chars": "G", 
                "format": "text/plain"
            }
        }, 
        {
            "@id": "https://manifests.teklia.com/HIMANIS/JJ081/words_annotations/FRCHANJJ_JJ081_0346V.json/15/line", 
            "@type": "oa:Annotation", 
            "motivation": "oa:painting", 
            "on": "http://bvmm.irht.cnrs.fr/iiif/23669/canvas/canvas-2294225#xywh=2568,872,0,44", 
            "resource": {
                "@type": "cnt:ContentAsText", 
                "chars": "H", 
                "format": "text/plain"
            }
        }, 
        {
            "@id": "https://manifests.teklia.com/HIMANIS/JJ081/words_annotations/FRCHANJJ_JJ081_0346V.json/16/line", 
            "@type": "oa:Annotation", 
            "motivation": "oa:painting", 
            "on": "http://bvmm.irht.cnrs.fr/iiif/23669/canvas/canvas-2294225#xywh=2568,872,0,44", 
            "resource": {
                "@type": "cnt:ContentAsText", 
                "chars": "J", 
                "format": "text/plain"
            }
        }, 
        {
            "@id": "https://manifests.teklia.com/HIMANIS/JJ081/words_annotations/FRCHANJJ_JJ081_0346V.json/17/line", 
            "@type": "oa:Annotation", 
            "motivation": "oa:painting", 
            "on": "http://bvmm.irht.cnrs.fr/iiif/23669/canvas/canvas-2294225#xywh=2440,1104,339,68", 
            "resource": {
                "@type": "cnt:ContentAsText", 
                "chars": "LAUDAMUS", 
                "format": "text/plain"
            }
        }, 
        {
            "@id": "https://manifests.teklia.com/HIMANIS/JJ081/words_annotations/FRCHANJJ_JJ081_0346V.json/18/line", 
            "@type": "oa:Annotation", 
            "motivation": "oa:painting", 
            "on": "http://bvmm.irht.cnrs.fr/iiif/23669/canvas/canvas-2294225#xywh=1831,932,61,80", 
            "resource": {
                "@type": "cnt:ContentAsText", 
                "chars": "DEL", 
                "format": "text/plain"
            }
        }, 
        {
            "@id": "https://manifests.teklia.com/HIMANIS/JJ081/words_annotations/FRCHANJJ_JJ081_0346V.json/19/line", 
            "@type": "oa:Annotation", 
            "motivation": "oa:painting", 
            "on": "http://bvmm.irht.cnrs.fr/iiif/23669/canvas/canvas-2294225#xywh=1626,1208,70,80", 
            "resource": {
                "@type": "cnt:ContentAsText", 
                "chars": "RY", 
                "format": "text/plain"
            }
        }, 
        {
            "@id": "https://manifests.teklia.com/HIMANIS/JJ081/words_annotations/FRCHANJJ_JJ081_0346V.json/20/line", 
            "@type": "oa:Annotation", 
            "motivation": "oa:painting", 
            "on": "http://bvmm.irht.cnrs.fr/iiif/23669/canvas/canvas-2294225#xywh=1710,932,71,80", 
            "resource": {
                "@type": "cnt:ContentAsText", 
                "chars": "ROYS", 
                "format": "text/plain"
            }
        }, 
        {
            "@id": "https://manifests.teklia.com/HIMANIS/JJ081/words_annotations/FRCHANJJ_JJ081_0346V.json/21/line", 
            "@type": "oa:Annotation", 
            "motivation": "oa:painting", 
            "on": "http://bvmm.irht.cnrs.fr/iiif/23669/canvas/canvas-2294225#xywh=1533,932,106,80", 
            "resource": {
                "@type": "cnt:ContentAsText", 
                "chars": "VOUS", 
                "format": "text/plain"
            }
        }, 
        {
            "@id": "https://manifests.teklia.com/HIMANIS/JJ081/words_annotations/FRCHANJJ_JJ081_0346V.json/22/line", 
            "@type": "oa:Annotation", 
            "motivation": "oa:painting", 
            "on": "http://bvmm.irht.cnrs.fr/iiif/23669/canvas/canvas-2294225#xywh=1579,932,60,80", 
            "resource": {
                "@type": "cnt:ContentAsText", 
                "chars": "NOUS", 
                "format": "text/plain"
            }
        }, 
        {
            "@id": "https://manifests.teklia.com/HIMANIS/JJ081/words_annotations/FRCHANJJ_JJ081_0346V.json/23/line", 
            "@type": "oa:Annotation", 
            "motivation": "oa:painting", 
            "on": "http://bvmm.irht.cnrs.fr/iiif/23669/canvas/canvas-2294225#xywh=2676,1104,103,68", 
            "resource": {
                "@type": "cnt:ContentAsText", 
                "chars": "RATAS", 
                "format": "text/plain"
            }
        }, 
        {
            "@id": "https://manifests.teklia.com/HIMANIS/JJ081/words_annotations/FRCHANJJ_JJ081_0346V.json/24/line", 
            "@type": "oa:Annotation", 
            "motivation": "oa:painting", 
            "on": "http://bvmm.irht.cnrs.fr/iiif/23669/canvas/canvas-2294225#xywh=753,732,222,42", 
            "resource": {
                "@type": "cnt:ContentAsText", 
                "chars": "LES", 
                "format": "text/plain"
            }
        }, 
        {
            "@id": "https://manifests.teklia.com/HIMANIS/JJ081/words_annotations/FRCHANJJ_JJ081_0346V.json/25/line", 
            "@type": "oa:Annotation", 
            "motivation": "oa:painting", 
            "on": "http://bvmm.irht.cnrs.fr/iiif/23669/canvas/canvas-2294225#xywh=1668,1364,126,100", 
            "resource": {
                "@type": "cnt:ContentAsText", 
                "chars": "DEBET", 
                "format": "text/plain"
            }
        }, 
        {
            "@id": "https://manifests.teklia.com/HIMANIS/JJ081/words_annotations/FRCHANJJ_JJ081_0346V.json/26/line", 
            "@type": "oa:Annotation", 
            "motivation": "oa:painting", 
            "on": "http://bvmm.irht.cnrs.fr/iiif/23669/canvas/canvas-2294225#xywh=918,1364,94,100", 
            "resource": {
                "@type": "cnt:ContentAsText", 
                "chars": "DE", 
                "format": "text/plain"
            }
        }, 
        {
            "@id": "https://manifests.teklia.com/HIMANIS/JJ081/words_annotations/FRCHANJJ_JJ081_0346V.json/27/line", 
            "@type": "oa:Annotation", 
            "motivation": "oa:painting", 
            "on": "http://bvmm.irht.cnrs.fr/iiif/23669/canvas/canvas-2294225#xywh=1445,1296,355,72", 
            "resource": {
                "@type": "cnt:ContentAsText", 
                "chars": "ACOUS", 
                "format": "text/plain"
            }
        }, 
        {
            "@id": "https://manifests.teklia.com/HIMANIS/JJ081/words_annotations/FRCHANJJ_JJ081_0346V.json/28/line", 
            "@type": "oa:Annotation", 
            "motivation": "oa:painting", 
            "on": "http://bvmm.irht.cnrs.fr/iiif/23669/canvas/canvas-2294225#xywh=2033,1364,107,100", 
            "resource": {
                "@type": "cnt:ContentAsText", 
                "chars": "BERIS", 
                "format": "text/plain"
            }
        }, 
        {
            "@id": "https://manifests.teklia.com/HIMANIS/JJ081/words_annotations/FRCHANJJ_JJ081_0346V.json/29/line", 
            "@type": "oa:Annotation", 
            "motivation": "oa:painting", 
            "on": "http://bvmm.irht.cnrs.fr/iiif/23669/canvas/canvas-2294225#xywh=1184,676,142,56", 
            "resource": {
                "@type": "cnt:ContentAsText", 
                "chars": "DES", 
                "format": "text/plain"
            }
        }, 
        {
            "@id": "https://manifests.teklia.com/HIMANIS/JJ081/words_annotations/FRCHANJJ_JJ081_0346V.json/30/line", 
            "@type": "oa:Annotation", 
            "motivation": "oa:painting", 
            "on": "http://bvmm.irht.cnrs.fr/iiif/23669/canvas/canvas-2294225#xywh=753,732,222,42", 
            "resource": {
                "@type": "cnt:ContentAsText", 
                "chars": "TOU", 
                "format": "text/plain"
            }
        }, 
        {
            "@id": "https://manifests.teklia.com/HIMANIS/JJ081/words_annotations/FRCHANJJ_JJ081_0346V.json/31/line", 
            "@type": "oa:Annotation", 
            "motivation": "oa:painting", 
            "on": "http://bvmm.irht.cnrs.fr/iiif/23669/canvas/canvas-2294225#xywh=1812,832,609,40", 
            "resource": {
                "@type": "cnt:ContentAsText", 
                "chars": "QUE", 
                "format": "text/plain"
            }
        }, 
        {
            "@id": "https://manifests.teklia.com/HIMANIS/JJ081/words_annotations/FRCHANJJ_JJ081_0346V.json/32/line", 
            "@type": "oa:Annotation", 
            "motivation": "oa:painting", 
            "on": "http://bvmm.irht.cnrs.fr/iiif/23669/canvas/canvas-2294225#xywh=1812,832,609,40", 
            "resource": {
                "@type": "cnt:ContentAsText", 
                "chars": "ET", 
                "format": "text/plain"
            }
        }, 
        {
            "@id": "https://manifests.teklia.com/HIMANIS/JJ081/words_annotations/FRCHANJJ_JJ081_0346V.json/33/line", 
            "@type": "oa:Annotation", 
            "motivation": "oa:painting", 
            "on": "http://bvmm.irht.cnrs.fr/iiif/23669/canvas/canvas-2294225#xywh=990,1152,150,72", 
            "resource": {
                "@type": "cnt:ContentAsText", 
                "chars": "DOCTES", 
                "format": "text/plain"
            }
        }, 
        {
            "@id": "https://manifests.teklia.com/HIMANIS/JJ081/words_annotations/FRCHANJJ_JJ081_0346V.json/34/line", 
            "@type": "oa:Annotation", 
            "motivation": "oa:painting", 
            "on": "http://bvmm.irht.cnrs.fr/iiif/23669/canvas/canvas-2294225#xywh=1492,604,50,72", 
            "resource": {
                "@type": "cnt:ContentAsText", 
                "chars": "PER", 
                "format": "text/plain"
            }
        }, 
        {
            "@id": "https://manifests.teklia.com/HIMANIS/JJ081/words_annotations/FRCHANJJ_JJ081_0346V.json/35/line", 
            "@type": "oa:Annotation", 
            "motivation": "oa:painting", 
            "on": "http://bvmm.irht.cnrs.fr/iiif/23669/canvas/canvas-2294225#xywh=1492,604,54,72", 
            "resource": {
                "@type": "cnt:ContentAsText", 
                "chars": "PAR", 
                "format": "text/plain"
            }
        }, 
        {
            "@id": "https://manifests.teklia.com/HIMANIS/JJ081/words_annotations/FRCHANJJ_JJ081_0346V.json/36/line", 
            "@type": "oa:Annotation", 
            "motivation": "oa:painting", 
            "on": "http://bvmm.irht.cnrs.fr/iiif/23669/canvas/canvas-2294225#xywh=2033,1364,101,100", 
            "resource": {
                "@type": "cnt:ContentAsText", 
                "chars": "BARRIS", 
                "format": "text/plain"
            }
        }, 
        {
            "@id": "https://manifests.teklia.com/HIMANIS/JJ081/words_annotations/FRCHANJJ_JJ081_0346V.json/37/line", 
            "@type": "oa:Annotation", 
            "motivation": "oa:painting", 
            "on": "http://bvmm.irht.cnrs.fr/iiif/23669/canvas/canvas-2294225#xywh=1837,1296,32,72", 
            "resource": {
                "@type": "cnt:ContentAsText", 
                "chars": "DE", 
                "format": "text/plain"
            }
        }, 
        {
            "@id": "https://manifests.teklia.com/HIMANIS/JJ081/words_annotations/FRCHANJJ_JJ081_0346V.json/38/line", 
            "@type": "oa:Annotation", 
            "motivation": "oa:painting", 
            "on": "http://bvmm.irht.cnrs.fr/iiif/23669/canvas/canvas-2294225#xywh=1495,1296,41,72", 
            "resource": {
                "@type": "cnt:ContentAsText", 
                "chars": "LI", 
                "format": "text/plain"
            }
        }, 
        {
            "@id": "https://manifests.teklia.com/HIMANIS/JJ081/words_annotations/FRCHANJJ_JJ081_0346V.json/39/line", 
            "@type": "oa:Annotation", 
            "motivation": "oa:painting", 
            "on": "http://bvmm.irht.cnrs.fr/iiif/23669/canvas/canvas-2294225#xywh=1582,604,144,72", 
            "resource": {
                "@type": "cnt:ContentAsText", 
                "chars": "MAISON", 
                "format": "text/plain"
            }
        }, 
        {
            "@id": "https://manifests.teklia.com/HIMANIS/JJ081/words_annotations/FRCHANJJ_JJ081_0346V.json/40/line", 
            "@type": "oa:Annotation", 
            "motivation": "oa:painting", 
            "on": "http://bvmm.irht.cnrs.fr/iiif/23669/canvas/canvas-2294225#xywh=999,676,146,56", 
            "resource": {
                "@type": "cnt:ContentAsText", 
                "chars": "BRUNI", 
                "format": "text/plain"
            }
        }, 
        {
            "@id": "https://manifests.teklia.com/HIMANIS/JJ081/words_annotations/FRCHANJJ_JJ081_0346V.json/41/line", 
            "@type": "oa:Annotation", 
            "motivation": "oa:painting", 
            "on": "http://bvmm.irht.cnrs.fr/iiif/23669/canvas/canvas-2294225#xywh=2153,1364,132,100", 
            "resource": {
                "@type": "cnt:ContentAsText", 
                "chars": "NOVOIT", 
                "format": "text/plain"
            }
        }, 
        {
            "@id": "https://manifests.teklia.com/HIMANIS/JJ081/words_annotations/FRCHANJJ_JJ081_0346V.json/42/line", 
            "@type": "oa:Annotation", 
            "motivation": "oa:painting", 
            "on": "http://bvmm.irht.cnrs.fr/iiif/23669/canvas/canvas-2294225#xywh=1367,525,0,62", 
            "resource": {
                "@type": "cnt:ContentAsText", 
                "chars": "G", 
                "format": "text/plain"
            }
        }, 
        {
            "@id": "https://manifests.teklia.com/HIMANIS/JJ081/words_annotations/FRCHANJJ_JJ081_0346V.json/43/line", 
            "@type": "oa:Annotation", 
            "motivation": "oa:painting", 
            "on": "http://bvmm.irht.cnrs.fr/iiif/23669/canvas/canvas-2294225#xywh=1562,525,0,62", 
            "resource": {
                "@type": "cnt:ContentAsText", 
                "chars": "P", 
                "format": "text/plain"
            }
        }, 
        {
            "@id": "https://manifests.teklia.com/HIMANIS/JJ081/words_annotations/FRCHANJJ_JJ081_0346V.json/44/line", 
            "@type": "oa:Annotation", 
            "motivation": "oa:painting", 
            "on": "http://bvmm.irht.cnrs.fr/iiif/23669/canvas/canvas-2294225#xywh=2252,984,166,56", 
            "resource": {
                "@type": "cnt:ContentAsText", 
                "chars": "LES", 
                "format": "text/plain"
            }
        }, 
        {
            "@id": "https://manifests.teklia.com/HIMANIS/JJ081/words_annotations/FRCHANJJ_JJ081_0346V.json/45/line", 
            "@type": "oa:Annotation", 
            "motivation": "oa:painting", 
            "on": "http://bvmm.irht.cnrs.fr/iiif/23669/canvas/canvas-2294225#xywh=2033,1364,101,100", 
            "resource": {
                "@type": "cnt:ContentAsText", 
                "chars": "BERI", 
                "format": "text/plain"
            }
        }, 
        {
            "@id": "https://manifests.teklia.com/HIMANIS/JJ081/words_annotations/FRCHANJJ_JJ081_0346V.json/46/line", 
            "@type": "oa:Annotation", 
            "motivation": "oa:painting", 
            "on": "http://bvmm.irht.cnrs.fr/iiif/23669/canvas/canvas-2294225#xywh=844,1032,298,36", 
            "resource": {
                "@type": "cnt:ContentAsText", 
                "chars": "CCC", 
                "format": "text/plain"
            }
        }, 
        {
            "@id": "https://manifests.teklia.com/HIMANIS/JJ081/words_annotations/FRCHANJJ_JJ081_0346V.json/47/line", 
            "@type": "oa:Annotation", 
            "motivation": "oa:painting", 
            "on": "http://bvmm.irht.cnrs.fr/iiif/23669/canvas/canvas-2294225#xywh=1626,1208,282,80", 
            "resource": {
                "@type": "cnt:ContentAsText", 
                "chars": "CARCERI", 
                "format": "text/plain"
            }
        }, 
        {
            "@id": "https://manifests.teklia.com/HIMANIS/JJ081/words_annotations/FRCHANJJ_JJ081_0346V.json/48/line", 
            "@type": "oa:Annotation", 
            "motivation": "oa:painting", 
            "on": "http://bvmm.irht.cnrs.fr/iiif/23669/canvas/canvas-2294225#xywh=2582,984,184,56", 
            "resource": {
                "@type": "cnt:ContentAsText", 
                "chars": "DICERE", 
                "format": "text/plain"
            }
        }, 
        {
            "@id": "https://manifests.teklia.com/HIMANIS/JJ081/words_annotations/FRCHANJJ_JJ081_0346V.json/49/line", 
            "@type": "oa:Annotation", 
            "motivation": "oa:painting", 
            "on": "http://bvmm.irht.cnrs.fr/iiif/23669/canvas/canvas-2294225#xywh=2153,1364,132,100", 
            "resource": {
                "@type": "cnt:ContentAsText", 
                "chars": "NOTART", 
                "format": "text/plain"
            }
        }, 
        {
            "@id": "https://manifests.teklia.com/HIMANIS/JJ081/words_annotations/FRCHANJJ_JJ081_0346V.json/50/line", 
            "@type": "oa:Annotation", 
            "motivation": "oa:painting", 
            "on": "http://bvmm.irht.cnrs.fr/iiif/23669/canvas/canvas-2294225#xywh=976,764,0,44", 
            "resource": {
                "@type": "cnt:ContentAsText", 
                "chars": "P", 
                "format": "text/plain"
            }
        }, 
        {
            "@id": "https://manifests.teklia.com/HIMANIS/JJ081/words_annotations/FRCHANJJ_JJ081_0346V.json/51/line", 
            "@type": "oa:Annotation", 
            "motivation": "oa:painting", 
            "on": "http://bvmm.irht.cnrs.fr/iiif/23669/canvas/canvas-2294225#xywh=2333,1104,82,68", 
            "resource": {
                "@type": "cnt:ContentAsText", 
                "chars": "CE", 
                "format": "text/plain"
            }
        }, 
        {
            "@id": "https://manifests.teklia.com/HIMANIS/JJ081/words_annotations/FRCHANJJ_JJ081_0346V.json/52/line", 
            "@type": "oa:Annotation", 
            "motivation": "oa:painting", 
            "on": "http://bvmm.irht.cnrs.fr/iiif/23669/canvas/canvas-2294225#xywh=844,1032,270,36", 
            "resource": {
                "@type": "cnt:ContentAsText", 
                "chars": "CE", 
                "format": "text/plain"
            }
        }, 
        {
            "@id": "https://manifests.teklia.com/HIMANIS/JJ081/words_annotations/FRCHANJJ_JJ081_0346V.json/53/line", 
            "@type": "oa:Annotation", 
            "motivation": "oa:painting", 
            "on": "http://bvmm.irht.cnrs.fr/iiif/23669/canvas/canvas-2294225#xywh=1582,676,29,56", 
            "resource": {
                "@type": "cnt:ContentAsText", 
                "chars": "XJ", 
                "format": "text/plain"
            }
        }, 
        {
            "@id": "https://manifests.teklia.com/HIMANIS/JJ081/words_annotations/FRCHANJJ_JJ081_0346V.json/54/line", 
            "@type": "oa:Annotation", 
            "motivation": "oa:painting", 
            "on": "http://bvmm.irht.cnrs.fr/iiif/23669/canvas/canvas-2294225#xywh=1184,676,124,56", 
            "resource": {
                "@type": "cnt:ContentAsText", 
                "chars": "DE", 
                "format": "text/plain"
            }
        }, 
        {
            "@id": "https://manifests.teklia.com/HIMANIS/JJ081/words_annotations/FRCHANJJ_JJ081_0346V.json/55/line", 
            "@type": "oa:Annotation", 
            "motivation": "oa:painting", 
            "on": "http://bvmm.irht.cnrs.fr/iiif/23669/canvas/canvas-2294225#xywh=1039,764,69,44", 
            "resource": {
                "@type": "cnt:ContentAsText", 
                "chars": "XL", 
                "format": "text/plain"
            }
        }, 
        {
            "@id": "https://manifests.teklia.com/HIMANIS/JJ081/words_annotations/FRCHANJJ_JJ081_0346V.json/56/line", 
            "@type": "oa:Annotation", 
            "motivation": "oa:painting", 
            "on": "http://bvmm.irht.cnrs.fr/iiif/23669/canvas/canvas-2294225#xywh=2436,1104,343,68", 
            "resource": {
                "@type": "cnt:ContentAsText", 
                "chars": "DEMANDATIS", 
                "format": "text/plain"
            }
        }, 
        {
            "@id": "https://manifests.teklia.com/HIMANIS/JJ081/words_annotations/FRCHANJJ_JJ081_0346V.json/57/line", 
            "@type": "oa:Annotation", 
            "motivation": "oa:painting", 
            "on": "http://bvmm.irht.cnrs.fr/iiif/23669/canvas/canvas-2294225#xywh=1467,1092,201,80", 
            "resource": {
                "@type": "cnt:ContentAsText", 
                "chars": "PAR", 
                "format": "text/plain"
            }
        }, 
        {
            "@id": "https://manifests.teklia.com/HIMANIS/JJ081/words_annotations/FRCHANJJ_JJ081_0346V.json/58/line", 
            "@type": "oa:Annotation", 
            "motivation": "oa:painting", 
            "on": "http://bvmm.irht.cnrs.fr/iiif/23669/canvas/canvas-2294225#xywh=1622,1040,0,20", 
            "resource": {
                "@type": "cnt:ContentAsText", 
                "chars": "J", 
                "format": "text/plain"
            }
        }, 
        {
            "@id": "https://manifests.teklia.com/HIMANIS/JJ081/words_annotations/FRCHANJJ_JJ081_0346V.json/59/line", 
            "@type": "oa:Annotation", 
            "motivation": "oa:painting", 
            "on": "http://bvmm.irht.cnrs.fr/iiif/23669/canvas/canvas-2294225#xywh=2486,984,53,56", 
            "resource": {
                "@type": "cnt:ContentAsText", 
                "chars": "LETTRES", 
                "format": "text/plain"
            }
        }, 
        {
            "@id": "https://manifests.teklia.com/HIMANIS/JJ081/words_annotations/FRCHANJJ_JJ081_0346V.json/60/line", 
            "@type": "oa:Annotation", 
            "motivation": "oa:painting", 
            "on": "http://bvmm.irht.cnrs.fr/iiif/23669/canvas/canvas-2294225#xywh=1622,1040,0,20", 
            "resource": {
                "@type": "cnt:ContentAsText", 
                "chars": "P", 
                "format": "text/plain"
            }
        }, 
        {
            "@id": "https://manifests.teklia.com/HIMANIS/JJ081/words_annotations/FRCHANJJ_JJ081_0346V.json/61/line", 
            "@type": "oa:Annotation", 
            "motivation": "oa:painting", 
            "on": "http://bvmm.irht.cnrs.fr/iiif/23669/canvas/canvas-2294225#xywh=1712,764,69,44", 
            "resource": {
                "@type": "cnt:ContentAsText", 
                "chars": "DE", 
                "format": "text/plain"
            }
        }, 
        {
            "@id": "https://manifests.teklia.com/HIMANIS/JJ081/words_annotations/FRCHANJJ_JJ081_0346V.json/62/line", 
            "@type": "oa:Annotation", 
            "motivation": "oa:painting", 
            "on": "http://bvmm.irht.cnrs.fr/iiif/23669/canvas/canvas-2294225#xywh=1367,525,140,62", 
            "resource": {
                "@type": "cnt:ContentAsText", 
                "chars": "DE", 
                "format": "text/plain"
            }
        }, 
        {
            "@id": "https://manifests.teklia.com/HIMANIS/JJ081/words_annotations/FRCHANJJ_JJ081_0346V.json/63/line", 
            "@type": "oa:Annotation", 
            "motivation": "oa:painting", 
            "on": "http://bvmm.irht.cnrs.fr/iiif/23669/canvas/canvas-2294225#xywh=89,312,28,20", 
            "resource": {
                "@type": "cnt:ContentAsText", 
                "chars": "DE", 
                "format": "text/plain"
            }
        }, 
        {
            "@id": "https://manifests.teklia.com/HIMANIS/JJ081/words_annotations/FRCHANJJ_JJ081_0346V.json/64/line", 
            "@type": "oa:Annotation", 
            "motivation": "oa:painting", 
            "on": "http://bvmm.irht.cnrs.fr/iiif/23669/canvas/canvas-2294225#xywh=1422,1364,76,100", 
            "resource": {
                "@type": "cnt:ContentAsText", 
                "chars": "ALIIS", 
                "format": "text/plain"
            }
        }, 
        {
            "@id": "https://manifests.teklia.com/HIMANIS/JJ081/words_annotations/FRCHANJJ_JJ081_0346V.json/65/line", 
            "@type": "oa:Annotation", 
            "motivation": "oa:painting", 
            "on": "http://bvmm.irht.cnrs.fr/iiif/23669/canvas/canvas-2294225#xywh=1558,1152,86,72", 
            "resource": {
                "@type": "cnt:ContentAsText", 
                "chars": "BERTO", 
                "format": "text/plain"
            }
        }, 
        {
            "@id": "https://manifests.teklia.com/HIMANIS/JJ081/words_annotations/FRCHANJJ_JJ081_0346V.json/66/line", 
            "@type": "oa:Annotation", 
            "motivation": "oa:painting", 
            "on": "http://bvmm.irht.cnrs.fr/iiif/23669/canvas/canvas-2294225#xywh=1943,1208,232,80", 
            "resource": {
                "@type": "cnt:ContentAsText", 
                "chars": "PETITES", 
                "format": "text/plain"
            }
        }, 
        {
            "@id": "https://manifests.teklia.com/HIMANIS/JJ081/words_annotations/FRCHANJJ_JJ081_0346V.json/67/line", 
            "@type": "oa:Annotation", 
            "motivation": "oa:painting", 
            "on": "http://bvmm.irht.cnrs.fr/iiif/23669/canvas/canvas-2294225#xywh=703,732,32,42", 
            "resource": {
                "@type": "cnt:ContentAsText", 
                "chars": "DE", 
                "format": "text/plain"
            }
        }, 
        {
            "@id": "https://manifests.teklia.com/HIMANIS/JJ081/words_annotations/FRCHANJJ_JJ081_0346V.json/68/line", 
            "@type": "oa:Annotation", 
            "motivation": "oa:painting", 
            "on": "http://bvmm.irht.cnrs.fr/iiif/23669/canvas/canvas-2294225#xywh=2219,1296,68,72", 
            "resource": {
                "@type": "cnt:ContentAsText", 
                "chars": "QUOD", 
                "format": "text/plain"
            }
        }, 
        {
            "@id": "https://manifests.teklia.com/HIMANIS/JJ081/words_annotations/FRCHANJJ_JJ081_0346V.json/69/line", 
            "@type": "oa:Annotation", 
            "motivation": "oa:painting", 
            "on": "http://bvmm.irht.cnrs.fr/iiif/23669/canvas/canvas-2294225#xywh=2355,1296,119,72", 
            "resource": {
                "@type": "cnt:ContentAsText", 
                "chars": "DICT", 
                "format": "text/plain"
            }
        }, 
        {
            "@id": "https://manifests.teklia.com/HIMANIS/JJ081/words_annotations/FRCHANJJ_JJ081_0346V.json/70/line", 
            "@type": "oa:Annotation", 
            "motivation": "oa:painting", 
            "on": "http://bvmm.irht.cnrs.fr/iiif/23669/canvas/canvas-2294225#xywh=2033,1364,101,100", 
            "resource": {
                "@type": "cnt:ContentAsText", 
                "chars": "BARRI", 
                "format": "text/plain"
            }
        }, 
        {
            "@id": "https://manifests.teklia.com/HIMANIS/JJ081/words_annotations/FRCHANJJ_JJ081_0346V.json/71/line", 
            "@type": "oa:Annotation", 
            "motivation": "oa:painting", 
            "on": "http://bvmm.irht.cnrs.fr/iiif/23669/canvas/canvas-2294225#xywh=872,3700,0,20", 
            "resource": {
                "@type": "cnt:ContentAsText", 
                "chars": "J", 
                "format": "text/plain"
            }
        }, 
        {
            "@id": "https://manifests.teklia.com/HIMANIS/JJ081/words_annotations/FRCHANJJ_JJ081_0346V.json/72/line", 
            "@type": "oa:Annotation", 
            "motivation": "oa:painting", 
            "on": "http://bvmm.irht.cnrs.fr/iiif/23669/canvas/canvas-2294225#xywh=1400,1296,59,72", 
            "resource": {
                "@type": "cnt:ContentAsText", 
                "chars": "POSSE", 
                "format": "text/plain"
            }
        }, 
        {
            "@id": "https://manifests.teklia.com/HIMANIS/JJ081/words_annotations/FRCHANJJ_JJ081_0346V.json/73/line", 
            "@type": "oa:Annotation", 
            "motivation": "oa:painting", 
            "on": "http://bvmm.irht.cnrs.fr/iiif/23669/canvas/canvas-2294225#xywh=1412,1152,87,72", 
            "resource": {
                "@type": "cnt:ContentAsText", 
                "chars": "MAZ", 
                "format": "text/plain"
            }
        }, 
        {
            "@id": "https://manifests.teklia.com/HIMANIS/JJ081/words_annotations/FRCHANJJ_JJ081_0346V.json/74/line", 
            "@type": "oa:Annotation", 
            "motivation": "oa:painting", 
            "on": "http://bvmm.irht.cnrs.fr/iiif/23669/canvas/canvas-2294225#xywh=1191,676,338,56", 
            "resource": {
                "@type": "cnt:ContentAsText", 
                "chars": "CEDATIS", 
                "format": "text/plain"
            }
        }, 
        {
            "@id": "https://manifests.teklia.com/HIMANIS/JJ081/words_annotations/FRCHANJJ_JJ081_0346V.json/75/line", 
            "@type": "oa:Annotation", 
            "motivation": "oa:painting", 
            "on": "http://bvmm.irht.cnrs.fr/iiif/23669/canvas/canvas-2294225#xywh=1056,872,0,44", 
            "resource": {
                "@type": "cnt:ContentAsText", 
                "chars": "C", 
                "format": "text/plain"
            }
        }, 
        {
            "@id": "https://manifests.teklia.com/HIMANIS/JJ081/words_annotations/FRCHANJJ_JJ081_0346V.json/76/line", 
            "@type": "oa:Annotation", 
            "motivation": "oa:painting", 
            "on": "http://bvmm.irht.cnrs.fr/iiif/23669/canvas/canvas-2294225#xywh=1056,872,0,44", 
            "resource": {
                "@type": "cnt:ContentAsText", 
                "chars": "G", 
                "format": "text/plain"
            }
        }, 
        {
            "@id": "https://manifests.teklia.com/HIMANIS/JJ081/words_annotations/FRCHANJJ_JJ081_0346V.json/77/line", 
            "@type": "oa:Annotation", 
            "motivation": "oa:painting", 
            "on": "http://bvmm.irht.cnrs.fr/iiif/23669/canvas/canvas-2294225#xywh=1445,1296,141,72", 
            "resource": {
                "@type": "cnt:ContentAsText", 
                "chars": "ET", 
                "format": "text/plain"
            }
        }, 
        {
            "@id": "https://manifests.teklia.com/HIMANIS/JJ081/words_annotations/FRCHANJJ_JJ081_0346V.json/78/line", 
            "@type": "oa:Annotation", 
            "motivation": "oa:painting", 
            "on": "http://bvmm.irht.cnrs.fr/iiif/23669/canvas/canvas-2294225#xywh=1056,872,0,44", 
            "resource": {
                "@type": "cnt:ContentAsText", 
                "chars": "R", 
                "format": "text/plain"
            }
        }, 
        {
            "@id": "https://manifests.teklia.com/HIMANIS/JJ081/words_annotations/FRCHANJJ_JJ081_0346V.json/79/line", 
            "@type": "oa:Annotation", 
            "motivation": "oa:painting", 
            "on": "http://bvmm.irht.cnrs.fr/iiif/23669/canvas/canvas-2294225#xywh=804,1152,109,72", 
            "resource": {
                "@type": "cnt:ContentAsText", 
                "chars": "DICTUS", 
                "format": "text/plain"
            }
        }, 
        {
            "@id": "https://manifests.teklia.com/HIMANIS/JJ081/words_annotations/FRCHANJJ_JJ081_0346V.json/80/line", 
            "@type": "oa:Annotation", 
            "motivation": "oa:painting", 
            "on": "http://bvmm.irht.cnrs.fr/iiif/23669/canvas/canvas-2294225#xywh=1026,1208,121,80", 
            "resource": {
                "@type": "cnt:ContentAsText", 
                "chars": "DICTO", 
                "format": "text/plain"
            }
        }, 
        {
            "@id": "https://manifests.teklia.com/HIMANIS/JJ081/words_annotations/FRCHANJJ_JJ081_0346V.json/81/line", 
            "@type": "oa:Annotation", 
            "motivation": "oa:painting", 
            "on": "http://bvmm.irht.cnrs.fr/iiif/23669/canvas/canvas-2294225#xywh=0,4663,0,163", 
            "resource": {
                "@type": "cnt:ContentAsText", 
                "chars": "P", 
                "format": "text/plain"
            }
        }, 
        {
            "@id": "https://manifests.teklia.com/HIMANIS/JJ081/words_annotations/FRCHANJJ_JJ081_0346V.json/82/line", 
            "@type": "oa:Annotation", 
            "motivation": "oa:painting", 
            "on": "http://bvmm.irht.cnrs.fr/iiif/23669/canvas/canvas-2294225#xywh=1445,1296,355,72", 
            "resource": {
                "@type": "cnt:ContentAsText", 
                "chars": "PACOUS", 
                "format": "text/plain"
            }
        }, 
        {
            "@id": "https://manifests.teklia.com/HIMANIS/JJ081/words_annotations/FRCHANJJ_JJ081_0346V.json/83/line", 
            "@type": "oa:Annotation", 
            "motivation": "oa:painting", 
            "on": "http://bvmm.irht.cnrs.fr/iiif/23669/canvas/canvas-2294225#xywh=1244,1152,132,72", 
            "resource": {
                "@type": "cnt:ContentAsText", 
                "chars": "VENDA", 
                "format": "text/plain"
            }
        }, 
        {
            "@id": "https://manifests.teklia.com/HIMANIS/JJ081/words_annotations/FRCHANJJ_JJ081_0346V.json/84/line", 
            "@type": "oa:Annotation", 
            "motivation": "oa:painting", 
            "on": "http://bvmm.irht.cnrs.fr/iiif/23669/canvas/canvas-2294225#xywh=1227,1364,151,100", 
            "resource": {
                "@type": "cnt:ContentAsText", 
                "chars": "GUIARDI", 
                "format": "text/plain"
            }
        }, 
        {
            "@id": "https://manifests.teklia.com/HIMANIS/JJ081/words_annotations/FRCHANJJ_JJ081_0346V.json/85/line", 
            "@type": "oa:Annotation", 
            "motivation": "oa:painting", 
            "on": "http://bvmm.irht.cnrs.fr/iiif/23669/canvas/canvas-2294225#xywh=3137,1060,94,44", 
            "resource": {
                "@type": "cnt:ContentAsText", 
                "chars": "DECLARII", 
                "format": "text/plain"
            }
        }, 
        {
            "@id": "https://manifests.teklia.com/HIMANIS/JJ081/words_annotations/FRCHANJJ_JJ081_0346V.json/86/line", 
            "@type": "oa:Annotation", 
            "motivation": "oa:painting", 
            "on": "http://bvmm.irht.cnrs.fr/iiif/23669/canvas/canvas-2294225#xywh=3137,1060,83,44", 
            "resource": {
                "@type": "cnt:ContentAsText", 
                "chars": "DECLAIRE", 
                "format": "text/plain"
            }
        }, 
        {
            "@id": "https://manifests.teklia.com/HIMANIS/JJ081/words_annotations/FRCHANJJ_JJ081_0346V.json/87/line", 
            "@type": "oa:Annotation", 
            "motivation": "oa:painting", 
            "on": "http://bvmm.irht.cnrs.fr/iiif/23669/canvas/canvas-2294225#xywh=1633,1092,201,80", 
            "resource": {
                "@type": "cnt:ContentAsText", 
                "chars": "LA", 
                "format": "text/plain"
            }
        }, 
        {
            "@id": "https://manifests.teklia.com/HIMANIS/JJ081/words_annotations/FRCHANJJ_JJ081_0346V.json/88/line", 
            "@type": "oa:Annotation", 
            "motivation": "oa:painting", 
            "on": "http://bvmm.irht.cnrs.fr/iiif/23669/canvas/canvas-2294225#xywh=1633,1092,201,80", 
            "resource": {
                "@type": "cnt:ContentAsText", 
                "chars": "LE", 
                "format": "text/plain"
            }
        }, 
        {
            "@id": "https://manifests.teklia.com/HIMANIS/JJ081/words_annotations/FRCHANJJ_JJ081_0346V.json/89/line", 
            "@type": "oa:Annotation", 
            "motivation": "oa:painting", 
            "on": "http://bvmm.irht.cnrs.fr/iiif/23669/canvas/canvas-2294225#xywh=1907,932,121,80", 
            "resource": {
                "@type": "cnt:ContentAsText", 
                "chars": "HERIN", 
                "format": "text/plain"
            }
        }, 
        {
            "@id": "https://manifests.teklia.com/HIMANIS/JJ081/words_annotations/FRCHANJJ_JJ081_0346V.json/90/line", 
            "@type": "oa:Annotation", 
            "motivation": "oa:painting", 
            "on": "http://bvmm.irht.cnrs.fr/iiif/23669/canvas/canvas-2294225#xywh=1907,932,121,80", 
            "resource": {
                "@type": "cnt:ContentAsText", 
                "chars": "HEREN", 
                "format": "text/plain"
            }
        }, 
        {
            "@id": "https://manifests.teklia.com/HIMANIS/JJ081/words_annotations/FRCHANJJ_JJ081_0346V.json/91/line", 
            "@type": "oa:Annotation", 
            "motivation": "oa:painting", 
            "on": "http://bvmm.irht.cnrs.fr/iiif/23669/canvas/canvas-2294225#xywh=2328,1296,105,72", 
            "resource": {
                "@type": "cnt:ContentAsText", 
                "chars": "CUM", 
                "format": "text/plain"
            }
        }, 
        {
            "@id": "https://manifests.teklia.com/HIMANIS/JJ081/words_annotations/FRCHANJJ_JJ081_0346V.json/92/line", 
            "@type": "oa:Annotation", 
            "motivation": "oa:painting", 
            "on": "http://bvmm.irht.cnrs.fr/iiif/23669/canvas/canvas-2294225#xywh=1535,1208,35,80", 
            "resource": {
                "@type": "cnt:ContentAsText", 
                "chars": "DE", 
                "format": "text/plain"
            }
        }, 
        {
            "@id": "https://manifests.teklia.com/HIMANIS/JJ081/words_annotations/FRCHANJJ_JJ081_0346V.json/93/line", 
            "@type": "oa:Annotation", 
            "motivation": "oa:painting", 
            "on": "http://bvmm.irht.cnrs.fr/iiif/23669/canvas/canvas-2294225#xywh=2440,1104,35,68", 
            "resource": {
                "@type": "cnt:ContentAsText", 
                "chars": "DE", 
                "format": "text/plain"
            }
        }, 
        {
            "@id": "https://manifests.teklia.com/HIMANIS/JJ081/words_annotations/FRCHANJJ_JJ081_0346V.json/94/line", 
            "@type": "oa:Annotation", 
            "motivation": "oa:painting", 
            "on": "http://bvmm.irht.cnrs.fr/iiif/23669/canvas/canvas-2294225#xywh=844,1032,152,36", 
            "resource": {
                "@type": "cnt:ContentAsText", 
                "chars": "DE", 
                "format": "text/plain"
            }
        }, 
        {
            "@id": "https://manifests.teklia.com/HIMANIS/JJ081/words_annotations/FRCHANJJ_JJ081_0346V.json/95/line", 
            "@type": "oa:Annotation", 
            "motivation": "oa:painting", 
            "on": "http://bvmm.irht.cnrs.fr/iiif/23669/canvas/canvas-2294225#xywh=999,676,146,56", 
            "resource": {
                "@type": "cnt:ContentAsText", 
                "chars": "GRANSI", 
                "format": "text/plain"
            }
        }, 
        {
            "@id": "https://manifests.teklia.com/HIMANIS/JJ081/words_annotations/FRCHANJJ_JJ081_0346V.json/96/line", 
            "@type": "oa:Annotation", 
            "motivation": "oa:painting", 
            "on": "http://bvmm.irht.cnrs.fr/iiif/23669/canvas/canvas-2294225#xywh=736,676,57,56", 
            "resource": {
                "@type": "cnt:ContentAsText", 
                "chars": "ET", 
                "format": "text/plain"
            }
        }, 
        {
            "@id": "https://manifests.teklia.com/HIMANIS/JJ081/words_annotations/FRCHANJJ_JJ081_0346V.json/97/line", 
            "@type": "oa:Annotation", 
            "motivation": "oa:painting", 
            "on": "http://bvmm.irht.cnrs.fr/iiif/23669/canvas/canvas-2294225#xywh=1896,1296,264,72", 
            "resource": {
                "@type": "cnt:ContentAsText", 
                "chars": "CONFERRAM", 
                "format": "text/plain"
            }
        }, 
        {
            "@id": "https://manifests.teklia.com/HIMANIS/JJ081/words_annotations/FRCHANJJ_JJ081_0346V.json/98/line", 
            "@type": "oa:Annotation", 
            "motivation": "oa:painting", 
            "on": "http://bvmm.irht.cnrs.fr/iiif/23669/canvas/canvas-2294225#xywh=918,1364,126,100", 
            "resource": {
                "@type": "cnt:ContentAsText", 
                "chars": "CHE", 
                "format": "text/plain"
            }
        }, 
        {
            "@id": "https://manifests.teklia.com/HIMANIS/JJ081/words_annotations/FRCHANJJ_JJ081_0346V.json/99/line", 
            "@type": "oa:Annotation", 
            "motivation": "oa:painting", 
            "on": "http://bvmm.irht.cnrs.fr/iiif/23669/canvas/canvas-2294225#xywh=1503,764,197,44", 
            "resource": {
                "@type": "cnt:ContentAsText", 
                "chars": "ET", 
                "format": "text/plain"
            }
        }, 
        {
            "@id": "https://manifests.teklia.com/HIMANIS/JJ081/words_annotations/FRCHANJJ_JJ081_0346V.json/100/line", 
            "@type": "oa:Annotation", 
            "motivation": "oa:painting", 
            "on": "http://bvmm.irht.cnrs.fr/iiif/23669/canvas/canvas-2294225#xywh=1367,525,136,62", 
            "resource": {
                "@type": "cnt:ContentAsText", 
                "chars": "ET", 
                "format": "text/plain"
            }
        }, 
        {
            "@id": "https://manifests.teklia.com/HIMANIS/JJ081/words_annotations/FRCHANJJ_JJ081_0346V.json/101/line", 
            "@type": "oa:Annotation", 
            "motivation": "oa:painting", 
            "on": "http://bvmm.irht.cnrs.fr/iiif/23669/canvas/canvas-2294225#xywh=945,1152,27,72", 
            "resource": {
                "@type": "cnt:ContentAsText", 
                "chars": "LE", 
                "format": "text/plain"
            }
        }, 
        {
            "@id": "https://manifests.teklia.com/HIMANIS/JJ081/words_annotations/FRCHANJJ_JJ081_0346V.json/102/line", 
            "@type": "oa:Annotation", 
            "motivation": "oa:painting", 
            "on": "http://bvmm.irht.cnrs.fr/iiif/23669/canvas/canvas-2294225#xywh=1185,1152,41,72", 
            "resource": {
                "@type": "cnt:ContentAsText", 
                "chars": "DE", 
                "format": "text/plain"
            }
        }, 
        {
            "@id": "https://manifests.teklia.com/HIMANIS/JJ081/words_annotations/FRCHANJJ_JJ081_0346V.json/103/line", 
            "@type": "oa:Annotation", 
            "motivation": "oa:painting", 
            "on": "http://bvmm.irht.cnrs.fr/iiif/23669/canvas/canvas-2294225#xywh=2162,1172,192,36", 
            "resource": {
                "@type": "cnt:ContentAsText", 
                "chars": "GYEM", 
                "format": "text/plain"
            }
        }, 
        {
            "@id": "https://manifests.teklia.com/HIMANIS/JJ081/words_annotations/FRCHANJJ_JJ081_0346V.json/104/line", 
            "@type": "oa:Annotation", 
            "motivation": "oa:painting", 
            "on": "http://bvmm.irht.cnrs.fr/iiif/23669/canvas/canvas-2294225#xywh=1558,1152,86,72", 
            "resource": {
                "@type": "cnt:ContentAsText", 
                "chars": "BEREN", 
                "format": "text/plain"
            }
        }, 
        {
            "@id": "https://manifests.teklia.com/HIMANIS/JJ081/words_annotations/FRCHANJJ_JJ081_0346V.json/105/line", 
            "@type": "oa:Annotation", 
            "motivation": "oa:painting", 
            "on": "http://bvmm.irht.cnrs.fr/iiif/23669/canvas/canvas-2294225#xywh=2252,984,166,56", 
            "resource": {
                "@type": "cnt:ContentAsText", 
                "chars": "DES", 
                "format": "text/plain"
            }
        }, 
        {
            "@id": "https://manifests.teklia.com/HIMANIS/JJ081/words_annotations/FRCHANJJ_JJ081_0346V.json/106/line", 
            "@type": "oa:Annotation", 
            "motivation": "oa:painting", 
            "on": "http://bvmm.irht.cnrs.fr/iiif/23669/canvas/canvas-2294225#xywh=1223,1208,211,80", 
            "resource": {
                "@type": "cnt:ContentAsText", 
                "chars": "GRATAS", 
                "format": "text/plain"
            }
        }, 
        {
            "@id": "https://manifests.teklia.com/HIMANIS/JJ081/words_annotations/FRCHANJJ_JJ081_0346V.json/107/line", 
            "@type": "oa:Annotation", 
            "motivation": "oa:painting", 
            "on": "http://bvmm.irht.cnrs.fr/iiif/23669/canvas/canvas-2294225#xywh=1579,932,76,80", 
            "resource": {
                "@type": "cnt:ContentAsText", 
                "chars": "POSSE", 
                "format": "text/plain"
            }
        }, 
        {
            "@id": "https://manifests.teklia.com/HIMANIS/JJ081/words_annotations/FRCHANJJ_JJ081_0346V.json/108/line", 
            "@type": "oa:Annotation", 
            "motivation": "oa:painting", 
            "on": "http://bvmm.irht.cnrs.fr/iiif/23669/canvas/canvas-2294225#xywh=1464,832,565,40", 
            "resource": {
                "@type": "cnt:ContentAsText", 
                "chars": "CE", 
                "format": "text/plain"
            }
        }, 
        {
            "@id": "https://manifests.teklia.com/HIMANIS/JJ081/words_annotations/FRCHANJJ_JJ081_0346V.json/109/line", 
            "@type": "oa:Annotation", 
            "motivation": "oa:painting", 
            "on": "http://bvmm.irht.cnrs.fr/iiif/23669/canvas/canvas-2294225#xywh=1832,832,26,40", 
            "resource": {
                "@type": "cnt:ContentAsText", 
                "chars": "SI", 
                "format": "text/plain"
            }
        }, 
        {
            "@id": "https://manifests.teklia.com/HIMANIS/JJ081/words_annotations/FRCHANJJ_JJ081_0346V.json/110/line", 
            "@type": "oa:Annotation", 
            "motivation": "oa:painting", 
            "on": "http://bvmm.irht.cnrs.fr/iiif/23669/canvas/canvas-2294225#xywh=1943,1208,232,80", 
            "resource": {
                "@type": "cnt:ContentAsText", 
                "chars": "PETREES", 
                "format": "text/plain"
            }
        }, 
        {
            "@id": "https://manifests.teklia.com/HIMANIS/JJ081/words_annotations/FRCHANJJ_JJ081_0346V.json/111/line", 
            "@type": "oa:Annotation", 
            "motivation": "oa:painting", 
            "on": "http://bvmm.irht.cnrs.fr/iiif/23669/canvas/canvas-2294225#xywh=3137,1060,94,44", 
            "resource": {
                "@type": "cnt:ContentAsText", 
                "chars": "DECLAIRON", 
                "format": "text/plain"
            }
        }, 
        {
            "@id": "https://manifests.teklia.com/HIMANIS/JJ081/words_annotations/FRCHANJJ_JJ081_0346V.json/112/line", 
            "@type": "oa:Annotation", 
            "motivation": "oa:painting", 
            "on": "http://bvmm.irht.cnrs.fr/iiif/23669/canvas/canvas-2294225#xywh=2219,1296,91,72", 
            "resource": {
                "@type": "cnt:ContentAsText", 
                "chars": "QUIPPES", 
                "format": "text/plain"
            }
        }, 
        {
            "@id": "https://manifests.teklia.com/HIMANIS/JJ081/words_annotations/FRCHANJJ_JJ081_0346V.json/113/line", 
            "@type": "oa:Annotation", 
            "motivation": "oa:painting", 
            "on": "http://bvmm.irht.cnrs.fr/iiif/23669/canvas/canvas-2294225#xywh=902,932,101,80", 
            "resource": {
                "@type": "cnt:ContentAsText", 
                "chars": "PHILIPPE", 
                "format": "text/plain"
            }
        }, 
        {
            "@id": "https://manifests.teklia.com/HIMANIS/JJ081/words_annotations/FRCHANJJ_JJ081_0346V.json/114/line", 
            "@type": "oa:Annotation", 
            "motivation": "oa:painting", 
            "on": "http://bvmm.irht.cnrs.fr/iiif/23669/canvas/canvas-2294225#xywh=990,1152,150,72", 
            "resource": {
                "@type": "cnt:ContentAsText", 
                "chars": "DOCTOS", 
                "format": "text/plain"
            }
        }, 
        {
            "@id": "https://manifests.teklia.com/HIMANIS/JJ081/words_annotations/FRCHANJJ_JJ081_0346V.json/115/line", 
            "@type": "oa:Annotation", 
            "motivation": "oa:painting", 
            "on": "http://bvmm.irht.cnrs.fr/iiif/23669/canvas/canvas-2294225#xywh=1227,1364,176,100", 
            "resource": {
                "@type": "cnt:ContentAsText", 
                "chars": "QUADAM", 
                "format": "text/plain"
            }
        }, 
        {
            "@id": "https://manifests.teklia.com/HIMANIS/JJ081/words_annotations/FRCHANJJ_JJ081_0346V.json/116/line", 
            "@type": "oa:Annotation", 
            "motivation": "oa:painting", 
            "on": "http://bvmm.irht.cnrs.fr/iiif/23669/canvas/canvas-2294225#xywh=1545,1296,32,72", 
            "resource": {
                "@type": "cnt:ContentAsText", 
                "chars": "QUE", 
                "format": "text/plain"
            }
        }, 
        {
            "@id": "https://manifests.teklia.com/HIMANIS/JJ081/words_annotations/FRCHANJJ_JJ081_0346V.json/117/line", 
            "@type": "oa:Annotation", 
            "motivation": "oa:painting", 
            "on": "http://bvmm.irht.cnrs.fr/iiif/23669/canvas/canvas-2294225#xywh=844,1032,259,36", 
            "resource": {
                "@type": "cnt:ContentAsText", 
                "chars": "ETC", 
                "format": "text/plain"
            }
        }, 
        {
            "@id": "https://manifests.teklia.com/HIMANIS/JJ081/words_annotations/FRCHANJJ_JJ081_0346V.json/118/line", 
            "@type": "oa:Annotation", 
            "motivation": "oa:painting", 
            "on": "http://bvmm.irht.cnrs.fr/iiif/23669/canvas/canvas-2294225#xywh=1445,1296,91,72", 
            "resource": {
                "@type": "cnt:ContentAsText", 
                "chars": "VI", 
                "format": "text/plain"
            }
        }, 
        {
            "@id": "https://manifests.teklia.com/HIMANIS/JJ081/words_annotations/FRCHANJJ_JJ081_0346V.json/119/line", 
            "@type": "oa:Annotation", 
            "motivation": "oa:painting", 
            "on": "http://bvmm.irht.cnrs.fr/iiif/23669/canvas/canvas-2294225#xywh=2449,832,0,40", 
            "resource": {
                "@type": "cnt:ContentAsText", 
                "chars": "A", 
                "format": "text/plain"
            }
        }, 
        {
            "@id": "https://manifests.teklia.com/HIMANIS/JJ081/words_annotations/FRCHANJJ_JJ081_0346V.json/120/line", 
            "@type": "oa:Annotation", 
            "motivation": "oa:painting", 
            "on": "http://bvmm.irht.cnrs.fr/iiif/23669/canvas/canvas-2294225#xywh=1464,832,0,40", 
            "resource": {
                "@type": "cnt:ContentAsText", 
                "chars": "G", 
                "format": "text/plain"
            }
        }, 
        {
            "@id": "https://manifests.teklia.com/HIMANIS/JJ081/words_annotations/FRCHANJJ_JJ081_0346V.json/121/line", 
            "@type": "oa:Annotation", 
            "motivation": "oa:painting", 
            "on": "http://bvmm.irht.cnrs.fr/iiif/23669/canvas/canvas-2294225#xywh=1710,932,71,80", 
            "resource": {
                "@type": "cnt:ContentAsText", 
                "chars": "ROY", 
                "format": "text/plain"
            }
        }, 
        {
            "@id": "https://manifests.teklia.com/HIMANIS/JJ081/words_annotations/FRCHANJJ_JJ081_0346V.json/122/line", 
            "@type": "oa:Annotation", 
            "motivation": "oa:painting", 
            "on": "http://bvmm.irht.cnrs.fr/iiif/23669/canvas/canvas-2294225#xywh=1464,832,0,40", 
            "resource": {
                "@type": "cnt:ContentAsText", 
                "chars": "P", 
                "format": "text/plain"
            }
        }, 
        {
            "@id": "https://manifests.teklia.com/HIMANIS/JJ081/words_annotations/FRCHANJJ_JJ081_0346V.json/123/line", 
            "@type": "oa:Annotation", 
            "motivation": "oa:painting", 
            "on": "http://bvmm.irht.cnrs.fr/iiif/23669/canvas/canvas-2294225#xywh=790,1296,309,72", 
            "resource": {
                "@type": "cnt:ContentAsText", 
                "chars": "HAGE", 
                "format": "text/plain"
            }
        }, 
        {
            "@id": "https://manifests.teklia.com/HIMANIS/JJ081/words_annotations/FRCHANJJ_JJ081_0346V.json/124/line", 
            "@type": "oa:Annotation", 
            "motivation": "oa:painting", 
            "on": "http://bvmm.irht.cnrs.fr/iiif/23669/canvas/canvas-2294225#xywh=1582,604,112,72", 
            "resource": {
                "@type": "cnt:ContentAsText", 
                "chars": "MONS", 
                "format": "text/plain"
            }
        }, 
        {
            "@id": "https://manifests.teklia.com/HIMANIS/JJ081/words_annotations/FRCHANJJ_JJ081_0346V.json/125/line", 
            "@type": "oa:Annotation", 
            "motivation": "oa:painting", 
            "on": "http://bvmm.irht.cnrs.fr/iiif/23669/canvas/canvas-2294225#xywh=1605,1364,63,100", 
            "resource": {
                "@type": "cnt:ContentAsText", 
                "chars": "ITEM", 
                "format": "text/plain"
            }
        }, 
        {
            "@id": "https://manifests.teklia.com/HIMANIS/JJ081/words_annotations/FRCHANJJ_JJ081_0346V.json/126/line", 
            "@type": "oa:Annotation", 
            "motivation": "oa:painting", 
            "on": "http://bvmm.irht.cnrs.fr/iiif/23669/canvas/canvas-2294225#xywh=1191,676,338,56", 
            "resource": {
                "@type": "cnt:ContentAsText", 
                "chars": "CENSATIS", 
                "format": "text/plain"
            }
        }, 
        {
            "@id": "https://manifests.teklia.com/HIMANIS/JJ081/words_annotations/FRCHANJJ_JJ081_0346V.json/127/line", 
            "@type": "oa:Annotation", 
            "motivation": "oa:painting", 
            "on": "http://bvmm.irht.cnrs.fr/iiif/23669/canvas/canvas-2294225#xywh=1227,1364,176,100", 
            "resource": {
                "@type": "cnt:ContentAsText", 
                "chars": "QUASDAM", 
                "format": "text/plain"
            }
        }, 
        {
            "@id": "https://manifests.teklia.com/HIMANIS/JJ081/words_annotations/FRCHANJJ_JJ081_0346V.json/128/line", 
            "@type": "oa:Annotation", 
            "motivation": "oa:painting", 
            "on": "http://bvmm.irht.cnrs.fr/iiif/23669/canvas/canvas-2294225#xywh=2355,1296,0,72", 
            "resource": {
                "@type": "cnt:ContentAsText", 
                "chars": "C", 
                "format": "text/plain"
            }
        }, 
        {
            "@id": "https://manifests.teklia.com/HIMANIS/JJ081/words_annotations/FRCHANJJ_JJ081_0346V.json/129/line", 
            "@type": "oa:Annotation", 
            "motivation": "oa:painting", 
            "on": "http://bvmm.irht.cnrs.fr/iiif/23669/canvas/canvas-2294225#xywh=3636,2989,35,15", 
            "resource": {
                "@type": "cnt:ContentAsText", 
                "chars": "LE", 
                "format": "text/plain"
            }
        }, 
        {
            "@id": "https://manifests.teklia.com/HIMANIS/JJ081/words_annotations/FRCHANJJ_JJ081_0346V.json/130/line", 
            "@type": "oa:Annotation", 
            "motivation": "oa:painting", 
            "on": "http://bvmm.irht.cnrs.fr/iiif/23669/canvas/canvas-2294225#xywh=1190,1296,173,72", 
            "resource": {
                "@type": "cnt:ContentAsText", 
                "chars": "REGALEM", 
                "format": "text/plain"
            }
        }, 
        {
            "@id": "https://manifests.teklia.com/HIMANIS/JJ081/words_annotations/FRCHANJJ_JJ081_0346V.json/131/line", 
            "@type": "oa:Annotation", 
            "motivation": "oa:painting", 
            "on": "http://bvmm.irht.cnrs.fr/iiif/23669/canvas/canvas-2294225#xywh=1054,932,136,80", 
            "resource": {
                "@type": "cnt:ContentAsText", 
                "chars": "GILLES", 
                "format": "text/plain"
            }
        }, 
        {
            "@id": "https://manifests.teklia.com/HIMANIS/JJ081/words_annotations/FRCHANJJ_JJ081_0346V.json/132/line", 
            "@type": "oa:Annotation", 
            "motivation": "oa:painting", 
            "on": "http://bvmm.irht.cnrs.fr/iiif/23669/canvas/canvas-2294225#xywh=1582,676,29,56", 
            "resource": {
                "@type": "cnt:ContentAsText", 
                "chars": "XIJ", 
                "format": "text/plain"
            }
        }, 
        {
            "@id": "https://manifests.teklia.com/HIMANIS/JJ081/words_annotations/FRCHANJJ_JJ081_0346V.json/133/line", 
            "@type": "oa:Annotation", 
            "motivation": "oa:painting", 
            "on": "http://bvmm.irht.cnrs.fr/iiif/23669/canvas/canvas-2294225#xywh=753,732,222,42", 
            "resource": {
                "@type": "cnt:ContentAsText", 
                "chars": "BOU", 
                "format": "text/plain"
            }
        }, 
        {
            "@id": "https://manifests.teklia.com/HIMANIS/JJ081/words_annotations/FRCHANJJ_JJ081_0346V.json/134/line", 
            "@type": "oa:Annotation", 
            "motivation": "oa:painting", 
            "on": "http://bvmm.irht.cnrs.fr/iiif/23669/canvas/canvas-2294225#xywh=1185,1152,191,72", 
            "resource": {
                "@type": "cnt:ContentAsText", 
                "chars": "DEBENDA", 
                "format": "text/plain"
            }
        }, 
        {
            "@id": "https://manifests.teklia.com/HIMANIS/JJ081/words_annotations/FRCHANJJ_JJ081_0346V.json/135/line", 
            "@type": "oa:Annotation", 
            "motivation": "oa:painting", 
            "on": "http://bvmm.irht.cnrs.fr/iiif/23669/canvas/canvas-2294225#xywh=1459,1208,46,80", 
            "resource": {
                "@type": "cnt:ContentAsText", 
                "chars": "EN", 
                "format": "text/plain"
            }
        }, 
        {
            "@id": "https://manifests.teklia.com/HIMANIS/JJ081/words_annotations/FRCHANJJ_JJ081_0346V.json/136/line", 
            "@type": "oa:Annotation", 
            "motivation": "oa:painting", 
            "on": "http://bvmm.irht.cnrs.fr/iiif/23669/canvas/canvas-2294225#xywh=1968,1208,10,80", 
            "resource": {
                "@type": "cnt:ContentAsText", 
                "chars": "ET", 
                "format": "text/plain"
            }
        }, 
        {
            "@id": "https://manifests.teklia.com/HIMANIS/JJ081/words_annotations/FRCHANJJ_JJ081_0346V.json/137/line", 
            "@type": "oa:Annotation", 
            "motivation": "oa:painting", 
            "on": "http://bvmm.irht.cnrs.fr/iiif/23669/canvas/canvas-2294225#xywh=844,1032,93,36", 
            "resource": {
                "@type": "cnt:ContentAsText", 
                "chars": "ET", 
                "format": "text/plain"
            }
        }, 
        {
            "@id": "https://manifests.teklia.com/HIMANIS/JJ081/words_annotations/FRCHANJJ_JJ081_0346V.json/138/line", 
            "@type": "oa:Annotation", 
            "motivation": "oa:painting", 
            "on": "http://bvmm.irht.cnrs.fr/iiif/23669/canvas/canvas-2294225#xywh=1626,1208,70,80", 
            "resource": {
                "@type": "cnt:ContentAsText", 
                "chars": "AY", 
                "format": "text/plain"
            }
        }, 
        {
            "@id": "https://manifests.teklia.com/HIMANIS/JJ081/words_annotations/FRCHANJJ_JJ081_0346V.json/139/line", 
            "@type": "oa:Annotation", 
            "motivation": "oa:painting", 
            "on": "http://bvmm.irht.cnrs.fr/iiif/23669/canvas/canvas-2294225#xywh=0,3022,28,31", 
            "resource": {
                "@type": "cnt:ContentAsText", 
                "chars": "DE", 
                "format": "text/plain"
            }
        }, 
        {
            "@id": "https://manifests.teklia.com/HIMANIS/JJ081/words_annotations/FRCHANJJ_JJ081_0346V.json/140/line", 
            "@type": "oa:Annotation", 
            "motivation": "oa:painting", 
            "on": "http://bvmm.irht.cnrs.fr/iiif/23669/canvas/canvas-2294225#xywh=1467,1092,266,80", 
            "resource": {
                "@type": "cnt:ContentAsText", 
                "chars": "BARRAR", 
                "format": "text/plain"
            }
        }, 
        {
            "@id": "https://manifests.teklia.com/HIMANIS/JJ081/words_annotations/FRCHANJJ_JJ081_0346V.json/141/line", 
            "@type": "oa:Annotation", 
            "motivation": "oa:painting", 
            "on": "http://bvmm.irht.cnrs.fr/iiif/23669/canvas/canvas-2294225#xywh=2826,1761,0,20", 
            "resource": {
                "@type": "cnt:ContentAsText", 
                "chars": "J", 
                "format": "text/plain"
            }
        }, 
        {
            "@id": "https://manifests.teklia.com/HIMANIS/JJ081/words_annotations/FRCHANJJ_JJ081_0346V.json/142/line", 
            "@type": "oa:Annotation", 
            "motivation": "oa:painting", 
            "on": "http://bvmm.irht.cnrs.fr/iiif/23669/canvas/canvas-2294225#xywh=1558,1152,86,72", 
            "resource": {
                "@type": "cnt:ContentAsText", 
                "chars": "BERNA", 
                "format": "text/plain"
            }
        }, 
        {
            "@id": "https://manifests.teklia.com/HIMANIS/JJ081/words_annotations/FRCHANJJ_JJ081_0346V.json/143/line", 
            "@type": "oa:Annotation", 
            "motivation": "oa:painting", 
            "on": "http://bvmm.irht.cnrs.fr/iiif/23669/canvas/canvas-2294225#xywh=2826,1761,0,20", 
            "resource": {
                "@type": "cnt:ContentAsText", 
                "chars": "R", 
                "format": "text/plain"
            }
        }, 
        {
            "@id": "https://manifests.teklia.com/HIMANIS/JJ081/words_annotations/FRCHANJJ_JJ081_0346V.json/144/line", 
            "@type": "oa:Annotation", 
            "motivation": "oa:painting", 
            "on": "http://bvmm.irht.cnrs.fr/iiif/23669/canvas/canvas-2294225#xywh=1813,1364,189,100", 
            "resource": {
                "@type": "cnt:ContentAsText", 
                "chars": "PROTERRE", 
                "format": "text/plain"
            }
        }, 
        {
            "@id": "https://manifests.teklia.com/HIMANIS/JJ081/words_annotations/FRCHANJJ_JJ081_0346V.json/145/line", 
            "@type": "oa:Annotation", 
            "motivation": "oa:painting", 
            "on": "http://bvmm.irht.cnrs.fr/iiif/23669/canvas/canvas-2294225#xywh=1812,832,609,40", 
            "resource": {
                "@type": "cnt:ContentAsText", 
                "chars": "DE", 
                "format": "text/plain"
            }
        }, 
        {
            "@id": "https://manifests.teklia.com/HIMANIS/JJ081/words_annotations/FRCHANJJ_JJ081_0346V.json/146/line", 
            "@type": "oa:Annotation", 
            "motivation": "oa:painting", 
            "on": "http://bvmm.irht.cnrs.fr/iiif/23669/canvas/canvas-2294225#xywh=2972,1060,0,44", 
            "resource": {
                "@type": "cnt:ContentAsText", 
                "chars": "R", 
                "format": "text/plain"
            }
        }, 
        {
            "@id": "https://manifests.teklia.com/HIMANIS/JJ081/words_annotations/FRCHANJJ_JJ081_0346V.json/147/line", 
            "@type": "oa:Annotation", 
            "motivation": "oa:painting", 
            "on": "http://bvmm.irht.cnrs.fr/iiif/23669/canvas/canvas-2294225#xywh=1422,1364,120,100", 
            "resource": {
                "@type": "cnt:ContentAsText", 
                "chars": "ALIERS", 
                "format": "text/plain"
            }
        }, 
        {
            "@id": "https://manifests.teklia.com/HIMANIS/JJ081/words_annotations/FRCHANJJ_JJ081_0346V.json/148/line", 
            "@type": "oa:Annotation", 
            "motivation": "oa:painting", 
            "on": "http://bvmm.irht.cnrs.fr/iiif/23669/canvas/canvas-2294225#xywh=1377,932,172,80", 
            "resource": {
                "@type": "cnt:ContentAsText", 
                "chars": "CLARANT", 
                "format": "text/plain"
            }
        }, 
        {
            "@id": "https://manifests.teklia.com/HIMANIS/JJ081/words_annotations/FRCHANJJ_JJ081_0346V.json/149/line", 
            "@type": "oa:Annotation", 
            "motivation": "oa:painting", 
            "on": "http://bvmm.irht.cnrs.fr/iiif/23669/canvas/canvas-2294225#xywh=1610,1008,0,32", 
            "resource": {
                "@type": "cnt:ContentAsText", 
                "chars": "G", 
                "format": "text/plain"
            }
        }, 
        {
            "@id": "https://manifests.teklia.com/HIMANIS/JJ081/words_annotations/FRCHANJJ_JJ081_0346V.json/150/line", 
            "@type": "oa:Annotation", 
            "motivation": "oa:painting", 
            "on": "http://bvmm.irht.cnrs.fr/iiif/23669/canvas/canvas-2294225#xywh=1710,932,106,80", 
            "resource": {
                "@type": "cnt:ContentAsText", 
                "chars": "RAYS", 
                "format": "text/plain"
            }
        }, 
        {
            "@id": "https://manifests.teklia.com/HIMANIS/JJ081/words_annotations/FRCHANJJ_JJ081_0346V.json/151/line", 
            "@type": "oa:Annotation", 
            "motivation": "oa:painting", 
            "on": "http://bvmm.irht.cnrs.fr/iiif/23669/canvas/canvas-2294225#xywh=1495,1296,46,72", 
            "resource": {
                "@type": "cnt:ContentAsText", 
                "chars": "SI", 
                "format": "text/plain"
            }
        }, 
        {
            "@id": "https://manifests.teklia.com/HIMANIS/JJ081/words_annotations/FRCHANJJ_JJ081_0346V.json/152/line", 
            "@type": "oa:Annotation", 
            "motivation": "oa:painting", 
            "on": "http://bvmm.irht.cnrs.fr/iiif/23669/canvas/canvas-2294225#xywh=918,1364,258,100", 
            "resource": {
                "@type": "cnt:ContentAsText", 
                "chars": "STEPHANUS", 
                "format": "text/plain"
            }
        }, 
        {
            "@id": "https://manifests.teklia.com/HIMANIS/JJ081/words_annotations/FRCHANJJ_JJ081_0346V.json/153/line", 
            "@type": "oa:Annotation", 
            "motivation": "oa:painting", 
            "on": "http://bvmm.irht.cnrs.fr/iiif/23669/canvas/canvas-2294225#xywh=1503,764,206,44", 
            "resource": {
                "@type": "cnt:ContentAsText", 
                "chars": "LES", 
                "format": "text/plain"
            }
        }
    ]
}