{
    "@context": "http://iiif.io/api/presentation/2/context.json", 
    "@id": "https://manifests.teklia.com/HIMANIS/JJ040/words_annotations/FRCHANJJ_JJ040_0103R.json", 
    "@type": "sc:AnnotationList", 
    "resources": [
        {
            "@id": "https://manifests.teklia.com/HIMANIS/JJ040/words_annotations/FRCHANJJ_JJ040_0103R.json/0/line", 
            "@type": "oa:Annotation", 
            "motivation": "oa:painting", 
            "on": "http://bvmm.irht.cnrs.fr/iiif/23626/canvas/canvas-2277432#xywh=305,1535,360,85", 
            "resource": {
                "@type": "cnt:ContentAsText", 
                "chars": "COMME", 
                "format": "text/plain"
            }
        }, 
        {
            "@id": "https://manifests.teklia.com/HIMANIS/JJ040/words_annotations/FRCHANJJ_JJ040_0103R.json/1/line", 
            "@type": "oa:Annotation", 
            "motivation": "oa:painting", 
            "on": "http://bvmm.irht.cnrs.fr/iiif/23626/canvas/canvas-2277432#xywh=16,3596,1592,144", 
            "resource": {
                "@type": "cnt:ContentAsText", 
                "chars": "PHILIPPE", 
                "format": "text/plain"
            }
        }, 
        {
            "@id": "https://manifests.teklia.com/HIMANIS/JJ040/words_annotations/FRCHANJJ_JJ040_0103R.json/2/line", 
            "@type": "oa:Annotation", 
            "motivation": "oa:painting", 
            "on": "http://bvmm.irht.cnrs.fr/iiif/23626/canvas/canvas-2277432#xywh=0,2005,2371,175", 
            "resource": {
                "@type": "cnt:ContentAsText", 
                "chars": "PHILIPP", 
                "format": "text/plain"
            }
        }, 
        {
            "@id": "https://manifests.teklia.com/HIMANIS/JJ040/words_annotations/FRCHANJJ_JJ040_0103R.json/3/line", 
            "@type": "oa:Annotation", 
            "motivation": "oa:painting", 
            "on": "http://bvmm.irht.cnrs.fr/iiif/23626/canvas/canvas-2277432#xywh=7,2735,585,85", 
            "resource": {
                "@type": "cnt:ContentAsText", 
                "chars": "ET", 
                "format": "text/plain"
            }
        }, 
        {
            "@id": "https://manifests.teklia.com/HIMANIS/JJ040/words_annotations/FRCHANJJ_JJ040_0103R.json/4/line", 
            "@type": "oa:Annotation", 
            "motivation": "oa:painting", 
            "on": "http://bvmm.irht.cnrs.fr/iiif/23626/canvas/canvas-2277432#xywh=2305,3730,310,120", 
            "resource": {
                "@type": "cnt:ContentAsText", 
                "chars": "LA", 
                "format": "text/plain"
            }
        }, 
        {
            "@id": "https://manifests.teklia.com/HIMANIS/JJ040/words_annotations/FRCHANJJ_JJ040_0103R.json/5/line", 
            "@type": "oa:Annotation", 
            "motivation": "oa:painting", 
            "on": "http://bvmm.irht.cnrs.fr/iiif/23626/canvas/canvas-2277432#xywh=0,3730,1315,120", 
            "resource": {
                "@type": "cnt:ContentAsText", 
                "chars": "DE", 
                "format": "text/plain"
            }
        }, 
        {
            "@id": "https://manifests.teklia.com/HIMANIS/JJ040/words_annotations/FRCHANJJ_JJ040_0103R.json/6/line", 
            "@type": "oa:Annotation", 
            "motivation": "oa:painting", 
            "on": "http://bvmm.irht.cnrs.fr/iiif/23626/canvas/canvas-2277432#xywh=129,1685,1032,135", 
            "resource": {
                "@type": "cnt:ContentAsText", 
                "chars": "VO", 
                "format": "text/plain"
            }
        }, 
        {
            "@id": "https://manifests.teklia.com/HIMANIS/JJ040/words_annotations/FRCHANJJ_JJ040_0103R.json/7/line", 
            "@type": "oa:Annotation", 
            "motivation": "oa:painting", 
            "on": "http://bvmm.irht.cnrs.fr/iiif/23626/canvas/canvas-2277432#xywh=0,3730,2525,120", 
            "resource": {
                "@type": "cnt:ContentAsText", 
                "chars": "LES", 
                "format": "text/plain"
            }
        }, 
        {
            "@id": "https://manifests.teklia.com/HIMANIS/JJ040/words_annotations/FRCHANJJ_JJ040_0103R.json/8/line", 
            "@type": "oa:Annotation", 
            "motivation": "oa:painting", 
            "on": "http://bvmm.irht.cnrs.fr/iiif/23626/canvas/canvas-2277432#xywh=126,1874,0,161", 
            "resource": {
                "@type": "cnt:ContentAsText", 
                "chars": "P", 
                "format": "text/plain"
            }
        }, 
        {
            "@id": "https://manifests.teklia.com/HIMANIS/JJ040/words_annotations/FRCHANJJ_JJ040_0103R.json/9/line", 
            "@type": "oa:Annotation", 
            "motivation": "oa:painting", 
            "on": "http://bvmm.irht.cnrs.fr/iiif/23626/canvas/canvas-2277432#xywh=0,2005,2327,175", 
            "resource": {
                "@type": "cnt:ContentAsText", 
                "chars": "POITOU", 
                "format": "text/plain"
            }
        }, 
        {
            "@id": "https://manifests.teklia.com/HIMANIS/JJ040/words_annotations/FRCHANJJ_JJ040_0103R.json/10/line", 
            "@type": "oa:Annotation", 
            "motivation": "oa:painting", 
            "on": "http://bvmm.irht.cnrs.fr/iiif/23626/canvas/canvas-2277432#xywh=1070,1422,957,148", 
            "resource": {
                "@type": "cnt:ContentAsText", 
                "chars": "ET", 
                "format": "text/plain"
            }
        }, 
        {
            "@id": "https://manifests.teklia.com/HIMANIS/JJ040/words_annotations/FRCHANJJ_JJ040_0103R.json/11/line", 
            "@type": "oa:Annotation", 
            "motivation": "oa:painting", 
            "on": "http://bvmm.irht.cnrs.fr/iiif/23626/canvas/canvas-2277432#xywh=7,2735,595,85", 
            "resource": {
                "@type": "cnt:ContentAsText", 
                "chars": "LES", 
                "format": "text/plain"
            }
        }, 
        {
            "@id": "https://manifests.teklia.com/HIMANIS/JJ040/words_annotations/FRCHANJJ_JJ040_0103R.json/12/line", 
            "@type": "oa:Annotation", 
            "motivation": "oa:painting", 
            "on": "http://bvmm.irht.cnrs.fr/iiif/23626/canvas/canvas-2277432#xywh=306,855,2204,175", 
            "resource": {
                "@type": "cnt:ContentAsText", 
                "chars": "CONTENEUR", 
                "format": "text/plain"
            }
        }, 
        {
            "@id": "https://manifests.teklia.com/HIMANIS/JJ040/words_annotations/FRCHANJJ_JJ040_0103R.json/13/line", 
            "@type": "oa:Annotation", 
            "motivation": "oa:painting", 
            "on": "http://bvmm.irht.cnrs.fr/iiif/23626/canvas/canvas-2277432#xywh=1691,1725,406,60", 
            "resource": {
                "@type": "cnt:ContentAsText", 
                "chars": "ELLE", 
                "format": "text/plain"
            }
        }, 
        {
            "@id": "https://manifests.teklia.com/HIMANIS/JJ040/words_annotations/FRCHANJJ_JJ040_0103R.json/14/line", 
            "@type": "oa:Annotation", 
            "motivation": "oa:painting", 
            "on": "http://bvmm.irht.cnrs.fr/iiif/23626/canvas/canvas-2277432#xywh=305,1535,382,85", 
            "resource": {
                "@type": "cnt:ContentAsText", 
                "chars": "CONTE", 
                "format": "text/plain"
            }
        }, 
        {
            "@id": "https://manifests.teklia.com/HIMANIS/JJ040/words_annotations/FRCHANJJ_JJ040_0103R.json/15/line", 
            "@type": "oa:Annotation", 
            "motivation": "oa:painting", 
            "on": "http://bvmm.irht.cnrs.fr/iiif/23626/canvas/canvas-2277432#xywh=16,3596,1629,144", 
            "resource": {
                "@type": "cnt:ContentAsText", 
                "chars": "PHILIPPES", 
                "format": "text/plain"
            }
        }, 
        {
            "@id": "https://manifests.teklia.com/HIMANIS/JJ040/words_annotations/FRCHANJJ_JJ040_0103R.json/16/line", 
            "@type": "oa:Annotation", 
            "motivation": "oa:painting", 
            "on": "http://bvmm.irht.cnrs.fr/iiif/23626/canvas/canvas-2277432#xywh=1105,3145,54,55", 
            "resource": {
                "@type": "cnt:ContentAsText", 
                "chars": "LES", 
                "format": "text/plain"
            }
        }, 
        {
            "@id": "https://manifests.teklia.com/HIMANIS/JJ040/words_annotations/FRCHANJJ_JJ040_0103R.json/17/line", 
            "@type": "oa:Annotation", 
            "motivation": "oa:painting", 
            "on": "http://bvmm.irht.cnrs.fr/iiif/23626/canvas/canvas-2277432#xywh=65,2625,796,60", 
            "resource": {
                "@type": "cnt:ContentAsText", 
                "chars": "CUNDO", 
                "format": "text/plain"
            }
        }, 
        {
            "@id": "https://manifests.teklia.com/HIMANIS/JJ040/words_annotations/FRCHANJJ_JJ040_0103R.json/18/line", 
            "@type": "oa:Annotation", 
            "motivation": "oa:painting", 
            "on": "http://bvmm.irht.cnrs.fr/iiif/23626/canvas/canvas-2277432#xywh=305,1535,382,85", 
            "resource": {
                "@type": "cnt:ContentAsText", 
                "chars": "NOSTRE", 
                "format": "text/plain"
            }
        }, 
        {
            "@id": "https://manifests.teklia.com/HIMANIS/JJ040/words_annotations/FRCHANJJ_JJ040_0103R.json/19/line", 
            "@type": "oa:Annotation", 
            "motivation": "oa:painting", 
            "on": "http://bvmm.irht.cnrs.fr/iiif/23626/canvas/canvas-2277432#xywh=0,0,636,115", 
            "resource": {
                "@type": "cnt:ContentAsText", 
                "chars": "PHILIPPE", 
                "format": "text/plain"
            }
        }, 
        {
            "@id": "https://manifests.teklia.com/HIMANIS/JJ040/words_annotations/FRCHANJJ_JJ040_0103R.json/20/line", 
            "@type": "oa:Annotation", 
            "motivation": "oa:painting", 
            "on": "http://bvmm.irht.cnrs.fr/iiif/23626/canvas/canvas-2277432#xywh=1110,1535,1281,90", 
            "resource": {
                "@type": "cnt:ContentAsText", 
                "chars": "DITES", 
                "format": "text/plain"
            }
        }, 
        {
            "@id": "https://manifests.teklia.com/HIMANIS/JJ040/words_annotations/FRCHANJJ_JJ040_0103R.json/21/line", 
            "@type": "oa:Annotation", 
            "motivation": "oa:painting", 
            "on": "http://bvmm.irht.cnrs.fr/iiif/23626/canvas/canvas-2277432#xywh=306,855,2204,175", 
            "resource": {
                "@type": "cnt:ContentAsText", 
                "chars": "CONTENENT", 
                "format": "text/plain"
            }
        }, 
        {
            "@id": "https://manifests.teklia.com/HIMANIS/JJ040/words_annotations/FRCHANJJ_JJ040_0103R.json/22/line", 
            "@type": "oa:Annotation", 
            "motivation": "oa:painting", 
            "on": "http://bvmm.irht.cnrs.fr/iiif/23626/canvas/canvas-2277432#xywh=1608,3596,1222,144", 
            "resource": {
                "@type": "cnt:ContentAsText", 
                "chars": "ALLON", 
                "format": "text/plain"
            }
        }, 
        {
            "@id": "https://manifests.teklia.com/HIMANIS/JJ040/words_annotations/FRCHANJJ_JJ040_0103R.json/23/line", 
            "@type": "oa:Annotation", 
            "motivation": "oa:painting", 
            "on": "http://bvmm.irht.cnrs.fr/iiif/23626/canvas/canvas-2277432#xywh=18,430,113,100", 
            "resource": {
                "@type": "cnt:ContentAsText", 
                "chars": "ET", 
                "format": "text/plain"
            }
        }, 
        {
            "@id": "https://manifests.teklia.com/HIMANIS/JJ040/words_annotations/FRCHANJJ_JJ040_0103R.json/24/line", 
            "@type": "oa:Annotation", 
            "motivation": "oa:painting", 
            "on": "http://bvmm.irht.cnrs.fr/iiif/23626/canvas/canvas-2277432#xywh=129,1685,1032,135", 
            "resource": {
                "@type": "cnt:ContentAsText", 
                "chars": "DO", 
                "format": "text/plain"
            }
        }, 
        {
            "@id": "https://manifests.teklia.com/HIMANIS/JJ040/words_annotations/FRCHANJJ_JJ040_0103R.json/25/line", 
            "@type": "oa:Annotation", 
            "motivation": "oa:painting", 
            "on": "http://bvmm.irht.cnrs.fr/iiif/23626/canvas/canvas-2277432#xywh=32,855,241,175", 
            "resource": {
                "@type": "cnt:ContentAsText", 
                "chars": "ET", 
                "format": "text/plain"
            }
        }, 
        {
            "@id": "https://manifests.teklia.com/HIMANIS/JJ040/words_annotations/FRCHANJJ_JJ040_0103R.json/26/line", 
            "@type": "oa:Annotation", 
            "motivation": "oa:painting", 
            "on": "http://bvmm.irht.cnrs.fr/iiif/23626/canvas/canvas-2277432#xywh=1691,1725,414,60", 
            "resource": {
                "@type": "cnt:ContentAsText", 
                "chars": "LE", 
                "format": "text/plain"
            }
        }, 
        {
            "@id": "https://manifests.teklia.com/HIMANIS/JJ040/words_annotations/FRCHANJJ_JJ040_0103R.json/27/line", 
            "@type": "oa:Annotation", 
            "motivation": "oa:painting", 
            "on": "http://bvmm.irht.cnrs.fr/iiif/23626/canvas/canvas-2277432#xywh=1678,1788,614,42", 
            "resource": {
                "@type": "cnt:ContentAsText", 
                "chars": "LE", 
                "format": "text/plain"
            }
        }, 
        {
            "@id": "https://manifests.teklia.com/HIMANIS/JJ040/words_annotations/FRCHANJJ_JJ040_0103R.json/28/line", 
            "@type": "oa:Annotation", 
            "motivation": "oa:painting", 
            "on": "http://bvmm.irht.cnrs.fr/iiif/23626/canvas/canvas-2277432#xywh=1678,1788,102,42", 
            "resource": {
                "@type": "cnt:ContentAsText", 
                "chars": "DE", 
                "format": "text/plain"
            }
        }, 
        {
            "@id": "https://manifests.teklia.com/HIMANIS/JJ040/words_annotations/FRCHANJJ_JJ040_0103R.json/29/line", 
            "@type": "oa:Annotation", 
            "motivation": "oa:painting", 
            "on": "http://bvmm.irht.cnrs.fr/iiif/23626/canvas/canvas-2277432#xywh=701,0,1503,115", 
            "resource": {
                "@type": "cnt:ContentAsText", 
                "chars": "ET", 
                "format": "text/plain"
            }
        }, 
        {
            "@id": "https://manifests.teklia.com/HIMANIS/JJ040/words_annotations/FRCHANJJ_JJ040_0103R.json/30/line", 
            "@type": "oa:Annotation", 
            "motivation": "oa:painting", 
            "on": "http://bvmm.irht.cnrs.fr/iiif/23626/canvas/canvas-2277432#xywh=1489,2110,927,224", 
            "resource": {
                "@type": "cnt:ContentAsText", 
                "chars": "VEL", 
                "format": "text/plain"
            }
        }, 
        {
            "@id": "https://manifests.teklia.com/HIMANIS/JJ040/words_annotations/FRCHANJJ_JJ040_0103R.json/31/line", 
            "@type": "oa:Annotation", 
            "motivation": "oa:painting", 
            "on": "http://bvmm.irht.cnrs.fr/iiif/23626/canvas/canvas-2277432#xywh=1699,3596,841,144", 
            "resource": {
                "@type": "cnt:ContentAsText", 
                "chars": "ET", 
                "format": "text/plain"
            }
        }, 
        {
            "@id": "https://manifests.teklia.com/HIMANIS/JJ040/words_annotations/FRCHANJJ_JJ040_0103R.json/32/line", 
            "@type": "oa:Annotation", 
            "motivation": "oa:painting", 
            "on": "http://bvmm.irht.cnrs.fr/iiif/23626/canvas/canvas-2277432#xywh=1678,1788,617,42", 
            "resource": {
                "@type": "cnt:ContentAsText", 
                "chars": "PREDICT", 
                "format": "text/plain"
            }
        }, 
        {
            "@id": "https://manifests.teklia.com/HIMANIS/JJ040/words_annotations/FRCHANJJ_JJ040_0103R.json/33/line", 
            "@type": "oa:Annotation", 
            "motivation": "oa:painting", 
            "on": "http://bvmm.irht.cnrs.fr/iiif/23626/canvas/canvas-2277432#xywh=1608,3596,1186,144", 
            "resource": {
                "@type": "cnt:ContentAsText", 
                "chars": "ALLO", 
                "format": "text/plain"
            }
        }, 
        {
            "@id": "https://manifests.teklia.com/HIMANIS/JJ040/words_annotations/FRCHANJJ_JJ040_0103R.json/34/line", 
            "@type": "oa:Annotation", 
            "motivation": "oa:painting", 
            "on": "http://bvmm.irht.cnrs.fr/iiif/23626/canvas/canvas-2277432#xywh=306,855,2193,175", 
            "resource": {
                "@type": "cnt:ContentAsText", 
                "chars": "CONTRE", 
                "format": "text/plain"
            }
        }, 
        {
            "@id": "https://manifests.teklia.com/HIMANIS/JJ040/words_annotations/FRCHANJJ_JJ040_0103R.json/35/line", 
            "@type": "oa:Annotation", 
            "motivation": "oa:painting", 
            "on": "http://bvmm.irht.cnrs.fr/iiif/23626/canvas/canvas-2277432#xywh=2151,3440,132,50", 
            "resource": {
                "@type": "cnt:ContentAsText", 
                "chars": "AY", 
                "format": "text/plain"
            }
        }, 
        {
            "@id": "https://manifests.teklia.com/HIMANIS/JJ040/words_annotations/FRCHANJJ_JJ040_0103R.json/36/line", 
            "@type": "oa:Annotation", 
            "motivation": "oa:painting", 
            "on": "http://bvmm.irht.cnrs.fr/iiif/23626/canvas/canvas-2277432#xywh=1110,1535,1281,90", 
            "resource": {
                "@type": "cnt:ContentAsText", 
                "chars": "DILEC", 
                "format": "text/plain"
            }
        }, 
        {
            "@id": "https://manifests.teklia.com/HIMANIS/JJ040/words_annotations/FRCHANJJ_JJ040_0103R.json/37/line", 
            "@type": "oa:Annotation", 
            "motivation": "oa:painting", 
            "on": "http://bvmm.irht.cnrs.fr/iiif/23626/canvas/canvas-2277432#xywh=1070,1422,976,148", 
            "resource": {
                "@type": "cnt:ContentAsText", 
                "chars": "LES", 
                "format": "text/plain"
            }
        }, 
        {
            "@id": "https://manifests.teklia.com/HIMANIS/JJ040/words_annotations/FRCHANJJ_JJ040_0103R.json/38/line", 
            "@type": "oa:Annotation", 
            "motivation": "oa:painting", 
            "on": "http://bvmm.irht.cnrs.fr/iiif/23626/canvas/canvas-2277432#xywh=2666,2815,141,87", 
            "resource": {
                "@type": "cnt:ContentAsText", 
                "chars": "DE", 
                "format": "text/plain"
            }
        }, 
        {
            "@id": "https://manifests.teklia.com/HIMANIS/JJ040/words_annotations/FRCHANJJ_JJ040_0103R.json/39/line", 
            "@type": "oa:Annotation", 
            "motivation": "oa:painting", 
            "on": "http://bvmm.irht.cnrs.fr/iiif/23626/canvas/canvas-2277432#xywh=608,2735,488,85", 
            "resource": {
                "@type": "cnt:ContentAsText", 
                "chars": "DE", 
                "format": "text/plain"
            }
        }, 
        {
            "@id": "https://manifests.teklia.com/HIMANIS/JJ040/words_annotations/FRCHANJJ_JJ040_0103R.json/40/line", 
            "@type": "oa:Annotation", 
            "motivation": "oa:painting", 
            "on": "http://bvmm.irht.cnrs.fr/iiif/23626/canvas/canvas-2277432#xywh=0,2455,0,115", 
            "resource": {
                "@type": "cnt:ContentAsText", 
                "chars": "P", 
                "format": "text/plain"
            }
        }, 
        {
            "@id": "https://manifests.teklia.com/HIMANIS/JJ040/words_annotations/FRCHANJJ_JJ040_0103R.json/41/line", 
            "@type": "oa:Annotation", 
            "motivation": "oa:painting", 
            "on": "http://bvmm.irht.cnrs.fr/iiif/23626/canvas/canvas-2277432#xywh=1489,2110,927,224", 
            "resource": {
                "@type": "cnt:ContentAsText", 
                "chars": "LUI", 
                "format": "text/plain"
            }
        }, 
        {
            "@id": "https://manifests.teklia.com/HIMANIS/JJ040/words_annotations/FRCHANJJ_JJ040_0103R.json/42/line", 
            "@type": "oa:Annotation", 
            "motivation": "oa:painting", 
            "on": "http://bvmm.irht.cnrs.fr/iiif/23626/canvas/canvas-2277432#xywh=1678,1788,620,42", 
            "resource": {
                "@type": "cnt:ContentAsText", 
                "chars": "DITES", 
                "format": "text/plain"
            }
        }, 
        {
            "@id": "https://manifests.teklia.com/HIMANIS/JJ040/words_annotations/FRCHANJJ_JJ040_0103R.json/43/line", 
            "@type": "oa:Annotation", 
            "motivation": "oa:painting", 
            "on": "http://bvmm.irht.cnrs.fr/iiif/23626/canvas/canvas-2277432#xywh=1678,1788,54,42", 
            "resource": {
                "@type": "cnt:ContentAsText", 
                "chars": "ET", 
                "format": "text/plain"
            }
        }, 
        {
            "@id": "https://manifests.teklia.com/HIMANIS/JJ040/words_annotations/FRCHANJJ_JJ040_0103R.json/44/line", 
            "@type": "oa:Annotation", 
            "motivation": "oa:painting", 
            "on": "http://bvmm.irht.cnrs.fr/iiif/23626/canvas/canvas-2277432#xywh=1070,1422,957,148", 
            "resource": {
                "@type": "cnt:ContentAsText", 
                "chars": "DE", 
                "format": "text/plain"
            }
        }, 
        {
            "@id": "https://manifests.teklia.com/HIMANIS/JJ040/words_annotations/FRCHANJJ_JJ040_0103R.json/45/line", 
            "@type": "oa:Annotation", 
            "motivation": "oa:painting", 
            "on": "http://bvmm.irht.cnrs.fr/iiif/23626/canvas/canvas-2277432#xywh=0,2110,1433,224", 
            "resource": {
                "@type": "cnt:ContentAsText", 
                "chars": "PHILIPPUS", 
                "format": "text/plain"
            }
        }, 
        {
            "@id": "https://manifests.teklia.com/HIMANIS/JJ040/words_annotations/FRCHANJJ_JJ040_0103R.json/46/line", 
            "@type": "oa:Annotation", 
            "motivation": "oa:painting", 
            "on": "http://bvmm.irht.cnrs.fr/iiif/23626/canvas/canvas-2277432#xywh=0,2110,1433,224", 
            "resource": {
                "@type": "cnt:ContentAsText", 
                "chars": "PHILIPPES", 
                "format": "text/plain"
            }
        }, 
        {
            "@id": "https://manifests.teklia.com/HIMANIS/JJ040/words_annotations/FRCHANJJ_JJ040_0103R.json/47/line", 
            "@type": "oa:Annotation", 
            "motivation": "oa:painting", 
            "on": "http://bvmm.irht.cnrs.fr/iiif/23626/canvas/canvas-2277432#xywh=4,2570,0,65", 
            "resource": {
                "@type": "cnt:ContentAsText", 
                "chars": "P", 
                "format": "text/plain"
            }
        }
    ]
}