{
    "@context": "http://iiif.io/api/presentation/2/context.json", 
    "@id": "https://manifests.teklia.com/HIMANIS/JJ115/words_annotations/FRAN_0021_8181.json", 
    "@type": "sc:AnnotationList", 
    "resources": []
}