{
    "@context": "http://iiif.io/api/presentation/2/context.json", 
    "@id": "https://manifests.teklia.com/HIMANIS/JJ091/words_annotations/FRCHANJJ_JJ091_0075V.json", 
    "@type": "sc:AnnotationList", 
    "resources": [
        {
            "@id": "https://manifests.teklia.com/HIMANIS/JJ091/words_annotations/FRCHANJJ_JJ091_0075V.json/0/line", 
            "@type": "oa:Annotation", 
            "motivation": "oa:painting", 
            "on": "http://bvmm.irht.cnrs.fr/iiif/23679/canvas/canvas-2298821#xywh=146,2904,152,79", 
            "resource": {
                "@type": "cnt:ContentAsText", 
                "chars": "BERTRAN", 
                "format": "text/plain"
            }
        }, 
        {
            "@id": "https://manifests.teklia.com/HIMANIS/JJ091/words_annotations/FRCHANJJ_JJ091_0075V.json/1/line", 
            "@type": "oa:Annotation", 
            "motivation": "oa:painting", 
            "on": "http://bvmm.irht.cnrs.fr/iiif/23679/canvas/canvas-2298821#xywh=0,0,718,102", 
            "resource": {
                "@type": "cnt:ContentAsText", 
                "chars": "LETTRE", 
                "format": "text/plain"
            }
        }, 
        {
            "@id": "https://manifests.teklia.com/HIMANIS/JJ091/words_annotations/FRCHANJJ_JJ091_0075V.json/2/line", 
            "@type": "oa:Annotation", 
            "motivation": "oa:painting", 
            "on": "http://bvmm.irht.cnrs.fr/iiif/23679/canvas/canvas-2298821#xywh=3334,3316,181,107", 
            "resource": {
                "@type": "cnt:ContentAsText", 
                "chars": "OMN", 
                "format": "text/plain"
            }
        }, 
        {
            "@id": "https://manifests.teklia.com/HIMANIS/JJ091/words_annotations/FRCHANJJ_JJ091_0075V.json/3/line", 
            "@type": "oa:Annotation", 
            "motivation": "oa:painting", 
            "on": "http://bvmm.irht.cnrs.fr/iiif/23679/canvas/canvas-2298821#xywh=282,0,436,102", 
            "resource": {
                "@type": "cnt:ContentAsText", 
                "chars": "LE", 
                "format": "text/plain"
            }
        }, 
        {
            "@id": "https://manifests.teklia.com/HIMANIS/JJ091/words_annotations/FRCHANJJ_JJ091_0075V.json/4/line", 
            "@type": "oa:Annotation", 
            "motivation": "oa:painting", 
            "on": "http://bvmm.irht.cnrs.fr/iiif/23679/canvas/canvas-2298821#xywh=744,3665,148,50", 
            "resource": {
                "@type": "cnt:ContentAsText", 
                "chars": "GENT", 
                "format": "text/plain"
            }
        }, 
        {
            "@id": "https://manifests.teklia.com/HIMANIS/JJ091/words_annotations/FRCHANJJ_JJ091_0075V.json/5/line", 
            "@type": "oa:Annotation", 
            "motivation": "oa:painting", 
            "on": "http://bvmm.irht.cnrs.fr/iiif/23679/canvas/canvas-2298821#xywh=1804,3079,71,64", 
            "resource": {
                "@type": "cnt:ContentAsText", 
                "chars": "PHILIPPES", 
                "format": "text/plain"
            }
        }, 
        {
            "@id": "https://manifests.teklia.com/HIMANIS/JJ091/words_annotations/FRCHANJJ_JJ091_0075V.json/6/line", 
            "@type": "oa:Annotation", 
            "motivation": "oa:painting", 
            "on": "http://bvmm.irht.cnrs.fr/iiif/23679/canvas/canvas-2298821#xywh=566,3320,77,62", 
            "resource": {
                "@type": "cnt:ContentAsText", 
                "chars": "PIE", 
                "format": "text/plain"
            }
        }, 
        {
            "@id": "https://manifests.teklia.com/HIMANIS/JJ091/words_annotations/FRCHANJJ_JJ091_0075V.json/7/line", 
            "@type": "oa:Annotation", 
            "motivation": "oa:painting", 
            "on": "http://bvmm.irht.cnrs.fr/iiif/23679/canvas/canvas-2298821#xywh=3334,3316,148,107", 
            "resource": {
                "@type": "cnt:ContentAsText", 
                "chars": "OU", 
                "format": "text/plain"
            }
        }, 
        {
            "@id": "https://manifests.teklia.com/HIMANIS/JJ091/words_annotations/FRCHANJJ_JJ091_0075V.json/8/line", 
            "@type": "oa:Annotation", 
            "motivation": "oa:painting", 
            "on": "http://bvmm.irht.cnrs.fr/iiif/23679/canvas/canvas-2298821#xywh=345,2749,159,90", 
            "resource": {
                "@type": "cnt:ContentAsText", 
                "chars": "PRO", 
                "format": "text/plain"
            }
        }, 
        {
            "@id": "https://manifests.teklia.com/HIMANIS/JJ091/words_annotations/FRCHANJJ_JJ091_0075V.json/9/line", 
            "@type": "oa:Annotation", 
            "motivation": "oa:painting", 
            "on": "http://bvmm.irht.cnrs.fr/iiif/23679/canvas/canvas-2298821#xywh=2283,0,163,63", 
            "resource": {
                "@type": "cnt:ContentAsText", 
                "chars": "ET", 
                "format": "text/plain"
            }
        }, 
        {
            "@id": "https://manifests.teklia.com/HIMANIS/JJ091/words_annotations/FRCHANJJ_JJ091_0075V.json/10/line", 
            "@type": "oa:Annotation", 
            "motivation": "oa:painting", 
            "on": "http://bvmm.irht.cnrs.fr/iiif/23679/canvas/canvas-2298821#xywh=3334,3316,188,107", 
            "resource": {
                "@type": "cnt:ContentAsText", 
                "chars": "JOUR", 
                "format": "text/plain"
            }
        }, 
        {
            "@id": "https://manifests.teklia.com/HIMANIS/JJ091/words_annotations/FRCHANJJ_JJ091_0075V.json/11/line", 
            "@type": "oa:Annotation", 
            "motivation": "oa:painting", 
            "on": "http://bvmm.irht.cnrs.fr/iiif/23679/canvas/canvas-2298821#xywh=744,3665,242,50", 
            "resource": {
                "@type": "cnt:ContentAsText", 
                "chars": "GENITOR", 
                "format": "text/plain"
            }
        }, 
        {
            "@id": "https://manifests.teklia.com/HIMANIS/JJ091/words_annotations/FRCHANJJ_JJ091_0075V.json/12/line", 
            "@type": "oa:Annotation", 
            "motivation": "oa:painting", 
            "on": "http://bvmm.irht.cnrs.fr/iiif/23679/canvas/canvas-2298821#xywh=3334,3316,188,107", 
            "resource": {
                "@type": "cnt:ContentAsText", 
                "chars": "JOHA", 
                "format": "text/plain"
            }
        }, 
        {
            "@id": "https://manifests.teklia.com/HIMANIS/JJ091/words_annotations/FRCHANJJ_JJ091_0075V.json/13/line", 
            "@type": "oa:Annotation", 
            "motivation": "oa:painting", 
            "on": "http://bvmm.irht.cnrs.fr/iiif/23679/canvas/canvas-2298821#xywh=113,2827,292,63", 
            "resource": {
                "@type": "cnt:ContentAsText", 
                "chars": "COURANDO", 
                "format": "text/plain"
            }
        }, 
        {
            "@id": "https://manifests.teklia.com/HIMANIS/JJ091/words_annotations/FRCHANJJ_JJ091_0075V.json/14/line", 
            "@type": "oa:Annotation", 
            "motivation": "oa:painting", 
            "on": "http://bvmm.irht.cnrs.fr/iiif/23679/canvas/canvas-2298821#xywh=146,2904,177,79", 
            "resource": {
                "@type": "cnt:ContentAsText", 
                "chars": "BERTRARII", 
                "format": "text/plain"
            }
        }, 
        {
            "@id": "https://manifests.teklia.com/HIMANIS/JJ091/words_annotations/FRCHANJJ_JJ091_0075V.json/15/line", 
            "@type": "oa:Annotation", 
            "motivation": "oa:painting", 
            "on": "http://bvmm.irht.cnrs.fr/iiif/23679/canvas/canvas-2298821#xywh=0,0,256,102", 
            "resource": {
                "@type": "cnt:ContentAsText", 
                "chars": "ET", 
                "format": "text/plain"
            }
        }, 
        {
            "@id": "https://manifests.teklia.com/HIMANIS/JJ091/words_annotations/FRCHANJJ_JJ091_0075V.json/16/line", 
            "@type": "oa:Annotation", 
            "motivation": "oa:painting", 
            "on": "http://bvmm.irht.cnrs.fr/iiif/23679/canvas/canvas-2298821#xywh=566,3320,39,62", 
            "resource": {
                "@type": "cnt:ContentAsText", 
                "chars": "PE", 
                "format": "text/plain"
            }
        }, 
        {
            "@id": "https://manifests.teklia.com/HIMANIS/JJ091/words_annotations/FRCHANJJ_JJ091_0075V.json/17/line", 
            "@type": "oa:Annotation", 
            "motivation": "oa:painting", 
            "on": "http://bvmm.irht.cnrs.fr/iiif/23679/canvas/canvas-2298821#xywh=1804,3079,75,64", 
            "resource": {
                "@type": "cnt:ContentAsText", 
                "chars": "PHILIPPUS", 
                "format": "text/plain"
            }
        }, 
        {
            "@id": "https://manifests.teklia.com/HIMANIS/JJ091/words_annotations/FRCHANJJ_JJ091_0075V.json/18/line", 
            "@type": "oa:Annotation", 
            "motivation": "oa:painting", 
            "on": "http://bvmm.irht.cnrs.fr/iiif/23679/canvas/canvas-2298821#xywh=113,2827,292,63", 
            "resource": {
                "@type": "cnt:ContentAsText", 
                "chars": "TOURANDO", 
                "format": "text/plain"
            }
        }, 
        {
            "@id": "https://manifests.teklia.com/HIMANIS/JJ091/words_annotations/FRCHANJJ_JJ091_0075V.json/19/line", 
            "@type": "oa:Annotation", 
            "motivation": "oa:painting", 
            "on": "http://bvmm.irht.cnrs.fr/iiif/23679/canvas/canvas-2298821#xywh=2423,900,0,36", 
            "resource": {
                "@type": "cnt:ContentAsText", 
                "chars": "G", 
                "format": "text/plain"
            }
        }, 
        {
            "@id": "https://manifests.teklia.com/HIMANIS/JJ091/words_annotations/FRCHANJJ_JJ091_0075V.json/20/line", 
            "@type": "oa:Annotation", 
            "motivation": "oa:painting", 
            "on": "http://bvmm.irht.cnrs.fr/iiif/23679/canvas/canvas-2298821#xywh=2534,0,354,63", 
            "resource": {
                "@type": "cnt:ContentAsText", 
                "chars": "DE", 
                "format": "text/plain"
            }
        }, 
        {
            "@id": "https://manifests.teklia.com/HIMANIS/JJ091/words_annotations/FRCHANJJ_JJ091_0075V.json/21/line", 
            "@type": "oa:Annotation", 
            "motivation": "oa:painting", 
            "on": "http://bvmm.irht.cnrs.fr/iiif/23679/canvas/canvas-2298821#xywh=566,3320,77,62", 
            "resource": {
                "@type": "cnt:ContentAsText", 
                "chars": "PHE", 
                "format": "text/plain"
            }
        }, 
        {
            "@id": "https://manifests.teklia.com/HIMANIS/JJ091/words_annotations/FRCHANJJ_JJ091_0075V.json/22/line", 
            "@type": "oa:Annotation", 
            "motivation": "oa:painting", 
            "on": "http://bvmm.irht.cnrs.fr/iiif/23679/canvas/canvas-2298821#xywh=2423,900,0,36", 
            "resource": {
                "@type": "cnt:ContentAsText", 
                "chars": "S", 
                "format": "text/plain"
            }
        }, 
        {
            "@id": "https://manifests.teklia.com/HIMANIS/JJ091/words_annotations/FRCHANJJ_JJ091_0075V.json/23/line", 
            "@type": "oa:Annotation", 
            "motivation": "oa:painting", 
            "on": "http://bvmm.irht.cnrs.fr/iiif/23679/canvas/canvas-2298821#xywh=242,2616,0,58", 
            "resource": {
                "@type": "cnt:ContentAsText", 
                "chars": "R", 
                "format": "text/plain"
            }
        }, 
        {
            "@id": "https://manifests.teklia.com/HIMANIS/JJ091/words_annotations/FRCHANJJ_JJ091_0075V.json/24/line", 
            "@type": "oa:Annotation", 
            "motivation": "oa:painting", 
            "on": "http://bvmm.irht.cnrs.fr/iiif/23679/canvas/canvas-2298821#xywh=175,2749,142,90", 
            "resource": {
                "@type": "cnt:ContentAsText", 
                "chars": "MISSIO", 
                "format": "text/plain"
            }
        }, 
        {
            "@id": "https://manifests.teklia.com/HIMANIS/JJ091/words_annotations/FRCHANJJ_JJ091_0075V.json/25/line", 
            "@type": "oa:Annotation", 
            "motivation": "oa:painting", 
            "on": "http://bvmm.irht.cnrs.fr/iiif/23679/canvas/canvas-2298821#xywh=2283,0,605,63", 
            "resource": {
                "@type": "cnt:ContentAsText", 
                "chars": "LE", 
                "format": "text/plain"
            }
        }, 
        {
            "@id": "https://manifests.teklia.com/HIMANIS/JJ091/words_annotations/FRCHANJJ_JJ091_0075V.json/26/line", 
            "@type": "oa:Annotation", 
            "motivation": "oa:painting", 
            "on": "http://bvmm.irht.cnrs.fr/iiif/23679/canvas/canvas-2298821#xywh=282,0,430,102", 
            "resource": {
                "@type": "cnt:ContentAsText", 
                "chars": "DE", 
                "format": "text/plain"
            }
        }
    ]
}