{
    "@context": "http://iiif.io/api/presentation/2/context.json", 
    "@id": "https://manifests.teklia.com/HIMANIS/JJ091/words_annotations/FRCHANJJ_JJ091_0071R.json", 
    "@type": "sc:AnnotationList", 
    "resources": [
        {
            "@id": "https://manifests.teklia.com/HIMANIS/JJ091/words_annotations/FRCHANJJ_JJ091_0071R.json/0/line", 
            "@type": "oa:Annotation", 
            "motivation": "oa:painting", 
            "on": "http://bvmm.irht.cnrs.fr/iiif/23679/canvas/canvas-2298812#xywh=190,2163,62,39", 
            "resource": {
                "@type": "cnt:ContentAsText", 
                "chars": "TOURT", 
                "format": "text/plain"
            }
        }, 
        {
            "@id": "https://manifests.teklia.com/HIMANIS/JJ091/words_annotations/FRCHANJJ_JJ091_0071R.json/1/line", 
            "@type": "oa:Annotation", 
            "motivation": "oa:painting", 
            "on": "http://bvmm.irht.cnrs.fr/iiif/23679/canvas/canvas-2298812#xywh=190,2163,209,39", 
            "resource": {
                "@type": "cnt:ContentAsText", 
                "chars": "TANGE", 
                "format": "text/plain"
            }
        }, 
        {
            "@id": "https://manifests.teklia.com/HIMANIS/JJ091/words_annotations/FRCHANJJ_JJ091_0071R.json/2/line", 
            "@type": "oa:Annotation", 
            "motivation": "oa:painting", 
            "on": "http://bvmm.irht.cnrs.fr/iiif/23679/canvas/canvas-2298812#xywh=118,2058,61,42", 
            "resource": {
                "@type": "cnt:ContentAsText", 
                "chars": "DIA", 
                "format": "text/plain"
            }
        }, 
        {
            "@id": "https://manifests.teklia.com/HIMANIS/JJ091/words_annotations/FRCHANJJ_JJ091_0071R.json/3/line", 
            "@type": "oa:Annotation", 
            "motivation": "oa:painting", 
            "on": "http://bvmm.irht.cnrs.fr/iiif/23679/canvas/canvas-2298812#xywh=400,2100,72,63", 
            "resource": {
                "@type": "cnt:ContentAsText", 
                "chars": "NOSTRES", 
                "format": "text/plain"
            }
        }, 
        {
            "@id": "https://manifests.teklia.com/HIMANIS/JJ091/words_annotations/FRCHANJJ_JJ091_0071R.json/4/line", 
            "@type": "oa:Annotation", 
            "motivation": "oa:painting", 
            "on": "http://bvmm.irht.cnrs.fr/iiif/23679/canvas/canvas-2298812#xywh=81,1968,196,39", 
            "resource": {
                "@type": "cnt:ContentAsText", 
                "chars": "USUR", 
                "format": "text/plain"
            }
        }, 
        {
            "@id": "https://manifests.teklia.com/HIMANIS/JJ091/words_annotations/FRCHANJJ_JJ091_0071R.json/5/line", 
            "@type": "oa:Annotation", 
            "motivation": "oa:painting", 
            "on": "http://bvmm.irht.cnrs.fr/iiif/23679/canvas/canvas-2298812#xywh=84,2196,167,60", 
            "resource": {
                "@type": "cnt:ContentAsText", 
                "chars": "SINE", 
                "format": "text/plain"
            }
        }, 
        {
            "@id": "https://manifests.teklia.com/HIMANIS/JJ091/words_annotations/FRCHANJJ_JJ091_0071R.json/6/line", 
            "@type": "oa:Annotation", 
            "motivation": "oa:painting", 
            "on": "http://bvmm.irht.cnrs.fr/iiif/23679/canvas/canvas-2298812#xywh=920,1974,178,33", 
            "resource": {
                "@type": "cnt:ContentAsText", 
                "chars": "COM", 
                "format": "text/plain"
            }
        }, 
        {
            "@id": "https://manifests.teklia.com/HIMANIS/JJ091/words_annotations/FRCHANJJ_JJ091_0071R.json/7/line", 
            "@type": "oa:Annotation", 
            "motivation": "oa:painting", 
            "on": "http://bvmm.irht.cnrs.fr/iiif/23679/canvas/canvas-2298812#xywh=89,2100,192,63", 
            "resource": {
                "@type": "cnt:ContentAsText", 
                "chars": "VALIENARUM", 
                "format": "text/plain"
            }
        }, 
        {
            "@id": "https://manifests.teklia.com/HIMANIS/JJ091/words_annotations/FRCHANJJ_JJ091_0071R.json/8/line", 
            "@type": "oa:Annotation", 
            "motivation": "oa:painting", 
            "on": "http://bvmm.irht.cnrs.fr/iiif/23679/canvas/canvas-2298812#xywh=89,2100,68,63", 
            "resource": {
                "@type": "cnt:ContentAsText", 
                "chars": "LIVRES", 
                "format": "text/plain"
            }
        }, 
        {
            "@id": "https://manifests.teklia.com/HIMANIS/JJ091/words_annotations/FRCHANJJ_JJ091_0071R.json/9/line", 
            "@type": "oa:Annotation", 
            "motivation": "oa:painting", 
            "on": "http://bvmm.irht.cnrs.fr/iiif/23679/canvas/canvas-2298812#xywh=920,1974,128,33", 
            "resource": {
                "@type": "cnt:ContentAsText", 
                "chars": "CO", 
                "format": "text/plain"
            }
        }, 
        {
            "@id": "https://manifests.teklia.com/HIMANIS/JJ091/words_annotations/FRCHANJJ_JJ091_0071R.json/10/line", 
            "@type": "oa:Annotation", 
            "motivation": "oa:painting", 
            "on": "http://bvmm.irht.cnrs.fr/iiif/23679/canvas/canvas-2298812#xywh=128,2007,119,30", 
            "resource": {
                "@type": "cnt:ContentAsText", 
                "chars": "ROY", 
                "format": "text/plain"
            }
        }, 
        {
            "@id": "https://manifests.teklia.com/HIMANIS/JJ091/words_annotations/FRCHANJJ_JJ091_0071R.json/11/line", 
            "@type": "oa:Annotation", 
            "motivation": "oa:painting", 
            "on": "http://bvmm.irht.cnrs.fr/iiif/23679/canvas/canvas-2298812#xywh=292,2196,144,60", 
            "resource": {
                "@type": "cnt:ContentAsText", 
                "chars": "ELLES", 
                "format": "text/plain"
            }
        }, 
        {
            "@id": "https://manifests.teklia.com/HIMANIS/JJ091/words_annotations/FRCHANJJ_JJ091_0071R.json/12/line", 
            "@type": "oa:Annotation", 
            "motivation": "oa:painting", 
            "on": "http://bvmm.irht.cnrs.fr/iiif/23679/canvas/canvas-2298812#xywh=3487,4505,68,37", 
            "resource": {
                "@type": "cnt:ContentAsText", 
                "chars": "DE", 
                "format": "text/plain"
            }
        }, 
        {
            "@id": "https://manifests.teklia.com/HIMANIS/JJ091/words_annotations/FRCHANJJ_JJ091_0071R.json/13/line", 
            "@type": "oa:Annotation", 
            "motivation": "oa:painting", 
            "on": "http://bvmm.irht.cnrs.fr/iiif/23679/canvas/canvas-2298812#xywh=13,0,265,111", 
            "resource": {
                "@type": "cnt:ContentAsText", 
                "chars": "LES", 
                "format": "text/plain"
            }
        }, 
        {
            "@id": "https://manifests.teklia.com/HIMANIS/JJ091/words_annotations/FRCHANJJ_JJ091_0071R.json/14/line", 
            "@type": "oa:Annotation", 
            "motivation": "oa:painting", 
            "on": "http://bvmm.irht.cnrs.fr/iiif/23679/canvas/canvas-2298812#xywh=3481,4542,90,39", 
            "resource": {
                "@type": "cnt:ContentAsText", 
                "chars": "DE", 
                "format": "text/plain"
            }
        }, 
        {
            "@id": "https://manifests.teklia.com/HIMANIS/JJ091/words_annotations/FRCHANJJ_JJ091_0071R.json/15/line", 
            "@type": "oa:Annotation", 
            "motivation": "oa:painting", 
            "on": "http://bvmm.irht.cnrs.fr/iiif/23679/canvas/canvas-2298812#xywh=292,2196,106,60", 
            "resource": {
                "@type": "cnt:ContentAsText", 
                "chars": "ELLE", 
                "format": "text/plain"
            }
        }, 
        {
            "@id": "https://manifests.teklia.com/HIMANIS/JJ091/words_annotations/FRCHANJJ_JJ091_0071R.json/16/line", 
            "@type": "oa:Annotation", 
            "motivation": "oa:painting", 
            "on": "http://bvmm.irht.cnrs.fr/iiif/23679/canvas/canvas-2298812#xywh=3542,2007,42,30", 
            "resource": {
                "@type": "cnt:ContentAsText", 
                "chars": "DE", 
                "format": "text/plain"
            }
        }, 
        {
            "@id": "https://manifests.teklia.com/HIMANIS/JJ091/words_annotations/FRCHANJJ_JJ091_0071R.json/17/line", 
            "@type": "oa:Annotation", 
            "motivation": "oa:painting", 
            "on": "http://bvmm.irht.cnrs.fr/iiif/23679/canvas/canvas-2298812#xywh=2490,0,1093,153", 
            "resource": {
                "@type": "cnt:ContentAsText", 
                "chars": "DE", 
                "format": "text/plain"
            }
        }, 
        {
            "@id": "https://manifests.teklia.com/HIMANIS/JJ091/words_annotations/FRCHANJJ_JJ091_0071R.json/18/line", 
            "@type": "oa:Annotation", 
            "motivation": "oa:painting", 
            "on": "http://bvmm.irht.cnrs.fr/iiif/23679/canvas/canvas-2298812#xywh=3420,0,0,153", 
            "resource": {
                "@type": "cnt:ContentAsText", 
                "chars": "E", 
                "format": "text/plain"
            }
        }, 
        {
            "@id": "https://manifests.teklia.com/HIMANIS/JJ091/words_annotations/FRCHANJJ_JJ091_0071R.json/19/line", 
            "@type": "oa:Annotation", 
            "motivation": "oa:painting", 
            "on": "http://bvmm.irht.cnrs.fr/iiif/23679/canvas/canvas-2298812#xywh=84,2196,170,60", 
            "resource": {
                "@type": "cnt:ContentAsText", 
                "chars": "HANNE", 
                "format": "text/plain"
            }
        }, 
        {
            "@id": "https://manifests.teklia.com/HIMANIS/JJ091/words_annotations/FRCHANJJ_JJ091_0071R.json/20/line", 
            "@type": "oa:Annotation", 
            "motivation": "oa:painting", 
            "on": "http://bvmm.irht.cnrs.fr/iiif/23679/canvas/canvas-2298812#xywh=13,0,105,111", 
            "resource": {
                "@type": "cnt:ContentAsText", 
                "chars": "DE", 
                "format": "text/plain"
            }
        }, 
        {
            "@id": "https://manifests.teklia.com/HIMANIS/JJ091/words_annotations/FRCHANJJ_JJ091_0071R.json/21/line", 
            "@type": "oa:Annotation", 
            "motivation": "oa:painting", 
            "on": "http://bvmm.irht.cnrs.fr/iiif/23679/canvas/canvas-2298812#xywh=920,1974,73,33", 
            "resource": {
                "@type": "cnt:ContentAsText", 
                "chars": "DE", 
                "format": "text/plain"
            }
        }, 
        {
            "@id": "https://manifests.teklia.com/HIMANIS/JJ091/words_annotations/FRCHANJJ_JJ091_0071R.json/22/line", 
            "@type": "oa:Annotation", 
            "motivation": "oa:painting", 
            "on": "http://bvmm.irht.cnrs.fr/iiif/23679/canvas/canvas-2298812#xywh=90,2163,77,39", 
            "resource": {
                "@type": "cnt:ContentAsText", 
                "chars": "DU", 
                "format": "text/plain"
            }
        }, 
        {
            "@id": "https://manifests.teklia.com/HIMANIS/JJ091/words_annotations/FRCHANJJ_JJ091_0071R.json/23/line", 
            "@type": "oa:Annotation", 
            "motivation": "oa:painting", 
            "on": "http://bvmm.irht.cnrs.fr/iiif/23679/canvas/canvas-2298812#xywh=1584,3855,0,33", 
            "resource": {
                "@type": "cnt:ContentAsText", 
                "chars": "P", 
                "format": "text/plain"
            }
        }, 
        {
            "@id": "https://manifests.teklia.com/HIMANIS/JJ091/words_annotations/FRCHANJJ_JJ091_0071R.json/24/line", 
            "@type": "oa:Annotation", 
            "motivation": "oa:painting", 
            "on": "http://bvmm.irht.cnrs.fr/iiif/23679/canvas/canvas-2298812#xywh=81,1968,196,39", 
            "resource": {
                "@type": "cnt:ContentAsText", 
                "chars": "DUSUR", 
                "format": "text/plain"
            }
        }, 
        {
            "@id": "https://manifests.teklia.com/HIMANIS/JJ091/words_annotations/FRCHANJJ_JJ091_0071R.json/25/line", 
            "@type": "oa:Annotation", 
            "motivation": "oa:painting", 
            "on": "http://bvmm.irht.cnrs.fr/iiif/23679/canvas/canvas-2298812#xywh=47,1887,277,72", 
            "resource": {
                "@type": "cnt:ContentAsText", 
                "chars": "NOUS", 
                "format": "text/plain"
            }
        }, 
        {
            "@id": "https://manifests.teklia.com/HIMANIS/JJ091/words_annotations/FRCHANJJ_JJ091_0071R.json/26/line", 
            "@type": "oa:Annotation", 
            "motivation": "oa:painting", 
            "on": "http://bvmm.irht.cnrs.fr/iiif/23679/canvas/canvas-2298812#xywh=925,2196,0,60", 
            "resource": {
                "@type": "cnt:ContentAsText", 
                "chars": "H", 
                "format": "text/plain"
            }
        }, 
        {
            "@id": "https://manifests.teklia.com/HIMANIS/JJ091/words_annotations/FRCHANJJ_JJ091_0071R.json/27/line", 
            "@type": "oa:Annotation", 
            "motivation": "oa:painting", 
            "on": "http://bvmm.irht.cnrs.fr/iiif/23679/canvas/canvas-2298812#xywh=925,2196,0,60", 
            "resource": {
                "@type": "cnt:ContentAsText", 
                "chars": "J", 
                "format": "text/plain"
            }
        }, 
        {
            "@id": "https://manifests.teklia.com/HIMANIS/JJ091/words_annotations/FRCHANJJ_JJ091_0071R.json/28/line", 
            "@type": "oa:Annotation", 
            "motivation": "oa:painting", 
            "on": "http://bvmm.irht.cnrs.fr/iiif/23679/canvas/canvas-2298812#xywh=3487,4505,78,37", 
            "resource": {
                "@type": "cnt:ContentAsText", 
                "chars": "ET", 
                "format": "text/plain"
            }
        }, 
        {
            "@id": "https://manifests.teklia.com/HIMANIS/JJ091/words_annotations/FRCHANJJ_JJ091_0071R.json/29/line", 
            "@type": "oa:Annotation", 
            "motivation": "oa:painting", 
            "on": "http://bvmm.irht.cnrs.fr/iiif/23679/canvas/canvas-2298812#xywh=925,2196,0,60", 
            "resource": {
                "@type": "cnt:ContentAsText", 
                "chars": "R", 
                "format": "text/plain"
            }
        }, 
        {
            "@id": "https://manifests.teklia.com/HIMANIS/JJ091/words_annotations/FRCHANJJ_JJ091_0071R.json/30/line", 
            "@type": "oa:Annotation", 
            "motivation": "oa:painting", 
            "on": "http://bvmm.irht.cnrs.fr/iiif/23679/canvas/canvas-2298812#xywh=3510,3819,95,36", 
            "resource": {
                "@type": "cnt:ContentAsText", 
                "chars": "LES", 
                "format": "text/plain"
            }
        }, 
        {
            "@id": "https://manifests.teklia.com/HIMANIS/JJ091/words_annotations/FRCHANJJ_JJ091_0071R.json/31/line", 
            "@type": "oa:Annotation", 
            "motivation": "oa:painting", 
            "on": "http://bvmm.irht.cnrs.fr/iiif/23679/canvas/canvas-2298812#xywh=81,1968,117,39", 
            "resource": {
                "@type": "cnt:ContentAsText", 
                "chars": "DUR", 
                "format": "text/plain"
            }
        }, 
        {
            "@id": "https://manifests.teklia.com/HIMANIS/JJ091/words_annotations/FRCHANJJ_JJ091_0071R.json/32/line", 
            "@type": "oa:Annotation", 
            "motivation": "oa:painting", 
            "on": "http://bvmm.irht.cnrs.fr/iiif/23679/canvas/canvas-2298812#xywh=83,2028,0,30", 
            "resource": {
                "@type": "cnt:ContentAsText", 
                "chars": "J", 
                "format": "text/plain"
            }
        }, 
        {
            "@id": "https://manifests.teklia.com/HIMANIS/JJ091/words_annotations/FRCHANJJ_JJ091_0071R.json/33/line", 
            "@type": "oa:Annotation", 
            "motivation": "oa:painting", 
            "on": "http://bvmm.irht.cnrs.fr/iiif/23679/canvas/canvas-2298812#xywh=128,2007,47,30", 
            "resource": {
                "@type": "cnt:ContentAsText", 
                "chars": "ET", 
                "format": "text/plain"
            }
        }, 
        {
            "@id": "https://manifests.teklia.com/HIMANIS/JJ091/words_annotations/FRCHANJJ_JJ091_0071R.json/34/line", 
            "@type": "oa:Annotation", 
            "motivation": "oa:painting", 
            "on": "http://bvmm.irht.cnrs.fr/iiif/23679/canvas/canvas-2298812#xywh=83,2028,0,30", 
            "resource": {
                "@type": "cnt:ContentAsText", 
                "chars": "R", 
                "format": "text/plain"
            }
        }, 
        {
            "@id": "https://manifests.teklia.com/HIMANIS/JJ091/words_annotations/FRCHANJJ_JJ091_0071R.json/35/line", 
            "@type": "oa:Annotation", 
            "motivation": "oa:painting", 
            "on": "http://bvmm.irht.cnrs.fr/iiif/23679/canvas/canvas-2298812#xywh=2490,0,700,153", 
            "resource": {
                "@type": "cnt:ContentAsText", 
                "chars": "ET", 
                "format": "text/plain"
            }
        }, 
        {
            "@id": "https://manifests.teklia.com/HIMANIS/JJ091/words_annotations/FRCHANJJ_JJ091_0071R.json/36/line", 
            "@type": "oa:Annotation", 
            "motivation": "oa:painting", 
            "on": "http://bvmm.irht.cnrs.fr/iiif/23679/canvas/canvas-2298812#xywh=3511,3780,53,31", 
            "resource": {
                "@type": "cnt:ContentAsText", 
                "chars": "DE", 
                "format": "text/plain"
            }
        }, 
        {
            "@id": "https://manifests.teklia.com/HIMANIS/JJ091/words_annotations/FRCHANJJ_JJ091_0071R.json/37/line", 
            "@type": "oa:Annotation", 
            "motivation": "oa:painting", 
            "on": "http://bvmm.irht.cnrs.fr/iiif/23679/canvas/canvas-2298812#xywh=3510,3819,50,36", 
            "resource": {
                "@type": "cnt:ContentAsText", 
                "chars": "DE", 
                "format": "text/plain"
            }
        }, 
        {
            "@id": "https://manifests.teklia.com/HIMANIS/JJ091/words_annotations/FRCHANJJ_JJ091_0071R.json/38/line", 
            "@type": "oa:Annotation", 
            "motivation": "oa:painting", 
            "on": "http://bvmm.irht.cnrs.fr/iiif/23679/canvas/canvas-2298812#xywh=2490,0,1122,153", 
            "resource": {
                "@type": "cnt:ContentAsText", 
                "chars": "TENE", 
                "format": "text/plain"
            }
        }, 
        {
            "@id": "https://manifests.teklia.com/HIMANIS/JJ091/words_annotations/FRCHANJJ_JJ091_0071R.json/39/line", 
            "@type": "oa:Annotation", 
            "motivation": "oa:painting", 
            "on": "http://bvmm.irht.cnrs.fr/iiif/23679/canvas/canvas-2298812#xywh=920,1974,88,33", 
            "resource": {
                "@type": "cnt:ContentAsText", 
                "chars": "ET", 
                "format": "text/plain"
            }
        }, 
        {
            "@id": "https://manifests.teklia.com/HIMANIS/JJ091/words_annotations/FRCHANJJ_JJ091_0071R.json/40/line", 
            "@type": "oa:Annotation", 
            "motivation": "oa:painting", 
            "on": "http://bvmm.irht.cnrs.fr/iiif/23679/canvas/canvas-2298812#xywh=190,2163,289,39", 
            "resource": {
                "@type": "cnt:ContentAsText", 
                "chars": "TOURGE", 
                "format": "text/plain"
            }
        }, 
        {
            "@id": "https://manifests.teklia.com/HIMANIS/JJ091/words_annotations/FRCHANJJ_JJ091_0071R.json/41/line", 
            "@type": "oa:Annotation", 
            "motivation": "oa:painting", 
            "on": "http://bvmm.irht.cnrs.fr/iiif/23679/canvas/canvas-2298812#xywh=1893,1887,0,69", 
            "resource": {
                "@type": "cnt:ContentAsText", 
                "chars": "J", 
                "format": "text/plain"
            }
        }, 
        {
            "@id": "https://manifests.teklia.com/HIMANIS/JJ091/words_annotations/FRCHANJJ_JJ091_0071R.json/42/line", 
            "@type": "oa:Annotation", 
            "motivation": "oa:painting", 
            "on": "http://bvmm.irht.cnrs.fr/iiif/23679/canvas/canvas-2298812#xywh=400,2100,56,63", 
            "resource": {
                "@type": "cnt:ContentAsText", 
                "chars": "NOSTRE", 
                "format": "text/plain"
            }
        }, 
        {
            "@id": "https://manifests.teklia.com/HIMANIS/JJ091/words_annotations/FRCHANJJ_JJ091_0071R.json/43/line", 
            "@type": "oa:Annotation", 
            "motivation": "oa:painting", 
            "on": "http://bvmm.irht.cnrs.fr/iiif/23679/canvas/canvas-2298812#xywh=460,2100,56,63", 
            "resource": {
                "@type": "cnt:ContentAsText", 
                "chars": "QUAM", 
                "format": "text/plain"
            }
        }, 
        {
            "@id": "https://manifests.teklia.com/HIMANIS/JJ091/words_annotations/FRCHANJJ_JJ091_0071R.json/44/line", 
            "@type": "oa:Annotation", 
            "motivation": "oa:painting", 
            "on": "http://bvmm.irht.cnrs.fr/iiif/23679/canvas/canvas-2298812#xywh=3487,4505,116,37", 
            "resource": {
                "@type": "cnt:ContentAsText", 
                "chars": "LES", 
                "format": "text/plain"
            }
        }, 
        {
            "@id": "https://manifests.teklia.com/HIMANIS/JJ091/words_annotations/FRCHANJJ_JJ091_0071R.json/45/line", 
            "@type": "oa:Annotation", 
            "motivation": "oa:painting", 
            "on": "http://bvmm.irht.cnrs.fr/iiif/23679/canvas/canvas-2298812#xywh=1468,3855,36,33", 
            "resource": {
                "@type": "cnt:ContentAsText", 
                "chars": "PHILIPPES", 
                "format": "text/plain"
            }
        }, 
        {
            "@id": "https://manifests.teklia.com/HIMANIS/JJ091/words_annotations/FRCHANJJ_JJ091_0071R.json/46/line", 
            "@type": "oa:Annotation", 
            "motivation": "oa:painting", 
            "on": "http://bvmm.irht.cnrs.fr/iiif/23679/canvas/canvas-2298812#xywh=89,2100,60,63", 
            "resource": {
                "@type": "cnt:ContentAsText", 
                "chars": "LIVRE", 
                "format": "text/plain"
            }
        }, 
        {
            "@id": "https://manifests.teklia.com/HIMANIS/JJ091/words_annotations/FRCHANJJ_JJ091_0071R.json/47/line", 
            "@type": "oa:Annotation", 
            "motivation": "oa:painting", 
            "on": "http://bvmm.irht.cnrs.fr/iiif/23679/canvas/canvas-2298812#xywh=460,2100,12,63", 
            "resource": {
                "@type": "cnt:ContentAsText", 
                "chars": "QUE", 
                "format": "text/plain"
            }
        }, 
        {
            "@id": "https://manifests.teklia.com/HIMANIS/JJ091/words_annotations/FRCHANJJ_JJ091_0071R.json/48/line", 
            "@type": "oa:Annotation", 
            "motivation": "oa:painting", 
            "on": "http://bvmm.irht.cnrs.fr/iiif/23679/canvas/canvas-2298812#xywh=3511,3780,63,31", 
            "resource": {
                "@type": "cnt:ContentAsText", 
                "chars": "ET", 
                "format": "text/plain"
            }
        }, 
        {
            "@id": "https://manifests.teklia.com/HIMANIS/JJ091/words_annotations/FRCHANJJ_JJ091_0071R.json/49/line", 
            "@type": "oa:Annotation", 
            "motivation": "oa:painting", 
            "on": "http://bvmm.irht.cnrs.fr/iiif/23679/canvas/canvas-2298812#xywh=524,2100,0,63", 
            "resource": {
                "@type": "cnt:ContentAsText", 
                "chars": "M", 
                "format": "text/plain"
            }
        }, 
        {
            "@id": "https://manifests.teklia.com/HIMANIS/JJ091/words_annotations/FRCHANJJ_JJ091_0071R.json/50/line", 
            "@type": "oa:Annotation", 
            "motivation": "oa:painting", 
            "on": "http://bvmm.irht.cnrs.fr/iiif/23679/canvas/canvas-2298812#xywh=89,2100,192,63", 
            "resource": {
                "@type": "cnt:ContentAsText", 
                "chars": "LIENARUM", 
                "format": "text/plain"
            }
        }, 
        {
            "@id": "https://manifests.teklia.com/HIMANIS/JJ091/words_annotations/FRCHANJJ_JJ091_0071R.json/51/line", 
            "@type": "oa:Annotation", 
            "motivation": "oa:painting", 
            "on": "http://bvmm.irht.cnrs.fr/iiif/23679/canvas/canvas-2298812#xywh=293,2100,59,63", 
            "resource": {
                "@type": "cnt:ContentAsText", 
                "chars": "ROY", 
                "format": "text/plain"
            }
        }
    ]
}