{
    "@context": "http://iiif.io/api/presentation/2/context.json", 
    "@id": "https://manifests.teklia.com/HIMANIS/JJ196/words_annotations/FRAN_0200_10350.json", 
    "@type": "sc:AnnotationList", 
    "resources": [
        {
            "@id": "https://manifests.teklia.com/HIMANIS/JJ196/words_annotations/FRAN_0200_10350.json/0/line", 
            "@type": "oa:Annotation", 
            "motivation": "oa:painting", 
            "on": "http://bvmm.irht.cnrs.fr/iiif/23802/canvas/canvas-2348236#xywh=3787,4102,695,138", 
            "resource": {
                "@type": "cnt:ContentAsText", 
                "chars": "CI", 
                "format": "text/plain"
            }
        }, 
        {
            "@id": "https://manifests.teklia.com/HIMANIS/JJ196/words_annotations/FRAN_0200_10350.json/1/line", 
            "@type": "oa:Annotation", 
            "motivation": "oa:painting", 
            "on": "http://bvmm.irht.cnrs.fr/iiif/23802/canvas/canvas-2348236#xywh=1472,481,121,160", 
            "resource": {
                "@type": "cnt:ContentAsText", 
                "chars": "QUIS", 
                "format": "text/plain"
            }
        }, 
        {
            "@id": "https://manifests.teklia.com/HIMANIS/JJ196/words_annotations/FRAN_0200_10350.json/2/line", 
            "@type": "oa:Annotation", 
            "motivation": "oa:painting", 
            "on": "http://bvmm.irht.cnrs.fr/iiif/23802/canvas/canvas-2348236#xywh=2199,595,256,132", 
            "resource": {
                "@type": "cnt:ContentAsText", 
                "chars": "POURRE", 
                "format": "text/plain"
            }
        }, 
        {
            "@id": "https://manifests.teklia.com/HIMANIS/JJ196/words_annotations/FRAN_0200_10350.json/3/line", 
            "@type": "oa:Annotation", 
            "motivation": "oa:painting", 
            "on": "http://bvmm.irht.cnrs.fr/iiif/23802/canvas/canvas-2348236#xywh=2683,396,161,171", 
            "resource": {
                "@type": "cnt:ContentAsText", 
                "chars": "GILIER", 
                "format": "text/plain"
            }
        }, 
        {
            "@id": "https://manifests.teklia.com/HIMANIS/JJ196/words_annotations/FRAN_0200_10350.json/4/line", 
            "@type": "oa:Annotation", 
            "motivation": "oa:painting", 
            "on": "http://bvmm.irht.cnrs.fr/iiif/23802/canvas/canvas-2348236#xywh=287,2922,54,39", 
            "resource": {
                "@type": "cnt:ContentAsText", 
                "chars": "DE", 
                "format": "text/plain"
            }
        }, 
        {
            "@id": "https://manifests.teklia.com/HIMANIS/JJ196/words_annotations/FRAN_0200_10350.json/5/line", 
            "@type": "oa:Annotation", 
            "motivation": "oa:painting", 
            "on": "http://bvmm.irht.cnrs.fr/iiif/23802/canvas/canvas-2348236#xywh=482,1414,358,47", 
            "resource": {
                "@type": "cnt:ContentAsText", 
                "chars": "PHIL", 
                "format": "text/plain"
            }
        }, 
        {
            "@id": "https://manifests.teklia.com/HIMANIS/JJ196/words_annotations/FRAN_0200_10350.json/6/line", 
            "@type": "oa:Annotation", 
            "motivation": "oa:painting", 
            "on": "http://bvmm.irht.cnrs.fr/iiif/23802/canvas/canvas-2348236#xywh=2393,396,172,171", 
            "resource": {
                "@type": "cnt:ContentAsText", 
                "chars": "POURRE", 
                "format": "text/plain"
            }
        }, 
        {
            "@id": "https://manifests.teklia.com/HIMANIS/JJ196/words_annotations/FRAN_0200_10350.json/7/line", 
            "@type": "oa:Annotation", 
            "motivation": "oa:painting", 
            "on": "http://bvmm.irht.cnrs.fr/iiif/23802/canvas/canvas-2348236#xywh=3522,586,216,144", 
            "resource": {
                "@type": "cnt:ContentAsText", 
                "chars": "SIRELLUI", 
                "format": "text/plain"
            }
        }, 
        {
            "@id": "https://manifests.teklia.com/HIMANIS/JJ196/words_annotations/FRAN_0200_10350.json/8/line", 
            "@type": "oa:Annotation", 
            "motivation": "oa:painting", 
            "on": "http://bvmm.irht.cnrs.fr/iiif/23802/canvas/canvas-2348236#xywh=603,79,993,113", 
            "resource": {
                "@type": "cnt:ContentAsText", 
                "chars": "CL", 
                "format": "text/plain"
            }
        }, 
        {
            "@id": "https://manifests.teklia.com/HIMANIS/JJ196/words_annotations/FRAN_0200_10350.json/9/line", 
            "@type": "oa:Annotation", 
            "motivation": "oa:painting", 
            "on": "http://bvmm.irht.cnrs.fr/iiif/23802/canvas/canvas-2348236#xywh=1609,396,225,171", 
            "resource": {
                "@type": "cnt:ContentAsText", 
                "chars": "MALOIR", 
                "format": "text/plain"
            }
        }, 
        {
            "@id": "https://manifests.teklia.com/HIMANIS/JJ196/words_annotations/FRAN_0200_10350.json/10/line", 
            "@type": "oa:Annotation", 
            "motivation": "oa:painting", 
            "on": "http://bvmm.irht.cnrs.fr/iiif/23802/canvas/canvas-2348236#xywh=4371,2598,59,31", 
            "resource": {
                "@type": "cnt:ContentAsText", 
                "chars": "LE", 
                "format": "text/plain"
            }
        }, 
        {
            "@id": "https://manifests.teklia.com/HIMANIS/JJ196/words_annotations/FRAN_0200_10350.json/11/line", 
            "@type": "oa:Annotation", 
            "motivation": "oa:painting", 
            "on": "http://bvmm.irht.cnrs.fr/iiif/23802/canvas/canvas-2348236#xywh=3406,272,0,184", 
            "resource": {
                "@type": "cnt:ContentAsText", 
                "chars": "A", 
                "format": "text/plain"
            }
        }, 
        {
            "@id": "https://manifests.teklia.com/HIMANIS/JJ196/words_annotations/FRAN_0200_10350.json/12/line", 
            "@type": "oa:Annotation", 
            "motivation": "oa:painting", 
            "on": "http://bvmm.irht.cnrs.fr/iiif/23802/canvas/canvas-2348236#xywh=3360,396,53,171", 
            "resource": {
                "@type": "cnt:ContentAsText", 
                "chars": "OU", 
                "format": "text/plain"
            }
        }, 
        {
            "@id": "https://manifests.teklia.com/HIMANIS/JJ196/words_annotations/FRAN_0200_10350.json/13/line", 
            "@type": "oa:Annotation", 
            "motivation": "oa:painting", 
            "on": "http://bvmm.irht.cnrs.fr/iiif/23802/canvas/canvas-2348236#xywh=1804,481,695,160", 
            "resource": {
                "@type": "cnt:ContentAsText", 
                "chars": "SALITEUR", 
                "format": "text/plain"
            }
        }, 
        {
            "@id": "https://manifests.teklia.com/HIMANIS/JJ196/words_annotations/FRAN_0200_10350.json/14/line", 
            "@type": "oa:Annotation", 
            "motivation": "oa:painting", 
            "on": "http://bvmm.irht.cnrs.fr/iiif/23802/canvas/canvas-2348236#xywh=3522,586,189,144", 
            "resource": {
                "@type": "cnt:ContentAsText", 
                "chars": "SIRELUI", 
                "format": "text/plain"
            }
        }, 
        {
            "@id": "https://manifests.teklia.com/HIMANIS/JJ196/words_annotations/FRAN_0200_10350.json/15/line", 
            "@type": "oa:Annotation", 
            "motivation": "oa:painting", 
            "on": "http://bvmm.irht.cnrs.fr/iiif/23802/canvas/canvas-2348236#xywh=2930,396,97,171", 
            "resource": {
                "@type": "cnt:ContentAsText", 
                "chars": "DESSUS", 
                "format": "text/plain"
            }
        }, 
        {
            "@id": "https://manifests.teklia.com/HIMANIS/JJ196/words_annotations/FRAN_0200_10350.json/16/line", 
            "@type": "oa:Annotation", 
            "motivation": "oa:painting", 
            "on": "http://bvmm.irht.cnrs.fr/iiif/23802/canvas/canvas-2348236#xywh=57,2656,109,52", 
            "resource": {
                "@type": "cnt:ContentAsText", 
                "chars": "DE", 
                "format": "text/plain"
            }
        }, 
        {
            "@id": "https://manifests.teklia.com/HIMANIS/JJ196/words_annotations/FRAN_0200_10350.json/17/line", 
            "@type": "oa:Annotation", 
            "motivation": "oa:painting", 
            "on": "http://bvmm.irht.cnrs.fr/iiif/23802/canvas/canvas-2348236#xywh=4380,2849,90,38", 
            "resource": {
                "@type": "cnt:ContentAsText", 
                "chars": "DES", 
                "format": "text/plain"
            }
        }, 
        {
            "@id": "https://manifests.teklia.com/HIMANIS/JJ196/words_annotations/FRAN_0200_10350.json/18/line", 
            "@type": "oa:Annotation", 
            "motivation": "oa:painting", 
            "on": "http://bvmm.irht.cnrs.fr/iiif/23802/canvas/canvas-2348236#xywh=3671,272,69,184", 
            "resource": {
                "@type": "cnt:ContentAsText", 
                "chars": "SE", 
                "format": "text/plain"
            }
        }, 
        {
            "@id": "https://manifests.teklia.com/HIMANIS/JJ196/words_annotations/FRAN_0200_10350.json/19/line", 
            "@type": "oa:Annotation", 
            "motivation": "oa:painting", 
            "on": "http://bvmm.irht.cnrs.fr/iiif/23802/canvas/canvas-2348236#xywh=58,2432,25,12", 
            "resource": {
                "@type": "cnt:ContentAsText", 
                "chars": "LES", 
                "format": "text/plain"
            }
        }, 
        {
            "@id": "https://manifests.teklia.com/HIMANIS/JJ196/words_annotations/FRAN_0200_10350.json/20/line", 
            "@type": "oa:Annotation", 
            "motivation": "oa:painting", 
            "on": "http://bvmm.irht.cnrs.fr/iiif/23802/canvas/canvas-2348236#xywh=4202,272,265,184", 
            "resource": {
                "@type": "cnt:ContentAsText", 
                "chars": "LIVR", 
                "format": "text/plain"
            }
        }, 
        {
            "@id": "https://manifests.teklia.com/HIMANIS/JJ196/words_annotations/FRAN_0200_10350.json/21/line", 
            "@type": "oa:Annotation", 
            "motivation": "oa:painting", 
            "on": "http://bvmm.irht.cnrs.fr/iiif/23802/canvas/canvas-2348236#xywh=2402,272,69,184", 
            "resource": {
                "@type": "cnt:ContentAsText", 
                "chars": "VER", 
                "format": "text/plain"
            }
        }, 
        {
            "@id": "https://manifests.teklia.com/HIMANIS/JJ196/words_annotations/FRAN_0200_10350.json/22/line", 
            "@type": "oa:Annotation", 
            "motivation": "oa:painting", 
            "on": "http://bvmm.irht.cnrs.fr/iiif/23802/canvas/canvas-2348236#xywh=69,2439,444,35", 
            "resource": {
                "@type": "cnt:ContentAsText", 
                "chars": "CONTEN", 
                "format": "text/plain"
            }
        }, 
        {
            "@id": "https://manifests.teklia.com/HIMANIS/JJ196/words_annotations/FRAN_0200_10350.json/23/line", 
            "@type": "oa:Annotation", 
            "motivation": "oa:painting", 
            "on": "http://bvmm.irht.cnrs.fr/iiif/23802/canvas/canvas-2348236#xywh=603,79,993,113", 
            "resource": {
                "@type": "cnt:ContentAsText", 
                "chars": "PER", 
                "format": "text/plain"
            }
        }, 
        {
            "@id": "https://manifests.teklia.com/HIMANIS/JJ196/words_annotations/FRAN_0200_10350.json/24/line", 
            "@type": "oa:Annotation", 
            "motivation": "oa:painting", 
            "on": "http://bvmm.irht.cnrs.fr/iiif/23802/canvas/canvas-2348236#xywh=3752,272,69,184", 
            "resource": {
                "@type": "cnt:ContentAsText", 
                "chars": "JUS", 
                "format": "text/plain"
            }
        }, 
        {
            "@id": "https://manifests.teklia.com/HIMANIS/JJ196/words_annotations/FRAN_0200_10350.json/25/line", 
            "@type": "oa:Annotation", 
            "motivation": "oa:painting", 
            "on": "http://bvmm.irht.cnrs.fr/iiif/23802/canvas/canvas-2348236#xywh=2683,396,161,171", 
            "resource": {
                "@type": "cnt:ContentAsText", 
                "chars": "DICION", 
                "format": "text/plain"
            }
        }, 
        {
            "@id": "https://manifests.teklia.com/HIMANIS/JJ196/words_annotations/FRAN_0200_10350.json/26/line", 
            "@type": "oa:Annotation", 
            "motivation": "oa:painting", 
            "on": "http://bvmm.irht.cnrs.fr/iiif/23802/canvas/canvas-2348236#xywh=2710,481,151,160", 
            "resource": {
                "@type": "cnt:ContentAsText", 
                "chars": "PRES", 
                "format": "text/plain"
            }
        }, 
        {
            "@id": "https://manifests.teklia.com/HIMANIS/JJ196/words_annotations/FRAN_0200_10350.json/27/line", 
            "@type": "oa:Annotation", 
            "motivation": "oa:painting", 
            "on": "http://bvmm.irht.cnrs.fr/iiif/23802/canvas/canvas-2348236#xywh=58,2388,762,44", 
            "resource": {
                "@type": "cnt:ContentAsText", 
                "chars": "CONCE", 
                "format": "text/plain"
            }
        }, 
        {
            "@id": "https://manifests.teklia.com/HIMANIS/JJ196/words_annotations/FRAN_0200_10350.json/28/line", 
            "@type": "oa:Annotation", 
            "motivation": "oa:painting", 
            "on": "http://bvmm.irht.cnrs.fr/iiif/23802/canvas/canvas-2348236#xywh=4235,586,100,144", 
            "resource": {
                "@type": "cnt:ContentAsText", 
                "chars": "SOMME", 
                "format": "text/plain"
            }
        }, 
        {
            "@id": "https://manifests.teklia.com/HIMANIS/JJ196/words_annotations/FRAN_0200_10350.json/29/line", 
            "@type": "oa:Annotation", 
            "motivation": "oa:painting", 
            "on": "http://bvmm.irht.cnrs.fr/iiif/23802/canvas/canvas-2348236#xywh=1439,595,339,132", 
            "resource": {
                "@type": "cnt:ContentAsText", 
                "chars": "FOURMENT", 
                "format": "text/plain"
            }
        }, 
        {
            "@id": "https://manifests.teklia.com/HIMANIS/JJ196/words_annotations/FRAN_0200_10350.json/30/line", 
            "@type": "oa:Annotation", 
            "motivation": "oa:painting", 
            "on": "http://bvmm.irht.cnrs.fr/iiif/23802/canvas/canvas-2348236#xywh=3413,396,538,171", 
            "resource": {
                "@type": "cnt:ContentAsText", 
                "chars": "POONSIEUR", 
                "format": "text/plain"
            }
        }, 
        {
            "@id": "https://manifests.teklia.com/HIMANIS/JJ196/words_annotations/FRAN_0200_10350.json/31/line", 
            "@type": "oa:Annotation", 
            "motivation": "oa:painting", 
            "on": "http://bvmm.irht.cnrs.fr/iiif/23802/canvas/canvas-2348236#xywh=2402,272,646,184", 
            "resource": {
                "@type": "cnt:ContentAsText", 
                "chars": "ESPECTAMPS", 
                "format": "text/plain"
            }
        }, 
        {
            "@id": "https://manifests.teklia.com/HIMANIS/JJ196/words_annotations/FRAN_0200_10350.json/32/line", 
            "@type": "oa:Annotation", 
            "motivation": "oa:painting", 
            "on": "http://bvmm.irht.cnrs.fr/iiif/23802/canvas/canvas-2348236#xywh=3223,586,235,144", 
            "resource": {
                "@type": "cnt:ContentAsText", 
                "chars": "SERVITORES", 
                "format": "text/plain"
            }
        }, 
        {
            "@id": "https://manifests.teklia.com/HIMANIS/JJ196/words_annotations/FRAN_0200_10350.json/33/line", 
            "@type": "oa:Annotation", 
            "motivation": "oa:painting", 
            "on": "http://bvmm.irht.cnrs.fr/iiif/23802/canvas/canvas-2348236#xywh=3964,586,109,144", 
            "resource": {
                "@type": "cnt:ContentAsText", 
                "chars": "SITI", 
                "format": "text/plain"
            }
        }, 
        {
            "@id": "https://manifests.teklia.com/HIMANIS/JJ196/words_annotations/FRAN_0200_10350.json/34/line", 
            "@type": "oa:Annotation", 
            "motivation": "oa:painting", 
            "on": "http://bvmm.irht.cnrs.fr/iiif/23802/canvas/canvas-2348236#xywh=1439,595,50,132", 
            "resource": {
                "@type": "cnt:ContentAsText", 
                "chars": "LE", 
                "format": "text/plain"
            }
        }, 
        {
            "@id": "https://manifests.teklia.com/HIMANIS/JJ196/words_annotations/FRAN_0200_10350.json/35/line", 
            "@type": "oa:Annotation", 
            "motivation": "oa:painting", 
            "on": "http://bvmm.irht.cnrs.fr/iiif/23802/canvas/canvas-2348236#xywh=287,2922,69,39", 
            "resource": {
                "@type": "cnt:ContentAsText", 
                "chars": "ET", 
                "format": "text/plain"
            }
        }, 
        {
            "@id": "https://manifests.teklia.com/HIMANIS/JJ196/words_annotations/FRAN_0200_10350.json/36/line", 
            "@type": "oa:Annotation", 
            "motivation": "oa:painting", 
            "on": "http://bvmm.irht.cnrs.fr/iiif/23802/canvas/canvas-2348236#xywh=603,79,979,113", 
            "resource": {
                "@type": "cnt:ContentAsText", 
                "chars": "DE", 
                "format": "text/plain"
            }
        }, 
        {
            "@id": "https://manifests.teklia.com/HIMANIS/JJ196/words_annotations/FRAN_0200_10350.json/37/line", 
            "@type": "oa:Annotation", 
            "motivation": "oa:painting", 
            "on": "http://bvmm.irht.cnrs.fr/iiif/23802/canvas/canvas-2348236#xywh=3544,272,92,184", 
            "resource": {
                "@type": "cnt:ContentAsText", 
                "chars": "MAIS", 
                "format": "text/plain"
            }
        }, 
        {
            "@id": "https://manifests.teklia.com/HIMANIS/JJ196/words_annotations/FRAN_0200_10350.json/38/line", 
            "@type": "oa:Annotation", 
            "motivation": "oa:painting", 
            "on": "http://bvmm.irht.cnrs.fr/iiif/23802/canvas/canvas-2348236#xywh=1860,595,314,132", 
            "resource": {
                "@type": "cnt:ContentAsText", 
                "chars": "DU", 
                "format": "text/plain"
            }
        }, 
        {
            "@id": "https://manifests.teklia.com/HIMANIS/JJ196/words_annotations/FRAN_0200_10350.json/39/line", 
            "@type": "oa:Annotation", 
            "motivation": "oa:painting", 
            "on": "http://bvmm.irht.cnrs.fr/iiif/23802/canvas/canvas-2348236#xywh=4380,2849,88,38", 
            "resource": {
                "@type": "cnt:ContentAsText", 
                "chars": "DE", 
                "format": "text/plain"
            }
        }, 
        {
            "@id": "https://manifests.teklia.com/HIMANIS/JJ196/words_annotations/FRAN_0200_10350.json/40/line", 
            "@type": "oa:Annotation", 
            "motivation": "oa:painting", 
            "on": "http://bvmm.irht.cnrs.fr/iiif/23802/canvas/canvas-2348236#xywh=1974,396,193,171", 
            "resource": {
                "@type": "cnt:ContentAsText", 
                "chars": "GRANS", 
                "format": "text/plain"
            }
        }, 
        {
            "@id": "https://manifests.teklia.com/HIMANIS/JJ196/words_annotations/FRAN_0200_10350.json/41/line", 
            "@type": "oa:Annotation", 
            "motivation": "oa:painting", 
            "on": "http://bvmm.irht.cnrs.fr/iiif/23802/canvas/canvas-2348236#xywh=4187,396,140,171", 
            "resource": {
                "@type": "cnt:ContentAsText", 
                "chars": "VIXENT", 
                "format": "text/plain"
            }
        }, 
        {
            "@id": "https://manifests.teklia.com/HIMANIS/JJ196/words_annotations/FRAN_0200_10350.json/42/line", 
            "@type": "oa:Annotation", 
            "motivation": "oa:painting", 
            "on": "http://bvmm.irht.cnrs.fr/iiif/23802/canvas/canvas-2348236#xywh=2307,396,43,171", 
            "resource": {
                "@type": "cnt:ContentAsText", 
                "chars": "LA", 
                "format": "text/plain"
            }
        }, 
        {
            "@id": "https://manifests.teklia.com/HIMANIS/JJ196/words_annotations/FRAN_0200_10350.json/43/line", 
            "@type": "oa:Annotation", 
            "motivation": "oa:painting", 
            "on": "http://bvmm.irht.cnrs.fr/iiif/23802/canvas/canvas-2348236#xywh=4393,121,0,86", 
            "resource": {
                "@type": "cnt:ContentAsText", 
                "chars": "E", 
                "format": "text/plain"
            }
        }, 
        {
            "@id": "https://manifests.teklia.com/HIMANIS/JJ196/words_annotations/FRAN_0200_10350.json/44/line", 
            "@type": "oa:Annotation", 
            "motivation": "oa:painting", 
            "on": "http://bvmm.irht.cnrs.fr/iiif/23802/canvas/canvas-2348236#xywh=2683,396,161,171", 
            "resource": {
                "@type": "cnt:ContentAsText", 
                "chars": "DIEU", 
                "format": "text/plain"
            }
        }, 
        {
            "@id": "https://manifests.teklia.com/HIMANIS/JJ196/words_annotations/FRAN_0200_10350.json/45/line", 
            "@type": "oa:Annotation", 
            "motivation": "oa:painting", 
            "on": "http://bvmm.irht.cnrs.fr/iiif/23802/canvas/canvas-2348236#xywh=2608,396,53,171", 
            "resource": {
                "@type": "cnt:ContentAsText", 
                "chars": "DE", 
                "format": "text/plain"
            }
        }, 
        {
            "@id": "https://manifests.teklia.com/HIMANIS/JJ196/words_annotations/FRAN_0200_10350.json/46/line", 
            "@type": "oa:Annotation", 
            "motivation": "oa:painting", 
            "on": "http://bvmm.irht.cnrs.fr/iiif/23802/canvas/canvas-2348236#xywh=4371,2598,53,31", 
            "resource": {
                "@type": "cnt:ContentAsText", 
                "chars": "ET", 
                "format": "text/plain"
            }
        }, 
        {
            "@id": "https://manifests.teklia.com/HIMANIS/JJ196/words_annotations/FRAN_0200_10350.json/47/line", 
            "@type": "oa:Annotation", 
            "motivation": "oa:painting", 
            "on": "http://bvmm.irht.cnrs.fr/iiif/23802/canvas/canvas-2348236#xywh=32,3542,35,26", 
            "resource": {
                "@type": "cnt:ContentAsText", 
                "chars": "DE", 
                "format": "text/plain"
            }
        }, 
        {
            "@id": "https://manifests.teklia.com/HIMANIS/JJ196/words_annotations/FRAN_0200_10350.json/48/line", 
            "@type": "oa:Annotation", 
            "motivation": "oa:painting", 
            "on": "http://bvmm.irht.cnrs.fr/iiif/23802/canvas/canvas-2348236#xywh=3233,481,121,160", 
            "resource": {
                "@type": "cnt:ContentAsText", 
                "chars": "DOUTES", 
                "format": "text/plain"
            }
        }, 
        {
            "@id": "https://manifests.teklia.com/HIMANIS/JJ196/words_annotations/FRAN_0200_10350.json/49/line", 
            "@type": "oa:Annotation", 
            "motivation": "oa:painting", 
            "on": "http://bvmm.irht.cnrs.fr/iiif/23802/canvas/canvas-2348236#xywh=4202,272,69,184", 
            "resource": {
                "@type": "cnt:ContentAsText", 
                "chars": "LIT", 
                "format": "text/plain"
            }
        }, 
        {
            "@id": "https://manifests.teklia.com/HIMANIS/JJ196/words_annotations/FRAN_0200_10350.json/50/line", 
            "@type": "oa:Annotation", 
            "motivation": "oa:painting", 
            "on": "http://bvmm.irht.cnrs.fr/iiif/23802/canvas/canvas-2348236#xywh=1744,272,116,184", 
            "resource": {
                "@type": "cnt:ContentAsText", 
                "chars": "LES", 
                "format": "text/plain"
            }
        }, 
        {
            "@id": "https://manifests.teklia.com/HIMANIS/JJ196/words_annotations/FRAN_0200_10350.json/51/line", 
            "@type": "oa:Annotation", 
            "motivation": "oa:painting", 
            "on": "http://bvmm.irht.cnrs.fr/iiif/23802/canvas/canvas-2348236#xywh=589,1189,259,31", 
            "resource": {
                "@type": "cnt:ContentAsText", 
                "chars": "PHILI", 
                "format": "text/plain"
            }
        }, 
        {
            "@id": "https://manifests.teklia.com/HIMANIS/JJ196/words_annotations/FRAN_0200_10350.json/52/line", 
            "@type": "oa:Annotation", 
            "motivation": "oa:painting", 
            "on": "http://bvmm.irht.cnrs.fr/iiif/23802/canvas/canvas-2348236#xywh=1744,272,116,184", 
            "resource": {
                "@type": "cnt:ContentAsText", 
                "chars": "LEZ", 
                "format": "text/plain"
            }
        }, 
        {
            "@id": "https://manifests.teklia.com/HIMANIS/JJ196/words_annotations/FRAN_0200_10350.json/53/line", 
            "@type": "oa:Annotation", 
            "motivation": "oa:painting", 
            "on": "http://bvmm.irht.cnrs.fr/iiif/23802/canvas/canvas-2348236#xywh=69,2439,628,35", 
            "resource": {
                "@type": "cnt:ContentAsText", 
                "chars": "DONNE", 
                "format": "text/plain"
            }
        }, 
        {
            "@id": "https://manifests.teklia.com/HIMANIS/JJ196/words_annotations/FRAN_0200_10350.json/54/line", 
            "@type": "oa:Annotation", 
            "motivation": "oa:painting", 
            "on": "http://bvmm.irht.cnrs.fr/iiif/23802/canvas/canvas-2348236#xywh=3475,481,211,160", 
            "resource": {
                "@type": "cnt:ContentAsText", 
                "chars": "ESTOIEUR", 
                "format": "text/plain"
            }
        }, 
        {
            "@id": "https://manifests.teklia.com/HIMANIS/JJ196/words_annotations/FRAN_0200_10350.json/55/line", 
            "@type": "oa:Annotation", 
            "motivation": "oa:painting", 
            "on": "http://bvmm.irht.cnrs.fr/iiif/23802/canvas/canvas-2348236#xywh=3413,396,108,171", 
            "resource": {
                "@type": "cnt:ContentAsText", 
                "chars": "JUS", 
                "format": "text/plain"
            }
        }, 
        {
            "@id": "https://manifests.teklia.com/HIMANIS/JJ196/words_annotations/FRAN_0200_10350.json/56/line", 
            "@type": "oa:Annotation", 
            "motivation": "oa:painting", 
            "on": "http://bvmm.irht.cnrs.fr/iiif/23802/canvas/canvas-2348236#xywh=2148,272,46,184", 
            "resource": {
                "@type": "cnt:ContentAsText", 
                "chars": "LA", 
                "format": "text/plain"
            }
        }, 
        {
            "@id": "https://manifests.teklia.com/HIMANIS/JJ196/words_annotations/FRAN_0200_10350.json/57/line", 
            "@type": "oa:Annotation", 
            "motivation": "oa:painting", 
            "on": "http://bvmm.irht.cnrs.fr/iiif/23802/canvas/canvas-2348236#xywh=2710,481,181,160", 
            "resource": {
                "@type": "cnt:ContentAsText", 
                "chars": "PRESENT", 
                "format": "text/plain"
            }
        }, 
        {
            "@id": "https://manifests.teklia.com/HIMANIS/JJ196/words_annotations/FRAN_0200_10350.json/58/line", 
            "@type": "oa:Annotation", 
            "motivation": "oa:painting", 
            "on": "http://bvmm.irht.cnrs.fr/iiif/23802/canvas/canvas-2348236#xywh=1623,481,0,160", 
            "resource": {
                "@type": "cnt:ContentAsText", 
                "chars": "A", 
                "format": "text/plain"
            }
        }, 
        {
            "@id": "https://manifests.teklia.com/HIMANIS/JJ196/words_annotations/FRAN_0200_10350.json/59/line", 
            "@type": "oa:Annotation", 
            "motivation": "oa:painting", 
            "on": "http://bvmm.irht.cnrs.fr/iiif/23802/canvas/canvas-2348236#xywh=1606,272,127,184", 
            "resource": {
                "@type": "cnt:ContentAsText", 
                "chars": "POUR", 
                "format": "text/plain"
            }
        }, 
        {
            "@id": "https://manifests.teklia.com/HIMANIS/JJ196/words_annotations/FRAN_0200_10350.json/60/line", 
            "@type": "oa:Annotation", 
            "motivation": "oa:painting", 
            "on": "http://bvmm.irht.cnrs.fr/iiif/23802/canvas/canvas-2348236#xywh=582,628,296,49", 
            "resource": {
                "@type": "cnt:ContentAsText", 
                "chars": "PHILIPPU", 
                "format": "text/plain"
            }
        }, 
        {
            "@id": "https://manifests.teklia.com/HIMANIS/JJ196/words_annotations/FRAN_0200_10350.json/61/line", 
            "@type": "oa:Annotation", 
            "motivation": "oa:painting", 
            "on": "http://bvmm.irht.cnrs.fr/iiif/23802/canvas/canvas-2348236#xywh=2499,481,80,160", 
            "resource": {
                "@type": "cnt:ContentAsText", 
                "chars": "DU", 
                "format": "text/plain"
            }
        }, 
        {
            "@id": "https://manifests.teklia.com/HIMANIS/JJ196/words_annotations/FRAN_0200_10350.json/62/line", 
            "@type": "oa:Annotation", 
            "motivation": "oa:painting", 
            "on": "http://bvmm.irht.cnrs.fr/iiif/23802/canvas/canvas-2348236#xywh=4100,586,81,144", 
            "resource": {
                "@type": "cnt:ContentAsText", 
                "chars": "CUIS", 
                "format": "text/plain"
            }
        }, 
        {
            "@id": "https://manifests.teklia.com/HIMANIS/JJ196/words_annotations/FRAN_0200_10350.json/63/line", 
            "@type": "oa:Annotation", 
            "motivation": "oa:painting", 
            "on": "http://bvmm.irht.cnrs.fr/iiif/23802/canvas/canvas-2348236#xywh=57,2656,132,52", 
            "resource": {
                "@type": "cnt:ContentAsText", 
                "chars": "LES", 
                "format": "text/plain"
            }
        }, 
        {
            "@id": "https://manifests.teklia.com/HIMANIS/JJ196/words_annotations/FRAN_0200_10350.json/64/line", 
            "@type": "oa:Annotation", 
            "motivation": "oa:painting", 
            "on": "http://bvmm.irht.cnrs.fr/iiif/23802/canvas/canvas-2348236#xywh=2683,396,161,171", 
            "resource": {
                "@type": "cnt:ContentAsText", 
                "chars": "LIEU", 
                "format": "text/plain"
            }
        }, 
        {
            "@id": "https://manifests.teklia.com/HIMANIS/JJ196/words_annotations/FRAN_0200_10350.json/65/line", 
            "@type": "oa:Annotation", 
            "motivation": "oa:painting", 
            "on": "http://bvmm.irht.cnrs.fr/iiif/23802/canvas/canvas-2348236#xywh=4230,396,247,171", 
            "resource": {
                "@type": "cnt:ContentAsText", 
                "chars": "QUI", 
                "format": "text/plain"
            }
        }, 
        {
            "@id": "https://manifests.teklia.com/HIMANIS/JJ196/words_annotations/FRAN_0200_10350.json/66/line", 
            "@type": "oa:Annotation", 
            "motivation": "oa:painting", 
            "on": "http://bvmm.irht.cnrs.fr/iiif/23802/canvas/canvas-2348236#xywh=2402,272,104,184", 
            "resource": {
                "@type": "cnt:ContentAsText", 
                "chars": "VOIR", 
                "format": "text/plain"
            }
        }, 
        {
            "@id": "https://manifests.teklia.com/HIMANIS/JJ196/words_annotations/FRAN_0200_10350.json/67/line", 
            "@type": "oa:Annotation", 
            "motivation": "oa:painting", 
            "on": "http://bvmm.irht.cnrs.fr/iiif/23802/canvas/canvas-2348236#xywh=2402,272,104,184", 
            "resource": {
                "@type": "cnt:ContentAsText", 
                "chars": "VOIT", 
                "format": "text/plain"
            }
        }, 
        {
            "@id": "https://manifests.teklia.com/HIMANIS/JJ196/words_annotations/FRAN_0200_10350.json/68/line", 
            "@type": "oa:Annotation", 
            "motivation": "oa:painting", 
            "on": "http://bvmm.irht.cnrs.fr/iiif/23802/canvas/canvas-2348236#xywh=3787,4102,395,138", 
            "resource": {
                "@type": "cnt:ContentAsText", 
                "chars": "IL", 
                "format": "text/plain"
            }
        }, 
        {
            "@id": "https://manifests.teklia.com/HIMANIS/JJ196/words_annotations/FRAN_0200_10350.json/69/line", 
            "@type": "oa:Annotation", 
            "motivation": "oa:painting", 
            "on": "http://bvmm.irht.cnrs.fr/iiif/23802/canvas/canvas-2348236#xywh=2579,481,121,160", 
            "resource": {
                "@type": "cnt:ContentAsText", 
                "chars": "CHEVALIER", 
                "format": "text/plain"
            }
        }, 
        {
            "@id": "https://manifests.teklia.com/HIMANIS/JJ196/words_annotations/FRAN_0200_10350.json/70/line", 
            "@type": "oa:Annotation", 
            "motivation": "oa:painting", 
            "on": "http://bvmm.irht.cnrs.fr/iiif/23802/canvas/canvas-2348236#xywh=58,2432,8,12", 
            "resource": {
                "@type": "cnt:ContentAsText", 
                "chars": "DE", 
                "format": "text/plain"
            }
        }, 
        {
            "@id": "https://manifests.teklia.com/HIMANIS/JJ196/words_annotations/FRAN_0200_10350.json/71/line", 
            "@type": "oa:Annotation", 
            "motivation": "oa:painting", 
            "on": "http://bvmm.irht.cnrs.fr/iiif/23802/canvas/canvas-2348236#xywh=3752,272,346,184", 
            "resource": {
                "@type": "cnt:ContentAsText", 
                "chars": "JURISPORCITUR", 
                "format": "text/plain"
            }
        }, 
        {
            "@id": "https://manifests.teklia.com/HIMANIS/JJ196/words_annotations/FRAN_0200_10350.json/72/line", 
            "@type": "oa:Annotation", 
            "motivation": "oa:painting", 
            "on": "http://bvmm.irht.cnrs.fr/iiif/23802/canvas/canvas-2348236#xywh=3752,272,346,184", 
            "resource": {
                "@type": "cnt:ContentAsText", 
                "chars": "PORCITUR", 
                "format": "text/plain"
            }
        }, 
        {
            "@id": "https://manifests.teklia.com/HIMANIS/JJ196/words_annotations/FRAN_0200_10350.json/73/line", 
            "@type": "oa:Annotation", 
            "motivation": "oa:painting", 
            "on": "http://bvmm.irht.cnrs.fr/iiif/23802/canvas/canvas-2348236#xywh=3972,396,183,171", 
            "resource": {
                "@type": "cnt:ContentAsText", 
                "chars": "TROUVER", 
                "format": "text/plain"
            }
        }, 
        {
            "@id": "https://manifests.teklia.com/HIMANIS/JJ196/words_annotations/FRAN_0200_10350.json/74/line", 
            "@type": "oa:Annotation", 
            "motivation": "oa:painting", 
            "on": "http://bvmm.irht.cnrs.fr/iiif/23802/canvas/canvas-2348236#xywh=2952,396,365,171", 
            "resource": {
                "@type": "cnt:ContentAsText", 
                "chars": "LEMBRE", 
                "format": "text/plain"
            }
        }, 
        {
            "@id": "https://manifests.teklia.com/HIMANIS/JJ196/words_annotations/FRAN_0200_10350.json/75/line", 
            "@type": "oa:Annotation", 
            "motivation": "oa:painting", 
            "on": "http://bvmm.irht.cnrs.fr/iiif/23802/canvas/canvas-2348236#xywh=65,2518,755,56", 
            "resource": {
                "@type": "cnt:ContentAsText", 
                "chars": "LE", 
                "format": "text/plain"
            }
        }, 
        {
            "@id": "https://manifests.teklia.com/HIMANIS/JJ196/words_annotations/FRAN_0200_10350.json/76/line", 
            "@type": "oa:Annotation", 
            "motivation": "oa:painting", 
            "on": "http://bvmm.irht.cnrs.fr/iiif/23802/canvas/canvas-2348236#xywh=2252,272,115,184", 
            "resource": {
                "@type": "cnt:ContentAsText", 
                "chars": "ESTRE", 
                "format": "text/plain"
            }
        }, 
        {
            "@id": "https://manifests.teklia.com/HIMANIS/JJ196/words_annotations/FRAN_0200_10350.json/77/line", 
            "@type": "oa:Annotation", 
            "motivation": "oa:painting", 
            "on": "http://bvmm.irht.cnrs.fr/iiif/23802/canvas/canvas-2348236#xywh=1803,595,231,132", 
            "resource": {
                "@type": "cnt:ContentAsText", 
                "chars": "ET", 
                "format": "text/plain"
            }
        }, 
        {
            "@id": "https://manifests.teklia.com/HIMANIS/JJ196/words_annotations/FRAN_0200_10350.json/78/line", 
            "@type": "oa:Annotation", 
            "motivation": "oa:painting", 
            "on": "http://bvmm.irht.cnrs.fr/iiif/23802/canvas/canvas-2348236#xywh=59,2568,761,40", 
            "resource": {
                "@type": "cnt:ContentAsText", 
                "chars": "DENIER", 
                "format": "text/plain"
            }
        }, 
        {
            "@id": "https://manifests.teklia.com/HIMANIS/JJ196/words_annotations/FRAN_0200_10350.json/79/line", 
            "@type": "oa:Annotation", 
            "motivation": "oa:painting", 
            "on": "http://bvmm.irht.cnrs.fr/iiif/23802/canvas/canvas-2348236#xywh=3413,396,226,171", 
            "resource": {
                "@type": "cnt:ContentAsText", 
                "chars": "LES", 
                "format": "text/plain"
            }
        }, 
        {
            "@id": "https://manifests.teklia.com/HIMANIS/JJ196/words_annotations/FRAN_0200_10350.json/80/line", 
            "@type": "oa:Annotation", 
            "motivation": "oa:painting", 
            "on": "http://bvmm.irht.cnrs.fr/iiif/23802/canvas/canvas-2348236#xywh=299,2861,515,40", 
            "resource": {
                "@type": "cnt:ContentAsText", 
                "chars": "JEHAN", 
                "format": "text/plain"
            }
        }, 
        {
            "@id": "https://manifests.teklia.com/HIMANIS/JJ196/words_annotations/FRAN_0200_10350.json/81/line", 
            "@type": "oa:Annotation", 
            "motivation": "oa:painting", 
            "on": "http://bvmm.irht.cnrs.fr/iiif/23802/canvas/canvas-2348236#xywh=1480,396,96,171", 
            "resource": {
                "@type": "cnt:ContentAsText", 
                "chars": "LEZ", 
                "format": "text/plain"
            }
        }, 
        {
            "@id": "https://manifests.teklia.com/HIMANIS/JJ196/words_annotations/FRAN_0200_10350.json/82/line", 
            "@type": "oa:Annotation", 
            "motivation": "oa:painting", 
            "on": "http://bvmm.irht.cnrs.fr/iiif/23802/canvas/canvas-2348236#xywh=4132,272,127,184", 
            "resource": {
                "@type": "cnt:ContentAsText", 
                "chars": "MULIT", 
                "format": "text/plain"
            }
        }, 
        {
            "@id": "https://manifests.teklia.com/HIMANIS/JJ196/words_annotations/FRAN_0200_10350.json/83/line", 
            "@type": "oa:Annotation", 
            "motivation": "oa:painting", 
            "on": "http://bvmm.irht.cnrs.fr/iiif/23802/canvas/canvas-2348236#xywh=1860,595,174,132", 
            "resource": {
                "@type": "cnt:ContentAsText", 
                "chars": "PRES", 
                "format": "text/plain"
            }
        }, 
        {
            "@id": "https://manifests.teklia.com/HIMANIS/JJ196/words_annotations/FRAN_0200_10350.json/84/line", 
            "@type": "oa:Annotation", 
            "motivation": "oa:painting", 
            "on": "http://bvmm.irht.cnrs.fr/iiif/23802/canvas/canvas-2348236#xywh=299,2861,512,40", 
            "resource": {
                "@type": "cnt:ContentAsText", 
                "chars": "PHEL", 
                "format": "text/plain"
            }
        }, 
        {
            "@id": "https://manifests.teklia.com/HIMANIS/JJ196/words_annotations/FRAN_0200_10350.json/85/line", 
            "@type": "oa:Annotation", 
            "motivation": "oa:painting", 
            "on": "http://bvmm.irht.cnrs.fr/iiif/23802/canvas/canvas-2348236#xywh=4163,121,214,86", 
            "resource": {
                "@type": "cnt:ContentAsText", 
                "chars": "ET", 
                "format": "text/plain"
            }
        }, 
        {
            "@id": "https://manifests.teklia.com/HIMANIS/JJ196/words_annotations/FRAN_0200_10350.json/86/line", 
            "@type": "oa:Annotation", 
            "motivation": "oa:painting", 
            "on": "http://bvmm.irht.cnrs.fr/iiif/23802/canvas/canvas-2348236#xywh=2402,272,104,184", 
            "resource": {
                "@type": "cnt:ContentAsText", 
                "chars": "VERET", 
                "format": "text/plain"
            }
        }, 
        {
            "@id": "https://manifests.teklia.com/HIMANIS/JJ196/words_annotations/FRAN_0200_10350.json/87/line", 
            "@type": "oa:Annotation", 
            "motivation": "oa:painting", 
            "on": "http://bvmm.irht.cnrs.fr/iiif/23802/canvas/canvas-2348236#xywh=2393,396,150,171", 
            "resource": {
                "@type": "cnt:ContentAsText", 
                "chars": "REVEUR", 
                "format": "text/plain"
            }
        }, 
        {
            "@id": "https://manifests.teklia.com/HIMANIS/JJ196/words_annotations/FRAN_0200_10350.json/88/line", 
            "@type": "oa:Annotation", 
            "motivation": "oa:painting", 
            "on": "http://bvmm.irht.cnrs.fr/iiif/23802/canvas/canvas-2348236#xywh=3413,396,86,171", 
            "resource": {
                "@type": "cnt:ContentAsText", 
                "chars": "IL", 
                "format": "text/plain"
            }
        }, 
        {
            "@id": "https://manifests.teklia.com/HIMANIS/JJ196/words_annotations/FRAN_0200_10350.json/89/line", 
            "@type": "oa:Annotation", 
            "motivation": "oa:painting", 
            "on": "http://bvmm.irht.cnrs.fr/iiif/23802/canvas/canvas-2348236#xywh=3413,396,43,171", 
            "resource": {
                "@type": "cnt:ContentAsText", 
                "chars": "ES", 
                "format": "text/plain"
            }
        }, 
        {
            "@id": "https://manifests.teklia.com/HIMANIS/JJ196/words_annotations/FRAN_0200_10350.json/90/line", 
            "@type": "oa:Annotation", 
            "motivation": "oa:painting", 
            "on": "http://bvmm.irht.cnrs.fr/iiif/23802/canvas/canvas-2348236#xywh=4187,396,43,171", 
            "resource": {
                "@type": "cnt:ContentAsText", 
                "chars": "EX", 
                "format": "text/plain"
            }
        }, 
        {
            "@id": "https://manifests.teklia.com/HIMANIS/JJ196/words_annotations/FRAN_0200_10350.json/91/line", 
            "@type": "oa:Annotation", 
            "motivation": "oa:painting", 
            "on": "http://bvmm.irht.cnrs.fr/iiif/23802/canvas/canvas-2348236#xywh=4088,481,403,160", 
            "resource": {
                "@type": "cnt:ContentAsText", 
                "chars": "EULX", 
                "format": "text/plain"
            }
        }, 
        {
            "@id": "https://manifests.teklia.com/HIMANIS/JJ196/words_annotations/FRAN_0200_10350.json/92/line", 
            "@type": "oa:Annotation", 
            "motivation": "oa:painting", 
            "on": "http://bvmm.irht.cnrs.fr/iiif/23802/canvas/canvas-2348236#xywh=3152,272,207,184", 
            "resource": {
                "@type": "cnt:ContentAsText", 
                "chars": "JUSQUES", 
                "format": "text/plain"
            }
        }, 
        {
            "@id": "https://manifests.teklia.com/HIMANIS/JJ196/words_annotations/FRAN_0200_10350.json/93/line", 
            "@type": "oa:Annotation", 
            "motivation": "oa:painting", 
            "on": "http://bvmm.irht.cnrs.fr/iiif/23802/canvas/canvas-2348236#xywh=3475,481,211,160", 
            "resource": {
                "@type": "cnt:ContentAsText", 
                "chars": "ESTOIENT", 
                "format": "text/plain"
            }
        }, 
        {
            "@id": "https://manifests.teklia.com/HIMANIS/JJ196/words_annotations/FRAN_0200_10350.json/94/line", 
            "@type": "oa:Annotation", 
            "motivation": "oa:painting", 
            "on": "http://bvmm.irht.cnrs.fr/iiif/23802/canvas/canvas-2348236#xywh=4100,586,235,144", 
            "resource": {
                "@type": "cnt:ContentAsText", 
                "chars": "CUISISSOMME", 
                "format": "text/plain"
            }
        }, 
        {
            "@id": "https://manifests.teklia.com/HIMANIS/JJ196/words_annotations/FRAN_0200_10350.json/95/line", 
            "@type": "oa:Annotation", 
            "motivation": "oa:painting", 
            "on": "http://bvmm.irht.cnrs.fr/iiif/23802/canvas/canvas-2348236#xywh=4008,481,50,160", 
            "resource": {
                "@type": "cnt:ContentAsText", 
                "chars": "EN", 
                "format": "text/plain"
            }
        }, 
        {
            "@id": "https://manifests.teklia.com/HIMANIS/JJ196/words_annotations/FRAN_0200_10350.json/96/line", 
            "@type": "oa:Annotation", 
            "motivation": "oa:painting", 
            "on": "http://bvmm.irht.cnrs.fr/iiif/23802/canvas/canvas-2348236#xywh=4132,272,335,184", 
            "resource": {
                "@type": "cnt:ContentAsText", 
                "chars": "MULIER", 
                "format": "text/plain"
            }
        }, 
        {
            "@id": "https://manifests.teklia.com/HIMANIS/JJ196/words_annotations/FRAN_0200_10350.json/97/line", 
            "@type": "oa:Annotation", 
            "motivation": "oa:painting", 
            "on": "http://bvmm.irht.cnrs.fr/iiif/23802/canvas/canvas-2348236#xywh=1553,481,141,160", 
            "resource": {
                "@type": "cnt:ContentAsText", 
                "chars": "AR", 
                "format": "text/plain"
            }
        }, 
        {
            "@id": "https://manifests.teklia.com/HIMANIS/JJ196/words_annotations/FRAN_0200_10350.json/98/line", 
            "@type": "oa:Annotation", 
            "motivation": "oa:painting", 
            "on": "http://bvmm.irht.cnrs.fr/iiif/23802/canvas/canvas-2348236#xywh=3897,481,61,160", 
            "resource": {
                "@type": "cnt:ContentAsText", 
                "chars": "ET", 
                "format": "text/plain"
            }
        }, 
        {
            "@id": "https://manifests.teklia.com/HIMANIS/JJ196/words_annotations/FRAN_0200_10350.json/99/line", 
            "@type": "oa:Annotation", 
            "motivation": "oa:painting", 
            "on": "http://bvmm.irht.cnrs.fr/iiif/23802/canvas/canvas-2348236#xywh=3071,272,58,184", 
            "resource": {
                "@type": "cnt:ContentAsText", 
                "chars": "ET", 
                "format": "text/plain"
            }
        }, 
        {
            "@id": "https://manifests.teklia.com/HIMANIS/JJ196/words_annotations/FRAN_0200_10350.json/100/line", 
            "@type": "oa:Annotation", 
            "motivation": "oa:painting", 
            "on": "http://bvmm.irht.cnrs.fr/iiif/23802/canvas/canvas-2348236#xywh=4132,272,24,184", 
            "resource": {
                "@type": "cnt:ContentAsText", 
                "chars": "AU", 
                "format": "text/plain"
            }
        }, 
        {
            "@id": "https://manifests.teklia.com/HIMANIS/JJ196/words_annotations/FRAN_0200_10350.json/101/line", 
            "@type": "oa:Annotation", 
            "motivation": "oa:painting", 
            "on": "http://bvmm.irht.cnrs.fr/iiif/23802/canvas/canvas-2348236#xywh=24,3274,35,24", 
            "resource": {
                "@type": "cnt:ContentAsText", 
                "chars": "DE", 
                "format": "text/plain"
            }
        }, 
        {
            "@id": "https://manifests.teklia.com/HIMANIS/JJ196/words_annotations/FRAN_0200_10350.json/102/line", 
            "@type": "oa:Annotation", 
            "motivation": "oa:painting", 
            "on": "http://bvmm.irht.cnrs.fr/iiif/23802/canvas/canvas-2348236#xywh=3544,272,104,184", 
            "resource": {
                "@type": "cnt:ContentAsText", 
                "chars": "MORT", 
                "format": "text/plain"
            }
        }, 
        {
            "@id": "https://manifests.teklia.com/HIMANIS/JJ196/words_annotations/FRAN_0200_10350.json/103/line", 
            "@type": "oa:Annotation", 
            "motivation": "oa:painting", 
            "on": "http://bvmm.irht.cnrs.fr/iiif/23802/canvas/canvas-2348236#xywh=2952,396,365,171", 
            "resource": {
                "@type": "cnt:ContentAsText", 
                "chars": "LOMBRE", 
                "format": "text/plain"
            }
        }, 
        {
            "@id": "https://manifests.teklia.com/HIMANIS/JJ196/words_annotations/FRAN_0200_10350.json/104/line", 
            "@type": "oa:Annotation", 
            "motivation": "oa:painting", 
            "on": "http://bvmm.irht.cnrs.fr/iiif/23802/canvas/canvas-2348236#xywh=3233,481,161,160", 
            "resource": {
                "@type": "cnt:ContentAsText", 
                "chars": "DOUERRES", 
                "format": "text/plain"
            }
        }, 
        {
            "@id": "https://manifests.teklia.com/HIMANIS/JJ196/words_annotations/FRAN_0200_10350.json/105/line", 
            "@type": "oa:Annotation", 
            "motivation": "oa:painting", 
            "on": "http://bvmm.irht.cnrs.fr/iiif/23802/canvas/canvas-2348236#xywh=2393,396,172,171", 
            "resource": {
                "@type": "cnt:ContentAsText", 
                "chars": "JOURS", 
                "format": "text/plain"
            }
        }, 
        {
            "@id": "https://manifests.teklia.com/HIMANIS/JJ196/words_annotations/FRAN_0200_10350.json/106/line", 
            "@type": "oa:Annotation", 
            "motivation": "oa:painting", 
            "on": "http://bvmm.irht.cnrs.fr/iiif/23802/canvas/canvas-2348236#xywh=3811,586,262,144", 
            "resource": {
                "@type": "cnt:ContentAsText", 
                "chars": "ORROSITI", 
                "format": "text/plain"
            }
        }, 
        {
            "@id": "https://manifests.teklia.com/HIMANIS/JJ196/words_annotations/FRAN_0200_10350.json/107/line", 
            "@type": "oa:Annotation", 
            "motivation": "oa:painting", 
            "on": "http://bvmm.irht.cnrs.fr/iiif/23802/canvas/canvas-2348236#xywh=2579,481,191,160", 
            "resource": {
                "@type": "cnt:ContentAsText", 
                "chars": "CHEVALIERE", 
                "format": "text/plain"
            }
        }, 
        {
            "@id": "https://manifests.teklia.com/HIMANIS/JJ196/words_annotations/FRAN_0200_10350.json/108/line", 
            "@type": "oa:Annotation", 
            "motivation": "oa:painting", 
            "on": "http://bvmm.irht.cnrs.fr/iiif/23802/canvas/canvas-2348236#xywh=2579,481,131,160", 
            "resource": {
                "@type": "cnt:ContentAsText", 
                "chars": "CHEVALIERS", 
                "format": "text/plain"
            }
        }, 
        {
            "@id": "https://manifests.teklia.com/HIMANIS/JJ196/words_annotations/FRAN_0200_10350.json/109/line", 
            "@type": "oa:Annotation", 
            "motivation": "oa:painting", 
            "on": "http://bvmm.irht.cnrs.fr/iiif/23802/canvas/canvas-2348236#xywh=1804,481,362,160", 
            "resource": {
                "@type": "cnt:ContentAsText", 
                "chars": "TERRE", 
                "format": "text/plain"
            }
        }, 
        {
            "@id": "https://manifests.teklia.com/HIMANIS/JJ196/words_annotations/FRAN_0200_10350.json/110/line", 
            "@type": "oa:Annotation", 
            "motivation": "oa:painting", 
            "on": "http://bvmm.irht.cnrs.fr/iiif/23802/canvas/canvas-2348236#xywh=2579,481,171,160", 
            "resource": {
                "@type": "cnt:ContentAsText", 
                "chars": "CHEVALIENS", 
                "format": "text/plain"
            }
        }, 
        {
            "@id": "https://manifests.teklia.com/HIMANIS/JJ196/words_annotations/FRAN_0200_10350.json/111/line", 
            "@type": "oa:Annotation", 
            "motivation": "oa:painting", 
            "on": "http://bvmm.irht.cnrs.fr/iiif/23802/canvas/canvas-2348236#xywh=2579,481,171,160", 
            "resource": {
                "@type": "cnt:ContentAsText", 
                "chars": "CHEVALIENT", 
                "format": "text/plain"
            }
        }, 
        {
            "@id": "https://manifests.teklia.com/HIMANIS/JJ196/words_annotations/FRAN_0200_10350.json/112/line", 
            "@type": "oa:Annotation", 
            "motivation": "oa:painting", 
            "on": "http://bvmm.irht.cnrs.fr/iiif/23802/canvas/canvas-2348236#xywh=1472,481,121,160", 
            "resource": {
                "@type": "cnt:ContentAsText", 
                "chars": "QU'IL", 
                "format": "text/plain"
            }
        }, 
        {
            "@id": "https://manifests.teklia.com/HIMANIS/JJ196/words_annotations/FRAN_0200_10350.json/113/line", 
            "@type": "oa:Annotation", 
            "motivation": "oa:painting", 
            "on": "http://bvmm.irht.cnrs.fr/iiif/23802/canvas/canvas-2348236#xywh=1472,481,81,160", 
            "resource": {
                "@type": "cnt:ContentAsText", 
                "chars": "QUI", 
                "format": "text/plain"
            }
        }, 
        {
            "@id": "https://manifests.teklia.com/HIMANIS/JJ196/words_annotations/FRAN_0200_10350.json/114/line", 
            "@type": "oa:Annotation", 
            "motivation": "oa:painting", 
            "on": "http://bvmm.irht.cnrs.fr/iiif/23802/canvas/canvas-2348236#xywh=59,2568,761,40", 
            "resource": {
                "@type": "cnt:ContentAsText", 
                "chars": "DONNES", 
                "format": "text/plain"
            }
        }, 
        {
            "@id": "https://manifests.teklia.com/HIMANIS/JJ196/words_annotations/FRAN_0200_10350.json/115/line", 
            "@type": "oa:Annotation", 
            "motivation": "oa:painting", 
            "on": "http://bvmm.irht.cnrs.fr/iiif/23802/canvas/canvas-2348236#xywh=1804,481,695,160", 
            "resource": {
                "@type": "cnt:ContentAsText", 
                "chars": "TALITEUR", 
                "format": "text/plain"
            }
        }, 
        {
            "@id": "https://manifests.teklia.com/HIMANIS/JJ196/words_annotations/FRAN_0200_10350.json/116/line", 
            "@type": "oa:Annotation", 
            "motivation": "oa:painting", 
            "on": "http://bvmm.irht.cnrs.fr/iiif/23802/canvas/canvas-2348236#xywh=163,79,0,113", 
            "resource": {
                "@type": "cnt:ContentAsText", 
                "chars": "J", 
                "format": "text/plain"
            }
        }, 
        {
            "@id": "https://manifests.teklia.com/HIMANIS/JJ196/words_annotations/FRAN_0200_10350.json/117/line", 
            "@type": "oa:Annotation", 
            "motivation": "oa:painting", 
            "on": "http://bvmm.irht.cnrs.fr/iiif/23802/canvas/canvas-2348236#xywh=3787,4102,403,138", 
            "resource": {
                "@type": "cnt:ContentAsText", 
                "chars": "SIN", 
                "format": "text/plain"
            }
        }, 
        {
            "@id": "https://manifests.teklia.com/HIMANIS/JJ196/words_annotations/FRAN_0200_10350.json/118/line", 
            "@type": "oa:Annotation", 
            "motivation": "oa:painting", 
            "on": "http://bvmm.irht.cnrs.fr/iiif/23802/canvas/canvas-2348236#xywh=163,79,0,113", 
            "resource": {
                "@type": "cnt:ContentAsText", 
                "chars": "P", 
                "format": "text/plain"
            }
        }, 
        {
            "@id": "https://manifests.teklia.com/HIMANIS/JJ196/words_annotations/FRAN_0200_10350.json/119/line", 
            "@type": "oa:Annotation", 
            "motivation": "oa:painting", 
            "on": "http://bvmm.irht.cnrs.fr/iiif/23802/canvas/canvas-2348236#xywh=1479,272,231,184", 
            "resource": {
                "@type": "cnt:ContentAsText", 
                "chars": "POVOIR", 
                "format": "text/plain"
            }
        }, 
        {
            "@id": "https://manifests.teklia.com/HIMANIS/JJ196/words_annotations/FRAN_0200_10350.json/120/line", 
            "@type": "oa:Annotation", 
            "motivation": "oa:painting", 
            "on": "http://bvmm.irht.cnrs.fr/iiif/23802/canvas/canvas-2348236#xywh=59,2568,447,40", 
            "resource": {
                "@type": "cnt:ContentAsText", 
                "chars": "DONNO", 
                "format": "text/plain"
            }
        }, 
        {
            "@id": "https://manifests.teklia.com/HIMANIS/JJ196/words_annotations/FRAN_0200_10350.json/121/line", 
            "@type": "oa:Annotation", 
            "motivation": "oa:painting", 
            "on": "http://bvmm.irht.cnrs.fr/iiif/23802/canvas/canvas-2348236#xywh=1479,272,231,184", 
            "resource": {
                "@type": "cnt:ContentAsText", 
                "chars": "AVOIR", 
                "format": "text/plain"
            }
        }, 
        {
            "@id": "https://manifests.teklia.com/HIMANIS/JJ196/words_annotations/FRAN_0200_10350.json/122/line", 
            "@type": "oa:Annotation", 
            "motivation": "oa:painting", 
            "on": "http://bvmm.irht.cnrs.fr/iiif/23802/canvas/canvas-2348236#xywh=1553,481,231,160", 
            "resource": {
                "@type": "cnt:ContentAsText", 
                "chars": "LES", 
                "format": "text/plain"
            }
        }, 
        {
            "@id": "https://manifests.teklia.com/HIMANIS/JJ196/words_annotations/FRAN_0200_10350.json/123/line", 
            "@type": "oa:Annotation", 
            "motivation": "oa:painting", 
            "on": "http://bvmm.irht.cnrs.fr/iiif/23802/canvas/canvas-2348236#xywh=1883,272,231,184", 
            "resource": {
                "@type": "cnt:ContentAsText", 
                "chars": "CUREUR", 
                "format": "text/plain"
            }
        }, 
        {
            "@id": "https://manifests.teklia.com/HIMANIS/JJ196/words_annotations/FRAN_0200_10350.json/124/line", 
            "@type": "oa:Annotation", 
            "motivation": "oa:painting", 
            "on": "http://bvmm.irht.cnrs.fr/iiif/23802/canvas/canvas-2348236#xywh=2402,272,104,184", 
            "resource": {
                "@type": "cnt:ContentAsText", 
                "chars": "VENT", 
                "format": "text/plain"
            }
        }, 
        {
            "@id": "https://manifests.teklia.com/HIMANIS/JJ196/words_annotations/FRAN_0200_10350.json/125/line", 
            "@type": "oa:Annotation", 
            "motivation": "oa:painting", 
            "on": "http://bvmm.irht.cnrs.fr/iiif/23802/canvas/canvas-2348236#xywh=2930,396,22,171", 
            "resource": {
                "@type": "cnt:ContentAsText", 
                "chars": "DES", 
                "format": "text/plain"
            }
        }, 
        {
            "@id": "https://manifests.teklia.com/HIMANIS/JJ196/words_annotations/FRAN_0200_10350.json/126/line", 
            "@type": "oa:Annotation", 
            "motivation": "oa:painting", 
            "on": "http://bvmm.irht.cnrs.fr/iiif/23802/canvas/canvas-2348236#xywh=3413,396,538,171", 
            "resource": {
                "@type": "cnt:ContentAsText", 
                "chars": "PEUSSIEUR", 
                "format": "text/plain"
            }
        }, 
        {
            "@id": "https://manifests.teklia.com/HIMANIS/JJ196/words_annotations/FRAN_0200_10350.json/127/line", 
            "@type": "oa:Annotation", 
            "motivation": "oa:painting", 
            "on": "http://bvmm.irht.cnrs.fr/iiif/23802/canvas/canvas-2348236#xywh=58,2388,552,44", 
            "resource": {
                "@type": "cnt:ContentAsText", 
                "chars": "NOUS", 
                "format": "text/plain"
            }
        }, 
        {
            "@id": "https://manifests.teklia.com/HIMANIS/JJ196/words_annotations/FRAN_0200_10350.json/128/line", 
            "@type": "oa:Annotation", 
            "motivation": "oa:painting", 
            "on": "http://bvmm.irht.cnrs.fr/iiif/23802/canvas/canvas-2348236#xywh=3544,272,115,184", 
            "resource": {
                "@type": "cnt:ContentAsText", 
                "chars": "MAINE", 
                "format": "text/plain"
            }
        }, 
        {
            "@id": "https://manifests.teklia.com/HIMANIS/JJ196/words_annotations/FRAN_0200_10350.json/129/line", 
            "@type": "oa:Annotation", 
            "motivation": "oa:painting", 
            "on": "http://bvmm.irht.cnrs.fr/iiif/23802/canvas/canvas-2348236#xywh=3811,586,126,144", 
            "resource": {
                "@type": "cnt:ContentAsText", 
                "chars": "ARRE", 
                "format": "text/plain"
            }
        }
    ]
}