{
    "@context": "http://iiif.io/api/presentation/2/context.json", 
    "@id": "https://manifests.teklia.com/HIMANIS/JJ196/words_annotations/FRAN_0200_10622.json", 
    "@type": "sc:AnnotationList", 
    "resources": [
        {
            "@id": "https://manifests.teklia.com/HIMANIS/JJ196/words_annotations/FRAN_0200_10622.json/0/line", 
            "@type": "oa:Annotation", 
            "motivation": "oa:painting", 
            "on": "http://bvmm.irht.cnrs.fr/iiif/23802/canvas/canvas-2348508#xywh=3721,582,168,83", 
            "resource": {
                "@type": "cnt:ContentAsText", 
                "chars": "LOON", 
                "format": "text/plain"
            }
        }, 
        {
            "@id": "https://manifests.teklia.com/HIMANIS/JJ196/words_annotations/FRAN_0200_10622.json/1/line", 
            "@type": "oa:Annotation", 
            "motivation": "oa:painting", 
            "on": "http://bvmm.irht.cnrs.fr/iiif/23802/canvas/canvas-2348508#xywh=2178,457,55,175", 
            "resource": {
                "@type": "cnt:ContentAsText", 
                "chars": "VEL", 
                "format": "text/plain"
            }
        }, 
        {
            "@id": "https://manifests.teklia.com/HIMANIS/JJ196/words_annotations/FRAN_0200_10622.json/2/line", 
            "@type": "oa:Annotation", 
            "motivation": "oa:painting", 
            "on": "http://bvmm.irht.cnrs.fr/iiif/23802/canvas/canvas-2348508#xywh=3518,457,362,175", 
            "resource": {
                "@type": "cnt:ContentAsText", 
                "chars": "OCTOBLES", 
                "format": "text/plain"
            }
        }, 
        {
            "@id": "https://manifests.teklia.com/HIMANIS/JJ196/words_annotations/FRAN_0200_10622.json/3/line", 
            "@type": "oa:Annotation", 
            "motivation": "oa:painting", 
            "on": "http://bvmm.irht.cnrs.fr/iiif/23802/canvas/canvas-2348508#xywh=4267,651,41,71", 
            "resource": {
                "@type": "cnt:ContentAsText", 
                "chars": "PER", 
                "format": "text/plain"
            }
        }, 
        {
            "@id": "https://manifests.teklia.com/HIMANIS/JJ196/words_annotations/FRAN_0200_10622.json/4/line", 
            "@type": "oa:Annotation", 
            "motivation": "oa:painting", 
            "on": "http://bvmm.irht.cnrs.fr/iiif/23802/canvas/canvas-2348508#xywh=1950,277,393,125", 
            "resource": {
                "@type": "cnt:ContentAsText", 
                "chars": "RICHARIS", 
                "format": "text/plain"
            }
        }, 
        {
            "@id": "https://manifests.teklia.com/HIMANIS/JJ196/words_annotations/FRAN_0200_10622.json/5/line", 
            "@type": "oa:Annotation", 
            "motivation": "oa:painting", 
            "on": "http://bvmm.irht.cnrs.fr/iiif/23802/canvas/canvas-2348508#xywh=3252,651,76,71", 
            "resource": {
                "@type": "cnt:ContentAsText", 
                "chars": "PHILIPPES", 
                "format": "text/plain"
            }
        }, 
        {
            "@id": "https://manifests.teklia.com/HIMANIS/JJ196/words_annotations/FRAN_0200_10622.json/6/line", 
            "@type": "oa:Annotation", 
            "motivation": "oa:painting", 
            "on": "http://bvmm.irht.cnrs.fr/iiif/23802/canvas/canvas-2348508#xywh=1865,3126,263,51", 
            "resource": {
                "@type": "cnt:ContentAsText", 
                "chars": "DITES", 
                "format": "text/plain"
            }
        }, 
        {
            "@id": "https://manifests.teklia.com/HIMANIS/JJ196/words_annotations/FRAN_0200_10622.json/7/line", 
            "@type": "oa:Annotation", 
            "motivation": "oa:painting", 
            "on": "http://bvmm.irht.cnrs.fr/iiif/23802/canvas/canvas-2348508#xywh=1926,651,149,71", 
            "resource": {
                "@type": "cnt:ContentAsText", 
                "chars": "SA", 
                "format": "text/plain"
            }
        }, 
        {
            "@id": "https://manifests.teklia.com/HIMANIS/JJ196/words_annotations/FRAN_0200_10622.json/8/line", 
            "@type": "oa:Annotation", 
            "motivation": "oa:painting", 
            "on": "http://bvmm.irht.cnrs.fr/iiif/23802/canvas/canvas-2348508#xywh=2694,457,220,175", 
            "resource": {
                "@type": "cnt:ContentAsText", 
                "chars": "SE", 
                "format": "text/plain"
            }
        }, 
        {
            "@id": "https://manifests.teklia.com/HIMANIS/JJ196/words_annotations/FRAN_0200_10622.json/9/line", 
            "@type": "oa:Annotation", 
            "motivation": "oa:painting", 
            "on": "http://bvmm.irht.cnrs.fr/iiif/23802/canvas/canvas-2348508#xywh=2342,387,164,100", 
            "resource": {
                "@type": "cnt:ContentAsText", 
                "chars": "AMENT", 
                "format": "text/plain"
            }
        }, 
        {
            "@id": "https://manifests.teklia.com/HIMANIS/JJ196/words_annotations/FRAN_0200_10622.json/10/line", 
            "@type": "oa:Annotation", 
            "motivation": "oa:painting", 
            "on": "http://bvmm.irht.cnrs.fr/iiif/23802/canvas/canvas-2348508#xywh=121,2005,488,45", 
            "resource": {
                "@type": "cnt:ContentAsText", 
                "chars": "ET", 
                "format": "text/plain"
            }
        }, 
        {
            "@id": "https://manifests.teklia.com/HIMANIS/JJ196/words_annotations/FRAN_0200_10622.json/11/line", 
            "@type": "oa:Annotation", 
            "motivation": "oa:painting", 
            "on": "http://bvmm.irht.cnrs.fr/iiif/23802/canvas/canvas-2348508#xywh=2736,277,268,125", 
            "resource": {
                "@type": "cnt:ContentAsText", 
                "chars": "VIDIMUS", 
                "format": "text/plain"
            }
        }, 
        {
            "@id": "https://manifests.teklia.com/HIMANIS/JJ196/words_annotations/FRAN_0200_10622.json/12/line", 
            "@type": "oa:Annotation", 
            "motivation": "oa:painting", 
            "on": "http://bvmm.irht.cnrs.fr/iiif/23802/canvas/canvas-2348508#xywh=1950,277,401,125", 
            "resource": {
                "@type": "cnt:ContentAsText", 
                "chars": "RICHARIIS", 
                "format": "text/plain"
            }
        }, 
        {
            "@id": "https://manifests.teklia.com/HIMANIS/JJ196/words_annotations/FRAN_0200_10622.json/13/line", 
            "@type": "oa:Annotation", 
            "motivation": "oa:painting", 
            "on": "http://bvmm.irht.cnrs.fr/iiif/23802/canvas/canvas-2348508#xywh=2018,3273,0,48", 
            "resource": {
                "@type": "cnt:ContentAsText", 
                "chars": "E", 
                "format": "text/plain"
            }
        }, 
        {
            "@id": "https://manifests.teklia.com/HIMANIS/JJ196/words_annotations/FRAN_0200_10622.json/14/line", 
            "@type": "oa:Annotation", 
            "motivation": "oa:painting", 
            "on": "http://bvmm.irht.cnrs.fr/iiif/23802/canvas/canvas-2348508#xywh=4267,651,99,71", 
            "resource": {
                "@type": "cnt:ContentAsText", 
                "chars": "DILECTI", 
                "format": "text/plain"
            }
        }, 
        {
            "@id": "https://manifests.teklia.com/HIMANIS/JJ196/words_annotations/FRAN_0200_10622.json/15/line", 
            "@type": "oa:Annotation", 
            "motivation": "oa:painting", 
            "on": "http://bvmm.irht.cnrs.fr/iiif/23802/canvas/canvas-2348508#xywh=2018,3273,0,48", 
            "resource": {
                "@type": "cnt:ContentAsText", 
                "chars": "S", 
                "format": "text/plain"
            }
        }, 
        {
            "@id": "https://manifests.teklia.com/HIMANIS/JJ196/words_annotations/FRAN_0200_10622.json/16/line", 
            "@type": "oa:Annotation", 
            "motivation": "oa:painting", 
            "on": "http://bvmm.irht.cnrs.fr/iiif/23802/canvas/canvas-2348508#xywh=1785,2548,279,66", 
            "resource": {
                "@type": "cnt:ContentAsText", 
                "chars": "CCC", 
                "format": "text/plain"
            }
        }, 
        {
            "@id": "https://manifests.teklia.com/HIMANIS/JJ196/words_annotations/FRAN_0200_10622.json/17/line", 
            "@type": "oa:Annotation", 
            "motivation": "oa:painting", 
            "on": "http://bvmm.irht.cnrs.fr/iiif/23802/canvas/canvas-2348508#xywh=2853,387,95,100", 
            "resource": {
                "@type": "cnt:ContentAsText", 
                "chars": "SES", 
                "format": "text/plain"
            }
        }, 
        {
            "@id": "https://manifests.teklia.com/HIMANIS/JJ196/words_annotations/FRAN_0200_10622.json/18/line", 
            "@type": "oa:Annotation", 
            "motivation": "oa:painting", 
            "on": "http://bvmm.irht.cnrs.fr/iiif/23802/canvas/canvas-2348508#xywh=3880,457,329,175", 
            "resource": {
                "@type": "cnt:ContentAsText", 
                "chars": "GRACE", 
                "format": "text/plain"
            }
        }, 
        {
            "@id": "https://manifests.teklia.com/HIMANIS/JJ196/words_annotations/FRAN_0200_10622.json/19/line", 
            "@type": "oa:Annotation", 
            "motivation": "oa:painting", 
            "on": "http://bvmm.irht.cnrs.fr/iiif/23802/canvas/canvas-2348508#xywh=1882,457,263,175", 
            "resource": {
                "@type": "cnt:ContentAsText", 
                "chars": "RESSORS", 
                "format": "text/plain"
            }
        }, 
        {
            "@id": "https://manifests.teklia.com/HIMANIS/JJ196/words_annotations/FRAN_0200_10622.json/20/line", 
            "@type": "oa:Annotation", 
            "motivation": "oa:painting", 
            "on": "http://bvmm.irht.cnrs.fr/iiif/23802/canvas/canvas-2348508#xywh=1070,3763,142,48", 
            "resource": {
                "@type": "cnt:ContentAsText", 
                "chars": "JE", 
                "format": "text/plain"
            }
        }, 
        {
            "@id": "https://manifests.teklia.com/HIMANIS/JJ196/words_annotations/FRAN_0200_10622.json/21/line", 
            "@type": "oa:Annotation", 
            "motivation": "oa:painting", 
            "on": "http://bvmm.irht.cnrs.fr/iiif/23802/canvas/canvas-2348508#xywh=3987,277,228,125", 
            "resource": {
                "@type": "cnt:ContentAsText", 
                "chars": "COPTER", 
                "format": "text/plain"
            }
        }, 
        {
            "@id": "https://manifests.teklia.com/HIMANIS/JJ196/words_annotations/FRAN_0200_10622.json/22/line", 
            "@type": "oa:Annotation", 
            "motivation": "oa:painting", 
            "on": "http://bvmm.irht.cnrs.fr/iiif/23802/canvas/canvas-2348508#xywh=1070,3763,118,48", 
            "resource": {
                "@type": "cnt:ContentAsText", 
                "chars": "JO", 
                "format": "text/plain"
            }
        }, 
        {
            "@id": "https://manifests.teklia.com/HIMANIS/JJ196/words_annotations/FRAN_0200_10622.json/23/line", 
            "@type": "oa:Annotation", 
            "motivation": "oa:painting", 
            "on": "http://bvmm.irht.cnrs.fr/iiif/23802/canvas/canvas-2348508#xywh=4419,277,47,125", 
            "resource": {
                "@type": "cnt:ContentAsText", 
                "chars": "SU", 
                "format": "text/plain"
            }
        }, 
        {
            "@id": "https://manifests.teklia.com/HIMANIS/JJ196/words_annotations/FRAN_0200_10622.json/24/line", 
            "@type": "oa:Annotation", 
            "motivation": "oa:painting", 
            "on": "http://bvmm.irht.cnrs.fr/iiif/23802/canvas/canvas-2348508#xywh=1950,277,110,125", 
            "resource": {
                "@type": "cnt:ContentAsText", 
                "chars": "EST", 
                "format": "text/plain"
            }
        }, 
        {
            "@id": "https://manifests.teklia.com/HIMANIS/JJ196/words_annotations/FRAN_0200_10622.json/25/line", 
            "@type": "oa:Annotation", 
            "motivation": "oa:painting", 
            "on": "http://bvmm.irht.cnrs.fr/iiif/23802/canvas/canvas-2348508#xywh=2924,582,467,83", 
            "resource": {
                "@type": "cnt:ContentAsText", 
                "chars": "PAR", 
                "format": "text/plain"
            }
        }, 
        {
            "@id": "https://manifests.teklia.com/HIMANIS/JJ196/words_annotations/FRAN_0200_10622.json/26/line", 
            "@type": "oa:Annotation", 
            "motivation": "oa:painting", 
            "on": "http://bvmm.irht.cnrs.fr/iiif/23802/canvas/canvas-2348508#xywh=4154,457,637,175", 
            "resource": {
                "@type": "cnt:ContentAsText", 
                "chars": "MILLES", 
                "format": "text/plain"
            }
        }, 
        {
            "@id": "https://manifests.teklia.com/HIMANIS/JJ196/words_annotations/FRAN_0200_10622.json/27/line", 
            "@type": "oa:Annotation", 
            "motivation": "oa:painting", 
            "on": "http://bvmm.irht.cnrs.fr/iiif/23802/canvas/canvas-2348508#xywh=4010,582,52,83", 
            "resource": {
                "@type": "cnt:ContentAsText", 
                "chars": "DIT", 
                "format": "text/plain"
            }
        }, 
        {
            "@id": "https://manifests.teklia.com/HIMANIS/JJ196/words_annotations/FRAN_0200_10622.json/28/line", 
            "@type": "oa:Annotation", 
            "motivation": "oa:painting", 
            "on": "http://bvmm.irht.cnrs.fr/iiif/23802/canvas/canvas-2348508#xywh=2404,3943,332,50", 
            "resource": {
                "@type": "cnt:ContentAsText", 
                "chars": "CONTRE", 
                "format": "text/plain"
            }
        }, 
        {
            "@id": "https://manifests.teklia.com/HIMANIS/JJ196/words_annotations/FRAN_0200_10622.json/29/line", 
            "@type": "oa:Annotation", 
            "motivation": "oa:painting", 
            "on": "http://bvmm.irht.cnrs.fr/iiif/23802/canvas/canvas-2348508#xywh=2973,387,13,100", 
            "resource": {
                "@type": "cnt:ContentAsText", 
                "chars": "ON", 
                "format": "text/plain"
            }
        }, 
        {
            "@id": "https://manifests.teklia.com/HIMANIS/JJ196/words_annotations/FRAN_0200_10622.json/30/line", 
            "@type": "oa:Annotation", 
            "motivation": "oa:painting", 
            "on": "http://bvmm.irht.cnrs.fr/iiif/23802/canvas/canvas-2348508#xywh=2178,457,99,175", 
            "resource": {
                "@type": "cnt:ContentAsText", 
                "chars": "ICELLE", 
                "format": "text/plain"
            }
        }, 
        {
            "@id": "https://manifests.teklia.com/HIMANIS/JJ196/words_annotations/FRAN_0200_10622.json/31/line", 
            "@type": "oa:Annotation", 
            "motivation": "oa:painting", 
            "on": "http://bvmm.irht.cnrs.fr/iiif/23802/canvas/canvas-2348508#xywh=3320,387,114,100", 
            "resource": {
                "@type": "cnt:ContentAsText", 
                "chars": "OU", 
                "format": "text/plain"
            }
        }, 
        {
            "@id": "https://manifests.teklia.com/HIMANIS/JJ196/words_annotations/FRAN_0200_10622.json/32/line", 
            "@type": "oa:Annotation", 
            "motivation": "oa:painting", 
            "on": "http://bvmm.irht.cnrs.fr/iiif/23802/canvas/canvas-2348508#xywh=180,3990,548,257", 
            "resource": {
                "@type": "cnt:ContentAsText", 
                "chars": "LE", 
                "format": "text/plain"
            }
        }, 
        {
            "@id": "https://manifests.teklia.com/HIMANIS/JJ196/words_annotations/FRAN_0200_10622.json/33/line", 
            "@type": "oa:Annotation", 
            "motivation": "oa:painting", 
            "on": "http://bvmm.irht.cnrs.fr/iiif/23802/canvas/canvas-2348508#xywh=2541,457,55,175", 
            "resource": {
                "@type": "cnt:ContentAsText", 
                "chars": "AUTRE", 
                "format": "text/plain"
            }
        }, 
        {
            "@id": "https://manifests.teklia.com/HIMANIS/JJ196/words_annotations/FRAN_0200_10622.json/34/line", 
            "@type": "oa:Annotation", 
            "motivation": "oa:painting", 
            "on": "http://bvmm.irht.cnrs.fr/iiif/23802/canvas/canvas-2348508#xywh=2694,457,220,175", 
            "resource": {
                "@type": "cnt:ContentAsText", 
                "chars": "DENIE", 
                "format": "text/plain"
            }
        }, 
        {
            "@id": "https://manifests.teklia.com/HIMANIS/JJ196/words_annotations/FRAN_0200_10622.json/35/line", 
            "@type": "oa:Annotation", 
            "motivation": "oa:painting", 
            "on": "http://bvmm.irht.cnrs.fr/iiif/23802/canvas/canvas-2348508#xywh=180,3990,1451,257", 
            "resource": {
                "@type": "cnt:ContentAsText", 
                "chars": "LO", 
                "format": "text/plain"
            }
        }, 
        {
            "@id": "https://manifests.teklia.com/HIMANIS/JJ196/words_annotations/FRAN_0200_10622.json/36/line", 
            "@type": "oa:Annotation", 
            "motivation": "oa:painting", 
            "on": "http://bvmm.irht.cnrs.fr/iiif/23802/canvas/canvas-2348508#xywh=3067,277,353,125", 
            "resource": {
                "@type": "cnt:ContentAsText", 
                "chars": "DOMICITUR", 
                "format": "text/plain"
            }
        }, 
        {
            "@id": "https://manifests.teklia.com/HIMANIS/JJ196/words_annotations/FRAN_0200_10622.json/37/line", 
            "@type": "oa:Annotation", 
            "motivation": "oa:painting", 
            "on": "http://bvmm.irht.cnrs.fr/iiif/23802/canvas/canvas-2348508#xywh=180,3990,1419,257", 
            "resource": {
                "@type": "cnt:ContentAsText", 
                "chars": "LU", 
                "format": "text/plain"
            }
        }, 
        {
            "@id": "https://manifests.teklia.com/HIMANIS/JJ196/words_annotations/FRAN_0200_10622.json/38/line", 
            "@type": "oa:Annotation", 
            "motivation": "oa:painting", 
            "on": "http://bvmm.irht.cnrs.fr/iiif/23802/canvas/canvas-2348508#xywh=2541,457,76,175", 
            "resource": {
                "@type": "cnt:ContentAsText", 
                "chars": "AUTRES", 
                "format": "text/plain"
            }
        }, 
        {
            "@id": "https://manifests.teklia.com/HIMANIS/JJ196/words_annotations/FRAN_0200_10622.json/39/line", 
            "@type": "oa:Annotation", 
            "motivation": "oa:painting", 
            "on": "http://bvmm.irht.cnrs.fr/iiif/23802/canvas/canvas-2348508#xywh=2736,277,268,125", 
            "resource": {
                "@type": "cnt:ContentAsText", 
                "chars": "VIDICUM", 
                "format": "text/plain"
            }
        }, 
        {
            "@id": "https://manifests.teklia.com/HIMANIS/JJ196/words_annotations/FRAN_0200_10622.json/40/line", 
            "@type": "oa:Annotation", 
            "motivation": "oa:painting", 
            "on": "http://bvmm.irht.cnrs.fr/iiif/23802/canvas/canvas-2348508#xywh=1791,3273,227,48", 
            "resource": {
                "@type": "cnt:ContentAsText", 
                "chars": "EN", 
                "format": "text/plain"
            }
        }, 
        {
            "@id": "https://manifests.teklia.com/HIMANIS/JJ196/words_annotations/FRAN_0200_10622.json/41/line", 
            "@type": "oa:Annotation", 
            "motivation": "oa:painting", 
            "on": "http://bvmm.irht.cnrs.fr/iiif/23802/canvas/canvas-2348508#xywh=1791,3273,221,48", 
            "resource": {
                "@type": "cnt:ContentAsText", 
                "chars": "ET", 
                "format": "text/plain"
            }
        }, 
        {
            "@id": "https://manifests.teklia.com/HIMANIS/JJ196/words_annotations/FRAN_0200_10622.json/42/line", 
            "@type": "oa:Annotation", 
            "motivation": "oa:painting", 
            "on": "http://bvmm.irht.cnrs.fr/iiif/23802/canvas/canvas-2348508#xywh=2226,582,776,83", 
            "resource": {
                "@type": "cnt:ContentAsText", 
                "chars": "RAOUL", 
                "format": "text/plain"
            }
        }, 
        {
            "@id": "https://manifests.teklia.com/HIMANIS/JJ196/words_annotations/FRAN_0200_10622.json/43/line", 
            "@type": "oa:Annotation", 
            "motivation": "oa:painting", 
            "on": "http://bvmm.irht.cnrs.fr/iiif/23802/canvas/canvas-2348508#xywh=1788,2611,236,54", 
            "resource": {
                "@type": "cnt:ContentAsText", 
                "chars": "LES", 
                "format": "text/plain"
            }
        }, 
        {
            "@id": "https://manifests.teklia.com/HIMANIS/JJ196/words_annotations/FRAN_0200_10622.json/44/line", 
            "@type": "oa:Annotation", 
            "motivation": "oa:painting", 
            "on": "http://bvmm.irht.cnrs.fr/iiif/23802/canvas/canvas-2348508#xywh=2736,277,268,125", 
            "resource": {
                "@type": "cnt:ContentAsText", 
                "chars": "VIDIUM", 
                "format": "text/plain"
            }
        }, 
        {
            "@id": "https://manifests.teklia.com/HIMANIS/JJ196/words_annotations/FRAN_0200_10622.json/45/line", 
            "@type": "oa:Annotation", 
            "motivation": "oa:painting", 
            "on": "http://bvmm.irht.cnrs.fr/iiif/23802/canvas/canvas-2348508#xywh=2853,387,164,100", 
            "resource": {
                "@type": "cnt:ContentAsText", 
                "chars": "DESON", 
                "format": "text/plain"
            }
        }, 
        {
            "@id": "https://manifests.teklia.com/HIMANIS/JJ196/words_annotations/FRAN_0200_10622.json/46/line", 
            "@type": "oa:Annotation", 
            "motivation": "oa:painting", 
            "on": "http://bvmm.irht.cnrs.fr/iiif/23802/canvas/canvas-2348508#xywh=4679,2824,0,45", 
            "resource": {
                "@type": "cnt:ContentAsText", 
                "chars": "K", 
                "format": "text/plain"
            }
        }, 
        {
            "@id": "https://manifests.teklia.com/HIMANIS/JJ196/words_annotations/FRAN_0200_10622.json/47/line", 
            "@type": "oa:Annotation", 
            "motivation": "oa:painting", 
            "on": "http://bvmm.irht.cnrs.fr/iiif/23802/canvas/canvas-2348508#xywh=3880,457,121,175", 
            "resource": {
                "@type": "cnt:ContentAsText", 
                "chars": "DE", 
                "format": "text/plain"
            }
        }, 
        {
            "@id": "https://manifests.teklia.com/HIMANIS/JJ196/words_annotations/FRAN_0200_10622.json/48/line", 
            "@type": "oa:Annotation", 
            "motivation": "oa:painting", 
            "on": "http://bvmm.irht.cnrs.fr/iiif/23802/canvas/canvas-2348508#xywh=2314,0,127,102", 
            "resource": {
                "@type": "cnt:ContentAsText", 
                "chars": "DE", 
                "format": "text/plain"
            }
        }, 
        {
            "@id": "https://manifests.teklia.com/HIMANIS/JJ196/words_annotations/FRAN_0200_10622.json/49/line", 
            "@type": "oa:Annotation", 
            "motivation": "oa:painting", 
            "on": "http://bvmm.irht.cnrs.fr/iiif/23802/canvas/canvas-2348508#xywh=2461,651,54,71", 
            "resource": {
                "@type": "cnt:ContentAsText", 
                "chars": "DU", 
                "format": "text/plain"
            }
        }, 
        {
            "@id": "https://manifests.teklia.com/HIMANIS/JJ196/words_annotations/FRAN_0200_10622.json/50/line", 
            "@type": "oa:Annotation", 
            "motivation": "oa:painting", 
            "on": "http://bvmm.irht.cnrs.fr/iiif/23802/canvas/canvas-2348508#xywh=3663,582,42,83", 
            "resource": {
                "@type": "cnt:ContentAsText", 
                "chars": "LA", 
                "format": "text/plain"
            }
        }, 
        {
            "@id": "https://manifests.teklia.com/HIMANIS/JJ196/words_annotations/FRAN_0200_10622.json/51/line", 
            "@type": "oa:Annotation", 
            "motivation": "oa:painting", 
            "on": "http://bvmm.irht.cnrs.fr/iiif/23802/canvas/canvas-2348508#xywh=3853,277,63,125", 
            "resource": {
                "@type": "cnt:ContentAsText", 
                "chars": "AUS", 
                "format": "text/plain"
            }
        }, 
        {
            "@id": "https://manifests.teklia.com/HIMANIS/JJ196/words_annotations/FRAN_0200_10622.json/52/line", 
            "@type": "oa:Annotation", 
            "motivation": "oa:painting", 
            "on": "http://bvmm.irht.cnrs.fr/iiif/23802/canvas/canvas-2348508#xywh=3427,582,16,83", 
            "resource": {
                "@type": "cnt:ContentAsText", 
                "chars": "LE", 
                "format": "text/plain"
            }
        }, 
        {
            "@id": "https://manifests.teklia.com/HIMANIS/JJ196/words_annotations/FRAN_0200_10622.json/53/line", 
            "@type": "oa:Annotation", 
            "motivation": "oa:painting", 
            "on": "http://bvmm.irht.cnrs.fr/iiif/23802/canvas/canvas-2348508#xywh=2536,582,52,83", 
            "resource": {
                "@type": "cnt:ContentAsText", 
                "chars": "DE", 
                "format": "text/plain"
            }
        }, 
        {
            "@id": "https://manifests.teklia.com/HIMANIS/JJ196/words_annotations/FRAN_0200_10622.json/54/line", 
            "@type": "oa:Annotation", 
            "motivation": "oa:painting", 
            "on": "http://bvmm.irht.cnrs.fr/iiif/23802/canvas/canvas-2348508#xywh=1865,3126,237,51", 
            "resource": {
                "@type": "cnt:ContentAsText", 
                "chars": "LA", 
                "format": "text/plain"
            }
        }, 
        {
            "@id": "https://manifests.teklia.com/HIMANIS/JJ196/words_annotations/FRAN_0200_10622.json/55/line", 
            "@type": "oa:Annotation", 
            "motivation": "oa:painting", 
            "on": "http://bvmm.irht.cnrs.fr/iiif/23802/canvas/canvas-2348508#xywh=1865,3126,244,51", 
            "resource": {
                "@type": "cnt:ContentAsText", 
                "chars": "LE", 
                "format": "text/plain"
            }
        }, 
        {
            "@id": "https://manifests.teklia.com/HIMANIS/JJ196/words_annotations/FRAN_0200_10622.json/56/line", 
            "@type": "oa:Annotation", 
            "motivation": "oa:painting", 
            "on": "http://bvmm.irht.cnrs.fr/iiif/23802/canvas/canvas-2348508#xywh=1865,3126,234,51", 
            "resource": {
                "@type": "cnt:ContentAsText", 
                "chars": "DE", 
                "format": "text/plain"
            }
        }, 
        {
            "@id": "https://manifests.teklia.com/HIMANIS/JJ196/words_annotations/FRAN_0200_10622.json/57/line", 
            "@type": "oa:Annotation", 
            "motivation": "oa:painting", 
            "on": "http://bvmm.irht.cnrs.fr/iiif/23802/canvas/canvas-2348508#xywh=121,3004,126,43", 
            "resource": {
                "@type": "cnt:ContentAsText", 
                "chars": "DE", 
                "format": "text/plain"
            }
        }, 
        {
            "@id": "https://manifests.teklia.com/HIMANIS/JJ196/words_annotations/FRAN_0200_10622.json/58/line", 
            "@type": "oa:Annotation", 
            "motivation": "oa:painting", 
            "on": "http://bvmm.irht.cnrs.fr/iiif/23802/canvas/canvas-2348508#xywh=3540,651,638,71", 
            "resource": {
                "@type": "cnt:ContentAsText", 
                "chars": "PICTAVENIERE", 
                "format": "text/plain"
            }
        }, 
        {
            "@id": "https://manifests.teklia.com/HIMANIS/JJ196/words_annotations/FRAN_0200_10622.json/59/line", 
            "@type": "oa:Annotation", 
            "motivation": "oa:painting", 
            "on": "http://bvmm.irht.cnrs.fr/iiif/23802/canvas/canvas-2348508#xywh=2398,457,77,175", 
            "resource": {
                "@type": "cnt:ContentAsText", 
                "chars": "AVONS", 
                "format": "text/plain"
            }
        }, 
        {
            "@id": "https://manifests.teklia.com/HIMANIS/JJ196/words_annotations/FRAN_0200_10622.json/60/line", 
            "@type": "oa:Annotation", 
            "motivation": "oa:painting", 
            "on": "http://bvmm.irht.cnrs.fr/iiif/23802/canvas/canvas-2348508#xywh=3894,582,63,83", 
            "resource": {
                "@type": "cnt:ContentAsText", 
                "chars": "DU", 
                "format": "text/plain"
            }
        }, 
        {
            "@id": "https://manifests.teklia.com/HIMANIS/JJ196/words_annotations/FRAN_0200_10622.json/61/line", 
            "@type": "oa:Annotation", 
            "motivation": "oa:painting", 
            "on": "http://bvmm.irht.cnrs.fr/iiif/23802/canvas/canvas-2348508#xywh=3633,277,149,125", 
            "resource": {
                "@type": "cnt:ContentAsText", 
                "chars": "FERON", 
                "format": "text/plain"
            }
        }, 
        {
            "@id": "https://manifests.teklia.com/HIMANIS/JJ196/words_annotations/FRAN_0200_10622.json/62/line", 
            "@type": "oa:Annotation", 
            "motivation": "oa:painting", 
            "on": "http://bvmm.irht.cnrs.fr/iiif/23802/canvas/canvas-2348508#xywh=4389,651,162,71", 
            "resource": {
                "@type": "cnt:ContentAsText", 
                "chars": "HAL", 
                "format": "text/plain"
            }
        }, 
        {
            "@id": "https://manifests.teklia.com/HIMANIS/JJ196/words_annotations/FRAN_0200_10622.json/63/line", 
            "@type": "oa:Annotation", 
            "motivation": "oa:painting", 
            "on": "http://bvmm.irht.cnrs.fr/iiif/23802/canvas/canvas-2348508#xywh=3554,387,94,100", 
            "resource": {
                "@type": "cnt:ContentAsText", 
                "chars": "ALIA", 
                "format": "text/plain"
            }
        }, 
        {
            "@id": "https://manifests.teklia.com/HIMANIS/JJ196/words_annotations/FRAN_0200_10622.json/64/line", 
            "@type": "oa:Annotation", 
            "motivation": "oa:painting", 
            "on": "http://bvmm.irht.cnrs.fr/iiif/23802/canvas/canvas-2348508#xywh=3074,387,152,100", 
            "resource": {
                "@type": "cnt:ContentAsText", 
                "chars": "CORPS", 
                "format": "text/plain"
            }
        }, 
        {
            "@id": "https://manifests.teklia.com/HIMANIS/JJ196/words_annotations/FRAN_0200_10622.json/65/line", 
            "@type": "oa:Annotation", 
            "motivation": "oa:painting", 
            "on": "http://bvmm.irht.cnrs.fr/iiif/23802/canvas/canvas-2348508#xywh=3540,651,620,71", 
            "resource": {
                "@type": "cnt:ContentAsText", 
                "chars": "PICTAVENSIS", 
                "format": "text/plain"
            }
        }, 
        {
            "@id": "https://manifests.teklia.com/HIMANIS/JJ196/words_annotations/FRAN_0200_10622.json/66/line", 
            "@type": "oa:Annotation", 
            "motivation": "oa:painting", 
            "on": "http://bvmm.irht.cnrs.fr/iiif/23802/canvas/canvas-2348508#xywh=4278,277,78,125", 
            "resource": {
                "@type": "cnt:ContentAsText", 
                "chars": "TAM", 
                "format": "text/plain"
            }
        }, 
        {
            "@id": "https://manifests.teklia.com/HIMANIS/JJ196/words_annotations/FRAN_0200_10622.json/67/line", 
            "@type": "oa:Annotation", 
            "motivation": "oa:painting", 
            "on": "http://bvmm.irht.cnrs.fr/iiif/23802/canvas/canvas-2348508#xywh=3633,277,149,125", 
            "resource": {
                "@type": "cnt:ContentAsText", 
                "chars": "SERON", 
                "format": "text/plain"
            }
        }, 
        {
            "@id": "https://manifests.teklia.com/HIMANIS/JJ196/words_annotations/FRAN_0200_10622.json/68/line", 
            "@type": "oa:Annotation", 
            "motivation": "oa:painting", 
            "on": "http://bvmm.irht.cnrs.fr/iiif/23802/canvas/canvas-2348508#xywh=3987,277,39,125", 
            "resource": {
                "@type": "cnt:ContentAsText", 
                "chars": "DE", 
                "format": "text/plain"
            }
        }, 
        {
            "@id": "https://manifests.teklia.com/HIMANIS/JJ196/words_annotations/FRAN_0200_10622.json/69/line", 
            "@type": "oa:Annotation", 
            "motivation": "oa:painting", 
            "on": "http://bvmm.irht.cnrs.fr/iiif/23802/canvas/canvas-2348508#xywh=2969,457,0,175", 
            "resource": {
                "@type": "cnt:ContentAsText", 
                "chars": "A", 
                "format": "text/plain"
            }
        }, 
        {
            "@id": "https://manifests.teklia.com/HIMANIS/JJ196/words_annotations/FRAN_0200_10622.json/70/line", 
            "@type": "oa:Annotation", 
            "motivation": "oa:painting", 
            "on": "http://bvmm.irht.cnrs.fr/iiif/23802/canvas/canvas-2348508#xywh=3939,387,258,100", 
            "resource": {
                "@type": "cnt:ContentAsText", 
                "chars": "MESPASSEONS", 
                "format": "text/plain"
            }
        }, 
        {
            "@id": "https://manifests.teklia.com/HIMANIS/JJ196/words_annotations/FRAN_0200_10622.json/71/line", 
            "@type": "oa:Annotation", 
            "motivation": "oa:painting", 
            "on": "http://bvmm.irht.cnrs.fr/iiif/23802/canvas/canvas-2348508#xywh=180,3990,4611,257", 
            "resource": {
                "@type": "cnt:ContentAsText", 
                "chars": "LARC", 
                "format": "text/plain"
            }
        }, 
        {
            "@id": "https://manifests.teklia.com/HIMANIS/JJ196/words_annotations/FRAN_0200_10622.json/72/line", 
            "@type": "oa:Annotation", 
            "motivation": "oa:painting", 
            "on": "http://bvmm.irht.cnrs.fr/iiif/23802/canvas/canvas-2348508#xywh=1865,3126,260,51", 
            "resource": {
                "@type": "cnt:ContentAsText", 
                "chars": "DITE", 
                "format": "text/plain"
            }
        }, 
        {
            "@id": "https://manifests.teklia.com/HIMANIS/JJ196/words_annotations/FRAN_0200_10622.json/73/line", 
            "@type": "oa:Annotation", 
            "motivation": "oa:painting", 
            "on": "http://bvmm.irht.cnrs.fr/iiif/23802/canvas/canvas-2348508#xywh=2404,3943,111,50", 
            "resource": {
                "@type": "cnt:ContentAsText", 
                "chars": "ET", 
                "format": "text/plain"
            }
        }, 
        {
            "@id": "https://manifests.teklia.com/HIMANIS/JJ196/words_annotations/FRAN_0200_10622.json/74/line", 
            "@type": "oa:Annotation", 
            "motivation": "oa:painting", 
            "on": "http://bvmm.irht.cnrs.fr/iiif/23802/canvas/canvas-2348508#xywh=1813,3048,209,63", 
            "resource": {
                "@type": "cnt:ContentAsText", 
                "chars": "OCCASION", 
                "format": "text/plain"
            }
        }, 
        {
            "@id": "https://manifests.teklia.com/HIMANIS/JJ196/words_annotations/FRAN_0200_10622.json/75/line", 
            "@type": "oa:Annotation", 
            "motivation": "oa:painting", 
            "on": "http://bvmm.irht.cnrs.fr/iiif/23802/canvas/canvas-2348508#xywh=1813,3048,264,63", 
            "resource": {
                "@type": "cnt:ContentAsText", 
                "chars": "OCCASIONEM", 
                "format": "text/plain"
            }
        }, 
        {
            "@id": "https://manifests.teklia.com/HIMANIS/JJ196/words_annotations/FRAN_0200_10622.json/76/line", 
            "@type": "oa:Annotation", 
            "motivation": "oa:painting", 
            "on": "http://bvmm.irht.cnrs.fr/iiif/23802/canvas/canvas-2348508#xywh=3579,387,69,100", 
            "resource": {
                "@type": "cnt:ContentAsText", 
                "chars": "LA", 
                "format": "text/plain"
            }
        }, 
        {
            "@id": "https://manifests.teklia.com/HIMANIS/JJ196/words_annotations/FRAN_0200_10622.json/77/line", 
            "@type": "oa:Annotation", 
            "motivation": "oa:painting", 
            "on": "http://bvmm.irht.cnrs.fr/iiif/23802/canvas/canvas-2348508#xywh=3718,387,63,100", 
            "resource": {
                "@type": "cnt:ContentAsText", 
                "chars": "DE", 
                "format": "text/plain"
            }
        }, 
        {
            "@id": "https://manifests.teklia.com/HIMANIS/JJ196/words_annotations/FRAN_0200_10622.json/78/line", 
            "@type": "oa:Annotation", 
            "motivation": "oa:painting", 
            "on": "http://bvmm.irht.cnrs.fr/iiif/23802/canvas/canvas-2348508#xywh=1070,3763,0,48", 
            "resource": {
                "@type": "cnt:ContentAsText", 
                "chars": "J", 
                "format": "text/plain"
            }
        }, 
        {
            "@id": "https://manifests.teklia.com/HIMANIS/JJ196/words_annotations/FRAN_0200_10622.json/79/line", 
            "@type": "oa:Annotation", 
            "motivation": "oa:painting", 
            "on": "http://bvmm.irht.cnrs.fr/iiif/23802/canvas/canvas-2348508#xywh=4074,3943,427,62", 
            "resource": {
                "@type": "cnt:ContentAsText", 
                "chars": "ET", 
                "format": "text/plain"
            }
        }, 
        {
            "@id": "https://manifests.teklia.com/HIMANIS/JJ196/words_annotations/FRAN_0200_10622.json/80/line", 
            "@type": "oa:Annotation", 
            "motivation": "oa:painting", 
            "on": "http://bvmm.irht.cnrs.fr/iiif/23802/canvas/canvas-2348508#xywh=3210,457,231,175", 
            "resource": {
                "@type": "cnt:ContentAsText", 
                "chars": "PROMOYS", 
                "format": "text/plain"
            }
        }, 
        {
            "@id": "https://manifests.teklia.com/HIMANIS/JJ196/words_annotations/FRAN_0200_10622.json/81/line", 
            "@type": "oa:Annotation", 
            "motivation": "oa:painting", 
            "on": "http://bvmm.irht.cnrs.fr/iiif/23802/canvas/canvas-2348508#xywh=1957,387,164,100", 
            "resource": {
                "@type": "cnt:ContentAsText", 
                "chars": "EST", 
                "format": "text/plain"
            }
        }, 
        {
            "@id": "https://manifests.teklia.com/HIMANIS/JJ196/words_annotations/FRAN_0200_10622.json/82/line", 
            "@type": "oa:Annotation", 
            "motivation": "oa:painting", 
            "on": "http://bvmm.irht.cnrs.fr/iiif/23802/canvas/canvas-2348508#xywh=1845,2182,181,42", 
            "resource": {
                "@type": "cnt:ContentAsText", 
                "chars": "DE", 
                "format": "text/plain"
            }
        }, 
        {
            "@id": "https://manifests.teklia.com/HIMANIS/JJ196/words_annotations/FRAN_0200_10622.json/83/line", 
            "@type": "oa:Annotation", 
            "motivation": "oa:painting", 
            "on": "http://bvmm.irht.cnrs.fr/iiif/23802/canvas/canvas-2348508#xywh=3540,651,629,71", 
            "resource": {
                "@type": "cnt:ContentAsText", 
                "chars": "PICTAVENSIUM", 
                "format": "text/plain"
            }
        }, 
        {
            "@id": "https://manifests.teklia.com/HIMANIS/JJ196/words_annotations/FRAN_0200_10622.json/84/line", 
            "@type": "oa:Annotation", 
            "motivation": "oa:painting", 
            "on": "http://bvmm.irht.cnrs.fr/iiif/23802/canvas/canvas-2348508#xywh=4267,387,240,100", 
            "resource": {
                "@type": "cnt:ContentAsText", 
                "chars": "OCTONE", 
                "format": "text/plain"
            }
        }, 
        {
            "@id": "https://manifests.teklia.com/HIMANIS/JJ196/words_annotations/FRAN_0200_10622.json/85/line", 
            "@type": "oa:Annotation", 
            "motivation": "oa:painting", 
            "on": "http://bvmm.irht.cnrs.fr/iiif/23802/canvas/canvas-2348508#xywh=4267,387,227,100", 
            "resource": {
                "@type": "cnt:ContentAsText", 
                "chars": "OCTONN", 
                "format": "text/plain"
            }
        }, 
        {
            "@id": "https://manifests.teklia.com/HIMANIS/JJ196/words_annotations/FRAN_0200_10622.json/86/line", 
            "@type": "oa:Annotation", 
            "motivation": "oa:painting", 
            "on": "http://bvmm.irht.cnrs.fr/iiif/23802/canvas/canvas-2348508#xywh=3195,3270,0,51", 
            "resource": {
                "@type": "cnt:ContentAsText", 
                "chars": "M", 
                "format": "text/plain"
            }
        }, 
        {
            "@id": "https://manifests.teklia.com/HIMANIS/JJ196/words_annotations/FRAN_0200_10622.json/87/line", 
            "@type": "oa:Annotation", 
            "motivation": "oa:painting", 
            "on": "http://bvmm.irht.cnrs.fr/iiif/23802/canvas/canvas-2348508#xywh=4267,387,227,100", 
            "resource": {
                "@type": "cnt:ContentAsText", 
                "chars": "OCTONS", 
                "format": "text/plain"
            }
        }, 
        {
            "@id": "https://manifests.teklia.com/HIMANIS/JJ196/words_annotations/FRAN_0200_10622.json/88/line", 
            "@type": "oa:Annotation", 
            "motivation": "oa:painting", 
            "on": "http://bvmm.irht.cnrs.fr/iiif/23802/canvas/canvas-2348508#xywh=3633,277,157,125", 
            "resource": {
                "@type": "cnt:ContentAsText", 
                "chars": "FERROU", 
                "format": "text/plain"
            }
        }, 
        {
            "@id": "https://manifests.teklia.com/HIMANIS/JJ196/words_annotations/FRAN_0200_10622.json/89/line", 
            "@type": "oa:Annotation", 
            "motivation": "oa:painting", 
            "on": "http://bvmm.irht.cnrs.fr/iiif/23802/canvas/canvas-2348508#xywh=4419,277,0,125", 
            "resource": {
                "@type": "cnt:ContentAsText", 
                "chars": "P", 
                "format": "text/plain"
            }
        }, 
        {
            "@id": "https://manifests.teklia.com/HIMANIS/JJ196/words_annotations/FRAN_0200_10622.json/90/line", 
            "@type": "oa:Annotation", 
            "motivation": "oa:painting", 
            "on": "http://bvmm.irht.cnrs.fr/iiif/23802/canvas/canvas-2348508#xywh=4396,457,395,175", 
            "resource": {
                "@type": "cnt:ContentAsText", 
                "chars": "DES", 
                "format": "text/plain"
            }
        }, 
        {
            "@id": "https://manifests.teklia.com/HIMANIS/JJ196/words_annotations/FRAN_0200_10622.json/91/line", 
            "@type": "oa:Annotation", 
            "motivation": "oa:painting", 
            "on": "http://bvmm.irht.cnrs.fr/iiif/23802/canvas/canvas-2348508#xywh=3418,651,122,71", 
            "resource": {
                "@type": "cnt:ContentAsText", 
                "chars": "SCIPI", 
                "format": "text/plain"
            }
        }, 
        {
            "@id": "https://manifests.teklia.com/HIMANIS/JJ196/words_annotations/FRAN_0200_10622.json/92/line", 
            "@type": "oa:Annotation", 
            "motivation": "oa:painting", 
            "on": "http://bvmm.irht.cnrs.fr/iiif/23802/canvas/canvas-2348508#xywh=2694,457,220,175", 
            "resource": {
                "@type": "cnt:ContentAsText", 
                "chars": "ME", 
                "format": "text/plain"
            }
        }, 
        {
            "@id": "https://manifests.teklia.com/HIMANIS/JJ196/words_annotations/FRAN_0200_10622.json/93/line", 
            "@type": "oa:Annotation", 
            "motivation": "oa:painting", 
            "on": "http://bvmm.irht.cnrs.fr/iiif/23802/canvas/canvas-2348508#xywh=2310,457,66,175", 
            "resource": {
                "@type": "cnt:ContentAsText", 
                "chars": "EN", 
                "format": "text/plain"
            }
        }, 
        {
            "@id": "https://manifests.teklia.com/HIMANIS/JJ196/words_annotations/FRAN_0200_10622.json/94/line", 
            "@type": "oa:Annotation", 
            "motivation": "oa:painting", 
            "on": "http://bvmm.irht.cnrs.fr/iiif/23802/canvas/canvas-2348508#xywh=1813,3048,252,63", 
            "resource": {
                "@type": "cnt:ContentAsText", 
                "chars": "DILECTORUM", 
                "format": "text/plain"
            }
        }, 
        {
            "@id": "https://manifests.teklia.com/HIMANIS/JJ196/words_annotations/FRAN_0200_10622.json/95/line", 
            "@type": "oa:Annotation", 
            "motivation": "oa:painting", 
            "on": "http://bvmm.irht.cnrs.fr/iiif/23802/canvas/canvas-2348508#xywh=2321,457,44,175", 
            "resource": {
                "@type": "cnt:ContentAsText", 
                "chars": "ET", 
                "format": "text/plain"
            }
        }, 
        {
            "@id": "https://manifests.teklia.com/HIMANIS/JJ196/words_annotations/FRAN_0200_10622.json/96/line", 
            "@type": "oa:Annotation", 
            "motivation": "oa:painting", 
            "on": "http://bvmm.irht.cnrs.fr/iiif/23802/canvas/canvas-2348508#xywh=3210,457,44,175", 
            "resource": {
                "@type": "cnt:ContentAsText", 
                "chars": "AU", 
                "format": "text/plain"
            }
        }, 
        {
            "@id": "https://manifests.teklia.com/HIMANIS/JJ196/words_annotations/FRAN_0200_10622.json/97/line", 
            "@type": "oa:Annotation", 
            "motivation": "oa:painting", 
            "on": "http://bvmm.irht.cnrs.fr/iiif/23802/canvas/canvas-2348508#xywh=3987,277,220,125", 
            "resource": {
                "@type": "cnt:ContentAsText", 
                "chars": "COMPTE", 
                "format": "text/plain"
            }
        }, 
        {
            "@id": "https://manifests.teklia.com/HIMANIS/JJ196/words_annotations/FRAN_0200_10622.json/98/line", 
            "@type": "oa:Annotation", 
            "motivation": "oa:painting", 
            "on": "http://bvmm.irht.cnrs.fr/iiif/23802/canvas/canvas-2348508#xywh=2314,0,159,102", 
            "resource": {
                "@type": "cnt:ContentAsText", 
                "chars": "ET", 
                "format": "text/plain"
            }
        }, 
        {
            "@id": "https://manifests.teklia.com/HIMANIS/JJ196/words_annotations/FRAN_0200_10622.json/99/line", 
            "@type": "oa:Annotation", 
            "motivation": "oa:painting", 
            "on": "http://bvmm.irht.cnrs.fr/iiif/23802/canvas/canvas-2348508#xywh=2216,582,293,83", 
            "resource": {
                "@type": "cnt:ContentAsText", 
                "chars": "ET", 
                "format": "text/plain"
            }
        }, 
        {
            "@id": "https://manifests.teklia.com/HIMANIS/JJ196/words_annotations/FRAN_0200_10622.json/100/line", 
            "@type": "oa:Annotation", 
            "motivation": "oa:painting", 
            "on": "http://bvmm.irht.cnrs.fr/iiif/23802/canvas/canvas-2348508#xywh=2226,582,714,83", 
            "resource": {
                "@type": "cnt:ContentAsText", 
                "chars": "POUR", 
                "format": "text/plain"
            }
        }, 
        {
            "@id": "https://manifests.teklia.com/HIMANIS/JJ196/words_annotations/FRAN_0200_10622.json/101/line", 
            "@type": "oa:Annotation", 
            "motivation": "oa:painting", 
            "on": "http://bvmm.irht.cnrs.fr/iiif/23802/canvas/canvas-2348508#xywh=1865,3126,263,51", 
            "resource": {
                "@type": "cnt:ContentAsText", 
                "chars": "ET", 
                "format": "text/plain"
            }
        }, 
        {
            "@id": "https://manifests.teklia.com/HIMANIS/JJ196/words_annotations/FRAN_0200_10622.json/102/line", 
            "@type": "oa:Annotation", 
            "motivation": "oa:painting", 
            "on": "http://bvmm.irht.cnrs.fr/iiif/23802/canvas/canvas-2348508#xywh=121,3004,192,43", 
            "resource": {
                "@type": "cnt:ContentAsText", 
                "chars": "ET", 
                "format": "text/plain"
            }
        }, 
        {
            "@id": "https://manifests.teklia.com/HIMANIS/JJ196/words_annotations/FRAN_0200_10622.json/103/line", 
            "@type": "oa:Annotation", 
            "motivation": "oa:painting", 
            "on": "http://bvmm.irht.cnrs.fr/iiif/23802/canvas/canvas-2348508#xywh=1926,651,495,71", 
            "resource": {
                "@type": "cnt:ContentAsText", 
                "chars": "COURTURI", 
                "format": "text/plain"
            }
        }, 
        {
            "@id": "https://manifests.teklia.com/HIMANIS/JJ196/words_annotations/FRAN_0200_10622.json/104/line", 
            "@type": "oa:Annotation", 
            "motivation": "oa:painting", 
            "on": "http://bvmm.irht.cnrs.fr/iiif/23802/canvas/canvas-2348508#xywh=2541,457,98,175", 
            "resource": {
                "@type": "cnt:ContentAsText", 
                "chars": "ARRE", 
                "format": "text/plain"
            }
        }, 
        {
            "@id": "https://manifests.teklia.com/HIMANIS/JJ196/words_annotations/FRAN_0200_10622.json/105/line", 
            "@type": "oa:Annotation", 
            "motivation": "oa:painting", 
            "on": "http://bvmm.irht.cnrs.fr/iiif/23802/canvas/canvas-2348508#xywh=4419,277,32,125", 
            "resource": {
                "@type": "cnt:ContentAsText", 
                "chars": "QU", 
                "format": "text/plain"
            }
        }, 
        {
            "@id": "https://manifests.teklia.com/HIMANIS/JJ196/words_annotations/FRAN_0200_10622.json/106/line", 
            "@type": "oa:Annotation", 
            "motivation": "oa:painting", 
            "on": "http://bvmm.irht.cnrs.fr/iiif/23802/canvas/canvas-2348508#xywh=1950,277,55,125", 
            "resource": {
                "@type": "cnt:ContentAsText", 
                "chars": "ES", 
                "format": "text/plain"
            }
        }, 
        {
            "@id": "https://manifests.teklia.com/HIMANIS/JJ196/words_annotations/FRAN_0200_10622.json/107/line", 
            "@type": "oa:Annotation", 
            "motivation": "oa:painting", 
            "on": "http://bvmm.irht.cnrs.fr/iiif/23802/canvas/canvas-2348508#xywh=3067,277,15,125", 
            "resource": {
                "@type": "cnt:ContentAsText", 
                "chars": "ET", 
                "format": "text/plain"
            }
        }, 
        {
            "@id": "https://manifests.teklia.com/HIMANIS/JJ196/words_annotations/FRAN_0200_10622.json/108/line", 
            "@type": "oa:Annotation", 
            "motivation": "oa:painting", 
            "on": "http://bvmm.irht.cnrs.fr/iiif/23802/canvas/canvas-2348508#xywh=1105,1471,43,25", 
            "resource": {
                "@type": "cnt:ContentAsText", 
                "chars": "DE", 
                "format": "text/plain"
            }
        }, 
        {
            "@id": "https://manifests.teklia.com/HIMANIS/JJ196/words_annotations/FRAN_0200_10622.json/109/line", 
            "@type": "oa:Annotation", 
            "motivation": "oa:painting", 
            "on": "http://bvmm.irht.cnrs.fr/iiif/23802/canvas/canvas-2348508#xywh=3554,387,0,100", 
            "resource": {
                "@type": "cnt:ContentAsText", 
                "chars": "A", 
                "format": "text/plain"
            }
        }, 
        {
            "@id": "https://manifests.teklia.com/HIMANIS/JJ196/words_annotations/FRAN_0200_10622.json/110/line", 
            "@type": "oa:Annotation", 
            "motivation": "oa:painting", 
            "on": "http://bvmm.irht.cnrs.fr/iiif/23802/canvas/canvas-2348508#xywh=2508,277,181,125", 
            "resource": {
                "@type": "cnt:ContentAsText", 
                "chars": "CUSSANS", 
                "format": "text/plain"
            }
        }, 
        {
            "@id": "https://manifests.teklia.com/HIMANIS/JJ196/words_annotations/FRAN_0200_10622.json/111/line", 
            "@type": "oa:Annotation", 
            "motivation": "oa:painting", 
            "on": "http://bvmm.irht.cnrs.fr/iiif/23802/canvas/canvas-2348508#xywh=3320,387,209,100", 
            "resource": {
                "@type": "cnt:ContentAsText", 
                "chars": "IL", 
                "format": "text/plain"
            }
        }, 
        {
            "@id": "https://manifests.teklia.com/HIMANIS/JJ196/words_annotations/FRAN_0200_10622.json/112/line", 
            "@type": "oa:Annotation", 
            "motivation": "oa:painting", 
            "on": "http://bvmm.irht.cnrs.fr/iiif/23802/canvas/canvas-2348508#xywh=1957,387,164,100", 
            "resource": {
                "@type": "cnt:ContentAsText", 
                "chars": "ET", 
                "format": "text/plain"
            }
        }, 
        {
            "@id": "https://manifests.teklia.com/HIMANIS/JJ196/words_annotations/FRAN_0200_10622.json/113/line", 
            "@type": "oa:Annotation", 
            "motivation": "oa:painting", 
            "on": "http://bvmm.irht.cnrs.fr/iiif/23802/canvas/canvas-2348508#xywh=3554,387,94,100", 
            "resource": {
                "@type": "cnt:ContentAsText", 
                "chars": "AU", 
                "format": "text/plain"
            }
        }, 
        {
            "@id": "https://manifests.teklia.com/HIMANIS/JJ196/words_annotations/FRAN_0200_10622.json/114/line", 
            "@type": "oa:Annotation", 
            "motivation": "oa:painting", 
            "on": "http://bvmm.irht.cnrs.fr/iiif/23802/canvas/canvas-2348508#xywh=2398,457,121,175", 
            "resource": {
                "@type": "cnt:ContentAsText", 
                "chars": "AVENSIS", 
                "format": "text/plain"
            }
        }, 
        {
            "@id": "https://manifests.teklia.com/HIMANIS/JJ196/words_annotations/FRAN_0200_10622.json/115/line", 
            "@type": "oa:Annotation", 
            "motivation": "oa:painting", 
            "on": "http://bvmm.irht.cnrs.fr/iiif/23802/canvas/canvas-2348508#xywh=2404,3943,335,50", 
            "resource": {
                "@type": "cnt:ContentAsText", 
                "chars": "CONTINE", 
                "format": "text/plain"
            }
        }, 
        {
            "@id": "https://manifests.teklia.com/HIMANIS/JJ196/words_annotations/FRAN_0200_10622.json/116/line", 
            "@type": "oa:Annotation", 
            "motivation": "oa:painting", 
            "on": "http://bvmm.irht.cnrs.fr/iiif/23802/canvas/canvas-2348508#xywh=1926,651,0,71", 
            "resource": {
                "@type": "cnt:ContentAsText", 
                "chars": "A", 
                "format": "text/plain"
            }
        }, 
        {
            "@id": "https://manifests.teklia.com/HIMANIS/JJ196/words_annotations/FRAN_0200_10622.json/117/line", 
            "@type": "oa:Annotation", 
            "motivation": "oa:painting", 
            "on": "http://bvmm.irht.cnrs.fr/iiif/23802/canvas/canvas-2348508#xywh=519,3990,0,257", 
            "resource": {
                "@type": "cnt:ContentAsText", 
                "chars": "L", 
                "format": "text/plain"
            }
        }, 
        {
            "@id": "https://manifests.teklia.com/HIMANIS/JJ196/words_annotations/FRAN_0200_10622.json/118/line", 
            "@type": "oa:Annotation", 
            "motivation": "oa:painting", 
            "on": "http://bvmm.irht.cnrs.fr/iiif/23802/canvas/canvas-2348508#xywh=1845,2182,77,42", 
            "resource": {
                "@type": "cnt:ContentAsText", 
                "chars": "ET", 
                "format": "text/plain"
            }
        }, 
        {
            "@id": "https://manifests.teklia.com/HIMANIS/JJ196/words_annotations/FRAN_0200_10622.json/119/line", 
            "@type": "oa:Annotation", 
            "motivation": "oa:painting", 
            "on": "http://bvmm.irht.cnrs.fr/iiif/23802/canvas/canvas-2348508#xywh=3957,582,598,83", 
            "resource": {
                "@type": "cnt:ContentAsText", 
                "chars": "SEEL", 
                "format": "text/plain"
            }
        }, 
        {
            "@id": "https://manifests.teklia.com/HIMANIS/JJ196/words_annotations/FRAN_0200_10622.json/120/line", 
            "@type": "oa:Annotation", 
            "motivation": "oa:painting", 
            "on": "http://bvmm.irht.cnrs.fr/iiif/23802/canvas/canvas-2348508#xywh=1759,3007,318,40", 
            "resource": {
                "@type": "cnt:ContentAsText", 
                "chars": "OMNI", 
                "format": "text/plain"
            }
        }, 
        {
            "@id": "https://manifests.teklia.com/HIMANIS/JJ196/words_annotations/FRAN_0200_10622.json/121/line", 
            "@type": "oa:Annotation", 
            "motivation": "oa:painting", 
            "on": "http://bvmm.irht.cnrs.fr/iiif/23802/canvas/canvas-2348508#xywh=4154,457,176,175", 
            "resource": {
                "@type": "cnt:ContentAsText", 
                "chars": "MIL", 
                "format": "text/plain"
            }
        }, 
        {
            "@id": "https://manifests.teklia.com/HIMANIS/JJ196/words_annotations/FRAN_0200_10622.json/122/line", 
            "@type": "oa:Annotation", 
            "motivation": "oa:painting", 
            "on": "http://bvmm.irht.cnrs.fr/iiif/23802/canvas/canvas-2348508#xywh=4389,651,166,71", 
            "resource": {
                "@type": "cnt:ContentAsText", 
                "chars": "HELIP", 
                "format": "text/plain"
            }
        }, 
        {
            "@id": "https://manifests.teklia.com/HIMANIS/JJ196/words_annotations/FRAN_0200_10622.json/123/line", 
            "@type": "oa:Annotation", 
            "motivation": "oa:painting", 
            "on": "http://bvmm.irht.cnrs.fr/iiif/23802/canvas/canvas-2348508#xywh=4154,457,176,175", 
            "resource": {
                "@type": "cnt:ContentAsText", 
                "chars": "MIS", 
                "format": "text/plain"
            }
        }, 
        {
            "@id": "https://manifests.teklia.com/HIMANIS/JJ196/words_annotations/FRAN_0200_10622.json/124/line", 
            "@type": "oa:Annotation", 
            "motivation": "oa:painting", 
            "on": "http://bvmm.irht.cnrs.fr/iiif/23802/canvas/canvas-2348508#xywh=1927,582,247,83", 
            "resource": {
                "@type": "cnt:ContentAsText", 
                "chars": "SOLAUR", 
                "format": "text/plain"
            }
        }, 
        {
            "@id": "https://manifests.teklia.com/HIMANIS/JJ196/words_annotations/FRAN_0200_10622.json/125/line", 
            "@type": "oa:Annotation", 
            "motivation": "oa:painting", 
            "on": "http://bvmm.irht.cnrs.fr/iiif/23802/canvas/canvas-2348508#xywh=3540,651,638,71", 
            "resource": {
                "@type": "cnt:ContentAsText", 
                "chars": "PICTAVENIRE", 
                "format": "text/plain"
            }
        }, 
        {
            "@id": "https://manifests.teklia.com/HIMANIS/JJ196/words_annotations/FRAN_0200_10622.json/126/line", 
            "@type": "oa:Annotation", 
            "motivation": "oa:painting", 
            "on": "http://bvmm.irht.cnrs.fr/iiif/23802/canvas/canvas-2348508#xywh=3002,457,175,175", 
            "resource": {
                "@type": "cnt:ContentAsText", 
                "chars": "NOUS", 
                "format": "text/plain"
            }
        }, 
        {
            "@id": "https://manifests.teklia.com/HIMANIS/JJ196/words_annotations/FRAN_0200_10622.json/127/line", 
            "@type": "oa:Annotation", 
            "motivation": "oa:painting", 
            "on": "http://bvmm.irht.cnrs.fr/iiif/23802/canvas/canvas-2348508#xywh=121,2005,485,45", 
            "resource": {
                "@type": "cnt:ContentAsText", 
                "chars": "DE", 
                "format": "text/plain"
            }
        }, 
        {
            "@id": "https://manifests.teklia.com/HIMANIS/JJ196/words_annotations/FRAN_0200_10622.json/128/line", 
            "@type": "oa:Annotation", 
            "motivation": "oa:painting", 
            "on": "http://bvmm.irht.cnrs.fr/iiif/23802/canvas/canvas-2348508#xywh=2390,277,71,125", 
            "resource": {
                "@type": "cnt:ContentAsText", 
                "chars": "SES", 
                "format": "text/plain"
            }
        }, 
        {
            "@id": "https://manifests.teklia.com/HIMANIS/JJ196/words_annotations/FRAN_0200_10622.json/129/line", 
            "@type": "oa:Annotation", 
            "motivation": "oa:painting", 
            "on": "http://bvmm.irht.cnrs.fr/iiif/23802/canvas/canvas-2348508#xywh=2694,457,220,175", 
            "resource": {
                "@type": "cnt:ContentAsText", 
                "chars": "NE", 
                "format": "text/plain"
            }
        }, 
        {
            "@id": "https://manifests.teklia.com/HIMANIS/JJ196/words_annotations/FRAN_0200_10622.json/130/line", 
            "@type": "oa:Annotation", 
            "motivation": "oa:painting", 
            "on": "http://bvmm.irht.cnrs.fr/iiif/23802/canvas/canvas-2348508#xywh=3527,582,58,83", 
            "resource": {
                "@type": "cnt:ContentAsText", 
                "chars": "ROY", 
                "format": "text/plain"
            }
        }, 
        {
            "@id": "https://manifests.teklia.com/HIMANIS/JJ196/words_annotations/FRAN_0200_10622.json/131/line", 
            "@type": "oa:Annotation", 
            "motivation": "oa:painting", 
            "on": "http://bvmm.irht.cnrs.fr/iiif/23802/canvas/canvas-2348508#xywh=3210,457,242,175", 
            "resource": {
                "@type": "cnt:ContentAsText", 
                "chars": "PROVONS", 
                "format": "text/plain"
            }
        }, 
        {
            "@id": "https://manifests.teklia.com/HIMANIS/JJ196/words_annotations/FRAN_0200_10622.json/132/line", 
            "@type": "oa:Annotation", 
            "motivation": "oa:painting", 
            "on": "http://bvmm.irht.cnrs.fr/iiif/23802/canvas/canvas-2348508#xywh=3721,582,121,83", 
            "resource": {
                "@type": "cnt:ContentAsText", 
                "chars": "FON", 
                "format": "text/plain"
            }
        }, 
        {
            "@id": "https://manifests.teklia.com/HIMANIS/JJ196/words_annotations/FRAN_0200_10622.json/133/line", 
            "@type": "oa:Annotation", 
            "motivation": "oa:painting", 
            "on": "http://bvmm.irht.cnrs.fr/iiif/23802/canvas/canvas-2348508#xywh=3800,387,82,100", 
            "resource": {
                "@type": "cnt:ContentAsText", 
                "chars": "VIT", 
                "format": "text/plain"
            }
        }, 
        {
            "@id": "https://manifests.teklia.com/HIMANIS/JJ196/words_annotations/FRAN_0200_10622.json/134/line", 
            "@type": "oa:Annotation", 
            "motivation": "oa:painting", 
            "on": "http://bvmm.irht.cnrs.fr/iiif/23802/canvas/canvas-2348508#xywh=2404,3943,335,50", 
            "resource": {
                "@type": "cnt:ContentAsText", 
                "chars": "CONTENEUR", 
                "format": "text/plain"
            }
        }, 
        {
            "@id": "https://manifests.teklia.com/HIMANIS/JJ196/words_annotations/FRAN_0200_10622.json/135/line", 
            "@type": "oa:Annotation", 
            "motivation": "oa:painting", 
            "on": "http://bvmm.irht.cnrs.fr/iiif/23802/canvas/canvas-2348508#xywh=3475,277,111,125", 
            "resource": {
                "@type": "cnt:ContentAsText", 
                "chars": "INDE", 
                "format": "text/plain"
            }
        }, 
        {
            "@id": "https://manifests.teklia.com/HIMANIS/JJ196/words_annotations/FRAN_0200_10622.json/136/line", 
            "@type": "oa:Annotation", 
            "motivation": "oa:painting", 
            "on": "http://bvmm.irht.cnrs.fr/iiif/23802/canvas/canvas-2348508#xywh=111,2842,536,51", 
            "resource": {
                "@type": "cnt:ContentAsText", 
                "chars": "NOUS", 
                "format": "text/plain"
            }
        }, 
        {
            "@id": "https://manifests.teklia.com/HIMANIS/JJ196/words_annotations/FRAN_0200_10622.json/137/line", 
            "@type": "oa:Annotation", 
            "motivation": "oa:painting", 
            "on": "http://bvmm.irht.cnrs.fr/iiif/23802/canvas/canvas-2348508#xywh=3853,277,165,125", 
            "resource": {
                "@type": "cnt:ContentAsText", 
                "chars": "AUSSI", 
                "format": "text/plain"
            }
        }, 
        {
            "@id": "https://manifests.teklia.com/HIMANIS/JJ196/words_annotations/FRAN_0200_10622.json/138/line", 
            "@type": "oa:Annotation", 
            "motivation": "oa:painting", 
            "on": "http://bvmm.irht.cnrs.fr/iiif/23802/canvas/canvas-2348508#xywh=3002,457,175,175", 
            "resource": {
                "@type": "cnt:ContentAsText", 
                "chars": "VOUS", 
                "format": "text/plain"
            }
        }, 
        {
            "@id": "https://manifests.teklia.com/HIMANIS/JJ196/words_annotations/FRAN_0200_10622.json/139/line", 
            "@type": "oa:Annotation", 
            "motivation": "oa:painting", 
            "on": "http://bvmm.irht.cnrs.fr/iiif/23802/canvas/canvas-2348508#xywh=1791,3273,230,48", 
            "resource": {
                "@type": "cnt:ContentAsText", 
                "chars": "LES", 
                "format": "text/plain"
            }
        }, 
        {
            "@id": "https://manifests.teklia.com/HIMANIS/JJ196/words_annotations/FRAN_0200_10622.json/140/line", 
            "@type": "oa:Annotation", 
            "motivation": "oa:painting", 
            "on": "http://bvmm.irht.cnrs.fr/iiif/23802/canvas/canvas-2348508#xywh=3987,277,204,125", 
            "resource": {
                "@type": "cnt:ContentAsText", 
                "chars": "COPIS", 
                "format": "text/plain"
            }
        }, 
        {
            "@id": "https://manifests.teklia.com/HIMANIS/JJ196/words_annotations/FRAN_0200_10622.json/141/line", 
            "@type": "oa:Annotation", 
            "motivation": "oa:painting", 
            "on": "http://bvmm.irht.cnrs.fr/iiif/23802/canvas/canvas-2348508#xywh=4419,277,32,125", 
            "resource": {
                "@type": "cnt:ContentAsText", 
                "chars": "FU", 
                "format": "text/plain"
            }
        }, 
        {
            "@id": "https://manifests.teklia.com/HIMANIS/JJ196/words_annotations/FRAN_0200_10622.json/142/line", 
            "@type": "oa:Annotation", 
            "motivation": "oa:painting", 
            "on": "http://bvmm.irht.cnrs.fr/iiif/23802/canvas/canvas-2348508#xywh=1759,3007,303,40", 
            "resource": {
                "@type": "cnt:ContentAsText", 
                "chars": "ORD", 
                "format": "text/plain"
            }
        }, 
        {
            "@id": "https://manifests.teklia.com/HIMANIS/JJ196/words_annotations/FRAN_0200_10622.json/143/line", 
            "@type": "oa:Annotation", 
            "motivation": "oa:painting", 
            "on": "http://bvmm.irht.cnrs.fr/iiif/23802/canvas/canvas-2348508#xywh=1957,387,316,100", 
            "resource": {
                "@type": "cnt:ContentAsText", 
                "chars": "QUE", 
                "format": "text/plain"
            }
        }, 
        {
            "@id": "https://manifests.teklia.com/HIMANIS/JJ196/words_annotations/FRAN_0200_10622.json/144/line", 
            "@type": "oa:Annotation", 
            "motivation": "oa:painting", 
            "on": "http://bvmm.irht.cnrs.fr/iiif/23802/canvas/canvas-2348508#xywh=1105,1471,83,25", 
            "resource": {
                "@type": "cnt:ContentAsText", 
                "chars": "ET", 
                "format": "text/plain"
            }
        }, 
        {
            "@id": "https://manifests.teklia.com/HIMANIS/JJ196/words_annotations/FRAN_0200_10622.json/145/line", 
            "@type": "oa:Annotation", 
            "motivation": "oa:painting", 
            "on": "http://bvmm.irht.cnrs.fr/iiif/23802/canvas/canvas-2348508#xywh=1957,387,316,100", 
            "resource": {
                "@type": "cnt:ContentAsText", 
                "chars": "QUI", 
                "format": "text/plain"
            }
        }, 
        {
            "@id": "https://manifests.teklia.com/HIMANIS/JJ196/words_annotations/FRAN_0200_10622.json/146/line", 
            "@type": "oa:Annotation", 
            "motivation": "oa:painting", 
            "on": "http://bvmm.irht.cnrs.fr/iiif/23802/canvas/canvas-2348508#xywh=2576,387,195,100", 
            "resource": {
                "@type": "cnt:ContentAsText", 
                "chars": "PARLES", 
                "format": "text/plain"
            }
        }, 
        {
            "@id": "https://manifests.teklia.com/HIMANIS/JJ196/words_annotations/FRAN_0200_10622.json/147/line", 
            "@type": "oa:Annotation", 
            "motivation": "oa:painting", 
            "on": "http://bvmm.irht.cnrs.fr/iiif/23802/canvas/canvas-2348508#xywh=2342,387,164,100", 
            "resource": {
                "@type": "cnt:ContentAsText", 
                "chars": "AMES", 
                "format": "text/plain"
            }
        }, 
        {
            "@id": "https://manifests.teklia.com/HIMANIS/JJ196/words_annotations/FRAN_0200_10622.json/148/line", 
            "@type": "oa:Annotation", 
            "motivation": "oa:painting", 
            "on": "http://bvmm.irht.cnrs.fr/iiif/23802/canvas/canvas-2348508#xywh=2547,651,350,71", 
            "resource": {
                "@type": "cnt:ContentAsText", 
                "chars": "LEUR", 
                "format": "text/plain"
            }
        }, 
        {
            "@id": "https://manifests.teklia.com/HIMANIS/JJ196/words_annotations/FRAN_0200_10622.json/149/line", 
            "@type": "oa:Annotation", 
            "motivation": "oa:painting", 
            "on": "http://bvmm.irht.cnrs.fr/iiif/23802/canvas/canvas-2348508#xywh=1845,2182,179,42", 
            "resource": {
                "@type": "cnt:ContentAsText", 
                "chars": "PER", 
                "format": "text/plain"
            }
        }, 
        {
            "@id": "https://manifests.teklia.com/HIMANIS/JJ196/words_annotations/FRAN_0200_10622.json/150/line", 
            "@type": "oa:Annotation", 
            "motivation": "oa:painting", 
            "on": "http://bvmm.irht.cnrs.fr/iiif/23802/canvas/canvas-2348508#xywh=4389,651,103,71", 
            "resource": {
                "@type": "cnt:ContentAsText", 
                "chars": "CHARLE", 
                "format": "text/plain"
            }
        }, 
        {
            "@id": "https://manifests.teklia.com/HIMANIS/JJ196/words_annotations/FRAN_0200_10622.json/151/line", 
            "@type": "oa:Annotation", 
            "motivation": "oa:painting", 
            "on": "http://bvmm.irht.cnrs.fr/iiif/23802/canvas/canvas-2348508#xywh=3621,582,0,83", 
            "resource": {
                "@type": "cnt:ContentAsText", 
                "chars": "A", 
                "format": "text/plain"
            }
        }
    ]
}