{
    "@context": "http://iiif.io/api/presentation/2/context.json", 
    "@id": "https://manifests.teklia.com/HIMANIS/FR5291/words_annotations/http_gallica.bnf.fr_iiif_ark:_12148_btv1b9059263p_f75_full_full_0_native.jpg.json", 
    "@type": "sc:AnnotationList", 
    "resources": [
        {
            "@id": "https://manifests.teklia.com/HIMANIS/FR5291/words_annotations/http_gallica.bnf.fr_iiif_ark:_12148_btv1b9059263p_f75_full_full_0_native.jpg.json/0/line", 
            "@type": "oa:Annotation", 
            "motivation": "oa:painting", 
            "on": "http://gallica.bnf.fr/iiif/ark:/12148/btv1b9059263p/canvas/f75#xywh=1387,1427,178,123", 
            "resource": {
                "@type": "cnt:ContentAsText", 
                "chars": "AUTRE", 
                "format": "text/plain"
            }
        }, 
        {
            "@id": "https://manifests.teklia.com/HIMANIS/FR5291/words_annotations/http_gallica.bnf.fr_iiif_ark:_12148_btv1b9059263p_f75_full_full_0_native.jpg.json/1/line", 
            "@type": "oa:Annotation", 
            "motivation": "oa:painting", 
            "on": "http://gallica.bnf.fr/iiif/ark:/12148/btv1b9059263p/canvas/f75#xywh=2607,1277,223,178", 
            "resource": {
                "@type": "cnt:ContentAsText", 
                "chars": "CONVOIST", 
                "format": "text/plain"
            }
        }, 
        {
            "@id": "https://manifests.teklia.com/HIMANIS/FR5291/words_annotations/http_gallica.bnf.fr_iiif_ark:_12148_btv1b9059263p_f75_full_full_0_native.jpg.json/2/line", 
            "@type": "oa:Annotation", 
            "motivation": "oa:painting", 
            "on": "http://gallica.bnf.fr/iiif/ark:/12148/btv1b9059263p/canvas/f75#xywh=1082,2468,69,183", 
            "resource": {
                "@type": "cnt:ContentAsText", 
                "chars": "DE", 
                "format": "text/plain"
            }
        }, 
        {
            "@id": "https://manifests.teklia.com/HIMANIS/FR5291/words_annotations/http_gallica.bnf.fr_iiif_ark:_12148_btv1b9059263p_f75_full_full_0_native.jpg.json/3/line", 
            "@type": "oa:Annotation", 
            "motivation": "oa:painting", 
            "on": "http://gallica.bnf.fr/iiif/ark:/12148/btv1b9059263p/canvas/f75#xywh=2176,3143,242,149", 
            "resource": {
                "@type": "cnt:ContentAsText", 
                "chars": "MESUILL", 
                "format": "text/plain"
            }
        }, 
        {
            "@id": "https://manifests.teklia.com/HIMANIS/FR5291/words_annotations/http_gallica.bnf.fr_iiif_ark:_12148_btv1b9059263p_f75_full_full_0_native.jpg.json/4/line", 
            "@type": "oa:Annotation", 
            "motivation": "oa:painting", 
            "on": "http://gallica.bnf.fr/iiif/ark:/12148/btv1b9059263p/canvas/f75#xywh=1112,3143,56,149", 
            "resource": {
                "@type": "cnt:ContentAsText", 
                "chars": "DE", 
                "format": "text/plain"
            }
        }, 
        {
            "@id": "https://manifests.teklia.com/HIMANIS/FR5291/words_annotations/http_gallica.bnf.fr_iiif_ark:_12148_btv1b9059263p_f75_full_full_0_native.jpg.json/5/line", 
            "@type": "oa:Annotation", 
            "motivation": "oa:painting", 
            "on": "http://gallica.bnf.fr/iiif/ark:/12148/btv1b9059263p/canvas/f75#xywh=1161,1951,439,140", 
            "resource": {
                "@type": "cnt:ContentAsText", 
                "chars": "BERGERVILLER", 
                "format": "text/plain"
            }
        }, 
        {
            "@id": "https://manifests.teklia.com/HIMANIS/FR5291/words_annotations/http_gallica.bnf.fr_iiif_ark:_12148_btv1b9059263p_f75_full_full_0_native.jpg.json/6/line", 
            "@type": "oa:Annotation", 
            "motivation": "oa:painting", 
            "on": "http://gallica.bnf.fr/iiif/ark:/12148/btv1b9059263p/canvas/f75#xywh=1817,3439,254,140", 
            "resource": {
                "@type": "cnt:ContentAsText", 
                "chars": "ESTABLES", 
                "format": "text/plain"
            }
        }, 
        {
            "@id": "https://manifests.teklia.com/HIMANIS/FR5291/words_annotations/http_gallica.bnf.fr_iiif_ark:_12148_btv1b9059263p_f75_full_full_0_native.jpg.json/7/line", 
            "@type": "oa:Annotation", 
            "motivation": "oa:painting", 
            "on": "http://gallica.bnf.fr/iiif/ark:/12148/btv1b9059263p/canvas/f75#xywh=1184,1032,304,167", 
            "resource": {
                "@type": "cnt:ContentAsText", 
                "chars": "AUBUILLAUME", 
                "format": "text/plain"
            }
        }, 
        {
            "@id": "https://manifests.teklia.com/HIMANIS/FR5291/words_annotations/http_gallica.bnf.fr_iiif_ark:_12148_btv1b9059263p_f75_full_full_0_native.jpg.json/8/line", 
            "@type": "oa:Annotation", 
            "motivation": "oa:painting", 
            "on": "http://gallica.bnf.fr/iiif/ark:/12148/btv1b9059263p/canvas/f75#xywh=2054,3143,75,149", 
            "resource": {
                "@type": "cnt:ContentAsText", 
                "chars": "DU", 
                "format": "text/plain"
            }
        }, 
        {
            "@id": "https://manifests.teklia.com/HIMANIS/FR5291/words_annotations/http_gallica.bnf.fr_iiif_ark:_12148_btv1b9059263p_f75_full_full_0_native.jpg.json/9/line", 
            "@type": "oa:Annotation", 
            "motivation": "oa:painting", 
            "on": "http://gallica.bnf.fr/iiif/ark:/12148/btv1b9059263p/canvas/f75#xywh=1161,1951,439,140", 
            "resource": {
                "@type": "cnt:ContentAsText", 
                "chars": "BEREGERUILLER", 
                "format": "text/plain"
            }
        }, 
        {
            "@id": "https://manifests.teklia.com/HIMANIS/FR5291/words_annotations/http_gallica.bnf.fr_iiif_ark:_12148_btv1b9059263p_f75_full_full_0_native.jpg.json/10/line", 
            "@type": "oa:Annotation", 
            "motivation": "oa:painting", 
            "on": "http://gallica.bnf.fr/iiif/ark:/12148/btv1b9059263p/canvas/f75#xywh=1844,1032,74,167", 
            "resource": {
                "@type": "cnt:ContentAsText", 
                "chars": "EST", 
                "format": "text/plain"
            }
        }, 
        {
            "@id": "https://manifests.teklia.com/HIMANIS/FR5291/words_annotations/http_gallica.bnf.fr_iiif_ark:_12148_btv1b9059263p_f75_full_full_0_native.jpg.json/11/line", 
            "@type": "oa:Annotation", 
            "motivation": "oa:painting", 
            "on": "http://gallica.bnf.fr/iiif/ark:/12148/btv1b9059263p/canvas/f75#xywh=2160,3715,171,160", 
            "resource": {
                "@type": "cnt:ContentAsText", 
                "chars": "SOMME", 
                "format": "text/plain"
            }
        }, 
        {
            "@id": "https://manifests.teklia.com/HIMANIS/FR5291/words_annotations/http_gallica.bnf.fr_iiif_ark:_12148_btv1b9059263p_f75_full_full_0_native.jpg.json/12/line", 
            "@type": "oa:Annotation", 
            "motivation": "oa:painting", 
            "on": "http://gallica.bnf.fr/iiif/ark:/12148/btv1b9059263p/canvas/f75#xywh=1335,3715,281,160", 
            "resource": {
                "@type": "cnt:ContentAsText", 
                "chars": "QUARTIER", 
                "format": "text/plain"
            }
        }, 
        {
            "@id": "https://manifests.teklia.com/HIMANIS/FR5291/words_annotations/http_gallica.bnf.fr_iiif_ark:_12148_btv1b9059263p_f75_full_full_0_native.jpg.json/13/line", 
            "@type": "oa:Annotation", 
            "motivation": "oa:painting", 
            "on": "http://gallica.bnf.fr/iiif/ark:/12148/btv1b9059263p/canvas/f75#xywh=2086,1032,125,167", 
            "resource": {
                "@type": "cnt:ContentAsText", 
                "chars": "MANI", 
                "format": "text/plain"
            }
        }, 
        {
            "@id": "https://manifests.teklia.com/HIMANIS/FR5291/words_annotations/http_gallica.bnf.fr_iiif_ark:_12148_btv1b9059263p_f75_full_full_0_native.jpg.json/14/line", 
            "@type": "oa:Annotation", 
            "motivation": "oa:painting", 
            "on": "http://gallica.bnf.fr/iiif/ark:/12148/btv1b9059263p/canvas/f75#xywh=102,3861,0,33", 
            "resource": {
                "@type": "cnt:ContentAsText", 
                "chars": "J", 
                "format": "text/plain"
            }
        }, 
        {
            "@id": "https://manifests.teklia.com/HIMANIS/FR5291/words_annotations/http_gallica.bnf.fr_iiif_ark:_12148_btv1b9059263p_f75_full_full_0_native.jpg.json/15/line", 
            "@type": "oa:Annotation", 
            "motivation": "oa:painting", 
            "on": "http://gallica.bnf.fr/iiif/ark:/12148/btv1b9059263p/canvas/f75#xywh=2294,566,0,236", 
            "resource": {
                "@type": "cnt:ContentAsText", 
                "chars": "A", 
                "format": "text/plain"
            }
        }, 
        {
            "@id": "https://manifests.teklia.com/HIMANIS/FR5291/words_annotations/http_gallica.bnf.fr_iiif_ark:_12148_btv1b9059263p_f75_full_full_0_native.jpg.json/16/line", 
            "@type": "oa:Annotation", 
            "motivation": "oa:painting", 
            "on": "http://gallica.bnf.fr/iiif/ark:/12148/btv1b9059263p/canvas/f75#xywh=2334,896,401,168", 
            "resource": {
                "@type": "cnt:ContentAsText", 
                "chars": "TANQUARUILLE", 
                "format": "text/plain"
            }
        }, 
        {
            "@id": "https://manifests.teklia.com/HIMANIS/FR5291/words_annotations/http_gallica.bnf.fr_iiif_ark:_12148_btv1b9059263p_f75_full_full_0_native.jpg.json/17/line", 
            "@type": "oa:Annotation", 
            "motivation": "oa:painting", 
            "on": "http://gallica.bnf.fr/iiif/ark:/12148/btv1b9059263p/canvas/f75#xywh=1624,1032,63,167", 
            "resource": {
                "@type": "cnt:ContentAsText", 
                "chars": "FIE", 
                "format": "text/plain"
            }
        }, 
        {
            "@id": "https://manifests.teklia.com/HIMANIS/FR5291/words_annotations/http_gallica.bnf.fr_iiif_ark:_12148_btv1b9059263p_f75_full_full_0_native.jpg.json/18/line", 
            "@type": "oa:Annotation", 
            "motivation": "oa:painting", 
            "on": "http://gallica.bnf.fr/iiif/ark:/12148/btv1b9059263p/canvas/f75#xywh=1076,3980,157,147", 
            "resource": {
                "@type": "cnt:ContentAsText", 
                "chars": "RASTEL", 
                "format": "text/plain"
            }
        }, 
        {
            "@id": "https://manifests.teklia.com/HIMANIS/FR5291/words_annotations/http_gallica.bnf.fr_iiif_ark:_12148_btv1b9059263p_f75_full_full_0_native.jpg.json/19/line", 
            "@type": "oa:Annotation", 
            "motivation": "oa:painting", 
            "on": "http://gallica.bnf.fr/iiif/ark:/12148/btv1b9059263p/canvas/f75#xywh=1465,566,459,236", 
            "resource": {
                "@type": "cnt:ContentAsText", 
                "chars": "L'AVILLE", 
                "format": "text/plain"
            }
        }, 
        {
            "@id": "https://manifests.teklia.com/HIMANIS/FR5291/words_annotations/http_gallica.bnf.fr_iiif_ark:_12148_btv1b9059263p_f75_full_full_0_native.jpg.json/20/line", 
            "@type": "oa:Annotation", 
            "motivation": "oa:painting", 
            "on": "http://gallica.bnf.fr/iiif/ark:/12148/btv1b9059263p/canvas/f75#xywh=2101,566,89,236", 
            "resource": {
                "@type": "cnt:ContentAsText", 
                "chars": "SI", 
                "format": "text/plain"
            }
        }, 
        {
            "@id": "https://manifests.teklia.com/HIMANIS/FR5291/words_annotations/http_gallica.bnf.fr_iiif_ark:_12148_btv1b9059263p_f75_full_full_0_native.jpg.json/21/line", 
            "@type": "oa:Annotation", 
            "motivation": "oa:painting", 
            "on": "http://gallica.bnf.fr/iiif/ark:/12148/btv1b9059263p/canvas/f75#xywh=1157,1685,150,159", 
            "resource": {
                "@type": "cnt:ContentAsText", 
                "chars": "TORQUE", 
                "format": "text/plain"
            }
        }, 
        {
            "@id": "https://manifests.teklia.com/HIMANIS/FR5291/words_annotations/http_gallica.bnf.fr_iiif_ark:_12148_btv1b9059263p_f75_full_full_0_native.jpg.json/22/line", 
            "@type": "oa:Annotation", 
            "motivation": "oa:painting", 
            "on": "http://gallica.bnf.fr/iiif/ark:/12148/btv1b9059263p/canvas/f75#xywh=815,2234,206,164", 
            "resource": {
                "@type": "cnt:ContentAsText", 
                "chars": "JEHES", 
                "format": "text/plain"
            }
        }, 
        {
            "@id": "https://manifests.teklia.com/HIMANIS/FR5291/words_annotations/http_gallica.bnf.fr_iiif_ark:_12148_btv1b9059263p_f75_full_full_0_native.jpg.json/23/line", 
            "@type": "oa:Annotation", 
            "motivation": "oa:painting", 
            "on": "http://gallica.bnf.fr/iiif/ark:/12148/btv1b9059263p/canvas/f75#xywh=2752,2731,63,203", 
            "resource": {
                "@type": "cnt:ContentAsText", 
                "chars": "IL", 
                "format": "text/plain"
            }
        }, 
        {
            "@id": "https://manifests.teklia.com/HIMANIS/FR5291/words_annotations/http_gallica.bnf.fr_iiif_ark:_12148_btv1b9059263p_f75_full_full_0_native.jpg.json/24/line", 
            "@type": "oa:Annotation", 
            "motivation": "oa:painting", 
            "on": "http://gallica.bnf.fr/iiif/ark:/12148/btv1b9059263p/canvas/f75#xywh=1586,1685,140,159", 
            "resource": {
                "@type": "cnt:ContentAsText", 
                "chars": "DEMI", 
                "format": "text/plain"
            }
        }, 
        {
            "@id": "https://manifests.teklia.com/HIMANIS/FR5291/words_annotations/http_gallica.bnf.fr_iiif_ark:_12148_btv1b9059263p_f75_full_full_0_native.jpg.json/25/line", 
            "@type": "oa:Annotation", 
            "motivation": "oa:painting", 
            "on": "http://gallica.bnf.fr/iiif/ark:/12148/btv1b9059263p/canvas/f75#xywh=2039,2731,38,203", 
            "resource": {
                "@type": "cnt:ContentAsText", 
                "chars": "ET", 
                "format": "text/plain"
            }
        }, 
        {
            "@id": "https://manifests.teklia.com/HIMANIS/FR5291/words_annotations/http_gallica.bnf.fr_iiif_ark:_12148_btv1b9059263p_f75_full_full_0_native.jpg.json/26/line", 
            "@type": "oa:Annotation", 
            "motivation": "oa:painting", 
            "on": "http://gallica.bnf.fr/iiif/ark:/12148/btv1b9059263p/canvas/f75#xywh=1532,896,158,168", 
            "resource": {
                "@type": "cnt:ContentAsText", 
                "chars": "TIENT", 
                "format": "text/plain"
            }
        }, 
        {
            "@id": "https://manifests.teklia.com/HIMANIS/FR5291/words_annotations/http_gallica.bnf.fr_iiif_ark:_12148_btv1b9059263p_f75_full_full_0_native.jpg.json/27/line", 
            "@type": "oa:Annotation", 
            "motivation": "oa:painting", 
            "on": "http://gallica.bnf.fr/iiif/ark:/12148/btv1b9059263p/canvas/f75#xywh=1240,1427,85,123", 
            "resource": {
                "@type": "cnt:ContentAsText", 
                "chars": "D'UN", 
                "format": "text/plain"
            }
        }, 
        {
            "@id": "https://manifests.teklia.com/HIMANIS/FR5291/words_annotations/http_gallica.bnf.fr_iiif_ark:_12148_btv1b9059263p_f75_full_full_0_native.jpg.json/28/line", 
            "@type": "oa:Annotation", 
            "motivation": "oa:painting", 
            "on": "http://gallica.bnf.fr/iiif/ark:/12148/btv1b9059263p/canvas/f75#xywh=1691,2234,61,164", 
            "resource": {
                "@type": "cnt:ContentAsText", 
                "chars": "ET", 
                "format": "text/plain"
            }
        }, 
        {
            "@id": "https://manifests.teklia.com/HIMANIS/FR5291/words_annotations/http_gallica.bnf.fr_iiif_ark:_12148_btv1b9059263p_f75_full_full_0_native.jpg.json/29/line", 
            "@type": "oa:Annotation", 
            "motivation": "oa:painting", 
            "on": "http://gallica.bnf.fr/iiif/ark:/12148/btv1b9059263p/canvas/f75#xywh=2314,4773,198,106", 
            "resource": {
                "@type": "cnt:ContentAsText", 
                "chars": "DE", 
                "format": "text/plain"
            }
        }, 
        {
            "@id": "https://manifests.teklia.com/HIMANIS/FR5291/words_annotations/http_gallica.bnf.fr_iiif_ark:_12148_btv1b9059263p_f75_full_full_0_native.jpg.json/30/line", 
            "@type": "oa:Annotation", 
            "motivation": "oa:painting", 
            "on": "http://gallica.bnf.fr/iiif/ark:/12148/btv1b9059263p/canvas/f75#xywh=1767,1951,281,140", 
            "resource": {
                "@type": "cnt:ContentAsText", 
                "chars": "QUARTIER", 
                "format": "text/plain"
            }
        }, 
        {
            "@id": "https://manifests.teklia.com/HIMANIS/FR5291/words_annotations/http_gallica.bnf.fr_iiif_ark:_12148_btv1b9059263p_f75_full_full_0_native.jpg.json/31/line", 
            "@type": "oa:Annotation", 
            "motivation": "oa:painting", 
            "on": "http://gallica.bnf.fr/iiif/ark:/12148/btv1b9059263p/canvas/f75#xywh=976,566,89,236", 
            "resource": {
                "@type": "cnt:ContentAsText", 
                "chars": "FAIT", 
                "format": "text/plain"
            }
        }, 
        {
            "@id": "https://manifests.teklia.com/HIMANIS/FR5291/words_annotations/http_gallica.bnf.fr_iiif_ark:_12148_btv1b9059263p_f75_full_full_0_native.jpg.json/32/line", 
            "@type": "oa:Annotation", 
            "motivation": "oa:painting", 
            "on": "http://gallica.bnf.fr/iiif/ark:/12148/btv1b9059263p/canvas/f75#xywh=1411,3143,158,149", 
            "resource": {
                "@type": "cnt:ContentAsText", 
                "chars": "COURT", 
                "format": "text/plain"
            }
        }, 
        {
            "@id": "https://manifests.teklia.com/HIMANIS/FR5291/words_annotations/http_gallica.bnf.fr_iiif_ark:_12148_btv1b9059263p_f75_full_full_0_native.jpg.json/33/line", 
            "@type": "oa:Annotation", 
            "motivation": "oa:painting", 
            "on": "http://gallica.bnf.fr/iiif/ark:/12148/btv1b9059263p/canvas/f75#xywh=805,2731,153,203", 
            "resource": {
                "@type": "cnt:ContentAsText", 
                "chars": "PHILIPPES", 
                "format": "text/plain"
            }
        }, 
        {
            "@id": "https://manifests.teklia.com/HIMANIS/FR5291/words_annotations/http_gallica.bnf.fr_iiif_ark:_12148_btv1b9059263p_f75_full_full_0_native.jpg.json/34/line", 
            "@type": "oa:Annotation", 
            "motivation": "oa:painting", 
            "on": "http://gallica.bnf.fr/iiif/ark:/12148/btv1b9059263p/canvas/f75#xywh=1685,3980,0,147", 
            "resource": {
                "@type": "cnt:ContentAsText", 
                "chars": "A", 
                "format": "text/plain"
            }
        }, 
        {
            "@id": "https://manifests.teklia.com/HIMANIS/FR5291/words_annotations/http_gallica.bnf.fr_iiif_ark:_12148_btv1b9059263p_f75_full_full_0_native.jpg.json/35/line", 
            "@type": "oa:Annotation", 
            "motivation": "oa:painting", 
            "on": "http://gallica.bnf.fr/iiif/ark:/12148/btv1b9059263p/canvas/f75#xywh=1037,3439,219,140", 
            "resource": {
                "@type": "cnt:ContentAsText", 
                "chars": "RABATE", 
                "format": "text/plain"
            }
        }, 
        {
            "@id": "https://manifests.teklia.com/HIMANIS/FR5291/words_annotations/http_gallica.bnf.fr_iiif_ark:_12148_btv1b9059263p_f75_full_full_0_native.jpg.json/36/line", 
            "@type": "oa:Annotation", 
            "motivation": "oa:painting", 
            "on": "http://gallica.bnf.fr/iiif/ark:/12148/btv1b9059263p/canvas/f75#xywh=1403,2731,127,203", 
            "resource": {
                "@type": "cnt:ContentAsText", 
                "chars": "FIEZ", 
                "format": "text/plain"
            }
        }, 
        {
            "@id": "https://manifests.teklia.com/HIMANIS/FR5291/words_annotations/http_gallica.bnf.fr_iiif_ark:_12148_btv1b9059263p_f75_full_full_0_native.jpg.json/37/line", 
            "@type": "oa:Annotation", 
            "motivation": "oa:painting", 
            "on": "http://gallica.bnf.fr/iiif/ark:/12148/btv1b9059263p/canvas/f75#xywh=1270,3980,0,147", 
            "resource": {
                "@type": "cnt:ContentAsText", 
                "chars": "J", 
                "format": "text/plain"
            }
        }, 
        {
            "@id": "https://manifests.teklia.com/HIMANIS/FR5291/words_annotations/http_gallica.bnf.fr_iiif_ark:_12148_btv1b9059263p_f75_full_full_0_native.jpg.json/38/line", 
            "@type": "oa:Annotation", 
            "motivation": "oa:painting", 
            "on": "http://gallica.bnf.fr/iiif/ark:/12148/btv1b9059263p/canvas/f75#xywh=1656,2468,81,183", 
            "resource": {
                "@type": "cnt:ContentAsText", 
                "chars": "UN", 
                "format": "text/plain"
            }
        }, 
        {
            "@id": "https://manifests.teklia.com/HIMANIS/FR5291/words_annotations/http_gallica.bnf.fr_iiif_ark:_12148_btv1b9059263p_f75_full_full_0_native.jpg.json/39/line", 
            "@type": "oa:Annotation", 
            "motivation": "oa:painting", 
            "on": "http://gallica.bnf.fr/iiif/ark:/12148/btv1b9059263p/canvas/f75#xywh=232,2468,816,183", 
            "resource": {
                "@type": "cnt:ContentAsText", 
                "chars": "HENRI", 
                "format": "text/plain"
            }
        }, 
        {
            "@id": "https://manifests.teklia.com/HIMANIS/FR5291/words_annotations/http_gallica.bnf.fr_iiif_ark:_12148_btv1b9059263p_f75_full_full_0_native.jpg.json/40/line", 
            "@type": "oa:Annotation", 
            "motivation": "oa:painting", 
            "on": "http://gallica.bnf.fr/iiif/ark:/12148/btv1b9059263p/canvas/f75#xywh=1210,2938,64,85", 
            "resource": {
                "@type": "cnt:ContentAsText", 
                "chars": "D'UN", 
                "format": "text/plain"
            }
        }, 
        {
            "@id": "https://manifests.teklia.com/HIMANIS/FR5291/words_annotations/http_gallica.bnf.fr_iiif_ark:_12148_btv1b9059263p_f75_full_full_0_native.jpg.json/41/line", 
            "@type": "oa:Annotation", 
            "motivation": "oa:painting", 
            "on": "http://gallica.bnf.fr/iiif/ark:/12148/btv1b9059263p/canvas/f75#xywh=2012,1032,42,167", 
            "resource": {
                "@type": "cnt:ContentAsText", 
                "chars": "LA", 
                "format": "text/plain"
            }
        }, 
        {
            "@id": "https://manifests.teklia.com/HIMANIS/FR5291/words_annotations/http_gallica.bnf.fr_iiif_ark:_12148_btv1b9059263p_f75_full_full_0_native.jpg.json/42/line", 
            "@type": "oa:Annotation", 
            "motivation": "oa:painting", 
            "on": "http://gallica.bnf.fr/iiif/ark:/12148/btv1b9059263p/canvas/f75#xywh=2253,1032,63,167", 
            "resource": {
                "@type": "cnt:ContentAsText", 
                "chars": "DU", 
                "format": "text/plain"
            }
        }, 
        {
            "@id": "https://manifests.teklia.com/HIMANIS/FR5291/words_annotations/http_gallica.bnf.fr_iiif_ark:_12148_btv1b9059263p_f75_full_full_0_native.jpg.json/43/line", 
            "@type": "oa:Annotation", 
            "motivation": "oa:painting", 
            "on": "http://gallica.bnf.fr/iiif/ark:/12148/btv1b9059263p/canvas/f75#xywh=3004,3715,51,160", 
            "resource": {
                "@type": "cnt:ContentAsText", 
                "chars": "SA", 
                "format": "text/plain"
            }
        }, 
        {
            "@id": "https://manifests.teklia.com/HIMANIS/FR5291/words_annotations/http_gallica.bnf.fr_iiif_ark:_12148_btv1b9059263p_f75_full_full_0_native.jpg.json/44/line", 
            "@type": "oa:Annotation", 
            "motivation": "oa:painting", 
            "on": "http://gallica.bnf.fr/iiif/ark:/12148/btv1b9059263p/canvas/f75#xywh=2054,3143,28,149", 
            "resource": {
                "@type": "cnt:ContentAsText", 
                "chars": "AU", 
                "format": "text/plain"
            }
        }, 
        {
            "@id": "https://manifests.teklia.com/HIMANIS/FR5291/words_annotations/http_gallica.bnf.fr_iiif_ark:_12148_btv1b9059263p_f75_full_full_0_native.jpg.json/45/line", 
            "@type": "oa:Annotation", 
            "motivation": "oa:painting", 
            "on": "http://gallica.bnf.fr/iiif/ark:/12148/btv1b9059263p/canvas/f75#xywh=1134,1277,44,178", 
            "resource": {
                "@type": "cnt:ContentAsText", 
                "chars": "DE", 
                "format": "text/plain"
            }
        }, 
        {
            "@id": "https://manifests.teklia.com/HIMANIS/FR5291/words_annotations/http_gallica.bnf.fr_iiif_ark:_12148_btv1b9059263p_f75_full_full_0_native.jpg.json/46/line", 
            "@type": "oa:Annotation", 
            "motivation": "oa:painting", 
            "on": "http://gallica.bnf.fr/iiif/ark:/12148/btv1b9059263p/canvas/f75#xywh=818,1951,211,140", 
            "resource": {
                "@type": "cnt:ContentAsText", 
                "chars": "HELIES", 
                "format": "text/plain"
            }
        }, 
        {
            "@id": "https://manifests.teklia.com/HIMANIS/FR5291/words_annotations/http_gallica.bnf.fr_iiif_ark:_12148_btv1b9059263p_f75_full_full_0_native.jpg.json/47/line", 
            "@type": "oa:Annotation", 
            "motivation": "oa:painting", 
            "on": "http://gallica.bnf.fr/iiif/ark:/12148/btv1b9059263p/canvas/f75#xywh=1028,2938,64,85", 
            "resource": {
                "@type": "cnt:ContentAsText", 
                "chars": "QUE", 
                "format": "text/plain"
            }
        }, 
        {
            "@id": "https://manifests.teklia.com/HIMANIS/FR5291/words_annotations/http_gallica.bnf.fr_iiif_ark:_12148_btv1b9059263p_f75_full_full_0_native.jpg.json/48/line", 
            "@type": "oa:Annotation", 
            "motivation": "oa:painting", 
            "on": "http://gallica.bnf.fr/iiif/ark:/12148/btv1b9059263p/canvas/f75#xywh=1747,3439,0,140", 
            "resource": {
                "@type": "cnt:ContentAsText", 
                "chars": "A", 
                "format": "text/plain"
            }
        }, 
        {
            "@id": "https://manifests.teklia.com/HIMANIS/FR5291/words_annotations/http_gallica.bnf.fr_iiif_ark:_12148_btv1b9059263p_f75_full_full_0_native.jpg.json/49/line", 
            "@type": "oa:Annotation", 
            "motivation": "oa:painting", 
            "on": "http://gallica.bnf.fr/iiif/ark:/12148/btv1b9059263p/canvas/f75#xywh=1465,566,473,236", 
            "resource": {
                "@type": "cnt:ContentAsText", 
                "chars": "L'ABBAILLE", 
                "format": "text/plain"
            }
        }, 
        {
            "@id": "https://manifests.teklia.com/HIMANIS/FR5291/words_annotations/http_gallica.bnf.fr_iiif_ark:_12148_btv1b9059263p_f75_full_full_0_native.jpg.json/50/line", 
            "@type": "oa:Annotation", 
            "motivation": "oa:painting", 
            "on": "http://gallica.bnf.fr/iiif/ark:/12148/btv1b9059263p/canvas/f75#xywh=1794,2234,247,164", 
            "resource": {
                "@type": "cnt:ContentAsText", 
                "chars": "DIESSELIN", 
                "format": "text/plain"
            }
        }, 
        {
            "@id": "https://manifests.teklia.com/HIMANIS/FR5291/words_annotations/http_gallica.bnf.fr_iiif_ark:_12148_btv1b9059263p_f75_full_full_0_native.jpg.json/51/line", 
            "@type": "oa:Annotation", 
            "motivation": "oa:painting", 
            "on": "http://gallica.bnf.fr/iiif/ark:/12148/btv1b9059263p/canvas/f75#xywh=1812,1427,54,123", 
            "resource": {
                "@type": "cnt:ContentAsText", 
                "chars": "DU", 
                "format": "text/plain"
            }
        }, 
        {
            "@id": "https://manifests.teklia.com/HIMANIS/FR5291/words_annotations/http_gallica.bnf.fr_iiif_ark:_12148_btv1b9059263p_f75_full_full_0_native.jpg.json/52/line", 
            "@type": "oa:Annotation", 
            "motivation": "oa:painting", 
            "on": "http://gallica.bnf.fr/iiif/ark:/12148/btv1b9059263p/canvas/f75#xywh=832,1277,257,178", 
            "resource": {
                "@type": "cnt:ContentAsText", 
                "chars": "CUSTACE", 
                "format": "text/plain"
            }
        }, 
        {
            "@id": "https://manifests.teklia.com/HIMANIS/FR5291/words_annotations/http_gallica.bnf.fr_iiif_ark:_12148_btv1b9059263p_f75_full_full_0_native.jpg.json/53/line", 
            "@type": "oa:Annotation", 
            "motivation": "oa:painting", 
            "on": "http://gallica.bnf.fr/iiif/ark:/12148/btv1b9059263p/canvas/f75#xywh=1073,1951,61,140", 
            "resource": {
                "@type": "cnt:ContentAsText", 
                "chars": "DE", 
                "format": "text/plain"
            }
        }, 
        {
            "@id": "https://manifests.teklia.com/HIMANIS/FR5291/words_annotations/http_gallica.bnf.fr_iiif_ark:_12148_btv1b9059263p_f75_full_full_0_native.jpg.json/54/line", 
            "@type": "oa:Annotation", 
            "motivation": "oa:painting", 
            "on": "http://gallica.bnf.fr/iiif/ark:/12148/btv1b9059263p/canvas/f75#xywh=2873,896,63,168", 
            "resource": {
                "@type": "cnt:ContentAsText", 
                "chars": "FIE", 
                "format": "text/plain"
            }
        }, 
        {
            "@id": "https://manifests.teklia.com/HIMANIS/FR5291/words_annotations/http_gallica.bnf.fr_iiif_ark:_12148_btv1b9059263p_f75_full_full_0_native.jpg.json/55/line", 
            "@type": "oa:Annotation", 
            "motivation": "oa:painting", 
            "on": "http://gallica.bnf.fr/iiif/ark:/12148/btv1b9059263p/canvas/f75#xywh=820,2938,155,85", 
            "resource": {
                "@type": "cnt:ContentAsText", 
                "chars": "ANCE", 
                "format": "text/plain"
            }
        }, 
        {
            "@id": "https://manifests.teklia.com/HIMANIS/FR5291/words_annotations/http_gallica.bnf.fr_iiif_ark:_12148_btv1b9059263p_f75_full_full_0_native.jpg.json/56/line", 
            "@type": "oa:Annotation", 
            "motivation": "oa:painting", 
            "on": "http://gallica.bnf.fr/iiif/ark:/12148/btv1b9059263p/canvas/f75#xywh=828,566,118,236", 
            "resource": {
                "@type": "cnt:ContentAsText", 
                "chars": "LES", 
                "format": "text/plain"
            }
        }, 
        {
            "@id": "https://manifests.teklia.com/HIMANIS/FR5291/words_annotations/http_gallica.bnf.fr_iiif_ark:_12148_btv1b9059263p_f75_full_full_0_native.jpg.json/57/line", 
            "@type": "oa:Annotation", 
            "motivation": "oa:painting", 
            "on": "http://gallica.bnf.fr/iiif/ark:/12148/btv1b9059263p/canvas/f75#xywh=1077,1685,50,159", 
            "resource": {
                "@type": "cnt:ContentAsText", 
                "chars": "DE", 
                "format": "text/plain"
            }
        }, 
        {
            "@id": "https://manifests.teklia.com/HIMANIS/FR5291/words_annotations/http_gallica.bnf.fr_iiif_ark:_12148_btv1b9059263p_f75_full_full_0_native.jpg.json/58/line", 
            "@type": "oa:Annotation", 
            "motivation": "oa:painting", 
            "on": "http://gallica.bnf.fr/iiif/ark:/12148/btv1b9059263p/canvas/f75#xywh=1270,3980,351,147", 
            "resource": {
                "@type": "cnt:ContentAsText", 
                "chars": "QUARTIER", 
                "format": "text/plain"
            }
        }, 
        {
            "@id": "https://manifests.teklia.com/HIMANIS/FR5291/words_annotations/http_gallica.bnf.fr_iiif_ark:_12148_btv1b9059263p_f75_full_full_0_native.jpg.json/59/line", 
            "@type": "oa:Annotation", 
            "motivation": "oa:painting", 
            "on": "http://gallica.bnf.fr/iiif/ark:/12148/btv1b9059263p/canvas/f75#xywh=218,890,75,40", 
            "resource": {
                "@type": "cnt:ContentAsText", 
                "chars": "DE", 
                "format": "text/plain"
            }
        }, 
        {
            "@id": "https://manifests.teklia.com/HIMANIS/FR5291/words_annotations/http_gallica.bnf.fr_iiif_ark:_12148_btv1b9059263p_f75_full_full_0_native.jpg.json/60/line", 
            "@type": "oa:Annotation", 
            "motivation": "oa:painting", 
            "on": "http://gallica.bnf.fr/iiif/ark:/12148/btv1b9059263p/canvas/f75#xywh=1607,3143,0,149", 
            "resource": {
                "@type": "cnt:ContentAsText", 
                "chars": "J", 
                "format": "text/plain"
            }
        }, 
        {
            "@id": "https://manifests.teklia.com/HIMANIS/FR5291/words_annotations/http_gallica.bnf.fr_iiif_ark:_12148_btv1b9059263p_f75_full_full_0_native.jpg.json/61/line", 
            "@type": "oa:Annotation", 
            "motivation": "oa:painting", 
            "on": "http://gallica.bnf.fr/iiif/ark:/12148/btv1b9059263p/canvas/f75#xywh=2350,1277,134,178", 
            "resource": {
                "@type": "cnt:ContentAsText", 
                "chars": "QU\u2019IL", 
                "format": "text/plain"
            }
        }, 
        {
            "@id": "https://manifests.teklia.com/HIMANIS/FR5291/words_annotations/http_gallica.bnf.fr_iiif_ark:_12148_btv1b9059263p_f75_full_full_0_native.jpg.json/62/line", 
            "@type": "oa:Annotation", 
            "motivation": "oa:painting", 
            "on": "http://gallica.bnf.fr/iiif/ark:/12148/btv1b9059263p/canvas/f75#xywh=2395,1685,60,159", 
            "resource": {
                "@type": "cnt:ContentAsText", 
                "chars": "DU", 
                "format": "text/plain"
            }
        }, 
        {
            "@id": "https://manifests.teklia.com/HIMANIS/FR5291/words_annotations/http_gallica.bnf.fr_iiif_ark:_12148_btv1b9059263p_f75_full_full_0_native.jpg.json/63/line", 
            "@type": "oa:Annotation", 
            "motivation": "oa:painting", 
            "on": "http://gallica.bnf.fr/iiif/ark:/12148/btv1b9059263p/canvas/f75#xywh=817,433,381,169", 
            "resource": {
                "@type": "cnt:ContentAsText", 
                "chars": "DU", 
                "format": "text/plain"
            }
        }, 
        {
            "@id": "https://manifests.teklia.com/HIMANIS/FR5291/words_annotations/http_gallica.bnf.fr_iiif_ark:_12148_btv1b9059263p_f75_full_full_0_native.jpg.json/64/line", 
            "@type": "oa:Annotation", 
            "motivation": "oa:painting", 
            "on": "http://gallica.bnf.fr/iiif/ark:/12148/btv1b9059263p/canvas/f75#xywh=808,1685,210,159", 
            "resource": {
                "@type": "cnt:ContentAsText", 
                "chars": "ROBIN", 
                "format": "text/plain"
            }
        }, 
        {
            "@id": "https://manifests.teklia.com/HIMANIS/FR5291/words_annotations/http_gallica.bnf.fr_iiif_ark:_12148_btv1b9059263p_f75_full_full_0_native.jpg.json/65/line", 
            "@type": "oa:Annotation", 
            "motivation": "oa:painting", 
            "on": "http://gallica.bnf.fr/iiif/ark:/12148/btv1b9059263p/canvas/f75#xywh=2398,566,74,236", 
            "resource": {
                "@type": "cnt:ContentAsText", 
                "chars": "LA", 
                "format": "text/plain"
            }
        }, 
        {
            "@id": "https://manifests.teklia.com/HIMANIS/FR5291/words_annotations/http_gallica.bnf.fr_iiif_ark:_12148_btv1b9059263p_f75_full_full_0_native.jpg.json/66/line", 
            "@type": "oa:Annotation", 
            "motivation": "oa:painting", 
            "on": "http://gallica.bnf.fr/iiif/ark:/12148/btv1b9059263p/canvas/f75#xywh=1078,896,52,168", 
            "resource": {
                "@type": "cnt:ContentAsText", 
                "chars": "DE", 
                "format": "text/plain"
            }
        }, 
        {
            "@id": "https://manifests.teklia.com/HIMANIS/FR5291/words_annotations/http_gallica.bnf.fr_iiif_ark:_12148_btv1b9059263p_f75_full_full_0_native.jpg.json/67/line", 
            "@type": "oa:Annotation", 
            "motivation": "oa:painting", 
            "on": "http://gallica.bnf.fr/iiif/ark:/12148/btv1b9059263p/canvas/f75#xywh=2334,896,401,168", 
            "resource": {
                "@type": "cnt:ContentAsText", 
                "chars": "SANQUARUILLE", 
                "format": "text/plain"
            }
        }, 
        {
            "@id": "https://manifests.teklia.com/HIMANIS/FR5291/words_annotations/http_gallica.bnf.fr_iiif_ark:_12148_btv1b9059263p_f75_full_full_0_native.jpg.json/68/line", 
            "@type": "oa:Annotation", 
            "motivation": "oa:painting", 
            "on": "http://gallica.bnf.fr/iiif/ark:/12148/btv1b9059263p/canvas/f75#xywh=2884,3715,90,160", 
            "resource": {
                "@type": "cnt:ContentAsText", 
                "chars": "QUEL", 
                "format": "text/plain"
            }
        }, 
        {
            "@id": "https://manifests.teklia.com/HIMANIS/FR5291/words_annotations/http_gallica.bnf.fr_iiif_ark:_12148_btv1b9059263p_f75_full_full_0_native.jpg.json/69/line", 
            "@type": "oa:Annotation", 
            "motivation": "oa:painting", 
            "on": "http://gallica.bnf.fr/iiif/ark:/12148/btv1b9059263p/canvas/f75#xywh=2115,2731,89,203", 
            "resource": {
                "@type": "cnt:ContentAsText", 
                "chars": "NE", 
                "format": "text/plain"
            }
        }, 
        {
            "@id": "https://manifests.teklia.com/HIMANIS/FR5291/words_annotations/http_gallica.bnf.fr_iiif_ark:_12148_btv1b9059263p_f75_full_full_0_native.jpg.json/70/line", 
            "@type": "oa:Annotation", 
            "motivation": "oa:painting", 
            "on": "http://gallica.bnf.fr/iiif/ark:/12148/btv1b9059263p/canvas/f75#xywh=1200,1277,279,178", 
            "resource": {
                "@type": "cnt:ContentAsText", 
                "chars": "COSSANCES", 
                "format": "text/plain"
            }
        }, 
        {
            "@id": "https://manifests.teklia.com/HIMANIS/FR5291/words_annotations/http_gallica.bnf.fr_iiif_ark:_12148_btv1b9059263p_f75_full_full_0_native.jpg.json/71/line", 
            "@type": "oa:Annotation", 
            "motivation": "oa:painting", 
            "on": "http://gallica.bnf.fr/iiif/ark:/12148/btv1b9059263p/canvas/f75#xywh=1743,896,63,168", 
            "resource": {
                "@type": "cnt:ContentAsText", 
                "chars": "DU", 
                "format": "text/plain"
            }
        }, 
        {
            "@id": "https://manifests.teklia.com/HIMANIS/FR5291/words_annotations/http_gallica.bnf.fr_iiif_ark:_12148_btv1b9059263p_f75_full_full_0_native.jpg.json/72/line", 
            "@type": "oa:Annotation", 
            "motivation": "oa:painting", 
            "on": "http://gallica.bnf.fr/iiif/ark:/12148/btv1b9059263p/canvas/f75#xywh=1200,1277,279,178", 
            "resource": {
                "@type": "cnt:ContentAsText", 
                "chars": "BOSSANCES", 
                "format": "text/plain"
            }
        }, 
        {
            "@id": "https://manifests.teklia.com/HIMANIS/FR5291/words_annotations/http_gallica.bnf.fr_iiif_ark:_12148_btv1b9059263p_f75_full_full_0_native.jpg.json/73/line", 
            "@type": "oa:Annotation", 
            "motivation": "oa:painting", 
            "on": "http://gallica.bnf.fr/iiif/ark:/12148/btv1b9059263p/canvas/f75#xywh=2762,2234,82,164", 
            "resource": {
                "@type": "cnt:ContentAsText", 
                "chars": "FIE", 
                "format": "text/plain"
            }
        }, 
        {
            "@id": "https://manifests.teklia.com/HIMANIS/FR5291/words_annotations/http_gallica.bnf.fr_iiif_ark:_12148_btv1b9059263p_f75_full_full_0_native.jpg.json/74/line", 
            "@type": "oa:Annotation", 
            "motivation": "oa:painting", 
            "on": "http://gallica.bnf.fr/iiif/ark:/12148/btv1b9059263p/canvas/f75#xywh=820,2938,155,85", 
            "resource": {
                "@type": "cnt:ContentAsText", 
                "chars": "AUCE", 
                "format": "text/plain"
            }
        }, 
        {
            "@id": "https://manifests.teklia.com/HIMANIS/FR5291/words_annotations/http_gallica.bnf.fr_iiif_ark:_12148_btv1b9059263p_f75_full_full_0_native.jpg.json/75/line", 
            "@type": "oa:Annotation", 
            "motivation": "oa:painting", 
            "on": "http://gallica.bnf.fr/iiif/ark:/12148/btv1b9059263p/canvas/f75#xywh=1162,896,327,168", 
            "resource": {
                "@type": "cnt:ContentAsText", 
                "chars": "SAINT-YON", 
                "format": "text/plain"
            }
        }, 
        {
            "@id": "https://manifests.teklia.com/HIMANIS/FR5291/words_annotations/http_gallica.bnf.fr_iiif_ark:_12148_btv1b9059263p_f75_full_full_0_native.jpg.json/76/line", 
            "@type": "oa:Annotation", 
            "motivation": "oa:painting", 
            "on": "http://gallica.bnf.fr/iiif/ark:/12148/btv1b9059263p/canvas/f75#xywh=2334,896,370,168", 
            "resource": {
                "@type": "cnt:ContentAsText", 
                "chars": "SANQUARUIL", 
                "format": "text/plain"
            }
        }, 
        {
            "@id": "https://manifests.teklia.com/HIMANIS/FR5291/words_annotations/http_gallica.bnf.fr_iiif_ark:_12148_btv1b9059263p_f75_full_full_0_native.jpg.json/77/line", 
            "@type": "oa:Annotation", 
            "motivation": "oa:painting", 
            "on": "http://gallica.bnf.fr/iiif/ark:/12148/btv1b9059263p/canvas/f75#xywh=1569,3143,411,149", 
            "resource": {
                "@type": "cnt:ContentAsText", 
                "chars": "QUARTIER", 
                "format": "text/plain"
            }
        }, 
        {
            "@id": "https://manifests.teklia.com/HIMANIS/FR5291/words_annotations/http_gallica.bnf.fr_iiif_ark:_12148_btv1b9059263p_f75_full_full_0_native.jpg.json/78/line", 
            "@type": "oa:Annotation", 
            "motivation": "oa:painting", 
            "on": "http://gallica.bnf.fr/iiif/ark:/12148/btv1b9059263p/canvas/f75#xywh=1859,896,348,168", 
            "resource": {
                "@type": "cnt:ContentAsText", 
                "chars": "CHAMBERIER", 
                "format": "text/plain"
            }
        }, 
        {
            "@id": "https://manifests.teklia.com/HIMANIS/FR5291/words_annotations/http_gallica.bnf.fr_iiif_ark:_12148_btv1b9059263p_f75_full_full_0_native.jpg.json/79/line", 
            "@type": "oa:Annotation", 
            "motivation": "oa:painting", 
            "on": "http://gallica.bnf.fr/iiif/ark:/12148/btv1b9059263p/canvas/f75#xywh=2039,3715,70,160", 
            "resource": {
                "@type": "cnt:ContentAsText", 
                "chars": "FIE", 
                "format": "text/plain"
            }
        }, 
        {
            "@id": "https://manifests.teklia.com/HIMANIS/FR5291/words_annotations/http_gallica.bnf.fr_iiif_ark:_12148_btv1b9059263p_f75_full_full_0_native.jpg.json/80/line", 
            "@type": "oa:Annotation", 
            "motivation": "oa:painting", 
            "on": "http://gallica.bnf.fr/iiif/ark:/12148/btv1b9059263p/canvas/f75#xywh=793,896,232,168", 
            "resource": {
                "@type": "cnt:ContentAsText", 
                "chars": "JEHAN", 
                "format": "text/plain"
            }
        }, 
        {
            "@id": "https://manifests.teklia.com/HIMANIS/FR5291/words_annotations/http_gallica.bnf.fr_iiif_ark:_12148_btv1b9059263p_f75_full_full_0_native.jpg.json/81/line", 
            "@type": "oa:Annotation", 
            "motivation": "oa:painting", 
            "on": "http://gallica.bnf.fr/iiif/ark:/12148/btv1b9059263p/canvas/f75#xywh=1000,1427,186,123", 
            "resource": {
                "@type": "cnt:ContentAsText", 
                "chars": "ACHECA", 
                "format": "text/plain"
            }
        }, 
        {
            "@id": "https://manifests.teklia.com/HIMANIS/FR5291/words_annotations/http_gallica.bnf.fr_iiif_ark:_12148_btv1b9059263p_f75_full_full_0_native.jpg.json/82/line", 
            "@type": "oa:Annotation", 
            "motivation": "oa:painting", 
            "on": "http://gallica.bnf.fr/iiif/ark:/12148/btv1b9059263p/canvas/f75#xywh=1509,1032,63,167", 
            "resource": {
                "@type": "cnt:ContentAsText", 
                "chars": "UN", 
                "format": "text/plain"
            }
        }, 
        {
            "@id": "https://manifests.teklia.com/HIMANIS/FR5291/words_annotations/http_gallica.bnf.fr_iiif_ark:_12148_btv1b9059263p_f75_full_full_0_native.jpg.json/83/line", 
            "@type": "oa:Annotation", 
            "motivation": "oa:painting", 
            "on": "http://gallica.bnf.fr/iiif/ark:/12148/btv1b9059263p/canvas/f75#xywh=1939,1032,42,167", 
            "resource": {
                "@type": "cnt:ContentAsText", 
                "chars": "EN", 
                "format": "text/plain"
            }
        }, 
        {
            "@id": "https://manifests.teklia.com/HIMANIS/FR5291/words_annotations/http_gallica.bnf.fr_iiif_ark:_12148_btv1b9059263p_f75_full_full_0_native.jpg.json/84/line", 
            "@type": "oa:Annotation", 
            "motivation": "oa:painting", 
            "on": "http://gallica.bnf.fr/iiif/ark:/12148/btv1b9059263p/canvas/f75#xywh=1729,1032,84,167", 
            "resource": {
                "@type": "cnt:ContentAsText", 
                "chars": "QUI", 
                "format": "text/plain"
            }
        }, 
        {
            "@id": "https://manifests.teklia.com/HIMANIS/FR5291/words_annotations/http_gallica.bnf.fr_iiif_ark:_12148_btv1b9059263p_f75_full_full_0_native.jpg.json/85/line", 
            "@type": "oa:Annotation", 
            "motivation": "oa:painting", 
            "on": "http://gallica.bnf.fr/iiif/ark:/12148/btv1b9059263p/canvas/f75#xywh=1939,1032,21,167", 
            "resource": {
                "@type": "cnt:ContentAsText", 
                "chars": "ET", 
                "format": "text/plain"
            }
        }, 
        {
            "@id": "https://manifests.teklia.com/HIMANIS/FR5291/words_annotations/http_gallica.bnf.fr_iiif_ark:_12148_btv1b9059263p_f75_full_full_0_native.jpg.json/86/line", 
            "@type": "oa:Annotation", 
            "motivation": "oa:painting", 
            "on": "http://gallica.bnf.fr/iiif/ark:/12148/btv1b9059263p/canvas/f75#xywh=1596,1427,162,123", 
            "resource": {
                "@type": "cnt:ContentAsText", 
                "chars": "TENANT", 
                "format": "text/plain"
            }
        }, 
        {
            "@id": "https://manifests.teklia.com/HIMANIS/FR5291/words_annotations/http_gallica.bnf.fr_iiif_ark:_12148_btv1b9059263p_f75_full_full_0_native.jpg.json/87/line", 
            "@type": "oa:Annotation", 
            "motivation": "oa:painting", 
            "on": "http://gallica.bnf.fr/iiif/ark:/12148/btv1b9059263p/canvas/f75#xywh=815,1427,147,123", 
            "resource": {
                "@type": "cnt:ContentAsText", 
                "chars": "QU'IL", 
                "format": "text/plain"
            }
        }, 
        {
            "@id": "https://manifests.teklia.com/HIMANIS/FR5291/words_annotations/http_gallica.bnf.fr_iiif_ark:_12148_btv1b9059263p_f75_full_full_0_native.jpg.json/88/line", 
            "@type": "oa:Annotation", 
            "motivation": "oa:painting", 
            "on": "http://gallica.bnf.fr/iiif/ark:/12148/btv1b9059263p/canvas/f75#xywh=2833,3715,51,160", 
            "resource": {
                "@type": "cnt:ContentAsText", 
                "chars": "LE", 
                "format": "text/plain"
            }
        }, 
        {
            "@id": "https://manifests.teklia.com/HIMANIS/FR5291/words_annotations/http_gallica.bnf.fr_iiif_ark:_12148_btv1b9059263p_f75_full_full_0_native.jpg.json/89/line", 
            "@type": "oa:Annotation", 
            "motivation": "oa:painting", 
            "on": "http://gallica.bnf.fr/iiif/ark:/12148/btv1b9059263p/canvas/f75#xywh=1677,3715,50,160", 
            "resource": {
                "@type": "cnt:ContentAsText", 
                "chars": "DE", 
                "format": "text/plain"
            }
        }, 
        {
            "@id": "https://manifests.teklia.com/HIMANIS/FR5291/words_annotations/http_gallica.bnf.fr_iiif_ark:_12148_btv1b9059263p_f75_full_full_0_native.jpg.json/90/line", 
            "@type": "oa:Annotation", 
            "motivation": "oa:painting", 
            "on": "http://gallica.bnf.fr/iiif/ark:/12148/btv1b9059263p/canvas/f75#xywh=1157,1685,380,159", 
            "resource": {
                "@type": "cnt:ContentAsText", 
                "chars": "TORQUESTENULLES", 
                "format": "text/plain"
            }
        }, 
        {
            "@id": "https://manifests.teklia.com/HIMANIS/FR5291/words_annotations/http_gallica.bnf.fr_iiif_ark:_12148_btv1b9059263p_f75_full_full_0_native.jpg.json/91/line", 
            "@type": "oa:Annotation", 
            "motivation": "oa:painting", 
            "on": "http://gallica.bnf.fr/iiif/ark:/12148/btv1b9059263p/canvas/f75#xywh=2006,1685,70,159", 
            "resource": {
                "@type": "cnt:ContentAsText", 
                "chars": "EST", 
                "format": "text/plain"
            }
        }, 
        {
            "@id": "https://manifests.teklia.com/HIMANIS/FR5291/words_annotations/http_gallica.bnf.fr_iiif_ark:_12148_btv1b9059263p_f75_full_full_0_native.jpg.json/92/line", 
            "@type": "oa:Annotation", 
            "motivation": "oa:painting", 
            "on": "http://gallica.bnf.fr/iiif/ark:/12148/btv1b9059263p/canvas/f75#xywh=2495,1685,319,159", 
            "resource": {
                "@type": "cnt:ContentAsText", 
                "chars": "CHAMBERIE", 
                "format": "text/plain"
            }
        }, 
        {
            "@id": "https://manifests.teklia.com/HIMANIS/FR5291/words_annotations/http_gallica.bnf.fr_iiif_ark:_12148_btv1b9059263p_f75_full_full_0_native.jpg.json/93/line", 
            "@type": "oa:Annotation", 
            "motivation": "oa:painting", 
            "on": "http://gallica.bnf.fr/iiif/ark:/12148/btv1b9059263p/canvas/f75#xywh=1794,2234,247,164", 
            "resource": {
                "@type": "cnt:ContentAsText", 
                "chars": "CESSELIN", 
                "format": "text/plain"
            }
        }, 
        {
            "@id": "https://manifests.teklia.com/HIMANIS/FR5291/words_annotations/http_gallica.bnf.fr_iiif_ark:_12148_btv1b9059263p_f75_full_full_0_native.jpg.json/94/line", 
            "@type": "oa:Annotation", 
            "motivation": "oa:painting", 
            "on": "http://gallica.bnf.fr/iiif/ark:/12148/btv1b9059263p/canvas/f75#xywh=2195,1685,170,159", 
            "resource": {
                "@type": "cnt:ContentAsText", 
                "chars": "GARDE", 
                "format": "text/plain"
            }
        }, 
        {
            "@id": "https://manifests.teklia.com/HIMANIS/FR5291/words_annotations/http_gallica.bnf.fr_iiif_ark:_12148_btv1b9059263p_f75_full_full_0_native.jpg.json/95/line", 
            "@type": "oa:Annotation", 
            "motivation": "oa:painting", 
            "on": "http://gallica.bnf.fr/iiif/ark:/12148/btv1b9059263p/canvas/f75#xywh=2897,1277,212,178", 
            "resource": {
                "@type": "cnt:ContentAsText", 
                "chars": "ET", 
                "format": "text/plain"
            }
        }, 
        {
            "@id": "https://manifests.teklia.com/HIMANIS/FR5291/words_annotations/http_gallica.bnf.fr_iiif_ark:_12148_btv1b9059263p_f75_full_full_0_native.jpg.json/96/line", 
            "@type": "oa:Annotation", 
            "motivation": "oa:painting", 
            "on": "http://gallica.bnf.fr/iiif/ark:/12148/btv1b9059263p/canvas/f75#xywh=1794,2234,247,164", 
            "resource": {
                "@type": "cnt:ContentAsText", 
                "chars": "TIESSELIN", 
                "format": "text/plain"
            }
        }, 
        {
            "@id": "https://manifests.teklia.com/HIMANIS/FR5291/words_annotations/http_gallica.bnf.fr_iiif_ark:_12148_btv1b9059263p_f75_full_full_0_native.jpg.json/97/line", 
            "@type": "oa:Annotation", 
            "motivation": "oa:painting", 
            "on": "http://gallica.bnf.fr/iiif/ark:/12148/btv1b9059263p/canvas/f75#xywh=1230,433,1598,169", 
            "resource": {
                "@type": "cnt:ContentAsText", 
                "chars": "CHAMBELLANT", 
                "format": "text/plain"
            }
        }, 
        {
            "@id": "https://manifests.teklia.com/HIMANIS/FR5291/words_annotations/http_gallica.bnf.fr_iiif_ark:_12148_btv1b9059263p_f75_full_full_0_native.jpg.json/98/line", 
            "@type": "oa:Annotation", 
            "motivation": "oa:painting", 
            "on": "http://gallica.bnf.fr/iiif/ark:/12148/btv1b9059263p/canvas/f75#xywh=1098,2731,241,203", 
            "resource": {
                "@type": "cnt:ContentAsText", 
                "chars": "BERISII", 
                "format": "text/plain"
            }
        }, 
        {
            "@id": "https://manifests.teklia.com/HIMANIS/FR5291/words_annotations/http_gallica.bnf.fr_iiif_ark:_12148_btv1b9059263p_f75_full_full_0_native.jpg.json/99/line", 
            "@type": "oa:Annotation", 
            "motivation": "oa:painting", 
            "on": "http://gallica.bnf.fr/iiif/ark:/12148/btv1b9059263p/canvas/f75#xywh=1098,2731,241,203", 
            "resource": {
                "@type": "cnt:ContentAsText", 
                "chars": "BERISIN", 
                "format": "text/plain"
            }
        }, 
        {
            "@id": "https://manifests.teklia.com/HIMANIS/FR5291/words_annotations/http_gallica.bnf.fr_iiif_ark:_12148_btv1b9059263p_f75_full_full_0_native.jpg.json/100/line", 
            "@type": "oa:Annotation", 
            "motivation": "oa:painting", 
            "on": "http://gallica.bnf.fr/iiif/ark:/12148/btv1b9059263p/canvas/f75#xywh=1370,3439,289,140", 
            "resource": {
                "@type": "cnt:ContentAsText", 
                "chars": "QUARTIER", 
                "format": "text/plain"
            }
        }, 
        {
            "@id": "https://manifests.teklia.com/HIMANIS/FR5291/words_annotations/http_gallica.bnf.fr_iiif_ark:_12148_btv1b9059263p_f75_full_full_0_native.jpg.json/101/line", 
            "@type": "oa:Annotation", 
            "motivation": "oa:painting", 
            "on": "http://gallica.bnf.fr/iiif/ark:/12148/btv1b9059263p/canvas/f75#xywh=1317,1685,220,159", 
            "resource": {
                "@type": "cnt:ContentAsText", 
                "chars": "TENULLES", 
                "format": "text/plain"
            }
        }, 
        {
            "@id": "https://manifests.teklia.com/HIMANIS/FR5291/words_annotations/http_gallica.bnf.fr_iiif_ark:_12148_btv1b9059263p_f75_full_full_0_native.jpg.json/102/line", 
            "@type": "oa:Annotation", 
            "motivation": "oa:painting", 
            "on": "http://gallica.bnf.fr/iiif/ark:/12148/btv1b9059263p/canvas/f75#xywh=2026,1277,279,178", 
            "resource": {
                "@type": "cnt:ContentAsText", 
                "chars": "QUARTIER", 
                "format": "text/plain"
            }
        }, 
        {
            "@id": "https://manifests.teklia.com/HIMANIS/FR5291/words_annotations/http_gallica.bnf.fr_iiif_ark:_12148_btv1b9059263p_f75_full_full_0_native.jpg.json/103/line", 
            "@type": "oa:Annotation", 
            "motivation": "oa:painting", 
            "on": "http://gallica.bnf.fr/iiif/ark:/12148/btv1b9059263p/canvas/f75#xywh=892,3715,312,160", 
            "resource": {
                "@type": "cnt:ContentAsText", 
                "chars": "ESTABLES", 
                "format": "text/plain"
            }
        }, 
        {
            "@id": "https://manifests.teklia.com/HIMANIS/FR5291/words_annotations/http_gallica.bnf.fr_iiif_ark:_12148_btv1b9059263p_f75_full_full_0_native.jpg.json/104/line", 
            "@type": "oa:Annotation", 
            "motivation": "oa:painting", 
            "on": "http://gallica.bnf.fr/iiif/ark:/12148/btv1b9059263p/canvas/f75#xywh=1657,2731,102,203", 
            "resource": {
                "@type": "cnt:ContentAsText", 
                "chars": "DON", 
                "format": "text/plain"
            }
        }, 
        {
            "@id": "https://manifests.teklia.com/HIMANIS/FR5291/words_annotations/http_gallica.bnf.fr_iiif_ark:_12148_btv1b9059263p_f75_full_full_0_native.jpg.json/105/line", 
            "@type": "oa:Annotation", 
            "motivation": "oa:painting", 
            "on": "http://gallica.bnf.fr/iiif/ark:/12148/btv1b9059263p/canvas/f75#xywh=1776,1685,70,159", 
            "resource": {
                "@type": "cnt:ContentAsText", 
                "chars": "FIE", 
                "format": "text/plain"
            }
        }, 
        {
            "@id": "https://manifests.teklia.com/HIMANIS/FR5291/words_annotations/http_gallica.bnf.fr_iiif_ark:_12148_btv1b9059263p_f75_full_full_0_native.jpg.json/106/line", 
            "@type": "oa:Annotation", 
            "motivation": "oa:painting", 
            "on": "http://gallica.bnf.fr/iiif/ark:/12148/btv1b9059263p/canvas/f75#xywh=1155,2234,216,164", 
            "resource": {
                "@type": "cnt:ContentAsText", 
                "chars": "SAINT-", 
                "format": "text/plain"
            }
        }, 
        {
            "@id": "https://manifests.teklia.com/HIMANIS/FR5291/words_annotations/http_gallica.bnf.fr_iiif_ark:_12148_btv1b9059263p_f75_full_full_0_native.jpg.json/107/line", 
            "@type": "oa:Annotation", 
            "motivation": "oa:painting", 
            "on": "http://gallica.bnf.fr/iiif/ark:/12148/btv1b9059263p/canvas/f75#xywh=2348,1032,84,167", 
            "resource": {
                "@type": "cnt:ContentAsText", 
                "chars": "ROY", 
                "format": "text/plain"
            }
        }, 
        {
            "@id": "https://manifests.teklia.com/HIMANIS/FR5291/words_annotations/http_gallica.bnf.fr_iiif_ark:_12148_btv1b9059263p_f75_full_full_0_native.jpg.json/108/line", 
            "@type": "oa:Annotation", 
            "motivation": "oa:painting", 
            "on": "http://gallica.bnf.fr/iiif/ark:/12148/btv1b9059263p/canvas/f75#xywh=2105,1685,50,159", 
            "resource": {
                "@type": "cnt:ContentAsText", 
                "chars": "EN", 
                "format": "text/plain"
            }
        }, 
        {
            "@id": "https://manifests.teklia.com/HIMANIS/FR5291/words_annotations/http_gallica.bnf.fr_iiif_ark:_12148_btv1b9059263p_f75_full_full_0_native.jpg.json/109/line", 
            "@type": "oa:Annotation", 
            "motivation": "oa:painting", 
            "on": "http://gallica.bnf.fr/iiif/ark:/12148/btv1b9059263p/canvas/f75#xywh=218,890,88,40", 
            "resource": {
                "@type": "cnt:ContentAsText", 
                "chars": "ET", 
                "format": "text/plain"
            }
        }, 
        {
            "@id": "https://manifests.teklia.com/HIMANIS/FR5291/words_annotations/http_gallica.bnf.fr_iiif_ark:_12148_btv1b9059263p_f75_full_full_0_native.jpg.json/110/line", 
            "@type": "oa:Annotation", 
            "motivation": "oa:painting", 
            "on": "http://gallica.bnf.fr/iiif/ark:/12148/btv1b9059263p/canvas/f75#xywh=1200,1277,279,178", 
            "resource": {
                "@type": "cnt:ContentAsText", 
                "chars": "COSANCES", 
                "format": "text/plain"
            }
        }, 
        {
            "@id": "https://manifests.teklia.com/HIMANIS/FR5291/words_annotations/http_gallica.bnf.fr_iiif_ark:_12148_btv1b9059263p_f75_full_full_0_native.jpg.json/111/line", 
            "@type": "oa:Annotation", 
            "motivation": "oa:painting", 
            "on": "http://gallica.bnf.fr/iiif/ark:/12148/btv1b9059263p/canvas/f75#xywh=2757,896,73,168", 
            "resource": {
                "@type": "cnt:ContentAsText", 
                "chars": "UN", 
                "format": "text/plain"
            }
        }, 
        {
            "@id": "https://manifests.teklia.com/HIMANIS/FR5291/words_annotations/http_gallica.bnf.fr_iiif_ark:_12148_btv1b9059263p_f75_full_full_0_native.jpg.json/112/line", 
            "@type": "oa:Annotation", 
            "motivation": "oa:painting", 
            "on": "http://gallica.bnf.fr/iiif/ark:/12148/btv1b9059263p/canvas/f75#xywh=2978,896,53,168", 
            "resource": {
                "@type": "cnt:ContentAsText", 
                "chars": "ET", 
                "format": "text/plain"
            }
        }, 
        {
            "@id": "https://manifests.teklia.com/HIMANIS/FR5291/words_annotations/http_gallica.bnf.fr_iiif_ark:_12148_btv1b9059263p_f75_full_full_0_native.jpg.json/113/line", 
            "@type": "oa:Annotation", 
            "motivation": "oa:painting", 
            "on": "http://gallica.bnf.fr/iiif/ark:/12148/btv1b9059263p/canvas/f75#xywh=2556,2234,144,164", 
            "resource": {
                "@type": "cnt:ContentAsText", 
                "chars": "DEMI", 
                "format": "text/plain"
            }
        }, 
        {
            "@id": "https://manifests.teklia.com/HIMANIS/FR5291/words_annotations/http_gallica.bnf.fr_iiif_ark:_12148_btv1b9059263p_f75_full_full_0_native.jpg.json/114/line", 
            "@type": "oa:Annotation", 
            "motivation": "oa:painting", 
            "on": "http://gallica.bnf.fr/iiif/ark:/12148/btv1b9059263p/canvas/f75#xywh=1747,1277,67,178", 
            "resource": {
                "@type": "cnt:ContentAsText", 
                "chars": "FIE", 
                "format": "text/plain"
            }
        }, 
        {
            "@id": "https://manifests.teklia.com/HIMANIS/FR5291/words_annotations/http_gallica.bnf.fr_iiif_ark:_12148_btv1b9059263p_f75_full_full_0_native.jpg.json/115/line", 
            "@type": "oa:Annotation", 
            "motivation": "oa:painting", 
            "on": "http://gallica.bnf.fr/iiif/ark:/12148/btv1b9059263p/canvas/f75#xywh=2484,2731,51,203", 
            "resource": {
                "@type": "cnt:ContentAsText", 
                "chars": "QUE", 
                "format": "text/plain"
            }
        }, 
        {
            "@id": "https://manifests.teklia.com/HIMANIS/FR5291/words_annotations/http_gallica.bnf.fr_iiif_ark:_12148_btv1b9059263p_f75_full_full_0_native.jpg.json/116/line", 
            "@type": "oa:Annotation", 
            "motivation": "oa:painting", 
            "on": "http://gallica.bnf.fr/iiif/ark:/12148/btv1b9059263p/canvas/f75#xywh=2942,2731,128,203", 
            "resource": {
                "@type": "cnt:ContentAsText", 
                "chars": "FAIT", 
                "format": "text/plain"
            }
        }, 
        {
            "@id": "https://manifests.teklia.com/HIMANIS/FR5291/words_annotations/http_gallica.bnf.fr_iiif_ark:_12148_btv1b9059263p_f75_full_full_0_native.jpg.json/117/line", 
            "@type": "oa:Annotation", 
            "motivation": "oa:painting", 
            "on": "http://gallica.bnf.fr/iiif/ark:/12148/btv1b9059263p/canvas/f75#xywh=2461,3715,292,160", 
            "resource": {
                "@type": "cnt:ContentAsText", 
                "chars": "BEAUMONT", 
                "format": "text/plain"
            }
        }, 
        {
            "@id": "https://manifests.teklia.com/HIMANIS/FR5291/words_annotations/http_gallica.bnf.fr_iiif_ark:_12148_btv1b9059263p_f75_full_full_0_native.jpg.json/118/line", 
            "@type": "oa:Annotation", 
            "motivation": "oa:painting", 
            "on": "http://gallica.bnf.fr/iiif/ark:/12148/btv1b9059263p/canvas/f75#xywh=1154,566,192,236", 
            "resource": {
                "@type": "cnt:ContentAsText", 
                "chars": "LIVRES", 
                "format": "text/plain"
            }
        }, 
        {
            "@id": "https://manifests.teklia.com/HIMANIS/FR5291/words_annotations/http_gallica.bnf.fr_iiif_ark:_12148_btv1b9059263p_f75_full_full_0_native.jpg.json/119/line", 
            "@type": "oa:Annotation", 
            "motivation": "oa:painting", 
            "on": "http://gallica.bnf.fr/iiif/ark:/12148/btv1b9059263p/canvas/f75#xywh=813,3143,224,149", 
            "resource": {
                "@type": "cnt:ContentAsText", 
                "chars": "ROGIER", 
                "format": "text/plain"
            }
        }, 
        {
            "@id": "https://manifests.teklia.com/HIMANIS/FR5291/words_annotations/http_gallica.bnf.fr_iiif_ark:_12148_btv1b9059263p_f75_full_full_0_native.jpg.json/120/line", 
            "@type": "oa:Annotation", 
            "motivation": "oa:painting", 
            "on": "http://gallica.bnf.fr/iiif/ark:/12148/btv1b9059263p/canvas/f75#xywh=1586,1685,90,159", 
            "resource": {
                "@type": "cnt:ContentAsText", 
                "chars": "D'EN", 
                "format": "text/plain"
            }
        }, 
        {
            "@id": "https://manifests.teklia.com/HIMANIS/FR5291/words_annotations/http_gallica.bnf.fr_iiif_ark:_12148_btv1b9059263p_f75_full_full_0_native.jpg.json/121/line", 
            "@type": "oa:Annotation", 
            "motivation": "oa:painting", 
            "on": "http://gallica.bnf.fr/iiif/ark:/12148/btv1b9059263p/canvas/f75#xywh=819,2174,0,50", 
            "resource": {
                "@type": "cnt:ContentAsText", 
                "chars": "J", 
                "format": "text/plain"
            }
        }, 
        {
            "@id": "https://manifests.teklia.com/HIMANIS/FR5291/words_annotations/http_gallica.bnf.fr_iiif_ark:_12148_btv1b9059263p_f75_full_full_0_native.jpg.json/122/line", 
            "@type": "oa:Annotation", 
            "motivation": "oa:painting", 
            "on": "http://gallica.bnf.fr/iiif/ark:/12148/btv1b9059263p/canvas/f75#xywh=1783,2468,126,183", 
            "resource": {
                "@type": "cnt:ContentAsText", 
                "chars": "FIE", 
                "format": "text/plain"
            }
        }, 
        {
            "@id": "https://manifests.teklia.com/HIMANIS/FR5291/words_annotations/http_gallica.bnf.fr_iiif_ark:_12148_btv1b9059263p_f75_full_full_0_native.jpg.json/123/line", 
            "@type": "oa:Annotation", 
            "motivation": "oa:painting", 
            "on": "http://gallica.bnf.fr/iiif/ark:/12148/btv1b9059263p/canvas/f75#xywh=819,2174,0,50", 
            "resource": {
                "@type": "cnt:ContentAsText", 
                "chars": "P", 
                "format": "text/plain"
            }
        }, 
        {
            "@id": "https://manifests.teklia.com/HIMANIS/FR5291/words_annotations/http_gallica.bnf.fr_iiif_ark:_12148_btv1b9059263p_f75_full_full_0_native.jpg.json/124/line", 
            "@type": "oa:Annotation", 
            "motivation": "oa:painting", 
            "on": "http://gallica.bnf.fr/iiif/ark:/12148/btv1b9059263p/canvas/f75#xywh=1155,2234,505,164", 
            "resource": {
                "@type": "cnt:ContentAsText", 
                "chars": "SAINT-SOUPLICE", 
                "format": "text/plain"
            }
        }, 
        {
            "@id": "https://manifests.teklia.com/HIMANIS/FR5291/words_annotations/http_gallica.bnf.fr_iiif_ark:_12148_btv1b9059263p_f75_full_full_0_native.jpg.json/125/line", 
            "@type": "oa:Annotation", 
            "motivation": "oa:painting", 
            "on": "http://gallica.bnf.fr/iiif/ark:/12148/btv1b9059263p/canvas/f75#xywh=3348,896,116,168", 
            "resource": {
                "@type": "cnt:ContentAsText", 
                "chars": "QUI", 
                "format": "text/plain"
            }
        }, 
        {
            "@id": "https://manifests.teklia.com/HIMANIS/FR5291/words_annotations/http_gallica.bnf.fr_iiif_ark:_12148_btv1b9059263p_f75_full_full_0_native.jpg.json/126/line", 
            "@type": "oa:Annotation", 
            "motivation": "oa:painting", 
            "on": "http://gallica.bnf.fr/iiif/ark:/12148/btv1b9059263p/canvas/f75#xywh=1000,1427,186,123", 
            "resource": {
                "@type": "cnt:ContentAsText", 
                "chars": "ACHETA", 
                "format": "text/plain"
            }
        }, 
        {
            "@id": "https://manifests.teklia.com/HIMANIS/FR5291/words_annotations/http_gallica.bnf.fr_iiif_ark:_12148_btv1b9059263p_f75_full_full_0_native.jpg.json/127/line", 
            "@type": "oa:Annotation", 
            "motivation": "oa:painting", 
            "on": "http://gallica.bnf.fr/iiif/ark:/12148/btv1b9059263p/canvas/f75#xywh=2350,1277,134,178", 
            "resource": {
                "@type": "cnt:ContentAsText", 
                "chars": "QU'IL", 
                "format": "text/plain"
            }
        }, 
        {
            "@id": "https://manifests.teklia.com/HIMANIS/FR5291/words_annotations/http_gallica.bnf.fr_iiif_ark:_12148_btv1b9059263p_f75_full_full_0_native.jpg.json/128/line", 
            "@type": "oa:Annotation", 
            "motivation": "oa:painting", 
            "on": "http://gallica.bnf.fr/iiif/ark:/12148/btv1b9059263p/canvas/f75#xywh=836,3439,140,140", 
            "resource": {
                "@type": "cnt:ContentAsText", 
                "chars": "ROBERT", 
                "format": "text/plain"
            }
        }, 
        {
            "@id": "https://manifests.teklia.com/HIMANIS/FR5291/words_annotations/http_gallica.bnf.fr_iiif_ark:_12148_btv1b9059263p_f75_full_full_0_native.jpg.json/129/line", 
            "@type": "oa:Annotation", 
            "motivation": "oa:painting", 
            "on": "http://gallica.bnf.fr/iiif/ark:/12148/btv1b9059263p/canvas/f75#xywh=1899,2731,89,203", 
            "resource": {
                "@type": "cnt:ContentAsText", 
                "chars": "ROY", 
                "format": "text/plain"
            }
        }, 
        {
            "@id": "https://manifests.teklia.com/HIMANIS/FR5291/words_annotations/http_gallica.bnf.fr_iiif_ark:_12148_btv1b9059263p_f75_full_full_0_native.jpg.json/130/line", 
            "@type": "oa:Annotation", 
            "motivation": "oa:painting", 
            "on": "http://gallica.bnf.fr/iiif/ark:/12148/btv1b9059263p/canvas/f75#xywh=2517,1277,67,178", 
            "resource": {
                "@type": "cnt:ContentAsText", 
                "chars": "NE", 
                "format": "text/plain"
            }
        }, 
        {
            "@id": "https://manifests.teklia.com/HIMANIS/FR5291/words_annotations/http_gallica.bnf.fr_iiif_ark:_12148_btv1b9059263p_f75_full_full_0_native.jpg.json/131/line", 
            "@type": "oa:Annotation", 
            "motivation": "oa:painting", 
            "on": "http://gallica.bnf.fr/iiif/ark:/12148/btv1b9059263p/canvas/f75#xywh=2230,2731,229,203", 
            "resource": {
                "@type": "cnt:ContentAsText", 
                "chars": "CONVOIST", 
                "format": "text/plain"
            }
        }, 
        {
            "@id": "https://manifests.teklia.com/HIMANIS/FR5291/words_annotations/http_gallica.bnf.fr_iiif_ark:_12148_btv1b9059263p_f75_full_full_0_native.jpg.json/132/line", 
            "@type": "oa:Annotation", 
            "motivation": "oa:painting", 
            "on": "http://gallica.bnf.fr/iiif/ark:/12148/btv1b9059263p/canvas/f75#xywh=846,3980,175,147", 
            "resource": {
                "@type": "cnt:ContentAsText", 
                "chars": "JEHAN", 
                "format": "text/plain"
            }
        }, 
        {
            "@id": "https://manifests.teklia.com/HIMANIS/FR5291/words_annotations/http_gallica.bnf.fr_iiif_ark:_12148_btv1b9059263p_f75_full_full_0_native.jpg.json/133/line", 
            "@type": "oa:Annotation", 
            "motivation": "oa:painting", 
            "on": "http://gallica.bnf.fr/iiif/ark:/12148/btv1b9059263p/canvas/f75#xywh=1121,1032,0,167", 
            "resource": {
                "@type": "cnt:ContentAsText", 
                "chars": "A", 
                "format": "text/plain"
            }
        }, 
        {
            "@id": "https://manifests.teklia.com/HIMANIS/FR5291/words_annotations/http_gallica.bnf.fr_iiif_ark:_12148_btv1b9059263p_f75_full_full_0_native.jpg.json/134/line", 
            "@type": "oa:Annotation", 
            "motivation": "oa:painting", 
            "on": "http://gallica.bnf.fr/iiif/ark:/12148/btv1b9059263p/canvas/f75#xywh=3380,3069,0,71", 
            "resource": {
                "@type": "cnt:ContentAsText", 
                "chars": "J", 
                "format": "text/plain"
            }
        }, 
        {
            "@id": "https://manifests.teklia.com/HIMANIS/FR5291/words_annotations/http_gallica.bnf.fr_iiif_ark:_12148_btv1b9059263p_f75_full_full_0_native.jpg.json/135/line", 
            "@type": "oa:Annotation", 
            "motivation": "oa:painting", 
            "on": "http://gallica.bnf.fr/iiif/ark:/12148/btv1b9059263p/canvas/f75#xywh=1161,1951,439,140", 
            "resource": {
                "@type": "cnt:ContentAsText", 
                "chars": "BEREGERVILLER", 
                "format": "text/plain"
            }
        }, 
        {
            "@id": "https://manifests.teklia.com/HIMANIS/FR5291/words_annotations/http_gallica.bnf.fr_iiif_ark:_12148_btv1b9059263p_f75_full_full_0_native.jpg.json/136/line", 
            "@type": "oa:Annotation", 
            "motivation": "oa:painting", 
            "on": "http://gallica.bnf.fr/iiif/ark:/12148/btv1b9059263p/canvas/f75#xywh=1912,1427,356,123", 
            "resource": {
                "@type": "cnt:ContentAsText", 
                "chars": "CHAMBERIER", 
                "format": "text/plain"
            }
        }, 
        {
            "@id": "https://manifests.teklia.com/HIMANIS/FR5291/words_annotations/http_gallica.bnf.fr_iiif_ark:_12148_btv1b9059263p_f75_full_full_0_native.jpg.json/137/line", 
            "@type": "oa:Annotation", 
            "motivation": "oa:painting", 
            "on": "http://gallica.bnf.fr/iiif/ark:/12148/btv1b9059263p/canvas/f75#xywh=2086,1032,125,167", 
            "resource": {
                "@type": "cnt:ContentAsText", 
                "chars": "MAIN", 
                "format": "text/plain"
            }
        }, 
        {
            "@id": "https://manifests.teklia.com/HIMANIS/FR5291/words_annotations/http_gallica.bnf.fr_iiif_ark:_12148_btv1b9059263p_f75_full_full_0_native.jpg.json/138/line", 
            "@type": "oa:Annotation", 
            "motivation": "oa:painting", 
            "on": "http://gallica.bnf.fr/iiif/ark:/12148/btv1b9059263p/canvas/f75#xywh=1184,1032,304,167", 
            "resource": {
                "@type": "cnt:ContentAsText", 
                "chars": "AMBUILLAUME", 
                "format": "text/plain"
            }
        }, 
        {
            "@id": "https://manifests.teklia.com/HIMANIS/FR5291/words_annotations/http_gallica.bnf.fr_iiif_ark:_12148_btv1b9059263p_f75_full_full_0_native.jpg.json/139/line", 
            "@type": "oa:Annotation", 
            "motivation": "oa:painting", 
            "on": "http://gallica.bnf.fr/iiif/ark:/12148/btv1b9059263p/canvas/f75#xywh=1888,3715,100,160", 
            "resource": {
                "@type": "cnt:ContentAsText", 
                "chars": "DOU", 
                "format": "text/plain"
            }
        }, 
        {
            "@id": "https://manifests.teklia.com/HIMANIS/FR5291/words_annotations/http_gallica.bnf.fr_iiif_ark:_12148_btv1b9059263p_f75_full_full_0_native.jpg.json/140/line", 
            "@type": "oa:Annotation", 
            "motivation": "oa:painting", 
            "on": "http://gallica.bnf.fr/iiif/ark:/12148/btv1b9059263p/canvas/f75#xywh=2516,566,311,236", 
            "resource": {
                "@type": "cnt:ContentAsText", 
                "chars": "VILLE", 
                "format": "text/plain"
            }
        }, 
        {
            "@id": "https://manifests.teklia.com/HIMANIS/FR5291/words_annotations/http_gallica.bnf.fr_iiif_ark:_12148_btv1b9059263p_f75_full_full_0_native.jpg.json/141/line", 
            "@type": "oa:Annotation", 
            "motivation": "oa:painting", 
            "on": "http://gallica.bnf.fr/iiif/ark:/12148/btv1b9059263p/canvas/f75#xywh=3108,2731,76,203", 
            "resource": {
                "@type": "cnt:ContentAsText", 
                "chars": "SER", 
                "format": "text/plain"
            }
        }, 
        {
            "@id": "https://manifests.teklia.com/HIMANIS/FR5291/words_annotations/http_gallica.bnf.fr_iiif_ark:_12148_btv1b9059263p_f75_full_full_0_native.jpg.json/142/line", 
            "@type": "oa:Annotation", 
            "motivation": "oa:painting", 
            "on": "http://gallica.bnf.fr/iiif/ark:/12148/btv1b9059263p/canvas/f75#xywh=3108,2731,76,203", 
            "resource": {
                "@type": "cnt:ContentAsText", 
                "chars": "SES", 
                "format": "text/plain"
            }
        }, 
        {
            "@id": "https://manifests.teklia.com/HIMANIS/FR5291/words_annotations/http_gallica.bnf.fr_iiif_ark:_12148_btv1b9059263p_f75_full_full_0_native.jpg.json/143/line", 
            "@type": "oa:Annotation", 
            "motivation": "oa:painting", 
            "on": "http://gallica.bnf.fr/iiif/ark:/12148/btv1b9059263p/canvas/f75#xywh=1844,1032,137,167", 
            "resource": {
                "@type": "cnt:ContentAsText", 
                "chars": "ESTRE", 
                "format": "text/plain"
            }
        }, 
        {
            "@id": "https://manifests.teklia.com/HIMANIS/FR5291/words_annotations/http_gallica.bnf.fr_iiif_ark:_12148_btv1b9059263p_f75_full_full_0_native.jpg.json/144/line", 
            "@type": "oa:Annotation", 
            "motivation": "oa:painting", 
            "on": "http://gallica.bnf.fr/iiif/ark:/12148/btv1b9059263p/canvas/f75#xywh=817,1032,241,167", 
            "resource": {
                "@type": "cnt:ContentAsText", 
                "chars": "TICIPANS", 
                "format": "text/plain"
            }
        }, 
        {
            "@id": "https://manifests.teklia.com/HIMANIS/FR5291/words_annotations/http_gallica.bnf.fr_iiif_ark:_12148_btv1b9059263p_f75_full_full_0_native.jpg.json/145/line", 
            "@type": "oa:Annotation", 
            "motivation": "oa:painting", 
            "on": "http://gallica.bnf.fr/iiif/ark:/12148/btv1b9059263p/canvas/f75#xywh=3085,3715,171,160", 
            "resource": {
                "@type": "cnt:ContentAsText", 
                "chars": "FEMME", 
                "format": "text/plain"
            }
        }, 
        {
            "@id": "https://manifests.teklia.com/HIMANIS/FR5291/words_annotations/http_gallica.bnf.fr_iiif_ark:_12148_btv1b9059263p_f75_full_full_0_native.jpg.json/146/line", 
            "@type": "oa:Annotation", 
            "motivation": "oa:painting", 
            "on": "http://gallica.bnf.fr/iiif/ark:/12148/btv1b9059263p/canvas/f75#xywh=3085,3715,161,160", 
            "resource": {
                "@type": "cnt:ContentAsText", 
                "chars": "FAMIL", 
                "format": "text/plain"
            }
        }, 
        {
            "@id": "https://manifests.teklia.com/HIMANIS/FR5291/words_annotations/http_gallica.bnf.fr_iiif_ark:_12148_btv1b9059263p_f75_full_full_0_native.jpg.json/147/line", 
            "@type": "oa:Annotation", 
            "motivation": "oa:painting", 
            "on": "http://gallica.bnf.fr/iiif/ark:/12148/btv1b9059263p/canvas/f75#xywh=1535,1277,157,178", 
            "resource": {
                "@type": "cnt:ContentAsText", 
                "chars": "DEMI", 
                "format": "text/plain"
            }
        }, 
        {
            "@id": "https://manifests.teklia.com/HIMANIS/FR5291/words_annotations/http_gallica.bnf.fr_iiif_ark:_12148_btv1b9059263p_f75_full_full_0_native.jpg.json/148/line", 
            "@type": "oa:Annotation", 
            "motivation": "oa:painting", 
            "on": "http://gallica.bnf.fr/iiif/ark:/12148/btv1b9059263p/canvas/f75#xywh=2206,2234,298,164", 
            "resource": {
                "@type": "cnt:ContentAsText", 
                "chars": "CARPENAL", 
                "format": "text/plain"
            }
        }, 
        {
            "@id": "https://manifests.teklia.com/HIMANIS/FR5291/words_annotations/http_gallica.bnf.fr_iiif_ark:_12148_btv1b9059263p_f75_full_full_0_native.jpg.json/149/line", 
            "@type": "oa:Annotation", 
            "motivation": "oa:painting", 
            "on": "http://gallica.bnf.fr/iiif/ark:/12148/btv1b9059263p/canvas/f75#xywh=1382,2234,278,164", 
            "resource": {
                "@type": "cnt:ContentAsText", 
                "chars": "SOUPLICE", 
                "format": "text/plain"
            }
        }, 
        {
            "@id": "https://manifests.teklia.com/HIMANIS/FR5291/words_annotations/http_gallica.bnf.fr_iiif_ark:_12148_btv1b9059263p_f75_full_full_0_native.jpg.json/150/line", 
            "@type": "oa:Annotation", 
            "motivation": "oa:painting", 
            "on": "http://gallica.bnf.fr/iiif/ark:/12148/btv1b9059263p/canvas/f75#xywh=1581,2731,38,203", 
            "resource": {
                "@type": "cnt:ContentAsText", 
                "chars": "DE", 
                "format": "text/plain"
            }
        }, 
        {
            "@id": "https://manifests.teklia.com/HIMANIS/FR5291/words_annotations/http_gallica.bnf.fr_iiif_ark:_12148_btv1b9059263p_f75_full_full_0_native.jpg.json/151/line", 
            "@type": "oa:Annotation", 
            "motivation": "oa:painting", 
            "on": "http://gallica.bnf.fr/iiif/ark:/12148/btv1b9059263p/canvas/f75#xywh=1886,1685,70,159", 
            "resource": {
                "@type": "cnt:ContentAsText", 
                "chars": "QUI", 
                "format": "text/plain"
            }
        }, 
        {
            "@id": "https://manifests.teklia.com/HIMANIS/FR5291/words_annotations/http_gallica.bnf.fr_iiif_ark:_12148_btv1b9059263p_f75_full_full_0_native.jpg.json/152/line", 
            "@type": "oa:Annotation", 
            "motivation": "oa:painting", 
            "on": "http://gallica.bnf.fr/iiif/ark:/12148/btv1b9059263p/canvas/f75#xywh=1740,3980,249,147", 
            "resource": {
                "@type": "cnt:ContentAsText", 
                "chars": "ESTABLES", 
                "format": "text/plain"
            }
        }, 
        {
            "@id": "https://manifests.teklia.com/HIMANIS/FR5291/words_annotations/http_gallica.bnf.fr_iiif_ark:_12148_btv1b9059263p_f75_full_full_0_native.jpg.json/153/line", 
            "@type": "oa:Annotation", 
            "motivation": "oa:painting", 
            "on": "http://gallica.bnf.fr/iiif/ark:/12148/btv1b9059263p/canvas/f75#xywh=1196,3143,205,149", 
            "resource": {
                "@type": "cnt:ContentAsText", 
                "chars": "PIERRE", 
                "format": "text/plain"
            }
        }, 
        {
            "@id": "https://manifests.teklia.com/HIMANIS/FR5291/words_annotations/http_gallica.bnf.fr_iiif_ark:_12148_btv1b9059263p_f75_full_full_0_native.jpg.json/154/line", 
            "@type": "oa:Annotation", 
            "motivation": "oa:painting", 
            "on": "http://gallica.bnf.fr/iiif/ark:/12148/btv1b9059263p/canvas/f75#xywh=1785,2731,76,203", 
            "resource": {
                "@type": "cnt:ContentAsText", 
                "chars": "DU", 
                "format": "text/plain"
            }
        }, 
        {
            "@id": "https://manifests.teklia.com/HIMANIS/FR5291/words_annotations/http_gallica.bnf.fr_iiif_ark:_12148_btv1b9059263p_f75_full_full_0_native.jpg.json/155/line", 
            "@type": "oa:Annotation", 
            "motivation": "oa:painting", 
            "on": "http://gallica.bnf.fr/iiif/ark:/12148/btv1b9059263p/canvas/f75#xywh=3052,896,74,168", 
            "resource": {
                "@type": "cnt:ContentAsText", 
                "chars": "SES", 
                "format": "text/plain"
            }
        }, 
        {
            "@id": "https://manifests.teklia.com/HIMANIS/FR5291/words_annotations/http_gallica.bnf.fr_iiif_ark:_12148_btv1b9059263p_f75_full_full_0_native.jpg.json/156/line", 
            "@type": "oa:Annotation", 
            "motivation": "oa:painting", 
            "on": "http://gallica.bnf.fr/iiif/ark:/12148/btv1b9059263p/canvas/f75#xywh=2123,2234,62,164", 
            "resource": {
                "@type": "cnt:ContentAsText", 
                "chars": "DE", 
                "format": "text/plain"
            }
        }, 
        {
            "@id": "https://manifests.teklia.com/HIMANIS/FR5291/words_annotations/http_gallica.bnf.fr_iiif_ark:_12148_btv1b9059263p_f75_full_full_0_native.jpg.json/157/line", 
            "@type": "oa:Annotation", 
            "motivation": "oa:painting", 
            "on": "http://gallica.bnf.fr/iiif/ark:/12148/btv1b9059263p/canvas/f75#xywh=3159,4783,171,111", 
            "resource": {
                "@type": "cnt:ContentAsText", 
                "chars": "LES", 
                "format": "text/plain"
            }
        }, 
        {
            "@id": "https://manifests.teklia.com/HIMANIS/FR5291/words_annotations/http_gallica.bnf.fr_iiif_ark:_12148_btv1b9059263p_f75_full_full_0_native.jpg.json/158/line", 
            "@type": "oa:Annotation", 
            "motivation": "oa:painting", 
            "on": "http://gallica.bnf.fr/iiif/ark:/12148/btv1b9059263p/canvas/f75#xywh=1209,2468,424,183", 
            "resource": {
                "@type": "cnt:ContentAsText", 
                "chars": "BERENGUILLAUME", 
                "format": "text/plain"
            }
        }
    ]
}