{
    "@context": "http://iiif.io/api/presentation/2/context.json", 
    "@id": "https://manifests.teklia.com/HIMANIS/FR5291/words_annotations/http_gallica.bnf.fr_iiif_ark:_12148_btv1b9059263p_f22_full_full_0_native.jpg.json", 
    "@type": "sc:AnnotationList", 
    "resources": [
        {
            "@id": "https://manifests.teklia.com/HIMANIS/FR5291/words_annotations/http_gallica.bnf.fr_iiif_ark:_12148_btv1b9059263p_f22_full_full_0_native.jpg.json/0/line", 
            "@type": "oa:Annotation", 
            "motivation": "oa:painting", 
            "on": "http://gallica.bnf.fr/iiif/ark:/12148/btv1b9059263p/canvas/f22#xywh=1800,3477,151,219", 
            "resource": {
                "@type": "cnt:ContentAsText", 
                "chars": "CERT", 
                "format": "text/plain"
            }
        }, 
        {
            "@id": "https://manifests.teklia.com/HIMANIS/FR5291/words_annotations/http_gallica.bnf.fr_iiif_ark:_12148_btv1b9059263p_f22_full_full_0_native.jpg.json/1/line", 
            "@type": "oa:Annotation", 
            "motivation": "oa:painting", 
            "on": "http://gallica.bnf.fr/iiif/ark:/12148/btv1b9059263p/canvas/f22#xywh=1381,1726,125,166", 
            "resource": {
                "@type": "cnt:ContentAsText", 
                "chars": "VILER", 
                "format": "text/plain"
            }
        }, 
        {
            "@id": "https://manifests.teklia.com/HIMANIS/FR5291/words_annotations/http_gallica.bnf.fr_iiif_ark:_12148_btv1b9059263p_f22_full_full_0_native.jpg.json/2/line", 
            "@type": "oa:Annotation", 
            "motivation": "oa:painting", 
            "on": "http://gallica.bnf.fr/iiif/ark:/12148/btv1b9059263p/canvas/f22#xywh=1302,2796,164,262", 
            "resource": {
                "@type": "cnt:ContentAsText", 
                "chars": "DENU", 
                "format": "text/plain"
            }
        }, 
        {
            "@id": "https://manifests.teklia.com/HIMANIS/FR5291/words_annotations/http_gallica.bnf.fr_iiif_ark:_12148_btv1b9059263p_f22_full_full_0_native.jpg.json/3/line", 
            "@type": "oa:Annotation", 
            "motivation": "oa:painting", 
            "on": "http://gallica.bnf.fr/iiif/ark:/12148/btv1b9059263p/canvas/f22#xywh=1696,2796,230,262", 
            "resource": {
                "@type": "cnt:ContentAsText", 
                "chars": "BLINAY", 
                "format": "text/plain"
            }
        }, 
        {
            "@id": "https://manifests.teklia.com/HIMANIS/FR5291/words_annotations/http_gallica.bnf.fr_iiif_ark:_12148_btv1b9059263p_f22_full_full_0_native.jpg.json/4/line", 
            "@type": "oa:Annotation", 
            "motivation": "oa:painting", 
            "on": "http://gallica.bnf.fr/iiif/ark:/12148/btv1b9059263p/canvas/f22#xywh=1065,2211,190,232", 
            "resource": {
                "@type": "cnt:ContentAsText", 
                "chars": "VILLE", 
                "format": "text/plain"
            }
        }, 
        {
            "@id": "https://manifests.teklia.com/HIMANIS/FR5291/words_annotations/http_gallica.bnf.fr_iiif_ark:_12148_btv1b9059263p_f22_full_full_0_native.jpg.json/5/line", 
            "@type": "oa:Annotation", 
            "motivation": "oa:painting", 
            "on": "http://gallica.bnf.fr/iiif/ark:/12148/btv1b9059263p/canvas/f22#xywh=1792,584,223,356", 
            "resource": {
                "@type": "cnt:ContentAsText", 
                "chars": "BAILLIERS", 
                "format": "text/plain"
            }
        }, 
        {
            "@id": "https://manifests.teklia.com/HIMANIS/FR5291/words_annotations/http_gallica.bnf.fr_iiif_ark:_12148_btv1b9059263p_f22_full_full_0_native.jpg.json/6/line", 
            "@type": "oa:Annotation", 
            "motivation": "oa:painting", 
            "on": "http://gallica.bnf.fr/iiif/ark:/12148/btv1b9059263p/canvas/f22#xywh=1459,874,260,244", 
            "resource": {
                "@type": "cnt:ContentAsText", 
                "chars": "OUVER", 
                "format": "text/plain"
            }
        }, 
        {
            "@id": "https://manifests.teklia.com/HIMANIS/FR5291/words_annotations/http_gallica.bnf.fr_iiif_ark:_12148_btv1b9059263p_f22_full_full_0_native.jpg.json/7/line", 
            "@type": "oa:Annotation", 
            "motivation": "oa:painting", 
            "on": "http://gallica.bnf.fr/iiif/ark:/12148/btv1b9059263p/canvas/f22#xywh=2139,2796,82,262", 
            "resource": {
                "@type": "cnt:ContentAsText", 
                "chars": "FIE", 
                "format": "text/plain"
            }
        }, 
        {
            "@id": "https://manifests.teklia.com/HIMANIS/FR5291/words_annotations/http_gallica.bnf.fr_iiif_ark:_12148_btv1b9059263p_f22_full_full_0_native.jpg.json/8/line", 
            "@type": "oa:Annotation", 
            "motivation": "oa:painting", 
            "on": "http://gallica.bnf.fr/iiif/ark:/12148/btv1b9059263p/canvas/f22#xywh=692,1726,199,166", 
            "resource": {
                "@type": "cnt:ContentAsText", 
                "chars": "PHILIPPE", 
                "format": "text/plain"
            }
        }, 
        {
            "@id": "https://manifests.teklia.com/HIMANIS/FR5291/words_annotations/http_gallica.bnf.fr_iiif_ark:_12148_btv1b9059263p_f22_full_full_0_native.jpg.json/9/line", 
            "@type": "oa:Annotation", 
            "motivation": "oa:painting", 
            "on": "http://gallica.bnf.fr/iiif/ark:/12148/btv1b9059263p/canvas/f22#xywh=1152,3085,190,202", 
            "resource": {
                "@type": "cnt:ContentAsText", 
                "chars": "CORDA", 
                "format": "text/plain"
            }
        }, 
        {
            "@id": "https://manifests.teklia.com/HIMANIS/FR5291/words_annotations/http_gallica.bnf.fr_iiif_ark:_12148_btv1b9059263p_f22_full_full_0_native.jpg.json/10/line", 
            "@type": "oa:Annotation", 
            "motivation": "oa:painting", 
            "on": "http://gallica.bnf.fr/iiif/ark:/12148/btv1b9059263p/canvas/f22#xywh=1459,874,260,244", 
            "resource": {
                "@type": "cnt:ContentAsText", 
                "chars": "OLINER", 
                "format": "text/plain"
            }
        }, 
        {
            "@id": "https://manifests.teklia.com/HIMANIS/FR5291/words_annotations/http_gallica.bnf.fr_iiif_ark:_12148_btv1b9059263p_f22_full_full_0_native.jpg.json/11/line", 
            "@type": "oa:Annotation", 
            "motivation": "oa:painting", 
            "on": "http://gallica.bnf.fr/iiif/ark:/12148/btv1b9059263p/canvas/f22#xywh=1366,1996,311,184", 
            "resource": {
                "@type": "cnt:ContentAsText", 
                "chars": "MALVOIER", 
                "format": "text/plain"
            }
        }, 
        {
            "@id": "https://manifests.teklia.com/HIMANIS/FR5291/words_annotations/http_gallica.bnf.fr_iiif_ark:_12148_btv1b9059263p_f22_full_full_0_native.jpg.json/12/line", 
            "@type": "oa:Annotation", 
            "motivation": "oa:painting", 
            "on": "http://gallica.bnf.fr/iiif/ark:/12148/btv1b9059263p/canvas/f22#xywh=2270,2796,0,262", 
            "resource": {
                "@type": "cnt:ContentAsText", 
                "chars": "A", 
                "format": "text/plain"
            }
        }, 
        {
            "@id": "https://manifests.teklia.com/HIMANIS/FR5291/words_annotations/http_gallica.bnf.fr_iiif_ark:_12148_btv1b9059263p_f22_full_full_0_native.jpg.json/13/line", 
            "@type": "oa:Annotation", 
            "motivation": "oa:painting", 
            "on": "http://gallica.bnf.fr/iiif/ark:/12148/btv1b9059263p/canvas/f22#xywh=1040,2796,197,262", 
            "resource": {
                "@type": "cnt:ContentAsText", 
                "chars": "VLINAY", 
                "format": "text/plain"
            }
        }, 
        {
            "@id": "https://manifests.teklia.com/HIMANIS/FR5291/words_annotations/http_gallica.bnf.fr_iiif_ark:_12148_btv1b9059263p_f22_full_full_0_native.jpg.json/14/line", 
            "@type": "oa:Annotation", 
            "motivation": "oa:painting", 
            "on": "http://gallica.bnf.fr/iiif/ark:/12148/btv1b9059263p/canvas/f22#xywh=1386,2211,160,232", 
            "resource": {
                "@type": "cnt:ContentAsText", 
                "chars": "ROGI", 
                "format": "text/plain"
            }
        }, 
        {
            "@id": "https://manifests.teklia.com/HIMANIS/FR5291/words_annotations/http_gallica.bnf.fr_iiif_ark:_12148_btv1b9059263p_f22_full_full_0_native.jpg.json/15/line", 
            "@type": "oa:Annotation", 
            "motivation": "oa:painting", 
            "on": "http://gallica.bnf.fr/iiif/ark:/12148/btv1b9059263p/canvas/f22#xywh=1153,874,77,244", 
            "resource": {
                "@type": "cnt:ContentAsText", 
                "chars": "FIE", 
                "format": "text/plain"
            }
        }, 
        {
            "@id": "https://manifests.teklia.com/HIMANIS/FR5291/words_annotations/http_gallica.bnf.fr_iiif_ark:_12148_btv1b9059263p_f22_full_full_0_native.jpg.json/16/line", 
            "@type": "oa:Annotation", 
            "motivation": "oa:painting", 
            "on": "http://gallica.bnf.fr/iiif/ark:/12148/btv1b9059263p/canvas/f22#xywh=954,874,184,244", 
            "resource": {
                "@type": "cnt:ContentAsText", 
                "chars": "DEMI", 
                "format": "text/plain"
            }
        }, 
        {
            "@id": "https://manifests.teklia.com/HIMANIS/FR5291/words_annotations/http_gallica.bnf.fr_iiif_ark:_12148_btv1b9059263p_f22_full_full_0_native.jpg.json/17/line", 
            "@type": "oa:Annotation", 
            "motivation": "oa:painting", 
            "on": "http://gallica.bnf.fr/iiif/ark:/12148/btv1b9059263p/canvas/f22#xywh=168,345,167,148", 
            "resource": {
                "@type": "cnt:ContentAsText", 
                "chars": "PHILIPPUS", 
                "format": "text/plain"
            }
        }, 
        {
            "@id": "https://manifests.teklia.com/HIMANIS/FR5291/words_annotations/http_gallica.bnf.fr_iiif_ark:_12148_btv1b9059263p_f22_full_full_0_native.jpg.json/18/line", 
            "@type": "oa:Annotation", 
            "motivation": "oa:painting", 
            "on": "http://gallica.bnf.fr/iiif/ark:/12148/btv1b9059263p/canvas/f22#xywh=168,345,158,148", 
            "resource": {
                "@type": "cnt:ContentAsText", 
                "chars": "PHILIPPES", 
                "format": "text/plain"
            }
        }, 
        {
            "@id": "https://manifests.teklia.com/HIMANIS/FR5291/words_annotations/http_gallica.bnf.fr_iiif_ark:_12148_btv1b9059263p_f22_full_full_0_native.jpg.json/19/line", 
            "@type": "oa:Annotation", 
            "motivation": "oa:painting", 
            "on": "http://gallica.bnf.fr/iiif/ark:/12148/btv1b9059263p/canvas/f22#xywh=633,345,242,148", 
            "resource": {
                "@type": "cnt:ContentAsText", 
                "chars": "EST", 
                "format": "text/plain"
            }
        }, 
        {
            "@id": "https://manifests.teklia.com/HIMANIS/FR5291/words_annotations/http_gallica.bnf.fr_iiif_ark:_12148_btv1b9059263p_f22_full_full_0_native.jpg.json/20/line", 
            "@type": "oa:Annotation", 
            "motivation": "oa:painting", 
            "on": "http://gallica.bnf.fr/iiif/ark:/12148/btv1b9059263p/canvas/f22#xywh=1652,1726,114,166", 
            "resource": {
                "@type": "cnt:ContentAsText", 
                "chars": "CALES", 
                "format": "text/plain"
            }
        }, 
        {
            "@id": "https://manifests.teklia.com/HIMANIS/FR5291/words_annotations/http_gallica.bnf.fr_iiif_ark:_12148_btv1b9059263p_f22_full_full_0_native.jpg.json/21/line", 
            "@type": "oa:Annotation", 
            "motivation": "oa:painting", 
            "on": "http://gallica.bnf.fr/iiif/ark:/12148/btv1b9059263p/canvas/f22#xywh=2129,3085,241,202", 
            "resource": {
                "@type": "cnt:ContentAsText", 
                "chars": "RELIES", 
                "format": "text/plain"
            }
        }, 
        {
            "@id": "https://manifests.teklia.com/HIMANIS/FR5291/words_annotations/http_gallica.bnf.fr_iiif_ark:_12148_btv1b9059263p_f22_full_full_0_native.jpg.json/22/line", 
            "@type": "oa:Annotation", 
            "motivation": "oa:painting", 
            "on": "http://gallica.bnf.fr/iiif/ark:/12148/btv1b9059263p/canvas/f22#xywh=3063,3477,110,219", 
            "resource": {
                "@type": "cnt:ContentAsText", 
                "chars": "PUIS", 
                "format": "text/plain"
            }
        }, 
        {
            "@id": "https://manifests.teklia.com/HIMANIS/FR5291/words_annotations/http_gallica.bnf.fr_iiif_ark:_12148_btv1b9059263p_f22_full_full_0_native.jpg.json/23/line", 
            "@type": "oa:Annotation", 
            "motivation": "oa:painting", 
            "on": "http://gallica.bnf.fr/iiif/ark:/12148/btv1b9059263p/canvas/f22#xywh=1047,3751,272,256", 
            "resource": {
                "@type": "cnt:ContentAsText", 
                "chars": "JOUIGNI", 
                "format": "text/plain"
            }
        }, 
        {
            "@id": "https://manifests.teklia.com/HIMANIS/FR5291/words_annotations/http_gallica.bnf.fr_iiif_ark:_12148_btv1b9059263p_f22_full_full_0_native.jpg.json/24/line", 
            "@type": "oa:Annotation", 
            "motivation": "oa:painting", 
            "on": "http://gallica.bnf.fr/iiif/ark:/12148/btv1b9059263p/canvas/f22#xywh=3063,3477,138,219", 
            "resource": {
                "@type": "cnt:ContentAsText", 
                "chars": "PUIZ", 
                "format": "text/plain"
            }
        }, 
        {
            "@id": "https://manifests.teklia.com/HIMANIS/FR5291/words_annotations/http_gallica.bnf.fr_iiif_ark:_12148_btv1b9059263p_f22_full_full_0_native.jpg.json/25/line", 
            "@type": "oa:Annotation", 
            "motivation": "oa:painting", 
            "on": "http://gallica.bnf.fr/iiif/ark:/12148/btv1b9059263p/canvas/f22#xywh=1367,3751,207,256", 
            "resource": {
                "@type": "cnt:ContentAsText", 
                "chars": "FIEZ", 
                "format": "text/plain"
            }
        }, 
        {
            "@id": "https://manifests.teklia.com/HIMANIS/FR5291/words_annotations/http_gallica.bnf.fr_iiif_ark:_12148_btv1b9059263p_f22_full_full_0_native.jpg.json/26/line", 
            "@type": "oa:Annotation", 
            "motivation": "oa:painting", 
            "on": "http://gallica.bnf.fr/iiif/ark:/12148/btv1b9059263p/canvas/f22#xywh=1686,3751,192,256", 
            "resource": {
                "@type": "cnt:ContentAsText", 
                "chars": "KARON", 
                "format": "text/plain"
            }
        }, 
        {
            "@id": "https://manifests.teklia.com/HIMANIS/FR5291/words_annotations/http_gallica.bnf.fr_iiif_ark:_12148_btv1b9059263p_f22_full_full_0_native.jpg.json/27/line", 
            "@type": "oa:Annotation", 
            "motivation": "oa:painting", 
            "on": "http://gallica.bnf.fr/iiif/ark:/12148/btv1b9059263p/canvas/f22#xywh=1079,2519,246,329", 
            "resource": {
                "@type": "cnt:ContentAsText", 
                "chars": "TOURNAY", 
                "format": "text/plain"
            }
        }, 
        {
            "@id": "https://manifests.teklia.com/HIMANIS/FR5291/words_annotations/http_gallica.bnf.fr_iiif_ark:_12148_btv1b9059263p_f22_full_full_0_native.jpg.json/28/line", 
            "@type": "oa:Annotation", 
            "motivation": "oa:painting", 
            "on": "http://gallica.bnf.fr/iiif/ark:/12148/btv1b9059263p/canvas/f22#xywh=951,3751,64,256", 
            "resource": {
                "@type": "cnt:ContentAsText", 
                "chars": "DE", 
                "format": "text/plain"
            }
        }, 
        {
            "@id": "https://manifests.teklia.com/HIMANIS/FR5291/words_annotations/http_gallica.bnf.fr_iiif_ark:_12148_btv1b9059263p_f22_full_full_0_native.jpg.json/29/line", 
            "@type": "oa:Annotation", 
            "motivation": "oa:painting", 
            "on": "http://gallica.bnf.fr/iiif/ark:/12148/btv1b9059263p/canvas/f22#xywh=2728,584,490,356", 
            "resource": {
                "@type": "cnt:ContentAsText", 
                "chars": "CHALATI", 
                "format": "text/plain"
            }
        }, 
        {
            "@id": "https://manifests.teklia.com/HIMANIS/FR5291/words_annotations/http_gallica.bnf.fr_iiif_ark:_12148_btv1b9059263p_f22_full_full_0_native.jpg.json/30/line", 
            "@type": "oa:Annotation", 
            "motivation": "oa:painting", 
            "on": "http://gallica.bnf.fr/iiif/ark:/12148/btv1b9059263p/canvas/f22#xywh=1309,1996,0,184", 
            "resource": {
                "@type": "cnt:ContentAsText", 
                "chars": "A", 
                "format": "text/plain"
            }
        }, 
        {
            "@id": "https://manifests.teklia.com/HIMANIS/FR5291/words_annotations/http_gallica.bnf.fr_iiif_ark:_12148_btv1b9059263p_f22_full_full_0_native.jpg.json/31/line", 
            "@type": "oa:Annotation", 
            "motivation": "oa:painting", 
            "on": "http://gallica.bnf.fr/iiif/ark:/12148/btv1b9059263p/canvas/f22#xywh=1701,1178,284,240", 
            "resource": {
                "@type": "cnt:ContentAsText", 
                "chars": "OTRIGNES", 
                "format": "text/plain"
            }
        }, 
        {
            "@id": "https://manifests.teklia.com/HIMANIS/FR5291/words_annotations/http_gallica.bnf.fr_iiif_ark:_12148_btv1b9059263p_f22_full_full_0_native.jpg.json/32/line", 
            "@type": "oa:Annotation", 
            "motivation": "oa:painting", 
            "on": "http://gallica.bnf.fr/iiif/ark:/12148/btv1b9059263p/canvas/f22#xywh=659,3477,234,219", 
            "resource": {
                "@type": "cnt:ContentAsText", 
                "chars": "NOLENTE", 
                "format": "text/plain"
            }
        }, 
        {
            "@id": "https://manifests.teklia.com/HIMANIS/FR5291/words_annotations/http_gallica.bnf.fr_iiif_ark:_12148_btv1b9059263p_f22_full_full_0_native.jpg.json/33/line", 
            "@type": "oa:Annotation", 
            "motivation": "oa:painting", 
            "on": "http://gallica.bnf.fr/iiif/ark:/12148/btv1b9059263p/canvas/f22#xywh=733,3299,93,57", 
            "resource": {
                "@type": "cnt:ContentAsText", 
                "chars": "SINE", 
                "format": "text/plain"
            }
        }, 
        {
            "@id": "https://manifests.teklia.com/HIMANIS/FR5291/words_annotations/http_gallica.bnf.fr_iiif_ark:_12148_btv1b9059263p_f22_full_full_0_native.jpg.json/34/line", 
            "@type": "oa:Annotation", 
            "motivation": "oa:painting", 
            "on": "http://gallica.bnf.fr/iiif/ark:/12148/btv1b9059263p/canvas/f22#xywh=134,1996,161,184", 
            "resource": {
                "@type": "cnt:ContentAsText", 
                "chars": "PHILIPPUS", 
                "format": "text/plain"
            }
        }, 
        {
            "@id": "https://manifests.teklia.com/HIMANIS/FR5291/words_annotations/http_gallica.bnf.fr_iiif_ark:_12148_btv1b9059263p_f22_full_full_0_native.jpg.json/35/line", 
            "@type": "oa:Annotation", 
            "motivation": "oa:painting", 
            "on": "http://gallica.bnf.fr/iiif/ark:/12148/btv1b9059263p/canvas/f22#xywh=733,3299,169,57", 
            "resource": {
                "@type": "cnt:ContentAsText", 
                "chars": "ANCE", 
                "format": "text/plain"
            }
        }, 
        {
            "@id": "https://manifests.teklia.com/HIMANIS/FR5291/words_annotations/http_gallica.bnf.fr_iiif_ark:_12148_btv1b9059263p_f22_full_full_0_native.jpg.json/36/line", 
            "@type": "oa:Annotation", 
            "motivation": "oa:painting", 
            "on": "http://gallica.bnf.fr/iiif/ark:/12148/btv1b9059263p/canvas/f22#xywh=1881,1726,94,166", 
            "resource": {
                "@type": "cnt:ContentAsText", 
                "chars": "D'EN", 
                "format": "text/plain"
            }
        }, 
        {
            "@id": "https://manifests.teklia.com/HIMANIS/FR5291/words_annotations/http_gallica.bnf.fr_iiif_ark:_12148_btv1b9059263p_f22_full_full_0_native.jpg.json/37/line", 
            "@type": "oa:Annotation", 
            "motivation": "oa:painting", 
            "on": "http://gallica.bnf.fr/iiif/ark:/12148/btv1b9059263p/canvas/f22#xywh=134,1996,161,184", 
            "resource": {
                "@type": "cnt:ContentAsText", 
                "chars": "PHILIPPES", 
                "format": "text/plain"
            }
        }, 
        {
            "@id": "https://manifests.teklia.com/HIMANIS/FR5291/words_annotations/http_gallica.bnf.fr_iiif_ark:_12148_btv1b9059263p_f22_full_full_0_native.jpg.json/38/line", 
            "@type": "oa:Annotation", 
            "motivation": "oa:painting", 
            "on": "http://gallica.bnf.fr/iiif/ark:/12148/btv1b9059263p/canvas/f22#xywh=2377,3477,425,219", 
            "resource": {
                "@type": "cnt:ContentAsText", 
                "chars": "CRESSANULLE", 
                "format": "text/plain"
            }
        }, 
        {
            "@id": "https://manifests.teklia.com/HIMANIS/FR5291/words_annotations/http_gallica.bnf.fr_iiif_ark:_12148_btv1b9059263p_f22_full_full_0_native.jpg.json/39/line", 
            "@type": "oa:Annotation", 
            "motivation": "oa:painting", 
            "on": "http://gallica.bnf.fr/iiif/ark:/12148/btv1b9059263p/canvas/f22#xywh=1735,1996,69,184", 
            "resource": {
                "@type": "cnt:ContentAsText", 
                "chars": "IN", 
                "format": "text/plain"
            }
        }, 
        {
            "@id": "https://manifests.teklia.com/HIMANIS/FR5291/words_annotations/http_gallica.bnf.fr_iiif_ark:_12148_btv1b9059263p_f22_full_full_0_native.jpg.json/40/line", 
            "@type": "oa:Annotation", 
            "motivation": "oa:painting", 
            "on": "http://gallica.bnf.fr/iiif/ark:/12148/btv1b9059263p/canvas/f22#xywh=1701,1178,284,240", 
            "resource": {
                "@type": "cnt:ContentAsText", 
                "chars": "OCTIGNES", 
                "format": "text/plain"
            }
        }, 
        {
            "@id": "https://manifests.teklia.com/HIMANIS/FR5291/words_annotations/http_gallica.bnf.fr_iiif_ark:_12148_btv1b9059263p_f22_full_full_0_native.jpg.json/41/line", 
            "@type": "oa:Annotation", 
            "motivation": "oa:painting", 
            "on": "http://gallica.bnf.fr/iiif/ark:/12148/btv1b9059263p/canvas/f22#xywh=1696,2796,230,262", 
            "resource": {
                "@type": "cnt:ContentAsText", 
                "chars": "VINAY", 
                "format": "text/plain"
            }
        }, 
        {
            "@id": "https://manifests.teklia.com/HIMANIS/FR5291/words_annotations/http_gallica.bnf.fr_iiif_ark:_12148_btv1b9059263p_f22_full_full_0_native.jpg.json/42/line", 
            "@type": "oa:Annotation", 
            "motivation": "oa:painting", 
            "on": "http://gallica.bnf.fr/iiif/ark:/12148/btv1b9059263p/canvas/f22#xywh=1179,483,254,213", 
            "resource": {
                "@type": "cnt:ContentAsText", 
                "chars": "PARIS", 
                "format": "text/plain"
            }
        }, 
        {
            "@id": "https://manifests.teklia.com/HIMANIS/FR5291/words_annotations/http_gallica.bnf.fr_iiif_ark:_12148_btv1b9059263p_f22_full_full_0_native.jpg.json/43/line", 
            "@type": "oa:Annotation", 
            "motivation": "oa:painting", 
            "on": "http://gallica.bnf.fr/iiif/ark:/12148/btv1b9059263p/canvas/f22#xywh=2991,3085,0,202", 
            "resource": {
                "@type": "cnt:ContentAsText", 
                "chars": "A", 
                "format": "text/plain"
            }
        }, 
        {
            "@id": "https://manifests.teklia.com/HIMANIS/FR5291/words_annotations/http_gallica.bnf.fr_iiif_ark:_12148_btv1b9059263p_f22_full_full_0_native.jpg.json/44/line", 
            "@type": "oa:Annotation", 
            "motivation": "oa:painting", 
            "on": "http://gallica.bnf.fr/iiif/ark:/12148/btv1b9059263p/canvas/f22#xywh=1842,874,183,244", 
            "resource": {
                "@type": "cnt:ContentAsText", 
                "chars": "L'ARRE", 
                "format": "text/plain"
            }
        }, 
        {
            "@id": "https://manifests.teklia.com/HIMANIS/FR5291/words_annotations/http_gallica.bnf.fr_iiif_ark:_12148_btv1b9059263p_f22_full_full_0_native.jpg.json/45/line", 
            "@type": "oa:Annotation", 
            "motivation": "oa:painting", 
            "on": "http://gallica.bnf.fr/iiif/ark:/12148/btv1b9059263p/canvas/f22#xywh=1223,3477,68,219", 
            "resource": {
                "@type": "cnt:ContentAsText", 
                "chars": "FIE", 
                "format": "text/plain"
            }
        }, 
        {
            "@id": "https://manifests.teklia.com/HIMANIS/FR5291/words_annotations/http_gallica.bnf.fr_iiif_ark:_12148_btv1b9059263p_f22_full_full_0_native.jpg.json/46/line", 
            "@type": "oa:Annotation", 
            "motivation": "oa:painting", 
            "on": "http://gallica.bnf.fr/iiif/ark:/12148/btv1b9059263p/canvas/f22#xywh=1009,1996,265,184", 
            "resource": {
                "@type": "cnt:ContentAsText", 
                "chars": "PONTOLI", 
                "format": "text/plain"
            }
        }, 
        {
            "@id": "https://manifests.teklia.com/HIMANIS/FR5291/words_annotations/http_gallica.bnf.fr_iiif_ark:_12148_btv1b9059263p_f22_full_full_0_native.jpg.json/47/line", 
            "@type": "oa:Annotation", 
            "motivation": "oa:painting", 
            "on": "http://gallica.bnf.fr/iiif/ark:/12148/btv1b9059263p/canvas/f22#xywh=1468,2519,287,329", 
            "resource": {
                "@type": "cnt:ContentAsText", 
                "chars": "TUNAY", 
                "format": "text/plain"
            }
        }, 
        {
            "@id": "https://manifests.teklia.com/HIMANIS/FR5291/words_annotations/http_gallica.bnf.fr_iiif_ark:_12148_btv1b9059263p_f22_full_full_0_native.jpg.json/48/line", 
            "@type": "oa:Annotation", 
            "motivation": "oa:painting", 
            "on": "http://gallica.bnf.fr/iiif/ark:/12148/btv1b9059263p/canvas/f22#xywh=1589,2211,131,232", 
            "resource": {
                "@type": "cnt:ContentAsText", 
                "chars": "DENIE", 
                "format": "text/plain"
            }
        }, 
        {
            "@id": "https://manifests.teklia.com/HIMANIS/FR5291/words_annotations/http_gallica.bnf.fr_iiif_ark:_12148_btv1b9059263p_f22_full_full_0_native.jpg.json/49/line", 
            "@type": "oa:Annotation", 
            "motivation": "oa:painting", 
            "on": "http://gallica.bnf.fr/iiif/ark:/12148/btv1b9059263p/canvas/f22#xywh=1765,874,46,244", 
            "resource": {
                "@type": "cnt:ContentAsText", 
                "chars": "DE", 
                "format": "text/plain"
            }
        }, 
        {
            "@id": "https://manifests.teklia.com/HIMANIS/FR5291/words_annotations/http_gallica.bnf.fr_iiif_ark:_12148_btv1b9059263p_f22_full_full_0_native.jpg.json/50/line", 
            "@type": "oa:Annotation", 
            "motivation": "oa:painting", 
            "on": "http://gallica.bnf.fr/iiif/ark:/12148/btv1b9059263p/canvas/f22#xywh=659,3477,220,219", 
            "resource": {
                "@type": "cnt:ContentAsText", 
                "chars": "NOLENT", 
                "format": "text/plain"
            }
        }, 
        {
            "@id": "https://manifests.teklia.com/HIMANIS/FR5291/words_annotations/http_gallica.bnf.fr_iiif_ark:_12148_btv1b9059263p_f22_full_full_0_native.jpg.json/51/line", 
            "@type": "oa:Annotation", 
            "motivation": "oa:painting", 
            "on": "http://gallica.bnf.fr/iiif/ark:/12148/btv1b9059263p/canvas/f22#xywh=1152,3085,190,202", 
            "resource": {
                "@type": "cnt:ContentAsText", 
                "chars": "CORDIA", 
                "format": "text/plain"
            }
        }, 
        {
            "@id": "https://manifests.teklia.com/HIMANIS/FR5291/words_annotations/http_gallica.bnf.fr_iiif_ark:_12148_btv1b9059263p_f22_full_full_0_native.jpg.json/52/line", 
            "@type": "oa:Annotation", 
            "motivation": "oa:painting", 
            "on": "http://gallica.bnf.fr/iiif/ark:/12148/btv1b9059263p/canvas/f22#xywh=2148,584,379,356", 
            "resource": {
                "@type": "cnt:ContentAsText", 
                "chars": "PAILLIENT", 
                "format": "text/plain"
            }
        }, 
        {
            "@id": "https://manifests.teklia.com/HIMANIS/FR5291/words_annotations/http_gallica.bnf.fr_iiif_ark:_12148_btv1b9059263p_f22_full_full_0_native.jpg.json/53/line", 
            "@type": "oa:Annotation", 
            "motivation": "oa:painting", 
            "on": "http://gallica.bnf.fr/iiif/ark:/12148/btv1b9059263p/canvas/f22#xywh=1736,3085,253,202", 
            "resource": {
                "@type": "cnt:ContentAsText", 
                "chars": "PARS", 
                "format": "text/plain"
            }
        }, 
        {
            "@id": "https://manifests.teklia.com/HIMANIS/FR5291/words_annotations/http_gallica.bnf.fr_iiif_ark:_12148_btv1b9059263p_f22_full_full_0_native.jpg.json/54/line", 
            "@type": "oa:Annotation", 
            "motivation": "oa:painting", 
            "on": "http://gallica.bnf.fr/iiif/ark:/12148/btv1b9059263p/canvas/f22#xywh=716,1178,194,240", 
            "resource": {
                "@type": "cnt:ContentAsText", 
                "chars": "JEHAN", 
                "format": "text/plain"
            }
        }, 
        {
            "@id": "https://manifests.teklia.com/HIMANIS/FR5291/words_annotations/http_gallica.bnf.fr_iiif_ark:_12148_btv1b9059263p_f22_full_full_0_native.jpg.json/55/line", 
            "@type": "oa:Annotation", 
            "motivation": "oa:painting", 
            "on": "http://gallica.bnf.fr/iiif/ark:/12148/btv1b9059263p/canvas/f22#xywh=1152,3085,216,202", 
            "resource": {
                "@type": "cnt:ContentAsText", 
                "chars": "CORDER", 
                "format": "text/plain"
            }
        }, 
        {
            "@id": "https://manifests.teklia.com/HIMANIS/FR5291/words_annotations/http_gallica.bnf.fr_iiif_ark:_12148_btv1b9059263p_f22_full_full_0_native.jpg.json/56/line", 
            "@type": "oa:Annotation", 
            "motivation": "oa:painting", 
            "on": "http://gallica.bnf.fr/iiif/ark:/12148/btv1b9059263p/canvas/f22#xywh=1329,1726,0,166", 
            "resource": {
                "@type": "cnt:ContentAsText", 
                "chars": "A", 
                "format": "text/plain"
            }
        }, 
        {
            "@id": "https://manifests.teklia.com/HIMANIS/FR5291/words_annotations/http_gallica.bnf.fr_iiif_ark:_12148_btv1b9059263p_f22_full_full_0_native.jpg.json/57/line", 
            "@type": "oa:Annotation", 
            "motivation": "oa:painting", 
            "on": "http://gallica.bnf.fr/iiif/ark:/12148/btv1b9059263p/canvas/f22#xywh=1386,2211,160,232", 
            "resource": {
                "@type": "cnt:ContentAsText", 
                "chars": "REGI", 
                "format": "text/plain"
            }
        }, 
        {
            "@id": "https://manifests.teklia.com/HIMANIS/FR5291/words_annotations/http_gallica.bnf.fr_iiif_ark:_12148_btv1b9059263p_f22_full_full_0_native.jpg.json/58/line", 
            "@type": "oa:Annotation", 
            "motivation": "oa:painting", 
            "on": "http://gallica.bnf.fr/iiif/ark:/12148/btv1b9059263p/canvas/f22#xywh=674,1434,0,42", 
            "resource": {
                "@type": "cnt:ContentAsText", 
                "chars": "P", 
                "format": "text/plain"
            }
        }, 
        {
            "@id": "https://manifests.teklia.com/HIMANIS/FR5291/words_annotations/http_gallica.bnf.fr_iiif_ark:_12148_btv1b9059263p_f22_full_full_0_native.jpg.json/59/line", 
            "@type": "oa:Annotation", 
            "motivation": "oa:painting", 
            "on": "http://gallica.bnf.fr/iiif/ark:/12148/btv1b9059263p/canvas/f22#xywh=970,1178,59,240", 
            "resource": {
                "@type": "cnt:ContentAsText", 
                "chars": "DE", 
                "format": "text/plain"
            }
        }, 
        {
            "@id": "https://manifests.teklia.com/HIMANIS/FR5291/words_annotations/http_gallica.bnf.fr_iiif_ark:_12148_btv1b9059263p_f22_full_full_0_native.jpg.json/60/line", 
            "@type": "oa:Annotation", 
            "motivation": "oa:painting", 
            "on": "http://gallica.bnf.fr/iiif/ark:/12148/btv1b9059263p/canvas/f22#xywh=1507,1178,75,240", 
            "resource": {
                "@type": "cnt:ContentAsText", 
                "chars": "FIE", 
                "format": "text/plain"
            }
        }, 
        {
            "@id": "https://manifests.teklia.com/HIMANIS/FR5291/words_annotations/http_gallica.bnf.fr_iiif_ark:_12148_btv1b9059263p_f22_full_full_0_native.jpg.json/61/line", 
            "@type": "oa:Annotation", 
            "motivation": "oa:painting", 
            "on": "http://gallica.bnf.fr/iiif/ark:/12148/btv1b9059263p/canvas/f22#xywh=733,3299,288,57", 
            "resource": {
                "@type": "cnt:ContentAsText", 
                "chars": "INCE", 
                "format": "text/plain"
            }
        }, 
        {
            "@id": "https://manifests.teklia.com/HIMANIS/FR5291/words_annotations/http_gallica.bnf.fr_iiif_ark:_12148_btv1b9059263p_f22_full_full_0_native.jpg.json/62/line", 
            "@type": "oa:Annotation", 
            "motivation": "oa:painting", 
            "on": "http://gallica.bnf.fr/iiif/ark:/12148/btv1b9059263p/canvas/f22#xywh=659,3477,220,219", 
            "resource": {
                "@type": "cnt:ContentAsText", 
                "chars": "NOVERT", 
                "format": "text/plain"
            }
        }, 
        {
            "@id": "https://manifests.teklia.com/HIMANIS/FR5291/words_annotations/http_gallica.bnf.fr_iiif_ark:_12148_btv1b9059263p_f22_full_full_0_native.jpg.json/63/line", 
            "@type": "oa:Annotation", 
            "motivation": "oa:painting", 
            "on": "http://gallica.bnf.fr/iiif/ark:/12148/btv1b9059263p/canvas/f22#xywh=1800,3477,192,219", 
            "resource": {
                "@type": "cnt:ContentAsText", 
                "chars": "CERTI", 
                "format": "text/plain"
            }
        }, 
        {
            "@id": "https://manifests.teklia.com/HIMANIS/FR5291/words_annotations/http_gallica.bnf.fr_iiif_ark:_12148_btv1b9059263p_f22_full_full_0_native.jpg.json/64/line", 
            "@type": "oa:Annotation", 
            "motivation": "oa:painting", 
            "on": "http://gallica.bnf.fr/iiif/ark:/12148/btv1b9059263p/canvas/f22#xywh=1419,3085,139,202", 
            "resource": {
                "@type": "cnt:ContentAsText", 
                "chars": "FIE", 
                "format": "text/plain"
            }
        }, 
        {
            "@id": "https://manifests.teklia.com/HIMANIS/FR5291/words_annotations/http_gallica.bnf.fr_iiif_ark:_12148_btv1b9059263p_f22_full_full_0_native.jpg.json/65/line", 
            "@type": "oa:Annotation", 
            "motivation": "oa:painting", 
            "on": "http://gallica.bnf.fr/iiif/ark:/12148/btv1b9059263p/canvas/f22#xywh=1368,2424,0,62", 
            "resource": {
                "@type": "cnt:ContentAsText", 
                "chars": "P", 
                "format": "text/plain"
            }
        }, 
        {
            "@id": "https://manifests.teklia.com/HIMANIS/FR5291/words_annotations/http_gallica.bnf.fr_iiif_ark:_12148_btv1b9059263p_f22_full_full_0_native.jpg.json/66/line", 
            "@type": "oa:Annotation", 
            "motivation": "oa:painting", 
            "on": "http://gallica.bnf.fr/iiif/ark:/12148/btv1b9059263p/canvas/f22#xywh=965,1462,61,194", 
            "resource": {
                "@type": "cnt:ContentAsText", 
                "chars": "DE", 
                "format": "text/plain"
            }
        }, 
        {
            "@id": "https://manifests.teklia.com/HIMANIS/FR5291/words_annotations/http_gallica.bnf.fr_iiif_ark:_12148_btv1b9059263p_f22_full_full_0_native.jpg.json/67/line", 
            "@type": "oa:Annotation", 
            "motivation": "oa:painting", 
            "on": "http://gallica.bnf.fr/iiif/ark:/12148/btv1b9059263p/canvas/f22#xywh=1850,1462,181,194", 
            "resource": {
                "@type": "cnt:ContentAsText", 
                "chars": "DEMI", 
                "format": "text/plain"
            }
        }, 
        {
            "@id": "https://manifests.teklia.com/HIMANIS/FR5291/words_annotations/http_gallica.bnf.fr_iiif_ark:_12148_btv1b9059263p_f22_full_full_0_native.jpg.json/68/line", 
            "@type": "oa:Annotation", 
            "motivation": "oa:painting", 
            "on": "http://gallica.bnf.fr/iiif/ark:/12148/btv1b9059263p/canvas/f22#xywh=678,584,468,356", 
            "resource": {
                "@type": "cnt:ContentAsText", 
                "chars": "PHILIBET", 
                "format": "text/plain"
            }
        }, 
        {
            "@id": "https://manifests.teklia.com/HIMANIS/FR5291/words_annotations/http_gallica.bnf.fr_iiif_ark:_12148_btv1b9059263p_f22_full_full_0_native.jpg.json/69/line", 
            "@type": "oa:Annotation", 
            "motivation": "oa:painting", 
            "on": "http://gallica.bnf.fr/iiif/ark:/12148/btv1b9059263p/canvas/f22#xywh=696,3085,329,202", 
            "resource": {
                "@type": "cnt:ContentAsText", 
                "chars": "GUILLAUME", 
                "format": "text/plain"
            }
        }, 
        {
            "@id": "https://manifests.teklia.com/HIMANIS/FR5291/words_annotations/http_gallica.bnf.fr_iiif_ark:_12148_btv1b9059263p_f22_full_full_0_native.jpg.json/70/line", 
            "@type": "oa:Annotation", 
            "motivation": "oa:painting", 
            "on": "http://gallica.bnf.fr/iiif/ark:/12148/btv1b9059263p/canvas/f22#xywh=3425,991,0,124", 
            "resource": {
                "@type": "cnt:ContentAsText", 
                "chars": "H", 
                "format": "text/plain"
            }
        }, 
        {
            "@id": "https://manifests.teklia.com/HIMANIS/FR5291/words_annotations/http_gallica.bnf.fr_iiif_ark:_12148_btv1b9059263p_f22_full_full_0_native.jpg.json/71/line", 
            "@type": "oa:Annotation", 
            "motivation": "oa:painting", 
            "on": "http://gallica.bnf.fr/iiif/ark:/12148/btv1b9059263p/canvas/f22#xywh=3425,991,0,124", 
            "resource": {
                "@type": "cnt:ContentAsText", 
                "chars": "J", 
                "format": "text/plain"
            }
        }, 
        {
            "@id": "https://manifests.teklia.com/HIMANIS/FR5291/words_annotations/http_gallica.bnf.fr_iiif_ark:_12148_btv1b9059263p_f22_full_full_0_native.jpg.json/72/line", 
            "@type": "oa:Annotation", 
            "motivation": "oa:painting", 
            "on": "http://gallica.bnf.fr/iiif/ark:/12148/btv1b9059263p/canvas/f22#xywh=3425,991,0,124", 
            "resource": {
                "@type": "cnt:ContentAsText", 
                "chars": "P", 
                "format": "text/plain"
            }
        }, 
        {
            "@id": "https://manifests.teklia.com/HIMANIS/FR5291/words_annotations/http_gallica.bnf.fr_iiif_ark:_12148_btv1b9059263p_f22_full_full_0_native.jpg.json/73/line", 
            "@type": "oa:Annotation", 
            "motivation": "oa:painting", 
            "on": "http://gallica.bnf.fr/iiif/ark:/12148/btv1b9059263p/canvas/f22#xywh=2616,584,67,356", 
            "resource": {
                "@type": "cnt:ContentAsText", 
                "chars": "LA", 
                "format": "text/plain"
            }
        }, 
        {
            "@id": "https://manifests.teklia.com/HIMANIS/FR5291/words_annotations/http_gallica.bnf.fr_iiif_ark:_12148_btv1b9059263p_f22_full_full_0_native.jpg.json/74/line", 
            "@type": "oa:Annotation", 
            "motivation": "oa:painting", 
            "on": "http://gallica.bnf.fr/iiif/ark:/12148/btv1b9059263p/canvas/f22#xywh=3302,1630,93,60", 
            "resource": {
                "@type": "cnt:ContentAsText", 
                "chars": "DE", 
                "format": "text/plain"
            }
        }, 
        {
            "@id": "https://manifests.teklia.com/HIMANIS/FR5291/words_annotations/http_gallica.bnf.fr_iiif_ark:_12148_btv1b9059263p_f22_full_full_0_native.jpg.json/75/line", 
            "@type": "oa:Annotation", 
            "motivation": "oa:painting", 
            "on": "http://gallica.bnf.fr/iiif/ark:/12148/btv1b9059263p/canvas/f22#xywh=1415,3477,302,219", 
            "resource": {
                "@type": "cnt:ContentAsText", 
                "chars": "VENDEURE", 
                "format": "text/plain"
            }
        }, 
        {
            "@id": "https://manifests.teklia.com/HIMANIS/FR5291/words_annotations/http_gallica.bnf.fr_iiif_ark:_12148_btv1b9059263p_f22_full_full_0_native.jpg.json/76/line", 
            "@type": "oa:Annotation", 
            "motivation": "oa:painting", 
            "on": "http://gallica.bnf.fr/iiif/ark:/12148/btv1b9059263p/canvas/f22#xywh=2616,584,67,356", 
            "resource": {
                "@type": "cnt:ContentAsText", 
                "chars": "DE", 
                "format": "text/plain"
            }
        }, 
        {
            "@id": "https://manifests.teklia.com/HIMANIS/FR5291/words_annotations/http_gallica.bnf.fr_iiif_ark:_12148_btv1b9059263p_f22_full_full_0_native.jpg.json/77/line", 
            "@type": "oa:Annotation", 
            "motivation": "oa:painting", 
            "on": "http://gallica.bnf.fr/iiif/ark:/12148/btv1b9059263p/canvas/f22#xywh=698,1996,277,184", 
            "resource": {
                "@type": "cnt:ContentAsText", 
                "chars": "GUIART", 
                "format": "text/plain"
            }
        }, 
        {
            "@id": "https://manifests.teklia.com/HIMANIS/FR5291/words_annotations/http_gallica.bnf.fr_iiif_ark:_12148_btv1b9059263p_f22_full_full_0_native.jpg.json/78/line", 
            "@type": "oa:Annotation", 
            "motivation": "oa:painting", 
            "on": "http://gallica.bnf.fr/iiif/ark:/12148/btv1b9059263p/canvas/f22#xywh=1059,1178,314,240", 
            "resource": {
                "@type": "cnt:ContentAsText", 
                "chars": "ALBENOIE", 
                "format": "text/plain"
            }
        }, 
        {
            "@id": "https://manifests.teklia.com/HIMANIS/FR5291/words_annotations/http_gallica.bnf.fr_iiif_ark:_12148_btv1b9059263p_f22_full_full_0_native.jpg.json/79/line", 
            "@type": "oa:Annotation", 
            "motivation": "oa:painting", 
            "on": "http://gallica.bnf.fr/iiif/ark:/12148/btv1b9059263p/canvas/f22#xywh=1779,2211,116,232", 
            "resource": {
                "@type": "cnt:ContentAsText", 
                "chars": "FIE", 
                "format": "text/plain"
            }
        }, 
        {
            "@id": "https://manifests.teklia.com/HIMANIS/FR5291/words_annotations/http_gallica.bnf.fr_iiif_ark:_12148_btv1b9059263p_f22_full_full_0_native.jpg.json/80/line", 
            "@type": "oa:Annotation", 
            "motivation": "oa:painting", 
            "on": "http://gallica.bnf.fr/iiif/ark:/12148/btv1b9059263p/canvas/f22#xywh=2069,1726,125,166", 
            "resource": {
                "@type": "cnt:ContentAsText", 
                "chars": "FIE", 
                "format": "text/plain"
            }
        }, 
        {
            "@id": "https://manifests.teklia.com/HIMANIS/FR5291/words_annotations/http_gallica.bnf.fr_iiif_ark:_12148_btv1b9059263p_f22_full_full_0_native.jpg.json/81/line", 
            "@type": "oa:Annotation", 
            "motivation": "oa:painting", 
            "on": "http://gallica.bnf.fr/iiif/ark:/12148/btv1b9059263p/canvas/f22#xywh=2071,874,230,244", 
            "resource": {
                "@type": "cnt:ContentAsText", 
                "chars": "TIENT", 
                "format": "text/plain"
            }
        }, 
        {
            "@id": "https://manifests.teklia.com/HIMANIS/FR5291/words_annotations/http_gallica.bnf.fr_iiif_ark:_12148_btv1b9059263p_f22_full_full_0_native.jpg.json/82/line", 
            "@type": "oa:Annotation", 
            "motivation": "oa:painting", 
            "on": "http://gallica.bnf.fr/iiif/ark:/12148/btv1b9059263p/canvas/f22#xywh=698,1996,277,184", 
            "resource": {
                "@type": "cnt:ContentAsText", 
                "chars": "MACART", 
                "format": "text/plain"
            }
        }, 
        {
            "@id": "https://manifests.teklia.com/HIMANIS/FR5291/words_annotations/http_gallica.bnf.fr_iiif_ark:_12148_btv1b9059263p_f22_full_full_0_native.jpg.json/83/line", 
            "@type": "oa:Annotation", 
            "motivation": "oa:painting", 
            "on": "http://gallica.bnf.fr/iiif/ark:/12148/btv1b9059263p/canvas/f22#xywh=687,2211,247,232", 
            "resource": {
                "@type": "cnt:ContentAsText", 
                "chars": "NOBISTE", 
                "format": "text/plain"
            }
        }, 
        {
            "@id": "https://manifests.teklia.com/HIMANIS/FR5291/words_annotations/http_gallica.bnf.fr_iiif_ark:_12148_btv1b9059263p_f22_full_full_0_native.jpg.json/84/line", 
            "@type": "oa:Annotation", 
            "motivation": "oa:painting", 
            "on": "http://gallica.bnf.fr/iiif/ark:/12148/btv1b9059263p/canvas/f22#xywh=1367,3751,63,256", 
            "resource": {
                "@type": "cnt:ContentAsText", 
                "chars": "IN", 
                "format": "text/plain"
            }
        }, 
        {
            "@id": "https://manifests.teklia.com/HIMANIS/FR5291/words_annotations/http_gallica.bnf.fr_iiif_ark:_12148_btv1b9059263p_f22_full_full_0_native.jpg.json/85/line", 
            "@type": "oa:Annotation", 
            "motivation": "oa:painting", 
            "on": "http://gallica.bnf.fr/iiif/ark:/12148/btv1b9059263p/canvas/f22#xywh=2118,3751,335,256", 
            "resource": {
                "@type": "cnt:ContentAsText", 
                "chars": "AMBERILLE", 
                "format": "text/plain"
            }
        }, 
        {
            "@id": "https://manifests.teklia.com/HIMANIS/FR5291/words_annotations/http_gallica.bnf.fr_iiif_ark:_12148_btv1b9059263p_f22_full_full_0_native.jpg.json/86/line", 
            "@type": "oa:Annotation", 
            "motivation": "oa:painting", 
            "on": "http://gallica.bnf.fr/iiif/ark:/12148/btv1b9059263p/canvas/f22#xywh=1958,3751,64,256", 
            "resource": {
                "@type": "cnt:ContentAsText", 
                "chars": "ET", 
                "format": "text/plain"
            }
        }, 
        {
            "@id": "https://manifests.teklia.com/HIMANIS/FR5291/words_annotations/http_gallica.bnf.fr_iiif_ark:_12148_btv1b9059263p_f22_full_full_0_native.jpg.json/87/line", 
            "@type": "oa:Annotation", 
            "motivation": "oa:painting", 
            "on": "http://gallica.bnf.fr/iiif/ark:/12148/btv1b9059263p/canvas/f22#xywh=2844,3477,55,219", 
            "resource": {
                "@type": "cnt:ContentAsText", 
                "chars": "ET", 
                "format": "text/plain"
            }
        }, 
        {
            "@id": "https://manifests.teklia.com/HIMANIS/FR5291/words_annotations/http_gallica.bnf.fr_iiif_ark:_12148_btv1b9059263p_f22_full_full_0_native.jpg.json/88/line", 
            "@type": "oa:Annotation", 
            "motivation": "oa:painting", 
            "on": "http://gallica.bnf.fr/iiif/ark:/12148/btv1b9059263p/canvas/f22#xywh=2056,1462,133,194", 
            "resource": {
                "@type": "cnt:ContentAsText", 
                "chars": "FIE", 
                "format": "text/plain"
            }
        }, 
        {
            "@id": "https://manifests.teklia.com/HIMANIS/FR5291/words_annotations/http_gallica.bnf.fr_iiif_ark:_12148_btv1b9059263p_f22_full_full_0_native.jpg.json/89/line", 
            "@type": "oa:Annotation", 
            "motivation": "oa:painting", 
            "on": "http://gallica.bnf.fr/iiif/ark:/12148/btv1b9059263p/canvas/f22#xywh=1047,3751,272,256", 
            "resource": {
                "@type": "cnt:ContentAsText", 
                "chars": "POINGNI", 
                "format": "text/plain"
            }
        }, 
        {
            "@id": "https://manifests.teklia.com/HIMANIS/FR5291/words_annotations/http_gallica.bnf.fr_iiif_ark:_12148_btv1b9059263p_f22_full_full_0_native.jpg.json/90/line", 
            "@type": "oa:Annotation", 
            "motivation": "oa:painting", 
            "on": "http://gallica.bnf.fr/iiif/ark:/12148/btv1b9059263p/canvas/f22#xywh=1062,1462,291,194", 
            "resource": {
                "@type": "cnt:ContentAsText", 
                "chars": "CREIGNES", 
                "format": "text/plain"
            }
        }, 
        {
            "@id": "https://manifests.teklia.com/HIMANIS/FR5291/words_annotations/http_gallica.bnf.fr_iiif_ark:_12148_btv1b9059263p_f22_full_full_0_native.jpg.json/91/line", 
            "@type": "oa:Annotation", 
            "motivation": "oa:painting", 
            "on": "http://gallica.bnf.fr/iiif/ark:/12148/btv1b9059263p/canvas/f22#xywh=2047,3477,275,219", 
            "resource": {
                "@type": "cnt:ContentAsText", 
                "chars": "MORTENE", 
                "format": "text/plain"
            }
        }, 
        {
            "@id": "https://manifests.teklia.com/HIMANIS/FR5291/words_annotations/http_gallica.bnf.fr_iiif_ark:_12148_btv1b9059263p_f22_full_full_0_native.jpg.json/92/line", 
            "@type": "oa:Annotation", 
            "motivation": "oa:painting", 
            "on": "http://gallica.bnf.fr/iiif/ark:/12148/btv1b9059263p/canvas/f22#xywh=1386,2519,0,329", 
            "resource": {
                "@type": "cnt:ContentAsText", 
                "chars": "A", 
                "format": "text/plain"
            }
        }, 
        {
            "@id": "https://manifests.teklia.com/HIMANIS/FR5291/words_annotations/http_gallica.bnf.fr_iiif_ark:_12148_btv1b9059263p_f22_full_full_0_native.jpg.json/93/line", 
            "@type": "oa:Annotation", 
            "motivation": "oa:painting", 
            "on": "http://gallica.bnf.fr/iiif/ark:/12148/btv1b9059263p/canvas/f22#xywh=699,483,347,213", 
            "resource": {
                "@type": "cnt:ContentAsText", 
                "chars": "PHILIPPE", 
                "format": "text/plain"
            }
        }, 
        {
            "@id": "https://manifests.teklia.com/HIMANIS/FR5291/words_annotations/http_gallica.bnf.fr_iiif_ark:_12148_btv1b9059263p_f22_full_full_0_native.jpg.json/94/line", 
            "@type": "oa:Annotation", 
            "motivation": "oa:painting", 
            "on": "http://gallica.bnf.fr/iiif/ark:/12148/btv1b9059263p/canvas/f22#xywh=149,2211,262,232", 
            "resource": {
                "@type": "cnt:ContentAsText", 
                "chars": "PHILIPPES", 
                "format": "text/plain"
            }
        }, 
        {
            "@id": "https://manifests.teklia.com/HIMANIS/FR5291/words_annotations/http_gallica.bnf.fr_iiif_ark:_12148_btv1b9059263p_f22_full_full_0_native.jpg.json/95/line", 
            "@type": "oa:Annotation", 
            "motivation": "oa:painting", 
            "on": "http://gallica.bnf.fr/iiif/ark:/12148/btv1b9059263p/canvas/f22#xywh=1168,584,513,356", 
            "resource": {
                "@type": "cnt:ContentAsText", 
                "chars": "ALIUM", 
                "format": "text/plain"
            }
        }, 
        {
            "@id": "https://manifests.teklia.com/HIMANIS/FR5291/words_annotations/http_gallica.bnf.fr_iiif_ark:_12148_btv1b9059263p_f22_full_full_0_native.jpg.json/96/line", 
            "@type": "oa:Annotation", 
            "motivation": "oa:painting", 
            "on": "http://gallica.bnf.fr/iiif/ark:/12148/btv1b9059263p/canvas/f22#xywh=1346,3477,0,219", 
            "resource": {
                "@type": "cnt:ContentAsText", 
                "chars": "A", 
                "format": "text/plain"
            }
        }, 
        {
            "@id": "https://manifests.teklia.com/HIMANIS/FR5291/words_annotations/http_gallica.bnf.fr_iiif_ark:_12148_btv1b9059263p_f22_full_full_0_native.jpg.json/97/line", 
            "@type": "oa:Annotation", 
            "motivation": "oa:painting", 
            "on": "http://gallica.bnf.fr/iiif/ark:/12148/btv1b9059263p/canvas/f22#xywh=1291,874,76,244", 
            "resource": {
                "@type": "cnt:ContentAsText", 
                "chars": "QUE", 
                "format": "text/plain"
            }
        }, 
        {
            "@id": "https://manifests.teklia.com/HIMANIS/FR5291/words_annotations/http_gallica.bnf.fr_iiif_ark:_12148_btv1b9059263p_f22_full_full_0_native.jpg.json/98/line", 
            "@type": "oa:Annotation", 
            "motivation": "oa:painting", 
            "on": "http://gallica.bnf.fr/iiif/ark:/12148/btv1b9059263p/canvas/f22#xywh=2148,584,379,356", 
            "resource": {
                "@type": "cnt:ContentAsText", 
                "chars": "PARLAMENT", 
                "format": "text/plain"
            }
        }, 
        {
            "@id": "https://manifests.teklia.com/HIMANIS/FR5291/words_annotations/http_gallica.bnf.fr_iiif_ark:_12148_btv1b9059263p_f22_full_full_0_native.jpg.json/99/line", 
            "@type": "oa:Annotation", 
            "motivation": "oa:painting", 
            "on": "http://gallica.bnf.fr/iiif/ark:/12148/btv1b9059263p/canvas/f22#xywh=977,2519,61,329", 
            "resource": {
                "@type": "cnt:ContentAsText", 
                "chars": "DE", 
                "format": "text/plain"
            }
        }, 
        {
            "@id": "https://manifests.teklia.com/HIMANIS/FR5291/words_annotations/http_gallica.bnf.fr_iiif_ark:_12148_btv1b9059263p_f22_full_full_0_native.jpg.json/100/line", 
            "@type": "oa:Annotation", 
            "motivation": "oa:painting", 
            "on": "http://gallica.bnf.fr/iiif/ark:/12148/btv1b9059263p/canvas/f22#xywh=75,2519,348,329", 
            "resource": {
                "@type": "cnt:ContentAsText", 
                "chars": "PHILIPPES", 
                "format": "text/plain"
            }
        }, 
        {
            "@id": "https://manifests.teklia.com/HIMANIS/FR5291/words_annotations/http_gallica.bnf.fr_iiif_ark:_12148_btv1b9059263p_f22_full_full_0_native.jpg.json/101/line", 
            "@type": "oa:Annotation", 
            "motivation": "oa:painting", 
            "on": "http://gallica.bnf.fr/iiif/ark:/12148/btv1b9059263p/canvas/f22#xywh=1498,1462,315,194", 
            "resource": {
                "@type": "cnt:ContentAsText", 
                "chars": "STEGNES", 
                "format": "text/plain"
            }
        }, 
        {
            "@id": "https://manifests.teklia.com/HIMANIS/FR5291/words_annotations/http_gallica.bnf.fr_iiif_ark:_12148_btv1b9059263p_f22_full_full_0_native.jpg.json/102/line", 
            "@type": "oa:Annotation", 
            "motivation": "oa:painting", 
            "on": "http://gallica.bnf.fr/iiif/ark:/12148/btv1b9059263p/canvas/f22#xywh=2148,584,379,356", 
            "resource": {
                "@type": "cnt:ContentAsText", 
                "chars": "PARILLIENT", 
                "format": "text/plain"
            }
        }, 
        {
            "@id": "https://manifests.teklia.com/HIMANIS/FR5291/words_annotations/http_gallica.bnf.fr_iiif_ark:_12148_btv1b9059263p_f22_full_full_0_native.jpg.json/103/line", 
            "@type": "oa:Annotation", 
            "motivation": "oa:painting", 
            "on": "http://gallica.bnf.fr/iiif/ark:/12148/btv1b9059263p/canvas/f22#xywh=958,2796,33,262", 
            "resource": {
                "@type": "cnt:ContentAsText", 
                "chars": "DE", 
                "format": "text/plain"
            }
        }, 
        {
            "@id": "https://manifests.teklia.com/HIMANIS/FR5291/words_annotations/http_gallica.bnf.fr_iiif_ark:_12148_btv1b9059263p_f22_full_full_0_native.jpg.json/104/line", 
            "@type": "oa:Annotation", 
            "motivation": "oa:painting", 
            "on": "http://gallica.bnf.fr/iiif/ark:/12148/btv1b9059263p/canvas/f22#xywh=1735,1996,345,184", 
            "resource": {
                "@type": "cnt:ContentAsText", 
                "chars": "QUARTER", 
                "format": "text/plain"
            }
        }, 
        {
            "@id": "https://manifests.teklia.com/HIMANIS/FR5291/words_annotations/http_gallica.bnf.fr_iiif_ark:_12148_btv1b9059263p_f22_full_full_0_native.jpg.json/105/line", 
            "@type": "oa:Annotation", 
            "motivation": "oa:painting", 
            "on": "http://gallica.bnf.fr/iiif/ark:/12148/btv1b9059263p/canvas/f22#xywh=711,1462,218,194", 
            "resource": {
                "@type": "cnt:ContentAsText", 
                "chars": "ANDRI", 
                "format": "text/plain"
            }
        }, 
        {
            "@id": "https://manifests.teklia.com/HIMANIS/FR5291/words_annotations/http_gallica.bnf.fr_iiif_ark:_12148_btv1b9059263p_f22_full_full_0_native.jpg.json/106/line", 
            "@type": "oa:Annotation", 
            "motivation": "oa:painting", 
            "on": "http://gallica.bnf.fr/iiif/ark:/12148/btv1b9059263p/canvas/f22#xywh=1418,1178,45,240", 
            "resource": {
                "@type": "cnt:ContentAsText", 
                "chars": "ET", 
                "format": "text/plain"
            }
        }, 
        {
            "@id": "https://manifests.teklia.com/HIMANIS/FR5291/words_annotations/http_gallica.bnf.fr_iiif_ark:_12148_btv1b9059263p_f22_full_full_0_native.jpg.json/107/line", 
            "@type": "oa:Annotation", 
            "motivation": "oa:painting", 
            "on": "http://gallica.bnf.fr/iiif/ark:/12148/btv1b9059263p/canvas/f22#xywh=920,3477,179,219", 
            "resource": {
                "@type": "cnt:ContentAsText", 
                "chars": "LOVEL", 
                "format": "text/plain"
            }
        }, 
        {
            "@id": "https://manifests.teklia.com/HIMANIS/FR5291/words_annotations/http_gallica.bnf.fr_iiif_ark:_12148_btv1b9059263p_f22_full_full_0_native.jpg.json/108/line", 
            "@type": "oa:Annotation", 
            "motivation": "oa:painting", 
            "on": "http://gallica.bnf.fr/iiif/ark:/12148/btv1b9059263p/canvas/f22#xywh=2522,3085,51,202", 
            "resource": {
                "@type": "cnt:ContentAsText", 
                "chars": "LA", 
                "format": "text/plain"
            }
        }, 
        {
            "@id": "https://manifests.teklia.com/HIMANIS/FR5291/words_annotations/http_gallica.bnf.fr_iiif_ark:_12148_btv1b9059263p_f22_full_full_0_native.jpg.json/109/line", 
            "@type": "oa:Annotation", 
            "motivation": "oa:painting", 
            "on": "http://gallica.bnf.fr/iiif/ark:/12148/btv1b9059263p/canvas/f22#xywh=1063,3085,51,202", 
            "resource": {
                "@type": "cnt:ContentAsText", 
                "chars": "DE", 
                "format": "text/plain"
            }
        }, 
        {
            "@id": "https://manifests.teklia.com/HIMANIS/FR5291/words_annotations/http_gallica.bnf.fr_iiif_ark:_12148_btv1b9059263p_f22_full_full_0_native.jpg.json/110/line", 
            "@type": "oa:Annotation", 
            "motivation": "oa:painting", 
            "on": "http://gallica.bnf.fr/iiif/ark:/12148/btv1b9059263p/canvas/f22#xywh=884,345,205,148", 
            "resource": {
                "@type": "cnt:ContentAsText", 
                "chars": "ET", 
                "format": "text/plain"
            }
        }, 
        {
            "@id": "https://manifests.teklia.com/HIMANIS/FR5291/words_annotations/http_gallica.bnf.fr_iiif_ark:_12148_btv1b9059263p_f22_full_full_0_native.jpg.json/111/line", 
            "@type": "oa:Annotation", 
            "motivation": "oa:painting", 
            "on": "http://gallica.bnf.fr/iiif/ark:/12148/btv1b9059263p/canvas/f22#xywh=687,2211,204,232", 
            "resource": {
                "@type": "cnt:ContentAsText", 
                "chars": "NOBIS", 
                "format": "text/plain"
            }
        }, 
        {
            "@id": "https://manifests.teklia.com/HIMANIS/FR5291/words_annotations/http_gallica.bnf.fr_iiif_ark:_12148_btv1b9059263p_f22_full_full_0_native.jpg.json/112/line", 
            "@type": "oa:Annotation", 
            "motivation": "oa:painting", 
            "on": "http://gallica.bnf.fr/iiif/ark:/12148/btv1b9059263p/canvas/f22#xywh=1589,2211,160,232", 
            "resource": {
                "@type": "cnt:ContentAsText", 
                "chars": "DEMI", 
                "format": "text/plain"
            }
        }, 
        {
            "@id": "https://manifests.teklia.com/HIMANIS/FR5291/words_annotations/http_gallica.bnf.fr_iiif_ark:_12148_btv1b9059263p_f22_full_full_0_native.jpg.json/113/line", 
            "@type": "oa:Annotation", 
            "motivation": "oa:painting", 
            "on": "http://gallica.bnf.fr/iiif/ark:/12148/btv1b9059263p/canvas/f22#xywh=1686,3751,192,256", 
            "resource": {
                "@type": "cnt:ContentAsText", 
                "chars": "BARON", 
                "format": "text/plain"
            }
        }, 
        {
            "@id": "https://manifests.teklia.com/HIMANIS/FR5291/words_annotations/http_gallica.bnf.fr_iiif_ark:_12148_btv1b9059263p_f22_full_full_0_native.jpg.json/114/line", 
            "@type": "oa:Annotation", 
            "motivation": "oa:painting", 
            "on": "http://gallica.bnf.fr/iiif/ark:/12148/btv1b9059263p/canvas/f22#xywh=1498,1462,315,194", 
            "resource": {
                "@type": "cnt:ContentAsText", 
                "chars": "STERGNES", 
                "format": "text/plain"
            }
        }, 
        {
            "@id": "https://manifests.teklia.com/HIMANIS/FR5291/words_annotations/http_gallica.bnf.fr_iiif_ark:_12148_btv1b9059263p_f22_full_full_0_native.jpg.json/115/line", 
            "@type": "oa:Annotation", 
            "motivation": "oa:painting", 
            "on": "http://gallica.bnf.fr/iiif/ark:/12148/btv1b9059263p/canvas/f22#xywh=1062,1462,291,194", 
            "resource": {
                "@type": "cnt:ContentAsText", 
                "chars": "OREIGNES", 
                "format": "text/plain"
            }
        }, 
        {
            "@id": "https://manifests.teklia.com/HIMANIS/FR5291/words_annotations/http_gallica.bnf.fr_iiif_ark:_12148_btv1b9059263p_f22_full_full_0_native.jpg.json/116/line", 
            "@type": "oa:Annotation", 
            "motivation": "oa:painting", 
            "on": "http://gallica.bnf.fr/iiif/ark:/12148/btv1b9059263p/canvas/f22#xywh=2059,584,45,356", 
            "resource": {
                "@type": "cnt:ContentAsText", 
                "chars": "ET", 
                "format": "text/plain"
            }
        }, 
        {
            "@id": "https://manifests.teklia.com/HIMANIS/FR5291/words_annotations/http_gallica.bnf.fr_iiif_ark:_12148_btv1b9059263p_f22_full_full_0_native.jpg.json/117/line", 
            "@type": "oa:Annotation", 
            "motivation": "oa:painting", 
            "on": "http://gallica.bnf.fr/iiif/ark:/12148/btv1b9059263p/canvas/f22#xywh=159,1367,63,36", 
            "resource": {
                "@type": "cnt:ContentAsText", 
                "chars": "LES", 
                "format": "text/plain"
            }
        }, 
        {
            "@id": "https://manifests.teklia.com/HIMANIS/FR5291/words_annotations/http_gallica.bnf.fr_iiif_ark:_12148_btv1b9059263p_f22_full_full_0_native.jpg.json/118/line", 
            "@type": "oa:Annotation", 
            "motivation": "oa:painting", 
            "on": "http://gallica.bnf.fr/iiif/ark:/12148/btv1b9059263p/canvas/f22#xywh=1652,1726,177,166", 
            "resource": {
                "@type": "cnt:ContentAsText", 
                "chars": "TALES", 
                "format": "text/plain"
            }
        }, 
        {
            "@id": "https://manifests.teklia.com/HIMANIS/FR5291/words_annotations/http_gallica.bnf.fr_iiif_ark:_12148_btv1b9059263p_f22_full_full_0_native.jpg.json/119/line", 
            "@type": "oa:Annotation", 
            "motivation": "oa:painting", 
            "on": "http://gallica.bnf.fr/iiif/ark:/12148/btv1b9059263p/canvas/f22#xywh=1367,3751,79,256", 
            "resource": {
                "@type": "cnt:ContentAsText", 
                "chars": "NE", 
                "format": "text/plain"
            }
        }, 
        {
            "@id": "https://manifests.teklia.com/HIMANIS/FR5291/words_annotations/http_gallica.bnf.fr_iiif_ark:_12148_btv1b9059263p_f22_full_full_0_native.jpg.json/120/line", 
            "@type": "oa:Annotation", 
            "motivation": "oa:painting", 
            "on": "http://gallica.bnf.fr/iiif/ark:/12148/btv1b9059263p/canvas/f22#xywh=1026,1726,240,166", 
            "resource": {
                "@type": "cnt:ContentAsText", 
                "chars": "RENERS", 
                "format": "text/plain"
            }
        }, 
        {
            "@id": "https://manifests.teklia.com/HIMANIS/FR5291/words_annotations/http_gallica.bnf.fr_iiif_ark:_12148_btv1b9059263p_f22_full_full_0_native.jpg.json/121/line", 
            "@type": "oa:Annotation", 
            "motivation": "oa:painting", 
            "on": "http://gallica.bnf.fr/iiif/ark:/12148/btv1b9059263p/canvas/f22#xywh=1026,1726,240,166", 
            "resource": {
                "@type": "cnt:ContentAsText", 
                "chars": "REVERS", 
                "format": "text/plain"
            }
        }, 
        {
            "@id": "https://manifests.teklia.com/HIMANIS/FR5291/words_annotations/http_gallica.bnf.fr_iiif_ark:_12148_btv1b9059263p_f22_full_full_0_native.jpg.json/122/line", 
            "@type": "oa:Annotation", 
            "motivation": "oa:painting", 
            "on": "http://gallica.bnf.fr/iiif/ark:/12148/btv1b9059263p/canvas/f22#xywh=1047,3751,272,256", 
            "resource": {
                "@type": "cnt:ContentAsText", 
                "chars": "JOINGNI", 
                "format": "text/plain"
            }
        }, 
        {
            "@id": "https://manifests.teklia.com/HIMANIS/FR5291/words_annotations/http_gallica.bnf.fr_iiif_ark:_12148_btv1b9059263p_f22_full_full_0_native.jpg.json/123/line", 
            "@type": "oa:Annotation", 
            "motivation": "oa:painting", 
            "on": "http://gallica.bnf.fr/iiif/ark:/12148/btv1b9059263p/canvas/f22#xywh=1009,1996,265,184", 
            "resource": {
                "@type": "cnt:ContentAsText", 
                "chars": "PANTOLI", 
                "format": "text/plain"
            }
        }, 
        {
            "@id": "https://manifests.teklia.com/HIMANIS/FR5291/words_annotations/http_gallica.bnf.fr_iiif_ark:_12148_btv1b9059263p_f22_full_full_0_native.jpg.json/124/line", 
            "@type": "oa:Annotation", 
            "motivation": "oa:painting", 
            "on": "http://gallica.bnf.fr/iiif/ark:/12148/btv1b9059263p/canvas/f22#xywh=2788,3085,165,202", 
            "resource": {
                "@type": "cnt:ContentAsText", 
                "chars": "PARTIES", 
                "format": "text/plain"
            }
        }, 
        {
            "@id": "https://manifests.teklia.com/HIMANIS/FR5291/words_annotations/http_gallica.bnf.fr_iiif_ark:_12148_btv1b9059263p_f22_full_full_0_native.jpg.json/125/line", 
            "@type": "oa:Annotation", 
            "motivation": "oa:painting", 
            "on": "http://gallica.bnf.fr/iiif/ark:/12148/btv1b9059263p/canvas/f22#xywh=1302,2796,148,262", 
            "resource": {
                "@type": "cnt:ContentAsText", 
                "chars": "DEMI", 
                "format": "text/plain"
            }
        }, 
        {
            "@id": "https://manifests.teklia.com/HIMANIS/FR5291/words_annotations/http_gallica.bnf.fr_iiif_ark:_12148_btv1b9059263p_f22_full_full_0_native.jpg.json/126/line", 
            "@type": "oa:Annotation", 
            "motivation": "oa:painting", 
            "on": "http://gallica.bnf.fr/iiif/ark:/12148/btv1b9059263p/canvas/f22#xywh=1302,2796,148,262", 
            "resource": {
                "@type": "cnt:ContentAsText", 
                "chars": "DEUS", 
                "format": "text/plain"
            }
        }, 
        {
            "@id": "https://manifests.teklia.com/HIMANIS/FR5291/words_annotations/http_gallica.bnf.fr_iiif_ark:_12148_btv1b9059263p_f22_full_full_0_native.jpg.json/127/line", 
            "@type": "oa:Annotation", 
            "motivation": "oa:painting", 
            "on": "http://gallica.bnf.fr/iiif/ark:/12148/btv1b9059263p/canvas/f22#xywh=1302,2796,148,262", 
            "resource": {
                "@type": "cnt:ContentAsText", 
                "chars": "DEUX", 
                "format": "text/plain"
            }
        }, 
        {
            "@id": "https://manifests.teklia.com/HIMANIS/FR5291/words_annotations/http_gallica.bnf.fr_iiif_ark:_12148_btv1b9059263p_f22_full_full_0_native.jpg.json/128/line", 
            "@type": "oa:Annotation", 
            "motivation": "oa:painting", 
            "on": "http://gallica.bnf.fr/iiif/ark:/12148/btv1b9059263p/canvas/f22#xywh=2788,3085,178,202", 
            "resource": {
                "@type": "cnt:ContentAsText", 
                "chars": "PARTIERS", 
                "format": "text/plain"
            }
        }, 
        {
            "@id": "https://manifests.teklia.com/HIMANIS/FR5291/words_annotations/http_gallica.bnf.fr_iiif_ark:_12148_btv1b9059263p_f22_full_full_0_native.jpg.json/129/line", 
            "@type": "oa:Annotation", 
            "motivation": "oa:painting", 
            "on": "http://gallica.bnf.fr/iiif/ark:/12148/btv1b9059263p/canvas/f22#xywh=158,874,230,244", 
            "resource": {
                "@type": "cnt:ContentAsText", 
                "chars": "PHILIPPES", 
                "format": "text/plain"
            }
        }, 
        {
            "@id": "https://manifests.teklia.com/HIMANIS/FR5291/words_annotations/http_gallica.bnf.fr_iiif_ark:_12148_btv1b9059263p_f22_full_full_0_native.jpg.json/130/line", 
            "@type": "oa:Annotation", 
            "motivation": "oa:painting", 
            "on": "http://gallica.bnf.fr/iiif/ark:/12148/btv1b9059263p/canvas/f22#xywh=710,2519,62,329", 
            "resource": {
                "@type": "cnt:ContentAsText", 
                "chars": "ET", 
                "format": "text/plain"
            }
        }, 
        {
            "@id": "https://manifests.teklia.com/HIMANIS/FR5291/words_annotations/http_gallica.bnf.fr_iiif_ark:_12148_btv1b9059263p_f22_full_full_0_native.jpg.json/131/line", 
            "@type": "oa:Annotation", 
            "motivation": "oa:painting", 
            "on": "http://gallica.bnf.fr/iiif/ark:/12148/btv1b9059263p/canvas/f22#xywh=724,874,0,244", 
            "resource": {
                "@type": "cnt:ContentAsText", 
                "chars": "G", 
                "format": "text/plain"
            }
        }, 
        {
            "@id": "https://manifests.teklia.com/HIMANIS/FR5291/words_annotations/http_gallica.bnf.fr_iiif_ark:_12148_btv1b9059263p_f22_full_full_0_native.jpg.json/132/line", 
            "@type": "oa:Annotation", 
            "motivation": "oa:painting", 
            "on": "http://gallica.bnf.fr/iiif/ark:/12148/btv1b9059263p/canvas/f22#xywh=710,2519,246,329", 
            "resource": {
                "@type": "cnt:ContentAsText", 
                "chars": "AOUL", 
                "format": "text/plain"
            }
        }, 
        {
            "@id": "https://manifests.teklia.com/HIMANIS/FR5291/words_annotations/http_gallica.bnf.fr_iiif_ark:_12148_btv1b9059263p_f22_full_full_0_native.jpg.json/133/line", 
            "@type": "oa:Annotation", 
            "motivation": "oa:painting", 
            "on": "http://gallica.bnf.fr/iiif/ark:/12148/btv1b9059263p/canvas/f22#xywh=2585,3085,178,202", 
            "resource": {
                "@type": "cnt:ContentAsText", 
                "chars": "TIERCE", 
                "format": "text/plain"
            }
        }, 
        {
            "@id": "https://manifests.teklia.com/HIMANIS/FR5291/words_annotations/http_gallica.bnf.fr_iiif_ark:_12148_btv1b9059263p_f22_full_full_0_native.jpg.json/134/line", 
            "@type": "oa:Annotation", 
            "motivation": "oa:painting", 
            "on": "http://gallica.bnf.fr/iiif/ark:/12148/btv1b9059263p/canvas/f22#xywh=1468,2519,287,329", 
            "resource": {
                "@type": "cnt:ContentAsText", 
                "chars": "TURONAY", 
                "format": "text/plain"
            }
        }, 
        {
            "@id": "https://manifests.teklia.com/HIMANIS/FR5291/words_annotations/http_gallica.bnf.fr_iiif_ark:_12148_btv1b9059263p_f22_full_full_0_native.jpg.json/135/line", 
            "@type": "oa:Annotation", 
            "motivation": "oa:painting", 
            "on": "http://gallica.bnf.fr/iiif/ark:/12148/btv1b9059263p/canvas/f22#xywh=170,2796,722,262", 
            "resource": {
                "@type": "cnt:ContentAsText", 
                "chars": "ALII", 
                "format": "text/plain"
            }
        }, 
        {
            "@id": "https://manifests.teklia.com/HIMANIS/FR5291/words_annotations/http_gallica.bnf.fr_iiif_ark:_12148_btv1b9059263p_f22_full_full_0_native.jpg.json/136/line", 
            "@type": "oa:Annotation", 
            "motivation": "oa:painting", 
            "on": "http://gallica.bnf.fr/iiif/ark:/12148/btv1b9059263p/canvas/f22#xywh=1975,2796,66,262", 
            "resource": {
                "@type": "cnt:ContentAsText", 
                "chars": "ET", 
                "format": "text/plain"
            }
        }, 
        {
            "@id": "https://manifests.teklia.com/HIMANIS/FR5291/words_annotations/http_gallica.bnf.fr_iiif_ark:_12148_btv1b9059263p_f22_full_full_0_native.jpg.json/137/line", 
            "@type": "oa:Annotation", 
            "motivation": "oa:painting", 
            "on": "http://gallica.bnf.fr/iiif/ark:/12148/btv1b9059263p/canvas/f22#xywh=1634,3085,89,202", 
            "resource": {
                "@type": "cnt:ContentAsText", 
                "chars": "LES", 
                "format": "text/plain"
            }
        }, 
        {
            "@id": "https://manifests.teklia.com/HIMANIS/FR5291/words_annotations/http_gallica.bnf.fr_iiif_ark:_12148_btv1b9059263p_f22_full_full_0_native.jpg.json/138/line", 
            "@type": "oa:Annotation", 
            "motivation": "oa:painting", 
            "on": "http://gallica.bnf.fr/iiif/ark:/12148/btv1b9059263p/canvas/f22#xywh=3042,3085,89,202", 
            "resource": {
                "@type": "cnt:ContentAsText", 
                "chars": "FOL", 
                "format": "text/plain"
            }
        }, 
        {
            "@id": "https://manifests.teklia.com/HIMANIS/FR5291/words_annotations/http_gallica.bnf.fr_iiif_ark:_12148_btv1b9059263p_f22_full_full_0_native.jpg.json/139/line", 
            "@type": "oa:Annotation", 
            "motivation": "oa:painting", 
            "on": "http://gallica.bnf.fr/iiif/ark:/12148/btv1b9059263p/canvas/f22#xywh=1622,3751,0,256", 
            "resource": {
                "@type": "cnt:ContentAsText", 
                "chars": "A", 
                "format": "text/plain"
            }
        }, 
        {
            "@id": "https://manifests.teklia.com/HIMANIS/FR5291/words_annotations/http_gallica.bnf.fr_iiif_ark:_12148_btv1b9059263p_f22_full_full_0_native.jpg.json/140/line", 
            "@type": "oa:Annotation", 
            "motivation": "oa:painting", 
            "on": "http://gallica.bnf.fr/iiif/ark:/12148/btv1b9059263p/canvas/f22#xywh=2336,2796,295,262", 
            "resource": {
                "@type": "cnt:ContentAsText", 
                "chars": "PINELAI", 
                "format": "text/plain"
            }
        }, 
        {
            "@id": "https://manifests.teklia.com/HIMANIS/FR5291/words_annotations/http_gallica.bnf.fr_iiif_ark:_12148_btv1b9059263p_f22_full_full_0_native.jpg.json/141/line", 
            "@type": "oa:Annotation", 
            "motivation": "oa:painting", 
            "on": "http://gallica.bnf.fr/iiif/ark:/12148/btv1b9059263p/canvas/f22#xywh=1792,584,200,356", 
            "resource": {
                "@type": "cnt:ContentAsText", 
                "chars": "BAILLIS", 
                "format": "text/plain"
            }
        }, 
        {
            "@id": "https://manifests.teklia.com/HIMANIS/FR5291/words_annotations/http_gallica.bnf.fr_iiif_ark:_12148_btv1b9059263p_f22_full_full_0_native.jpg.json/142/line", 
            "@type": "oa:Annotation", 
            "motivation": "oa:painting", 
            "on": "http://gallica.bnf.fr/iiif/ark:/12148/btv1b9059263p/canvas/f22#xywh=1426,1462,0,194", 
            "resource": {
                "@type": "cnt:ContentAsText", 
                "chars": "A", 
                "format": "text/plain"
            }
        }, 
        {
            "@id": "https://manifests.teklia.com/HIMANIS/FR5291/words_annotations/http_gallica.bnf.fr_iiif_ark:_12148_btv1b9059263p_f22_full_full_0_native.jpg.json/143/line", 
            "@type": "oa:Annotation", 
            "motivation": "oa:painting", 
            "on": "http://gallica.bnf.fr/iiif/ark:/12148/btv1b9059263p/canvas/f22#xywh=1792,584,178,356", 
            "resource": {
                "@type": "cnt:ContentAsText", 
                "chars": "BAILLES", 
                "format": "text/plain"
            }
        }, 
        {
            "@id": "https://manifests.teklia.com/HIMANIS/FR5291/words_annotations/http_gallica.bnf.fr_iiif_ark:_12148_btv1b9059263p_f22_full_full_0_native.jpg.json/144/line", 
            "@type": "oa:Annotation", 
            "motivation": "oa:painting", 
            "on": "http://gallica.bnf.fr/iiif/ark:/12148/btv1b9059263p/canvas/f22#xywh=1736,3085,76,202", 
            "resource": {
                "@type": "cnt:ContentAsText", 
                "chars": "IN", 
                "format": "text/plain"
            }
        }, 
        {
            "@id": "https://manifests.teklia.com/HIMANIS/FR5291/words_annotations/http_gallica.bnf.fr_iiif_ark:_12148_btv1b9059263p_f22_full_full_0_native.jpg.json/145/line", 
            "@type": "oa:Annotation", 
            "motivation": "oa:painting", 
            "on": "http://gallica.bnf.fr/iiif/ark:/12148/btv1b9059263p/canvas/f22#xywh=2336,2796,295,262", 
            "resource": {
                "@type": "cnt:ContentAsText", 
                "chars": "PUNELAI", 
                "format": "text/plain"
            }
        }, 
        {
            "@id": "https://manifests.teklia.com/HIMANIS/FR5291/words_annotations/http_gallica.bnf.fr_iiif_ark:_12148_btv1b9059263p_f22_full_full_0_native.jpg.json/146/line", 
            "@type": "oa:Annotation", 
            "motivation": "oa:painting", 
            "on": "http://gallica.bnf.fr/iiif/ark:/12148/btv1b9059263p/canvas/f22#xywh=2926,3477,124,219", 
            "resource": {
                "@type": "cnt:ContentAsText", 
                "chars": "QUATRE", 
                "format": "text/plain"
            }
        }, 
        {
            "@id": "https://manifests.teklia.com/HIMANIS/FR5291/words_annotations/http_gallica.bnf.fr_iiif_ark:_12148_btv1b9059263p_f22_full_full_0_native.jpg.json/147/line", 
            "@type": "oa:Annotation", 
            "motivation": "oa:painting", 
            "on": "http://gallica.bnf.fr/iiif/ark:/12148/btv1b9059263p/canvas/f22#xywh=2420,3085,64,202", 
            "resource": {
                "@type": "cnt:ContentAsText", 
                "chars": "ET", 
                "format": "text/plain"
            }
        }, 
        {
            "@id": "https://manifests.teklia.com/HIMANIS/FR5291/words_annotations/http_gallica.bnf.fr_iiif_ark:_12148_btv1b9059263p_f22_full_full_0_native.jpg.json/148/line", 
            "@type": "oa:Annotation", 
            "motivation": "oa:painting", 
            "on": "http://gallica.bnf.fr/iiif/ark:/12148/btv1b9059263p/canvas/f22#xywh=1302,2796,99,262", 
            "resource": {
                "@type": "cnt:ContentAsText", 
                "chars": "DEU", 
                "format": "text/plain"
            }
        }, 
        {
            "@id": "https://manifests.teklia.com/HIMANIS/FR5291/words_annotations/http_gallica.bnf.fr_iiif_ark:_12148_btv1b9059263p_f22_full_full_0_native.jpg.json/149/line", 
            "@type": "oa:Annotation", 
            "motivation": "oa:painting", 
            "on": "http://gallica.bnf.fr/iiif/ark:/12148/btv1b9059263p/canvas/f22#xywh=1850,1462,157,194", 
            "resource": {
                "@type": "cnt:ContentAsText", 
                "chars": "D'EN", 
                "format": "text/plain"
            }
        }, 
        {
            "@id": "https://manifests.teklia.com/HIMANIS/FR5291/words_annotations/http_gallica.bnf.fr_iiif_ark:_12148_btv1b9059263p_f22_full_full_0_native.jpg.json/150/line", 
            "@type": "oa:Annotation", 
            "motivation": "oa:painting", 
            "on": "http://gallica.bnf.fr/iiif/ark:/12148/btv1b9059263p/canvas/f22#xywh=1589,2211,160,232", 
            "resource": {
                "@type": "cnt:ContentAsText", 
                "chars": "DENU", 
                "format": "text/plain"
            }
        }, 
        {
            "@id": "https://manifests.teklia.com/HIMANIS/FR5291/words_annotations/http_gallica.bnf.fr_iiif_ark:_12148_btv1b9059263p_f22_full_full_0_native.jpg.json/151/line", 
            "@type": "oa:Annotation", 
            "motivation": "oa:painting", 
            "on": "http://gallica.bnf.fr/iiif/ark:/12148/btv1b9059263p/canvas/f22#xywh=687,2211,218,232", 
            "resource": {
                "@type": "cnt:ContentAsText", 
                "chars": "NOBIST", 
                "format": "text/plain"
            }
        }, 
        {
            "@id": "https://manifests.teklia.com/HIMANIS/FR5291/words_annotations/http_gallica.bnf.fr_iiif_ark:_12148_btv1b9059263p_f22_full_full_0_native.jpg.json/152/line", 
            "@type": "oa:Annotation", 
            "motivation": "oa:painting", 
            "on": "http://gallica.bnf.fr/iiif/ark:/12148/btv1b9059263p/canvas/f22#xywh=699,483,374,213", 
            "resource": {
                "@type": "cnt:ContentAsText", 
                "chars": "PHILIPPUS", 
                "format": "text/plain"
            }
        }, 
        {
            "@id": "https://manifests.teklia.com/HIMANIS/FR5291/words_annotations/http_gallica.bnf.fr_iiif_ark:_12148_btv1b9059263p_f22_full_full_0_native.jpg.json/153/line", 
            "@type": "oa:Annotation", 
            "motivation": "oa:painting", 
            "on": "http://gallica.bnf.fr/iiif/ark:/12148/btv1b9059263p/canvas/f22#xywh=699,483,347,213", 
            "resource": {
                "@type": "cnt:ContentAsText", 
                "chars": "PHILIPPES", 
                "format": "text/plain"
            }
        }, 
        {
            "@id": "https://manifests.teklia.com/HIMANIS/FR5291/words_annotations/http_gallica.bnf.fr_iiif_ark:_12148_btv1b9059263p_f22_full_full_0_native.jpg.json/154/line", 
            "@type": "oa:Annotation", 
            "motivation": "oa:painting", 
            "on": "http://gallica.bnf.fr/iiif/ark:/12148/btv1b9059263p/canvas/f22#xywh=2728,584,423,356", 
            "resource": {
                "@type": "cnt:ContentAsText", 
                "chars": "CHARLES", 
                "format": "text/plain"
            }
        }, 
        {
            "@id": "https://manifests.teklia.com/HIMANIS/FR5291/words_annotations/http_gallica.bnf.fr_iiif_ark:_12148_btv1b9059263p_f22_full_full_0_native.jpg.json/155/line", 
            "@type": "oa:Annotation", 
            "motivation": "oa:painting", 
            "on": "http://gallica.bnf.fr/iiif/ark:/12148/btv1b9059263p/canvas/f22#xywh=805,312,0,59", 
            "resource": {
                "@type": "cnt:ContentAsText", 
                "chars": "R", 
                "format": "text/plain"
            }
        }, 
        {
            "@id": "https://manifests.teklia.com/HIMANIS/FR5291/words_annotations/http_gallica.bnf.fr_iiif_ark:_12148_btv1b9059263p_f22_full_full_0_native.jpg.json/156/line", 
            "@type": "oa:Annotation", 
            "motivation": "oa:painting", 
            "on": "http://gallica.bnf.fr/iiif/ark:/12148/btv1b9059263p/canvas/f22#xywh=1568,1726,52,166", 
            "resource": {
                "@type": "cnt:ContentAsText", 
                "chars": "LE", 
                "format": "text/plain"
            }
        }, 
        {
            "@id": "https://manifests.teklia.com/HIMANIS/FR5291/words_annotations/http_gallica.bnf.fr_iiif_ark:_12148_btv1b9059263p_f22_full_full_0_native.jpg.json/157/line", 
            "@type": "oa:Annotation", 
            "motivation": "oa:painting", 
            "on": "http://gallica.bnf.fr/iiif/ark:/12148/btv1b9059263p/canvas/f22#xywh=943,1726,52,166", 
            "resource": {
                "@type": "cnt:ContentAsText", 
                "chars": "DE", 
                "format": "text/plain"
            }
        }, 
        {
            "@id": "https://manifests.teklia.com/HIMANIS/FR5291/words_annotations/http_gallica.bnf.fr_iiif_ark:_12148_btv1b9059263p_f22_full_full_0_native.jpg.json/158/line", 
            "@type": "oa:Annotation", 
            "motivation": "oa:painting", 
            "on": "http://gallica.bnf.fr/iiif/ark:/12148/btv1b9059263p/canvas/f22#xywh=964,2211,58,232", 
            "resource": {
                "@type": "cnt:ContentAsText", 
                "chars": "DE", 
                "format": "text/plain"
            }
        }, 
        {
            "@id": "https://manifests.teklia.com/HIMANIS/FR5291/words_annotations/http_gallica.bnf.fr_iiif_ark:_12148_btv1b9059263p_f22_full_full_0_native.jpg.json/159/line", 
            "@type": "oa:Annotation", 
            "motivation": "oa:painting", 
            "on": "http://gallica.bnf.fr/iiif/ark:/12148/btv1b9059263p/canvas/f22#xywh=2118,3751,335,256", 
            "resource": {
                "@type": "cnt:ContentAsText", 
                "chars": "AUBERILLE", 
                "format": "text/plain"
            }
        }, 
        {
            "@id": "https://manifests.teklia.com/HIMANIS/FR5291/words_annotations/http_gallica.bnf.fr_iiif_ark:_12148_btv1b9059263p_f22_full_full_0_native.jpg.json/160/line", 
            "@type": "oa:Annotation", 
            "motivation": "oa:painting", 
            "on": "http://gallica.bnf.fr/iiif/ark:/12148/btv1b9059263p/canvas/f22#xywh=692,1726,219,166", 
            "resource": {
                "@type": "cnt:ContentAsText", 
                "chars": "PHILIPPES", 
                "format": "text/plain"
            }
        }, 
        {
            "@id": "https://manifests.teklia.com/HIMANIS/FR5291/words_annotations/http_gallica.bnf.fr_iiif_ark:_12148_btv1b9059263p_f22_full_full_0_native.jpg.json/161/line", 
            "@type": "oa:Annotation", 
            "motivation": "oa:painting", 
            "on": "http://gallica.bnf.fr/iiif/ark:/12148/btv1b9059263p/canvas/f22#xywh=1327,2211,0,232", 
            "resource": {
                "@type": "cnt:ContentAsText", 
                "chars": "A", 
                "format": "text/plain"
            }
        }, 
        {
            "@id": "https://manifests.teklia.com/HIMANIS/FR5291/words_annotations/http_gallica.bnf.fr_iiif_ark:_12148_btv1b9059263p_f22_full_full_0_native.jpg.json/162/line", 
            "@type": "oa:Annotation", 
            "motivation": "oa:painting", 
            "on": "http://gallica.bnf.fr/iiif/ark:/12148/btv1b9059263p/canvas/f22#xywh=663,3751,256,256", 
            "resource": {
                "@type": "cnt:ContentAsText", 
                "chars": "ROBERT", 
                "format": "text/plain"
            }
        }, 
        {
            "@id": "https://manifests.teklia.com/HIMANIS/FR5291/words_annotations/http_gallica.bnf.fr_iiif_ark:_12148_btv1b9059263p_f22_full_full_0_native.jpg.json/163/line", 
            "@type": "oa:Annotation", 
            "motivation": "oa:painting", 
            "on": "http://gallica.bnf.fr/iiif/ark:/12148/btv1b9059263p/canvas/f22#xywh=1612,1178,0,240", 
            "resource": {
                "@type": "cnt:ContentAsText", 
                "chars": "A", 
                "format": "text/plain"
            }
        }, 
        {
            "@id": "https://manifests.teklia.com/HIMANIS/FR5291/words_annotations/http_gallica.bnf.fr_iiif_ark:_12148_btv1b9059263p_f22_full_full_0_native.jpg.json/164/line", 
            "@type": "oa:Annotation", 
            "motivation": "oa:painting", 
            "on": "http://gallica.bnf.fr/iiif/ark:/12148/btv1b9059263p/canvas/f22#xywh=170,2796,755,262", 
            "resource": {
                "@type": "cnt:ContentAsText", 
                "chars": "NAVARI", 
                "format": "text/plain"
            }
        }, 
        {
            "@id": "https://manifests.teklia.com/HIMANIS/FR5291/words_annotations/http_gallica.bnf.fr_iiif_ark:_12148_btv1b9059263p_f22_full_full_0_native.jpg.json/165/line", 
            "@type": "oa:Annotation", 
            "motivation": "oa:painting", 
            "on": "http://gallica.bnf.fr/iiif/ark:/12148/btv1b9059263p/canvas/f22#xywh=733,3299,302,57", 
            "resource": {
                "@type": "cnt:ContentAsText", 
                "chars": "CC", 
                "format": "text/plain"
            }
        }, 
        {
            "@id": "https://manifests.teklia.com/HIMANIS/FR5291/words_annotations/http_gallica.bnf.fr_iiif_ark:_12148_btv1b9059263p_f22_full_full_0_native.jpg.json/166/line", 
            "@type": "oa:Annotation", 
            "motivation": "oa:painting", 
            "on": "http://gallica.bnf.fr/iiif/ark:/12148/btv1b9059263p/canvas/f22#xywh=733,3299,295,57", 
            "resource": {
                "@type": "cnt:ContentAsText", 
                "chars": "CE", 
                "format": "text/plain"
            }
        }
    ]
}