{
    "@context": "http://iiif.io/api/presentation/2/context.json", 
    "@id": "https://manifests.teklia.com/HIMANIS/FR5291/words_annotations/http_gallica.bnf.fr_iiif_ark:_12148_btv1b9059263p_f255_full_full_0_native.jpg.json", 
    "@type": "sc:AnnotationList", 
    "resources": [
        {
            "@id": "https://manifests.teklia.com/HIMANIS/FR5291/words_annotations/http_gallica.bnf.fr_iiif_ark:_12148_btv1b9059263p_f255_full_full_0_native.jpg.json/0/line", 
            "@type": "oa:Annotation", 
            "motivation": "oa:painting", 
            "on": "http://gallica.bnf.fr/iiif/ark:/12148/btv1b9059263p/canvas/f255#xywh=142,1149,293,90", 
            "resource": {
                "@type": "cnt:ContentAsText", 
                "chars": "SALLE", 
                "format": "text/plain"
            }
        }, 
        {
            "@id": "https://manifests.teklia.com/HIMANIS/FR5291/words_annotations/http_gallica.bnf.fr_iiif_ark:_12148_btv1b9059263p_f255_full_full_0_native.jpg.json/1/line", 
            "@type": "oa:Annotation", 
            "motivation": "oa:painting", 
            "on": "http://gallica.bnf.fr/iiif/ark:/12148/btv1b9059263p/canvas/f255#xywh=142,1149,293,90", 
            "resource": {
                "@type": "cnt:ContentAsText", 
                "chars": "SALLI", 
                "format": "text/plain"
            }
        }, 
        {
            "@id": "https://manifests.teklia.com/HIMANIS/FR5291/words_annotations/http_gallica.bnf.fr_iiif_ark:_12148_btv1b9059263p_f255_full_full_0_native.jpg.json/2/line", 
            "@type": "oa:Annotation", 
            "motivation": "oa:painting", 
            "on": "http://gallica.bnf.fr/iiif/ark:/12148/btv1b9059263p/canvas/f255#xywh=745,1354,273,85", 
            "resource": {
                "@type": "cnt:ContentAsText", 
                "chars": "LETTRES", 
                "format": "text/plain"
            }
        }, 
        {
            "@id": "https://manifests.teklia.com/HIMANIS/FR5291/words_annotations/http_gallica.bnf.fr_iiif_ark:_12148_btv1b9059263p_f255_full_full_0_native.jpg.json/3/line", 
            "@type": "oa:Annotation", 
            "motivation": "oa:painting", 
            "on": "http://gallica.bnf.fr/iiif/ark:/12148/btv1b9059263p/canvas/f255#xywh=740,3027,416,70", 
            "resource": {
                "@type": "cnt:ContentAsText", 
                "chars": "QUE", 
                "format": "text/plain"
            }
        }, 
        {
            "@id": "https://manifests.teklia.com/HIMANIS/FR5291/words_annotations/http_gallica.bnf.fr_iiif_ark:_12148_btv1b9059263p_f255_full_full_0_native.jpg.json/4/line", 
            "@type": "oa:Annotation", 
            "motivation": "oa:painting", 
            "on": "http://gallica.bnf.fr/iiif/ark:/12148/btv1b9059263p/canvas/f255#xywh=740,3027,416,70", 
            "resource": {
                "@type": "cnt:ContentAsText", 
                "chars": "QUI", 
                "format": "text/plain"
            }
        }, 
        {
            "@id": "https://manifests.teklia.com/HIMANIS/FR5291/words_annotations/http_gallica.bnf.fr_iiif_ark:_12148_btv1b9059263p_f255_full_full_0_native.jpg.json/5/line", 
            "@type": "oa:Annotation", 
            "motivation": "oa:painting", 
            "on": "http://gallica.bnf.fr/iiif/ark:/12148/btv1b9059263p/canvas/f255#xywh=178,2367,358,70", 
            "resource": {
                "@type": "cnt:ContentAsText", 
                "chars": "PHILIPPUS", 
                "format": "text/plain"
            }
        }, 
        {
            "@id": "https://manifests.teklia.com/HIMANIS/FR5291/words_annotations/http_gallica.bnf.fr_iiif_ark:_12148_btv1b9059263p_f255_full_full_0_native.jpg.json/6/line", 
            "@type": "oa:Annotation", 
            "motivation": "oa:painting", 
            "on": "http://gallica.bnf.fr/iiif/ark:/12148/btv1b9059263p/canvas/f255#xywh=1880,3528,316,105", 
            "resource": {
                "@type": "cnt:ContentAsText", 
                "chars": "D'ANGLETE", 
                "format": "text/plain"
            }
        }, 
        {
            "@id": "https://manifests.teklia.com/HIMANIS/FR5291/words_annotations/http_gallica.bnf.fr_iiif_ark:_12148_btv1b9059263p_f255_full_full_0_native.jpg.json/7/line", 
            "@type": "oa:Annotation", 
            "motivation": "oa:painting", 
            "on": "http://gallica.bnf.fr/iiif/ark:/12148/btv1b9059263p/canvas/f255#xywh=1459,1114,160,85", 
            "resource": {
                "@type": "cnt:ContentAsText", 
                "chars": "POUR", 
                "format": "text/plain"
            }
        }, 
        {
            "@id": "https://manifests.teklia.com/HIMANIS/FR5291/words_annotations/http_gallica.bnf.fr_iiif_ark:_12148_btv1b9059263p_f255_full_full_0_native.jpg.json/8/line", 
            "@type": "oa:Annotation", 
            "motivation": "oa:painting", 
            "on": "http://gallica.bnf.fr/iiif/ark:/12148/btv1b9059263p/canvas/f255#xywh=284,2322,517,45", 
            "resource": {
                "@type": "cnt:ContentAsText", 
                "chars": "QUINTO", 
                "format": "text/plain"
            }
        }, 
        {
            "@id": "https://manifests.teklia.com/HIMANIS/FR5291/words_annotations/http_gallica.bnf.fr_iiif_ark:_12148_btv1b9059263p_f255_full_full_0_native.jpg.json/9/line", 
            "@type": "oa:Annotation", 
            "motivation": "oa:painting", 
            "on": "http://gallica.bnf.fr/iiif/ark:/12148/btv1b9059263p/canvas/f255#xywh=313,3326,0,33", 
            "resource": {
                "@type": "cnt:ContentAsText", 
                "chars": "C", 
                "format": "text/plain"
            }
        }, 
        {
            "@id": "https://manifests.teklia.com/HIMANIS/FR5291/words_annotations/http_gallica.bnf.fr_iiif_ark:_12148_btv1b9059263p_f255_full_full_0_native.jpg.json/10/line", 
            "@type": "oa:Annotation", 
            "motivation": "oa:painting", 
            "on": "http://gallica.bnf.fr/iiif/ark:/12148/btv1b9059263p/canvas/f255#xywh=727,1519,0,90", 
            "resource": {
                "@type": "cnt:ContentAsText", 
                "chars": "J", 
                "format": "text/plain"
            }
        }, 
        {
            "@id": "https://manifests.teklia.com/HIMANIS/FR5291/words_annotations/http_gallica.bnf.fr_iiif_ark:_12148_btv1b9059263p_f255_full_full_0_native.jpg.json/11/line", 
            "@type": "oa:Annotation", 
            "motivation": "oa:painting", 
            "on": "http://gallica.bnf.fr/iiif/ark:/12148/btv1b9059263p/canvas/f255#xywh=713,1114,108,85", 
            "resource": {
                "@type": "cnt:ContentAsText", 
                "chars": "PRO", 
                "format": "text/plain"
            }
        }, 
        {
            "@id": "https://manifests.teklia.com/HIMANIS/FR5291/words_annotations/http_gallica.bnf.fr_iiif_ark:_12148_btv1b9059263p_f255_full_full_0_native.jpg.json/12/line", 
            "@type": "oa:Annotation", 
            "motivation": "oa:painting", 
            "on": "http://gallica.bnf.fr/iiif/ark:/12148/btv1b9059263p/canvas/f255#xywh=508,1149,157,90", 
            "resource": {
                "@type": "cnt:ContentAsText", 
                "chars": "VIN", 
                "format": "text/plain"
            }
        }, 
        {
            "@id": "https://manifests.teklia.com/HIMANIS/FR5291/words_annotations/http_gallica.bnf.fr_iiif_ark:_12148_btv1b9059263p_f255_full_full_0_native.jpg.json/13/line", 
            "@type": "oa:Annotation", 
            "motivation": "oa:painting", 
            "on": "http://gallica.bnf.fr/iiif/ark:/12148/btv1b9059263p/canvas/f255#xywh=508,1149,157,90", 
            "resource": {
                "@type": "cnt:ContentAsText", 
                "chars": "VIR", 
                "format": "text/plain"
            }
        }, 
        {
            "@id": "https://manifests.teklia.com/HIMANIS/FR5291/words_annotations/http_gallica.bnf.fr_iiif_ark:_12148_btv1b9059263p_f255_full_full_0_native.jpg.json/14/line", 
            "@type": "oa:Annotation", 
            "motivation": "oa:painting", 
            "on": "http://gallica.bnf.fr/iiif/ark:/12148/btv1b9059263p/canvas/f255#xywh=508,1149,118,90", 
            "resource": {
                "@type": "cnt:ContentAsText", 
                "chars": "VER", 
                "format": "text/plain"
            }
        }, 
        {
            "@id": "https://manifests.teklia.com/HIMANIS/FR5291/words_annotations/http_gallica.bnf.fr_iiif_ark:_12148_btv1b9059263p_f255_full_full_0_native.jpg.json/15/line", 
            "@type": "oa:Annotation", 
            "motivation": "oa:painting", 
            "on": "http://gallica.bnf.fr/iiif/ark:/12148/btv1b9059263p/canvas/f255#xywh=168,2442,53,55", 
            "resource": {
                "@type": "cnt:ContentAsText", 
                "chars": "PUS", 
                "format": "text/plain"
            }
        }, 
        {
            "@id": "https://manifests.teklia.com/HIMANIS/FR5291/words_annotations/http_gallica.bnf.fr_iiif_ark:_12148_btv1b9059263p_f255_full_full_0_native.jpg.json/16/line", 
            "@type": "oa:Annotation", 
            "motivation": "oa:painting", 
            "on": "http://gallica.bnf.fr/iiif/ark:/12148/btv1b9059263p/canvas/f255#xywh=1436,3633,553,100", 
            "resource": {
                "@type": "cnt:ContentAsText", 
                "chars": "LONGIERVILLES", 
                "format": "text/plain"
            }
        }, 
        {
            "@id": "https://manifests.teklia.com/HIMANIS/FR5291/words_annotations/http_gallica.bnf.fr_iiif_ark:_12148_btv1b9059263p_f255_full_full_0_native.jpg.json/17/line", 
            "@type": "oa:Annotation", 
            "motivation": "oa:painting", 
            "on": "http://gallica.bnf.fr/iiif/ark:/12148/btv1b9059263p/canvas/f255#xywh=168,2442,53,55", 
            "resource": {
                "@type": "cnt:ContentAsText", 
                "chars": "PES", 
                "format": "text/plain"
            }
        }, 
        {
            "@id": "https://manifests.teklia.com/HIMANIS/FR5291/words_annotations/http_gallica.bnf.fr_iiif_ark:_12148_btv1b9059263p_f255_full_full_0_native.jpg.json/18/line", 
            "@type": "oa:Annotation", 
            "motivation": "oa:painting", 
            "on": "http://gallica.bnf.fr/iiif/ark:/12148/btv1b9059263p/canvas/f255#xywh=231,2442,77,55", 
            "resource": {
                "@type": "cnt:ContentAsText", 
                "chars": "PAS", 
                "format": "text/plain"
            }
        }, 
        {
            "@id": "https://manifests.teklia.com/HIMANIS/FR5291/words_annotations/http_gallica.bnf.fr_iiif_ark:_12148_btv1b9059263p_f255_full_full_0_native.jpg.json/19/line", 
            "@type": "oa:Annotation", 
            "motivation": "oa:painting", 
            "on": "http://gallica.bnf.fr/iiif/ark:/12148/btv1b9059263p/canvas/f255#xywh=159,3395,90,23", 
            "resource": {
                "@type": "cnt:ContentAsText", 
                "chars": "PHILIPPILIPPE", 
                "format": "text/plain"
            }
        }, 
        {
            "@id": "https://manifests.teklia.com/HIMANIS/FR5291/words_annotations/http_gallica.bnf.fr_iiif_ark:_12148_btv1b9059263p_f255_full_full_0_native.jpg.json/20/line", 
            "@type": "oa:Annotation", 
            "motivation": "oa:painting", 
            "on": "http://gallica.bnf.fr/iiif/ark:/12148/btv1b9059263p/canvas/f255#xywh=1569,964,0,55", 
            "resource": {
                "@type": "cnt:ContentAsText", 
                "chars": "J", 
                "format": "text/plain"
            }
        }, 
        {
            "@id": "https://manifests.teklia.com/HIMANIS/FR5291/words_annotations/http_gallica.bnf.fr_iiif_ark:_12148_btv1b9059263p_f255_full_full_0_native.jpg.json/21/line", 
            "@type": "oa:Annotation", 
            "motivation": "oa:painting", 
            "on": "http://gallica.bnf.fr/iiif/ark:/12148/btv1b9059263p/canvas/f255#xywh=1569,964,0,55", 
            "resource": {
                "@type": "cnt:ContentAsText", 
                "chars": "P", 
                "format": "text/plain"
            }
        }, 
        {
            "@id": "https://manifests.teklia.com/HIMANIS/FR5291/words_annotations/http_gallica.bnf.fr_iiif_ark:_12148_btv1b9059263p_f255_full_full_0_native.jpg.json/22/line", 
            "@type": "oa:Annotation", 
            "motivation": "oa:painting", 
            "on": "http://gallica.bnf.fr/iiif/ark:/12148/btv1b9059263p/canvas/f255#xywh=1586,1014,397,95", 
            "resource": {
                "@type": "cnt:ContentAsText", 
                "chars": "COURT", 
                "format": "text/plain"
            }
        }, 
        {
            "@id": "https://manifests.teklia.com/HIMANIS/FR5291/words_annotations/http_gallica.bnf.fr_iiif_ark:_12148_btv1b9059263p_f255_full_full_0_native.jpg.json/23/line", 
            "@type": "oa:Annotation", 
            "motivation": "oa:painting", 
            "on": "http://gallica.bnf.fr/iiif/ark:/12148/btv1b9059263p/canvas/f255#xywh=727,3703,576,80", 
            "resource": {
                "@type": "cnt:ContentAsText", 
                "chars": "JUSTICIALI", 
                "format": "text/plain"
            }
        }, 
        {
            "@id": "https://manifests.teklia.com/HIMANIS/FR5291/words_annotations/http_gallica.bnf.fr_iiif_ark:_12148_btv1b9059263p_f255_full_full_0_native.jpg.json/24/line", 
            "@type": "oa:Annotation", 
            "motivation": "oa:painting", 
            "on": "http://gallica.bnf.fr/iiif/ark:/12148/btv1b9059263p/canvas/f255#xywh=778,1114,262,85", 
            "resource": {
                "@type": "cnt:ContentAsText", 
                "chars": "MARE", 
                "format": "text/plain"
            }
        }, 
        {
            "@id": "https://manifests.teklia.com/HIMANIS/FR5291/words_annotations/http_gallica.bnf.fr_iiif_ark:_12148_btv1b9059263p_f255_full_full_0_native.jpg.json/25/line", 
            "@type": "oa:Annotation", 
            "motivation": "oa:painting", 
            "on": "http://gallica.bnf.fr/iiif/ark:/12148/btv1b9059263p/canvas/f255#xywh=1257,697,248,77", 
            "resource": {
                "@type": "cnt:ContentAsText", 
                "chars": "DECESSE", 
                "format": "text/plain"
            }
        }, 
        {
            "@id": "https://manifests.teklia.com/HIMANIS/FR5291/words_annotations/http_gallica.bnf.fr_iiif_ark:_12148_btv1b9059263p_f255_full_full_0_native.jpg.json/26/line", 
            "@type": "oa:Annotation", 
            "motivation": "oa:painting", 
            "on": "http://gallica.bnf.fr/iiif/ark:/12148/btv1b9059263p/canvas/f255#xywh=739,2367,48,70", 
            "resource": {
                "@type": "cnt:ContentAsText", 
                "chars": "LI", 
                "format": "text/plain"
            }
        }, 
        {
            "@id": "https://manifests.teklia.com/HIMANIS/FR5291/words_annotations/http_gallica.bnf.fr_iiif_ark:_12148_btv1b9059263p_f255_full_full_0_native.jpg.json/27/line", 
            "@type": "oa:Annotation", 
            "motivation": "oa:painting", 
            "on": "http://gallica.bnf.fr/iiif/ark:/12148/btv1b9059263p/canvas/f255#xywh=3052,3633,50,100", 
            "resource": {
                "@type": "cnt:ContentAsText", 
                "chars": "VR", 
                "format": "text/plain"
            }
        }, 
        {
            "@id": "https://manifests.teklia.com/HIMANIS/FR5291/words_annotations/http_gallica.bnf.fr_iiif_ark:_12148_btv1b9059263p_f255_full_full_0_native.jpg.json/28/line", 
            "@type": "oa:Annotation", 
            "motivation": "oa:painting", 
            "on": "http://gallica.bnf.fr/iiif/ark:/12148/btv1b9059263p/canvas/f255#xywh=805,2367,75,70", 
            "resource": {
                "@type": "cnt:ContentAsText", 
                "chars": "SIEN", 
                "format": "text/plain"
            }
        }, 
        {
            "@id": "https://manifests.teklia.com/HIMANIS/FR5291/words_annotations/http_gallica.bnf.fr_iiif_ark:_12148_btv1b9059263p_f255_full_full_0_native.jpg.json/29/line", 
            "@type": "oa:Annotation", 
            "motivation": "oa:painting", 
            "on": "http://gallica.bnf.fr/iiif/ark:/12148/btv1b9059263p/canvas/f255#xywh=740,3027,182,70", 
            "resource": {
                "@type": "cnt:ContentAsText", 
                "chars": "SE", 
                "format": "text/plain"
            }
        }, 
        {
            "@id": "https://manifests.teklia.com/HIMANIS/FR5291/words_annotations/http_gallica.bnf.fr_iiif_ark:_12148_btv1b9059263p_f255_full_full_0_native.jpg.json/30/line", 
            "@type": "oa:Annotation", 
            "motivation": "oa:painting", 
            "on": "http://gallica.bnf.fr/iiif/ark:/12148/btv1b9059263p/canvas/f255#xywh=413,2442,415,55", 
            "resource": {
                "@type": "cnt:ContentAsText", 
                "chars": "DE", 
                "format": "text/plain"
            }
        }, 
        {
            "@id": "https://manifests.teklia.com/HIMANIS/FR5291/words_annotations/http_gallica.bnf.fr_iiif_ark:_12148_btv1b9059263p_f255_full_full_0_native.jpg.json/31/line", 
            "@type": "oa:Annotation", 
            "motivation": "oa:painting", 
            "on": "http://gallica.bnf.fr/iiif/ark:/12148/btv1b9059263p/canvas/f255#xywh=1436,3633,540,100", 
            "resource": {
                "@type": "cnt:ContentAsText", 
                "chars": "ANGIERVILLE", 
                "format": "text/plain"
            }
        }, 
        {
            "@id": "https://manifests.teklia.com/HIMANIS/FR5291/words_annotations/http_gallica.bnf.fr_iiif_ark:_12148_btv1b9059263p_f255_full_full_0_native.jpg.json/32/line", 
            "@type": "oa:Annotation", 
            "motivation": "oa:painting", 
            "on": "http://gallica.bnf.fr/iiif/ark:/12148/btv1b9059263p/canvas/f255#xywh=727,3703,394,80", 
            "resource": {
                "@type": "cnt:ContentAsText", 
                "chars": "JUSTICIA", 
                "format": "text/plain"
            }
        }, 
        {
            "@id": "https://manifests.teklia.com/HIMANIS/FR5291/words_annotations/http_gallica.bnf.fr_iiif_ark:_12148_btv1b9059263p_f255_full_full_0_native.jpg.json/33/line", 
            "@type": "oa:Annotation", 
            "motivation": "oa:painting", 
            "on": "http://gallica.bnf.fr/iiif/ark:/12148/btv1b9059263p/canvas/f255#xywh=1068,2181,60,120", 
            "resource": {
                "@type": "cnt:ContentAsText", 
                "chars": "DE", 
                "format": "text/plain"
            }
        }, 
        {
            "@id": "https://manifests.teklia.com/HIMANIS/FR5291/words_annotations/http_gallica.bnf.fr_iiif_ark:_12148_btv1b9059263p_f255_full_full_0_native.jpg.json/34/line", 
            "@type": "oa:Annotation", 
            "motivation": "oa:painting", 
            "on": "http://gallica.bnf.fr/iiif/ark:/12148/btv1b9059263p/canvas/f255#xywh=1612,879,318,85", 
            "resource": {
                "@type": "cnt:ContentAsText", 
                "chars": "PE", 
                "format": "text/plain"
            }
        }, 
        {
            "@id": "https://manifests.teklia.com/HIMANIS/FR5291/words_annotations/http_gallica.bnf.fr_iiif_ark:_12148_btv1b9059263p_f255_full_full_0_native.jpg.json/35/line", 
            "@type": "oa:Annotation", 
            "motivation": "oa:painting", 
            "on": "http://gallica.bnf.fr/iiif/ark:/12148/btv1b9059263p/canvas/f255#xywh=1257,697,277,77", 
            "resource": {
                "@type": "cnt:ContentAsText", 
                "chars": "DECLAREM", 
                "format": "text/plain"
            }
        }, 
        {
            "@id": "https://manifests.teklia.com/HIMANIS/FR5291/words_annotations/http_gallica.bnf.fr_iiif_ark:_12148_btv1b9059263p_f255_full_full_0_native.jpg.json/36/line", 
            "@type": "oa:Annotation", 
            "motivation": "oa:painting", 
            "on": "http://gallica.bnf.fr/iiif/ark:/12148/btv1b9059263p/canvas/f255#xywh=174,4767,274,125", 
            "resource": {
                "@type": "cnt:ContentAsText", 
                "chars": "DE", 
                "format": "text/plain"
            }
        }, 
        {
            "@id": "https://manifests.teklia.com/HIMANIS/FR5291/words_annotations/http_gallica.bnf.fr_iiif_ark:_12148_btv1b9059263p_f255_full_full_0_native.jpg.json/37/line", 
            "@type": "oa:Annotation", 
            "motivation": "oa:painting", 
            "on": "http://gallica.bnf.fr/iiif/ark:/12148/btv1b9059263p/canvas/f255#xywh=682,1019,0,90", 
            "resource": {
                "@type": "cnt:ContentAsText", 
                "chars": "J", 
                "format": "text/plain"
            }
        }, 
        {
            "@id": "https://manifests.teklia.com/HIMANIS/FR5291/words_annotations/http_gallica.bnf.fr_iiif_ark:_12148_btv1b9059263p_f255_full_full_0_native.jpg.json/38/line", 
            "@type": "oa:Annotation", 
            "motivation": "oa:painting", 
            "on": "http://gallica.bnf.fr/iiif/ark:/12148/btv1b9059263p/canvas/f255#xywh=682,1019,0,90", 
            "resource": {
                "@type": "cnt:ContentAsText", 
                "chars": "P", 
                "format": "text/plain"
            }
        }, 
        {
            "@id": "https://manifests.teklia.com/HIMANIS/FR5291/words_annotations/http_gallica.bnf.fr_iiif_ark:_12148_btv1b9059263p_f255_full_full_0_native.jpg.json/39/line", 
            "@type": "oa:Annotation", 
            "motivation": "oa:painting", 
            "on": "http://gallica.bnf.fr/iiif/ark:/12148/btv1b9059263p/canvas/f255#xywh=161,2572,66,45", 
            "resource": {
                "@type": "cnt:ContentAsText", 
                "chars": "JE", 
                "format": "text/plain"
            }
        }, 
        {
            "@id": "https://manifests.teklia.com/HIMANIS/FR5291/words_annotations/http_gallica.bnf.fr_iiif_ark:_12148_btv1b9059263p_f255_full_full_0_native.jpg.json/40/line", 
            "@type": "oa:Annotation", 
            "motivation": "oa:painting", 
            "on": "http://gallica.bnf.fr/iiif/ark:/12148/btv1b9059263p/canvas/f255#xywh=706,2181,316,120", 
            "resource": {
                "@type": "cnt:ContentAsText", 
                "chars": "NULLAUME", 
                "format": "text/plain"
            }
        }, 
        {
            "@id": "https://manifests.teklia.com/HIMANIS/FR5291/words_annotations/http_gallica.bnf.fr_iiif_ark:_12148_btv1b9059263p_f255_full_full_0_native.jpg.json/41/line", 
            "@type": "oa:Annotation", 
            "motivation": "oa:painting", 
            "on": "http://gallica.bnf.fr/iiif/ark:/12148/btv1b9059263p/canvas/f255#xywh=1393,697,243,77", 
            "resource": {
                "@type": "cnt:ContentAsText", 
                "chars": "PAR", 
                "format": "text/plain"
            }
        }, 
        {
            "@id": "https://manifests.teklia.com/HIMANIS/FR5291/words_annotations/http_gallica.bnf.fr_iiif_ark:_12148_btv1b9059263p_f255_full_full_0_native.jpg.json/42/line", 
            "@type": "oa:Annotation", 
            "motivation": "oa:painting", 
            "on": "http://gallica.bnf.fr/iiif/ark:/12148/btv1b9059263p/canvas/f255#xywh=1673,1114,134,85", 
            "resource": {
                "@type": "cnt:ContentAsText", 
                "chars": "LA", 
                "format": "text/plain"
            }
        }, 
        {
            "@id": "https://manifests.teklia.com/HIMANIS/FR5291/words_annotations/http_gallica.bnf.fr_iiif_ark:_12148_btv1b9059263p_f255_full_full_0_native.jpg.json/43/line", 
            "@type": "oa:Annotation", 
            "motivation": "oa:painting", 
            "on": "http://gallica.bnf.fr/iiif/ark:/12148/btv1b9059263p/canvas/f255#xywh=799,1114,343,85", 
            "resource": {
                "@type": "cnt:ContentAsText", 
                "chars": "DE", 
                "format": "text/plain"
            }
        }, 
        {
            "@id": "https://manifests.teklia.com/HIMANIS/FR5291/words_annotations/http_gallica.bnf.fr_iiif_ark:_12148_btv1b9059263p_f255_full_full_0_native.jpg.json/44/line", 
            "@type": "oa:Annotation", 
            "motivation": "oa:painting", 
            "on": "http://gallica.bnf.fr/iiif/ark:/12148/btv1b9059263p/canvas/f255#xywh=3275,1319,0,35", 
            "resource": {
                "@type": "cnt:ContentAsText", 
                "chars": "C", 
                "format": "text/plain"
            }
        }, 
        {
            "@id": "https://manifests.teklia.com/HIMANIS/FR5291/words_annotations/http_gallica.bnf.fr_iiif_ark:_12148_btv1b9059263p_f255_full_full_0_native.jpg.json/45/line", 
            "@type": "oa:Annotation", 
            "motivation": "oa:painting", 
            "on": "http://gallica.bnf.fr/iiif/ark:/12148/btv1b9059263p/canvas/f255#xywh=2959,51,35,141", 
            "resource": {
                "@type": "cnt:ContentAsText", 
                "chars": "DE", 
                "format": "text/plain"
            }
        }, 
        {
            "@id": "https://manifests.teklia.com/HIMANIS/FR5291/words_annotations/http_gallica.bnf.fr_iiif_ark:_12148_btv1b9059263p_f255_full_full_0_native.jpg.json/46/line", 
            "@type": "oa:Annotation", 
            "motivation": "oa:painting", 
            "on": "http://gallica.bnf.fr/iiif/ark:/12148/btv1b9059263p/canvas/f255#xywh=160,3458,0,45", 
            "resource": {
                "@type": "cnt:ContentAsText", 
                "chars": "C", 
                "format": "text/plain"
            }
        }, 
        {
            "@id": "https://manifests.teklia.com/HIMANIS/FR5291/words_annotations/http_gallica.bnf.fr_iiif_ark:_12148_btv1b9059263p_f255_full_full_0_native.jpg.json/47/line", 
            "@type": "oa:Annotation", 
            "motivation": "oa:painting", 
            "on": "http://gallica.bnf.fr/iiif/ark:/12148/btv1b9059263p/canvas/f255#xywh=1190,1114,236,85", 
            "resource": {
                "@type": "cnt:ContentAsText", 
                "chars": "BENE", 
                "format": "text/plain"
            }
        }, 
        {
            "@id": "https://manifests.teklia.com/HIMANIS/FR5291/words_annotations/http_gallica.bnf.fr_iiif_ark:_12148_btv1b9059263p_f255_full_full_0_native.jpg.json/48/line", 
            "@type": "oa:Annotation", 
            "motivation": "oa:painting", 
            "on": "http://gallica.bnf.fr/iiif/ark:/12148/btv1b9059263p/canvas/f255#xywh=160,3458,0,45", 
            "resource": {
                "@type": "cnt:ContentAsText", 
                "chars": "J", 
                "format": "text/plain"
            }
        }, 
        {
            "@id": "https://manifests.teklia.com/HIMANIS/FR5291/words_annotations/http_gallica.bnf.fr_iiif_ark:_12148_btv1b9059263p_f255_full_full_0_native.jpg.json/49/line", 
            "@type": "oa:Annotation", 
            "motivation": "oa:painting", 
            "on": "http://gallica.bnf.fr/iiif/ark:/12148/btv1b9059263p/canvas/f255#xywh=688,2912,94,45", 
            "resource": {
                "@type": "cnt:ContentAsText", 
                "chars": "DE", 
                "format": "text/plain"
            }
        }, 
        {
            "@id": "https://manifests.teklia.com/HIMANIS/FR5291/words_annotations/http_gallica.bnf.fr_iiif_ark:_12148_btv1b9059263p_f255_full_full_0_native.jpg.json/50/line", 
            "@type": "oa:Annotation", 
            "motivation": "oa:painting", 
            "on": "http://gallica.bnf.fr/iiif/ark:/12148/btv1b9059263p/canvas/f255#xywh=156,821,66,41", 
            "resource": {
                "@type": "cnt:ContentAsText", 
                "chars": "PHILIPPUS", 
                "format": "text/plain"
            }
        }, 
        {
            "@id": "https://manifests.teklia.com/HIMANIS/FR5291/words_annotations/http_gallica.bnf.fr_iiif_ark:_12148_btv1b9059263p_f255_full_full_0_native.jpg.json/51/line", 
            "@type": "oa:Annotation", 
            "motivation": "oa:painting", 
            "on": "http://gallica.bnf.fr/iiif/ark:/12148/btv1b9059263p/canvas/f255#xywh=508,1149,73,90", 
            "resource": {
                "@type": "cnt:ContentAsText", 
                "chars": "VI", 
                "format": "text/plain"
            }
        }, 
        {
            "@id": "https://manifests.teklia.com/HIMANIS/FR5291/words_annotations/http_gallica.bnf.fr_iiif_ark:_12148_btv1b9059263p_f255_full_full_0_native.jpg.json/52/line", 
            "@type": "oa:Annotation", 
            "motivation": "oa:painting", 
            "on": "http://gallica.bnf.fr/iiif/ark:/12148/btv1b9059263p/canvas/f255#xywh=156,821,66,41", 
            "resource": {
                "@type": "cnt:ContentAsText", 
                "chars": "PHILIPPES", 
                "format": "text/plain"
            }
        }, 
        {
            "@id": "https://manifests.teklia.com/HIMANIS/FR5291/words_annotations/http_gallica.bnf.fr_iiif_ark:_12148_btv1b9059263p_f255_full_full_0_native.jpg.json/53/line", 
            "@type": "oa:Annotation", 
            "motivation": "oa:painting", 
            "on": "http://gallica.bnf.fr/iiif/ark:/12148/btv1b9059263p/canvas/f255#xywh=653,3127,376,130", 
            "resource": {
                "@type": "cnt:ContentAsText", 
                "chars": "GUILLE", 
                "format": "text/plain"
            }
        }, 
        {
            "@id": "https://manifests.teklia.com/HIMANIS/FR5291/words_annotations/http_gallica.bnf.fr_iiif_ark:_12148_btv1b9059263p_f255_full_full_0_native.jpg.json/54/line", 
            "@type": "oa:Annotation", 
            "motivation": "oa:painting", 
            "on": "http://gallica.bnf.fr/iiif/ark:/12148/btv1b9059263p/canvas/f255#xywh=1257,697,34,77", 
            "resource": {
                "@type": "cnt:ContentAsText", 
                "chars": "DE", 
                "format": "text/plain"
            }
        }, 
        {
            "@id": "https://manifests.teklia.com/HIMANIS/FR5291/words_annotations/http_gallica.bnf.fr_iiif_ark:_12148_btv1b9059263p_f255_full_full_0_native.jpg.json/55/line", 
            "@type": "oa:Annotation", 
            "motivation": "oa:painting", 
            "on": "http://gallica.bnf.fr/iiif/ark:/12148/btv1b9059263p/canvas/f255#xywh=1087,3127,49,130", 
            "resource": {
                "@type": "cnt:ContentAsText", 
                "chars": "DE", 
                "format": "text/plain"
            }
        }, 
        {
            "@id": "https://manifests.teklia.com/HIMANIS/FR5291/words_annotations/http_gallica.bnf.fr_iiif_ark:_12148_btv1b9059263p_f255_full_full_0_native.jpg.json/56/line", 
            "@type": "oa:Annotation", 
            "motivation": "oa:painting", 
            "on": "http://gallica.bnf.fr/iiif/ark:/12148/btv1b9059263p/canvas/f255#xywh=1399,3027,226,70", 
            "resource": {
                "@type": "cnt:ContentAsText", 
                "chars": "CLERES", 
                "format": "text/plain"
            }
        }, 
        {
            "@id": "https://manifests.teklia.com/HIMANIS/FR5291/words_annotations/http_gallica.bnf.fr_iiif_ark:_12148_btv1b9059263p_f255_full_full_0_native.jpg.json/57/line", 
            "@type": "oa:Annotation", 
            "motivation": "oa:painting", 
            "on": "http://gallica.bnf.fr/iiif/ark:/12148/btv1b9059263p/canvas/f255#xywh=1399,3027,226,70", 
            "resource": {
                "@type": "cnt:ContentAsText", 
                "chars": "CLARES", 
                "format": "text/plain"
            }
        }, 
        {
            "@id": "https://manifests.teklia.com/HIMANIS/FR5291/words_annotations/http_gallica.bnf.fr_iiif_ark:_12148_btv1b9059263p_f255_full_full_0_native.jpg.json/58/line", 
            "@type": "oa:Annotation", 
            "motivation": "oa:painting", 
            "on": "http://gallica.bnf.fr/iiif/ark:/12148/btv1b9059263p/canvas/f255#xywh=713,1114,0,85", 
            "resource": {
                "@type": "cnt:ContentAsText", 
                "chars": "A", 
                "format": "text/plain"
            }
        }, 
        {
            "@id": "https://manifests.teklia.com/HIMANIS/FR5291/words_annotations/http_gallica.bnf.fr_iiif_ark:_12148_btv1b9059263p_f255_full_full_0_native.jpg.json/59/line", 
            "@type": "oa:Annotation", 
            "motivation": "oa:painting", 
            "on": "http://gallica.bnf.fr/iiif/ark:/12148/btv1b9059263p/canvas/f255#xywh=1227,3027,102,70", 
            "resource": {
                "@type": "cnt:ContentAsText", 
                "chars": "DE", 
                "format": "text/plain"
            }
        }, 
        {
            "@id": "https://manifests.teklia.com/HIMANIS/FR5291/words_annotations/http_gallica.bnf.fr_iiif_ark:_12148_btv1b9059263p_f255_full_full_0_native.jpg.json/60/line", 
            "@type": "oa:Annotation", 
            "motivation": "oa:painting", 
            "on": "http://gallica.bnf.fr/iiif/ark:/12148/btv1b9059263p/canvas/f255#xywh=805,2367,207,70", 
            "resource": {
                "@type": "cnt:ContentAsText", 
                "chars": "SIENS", 
                "format": "text/plain"
            }
        }, 
        {
            "@id": "https://manifests.teklia.com/HIMANIS/FR5291/words_annotations/http_gallica.bnf.fr_iiif_ark:_12148_btv1b9059263p_f255_full_full_0_native.jpg.json/61/line", 
            "@type": "oa:Annotation", 
            "motivation": "oa:painting", 
            "on": "http://gallica.bnf.fr/iiif/ark:/12148/btv1b9059263p/canvas/f255#xywh=413,2442,411,55", 
            "resource": {
                "@type": "cnt:ContentAsText", 
                "chars": "EN", 
                "format": "text/plain"
            }
        }, 
        {
            "@id": "https://manifests.teklia.com/HIMANIS/FR5291/words_annotations/http_gallica.bnf.fr_iiif_ark:_12148_btv1b9059263p_f255_full_full_0_native.jpg.json/62/line", 
            "@type": "oa:Annotation", 
            "motivation": "oa:painting", 
            "on": "http://gallica.bnf.fr/iiif/ark:/12148/btv1b9059263p/canvas/f255#xywh=1190,1114,236,85", 
            "resource": {
                "@type": "cnt:ContentAsText", 
                "chars": "HENNE", 
                "format": "text/plain"
            }
        }, 
        {
            "@id": "https://manifests.teklia.com/HIMANIS/FR5291/words_annotations/http_gallica.bnf.fr_iiif_ark:_12148_btv1b9059263p_f255_full_full_0_native.jpg.json/63/line", 
            "@type": "oa:Annotation", 
            "motivation": "oa:painting", 
            "on": "http://gallica.bnf.fr/iiif/ark:/12148/btv1b9059263p/canvas/f255#xywh=413,2442,408,55", 
            "resource": {
                "@type": "cnt:ContentAsText", 
                "chars": "ET", 
                "format": "text/plain"
            }
        }, 
        {
            "@id": "https://manifests.teklia.com/HIMANIS/FR5291/words_annotations/http_gallica.bnf.fr_iiif_ark:_12148_btv1b9059263p_f255_full_full_0_native.jpg.json/64/line", 
            "@type": "oa:Annotation", 
            "motivation": "oa:painting", 
            "on": "http://gallica.bnf.fr/iiif/ark:/12148/btv1b9059263p/canvas/f255#xywh=706,2181,316,120", 
            "resource": {
                "@type": "cnt:ContentAsText", 
                "chars": "CUILLAUME", 
                "format": "text/plain"
            }
        }, 
        {
            "@id": "https://manifests.teklia.com/HIMANIS/FR5291/words_annotations/http_gallica.bnf.fr_iiif_ark:_12148_btv1b9059263p_f255_full_full_0_native.jpg.json/65/line", 
            "@type": "oa:Annotation", 
            "motivation": "oa:painting", 
            "on": "http://gallica.bnf.fr/iiif/ark:/12148/btv1b9059263p/canvas/f255#xywh=1586,1014,308,95", 
            "resource": {
                "@type": "cnt:ContentAsText", 
                "chars": "PARRONTE", 
                "format": "text/plain"
            }
        }, 
        {
            "@id": "https://manifests.teklia.com/HIMANIS/FR5291/words_annotations/http_gallica.bnf.fr_iiif_ark:_12148_btv1b9059263p_f255_full_full_0_native.jpg.json/66/line", 
            "@type": "oa:Annotation", 
            "motivation": "oa:painting", 
            "on": "http://gallica.bnf.fr/iiif/ark:/12148/btv1b9059263p/canvas/f255#xywh=3052,3633,75,100", 
            "resource": {
                "@type": "cnt:ContentAsText", 
                "chars": "VIE", 
                "format": "text/plain"
            }
        }, 
        {
            "@id": "https://manifests.teklia.com/HIMANIS/FR5291/words_annotations/http_gallica.bnf.fr_iiif_ark:_12148_btv1b9059263p_f255_full_full_0_native.jpg.json/67/line", 
            "@type": "oa:Annotation", 
            "motivation": "oa:painting", 
            "on": "http://gallica.bnf.fr/iiif/ark:/12148/btv1b9059263p/canvas/f255#xywh=1436,3633,540,100", 
            "resource": {
                "@type": "cnt:ContentAsText", 
                "chars": "LONGIERVILLE", 
                "format": "text/plain"
            }
        }, 
        {
            "@id": "https://manifests.teklia.com/HIMANIS/FR5291/words_annotations/http_gallica.bnf.fr_iiif_ark:_12148_btv1b9059263p_f255_full_full_0_native.jpg.json/68/line", 
            "@type": "oa:Annotation", 
            "motivation": "oa:painting", 
            "on": "http://gallica.bnf.fr/iiif/ark:/12148/btv1b9059263p/canvas/f255#xywh=3052,3633,75,100", 
            "resource": {
                "@type": "cnt:ContentAsText", 
                "chars": "VEL", 
                "format": "text/plain"
            }
        }, 
        {
            "@id": "https://manifests.teklia.com/HIMANIS/FR5291/words_annotations/http_gallica.bnf.fr_iiif_ark:_12148_btv1b9059263p_f255_full_full_0_native.jpg.json/69/line", 
            "@type": "oa:Annotation", 
            "motivation": "oa:painting", 
            "on": "http://gallica.bnf.fr/iiif/ark:/12148/btv1b9059263p/canvas/f255#xywh=3052,3633,75,100", 
            "resource": {
                "@type": "cnt:ContentAsText", 
                "chars": "VIN", 
                "format": "text/plain"
            }
        }, 
        {
            "@id": "https://manifests.teklia.com/HIMANIS/FR5291/words_annotations/http_gallica.bnf.fr_iiif_ark:_12148_btv1b9059263p_f255_full_full_0_native.jpg.json/70/line", 
            "@type": "oa:Annotation", 
            "motivation": "oa:painting", 
            "on": "http://gallica.bnf.fr/iiif/ark:/12148/btv1b9059263p/canvas/f255#xywh=663,502,0,159", 
            "resource": {
                "@type": "cnt:ContentAsText", 
                "chars": "H", 
                "format": "text/plain"
            }
        }, 
        {
            "@id": "https://manifests.teklia.com/HIMANIS/FR5291/words_annotations/http_gallica.bnf.fr_iiif_ark:_12148_btv1b9059263p_f255_full_full_0_native.jpg.json/71/line", 
            "@type": "oa:Annotation", 
            "motivation": "oa:painting", 
            "on": "http://gallica.bnf.fr/iiif/ark:/12148/btv1b9059263p/canvas/f255#xywh=663,502,0,159", 
            "resource": {
                "@type": "cnt:ContentAsText", 
                "chars": "J", 
                "format": "text/plain"
            }
        }, 
        {
            "@id": "https://manifests.teklia.com/HIMANIS/FR5291/words_annotations/http_gallica.bnf.fr_iiif_ark:_12148_btv1b9059263p_f255_full_full_0_native.jpg.json/72/line", 
            "@type": "oa:Annotation", 
            "motivation": "oa:painting", 
            "on": "http://gallica.bnf.fr/iiif/ark:/12148/btv1b9059263p/canvas/f255#xywh=663,502,0,159", 
            "resource": {
                "@type": "cnt:ContentAsText", 
                "chars": "P", 
                "format": "text/plain"
            }
        }, 
        {
            "@id": "https://manifests.teklia.com/HIMANIS/FR5291/words_annotations/http_gallica.bnf.fr_iiif_ark:_12148_btv1b9059263p_f255_full_full_0_native.jpg.json/73/line", 
            "@type": "oa:Annotation", 
            "motivation": "oa:painting", 
            "on": "http://gallica.bnf.fr/iiif/ark:/12148/btv1b9059263p/canvas/f255#xywh=353,2442,56,55", 
            "resource": {
                "@type": "cnt:ContentAsText", 
                "chars": "PHILIPPES", 
                "format": "text/plain"
            }
        }, 
        {
            "@id": "https://manifests.teklia.com/HIMANIS/FR5291/words_annotations/http_gallica.bnf.fr_iiif_ark:_12148_btv1b9059263p_f255_full_full_0_native.jpg.json/74/line", 
            "@type": "oa:Annotation", 
            "motivation": "oa:painting", 
            "on": "http://gallica.bnf.fr/iiif/ark:/12148/btv1b9059263p/canvas/f255#xywh=692,2081,0,95", 
            "resource": {
                "@type": "cnt:ContentAsText", 
                "chars": "J", 
                "format": "text/plain"
            }
        }, 
        {
            "@id": "https://manifests.teklia.com/HIMANIS/FR5291/words_annotations/http_gallica.bnf.fr_iiif_ark:_12148_btv1b9059263p_f255_full_full_0_native.jpg.json/75/line", 
            "@type": "oa:Annotation", 
            "motivation": "oa:painting", 
            "on": "http://gallica.bnf.fr/iiif/ark:/12148/btv1b9059263p/canvas/f255#xywh=692,2081,0,95", 
            "resource": {
                "@type": "cnt:ContentAsText", 
                "chars": "P", 
                "format": "text/plain"
            }
        }, 
        {
            "@id": "https://manifests.teklia.com/HIMANIS/FR5291/words_annotations/http_gallica.bnf.fr_iiif_ark:_12148_btv1b9059263p_f255_full_full_0_native.jpg.json/76/line", 
            "@type": "oa:Annotation", 
            "motivation": "oa:painting", 
            "on": "http://gallica.bnf.fr/iiif/ark:/12148/btv1b9059263p/canvas/f255#xywh=660,4767,78,125", 
            "resource": {
                "@type": "cnt:ContentAsText", 
                "chars": "ET", 
                "format": "text/plain"
            }
        }, 
        {
            "@id": "https://manifests.teklia.com/HIMANIS/FR5291/words_annotations/http_gallica.bnf.fr_iiif_ark:_12148_btv1b9059263p_f255_full_full_0_native.jpg.json/77/line", 
            "@type": "oa:Annotation", 
            "motivation": "oa:painting", 
            "on": "http://gallica.bnf.fr/iiif/ark:/12148/btv1b9059263p/canvas/f255#xywh=2932,51,133,141", 
            "resource": {
                "@type": "cnt:ContentAsText", 
                "chars": "PAR", 
                "format": "text/plain"
            }
        }, 
        {
            "@id": "https://manifests.teklia.com/HIMANIS/FR5291/words_annotations/http_gallica.bnf.fr_iiif_ark:_12148_btv1b9059263p_f255_full_full_0_native.jpg.json/78/line", 
            "@type": "oa:Annotation", 
            "motivation": "oa:painting", 
            "on": "http://gallica.bnf.fr/iiif/ark:/12148/btv1b9059263p/canvas/f255#xywh=1586,1014,119,95", 
            "resource": {
                "@type": "cnt:ContentAsText", 
                "chars": "ET", 
                "format": "text/plain"
            }
        }, 
        {
            "@id": "https://manifests.teklia.com/HIMANIS/FR5291/words_annotations/http_gallica.bnf.fr_iiif_ark:_12148_btv1b9059263p_f255_full_full_0_native.jpg.json/79/line", 
            "@type": "oa:Annotation", 
            "motivation": "oa:painting", 
            "on": "http://gallica.bnf.fr/iiif/ark:/12148/btv1b9059263p/canvas/f255#xywh=1393,697,258,77", 
            "resource": {
                "@type": "cnt:ContentAsText", 
                "chars": "PARIS", 
                "format": "text/plain"
            }
        }, 
        {
            "@id": "https://manifests.teklia.com/HIMANIS/FR5291/words_annotations/http_gallica.bnf.fr_iiif_ark:_12148_btv1b9059263p_f255_full_full_0_native.jpg.json/80/line", 
            "@type": "oa:Annotation", 
            "motivation": "oa:painting", 
            "on": "http://gallica.bnf.fr/iiif/ark:/12148/btv1b9059263p/canvas/f255#xywh=2707,3633,150,100", 
            "resource": {
                "@type": "cnt:ContentAsText", 
                "chars": "QUI", 
                "format": "text/plain"
            }
        }, 
        {
            "@id": "https://manifests.teklia.com/HIMANIS/FR5291/words_annotations/http_gallica.bnf.fr_iiif_ark:_12148_btv1b9059263p_f255_full_full_0_native.jpg.json/81/line", 
            "@type": "oa:Annotation", 
            "motivation": "oa:painting", 
            "on": "http://gallica.bnf.fr/iiif/ark:/12148/btv1b9059263p/canvas/f255#xywh=3082,1519,144,90", 
            "resource": {
                "@type": "cnt:ContentAsText", 
                "chars": "DE", 
                "format": "text/plain"
            }
        }, 
        {
            "@id": "https://manifests.teklia.com/HIMANIS/FR5291/words_annotations/http_gallica.bnf.fr_iiif_ark:_12148_btv1b9059263p_f255_full_full_0_native.jpg.json/82/line", 
            "@type": "oa:Annotation", 
            "motivation": "oa:painting", 
            "on": "http://gallica.bnf.fr/iiif/ark:/12148/btv1b9059263p/canvas/f255#xywh=1166,2181,151,120", 
            "resource": {
                "@type": "cnt:ContentAsText", 
                "chars": "L'ANGE", 
                "format": "text/plain"
            }
        }, 
        {
            "@id": "https://manifests.teklia.com/HIMANIS/FR5291/words_annotations/http_gallica.bnf.fr_iiif_ark:_12148_btv1b9059263p_f255_full_full_0_native.jpg.json/83/line", 
            "@type": "oa:Annotation", 
            "motivation": "oa:painting", 
            "on": "http://gallica.bnf.fr/iiif/ark:/12148/btv1b9059263p/canvas/f255#xywh=1486,3528,355,105", 
            "resource": {
                "@type": "cnt:ContentAsText", 
                "chars": "FORFAITURE", 
                "format": "text/plain"
            }
        }, 
        {
            "@id": "https://manifests.teklia.com/HIMANIS/FR5291/words_annotations/http_gallica.bnf.fr_iiif_ark:_12148_btv1b9059263p_f255_full_full_0_native.jpg.json/84/line", 
            "@type": "oa:Annotation", 
            "motivation": "oa:painting", 
            "on": "http://gallica.bnf.fr/iiif/ark:/12148/btv1b9059263p/canvas/f255#xywh=232,2322,46,45", 
            "resource": {
                "@type": "cnt:ContentAsText", 
                "chars": "PHILIPPES", 
                "format": "text/plain"
            }
        }, 
        {
            "@id": "https://manifests.teklia.com/HIMANIS/FR5291/words_annotations/http_gallica.bnf.fr_iiif_ark:_12148_btv1b9059263p_f255_full_full_0_native.jpg.json/85/line", 
            "@type": "oa:Annotation", 
            "motivation": "oa:painting", 
            "on": "http://gallica.bnf.fr/iiif/ark:/12148/btv1b9059263p/canvas/f255#xywh=2418,51,248,141", 
            "resource": {
                "@type": "cnt:ContentAsText", 
                "chars": "IN", 
                "format": "text/plain"
            }
        }, 
        {
            "@id": "https://manifests.teklia.com/HIMANIS/FR5291/words_annotations/http_gallica.bnf.fr_iiif_ark:_12148_btv1b9059263p_f255_full_full_0_native.jpg.json/86/line", 
            "@type": "oa:Annotation", 
            "motivation": "oa:painting", 
            "on": "http://gallica.bnf.fr/iiif/ark:/12148/btv1b9059263p/canvas/f255#xywh=178,2367,358,70", 
            "resource": {
                "@type": "cnt:ContentAsText", 
                "chars": "QUISSIMUS", 
                "format": "text/plain"
            }
        }, 
        {
            "@id": "https://manifests.teklia.com/HIMANIS/FR5291/words_annotations/http_gallica.bnf.fr_iiif_ark:_12148_btv1b9059263p_f255_full_full_0_native.jpg.json/87/line", 
            "@type": "oa:Annotation", 
            "motivation": "oa:painting", 
            "on": "http://gallica.bnf.fr/iiif/ark:/12148/btv1b9059263p/canvas/f255#xywh=1227,3027,102,70", 
            "resource": {
                "@type": "cnt:ContentAsText", 
                "chars": "DITE", 
                "format": "text/plain"
            }
        }, 
        {
            "@id": "https://manifests.teklia.com/HIMANIS/FR5291/words_annotations/http_gallica.bnf.fr_iiif_ark:_12148_btv1b9059263p_f255_full_full_0_native.jpg.json/88/line", 
            "@type": "oa:Annotation", 
            "motivation": "oa:painting", 
            "on": "http://gallica.bnf.fr/iiif/ark:/12148/btv1b9059263p/canvas/f255#xywh=1166,2181,151,120", 
            "resource": {
                "@type": "cnt:ContentAsText", 
                "chars": "L'AUGE", 
                "format": "text/plain"
            }
        }, 
        {
            "@id": "https://manifests.teklia.com/HIMANIS/FR5291/words_annotations/http_gallica.bnf.fr_iiif_ark:_12148_btv1b9059263p_f255_full_full_0_native.jpg.json/89/line", 
            "@type": "oa:Annotation", 
            "motivation": "oa:painting", 
            "on": "http://gallica.bnf.fr/iiif/ark:/12148/btv1b9059263p/canvas/f255#xywh=2418,51,594,141", 
            "resource": {
                "@type": "cnt:ContentAsText", 
                "chars": "NOUS", 
                "format": "text/plain"
            }
        }, 
        {
            "@id": "https://manifests.teklia.com/HIMANIS/FR5291/words_annotations/http_gallica.bnf.fr_iiif_ark:_12148_btv1b9059263p_f255_full_full_0_native.jpg.json/90/line", 
            "@type": "oa:Annotation", 
            "motivation": "oa:painting", 
            "on": "http://gallica.bnf.fr/iiif/ark:/12148/btv1b9059263p/canvas/f255#xywh=2255,3528,92,105", 
            "resource": {
                "@type": "cnt:ContentAsText", 
                "chars": "DOI", 
                "format": "text/plain"
            }
        }, 
        {
            "@id": "https://manifests.teklia.com/HIMANIS/FR5291/words_annotations/http_gallica.bnf.fr_iiif_ark:_12148_btv1b9059263p_f255_full_full_0_native.jpg.json/91/line", 
            "@type": "oa:Annotation", 
            "motivation": "oa:painting", 
            "on": "http://gallica.bnf.fr/iiif/ark:/12148/btv1b9059263p/canvas/f255#xywh=1696,3027,203,70", 
            "resource": {
                "@type": "cnt:ContentAsText", 
                "chars": "PRE", 
                "format": "text/plain"
            }
        }, 
        {
            "@id": "https://manifests.teklia.com/HIMANIS/FR5291/words_annotations/http_gallica.bnf.fr_iiif_ark:_12148_btv1b9059263p_f255_full_full_0_native.jpg.json/92/line", 
            "@type": "oa:Annotation", 
            "motivation": "oa:painting", 
            "on": "http://gallica.bnf.fr/iiif/ark:/12148/btv1b9059263p/canvas/f255#xywh=2255,3528,125,105", 
            "resource": {
                "@type": "cnt:ContentAsText", 
                "chars": "DOU", 
                "format": "text/plain"
            }
        }, 
        {
            "@id": "https://manifests.teklia.com/HIMANIS/FR5291/words_annotations/http_gallica.bnf.fr_iiif_ark:_12148_btv1b9059263p_f255_full_full_0_native.jpg.json/93/line", 
            "@type": "oa:Annotation", 
            "motivation": "oa:painting", 
            "on": "http://gallica.bnf.fr/iiif/ark:/12148/btv1b9059263p/canvas/f255#xywh=1586,1014,397,95", 
            "resource": {
                "@type": "cnt:ContentAsText", 
                "chars": "ACOURT", 
                "format": "text/plain"
            }
        }, 
        {
            "@id": "https://manifests.teklia.com/HIMANIS/FR5291/words_annotations/http_gallica.bnf.fr_iiif_ark:_12148_btv1b9059263p_f255_full_full_0_native.jpg.json/94/line", 
            "@type": "oa:Annotation", 
            "motivation": "oa:painting", 
            "on": "http://gallica.bnf.fr/iiif/ark:/12148/btv1b9059263p/canvas/f255#xywh=1436,3633,553,100", 
            "resource": {
                "@type": "cnt:ContentAsText", 
                "chars": "ANGIERVILLES", 
                "format": "text/plain"
            }
        }, 
        {
            "@id": "https://manifests.teklia.com/HIMANIS/FR5291/words_annotations/http_gallica.bnf.fr_iiif_ark:_12148_btv1b9059263p_f255_full_full_0_native.jpg.json/95/line", 
            "@type": "oa:Annotation", 
            "motivation": "oa:painting", 
            "on": "http://gallica.bnf.fr/iiif/ark:/12148/btv1b9059263p/canvas/f255#xywh=1207,3703,111,80", 
            "resource": {
                "@type": "cnt:ContentAsText", 
                "chars": "LE", 
                "format": "text/plain"
            }
        }, 
        {
            "@id": "https://manifests.teklia.com/HIMANIS/FR5291/words_annotations/http_gallica.bnf.fr_iiif_ark:_12148_btv1b9059263p_f255_full_full_0_native.jpg.json/96/line", 
            "@type": "oa:Annotation", 
            "motivation": "oa:painting", 
            "on": "http://gallica.bnf.fr/iiif/ark:/12148/btv1b9059263p/canvas/f255#xywh=1530,3002,0,35", 
            "resource": {
                "@type": "cnt:ContentAsText", 
                "chars": "J", 
                "format": "text/plain"
            }
        }, 
        {
            "@id": "https://manifests.teklia.com/HIMANIS/FR5291/words_annotations/http_gallica.bnf.fr_iiif_ark:_12148_btv1b9059263p_f255_full_full_0_native.jpg.json/97/line", 
            "@type": "oa:Annotation", 
            "motivation": "oa:painting", 
            "on": "http://gallica.bnf.fr/iiif/ark:/12148/btv1b9059263p/canvas/f255#xywh=230,93,0,78", 
            "resource": {
                "@type": "cnt:ContentAsText", 
                "chars": "G", 
                "format": "text/plain"
            }
        }, 
        {
            "@id": "https://manifests.teklia.com/HIMANIS/FR5291/words_annotations/http_gallica.bnf.fr_iiif_ark:_12148_btv1b9059263p_f255_full_full_0_native.jpg.json/98/line", 
            "@type": "oa:Annotation", 
            "motivation": "oa:painting", 
            "on": "http://gallica.bnf.fr/iiif/ark:/12148/btv1b9059263p/canvas/f255#xywh=230,93,0,78", 
            "resource": {
                "@type": "cnt:ContentAsText", 
                "chars": "P", 
                "format": "text/plain"
            }
        }, 
        {
            "@id": "https://manifests.teklia.com/HIMANIS/FR5291/words_annotations/http_gallica.bnf.fr_iiif_ark:_12148_btv1b9059263p_f255_full_full_0_native.jpg.json/99/line", 
            "@type": "oa:Annotation", 
            "motivation": "oa:painting", 
            "on": "http://gallica.bnf.fr/iiif/ark:/12148/btv1b9059263p/canvas/f255#xywh=2895,3633,81,100", 
            "resource": {
                "@type": "cnt:ContentAsText", 
                "chars": "DOIT", 
                "format": "text/plain"
            }
        }, 
        {
            "@id": "https://manifests.teklia.com/HIMANIS/FR5291/words_annotations/http_gallica.bnf.fr_iiif_ark:_12148_btv1b9059263p_f255_full_full_0_native.jpg.json/100/line", 
            "@type": "oa:Annotation", 
            "motivation": "oa:painting", 
            "on": "http://gallica.bnf.fr/iiif/ark:/12148/btv1b9059263p/canvas/f255#xywh=1198,3322,169,44", 
            "resource": {
                "@type": "cnt:ContentAsText", 
                "chars": "CE", 
                "format": "text/plain"
            }
        }, 
        {
            "@id": "https://manifests.teklia.com/HIMANIS/FR5291/words_annotations/http_gallica.bnf.fr_iiif_ark:_12148_btv1b9059263p_f255_full_full_0_native.jpg.json/101/line", 
            "@type": "oa:Annotation", 
            "motivation": "oa:painting", 
            "on": "http://gallica.bnf.fr/iiif/ark:/12148/btv1b9059263p/canvas/f255#xywh=1190,1114,236,85", 
            "resource": {
                "@type": "cnt:ContentAsText", 
                "chars": "BENNE", 
                "format": "text/plain"
            }
        }, 
        {
            "@id": "https://manifests.teklia.com/HIMANIS/FR5291/words_annotations/http_gallica.bnf.fr_iiif_ark:_12148_btv1b9059263p_f255_full_full_0_native.jpg.json/102/line", 
            "@type": "oa:Annotation", 
            "motivation": "oa:painting", 
            "on": "http://gallica.bnf.fr/iiif/ark:/12148/btv1b9059263p/canvas/f255#xywh=676,1309,0,45", 
            "resource": {
                "@type": "cnt:ContentAsText", 
                "chars": "J", 
                "format": "text/plain"
            }
        }, 
        {
            "@id": "https://manifests.teklia.com/HIMANIS/FR5291/words_annotations/http_gallica.bnf.fr_iiif_ark:_12148_btv1b9059263p_f255_full_full_0_native.jpg.json/103/line", 
            "@type": "oa:Annotation", 
            "motivation": "oa:painting", 
            "on": "http://gallica.bnf.fr/iiif/ark:/12148/btv1b9059263p/canvas/f255#xywh=676,1309,0,45", 
            "resource": {
                "@type": "cnt:ContentAsText", 
                "chars": "P", 
                "format": "text/plain"
            }
        }, 
        {
            "@id": "https://manifests.teklia.com/HIMANIS/FR5291/words_annotations/http_gallica.bnf.fr_iiif_ark:_12148_btv1b9059263p_f255_full_full_0_native.jpg.json/104/line", 
            "@type": "oa:Annotation", 
            "motivation": "oa:painting", 
            "on": "http://gallica.bnf.fr/iiif/ark:/12148/btv1b9059263p/canvas/f255#xywh=695,2487,0,85", 
            "resource": {
                "@type": "cnt:ContentAsText", 
                "chars": "J", 
                "format": "text/plain"
            }
        }, 
        {
            "@id": "https://manifests.teklia.com/HIMANIS/FR5291/words_annotations/http_gallica.bnf.fr_iiif_ark:_12148_btv1b9059263p_f255_full_full_0_native.jpg.json/105/line", 
            "@type": "oa:Annotation", 
            "motivation": "oa:painting", 
            "on": "http://gallica.bnf.fr/iiif/ark:/12148/btv1b9059263p/canvas/f255#xywh=676,1309,0,45", 
            "resource": {
                "@type": "cnt:ContentAsText", 
                "chars": "S", 
                "format": "text/plain"
            }
        }, 
        {
            "@id": "https://manifests.teklia.com/HIMANIS/FR5291/words_annotations/http_gallica.bnf.fr_iiif_ark:_12148_btv1b9059263p_f255_full_full_0_native.jpg.json/106/line", 
            "@type": "oa:Annotation", 
            "motivation": "oa:painting", 
            "on": "http://gallica.bnf.fr/iiif/ark:/12148/btv1b9059263p/canvas/f255#xywh=313,3326,137,33", 
            "resource": {
                "@type": "cnt:ContentAsText", 
                "chars": "CE", 
                "format": "text/plain"
            }
        }, 
        {
            "@id": "https://manifests.teklia.com/HIMANIS/FR5291/words_annotations/http_gallica.bnf.fr_iiif_ark:_12148_btv1b9059263p_f255_full_full_0_native.jpg.json/107/line", 
            "@type": "oa:Annotation", 
            "motivation": "oa:painting", 
            "on": "http://gallica.bnf.fr/iiif/ark:/12148/btv1b9059263p/canvas/f255#xywh=1612,879,0,85", 
            "resource": {
                "@type": "cnt:ContentAsText", 
                "chars": "P", 
                "format": "text/plain"
            }
        }, 
        {
            "@id": "https://manifests.teklia.com/HIMANIS/FR5291/words_annotations/http_gallica.bnf.fr_iiif_ark:_12148_btv1b9059263p_f255_full_full_0_native.jpg.json/108/line", 
            "@type": "oa:Annotation", 
            "motivation": "oa:painting", 
            "on": "http://gallica.bnf.fr/iiif/ark:/12148/btv1b9059263p/canvas/f255#xywh=1198,3322,91,44", 
            "resource": {
                "@type": "cnt:ContentAsText", 
                "chars": "QUE", 
                "format": "text/plain"
            }
        }, 
        {
            "@id": "https://manifests.teklia.com/HIMANIS/FR5291/words_annotations/http_gallica.bnf.fr_iiif_ark:_12148_btv1b9059263p_f255_full_full_0_native.jpg.json/109/line", 
            "@type": "oa:Annotation", 
            "motivation": "oa:painting", 
            "on": "http://gallica.bnf.fr/iiif/ark:/12148/btv1b9059263p/canvas/f255#xywh=745,1354,102,85", 
            "resource": {
                "@type": "cnt:ContentAsText", 
                "chars": "ET", 
                "format": "text/plain"
            }
        }, 
        {
            "@id": "https://manifests.teklia.com/HIMANIS/FR5291/words_annotations/http_gallica.bnf.fr_iiif_ark:_12148_btv1b9059263p_f255_full_full_0_native.jpg.json/110/line", 
            "@type": "oa:Annotation", 
            "motivation": "oa:painting", 
            "on": "http://gallica.bnf.fr/iiif/ark:/12148/btv1b9059263p/canvas/f255#xywh=1185,3127,196,130", 
            "resource": {
                "@type": "cnt:ContentAsText", 
                "chars": "BRACH", 
                "format": "text/plain"
            }
        }, 
        {
            "@id": "https://manifests.teklia.com/HIMANIS/FR5291/words_annotations/http_gallica.bnf.fr_iiif_ark:_12148_btv1b9059263p_f255_full_full_0_native.jpg.json/111/line", 
            "@type": "oa:Annotation", 
            "motivation": "oa:painting", 
            "on": "http://gallica.bnf.fr/iiif/ark:/12148/btv1b9059263p/canvas/f255#xywh=713,1114,301,85", 
            "resource": {
                "@type": "cnt:ContentAsText", 
                "chars": "PAR", 
                "format": "text/plain"
            }
        }, 
        {
            "@id": "https://manifests.teklia.com/HIMANIS/FR5291/words_annotations/http_gallica.bnf.fr_iiif_ark:_12148_btv1b9059263p_f255_full_full_0_native.jpg.json/112/line", 
            "@type": "oa:Annotation", 
            "motivation": "oa:painting", 
            "on": "http://gallica.bnf.fr/iiif/ark:/12148/btv1b9059263p/canvas/f255#xywh=1586,1014,403,95", 
            "resource": {
                "@type": "cnt:ContentAsText", 
                "chars": "CLERC", 
                "format": "text/plain"
            }
        }, 
        {
            "@id": "https://manifests.teklia.com/HIMANIS/FR5291/words_annotations/http_gallica.bnf.fr_iiif_ark:_12148_btv1b9059263p_f255_full_full_0_native.jpg.json/113/line", 
            "@type": "oa:Annotation", 
            "motivation": "oa:painting", 
            "on": "http://gallica.bnf.fr/iiif/ark:/12148/btv1b9059263p/canvas/f255#xywh=863,1114,220,85", 
            "resource": {
                "@type": "cnt:ContentAsText", 
                "chars": "CLARE", 
                "format": "text/plain"
            }
        }, 
        {
            "@id": "https://manifests.teklia.com/HIMANIS/FR5291/words_annotations/http_gallica.bnf.fr_iiif_ark:_12148_btv1b9059263p_f255_full_full_0_native.jpg.json/114/line", 
            "@type": "oa:Annotation", 
            "motivation": "oa:painting", 
            "on": "http://gallica.bnf.fr/iiif/ark:/12148/btv1b9059263p/canvas/f255#xywh=1393,697,102,77", 
            "resource": {
                "@type": "cnt:ContentAsText", 
                "chars": "CESTE", 
                "format": "text/plain"
            }
        }, 
        {
            "@id": "https://manifests.teklia.com/HIMANIS/FR5291/words_annotations/http_gallica.bnf.fr_iiif_ark:_12148_btv1b9059263p_f255_full_full_0_native.jpg.json/115/line", 
            "@type": "oa:Annotation", 
            "motivation": "oa:painting", 
            "on": "http://gallica.bnf.fr/iiif/ark:/12148/btv1b9059263p/canvas/f255#xywh=681,2652,0,80", 
            "resource": {
                "@type": "cnt:ContentAsText", 
                "chars": "G", 
                "format": "text/plain"
            }
        }, 
        {
            "@id": "https://manifests.teklia.com/HIMANIS/FR5291/words_annotations/http_gallica.bnf.fr_iiif_ark:_12148_btv1b9059263p_f255_full_full_0_native.jpg.json/116/line", 
            "@type": "oa:Annotation", 
            "motivation": "oa:painting", 
            "on": "http://gallica.bnf.fr/iiif/ark:/12148/btv1b9059263p/canvas/f255#xywh=681,2652,0,80", 
            "resource": {
                "@type": "cnt:ContentAsText", 
                "chars": "P", 
                "format": "text/plain"
            }
        }, 
        {
            "@id": "https://manifests.teklia.com/HIMANIS/FR5291/words_annotations/http_gallica.bnf.fr_iiif_ark:_12148_btv1b9059263p_f255_full_full_0_native.jpg.json/117/line", 
            "@type": "oa:Annotation", 
            "motivation": "oa:painting", 
            "on": "http://gallica.bnf.fr/iiif/ark:/12148/btv1b9059263p/canvas/f255#xywh=681,2652,0,80", 
            "resource": {
                "@type": "cnt:ContentAsText", 
                "chars": "R", 
                "format": "text/plain"
            }
        }, 
        {
            "@id": "https://manifests.teklia.com/HIMANIS/FR5291/words_annotations/http_gallica.bnf.fr_iiif_ark:_12148_btv1b9059263p_f255_full_full_0_native.jpg.json/118/line", 
            "@type": "oa:Annotation", 
            "motivation": "oa:painting", 
            "on": "http://gallica.bnf.fr/iiif/ark:/12148/btv1b9059263p/canvas/f255#xywh=1432,1239,0,55", 
            "resource": {
                "@type": "cnt:ContentAsText", 
                "chars": "J", 
                "format": "text/plain"
            }
        }, 
        {
            "@id": "https://manifests.teklia.com/HIMANIS/FR5291/words_annotations/http_gallica.bnf.fr_iiif_ark:_12148_btv1b9059263p_f255_full_full_0_native.jpg.json/119/line", 
            "@type": "oa:Annotation", 
            "motivation": "oa:painting", 
            "on": "http://gallica.bnf.fr/iiif/ark:/12148/btv1b9059263p/canvas/f255#xywh=1432,1239,0,55", 
            "resource": {
                "@type": "cnt:ContentAsText", 
                "chars": "P", 
                "format": "text/plain"
            }
        }, 
        {
            "@id": "https://manifests.teklia.com/HIMANIS/FR5291/words_annotations/http_gallica.bnf.fr_iiif_ark:_12148_btv1b9059263p_f255_full_full_0_native.jpg.json/120/line", 
            "@type": "oa:Annotation", 
            "motivation": "oa:painting", 
            "on": "http://gallica.bnf.fr/iiif/ark:/12148/btv1b9059263p/canvas/f255#xywh=469,1149,39,90", 
            "resource": {
                "@type": "cnt:ContentAsText", 
                "chars": "DE", 
                "format": "text/plain"
            }
        }, 
        {
            "@id": "https://manifests.teklia.com/HIMANIS/FR5291/words_annotations/http_gallica.bnf.fr_iiif_ark:_12148_btv1b9059263p_f255_full_full_0_native.jpg.json/121/line", 
            "@type": "oa:Annotation", 
            "motivation": "oa:painting", 
            "on": "http://gallica.bnf.fr/iiif/ark:/12148/btv1b9059263p/canvas/f255#xywh=159,3395,251,23", 
            "resource": {
                "@type": "cnt:ContentAsText", 
                "chars": "PHILIPPILIPPES", 
                "format": "text/plain"
            }
        }, 
        {
            "@id": "https://manifests.teklia.com/HIMANIS/FR5291/words_annotations/http_gallica.bnf.fr_iiif_ark:_12148_btv1b9059263p_f255_full_full_0_native.jpg.json/122/line", 
            "@type": "oa:Annotation", 
            "motivation": "oa:painting", 
            "on": "http://gallica.bnf.fr/iiif/ark:/12148/btv1b9059263p/canvas/f255#xywh=161,2572,0,45", 
            "resource": {
                "@type": "cnt:ContentAsText", 
                "chars": "J", 
                "format": "text/plain"
            }
        }
    ]
}