{
    "@context": "http://iiif.io/api/presentation/2/context.json", 
    "@id": "https://manifests.teklia.com/HIMANIS/FR5291/words_annotations/http_gallica.bnf.fr_iiif_ark:_12148_btv1b9059263p_f256_full_full_0_native.jpg.json", 
    "@type": "sc:AnnotationList", 
    "resources": [
        {
            "@id": "https://manifests.teklia.com/HIMANIS/FR5291/words_annotations/http_gallica.bnf.fr_iiif_ark:_12148_btv1b9059263p_f256_full_full_0_native.jpg.json/0/line", 
            "@type": "oa:Annotation", 
            "motivation": "oa:painting", 
            "on": "http://gallica.bnf.fr/iiif/ark:/12148/btv1b9059263p/canvas/f256#xywh=700,1751,17,131", 
            "resource": {
                "@type": "cnt:ContentAsText", 
                "chars": "PHIL", 
                "format": "text/plain"
            }
        }, 
        {
            "@id": "https://manifests.teklia.com/HIMANIS/FR5291/words_annotations/http_gallica.bnf.fr_iiif_ark:_12148_btv1b9059263p_f256_full_full_0_native.jpg.json/1/line", 
            "@type": "oa:Annotation", 
            "motivation": "oa:painting", 
            "on": "http://gallica.bnf.fr/iiif/ark:/12148/btv1b9059263p/canvas/f256#xywh=700,1751,296,131", 
            "resource": {
                "@type": "cnt:ContentAsText", 
                "chars": "PHEL", 
                "format": "text/plain"
            }
        }, 
        {
            "@id": "https://manifests.teklia.com/HIMANIS/FR5291/words_annotations/http_gallica.bnf.fr_iiif_ark:_12148_btv1b9059263p_f256_full_full_0_native.jpg.json/2/line", 
            "@type": "oa:Annotation", 
            "motivation": "oa:painting", 
            "on": "http://gallica.bnf.fr/iiif/ark:/12148/btv1b9059263p/canvas/f256#xywh=2018,912,109,134", 
            "resource": {
                "@type": "cnt:ContentAsText", 
                "chars": "CHEVALIER", 
                "format": "text/plain"
            }
        }, 
        {
            "@id": "https://manifests.teklia.com/HIMANIS/FR5291/words_annotations/http_gallica.bnf.fr_iiif_ark:_12148_btv1b9059263p_f256_full_full_0_native.jpg.json/3/line", 
            "@type": "oa:Annotation", 
            "motivation": "oa:painting", 
            "on": "http://gallica.bnf.fr/iiif/ark:/12148/btv1b9059263p/canvas/f256#xywh=311,2795,469,48", 
            "resource": {
                "@type": "cnt:ContentAsText", 
                "chars": "LITTER", 
                "format": "text/plain"
            }
        }, 
        {
            "@id": "https://manifests.teklia.com/HIMANIS/FR5291/words_annotations/http_gallica.bnf.fr_iiif_ark:_12148_btv1b9059263p_f256_full_full_0_native.jpg.json/4/line", 
            "@type": "oa:Annotation", 
            "motivation": "oa:painting", 
            "on": "http://gallica.bnf.fr/iiif/ark:/12148/btv1b9059263p/canvas/f256#xywh=175,1593,265,59", 
            "resource": {
                "@type": "cnt:ContentAsText", 
                "chars": "BARRE", 
                "format": "text/plain"
            }
        }, 
        {
            "@id": "https://manifests.teklia.com/HIMANIS/FR5291/words_annotations/http_gallica.bnf.fr_iiif_ark:_12148_btv1b9059263p_f256_full_full_0_native.jpg.json/5/line", 
            "@type": "oa:Annotation", 
            "motivation": "oa:painting", 
            "on": "http://gallica.bnf.fr/iiif/ark:/12148/btv1b9059263p/canvas/f256#xywh=3232,678,225,128", 
            "resource": {
                "@type": "cnt:ContentAsText", 
                "chars": "ONS", 
                "format": "text/plain"
            }
        }, 
        {
            "@id": "https://manifests.teklia.com/HIMANIS/FR5291/words_annotations/http_gallica.bnf.fr_iiif_ark:_12148_btv1b9059263p_f256_full_full_0_native.jpg.json/6/line", 
            "@type": "oa:Annotation", 
            "motivation": "oa:painting", 
            "on": "http://gallica.bnf.fr/iiif/ark:/12148/btv1b9059263p/canvas/f256#xywh=135,1471,1010,137", 
            "resource": {
                "@type": "cnt:ContentAsText", 
                "chars": "JONSEIGNEUR", 
                "format": "text/plain"
            }
        }, 
        {
            "@id": "https://manifests.teklia.com/HIMANIS/FR5291/words_annotations/http_gallica.bnf.fr_iiif_ark:_12148_btv1b9059263p_f256_full_full_0_native.jpg.json/7/line", 
            "@type": "oa:Annotation", 
            "motivation": "oa:painting", 
            "on": "http://gallica.bnf.fr/iiif/ark:/12148/btv1b9059263p/canvas/f256#xywh=742,3477,412,79", 
            "resource": {
                "@type": "cnt:ContentAsText", 
                "chars": "COUSTUMEES", 
                "format": "text/plain"
            }
        }, 
        {
            "@id": "https://manifests.teklia.com/HIMANIS/FR5291/words_annotations/http_gallica.bnf.fr_iiif_ark:_12148_btv1b9059263p_f256_full_full_0_native.jpg.json/8/line", 
            "@type": "oa:Annotation", 
            "motivation": "oa:painting", 
            "on": "http://gallica.bnf.fr/iiif/ark:/12148/btv1b9059263p/canvas/f256#xywh=724,912,219,134", 
            "resource": {
                "@type": "cnt:ContentAsText", 
                "chars": "PON", 
                "format": "text/plain"
            }
        }, 
        {
            "@id": "https://manifests.teklia.com/HIMANIS/FR5291/words_annotations/http_gallica.bnf.fr_iiif_ark:_12148_btv1b9059263p_f256_full_full_0_native.jpg.json/9/line", 
            "@type": "oa:Annotation", 
            "motivation": "oa:painting", 
            "on": "http://gallica.bnf.fr/iiif/ark:/12148/btv1b9059263p/canvas/f256#xywh=1150,1223,269,62", 
            "resource": {
                "@type": "cnt:ContentAsText", 
                "chars": "SENT", 
                "format": "text/plain"
            }
        }, 
        {
            "@id": "https://manifests.teklia.com/HIMANIS/FR5291/words_annotations/http_gallica.bnf.fr_iiif_ark:_12148_btv1b9059263p_f256_full_full_0_native.jpg.json/10/line", 
            "@type": "oa:Annotation", 
            "motivation": "oa:painting", 
            "on": "http://gallica.bnf.fr/iiif/ark:/12148/btv1b9059263p/canvas/f256#xywh=1607,3182,133,86", 
            "resource": {
                "@type": "cnt:ContentAsText", 
                "chars": "QUI", 
                "format": "text/plain"
            }
        }, 
        {
            "@id": "https://manifests.teklia.com/HIMANIS/FR5291/words_annotations/http_gallica.bnf.fr_iiif_ark:_12148_btv1b9059263p_f256_full_full_0_native.jpg.json/11/line", 
            "@type": "oa:Annotation", 
            "motivation": "oa:painting", 
            "on": "http://gallica.bnf.fr/iiif/ark:/12148/btv1b9059263p/canvas/f256#xywh=2299,3276,157,139", 
            "resource": {
                "@type": "cnt:ContentAsText", 
                "chars": "MAIS", 
                "format": "text/plain"
            }
        }, 
        {
            "@id": "https://manifests.teklia.com/HIMANIS/FR5291/words_annotations/http_gallica.bnf.fr_iiif_ark:_12148_btv1b9059263p_f256_full_full_0_native.jpg.json/12/line", 
            "@type": "oa:Annotation", 
            "motivation": "oa:painting", 
            "on": "http://gallica.bnf.fr/iiif/ark:/12148/btv1b9059263p/canvas/f256#xywh=2947,1084,543,104", 
            "resource": {
                "@type": "cnt:ContentAsText", 
                "chars": "MANIERE", 
                "format": "text/plain"
            }
        }, 
        {
            "@id": "https://manifests.teklia.com/HIMANIS/FR5291/words_annotations/http_gallica.bnf.fr_iiif_ark:_12148_btv1b9059263p_f256_full_full_0_native.jpg.json/13/line", 
            "@type": "oa:Annotation", 
            "motivation": "oa:painting", 
            "on": "http://gallica.bnf.fr/iiif/ark:/12148/btv1b9059263p/canvas/f256#xywh=626,2884,274,133", 
            "resource": {
                "@type": "cnt:ContentAsText", 
                "chars": "CON", 
                "format": "text/plain"
            }
        }, 
        {
            "@id": "https://manifests.teklia.com/HIMANIS/FR5291/words_annotations/http_gallica.bnf.fr_iiif_ark:_12148_btv1b9059263p_f256_full_full_0_native.jpg.json/14/line", 
            "@type": "oa:Annotation", 
            "motivation": "oa:painting", 
            "on": "http://gallica.bnf.fr/iiif/ark:/12148/btv1b9059263p/canvas/f256#xywh=733,2234,178,45", 
            "resource": {
                "@type": "cnt:ContentAsText", 
                "chars": "CERET", 
                "format": "text/plain"
            }
        }, 
        {
            "@id": "https://manifests.teklia.com/HIMANIS/FR5291/words_annotations/http_gallica.bnf.fr_iiif_ark:_12148_btv1b9059263p_f256_full_full_0_native.jpg.json/15/line", 
            "@type": "oa:Annotation", 
            "motivation": "oa:painting", 
            "on": "http://gallica.bnf.fr/iiif/ark:/12148/btv1b9059263p/canvas/f256#xywh=2113,2031,256,127", 
            "resource": {
                "@type": "cnt:ContentAsText", 
                "chars": "DEVOIT", 
                "format": "text/plain"
            }
        }, 
        {
            "@id": "https://manifests.teklia.com/HIMANIS/FR5291/words_annotations/http_gallica.bnf.fr_iiif_ark:_12148_btv1b9059263p_f256_full_full_0_native.jpg.json/16/line", 
            "@type": "oa:Annotation", 
            "motivation": "oa:painting", 
            "on": "http://gallica.bnf.fr/iiif/ark:/12148/btv1b9059263p/canvas/f256#xywh=2947,1084,543,104", 
            "resource": {
                "@type": "cnt:ContentAsText", 
                "chars": "MANIERS", 
                "format": "text/plain"
            }
        }, 
        {
            "@id": "https://manifests.teklia.com/HIMANIS/FR5291/words_annotations/http_gallica.bnf.fr_iiif_ark:_12148_btv1b9059263p_f256_full_full_0_native.jpg.json/17/line", 
            "@type": "oa:Annotation", 
            "motivation": "oa:painting", 
            "on": "http://gallica.bnf.fr/iiif/ark:/12148/btv1b9059263p/canvas/f256#xywh=3043,4602,182,116", 
            "resource": {
                "@type": "cnt:ContentAsText", 
                "chars": "DE", 
                "format": "text/plain"
            }
        }, 
        {
            "@id": "https://manifests.teklia.com/HIMANIS/FR5291/words_annotations/http_gallica.bnf.fr_iiif_ark:_12148_btv1b9059263p_f256_full_full_0_native.jpg.json/18/line", 
            "@type": "oa:Annotation", 
            "motivation": "oa:painting", 
            "on": "http://gallica.bnf.fr/iiif/ark:/12148/btv1b9059263p/canvas/f256#xywh=2299,3276,157,139", 
            "resource": {
                "@type": "cnt:ContentAsText", 
                "chars": "MARIE", 
                "format": "text/plain"
            }
        }, 
        {
            "@id": "https://manifests.teklia.com/HIMANIS/FR5291/words_annotations/http_gallica.bnf.fr_iiif_ark:_12148_btv1b9059263p_f256_full_full_0_native.jpg.json/19/line", 
            "@type": "oa:Annotation", 
            "motivation": "oa:painting", 
            "on": "http://gallica.bnf.fr/iiif/ark:/12148/btv1b9059263p/canvas/f256#xywh=2299,3276,157,139", 
            "resource": {
                "@type": "cnt:ContentAsText", 
                "chars": "MARIS", 
                "format": "text/plain"
            }
        }, 
        {
            "@id": "https://manifests.teklia.com/HIMANIS/FR5291/words_annotations/http_gallica.bnf.fr_iiif_ark:_12148_btv1b9059263p_f256_full_full_0_native.jpg.json/20/line", 
            "@type": "oa:Annotation", 
            "motivation": "oa:painting", 
            "on": "http://gallica.bnf.fr/iiif/ark:/12148/btv1b9059263p/canvas/f256#xywh=1289,3477,59,79", 
            "resource": {
                "@type": "cnt:ContentAsText", 
                "chars": "SUI", 
                "format": "text/plain"
            }
        }, 
        {
            "@id": "https://manifests.teklia.com/HIMANIS/FR5291/words_annotations/http_gallica.bnf.fr_iiif_ark:_12148_btv1b9059263p_f256_full_full_0_native.jpg.json/21/line", 
            "@type": "oa:Annotation", 
            "motivation": "oa:painting", 
            "on": "http://gallica.bnf.fr/iiif/ark:/12148/btv1b9059263p/canvas/f256#xywh=2947,1084,510,104", 
            "resource": {
                "@type": "cnt:ContentAsText", 
                "chars": "MANIER", 
                "format": "text/plain"
            }
        }, 
        {
            "@id": "https://manifests.teklia.com/HIMANIS/FR5291/words_annotations/http_gallica.bnf.fr_iiif_ark:_12148_btv1b9059263p_f256_full_full_0_native.jpg.json/22/line", 
            "@type": "oa:Annotation", 
            "motivation": "oa:painting", 
            "on": "http://gallica.bnf.fr/iiif/ark:/12148/btv1b9059263p/canvas/f256#xywh=1154,3477,95,79", 
            "resource": {
                "@type": "cnt:ContentAsText", 
                "chars": "ET", 
                "format": "text/plain"
            }
        }, 
        {
            "@id": "https://manifests.teklia.com/HIMANIS/FR5291/words_annotations/http_gallica.bnf.fr_iiif_ark:_12148_btv1b9059263p_f256_full_full_0_native.jpg.json/23/line", 
            "@type": "oa:Annotation", 
            "motivation": "oa:painting", 
            "on": "http://gallica.bnf.fr/iiif/ark:/12148/btv1b9059263p/canvas/f256#xywh=311,2795,472,48", 
            "resource": {
                "@type": "cnt:ContentAsText", 
                "chars": "PHILIPP", 
                "format": "text/plain"
            }
        }, 
        {
            "@id": "https://manifests.teklia.com/HIMANIS/FR5291/words_annotations/http_gallica.bnf.fr_iiif_ark:_12148_btv1b9059263p_f256_full_full_0_native.jpg.json/24/line", 
            "@type": "oa:Annotation", 
            "motivation": "oa:painting", 
            "on": "http://gallica.bnf.fr/iiif/ark:/12148/btv1b9059263p/canvas/f256#xywh=171,3853,652,107", 
            "resource": {
                "@type": "cnt:ContentAsText", 
                "chars": "PAR", 
                "format": "text/plain"
            }
        }, 
        {
            "@id": "https://manifests.teklia.com/HIMANIS/FR5291/words_annotations/http_gallica.bnf.fr_iiif_ark:_12148_btv1b9059263p_f256_full_full_0_native.jpg.json/25/line", 
            "@type": "oa:Annotation", 
            "motivation": "oa:painting", 
            "on": "http://gallica.bnf.fr/iiif/ark:/12148/btv1b9059263p/canvas/f256#xywh=2421,59,0,139", 
            "resource": {
                "@type": "cnt:ContentAsText", 
                "chars": "A", 
                "format": "text/plain"
            }
        }, 
        {
            "@id": "https://manifests.teklia.com/HIMANIS/FR5291/words_annotations/http_gallica.bnf.fr_iiif_ark:_12148_btv1b9059263p_f256_full_full_0_native.jpg.json/26/line", 
            "@type": "oa:Annotation", 
            "motivation": "oa:painting", 
            "on": "http://gallica.bnf.fr/iiif/ark:/12148/btv1b9059263p/canvas/f256#xywh=2421,59,0,139", 
            "resource": {
                "@type": "cnt:ContentAsText", 
                "chars": "D", 
                "format": "text/plain"
            }
        }, 
        {
            "@id": "https://manifests.teklia.com/HIMANIS/FR5291/words_annotations/http_gallica.bnf.fr_iiif_ark:_12148_btv1b9059263p_f256_full_full_0_native.jpg.json/27/line", 
            "@type": "oa:Annotation", 
            "motivation": "oa:painting", 
            "on": "http://gallica.bnf.fr/iiif/ark:/12148/btv1b9059263p/canvas/f256#xywh=2421,59,0,139", 
            "resource": {
                "@type": "cnt:ContentAsText", 
                "chars": "P", 
                "format": "text/plain"
            }
        }, 
        {
            "@id": "https://manifests.teklia.com/HIMANIS/FR5291/words_annotations/http_gallica.bnf.fr_iiif_ark:_12148_btv1b9059263p_f256_full_full_0_native.jpg.json/28/line", 
            "@type": "oa:Annotation", 
            "motivation": "oa:painting", 
            "on": "http://gallica.bnf.fr/iiif/ark:/12148/btv1b9059263p/canvas/f256#xywh=1179,1471,77,137", 
            "resource": {
                "@type": "cnt:ContentAsText", 
                "chars": "ET", 
                "format": "text/plain"
            }
        }, 
        {
            "@id": "https://manifests.teklia.com/HIMANIS/FR5291/words_annotations/http_gallica.bnf.fr_iiif_ark:_12148_btv1b9059263p_f256_full_full_0_native.jpg.json/29/line", 
            "@type": "oa:Annotation", 
            "motivation": "oa:painting", 
            "on": "http://gallica.bnf.fr/iiif/ark:/12148/btv1b9059263p/canvas/f256#xywh=626,2884,531,133", 
            "resource": {
                "@type": "cnt:ContentAsText", 
                "chars": "CONSEIGNEUR", 
                "format": "text/plain"
            }
        }, 
        {
            "@id": "https://manifests.teklia.com/HIMANIS/FR5291/words_annotations/http_gallica.bnf.fr_iiif_ark:_12148_btv1b9059263p_f256_full_full_0_native.jpg.json/30/line", 
            "@type": "oa:Annotation", 
            "motivation": "oa:painting", 
            "on": "http://gallica.bnf.fr/iiif/ark:/12148/btv1b9059263p/canvas/f256#xywh=1190,2884,199,133", 
            "resource": {
                "@type": "cnt:ContentAsText", 
                "chars": "ENGE", 
                "format": "text/plain"
            }
        }, 
        {
            "@id": "https://manifests.teklia.com/HIMANIS/FR5291/words_annotations/http_gallica.bnf.fr_iiif_ark:_12148_btv1b9059263p_f256_full_full_0_native.jpg.json/31/line", 
            "@type": "oa:Annotation", 
            "motivation": "oa:painting", 
            "on": "http://gallica.bnf.fr/iiif/ark:/12148/btv1b9059263p/canvas/f256#xywh=2421,59,1108,139", 
            "resource": {
                "@type": "cnt:ContentAsText", 
                "chars": "IPS", 
                "format": "text/plain"
            }
        }, 
        {
            "@id": "https://manifests.teklia.com/HIMANIS/FR5291/words_annotations/http_gallica.bnf.fr_iiif_ark:_12148_btv1b9059263p_f256_full_full_0_native.jpg.json/32/line", 
            "@type": "oa:Annotation", 
            "motivation": "oa:painting", 
            "on": "http://gallica.bnf.fr/iiif/ark:/12148/btv1b9059263p/canvas/f256#xywh=707,3047,381,62", 
            "resource": {
                "@type": "cnt:ContentAsText", 
                "chars": "AUGUES", 
                "format": "text/plain"
            }
        }, 
        {
            "@id": "https://manifests.teklia.com/HIMANIS/FR5291/words_annotations/http_gallica.bnf.fr_iiif_ark:_12148_btv1b9059263p_f256_full_full_0_native.jpg.json/33/line", 
            "@type": "oa:Annotation", 
            "motivation": "oa:painting", 
            "on": "http://gallica.bnf.fr/iiif/ark:/12148/btv1b9059263p/canvas/f256#xywh=3232,678,225,128", 
            "resource": {
                "@type": "cnt:ContentAsText", 
                "chars": "NOUS", 
                "format": "text/plain"
            }
        }, 
        {
            "@id": "https://manifests.teklia.com/HIMANIS/FR5291/words_annotations/http_gallica.bnf.fr_iiif_ark:_12148_btv1b9059263p_f256_full_full_0_native.jpg.json/34/line", 
            "@type": "oa:Annotation", 
            "motivation": "oa:painting", 
            "on": "http://gallica.bnf.fr/iiif/ark:/12148/btv1b9059263p/canvas/f256#xywh=974,2234,89,45", 
            "resource": {
                "@type": "cnt:ContentAsText", 
                "chars": "QUE", 
                "format": "text/plain"
            }
        }, 
        {
            "@id": "https://manifests.teklia.com/HIMANIS/FR5291/words_annotations/http_gallica.bnf.fr_iiif_ark:_12148_btv1b9059263p_f256_full_full_0_native.jpg.json/35/line", 
            "@type": "oa:Annotation", 
            "motivation": "oa:painting", 
            "on": "http://gallica.bnf.fr/iiif/ark:/12148/btv1b9059263p/canvas/f256#xywh=1250,3047,263,62", 
            "resource": {
                "@type": "cnt:ContentAsText", 
                "chars": "HONERES", 
                "format": "text/plain"
            }
        }, 
        {
            "@id": "https://manifests.teklia.com/HIMANIS/FR5291/words_annotations/http_gallica.bnf.fr_iiif_ark:_12148_btv1b9059263p_f256_full_full_0_native.jpg.json/36/line", 
            "@type": "oa:Annotation", 
            "motivation": "oa:painting", 
            "on": "http://gallica.bnf.fr/iiif/ark:/12148/btv1b9059263p/canvas/f256#xywh=171,2749,0,52", 
            "resource": {
                "@type": "cnt:ContentAsText", 
                "chars": "J", 
                "format": "text/plain"
            }
        }, 
        {
            "@id": "https://manifests.teklia.com/HIMANIS/FR5291/words_annotations/http_gallica.bnf.fr_iiif_ark:_12148_btv1b9059263p_f256_full_full_0_native.jpg.json/37/line", 
            "@type": "oa:Annotation", 
            "motivation": "oa:painting", 
            "on": "http://gallica.bnf.fr/iiif/ark:/12148/btv1b9059263p/canvas/f256#xywh=171,2749,0,52", 
            "resource": {
                "@type": "cnt:ContentAsText", 
                "chars": "P", 
                "format": "text/plain"
            }
        }, 
        {
            "@id": "https://manifests.teklia.com/HIMANIS/FR5291/words_annotations/http_gallica.bnf.fr_iiif_ark:_12148_btv1b9059263p_f256_full_full_0_native.jpg.json/38/line", 
            "@type": "oa:Annotation", 
            "motivation": "oa:painting", 
            "on": "http://gallica.bnf.fr/iiif/ark:/12148/btv1b9059263p/canvas/f256#xywh=2723,3559,123,71", 
            "resource": {
                "@type": "cnt:ContentAsText", 
                "chars": "DES", 
                "format": "text/plain"
            }
        }, 
        {
            "@id": "https://manifests.teklia.com/HIMANIS/FR5291/words_annotations/http_gallica.bnf.fr_iiif_ark:_12148_btv1b9059263p_f256_full_full_0_native.jpg.json/39/line", 
            "@type": "oa:Annotation", 
            "motivation": "oa:painting", 
            "on": "http://gallica.bnf.fr/iiif/ark:/12148/btv1b9059263p/canvas/f256#xywh=1059,3263,78,157", 
            "resource": {
                "@type": "cnt:ContentAsText", 
                "chars": "DU", 
                "format": "text/plain"
            }
        }, 
        {
            "@id": "https://manifests.teklia.com/HIMANIS/FR5291/words_annotations/http_gallica.bnf.fr_iiif_ark:_12148_btv1b9059263p_f256_full_full_0_native.jpg.json/40/line", 
            "@type": "oa:Annotation", 
            "motivation": "oa:painting", 
            "on": "http://gallica.bnf.fr/iiif/ark:/12148/btv1b9059263p/canvas/f256#xywh=744,3177,114,87", 
            "resource": {
                "@type": "cnt:ContentAsText", 
                "chars": "NON", 
                "format": "text/plain"
            }
        }, 
        {
            "@id": "https://manifests.teklia.com/HIMANIS/FR5291/words_annotations/http_gallica.bnf.fr_iiif_ark:_12148_btv1b9059263p_f256_full_full_0_native.jpg.json/41/line", 
            "@type": "oa:Annotation", 
            "motivation": "oa:painting", 
            "on": "http://gallica.bnf.fr/iiif/ark:/12148/btv1b9059263p/canvas/f256#xywh=1150,1223,339,62", 
            "resource": {
                "@type": "cnt:ContentAsText", 
                "chars": "SENTE", 
                "format": "text/plain"
            }
        }, 
        {
            "@id": "https://manifests.teklia.com/HIMANIS/FR5291/words_annotations/http_gallica.bnf.fr_iiif_ark:_12148_btv1b9059263p_f256_full_full_0_native.jpg.json/42/line", 
            "@type": "oa:Annotation", 
            "motivation": "oa:painting", 
            "on": "http://gallica.bnf.fr/iiif/ark:/12148/btv1b9059263p/canvas/f256#xywh=1986,1228,308,65", 
            "resource": {
                "@type": "cnt:ContentAsText", 
                "chars": "BARRICUN", 
                "format": "text/plain"
            }
        }, 
        {
            "@id": "https://manifests.teklia.com/HIMANIS/FR5291/words_annotations/http_gallica.bnf.fr_iiif_ark:_12148_btv1b9059263p_f256_full_full_0_native.jpg.json/43/line", 
            "@type": "oa:Annotation", 
            "motivation": "oa:painting", 
            "on": "http://gallica.bnf.fr/iiif/ark:/12148/btv1b9059263p/canvas/f256#xywh=175,1593,235,59", 
            "resource": {
                "@type": "cnt:ContentAsText", 
                "chars": "PHAN", 
                "format": "text/plain"
            }
        }, 
        {
            "@id": "https://manifests.teklia.com/HIMANIS/FR5291/words_annotations/http_gallica.bnf.fr_iiif_ark:_12148_btv1b9059263p_f256_full_full_0_native.jpg.json/44/line", 
            "@type": "oa:Annotation", 
            "motivation": "oa:painting", 
            "on": "http://gallica.bnf.fr/iiif/ark:/12148/btv1b9059263p/canvas/f256#xywh=891,3177,71,87", 
            "resource": {
                "@type": "cnt:ContentAsText", 
                "chars": "SEIGNEUR", 
                "format": "text/plain"
            }
        }, 
        {
            "@id": "https://manifests.teklia.com/HIMANIS/FR5291/words_annotations/http_gallica.bnf.fr_iiif_ark:_12148_btv1b9059263p_f256_full_full_0_native.jpg.json/45/line", 
            "@type": "oa:Annotation", 
            "motivation": "oa:painting", 
            "on": "http://gallica.bnf.fr/iiif/ark:/12148/btv1b9059263p/canvas/f256#xywh=2848,2031,408,127", 
            "resource": {
                "@type": "cnt:ContentAsText", 
                "chars": "AINS", 
                "format": "text/plain"
            }
        }, 
        {
            "@id": "https://manifests.teklia.com/HIMANIS/FR5291/words_annotations/http_gallica.bnf.fr_iiif_ark:_12148_btv1b9059263p_f256_full_full_0_native.jpg.json/46/line", 
            "@type": "oa:Annotation", 
            "motivation": "oa:painting", 
            "on": "http://gallica.bnf.fr/iiif/ark:/12148/btv1b9059263p/canvas/f256#xywh=2299,3276,157,139", 
            "resource": {
                "@type": "cnt:ContentAsText", 
                "chars": "MANS", 
                "format": "text/plain"
            }
        }, 
        {
            "@id": "https://manifests.teklia.com/HIMANIS/FR5291/words_annotations/http_gallica.bnf.fr_iiif_ark:_12148_btv1b9059263p_f256_full_full_0_native.jpg.json/47/line", 
            "@type": "oa:Annotation", 
            "motivation": "oa:painting", 
            "on": "http://gallica.bnf.fr/iiif/ark:/12148/btv1b9059263p/canvas/f256#xywh=2868,1084,46,104", 
            "resource": {
                "@type": "cnt:ContentAsText", 
                "chars": "DE", 
                "format": "text/plain"
            }
        }, 
        {
            "@id": "https://manifests.teklia.com/HIMANIS/FR5291/words_annotations/http_gallica.bnf.fr_iiif_ark:_12148_btv1b9059263p_f256_full_full_0_native.jpg.json/48/line", 
            "@type": "oa:Annotation", 
            "motivation": "oa:painting", 
            "on": "http://gallica.bnf.fr/iiif/ark:/12148/btv1b9059263p/canvas/f256#xywh=2806,2165,113,150", 
            "resource": {
                "@type": "cnt:ContentAsText", 
                "chars": "FOIS", 
                "format": "text/plain"
            }
        }, 
        {
            "@id": "https://manifests.teklia.com/HIMANIS/FR5291/words_annotations/http_gallica.bnf.fr_iiif_ark:_12148_btv1b9059263p_f256_full_full_0_native.jpg.json/49/line", 
            "@type": "oa:Annotation", 
            "motivation": "oa:painting", 
            "on": "http://gallica.bnf.fr/iiif/ark:/12148/btv1b9059263p/canvas/f256#xywh=673,1995,344,147", 
            "resource": {
                "@type": "cnt:ContentAsText", 
                "chars": "GUILLA", 
                "format": "text/plain"
            }
        }, 
        {
            "@id": "https://manifests.teklia.com/HIMANIS/FR5291/words_annotations/http_gallica.bnf.fr_iiif_ark:_12148_btv1b9059263p_f256_full_full_0_native.jpg.json/50/line", 
            "@type": "oa:Annotation", 
            "motivation": "oa:painting", 
            "on": "http://gallica.bnf.fr/iiif/ark:/12148/btv1b9059263p/canvas/f256#xywh=1186,3263,167,157", 
            "resource": {
                "@type": "cnt:ContentAsText", 
                "chars": "QUE", 
                "format": "text/plain"
            }
        }, 
        {
            "@id": "https://manifests.teklia.com/HIMANIS/FR5291/words_annotations/http_gallica.bnf.fr_iiif_ark:_12148_btv1b9059263p_f256_full_full_0_native.jpg.json/51/line", 
            "@type": "oa:Annotation", 
            "motivation": "oa:painting", 
            "on": "http://gallica.bnf.fr/iiif/ark:/12148/btv1b9059263p/canvas/f256#xywh=673,1995,335,147", 
            "resource": {
                "@type": "cnt:ContentAsText", 
                "chars": "GUILLE", 
                "format": "text/plain"
            }
        }, 
        {
            "@id": "https://manifests.teklia.com/HIMANIS/FR5291/words_annotations/http_gallica.bnf.fr_iiif_ark:_12148_btv1b9059263p_f256_full_full_0_native.jpg.json/52/line", 
            "@type": "oa:Annotation", 
            "motivation": "oa:painting", 
            "on": "http://gallica.bnf.fr/iiif/ark:/12148/btv1b9059263p/canvas/f256#xywh=3089,2165,0,150", 
            "resource": {
                "@type": "cnt:ContentAsText", 
                "chars": "P", 
                "format": "text/plain"
            }
        }, 
        {
            "@id": "https://manifests.teklia.com/HIMANIS/FR5291/words_annotations/http_gallica.bnf.fr_iiif_ark:_12148_btv1b9059263p_f256_full_full_0_native.jpg.json/53/line", 
            "@type": "oa:Annotation", 
            "motivation": "oa:painting", 
            "on": "http://gallica.bnf.fr/iiif/ark:/12148/btv1b9059263p/canvas/f256#xywh=687,2997,0,51", 
            "resource": {
                "@type": "cnt:ContentAsText", 
                "chars": "P", 
                "format": "text/plain"
            }
        }, 
        {
            "@id": "https://manifests.teklia.com/HIMANIS/FR5291/words_annotations/http_gallica.bnf.fr_iiif_ark:_12148_btv1b9059263p_f256_full_full_0_native.jpg.json/54/line", 
            "@type": "oa:Annotation", 
            "motivation": "oa:painting", 
            "on": "http://gallica.bnf.fr/iiif/ark:/12148/btv1b9059263p/canvas/f256#xywh=2236,912,92,134", 
            "resource": {
                "@type": "cnt:ContentAsText", 
                "chars": "LE", 
                "format": "text/plain"
            }
        }, 
        {
            "@id": "https://manifests.teklia.com/HIMANIS/FR5291/words_annotations/http_gallica.bnf.fr_iiif_ark:_12148_btv1b9059263p_f256_full_full_0_native.jpg.json/55/line", 
            "@type": "oa:Annotation", 
            "motivation": "oa:painting", 
            "on": "http://gallica.bnf.fr/iiif/ark:/12148/btv1b9059263p/canvas/f256#xywh=1879,512,434,256", 
            "resource": {
                "@type": "cnt:ContentAsText", 
                "chars": "LE", 
                "format": "text/plain"
            }
        }, 
        {
            "@id": "https://manifests.teklia.com/HIMANIS/FR5291/words_annotations/http_gallica.bnf.fr_iiif_ark:_12148_btv1b9059263p_f256_full_full_0_native.jpg.json/56/line", 
            "@type": "oa:Annotation", 
            "motivation": "oa:painting", 
            "on": "http://gallica.bnf.fr/iiif/ark:/12148/btv1b9059263p/canvas/f256#xywh=2297,2165,76,150", 
            "resource": {
                "@type": "cnt:ContentAsText", 
                "chars": "POUR", 
                "format": "text/plain"
            }
        }, 
        {
            "@id": "https://manifests.teklia.com/HIMANIS/FR5291/words_annotations/http_gallica.bnf.fr_iiif_ark:_12148_btv1b9059263p_f256_full_full_0_native.jpg.json/57/line", 
            "@type": "oa:Annotation", 
            "motivation": "oa:painting", 
            "on": "http://gallica.bnf.fr/iiif/ark:/12148/btv1b9059263p/canvas/f256#xywh=2306,1228,156,65", 
            "resource": {
                "@type": "cnt:ContentAsText", 
                "chars": "SARTO", 
                "format": "text/plain"
            }
        }, 
        {
            "@id": "https://manifests.teklia.com/HIMANIS/FR5291/words_annotations/http_gallica.bnf.fr_iiif_ark:_12148_btv1b9059263p_f256_full_full_0_native.jpg.json/58/line", 
            "@type": "oa:Annotation", 
            "motivation": "oa:painting", 
            "on": "http://gallica.bnf.fr/iiif/ark:/12148/btv1b9059263p/canvas/f256#xywh=1413,912,50,134", 
            "resource": {
                "@type": "cnt:ContentAsText", 
                "chars": "DE", 
                "format": "text/plain"
            }
        }, 
        {
            "@id": "https://manifests.teklia.com/HIMANIS/FR5291/words_annotations/http_gallica.bnf.fr_iiif_ark:_12148_btv1b9059263p_f256_full_full_0_native.jpg.json/59/line", 
            "@type": "oa:Annotation", 
            "motivation": "oa:painting", 
            "on": "http://gallica.bnf.fr/iiif/ark:/12148/btv1b9059263p/canvas/f256#xywh=1879,512,305,256", 
            "resource": {
                "@type": "cnt:ContentAsText", 
                "chars": "DE", 
                "format": "text/plain"
            }
        }, 
        {
            "@id": "https://manifests.teklia.com/HIMANIS/FR5291/words_annotations/http_gallica.bnf.fr_iiif_ark:_12148_btv1b9059263p_f256_full_full_0_native.jpg.json/60/line", 
            "@type": "oa:Annotation", 
            "motivation": "oa:painting", 
            "on": "http://gallica.bnf.fr/iiif/ark:/12148/btv1b9059263p/canvas/f256#xywh=2236,912,92,134", 
            "resource": {
                "@type": "cnt:ContentAsText", 
                "chars": "XL", 
                "format": "text/plain"
            }
        }, 
        {
            "@id": "https://manifests.teklia.com/HIMANIS/FR5291/words_annotations/http_gallica.bnf.fr_iiif_ark:_12148_btv1b9059263p_f256_full_full_0_native.jpg.json/61/line", 
            "@type": "oa:Annotation", 
            "motivation": "oa:painting", 
            "on": "http://gallica.bnf.fr/iiif/ark:/12148/btv1b9059263p/canvas/f256#xywh=1879,512,434,256", 
            "resource": {
                "@type": "cnt:ContentAsText", 
                "chars": "LI", 
                "format": "text/plain"
            }
        }, 
        {
            "@id": "https://manifests.teklia.com/HIMANIS/FR5291/words_annotations/http_gallica.bnf.fr_iiif_ark:_12148_btv1b9059263p_f256_full_full_0_native.jpg.json/62/line", 
            "@type": "oa:Annotation", 
            "motivation": "oa:painting", 
            "on": "http://gallica.bnf.fr/iiif/ark:/12148/btv1b9059263p/canvas/f256#xywh=2500,3276,148,139", 
            "resource": {
                "@type": "cnt:ContentAsText", 
                "chars": "TANT", 
                "format": "text/plain"
            }
        }, 
        {
            "@id": "https://manifests.teklia.com/HIMANIS/FR5291/words_annotations/http_gallica.bnf.fr_iiif_ark:_12148_btv1b9059263p_f256_full_full_0_native.jpg.json/63/line", 
            "@type": "oa:Annotation", 
            "motivation": "oa:painting", 
            "on": "http://gallica.bnf.fr/iiif/ark:/12148/btv1b9059263p/canvas/f256#xywh=127,2444,1033,162", 
            "resource": {
                "@type": "cnt:ContentAsText", 
                "chars": "CONSEIGNEUR", 
                "format": "text/plain"
            }
        }, 
        {
            "@id": "https://manifests.teklia.com/HIMANIS/FR5291/words_annotations/http_gallica.bnf.fr_iiif_ark:_12148_btv1b9059263p_f256_full_full_0_native.jpg.json/64/line", 
            "@type": "oa:Annotation", 
            "motivation": "oa:painting", 
            "on": "http://gallica.bnf.fr/iiif/ark:/12148/btv1b9059263p/canvas/f256#xywh=712,1064,0,82", 
            "resource": {
                "@type": "cnt:ContentAsText", 
                "chars": "P", 
                "format": "text/plain"
            }
        }, 
        {
            "@id": "https://manifests.teklia.com/HIMANIS/FR5291/words_annotations/http_gallica.bnf.fr_iiif_ark:_12148_btv1b9059263p_f256_full_full_0_native.jpg.json/65/line", 
            "@type": "oa:Annotation", 
            "motivation": "oa:painting", 
            "on": "http://gallica.bnf.fr/iiif/ark:/12148/btv1b9059263p/canvas/f256#xywh=2666,3276,253,139", 
            "resource": {
                "@type": "cnt:ContentAsText", 
                "chars": "SEULEMENT", 
                "format": "text/plain"
            }
        }, 
        {
            "@id": "https://manifests.teklia.com/HIMANIS/FR5291/words_annotations/http_gallica.bnf.fr_iiif_ark:_12148_btv1b9059263p_f256_full_full_0_native.jpg.json/66/line", 
            "@type": "oa:Annotation", 
            "motivation": "oa:painting", 
            "on": "http://gallica.bnf.fr/iiif/ark:/12148/btv1b9059263p/canvas/f256#xywh=171,3853,665,107", 
            "resource": {
                "@type": "cnt:ContentAsText", 
                "chars": "PERS", 
                "format": "text/plain"
            }
        }, 
        {
            "@id": "https://manifests.teklia.com/HIMANIS/FR5291/words_annotations/http_gallica.bnf.fr_iiif_ark:_12148_btv1b9059263p_f256_full_full_0_native.jpg.json/67/line", 
            "@type": "oa:Annotation", 
            "motivation": "oa:painting", 
            "on": "http://gallica.bnf.fr/iiif/ark:/12148/btv1b9059263p/canvas/f256#xywh=733,2234,126,45", 
            "resource": {
                "@type": "cnt:ContentAsText", 
                "chars": "CERE", 
                "format": "text/plain"
            }
        }, 
        {
            "@id": "https://manifests.teklia.com/HIMANIS/FR5291/words_annotations/http_gallica.bnf.fr_iiif_ark:_12148_btv1b9059263p_f256_full_full_0_native.jpg.json/68/line", 
            "@type": "oa:Annotation", 
            "motivation": "oa:painting", 
            "on": "http://gallica.bnf.fr/iiif/ark:/12148/btv1b9059263p/canvas/f256#xywh=127,2444,1033,162", 
            "resource": {
                "@type": "cnt:ContentAsText", 
                "chars": "LONSEIGNEUR", 
                "format": "text/plain"
            }
        }, 
        {
            "@id": "https://manifests.teklia.com/HIMANIS/FR5291/words_annotations/http_gallica.bnf.fr_iiif_ark:_12148_btv1b9059263p_f256_full_full_0_native.jpg.json/69/line", 
            "@type": "oa:Annotation", 
            "motivation": "oa:painting", 
            "on": "http://gallica.bnf.fr/iiif/ark:/12148/btv1b9059263p/canvas/f256#xywh=1179,1471,52,137", 
            "resource": {
                "@type": "cnt:ContentAsText", 
                "chars": "JE", 
                "format": "text/plain"
            }
        }, 
        {
            "@id": "https://manifests.teklia.com/HIMANIS/FR5291/words_annotations/http_gallica.bnf.fr_iiif_ark:_12148_btv1b9059263p_f256_full_full_0_native.jpg.json/70/line", 
            "@type": "oa:Annotation", 
            "motivation": "oa:painting", 
            "on": "http://gallica.bnf.fr/iiif/ark:/12148/btv1b9059263p/canvas/f256#xywh=1250,3047,224,62", 
            "resource": {
                "@type": "cnt:ContentAsText", 
                "chars": "HONEA", 
                "format": "text/plain"
            }
        }, 
        {
            "@id": "https://manifests.teklia.com/HIMANIS/FR5291/words_annotations/http_gallica.bnf.fr_iiif_ark:_12148_btv1b9059263p_f256_full_full_0_native.jpg.json/71/line", 
            "@type": "oa:Annotation", 
            "motivation": "oa:painting", 
            "on": "http://gallica.bnf.fr/iiif/ark:/12148/btv1b9059263p/canvas/f256#xywh=1155,3047,40,62", 
            "resource": {
                "@type": "cnt:ContentAsText", 
                "chars": "ET", 
                "format": "text/plain"
            }
        }, 
        {
            "@id": "https://manifests.teklia.com/HIMANIS/FR5291/words_annotations/http_gallica.bnf.fr_iiif_ark:_12148_btv1b9059263p_f256_full_full_0_native.jpg.json/72/line", 
            "@type": "oa:Annotation", 
            "motivation": "oa:painting", 
            "on": "http://gallica.bnf.fr/iiif/ark:/12148/btv1b9059263p/canvas/f256#xywh=3232,678,225,128", 
            "resource": {
                "@type": "cnt:ContentAsText", 
                "chars": "MONS", 
                "format": "text/plain"
            }
        }, 
        {
            "@id": "https://manifests.teklia.com/HIMANIS/FR5291/words_annotations/http_gallica.bnf.fr_iiif_ark:_12148_btv1b9059263p_f256_full_full_0_native.jpg.json/73/line", 
            "@type": "oa:Annotation", 
            "motivation": "oa:painting", 
            "on": "http://gallica.bnf.fr/iiif/ark:/12148/btv1b9059263p/canvas/f256#xywh=1179,1471,86,137", 
            "resource": {
                "@type": "cnt:ContentAsText", 
                "chars": "JEHA", 
                "format": "text/plain"
            }
        }, 
        {
            "@id": "https://manifests.teklia.com/HIMANIS/FR5291/words_annotations/http_gallica.bnf.fr_iiif_ark:_12148_btv1b9059263p_f256_full_full_0_native.jpg.json/74/line", 
            "@type": "oa:Annotation", 
            "motivation": "oa:painting", 
            "on": "http://gallica.bnf.fr/iiif/ark:/12148/btv1b9059263p/canvas/f256#xywh=251,3589,0,119", 
            "resource": {
                "@type": "cnt:ContentAsText", 
                "chars": "P", 
                "format": "text/plain"
            }
        }, 
        {
            "@id": "https://manifests.teklia.com/HIMANIS/FR5291/words_annotations/http_gallica.bnf.fr_iiif_ark:_12148_btv1b9059263p_f256_full_full_0_native.jpg.json/75/line", 
            "@type": "oa:Annotation", 
            "motivation": "oa:painting", 
            "on": "http://gallica.bnf.fr/iiif/ark:/12148/btv1b9059263p/canvas/f256#xywh=1454,3047,204,62", 
            "resource": {
                "@type": "cnt:ContentAsText", 
                "chars": "ABBATI", 
                "format": "text/plain"
            }
        }, 
        {
            "@id": "https://manifests.teklia.com/HIMANIS/FR5291/words_annotations/http_gallica.bnf.fr_iiif_ark:_12148_btv1b9059263p_f256_full_full_0_native.jpg.json/76/line", 
            "@type": "oa:Annotation", 
            "motivation": "oa:painting", 
            "on": "http://gallica.bnf.fr/iiif/ark:/12148/btv1b9059263p/canvas/f256#xywh=3092,2312,0,158", 
            "resource": {
                "@type": "cnt:ContentAsText", 
                "chars": "P", 
                "format": "text/plain"
            }
        }, 
        {
            "@id": "https://manifests.teklia.com/HIMANIS/FR5291/words_annotations/http_gallica.bnf.fr_iiif_ark:_12148_btv1b9059263p_f256_full_full_0_native.jpg.json/77/line", 
            "@type": "oa:Annotation", 
            "motivation": "oa:painting", 
            "on": "http://gallica.bnf.fr/iiif/ark:/12148/btv1b9059263p/canvas/f256#xywh=2152,912,42,134", 
            "resource": {
                "@type": "cnt:ContentAsText", 
                "chars": "PAR", 
                "format": "text/plain"
            }
        }, 
        {
            "@id": "https://manifests.teklia.com/HIMANIS/FR5291/words_annotations/http_gallica.bnf.fr_iiif_ark:_12148_btv1b9059263p_f256_full_full_0_native.jpg.json/78/line", 
            "@type": "oa:Annotation", 
            "motivation": "oa:painting", 
            "on": "http://gallica.bnf.fr/iiif/ark:/12148/btv1b9059263p/canvas/f256#xywh=2392,2165,198,150", 
            "resource": {
                "@type": "cnt:ContentAsText", 
                "chars": "RAISON", 
                "format": "text/plain"
            }
        }, 
        {
            "@id": "https://manifests.teklia.com/HIMANIS/FR5291/words_annotations/http_gallica.bnf.fr_iiif_ark:_12148_btv1b9059263p_f256_full_full_0_native.jpg.json/79/line", 
            "@type": "oa:Annotation", 
            "motivation": "oa:painting", 
            "on": "http://gallica.bnf.fr/iiif/ark:/12148/btv1b9059263p/canvas/f256#xywh=716,1142,0,64", 
            "resource": {
                "@type": "cnt:ContentAsText", 
                "chars": "J", 
                "format": "text/plain"
            }
        }, 
        {
            "@id": "https://manifests.teklia.com/HIMANIS/FR5291/words_annotations/http_gallica.bnf.fr_iiif_ark:_12148_btv1b9059263p_f256_full_full_0_native.jpg.json/80/line", 
            "@type": "oa:Annotation", 
            "motivation": "oa:painting", 
            "on": "http://gallica.bnf.fr/iiif/ark:/12148/btv1b9059263p/canvas/f256#xywh=700,1751,247,131", 
            "resource": {
                "@type": "cnt:ContentAsText", 
                "chars": "POU", 
                "format": "text/plain"
            }
        }, 
        {
            "@id": "https://manifests.teklia.com/HIMANIS/FR5291/words_annotations/http_gallica.bnf.fr_iiif_ark:_12148_btv1b9059263p_f256_full_full_0_native.jpg.json/81/line", 
            "@type": "oa:Annotation", 
            "motivation": "oa:painting", 
            "on": "http://gallica.bnf.fr/iiif/ark:/12148/btv1b9059263p/canvas/f256#xywh=2113,2031,128,127", 
            "resource": {
                "@type": "cnt:ContentAsText", 
                "chars": "DE", 
                "format": "text/plain"
            }
        }, 
        {
            "@id": "https://manifests.teklia.com/HIMANIS/FR5291/words_annotations/http_gallica.bnf.fr_iiif_ark:_12148_btv1b9059263p_f256_full_full_0_native.jpg.json/82/line", 
            "@type": "oa:Annotation", 
            "motivation": "oa:painting", 
            "on": "http://gallica.bnf.fr/iiif/ark:/12148/btv1b9059263p/canvas/f256#xywh=2806,2165,113,150", 
            "resource": {
                "@type": "cnt:ContentAsText", 
                "chars": "FORS", 
                "format": "text/plain"
            }
        }, 
        {
            "@id": "https://manifests.teklia.com/HIMANIS/FR5291/words_annotations/http_gallica.bnf.fr_iiif_ark:_12148_btv1b9059263p_f256_full_full_0_native.jpg.json/83/line", 
            "@type": "oa:Annotation", 
            "motivation": "oa:painting", 
            "on": "http://gallica.bnf.fr/iiif/ark:/12148/btv1b9059263p/canvas/f256#xywh=2868,1084,46,104", 
            "resource": {
                "@type": "cnt:ContentAsText", 
                "chars": "ET", 
                "format": "text/plain"
            }
        }, 
        {
            "@id": "https://manifests.teklia.com/HIMANIS/FR5291/words_annotations/http_gallica.bnf.fr_iiif_ark:_12148_btv1b9059263p_f256_full_full_0_native.jpg.json/84/line", 
            "@type": "oa:Annotation", 
            "motivation": "oa:painting", 
            "on": "http://gallica.bnf.fr/iiif/ark:/12148/btv1b9059263p/canvas/f256#xywh=2721,2165,48,150", 
            "resource": {
                "@type": "cnt:ContentAsText", 
                "chars": "LA", 
                "format": "text/plain"
            }
        }, 
        {
            "@id": "https://manifests.teklia.com/HIMANIS/FR5291/words_annotations/http_gallica.bnf.fr_iiif_ark:_12148_btv1b9059263p_f256_full_full_0_native.jpg.json/85/line", 
            "@type": "oa:Annotation", 
            "motivation": "oa:painting", 
            "on": "http://gallica.bnf.fr/iiif/ark:/12148/btv1b9059263p/canvas/f256#xywh=2345,912,168,134", 
            "resource": {
                "@type": "cnt:ContentAsText", 
                "chars": "JOURS", 
                "format": "text/plain"
            }
        }, 
        {
            "@id": "https://manifests.teklia.com/HIMANIS/FR5291/words_annotations/http_gallica.bnf.fr_iiif_ark:_12148_btv1b9059263p_f256_full_full_0_native.jpg.json/86/line", 
            "@type": "oa:Annotation", 
            "motivation": "oa:painting", 
            "on": "http://gallica.bnf.fr/iiif/ark:/12148/btv1b9059263p/canvas/f256#xywh=2637,2165,66,150", 
            "resource": {
                "@type": "cnt:ContentAsText", 
                "chars": "DE", 
                "format": "text/plain"
            }
        }, 
        {
            "@id": "https://manifests.teklia.com/HIMANIS/FR5291/words_annotations/http_gallica.bnf.fr_iiif_ark:_12148_btv1b9059263p_f256_full_full_0_native.jpg.json/87/line", 
            "@type": "oa:Annotation", 
            "motivation": "oa:painting", 
            "on": "http://gallica.bnf.fr/iiif/ark:/12148/btv1b9059263p/canvas/f256#xywh=1749,912,117,134", 
            "resource": {
                "@type": "cnt:ContentAsText", 
                "chars": "DOIT", 
                "format": "text/plain"
            }
        }, 
        {
            "@id": "https://manifests.teklia.com/HIMANIS/FR5291/words_annotations/http_gallica.bnf.fr_iiif_ark:_12148_btv1b9059263p_f256_full_full_0_native.jpg.json/88/line", 
            "@type": "oa:Annotation", 
            "motivation": "oa:painting", 
            "on": "http://gallica.bnf.fr/iiif/ark:/12148/btv1b9059263p/canvas/f256#xywh=1505,912,193,134", 
            "resource": {
                "@type": "cnt:ContentAsText", 
                "chars": "CROLOY", 
                "format": "text/plain"
            }
        }, 
        {
            "@id": "https://manifests.teklia.com/HIMANIS/FR5291/words_annotations/http_gallica.bnf.fr_iiif_ark:_12148_btv1b9059263p_f256_full_full_0_native.jpg.json/89/line", 
            "@type": "oa:Annotation", 
            "motivation": "oa:painting", 
            "on": "http://gallica.bnf.fr/iiif/ark:/12148/btv1b9059263p/canvas/f256#xywh=1454,3047,204,62", 
            "resource": {
                "@type": "cnt:ContentAsText", 
                "chars": "ALIASTI", 
                "format": "text/plain"
            }
        }, 
        {
            "@id": "https://manifests.teklia.com/HIMANIS/FR5291/words_annotations/http_gallica.bnf.fr_iiif_ark:_12148_btv1b9059263p_f256_full_full_0_native.jpg.json/90/line", 
            "@type": "oa:Annotation", 
            "motivation": "oa:painting", 
            "on": "http://gallica.bnf.fr/iiif/ark:/12148/btv1b9059263p/canvas/f256#xywh=724,912,429,134", 
            "resource": {
                "@type": "cnt:ContentAsText", 
                "chars": "PONSEIGNEUR", 
                "format": "text/plain"
            }
        }, 
        {
            "@id": "https://manifests.teklia.com/HIMANIS/FR5291/words_annotations/http_gallica.bnf.fr_iiif_ark:_12148_btv1b9059263p_f256_full_full_0_native.jpg.json/91/line", 
            "@type": "oa:Annotation", 
            "motivation": "oa:painting", 
            "on": "http://gallica.bnf.fr/iiif/ark:/12148/btv1b9059263p/canvas/f256#xywh=1879,512,321,256", 
            "resource": {
                "@type": "cnt:ContentAsText", 
                "chars": "QUE", 
                "format": "text/plain"
            }
        }, 
        {
            "@id": "https://manifests.teklia.com/HIMANIS/FR5291/words_annotations/http_gallica.bnf.fr_iiif_ark:_12148_btv1b9059263p_f256_full_full_0_native.jpg.json/92/line", 
            "@type": "oa:Annotation", 
            "motivation": "oa:painting", 
            "on": "http://gallica.bnf.fr/iiif/ark:/12148/btv1b9059263p/canvas/f256#xywh=1986,1228,242,65", 
            "resource": {
                "@type": "cnt:ContentAsText", 
                "chars": "BARRIGEN", 
                "format": "text/plain"
            }
        }, 
        {
            "@id": "https://manifests.teklia.com/HIMANIS/FR5291/words_annotations/http_gallica.bnf.fr_iiif_ark:_12148_btv1b9059263p_f256_full_full_0_native.jpg.json/93/line", 
            "@type": "oa:Annotation", 
            "motivation": "oa:painting", 
            "on": "http://gallica.bnf.fr/iiif/ark:/12148/btv1b9059263p/canvas/f256#xywh=3392,2031,136,127", 
            "resource": {
                "@type": "cnt:ContentAsText", 
                "chars": "POUR", 
                "format": "text/plain"
            }
        }, 
        {
            "@id": "https://manifests.teklia.com/HIMANIS/FR5291/words_annotations/http_gallica.bnf.fr_iiif_ark:_12148_btv1b9059263p_f256_full_full_0_native.jpg.json/94/line", 
            "@type": "oa:Annotation", 
            "motivation": "oa:painting", 
            "on": "http://gallica.bnf.fr/iiif/ark:/12148/btv1b9059263p/canvas/f256#xywh=742,3477,412,79", 
            "resource": {
                "@type": "cnt:ContentAsText", 
                "chars": "ACOUSTUMEES", 
                "format": "text/plain"
            }
        }, 
        {
            "@id": "https://manifests.teklia.com/HIMANIS/FR5291/words_annotations/http_gallica.bnf.fr_iiif_ark:_12148_btv1b9059263p_f256_full_full_0_native.jpg.json/95/line", 
            "@type": "oa:Annotation", 
            "motivation": "oa:painting", 
            "on": "http://gallica.bnf.fr/iiif/ark:/12148/btv1b9059263p/canvas/f256#xywh=1289,3477,14,79", 
            "resource": {
                "@type": "cnt:ContentAsText", 
                "chars": "SI", 
                "format": "text/plain"
            }
        }, 
        {
            "@id": "https://manifests.teklia.com/HIMANIS/FR5291/words_annotations/http_gallica.bnf.fr_iiif_ark:_12148_btv1b9059263p_f256_full_full_0_native.jpg.json/96/line", 
            "@type": "oa:Annotation", 
            "motivation": "oa:painting", 
            "on": "http://gallica.bnf.fr/iiif/ark:/12148/btv1b9059263p/canvas/f256#xywh=2457,2031,208,127", 
            "resource": {
                "@type": "cnt:ContentAsText", 
                "chars": "VICES", 
                "format": "text/plain"
            }
        }, 
        {
            "@id": "https://manifests.teklia.com/HIMANIS/FR5291/words_annotations/http_gallica.bnf.fr_iiif_ark:_12148_btv1b9059263p_f256_full_full_0_native.jpg.json/97/line", 
            "@type": "oa:Annotation", 
            "motivation": "oa:painting", 
            "on": "http://gallica.bnf.fr/iiif/ark:/12148/btv1b9059263p/canvas/f256#xywh=626,2884,315,133", 
            "resource": {
                "@type": "cnt:ContentAsText", 
                "chars": "PON", 
                "format": "text/plain"
            }
        }, 
        {
            "@id": "https://manifests.teklia.com/HIMANIS/FR5291/words_annotations/http_gallica.bnf.fr_iiif_ark:_12148_btv1b9059263p_f256_full_full_0_native.jpg.json/98/line", 
            "@type": "oa:Annotation", 
            "motivation": "oa:painting", 
            "on": "http://gallica.bnf.fr/iiif/ark:/12148/btv1b9059263p/canvas/f256#xywh=1908,912,68,134", 
            "resource": {
                "@type": "cnt:ContentAsText", 
                "chars": "UN", 
                "format": "text/plain"
            }
        }, 
        {
            "@id": "https://manifests.teklia.com/HIMANIS/FR5291/words_annotations/http_gallica.bnf.fr_iiif_ark:_12148_btv1b9059263p_f256_full_full_0_native.jpg.json/99/line", 
            "@type": "oa:Annotation", 
            "motivation": "oa:painting", 
            "on": "http://gallica.bnf.fr/iiif/ark:/12148/btv1b9059263p/canvas/f256#xywh=2421,59,244,139", 
            "resource": {
                "@type": "cnt:ContentAsText", 
                "chars": "IN", 
                "format": "text/plain"
            }
        }, 
        {
            "@id": "https://manifests.teklia.com/HIMANIS/FR5291/words_annotations/http_gallica.bnf.fr_iiif_ark:_12148_btv1b9059263p_f256_full_full_0_native.jpg.json/100/line", 
            "@type": "oa:Annotation", 
            "motivation": "oa:painting", 
            "on": "http://gallica.bnf.fr/iiif/ark:/12148/btv1b9059263p/canvas/f256#xywh=1879,512,321,256", 
            "resource": {
                "@type": "cnt:ContentAsText", 
                "chars": "ET", 
                "format": "text/plain"
            }
        }, 
        {
            "@id": "https://manifests.teklia.com/HIMANIS/FR5291/words_annotations/http_gallica.bnf.fr_iiif_ark:_12148_btv1b9059263p_f256_full_full_0_native.jpg.json/101/line", 
            "@type": "oa:Annotation", 
            "motivation": "oa:painting", 
            "on": "http://gallica.bnf.fr/iiif/ark:/12148/btv1b9059263p/canvas/f256#xywh=251,3589,744,119", 
            "resource": {
                "@type": "cnt:ContentAsText", 
                "chars": "PHILIP", 
                "format": "text/plain"
            }
        }, 
        {
            "@id": "https://manifests.teklia.com/HIMANIS/FR5291/words_annotations/http_gallica.bnf.fr_iiif_ark:_12148_btv1b9059263p_f256_full_full_0_native.jpg.json/102/line", 
            "@type": "oa:Annotation", 
            "motivation": "oa:painting", 
            "on": "http://gallica.bnf.fr/iiif/ark:/12148/btv1b9059263p/canvas/f256#xywh=251,3589,744,119", 
            "resource": {
                "@type": "cnt:ContentAsText", 
                "chars": "PHELIP", 
                "format": "text/plain"
            }
        }, 
        {
            "@id": "https://manifests.teklia.com/HIMANIS/FR5291/words_annotations/http_gallica.bnf.fr_iiif_ark:_12148_btv1b9059263p_f256_full_full_0_native.jpg.json/103/line", 
            "@type": "oa:Annotation", 
            "motivation": "oa:painting", 
            "on": "http://gallica.bnf.fr/iiif/ark:/12148/btv1b9059263p/canvas/f256#xywh=1986,1228,242,65", 
            "resource": {
                "@type": "cnt:ContentAsText", 
                "chars": "BARRITON", 
                "format": "text/plain"
            }
        }, 
        {
            "@id": "https://manifests.teklia.com/HIMANIS/FR5291/words_annotations/http_gallica.bnf.fr_iiif_ark:_12148_btv1b9059263p_f256_full_full_0_native.jpg.json/104/line", 
            "@type": "oa:Annotation", 
            "motivation": "oa:painting", 
            "on": "http://gallica.bnf.fr/iiif/ark:/12148/btv1b9059263p/canvas/f256#xywh=2249,2031,120,127", 
            "resource": {
                "@type": "cnt:ContentAsText", 
                "chars": "VOIT", 
                "format": "text/plain"
            }
        }, 
        {
            "@id": "https://manifests.teklia.com/HIMANIS/FR5291/words_annotations/http_gallica.bnf.fr_iiif_ark:_12148_btv1b9059263p_f256_full_full_0_native.jpg.json/105/line", 
            "@type": "oa:Annotation", 
            "motivation": "oa:painting", 
            "on": "http://gallica.bnf.fr/iiif/ark:/12148/btv1b9059263p/canvas/f256#xywh=958,2884,199,133", 
            "resource": {
                "@type": "cnt:ContentAsText", 
                "chars": "SEIGNEUR", 
                "format": "text/plain"
            }
        }, 
        {
            "@id": "https://manifests.teklia.com/HIMANIS/FR5291/words_annotations/http_gallica.bnf.fr_iiif_ark:_12148_btv1b9059263p_f256_full_full_0_native.jpg.json/106/line", 
            "@type": "oa:Annotation", 
            "motivation": "oa:painting", 
            "on": "http://gallica.bnf.fr/iiif/ark:/12148/btv1b9059263p/canvas/f256#xywh=1195,912,176,134", 
            "resource": {
                "@type": "cnt:ContentAsText", 
                "chars": "RAOUL", 
                "format": "text/plain"
            }
        }, 
        {
            "@id": "https://manifests.teklia.com/HIMANIS/FR5291/words_annotations/http_gallica.bnf.fr_iiif_ark:_12148_btv1b9059263p_f256_full_full_0_native.jpg.json/107/line", 
            "@type": "oa:Annotation", 
            "motivation": "oa:painting", 
            "on": "http://gallica.bnf.fr/iiif/ark:/12148/btv1b9059263p/canvas/f256#xywh=135,1471,1010,137", 
            "resource": {
                "@type": "cnt:ContentAsText", 
                "chars": "PONSEIGNEUR", 
                "format": "text/plain"
            }
        }, 
        {
            "@id": "https://manifests.teklia.com/HIMANIS/FR5291/words_annotations/http_gallica.bnf.fr_iiif_ark:_12148_btv1b9059263p_f256_full_full_0_native.jpg.json/108/line", 
            "@type": "oa:Annotation", 
            "motivation": "oa:painting", 
            "on": "http://gallica.bnf.fr/iiif/ark:/12148/btv1b9059263p/canvas/f256#xywh=1879,512,450,256", 
            "resource": {
                "@type": "cnt:ContentAsText", 
                "chars": "LUI", 
                "format": "text/plain"
            }
        }, 
        {
            "@id": "https://manifests.teklia.com/HIMANIS/FR5291/words_annotations/http_gallica.bnf.fr_iiif_ark:_12148_btv1b9059263p_f256_full_full_0_native.jpg.json/109/line", 
            "@type": "oa:Annotation", 
            "motivation": "oa:painting", 
            "on": "http://gallica.bnf.fr/iiif/ark:/12148/btv1b9059263p/canvas/f256#xywh=1879,512,321,256", 
            "resource": {
                "@type": "cnt:ContentAsText", 
                "chars": "LES", 
                "format": "text/plain"
            }
        }, 
        {
            "@id": "https://manifests.teklia.com/HIMANIS/FR5291/words_annotations/http_gallica.bnf.fr_iiif_ark:_12148_btv1b9059263p_f256_full_full_0_native.jpg.json/110/line", 
            "@type": "oa:Annotation", 
            "motivation": "oa:painting", 
            "on": "http://gallica.bnf.fr/iiif/ark:/12148/btv1b9059263p/canvas/f256#xywh=171,3853,665,107", 
            "resource": {
                "@type": "cnt:ContentAsText", 
                "chars": "PRES", 
                "format": "text/plain"
            }
        }, 
        {
            "@id": "https://manifests.teklia.com/HIMANIS/FR5291/words_annotations/http_gallica.bnf.fr_iiif_ark:_12148_btv1b9059263p_f256_full_full_0_native.jpg.json/111/line", 
            "@type": "oa:Annotation", 
            "motivation": "oa:painting", 
            "on": "http://gallica.bnf.fr/iiif/ark:/12148/btv1b9059263p/canvas/f256#xywh=311,2795,472,48", 
            "resource": {
                "@type": "cnt:ContentAsText", 
                "chars": "LETTRE", 
                "format": "text/plain"
            }
        }, 
        {
            "@id": "https://manifests.teklia.com/HIMANIS/FR5291/words_annotations/http_gallica.bnf.fr_iiif_ark:_12148_btv1b9059263p_f256_full_full_0_native.jpg.json/112/line", 
            "@type": "oa:Annotation", 
            "motivation": "oa:painting", 
            "on": "http://gallica.bnf.fr/iiif/ark:/12148/btv1b9059263p/canvas/f256#xywh=1250,3047,224,62", 
            "resource": {
                "@type": "cnt:ContentAsText", 
                "chars": "HONERA", 
                "format": "text/plain"
            }
        }, 
        {
            "@id": "https://manifests.teklia.com/HIMANIS/FR5291/words_annotations/http_gallica.bnf.fr_iiif_ark:_12148_btv1b9059263p_f256_full_full_0_native.jpg.json/113/line", 
            "@type": "oa:Annotation", 
            "motivation": "oa:painting", 
            "on": "http://gallica.bnf.fr/iiif/ark:/12148/btv1b9059263p/canvas/f256#xywh=978,3177,148,87", 
            "resource": {
                "@type": "cnt:ContentAsText", 
                "chars": "FAUT", 
                "format": "text/plain"
            }
        }, 
        {
            "@id": "https://manifests.teklia.com/HIMANIS/FR5291/words_annotations/http_gallica.bnf.fr_iiif_ark:_12148_btv1b9059263p_f256_full_full_0_native.jpg.json/114/line", 
            "@type": "oa:Annotation", 
            "motivation": "oa:painting", 
            "on": "http://gallica.bnf.fr/iiif/ark:/12148/btv1b9059263p/canvas/f256#xywh=1250,3047,224,62", 
            "resource": {
                "@type": "cnt:ContentAsText", 
                "chars": "HONERE", 
                "format": "text/plain"
            }
        }, 
        {
            "@id": "https://manifests.teklia.com/HIMANIS/FR5291/words_annotations/http_gallica.bnf.fr_iiif_ark:_12148_btv1b9059263p_f256_full_full_0_native.jpg.json/115/line", 
            "@type": "oa:Annotation", 
            "motivation": "oa:painting", 
            "on": "http://gallica.bnf.fr/iiif/ark:/12148/btv1b9059263p/canvas/f256#xywh=175,1593,714,59", 
            "resource": {
                "@type": "cnt:ContentAsText", 
                "chars": "PHILIPPONI", 
                "format": "text/plain"
            }
        }, 
        {
            "@id": "https://manifests.teklia.com/HIMANIS/FR5291/words_annotations/http_gallica.bnf.fr_iiif_ark:_12148_btv1b9059263p_f256_full_full_0_native.jpg.json/116/line", 
            "@type": "oa:Annotation", 
            "motivation": "oa:painting", 
            "on": "http://gallica.bnf.fr/iiif/ark:/12148/btv1b9059263p/canvas/f256#xywh=1430,512,482,256", 
            "resource": {
                "@type": "cnt:ContentAsText", 
                "chars": "BAILLIS", 
                "format": "text/plain"
            }
        }, 
        {
            "@id": "https://manifests.teklia.com/HIMANIS/FR5291/words_annotations/http_gallica.bnf.fr_iiif_ark:_12148_btv1b9059263p_f256_full_full_0_native.jpg.json/117/line", 
            "@type": "oa:Annotation", 
            "motivation": "oa:painting", 
            "on": "http://gallica.bnf.fr/iiif/ark:/12148/btv1b9059263p/canvas/f256#xywh=3092,2312,424,158", 
            "resource": {
                "@type": "cnt:ContentAsText", 
                "chars": "PHIL", 
                "format": "text/plain"
            }
        }, 
        {
            "@id": "https://manifests.teklia.com/HIMANIS/FR5291/words_annotations/http_gallica.bnf.fr_iiif_ark:_12148_btv1b9059263p_f256_full_full_0_native.jpg.json/118/line", 
            "@type": "oa:Annotation", 
            "motivation": "oa:painting", 
            "on": "http://gallica.bnf.fr/iiif/ark:/12148/btv1b9059263p/canvas/f256#xywh=3092,2312,424,158", 
            "resource": {
                "@type": "cnt:ContentAsText", 
                "chars": "PHEL", 
                "format": "text/plain"
            }
        }, 
        {
            "@id": "https://manifests.teklia.com/HIMANIS/FR5291/words_annotations/http_gallica.bnf.fr_iiif_ark:_12148_btv1b9059263p_f256_full_full_0_native.jpg.json/119/line", 
            "@type": "oa:Annotation", 
            "motivation": "oa:painting", 
            "on": "http://gallica.bnf.fr/iiif/ark:/12148/btv1b9059263p/canvas/f256#xywh=1879,512,450,256", 
            "resource": {
                "@type": "cnt:ContentAsText", 
                "chars": "ALII", 
                "format": "text/plain"
            }
        }, 
        {
            "@id": "https://manifests.teklia.com/HIMANIS/FR5291/words_annotations/http_gallica.bnf.fr_iiif_ark:_12148_btv1b9059263p_f256_full_full_0_native.jpg.json/120/line", 
            "@type": "oa:Annotation", 
            "motivation": "oa:painting", 
            "on": "http://gallica.bnf.fr/iiif/ark:/12148/btv1b9059263p/canvas/f256#xywh=3259,2768,0,51", 
            "resource": {
                "@type": "cnt:ContentAsText", 
                "chars": "J", 
                "format": "text/plain"
            }
        }, 
        {
            "@id": "https://manifests.teklia.com/HIMANIS/FR5291/words_annotations/http_gallica.bnf.fr_iiif_ark:_12148_btv1b9059263p_f256_full_full_0_native.jpg.json/121/line", 
            "@type": "oa:Annotation", 
            "motivation": "oa:painting", 
            "on": "http://gallica.bnf.fr/iiif/ark:/12148/btv1b9059263p/canvas/f256#xywh=2848,2031,120,127", 
            "resource": {
                "@type": "cnt:ContentAsText", 
                "chars": "AU", 
                "format": "text/plain"
            }
        }, 
        {
            "@id": "https://manifests.teklia.com/HIMANIS/FR5291/words_annotations/http_gallica.bnf.fr_iiif_ark:_12148_btv1b9059263p_f256_full_full_0_native.jpg.json/122/line", 
            "@type": "oa:Annotation", 
            "motivation": "oa:painting", 
            "on": "http://gallica.bnf.fr/iiif/ark:/12148/btv1b9059263p/canvas/f256#xywh=3259,2768,0,51", 
            "resource": {
                "@type": "cnt:ContentAsText", 
                "chars": "P", 
                "format": "text/plain"
            }
        }, 
        {
            "@id": "https://manifests.teklia.com/HIMANIS/FR5291/words_annotations/http_gallica.bnf.fr_iiif_ark:_12148_btv1b9059263p_f256_full_full_0_native.jpg.json/123/line", 
            "@type": "oa:Annotation", 
            "motivation": "oa:painting", 
            "on": "http://gallica.bnf.fr/iiif/ark:/12148/btv1b9059263p/canvas/f256#xywh=2713,2031,135,127", 
            "resource": {
                "@type": "cnt:ContentAsText", 
                "chars": "D'EST", 
                "format": "text/plain"
            }
        }, 
        {
            "@id": "https://manifests.teklia.com/HIMANIS/FR5291/words_annotations/http_gallica.bnf.fr_iiif_ark:_12148_btv1b9059263p_f256_full_full_0_native.jpg.json/124/line", 
            "@type": "oa:Annotation", 
            "motivation": "oa:painting", 
            "on": "http://gallica.bnf.fr/iiif/ark:/12148/btv1b9059263p/canvas/f256#xywh=251,3589,744,119", 
            "resource": {
                "@type": "cnt:ContentAsText", 
                "chars": "PHILE", 
                "format": "text/plain"
            }
        }, 
        {
            "@id": "https://manifests.teklia.com/HIMANIS/FR5291/words_annotations/http_gallica.bnf.fr_iiif_ark:_12148_btv1b9059263p_f256_full_full_0_native.jpg.json/125/line", 
            "@type": "oa:Annotation", 
            "motivation": "oa:painting", 
            "on": "http://gallica.bnf.fr/iiif/ark:/12148/btv1b9059263p/canvas/f256#xywh=2723,3559,79,71", 
            "resource": {
                "@type": "cnt:ContentAsText", 
                "chars": "DE", 
                "format": "text/plain"
            }
        }, 
        {
            "@id": "https://manifests.teklia.com/HIMANIS/FR5291/words_annotations/http_gallica.bnf.fr_iiif_ark:_12148_btv1b9059263p_f256_full_full_0_native.jpg.json/126/line", 
            "@type": "oa:Annotation", 
            "motivation": "oa:painting", 
            "on": "http://gallica.bnf.fr/iiif/ark:/12148/btv1b9059263p/canvas/f256#xywh=1430,512,482,256", 
            "resource": {
                "@type": "cnt:ContentAsText", 
                "chars": "CHARLES", 
                "format": "text/plain"
            }
        }, 
        {
            "@id": "https://manifests.teklia.com/HIMANIS/FR5291/words_annotations/http_gallica.bnf.fr_iiif_ark:_12148_btv1b9059263p_f256_full_full_0_native.jpg.json/127/line", 
            "@type": "oa:Annotation", 
            "motivation": "oa:painting", 
            "on": "http://gallica.bnf.fr/iiif/ark:/12148/btv1b9059263p/canvas/f256#xywh=2581,1084,196,104", 
            "resource": {
                "@type": "cnt:ContentAsText", 
                "chars": "CHAUT", 
                "format": "text/plain"
            }
        }, 
        {
            "@id": "https://manifests.teklia.com/HIMANIS/FR5291/words_annotations/http_gallica.bnf.fr_iiif_ark:_12148_btv1b9059263p_f256_full_full_0_native.jpg.json/128/line", 
            "@type": "oa:Annotation", 
            "motivation": "oa:painting", 
            "on": "http://gallica.bnf.fr/iiif/ark:/12148/btv1b9059263p/canvas/f256#xywh=861,3589,134,119", 
            "resource": {
                "@type": "cnt:ContentAsText", 
                "chars": "LE", 
                "format": "text/plain"
            }
        }, 
        {
            "@id": "https://manifests.teklia.com/HIMANIS/FR5291/words_annotations/http_gallica.bnf.fr_iiif_ark:_12148_btv1b9059263p_f256_full_full_0_native.jpg.json/129/line", 
            "@type": "oa:Annotation", 
            "motivation": "oa:painting", 
            "on": "http://gallica.bnf.fr/iiif/ark:/12148/btv1b9059263p/canvas/f256#xywh=2524,1228,156,65", 
            "resource": {
                "@type": "cnt:ContentAsText", 
                "chars": "QUI", 
                "format": "text/plain"
            }
        }, 
        {
            "@id": "https://manifests.teklia.com/HIMANIS/FR5291/words_annotations/http_gallica.bnf.fr_iiif_ark:_12148_btv1b9059263p_f256_full_full_0_native.jpg.json/130/line", 
            "@type": "oa:Annotation", 
            "motivation": "oa:painting", 
            "on": "http://gallica.bnf.fr/iiif/ark:/12148/btv1b9059263p/canvas/f256#xywh=196,3263,804,157", 
            "resource": {
                "@type": "cnt:ContentAsText", 
                "chars": "JEHAN", 
                "format": "text/plain"
            }
        }, 
        {
            "@id": "https://manifests.teklia.com/HIMANIS/FR5291/words_annotations/http_gallica.bnf.fr_iiif_ark:_12148_btv1b9059263p_f256_full_full_0_native.jpg.json/131/line", 
            "@type": "oa:Annotation", 
            "motivation": "oa:painting", 
            "on": "http://gallica.bnf.fr/iiif/ark:/12148/btv1b9059263p/canvas/f256#xywh=626,2884,307,133", 
            "resource": {
                "@type": "cnt:ContentAsText", 
                "chars": "MON", 
                "format": "text/plain"
            }
        }, 
        {
            "@id": "https://manifests.teklia.com/HIMANIS/FR5291/words_annotations/http_gallica.bnf.fr_iiif_ark:_12148_btv1b9059263p_f256_full_full_0_native.jpg.json/132/line", 
            "@type": "oa:Annotation", 
            "motivation": "oa:painting", 
            "on": "http://gallica.bnf.fr/iiif/ark:/12148/btv1b9059263p/canvas/f256#xywh=1150,1223,285,62", 
            "resource": {
                "@type": "cnt:ContentAsText", 
                "chars": "SON", 
                "format": "text/plain"
            }
        }, 
        {
            "@id": "https://manifests.teklia.com/HIMANIS/FR5291/words_annotations/http_gallica.bnf.fr_iiif_ark:_12148_btv1b9059263p_f256_full_full_0_native.jpg.json/133/line", 
            "@type": "oa:Annotation", 
            "motivation": "oa:painting", 
            "on": "http://gallica.bnf.fr/iiif/ark:/12148/btv1b9059263p/canvas/f256#xywh=3235,3722,188,76", 
            "resource": {
                "@type": "cnt:ContentAsText", 
                "chars": "VE", 
                "format": "text/plain"
            }
        }, 
        {
            "@id": "https://manifests.teklia.com/HIMANIS/FR5291/words_annotations/http_gallica.bnf.fr_iiif_ark:_12148_btv1b9059263p_f256_full_full_0_native.jpg.json/134/line", 
            "@type": "oa:Annotation", 
            "motivation": "oa:painting", 
            "on": "http://gallica.bnf.fr/iiif/ark:/12148/btv1b9059263p/canvas/f256#xywh=974,2234,0,45", 
            "resource": {
                "@type": "cnt:ContentAsText", 
                "chars": "A", 
                "format": "text/plain"
            }
        }, 
        {
            "@id": "https://manifests.teklia.com/HIMANIS/FR5291/words_annotations/http_gallica.bnf.fr_iiif_ark:_12148_btv1b9059263p_f256_full_full_0_native.jpg.json/135/line", 
            "@type": "oa:Annotation", 
            "motivation": "oa:painting", 
            "on": "http://gallica.bnf.fr/iiif/ark:/12148/btv1b9059263p/canvas/f256#xywh=3235,3722,56,76", 
            "resource": {
                "@type": "cnt:ContentAsText", 
                "chars": "VI", 
                "format": "text/plain"
            }
        }, 
        {
            "@id": "https://manifests.teklia.com/HIMANIS/FR5291/words_annotations/http_gallica.bnf.fr_iiif_ark:_12148_btv1b9059263p_f256_full_full_0_native.jpg.json/136/line", 
            "@type": "oa:Annotation", 
            "motivation": "oa:painting", 
            "on": "http://gallica.bnf.fr/iiif/ark:/12148/btv1b9059263p/canvas/f256#xywh=976,912,177,134", 
            "resource": {
                "@type": "cnt:ContentAsText", 
                "chars": "SEIGNEUR", 
                "format": "text/plain"
            }
        }
    ]
}