{
    "@context": "http://iiif.io/api/presentation/2/context.json", 
    "@id": "https://manifests.teklia.com/HIMANIS/FR5291/words_annotations/http_gallica.bnf.fr_iiif_ark:_12148_btv1b9059263p_f17_full_full_0_native.jpg.json", 
    "@type": "sc:AnnotationList", 
    "resources": [
        {
            "@id": "https://manifests.teklia.com/HIMANIS/FR5291/words_annotations/http_gallica.bnf.fr_iiif_ark:_12148_btv1b9059263p_f17_full_full_0_native.jpg.json/0/line", 
            "@type": "oa:Annotation", 
            "motivation": "oa:painting", 
            "on": "http://gallica.bnf.fr/iiif/ark:/12148/btv1b9059263p/canvas/f17#xywh=2340,855,137,274", 
            "resource": {
                "@type": "cnt:ContentAsText", 
                "chars": "TERRE", 
                "format": "text/plain"
            }
        }, 
        {
            "@id": "https://manifests.teklia.com/HIMANIS/FR5291/words_annotations/http_gallica.bnf.fr_iiif_ark:_12148_btv1b9059263p_f17_full_full_0_native.jpg.json/1/line", 
            "@type": "oa:Annotation", 
            "motivation": "oa:painting", 
            "on": "http://gallica.bnf.fr/iiif/ark:/12148/btv1b9059263p/canvas/f17#xywh=2730,2503,39,211", 
            "resource": {
                "@type": "cnt:ContentAsText", 
                "chars": "LA", 
                "format": "text/plain"
            }
        }, 
        {
            "@id": "https://manifests.teklia.com/HIMANIS/FR5291/words_annotations/http_gallica.bnf.fr_iiif_ark:_12148_btv1b9059263p_f17_full_full_0_native.jpg.json/2/line", 
            "@type": "oa:Annotation", 
            "motivation": "oa:painting", 
            "on": "http://gallica.bnf.fr/iiif/ark:/12148/btv1b9059263p/canvas/f17#xywh=2531,2503,53,211", 
            "resource": {
                "@type": "cnt:ContentAsText", 
                "chars": "LE", 
                "format": "text/plain"
            }
        }, 
        {
            "@id": "https://manifests.teklia.com/HIMANIS/FR5291/words_annotations/http_gallica.bnf.fr_iiif_ark:_12148_btv1b9059263p_f17_full_full_0_native.jpg.json/3/line", 
            "@type": "oa:Annotation", 
            "motivation": "oa:painting", 
            "on": "http://gallica.bnf.fr/iiif/ark:/12148/btv1b9059263p/canvas/f17#xywh=1869,2503,40,211", 
            "resource": {
                "@type": "cnt:ContentAsText", 
                "chars": "DE", 
                "format": "text/plain"
            }
        }, 
        {
            "@id": "https://manifests.teklia.com/HIMANIS/FR5291/words_annotations/http_gallica.bnf.fr_iiif_ark:_12148_btv1b9059263p_f17_full_full_0_native.jpg.json/4/line", 
            "@type": "oa:Annotation", 
            "motivation": "oa:painting", 
            "on": "http://gallica.bnf.fr/iiif/ark:/12148/btv1b9059263p/canvas/f17#xywh=319,855,873,274", 
            "resource": {
                "@type": "cnt:ContentAsText", 
                "chars": "NOUL", 
                "format": "text/plain"
            }
        }, 
        {
            "@id": "https://manifests.teklia.com/HIMANIS/FR5291/words_annotations/http_gallica.bnf.fr_iiif_ark:_12148_btv1b9059263p_f17_full_full_0_native.jpg.json/5/line", 
            "@type": "oa:Annotation", 
            "motivation": "oa:painting", 
            "on": "http://gallica.bnf.fr/iiif/ark:/12148/btv1b9059263p/canvas/f17#xywh=957,1978,281,166", 
            "resource": {
                "@type": "cnt:ContentAsText", 
                "chars": "VALLES", 
                "format": "text/plain"
            }
        }, 
        {
            "@id": "https://manifests.teklia.com/HIMANIS/FR5291/words_annotations/http_gallica.bnf.fr_iiif_ark:_12148_btv1b9059263p_f17_full_full_0_native.jpg.json/6/line", 
            "@type": "oa:Annotation", 
            "motivation": "oa:painting", 
            "on": "http://gallica.bnf.fr/iiif/ark:/12148/btv1b9059263p/canvas/f17#xywh=2305,855,35,274", 
            "resource": {
                "@type": "cnt:ContentAsText", 
                "chars": "SA", 
                "format": "text/plain"
            }
        }, 
        {
            "@id": "https://manifests.teklia.com/HIMANIS/FR5291/words_annotations/http_gallica.bnf.fr_iiif_ark:_12148_btv1b9059263p_f17_full_full_0_native.jpg.json/7/line", 
            "@type": "oa:Annotation", 
            "motivation": "oa:painting", 
            "on": "http://gallica.bnf.fr/iiif/ark:/12148/btv1b9059263p/canvas/f17#xywh=2905,855,188,274", 
            "resource": {
                "@type": "cnt:ContentAsText", 
                "chars": "CUISSEL", 
                "format": "text/plain"
            }
        }, 
        {
            "@id": "https://manifests.teklia.com/HIMANIS/FR5291/words_annotations/http_gallica.bnf.fr_iiif_ark:_12148_btv1b9059263p_f17_full_full_0_native.jpg.json/8/line", 
            "@type": "oa:Annotation", 
            "motivation": "oa:painting", 
            "on": "http://gallica.bnf.fr/iiif/ark:/12148/btv1b9059263p/canvas/f17#xywh=1603,3585,147,195", 
            "resource": {
                "@type": "cnt:ContentAsText", 
                "chars": "TIENT", 
                "format": "text/plain"
            }
        }, 
        {
            "@id": "https://manifests.teklia.com/HIMANIS/FR5291/words_annotations/http_gallica.bnf.fr_iiif_ark:_12148_btv1b9059263p_f17_full_full_0_native.jpg.json/9/line", 
            "@type": "oa:Annotation", 
            "motivation": "oa:painting", 
            "on": "http://gallica.bnf.fr/iiif/ark:/12148/btv1b9059263p/canvas/f17#xywh=2068,2503,79,211", 
            "resource": {
                "@type": "cnt:ContentAsText", 
                "chars": "DU", 
                "format": "text/plain"
            }
        }, 
        {
            "@id": "https://manifests.teklia.com/HIMANIS/FR5291/words_annotations/http_gallica.bnf.fr_iiif_ark:_12148_btv1b9059263p_f17_full_full_0_native.jpg.json/10/line", 
            "@type": "oa:Annotation", 
            "motivation": "oa:painting", 
            "on": "http://gallica.bnf.fr/iiif/ark:/12148/btv1b9059263p/canvas/f17#xywh=319,855,873,274", 
            "resource": {
                "@type": "cnt:ContentAsText", 
                "chars": "NOUS", 
                "format": "text/plain"
            }
        }, 
        {
            "@id": "https://manifests.teklia.com/HIMANIS/FR5291/words_annotations/http_gallica.bnf.fr_iiif_ark:_12148_btv1b9059263p_f17_full_full_0_native.jpg.json/11/line", 
            "@type": "oa:Annotation", 
            "motivation": "oa:painting", 
            "on": "http://gallica.bnf.fr/iiif/ark:/12148/btv1b9059263p/canvas/f17#xywh=2293,1414,98,223", 
            "resource": {
                "@type": "cnt:ContentAsText", 
                "chars": "ROY", 
                "format": "text/plain"
            }
        }, 
        {
            "@id": "https://manifests.teklia.com/HIMANIS/FR5291/words_annotations/http_gallica.bnf.fr_iiif_ark:_12148_btv1b9059263p_f17_full_full_0_native.jpg.json/12/line", 
            "@type": "oa:Annotation", 
            "motivation": "oa:painting", 
            "on": "http://gallica.bnf.fr/iiif/ark:/12148/btv1b9059263p/canvas/f17#xywh=1228,2700,33,89", 
            "resource": {
                "@type": "cnt:ContentAsText", 
                "chars": "PER", 
                "format": "text/plain"
            }
        }, 
        {
            "@id": "https://manifests.teklia.com/HIMANIS/FR5291/words_annotations/http_gallica.bnf.fr_iiif_ark:_12148_btv1b9059263p_f17_full_full_0_native.jpg.json/13/line", 
            "@type": "oa:Annotation", 
            "motivation": "oa:painting", 
            "on": "http://gallica.bnf.fr/iiif/ark:/12148/btv1b9059263p/canvas/f17#xywh=1772,3286,143,208", 
            "resource": {
                "@type": "cnt:ContentAsText", 
                "chars": "DEUN", 
                "format": "text/plain"
            }
        }, 
        {
            "@id": "https://manifests.teklia.com/HIMANIS/FR5291/words_annotations/http_gallica.bnf.fr_iiif_ark:_12148_btv1b9059263p_f17_full_full_0_native.jpg.json/14/line", 
            "@type": "oa:Annotation", 
            "motivation": "oa:painting", 
            "on": "http://gallica.bnf.fr/iiif/ark:/12148/btv1b9059263p/canvas/f17#xywh=2352,607,208,175", 
            "resource": {
                "@type": "cnt:ContentAsText", 
                "chars": "CHEVAUS", 
                "format": "text/plain"
            }
        }, 
        {
            "@id": "https://manifests.teklia.com/HIMANIS/FR5291/words_annotations/http_gallica.bnf.fr_iiif_ark:_12148_btv1b9059263p_f17_full_full_0_native.jpg.json/15/line", 
            "@type": "oa:Annotation", 
            "motivation": "oa:painting", 
            "on": "http://gallica.bnf.fr/iiif/ark:/12148/btv1b9059263p/canvas/f17#xywh=890,2503,317,211", 
            "resource": {
                "@type": "cnt:ContentAsText", 
                "chars": "GUILLAUME", 
                "format": "text/plain"
            }
        }, 
        {
            "@id": "https://manifests.teklia.com/HIMANIS/FR5291/words_annotations/http_gallica.bnf.fr_iiif_ark:_12148_btv1b9059263p_f17_full_full_0_native.jpg.json/16/line", 
            "@type": "oa:Annotation", 
            "motivation": "oa:painting", 
            "on": "http://gallica.bnf.fr/iiif/ark:/12148/btv1b9059263p/canvas/f17#xywh=1009,3896,70,187", 
            "resource": {
                "@type": "cnt:ContentAsText", 
                "chars": "FIE", 
                "format": "text/plain"
            }
        }, 
        {
            "@id": "https://manifests.teklia.com/HIMANIS/FR5291/words_annotations/http_gallica.bnf.fr_iiif_ark:_12148_btv1b9059263p_f17_full_full_0_native.jpg.json/17/line", 
            "@type": "oa:Annotation", 
            "motivation": "oa:painting", 
            "on": "http://gallica.bnf.fr/iiif/ark:/12148/btv1b9059263p/canvas/f17#xywh=910,1695,263,190", 
            "resource": {
                "@type": "cnt:ContentAsText", 
                "chars": "GIRART", 
                "format": "text/plain"
            }
        }, 
        {
            "@id": "https://manifests.teklia.com/HIMANIS/FR5291/words_annotations/http_gallica.bnf.fr_iiif_ark:_12148_btv1b9059263p_f17_full_full_0_native.jpg.json/18/line", 
            "@type": "oa:Annotation", 
            "motivation": "oa:painting", 
            "on": "http://gallica.bnf.fr/iiif/ark:/12148/btv1b9059263p/canvas/f17#xywh=1697,1695,48,190", 
            "resource": {
                "@type": "cnt:ContentAsText", 
                "chars": "SA", 
                "format": "text/plain"
            }
        }, 
        {
            "@id": "https://manifests.teklia.com/HIMANIS/FR5291/words_annotations/http_gallica.bnf.fr_iiif_ark:_12148_btv1b9059263p_f17_full_full_0_native.jpg.json/19/line", 
            "@type": "oa:Annotation", 
            "motivation": "oa:painting", 
            "on": "http://gallica.bnf.fr/iiif/ark:/12148/btv1b9059263p/canvas/f17#xywh=2135,3286,143,208", 
            "resource": {
                "@type": "cnt:ContentAsText", 
                "chars": "CHEVALIE", 
                "format": "text/plain"
            }
        }, 
        {
            "@id": "https://manifests.teklia.com/HIMANIS/FR5291/words_annotations/http_gallica.bnf.fr_iiif_ark:_12148_btv1b9059263p_f17_full_full_0_native.jpg.json/20/line", 
            "@type": "oa:Annotation", 
            "motivation": "oa:painting", 
            "on": "http://gallica.bnf.fr/iiif/ark:/12148/btv1b9059263p/canvas/f17#xywh=1312,855,240,274", 
            "resource": {
                "@type": "cnt:ContentAsText", 
                "chars": "POITIER", 
                "format": "text/plain"
            }
        }, 
        {
            "@id": "https://manifests.teklia.com/HIMANIS/FR5291/words_annotations/http_gallica.bnf.fr_iiif_ark:_12148_btv1b9059263p_f17_full_full_0_native.jpg.json/21/line", 
            "@type": "oa:Annotation", 
            "motivation": "oa:painting", 
            "on": "http://gallica.bnf.fr/iiif/ark:/12148/btv1b9059263p/canvas/f17#xywh=890,3286,311,208", 
            "resource": {
                "@type": "cnt:ContentAsText", 
                "chars": "GUILLAUME", 
                "format": "text/plain"
            }
        }, 
        {
            "@id": "https://manifests.teklia.com/HIMANIS/FR5291/words_annotations/http_gallica.bnf.fr_iiif_ark:_12148_btv1b9059263p_f17_full_full_0_native.jpg.json/22/line", 
            "@type": "oa:Annotation", 
            "motivation": "oa:painting", 
            "on": "http://gallica.bnf.fr/iiif/ark:/12148/btv1b9059263p/canvas/f17#xywh=2703,1158,218,205", 
            "resource": {
                "@type": "cnt:ContentAsText", 
                "chars": "REVERE", 
                "format": "text/plain"
            }
        }, 
        {
            "@id": "https://manifests.teklia.com/HIMANIS/FR5291/words_annotations/http_gallica.bnf.fr_iiif_ark:_12148_btv1b9059263p_f17_full_full_0_native.jpg.json/23/line", 
            "@type": "oa:Annotation", 
            "motivation": "oa:painting", 
            "on": "http://gallica.bnf.fr/iiif/ark:/12148/btv1b9059263p/canvas/f17#xywh=1766,1158,64,205", 
            "resource": {
                "@type": "cnt:ContentAsText", 
                "chars": "SA", 
                "format": "text/plain"
            }
        }, 
        {
            "@id": "https://manifests.teklia.com/HIMANIS/FR5291/words_annotations/http_gallica.bnf.fr_iiif_ark:_12148_btv1b9059263p_f17_full_full_0_native.jpg.json/24/line", 
            "@type": "oa:Annotation", 
            "motivation": "oa:painting", 
            "on": "http://gallica.bnf.fr/iiif/ark:/12148/btv1b9059263p/canvas/f17#xywh=921,2700,83,89", 
            "resource": {
                "@type": "cnt:ContentAsText", 
                "chars": "JA", 
                "format": "text/plain"
            }
        }, 
        {
            "@id": "https://manifests.teklia.com/HIMANIS/FR5291/words_annotations/http_gallica.bnf.fr_iiif_ark:_12148_btv1b9059263p_f17_full_full_0_native.jpg.json/25/line", 
            "@type": "oa:Annotation", 
            "motivation": "oa:painting", 
            "on": "http://gallica.bnf.fr/iiif/ark:/12148/btv1b9059263p/canvas/f17#xywh=1363,1978,313,166", 
            "resource": {
                "@type": "cnt:ContentAsText", 
                "chars": "MONTEIGNI", 
                "format": "text/plain"
            }
        }, 
        {
            "@id": "https://manifests.teklia.com/HIMANIS/FR5291/words_annotations/http_gallica.bnf.fr_iiif_ark:_12148_btv1b9059263p_f17_full_full_0_native.jpg.json/26/line", 
            "@type": "oa:Annotation", 
            "motivation": "oa:painting", 
            "on": "http://gallica.bnf.fr/iiif/ark:/12148/btv1b9059263p/canvas/f17#xywh=1954,3286,64,208", 
            "resource": {
                "@type": "cnt:ContentAsText", 
                "chars": "FIE", 
                "format": "text/plain"
            }
        }, 
        {
            "@id": "https://manifests.teklia.com/HIMANIS/FR5291/words_annotations/http_gallica.bnf.fr_iiif_ark:_12148_btv1b9059263p_f17_full_full_0_native.jpg.json/27/line", 
            "@type": "oa:Annotation", 
            "motivation": "oa:painting", 
            "on": "http://gallica.bnf.fr/iiif/ark:/12148/btv1b9059263p/canvas/f17#xywh=1253,1158,269,205", 
            "resource": {
                "@type": "cnt:ContentAsText", 
                "chars": "DONNOUS", 
                "format": "text/plain"
            }
        }, 
        {
            "@id": "https://manifests.teklia.com/HIMANIS/FR5291/words_annotations/http_gallica.bnf.fr_iiif_ark:_12148_btv1b9059263p_f17_full_full_0_native.jpg.json/28/line", 
            "@type": "oa:Annotation", 
            "motivation": "oa:painting", 
            "on": "http://gallica.bnf.fr/iiif/ark:/12148/btv1b9059263p/canvas/f17#xywh=2703,1158,218,205", 
            "resource": {
                "@type": "cnt:ContentAsText", 
                "chars": "RIVIERE", 
                "format": "text/plain"
            }
        }, 
        {
            "@id": "https://manifests.teklia.com/HIMANIS/FR5291/words_annotations/http_gallica.bnf.fr_iiif_ark:_12148_btv1b9059263p_f17_full_full_0_native.jpg.json/29/line", 
            "@type": "oa:Annotation", 
            "motivation": "oa:painting", 
            "on": "http://gallica.bnf.fr/iiif/ark:/12148/btv1b9059263p/canvas/f17#xywh=1733,1414,42,223", 
            "resource": {
                "@type": "cnt:ContentAsText", 
                "chars": "SA", 
                "format": "text/plain"
            }
        }, 
        {
            "@id": "https://manifests.teklia.com/HIMANIS/FR5291/words_annotations/http_gallica.bnf.fr_iiif_ark:_12148_btv1b9059263p_f17_full_full_0_native.jpg.json/30/line", 
            "@type": "oa:Annotation", 
            "motivation": "oa:painting", 
            "on": "http://gallica.bnf.fr/iiif/ark:/12148/btv1b9059263p/canvas/f17#xywh=1253,1158,295,205", 
            "resource": {
                "@type": "cnt:ContentAsText", 
                "chars": "DONNONSE", 
                "format": "text/plain"
            }
        }, 
        {
            "@id": "https://manifests.teklia.com/HIMANIS/FR5291/words_annotations/http_gallica.bnf.fr_iiif_ark:_12148_btv1b9059263p_f17_full_full_0_native.jpg.json/31/line", 
            "@type": "oa:Annotation", 
            "motivation": "oa:painting", 
            "on": "http://gallica.bnf.fr/iiif/ark:/12148/btv1b9059263p/canvas/f17#xywh=2145,2228,417,222", 
            "resource": {
                "@type": "cnt:ContentAsText", 
                "chars": "SEMBLABLEMENT", 
                "format": "text/plain"
            }
        }, 
        {
            "@id": "https://manifests.teklia.com/HIMANIS/FR5291/words_annotations/http_gallica.bnf.fr_iiif_ark:_12148_btv1b9059263p_f17_full_full_0_native.jpg.json/32/line", 
            "@type": "oa:Annotation", 
            "motivation": "oa:painting", 
            "on": "http://gallica.bnf.fr/iiif/ark:/12148/btv1b9059263p/canvas/f17#xywh=231,2690,288,77", 
            "resource": {
                "@type": "cnt:ContentAsText", 
                "chars": "PHILI", 
                "format": "text/plain"
            }
        }, 
        {
            "@id": "https://manifests.teklia.com/HIMANIS/FR5291/words_annotations/http_gallica.bnf.fr_iiif_ark:_12148_btv1b9059263p_f17_full_full_0_native.jpg.json/33/line", 
            "@type": "oa:Annotation", 
            "motivation": "oa:painting", 
            "on": "http://gallica.bnf.fr/iiif/ark:/12148/btv1b9059263p/canvas/f17#xywh=278,1414,910,223", 
            "resource": {
                "@type": "cnt:ContentAsText", 
                "chars": "PIERRE", 
                "format": "text/plain"
            }
        }, 
        {
            "@id": "https://manifests.teklia.com/HIMANIS/FR5291/words_annotations/http_gallica.bnf.fr_iiif_ark:_12148_btv1b9059263p_f17_full_full_0_native.jpg.json/34/line", 
            "@type": "oa:Annotation", 
            "motivation": "oa:painting", 
            "on": "http://gallica.bnf.fr/iiif/ark:/12148/btv1b9059263p/canvas/f17#xywh=2064,3896,117,187", 
            "resource": {
                "@type": "cnt:ContentAsText", 
                "chars": "DOIT", 
                "format": "text/plain"
            }
        }, 
        {
            "@id": "https://manifests.teklia.com/HIMANIS/FR5291/words_annotations/http_gallica.bnf.fr_iiif_ark:_12148_btv1b9059263p_f17_full_full_0_native.jpg.json/35/line", 
            "@type": "oa:Annotation", 
            "motivation": "oa:painting", 
            "on": "http://gallica.bnf.fr/iiif/ark:/12148/btv1b9059263p/canvas/f17#xywh=1756,2910,202,234", 
            "resource": {
                "@type": "cnt:ContentAsText", 
                "chars": "TIENT", 
                "format": "text/plain"
            }
        }, 
        {
            "@id": "https://manifests.teklia.com/HIMANIS/FR5291/words_annotations/http_gallica.bnf.fr_iiif_ark:_12148_btv1b9059263p_f17_full_full_0_native.jpg.json/36/line", 
            "@type": "oa:Annotation", 
            "motivation": "oa:painting", 
            "on": "http://gallica.bnf.fr/iiif/ark:/12148/btv1b9059263p/canvas/f17#xywh=2744,3896,199,187", 
            "resource": {
                "@type": "cnt:ContentAsText", 
                "chars": "ARMES", 
                "format": "text/plain"
            }
        }, 
        {
            "@id": "https://manifests.teklia.com/HIMANIS/FR5291/words_annotations/http_gallica.bnf.fr_iiif_ark:_12148_btv1b9059263p_f17_full_full_0_native.jpg.json/37/line", 
            "@type": "oa:Annotation", 
            "motivation": "oa:painting", 
            "on": "http://gallica.bnf.fr/iiif/ark:/12148/btv1b9059263p/canvas/f17#xywh=1971,1695,179,190", 
            "resource": {
                "@type": "cnt:ContentAsText", 
                "chars": "DON", 
                "format": "text/plain"
            }
        }, 
        {
            "@id": "https://manifests.teklia.com/HIMANIS/FR5291/words_annotations/http_gallica.bnf.fr_iiif_ark:_12148_btv1b9059263p_f17_full_full_0_native.jpg.json/38/line", 
            "@type": "oa:Annotation", 
            "motivation": "oa:painting", 
            "on": "http://gallica.bnf.fr/iiif/ark:/12148/btv1b9059263p/canvas/f17#xywh=1946,855,171,274", 
            "resource": {
                "@type": "cnt:ContentAsText", 
                "chars": "CISSEL", 
                "format": "text/plain"
            }
        }, 
        {
            "@id": "https://manifests.teklia.com/HIMANIS/FR5291/words_annotations/http_gallica.bnf.fr_iiif_ark:_12148_btv1b9059263p_f17_full_full_0_native.jpg.json/39/line", 
            "@type": "oa:Annotation", 
            "motivation": "oa:painting", 
            "on": "http://gallica.bnf.fr/iiif/ark:/12148/btv1b9059263p/canvas/f17#xywh=1710,2503,119,211", 
            "resource": {
                "@type": "cnt:ContentAsText", 
                "chars": "TERRE", 
                "format": "text/plain"
            }
        }, 
        {
            "@id": "https://manifests.teklia.com/HIMANIS/FR5291/words_annotations/http_gallica.bnf.fr_iiif_ark:_12148_btv1b9059263p_f17_full_full_0_native.jpg.json/40/line", 
            "@type": "oa:Annotation", 
            "motivation": "oa:painting", 
            "on": "http://gallica.bnf.fr/iiif/ark:/12148/btv1b9059263p/canvas/f17#xywh=2216,3896,176,187", 
            "resource": {
                "@type": "cnt:ContentAsText", 
                "chars": "SERVICE", 
                "format": "text/plain"
            }
        }, 
        {
            "@id": "https://manifests.teklia.com/HIMANIS/FR5291/words_annotations/http_gallica.bnf.fr_iiif_ark:_12148_btv1b9059263p_f17_full_full_0_native.jpg.json/41/line", 
            "@type": "oa:Annotation", 
            "motivation": "oa:painting", 
            "on": "http://gallica.bnf.fr/iiif/ark:/12148/btv1b9059263p/canvas/f17#xywh=1803,1414,112,223", 
            "resource": {
                "@type": "cnt:ContentAsText", 
                "chars": "TERRE", 
                "format": "text/plain"
            }
        }, 
        {
            "@id": "https://manifests.teklia.com/HIMANIS/FR5291/words_annotations/http_gallica.bnf.fr_iiif_ark:_12148_btv1b9059263p_f17_full_full_0_native.jpg.json/42/line", 
            "@type": "oa:Annotation", 
            "motivation": "oa:painting", 
            "on": "http://gallica.bnf.fr/iiif/ark:/12148/btv1b9059263p/canvas/f17#xywh=1513,3896,140,187", 
            "resource": {
                "@type": "cnt:ContentAsText", 
                "chars": "ROYS", 
                "format": "text/plain"
            }
        }, 
        {
            "@id": "https://manifests.teklia.com/HIMANIS/FR5291/words_annotations/http_gallica.bnf.fr_iiif_ark:_12148_btv1b9059263p_f17_full_full_0_native.jpg.json/43/line", 
            "@type": "oa:Annotation", 
            "motivation": "oa:painting", 
            "on": "http://gallica.bnf.fr/iiif/ark:/12148/btv1b9059263p/canvas/f17#xywh=1421,2910,285,234", 
            "resource": {
                "@type": "cnt:ContentAsText", 
                "chars": "FRENORE", 
                "format": "text/plain"
            }
        }, 
        {
            "@id": "https://manifests.teklia.com/HIMANIS/FR5291/words_annotations/http_gallica.bnf.fr_iiif_ark:_12148_btv1b9059263p_f17_full_full_0_native.jpg.json/44/line", 
            "@type": "oa:Annotation", 
            "motivation": "oa:painting", 
            "on": "http://gallica.bnf.fr/iiif/ark:/12148/btv1b9059263p/canvas/f17#xywh=1506,1695,155,190", 
            "resource": {
                "@type": "cnt:ContentAsText", 
                "chars": "TIENT", 
                "format": "text/plain"
            }
        }, 
        {
            "@id": "https://manifests.teklia.com/HIMANIS/FR5291/words_annotations/http_gallica.bnf.fr_iiif_ark:_12148_btv1b9059263p_f17_full_full_0_native.jpg.json/45/line", 
            "@type": "oa:Annotation", 
            "motivation": "oa:painting", 
            "on": "http://gallica.bnf.fr/iiif/ark:/12148/btv1b9059263p/canvas/f17#xywh=1513,3896,152,187", 
            "resource": {
                "@type": "cnt:ContentAsText", 
                "chars": "ROUS", 
                "format": "text/plain"
            }
        }, 
        {
            "@id": "https://manifests.teklia.com/HIMANIS/FR5291/words_annotations/http_gallica.bnf.fr_iiif_ark:_12148_btv1b9059263p_f17_full_full_0_native.jpg.json/46/line", 
            "@type": "oa:Annotation", 
            "motivation": "oa:painting", 
            "on": "http://gallica.bnf.fr/iiif/ark:/12148/btv1b9059263p/canvas/f17#xywh=920,3075,59,105", 
            "resource": {
                "@type": "cnt:ContentAsText", 
                "chars": "DE", 
                "format": "text/plain"
            }
        }, 
        {
            "@id": "https://manifests.teklia.com/HIMANIS/FR5291/words_annotations/http_gallica.bnf.fr_iiif_ark:_12148_btv1b9059263p_f17_full_full_0_native.jpg.json/47/line", 
            "@type": "oa:Annotation", 
            "motivation": "oa:painting", 
            "on": "http://gallica.bnf.fr/iiif/ark:/12148/btv1b9059263p/canvas/f17#xywh=1328,1414,167,223", 
            "resource": {
                "@type": "cnt:ContentAsText", 
                "chars": "REMI", 
                "format": "text/plain"
            }
        }, 
        {
            "@id": "https://manifests.teklia.com/HIMANIS/FR5291/words_annotations/http_gallica.bnf.fr_iiif_ark:_12148_btv1b9059263p_f17_full_full_0_native.jpg.json/48/line", 
            "@type": "oa:Annotation", 
            "motivation": "oa:painting", 
            "on": "http://gallica.bnf.fr/iiif/ark:/12148/btv1b9059263p/canvas/f17#xywh=225,2228,264,222", 
            "resource": {
                "@type": "cnt:ContentAsText", 
                "chars": "PHILIPPES", 
                "format": "text/plain"
            }
        }, 
        {
            "@id": "https://manifests.teklia.com/HIMANIS/FR5291/words_annotations/http_gallica.bnf.fr_iiif_ark:_12148_btv1b9059263p_f17_full_full_0_native.jpg.json/49/line", 
            "@type": "oa:Annotation", 
            "motivation": "oa:painting", 
            "on": "http://gallica.bnf.fr/iiif/ark:/12148/btv1b9059263p/canvas/f17#xywh=2144,607,165,175", 
            "resource": {
                "@type": "cnt:ContentAsText", 
                "chars": "TROIS", 
                "format": "text/plain"
            }
        }, 
        {
            "@id": "https://manifests.teklia.com/HIMANIS/FR5291/words_annotations/http_gallica.bnf.fr_iiif_ark:_12148_btv1b9059263p_f17_full_full_0_native.jpg.json/50/line", 
            "@type": "oa:Annotation", 
            "motivation": "oa:painting", 
            "on": "http://gallica.bnf.fr/iiif/ark:/12148/btv1b9059263p/canvas/f17#xywh=1577,3286,156,208", 
            "resource": {
                "@type": "cnt:ContentAsText", 
                "chars": "TIENT", 
                "format": "text/plain"
            }
        }, 
        {
            "@id": "https://manifests.teklia.com/HIMANIS/FR5291/words_annotations/http_gallica.bnf.fr_iiif_ark:_12148_btv1b9059263p_f17_full_full_0_native.jpg.json/51/line", 
            "@type": "oa:Annotation", 
            "motivation": "oa:painting", 
            "on": "http://gallica.bnf.fr/iiif/ark:/12148/btv1b9059263p/canvas/f17#xywh=2100,607,0,175", 
            "resource": {
                "@type": "cnt:ContentAsText", 
                "chars": "A", 
                "format": "text/plain"
            }
        }, 
        {
            "@id": "https://manifests.teklia.com/HIMANIS/FR5291/words_annotations/http_gallica.bnf.fr_iiif_ark:_12148_btv1b9059263p_f17_full_full_0_native.jpg.json/52/line", 
            "@type": "oa:Annotation", 
            "motivation": "oa:painting", 
            "on": "http://gallica.bnf.fr/iiif/ark:/12148/btv1b9059263p/canvas/f17#xywh=901,2910,369,234", 
            "resource": {
                "@type": "cnt:ContentAsText", 
                "chars": "GUILLAUME", 
                "format": "text/plain"
            }
        }, 
        {
            "@id": "https://manifests.teklia.com/HIMANIS/FR5291/words_annotations/http_gallica.bnf.fr_iiif_ark:_12148_btv1b9059263p_f17_full_full_0_native.jpg.json/53/line", 
            "@type": "oa:Annotation", 
            "motivation": "oa:painting", 
            "on": "http://gallica.bnf.fr/iiif/ark:/12148/btv1b9059263p/canvas/f17#xywh=3233,2503,410,211", 
            "resource": {
                "@type": "cnt:ContentAsText", 
                "chars": "EN", 
                "format": "text/plain"
            }
        }, 
        {
            "@id": "https://manifests.teklia.com/HIMANIS/FR5291/words_annotations/http_gallica.bnf.fr_iiif_ark:_12148_btv1b9059263p_f17_full_full_0_native.jpg.json/54/line", 
            "@type": "oa:Annotation", 
            "motivation": "oa:painting", 
            "on": "http://gallica.bnf.fr/iiif/ark:/12148/btv1b9059263p/canvas/f17#xywh=1021,2700,151,89", 
            "resource": {
                "@type": "cnt:ContentAsText", 
                "chars": "MAIN", 
                "format": "text/plain"
            }
        }, 
        {
            "@id": "https://manifests.teklia.com/HIMANIS/FR5291/words_annotations/http_gallica.bnf.fr_iiif_ark:_12148_btv1b9059263p_f17_full_full_0_native.jpg.json/55/line", 
            "@type": "oa:Annotation", 
            "motivation": "oa:painting", 
            "on": "http://gallica.bnf.fr/iiif/ark:/12148/btv1b9059263p/canvas/f17#xywh=1227,855,51,274", 
            "resource": {
                "@type": "cnt:ContentAsText", 
                "chars": "LE", 
                "format": "text/plain"
            }
        }, 
        {
            "@id": "https://manifests.teklia.com/HIMANIS/FR5291/words_annotations/http_gallica.bnf.fr_iiif_ark:_12148_btv1b9059263p_f17_full_full_0_native.jpg.json/56/line", 
            "@type": "oa:Annotation", 
            "motivation": "oa:painting", 
            "on": "http://gallica.bnf.fr/iiif/ark:/12148/btv1b9059263p/canvas/f17#xywh=2819,855,51,274", 
            "resource": {
                "@type": "cnt:ContentAsText", 
                "chars": "DE", 
                "format": "text/plain"
            }
        }, 
        {
            "@id": "https://manifests.teklia.com/HIMANIS/FR5291/words_annotations/http_gallica.bnf.fr_iiif_ark:_12148_btv1b9059263p_f17_full_full_0_native.jpg.json/57/line", 
            "@type": "oa:Annotation", 
            "motivation": "oa:painting", 
            "on": "http://gallica.bnf.fr/iiif/ark:/12148/btv1b9059263p/canvas/f17#xywh=1498,2503,133,211", 
            "resource": {
                "@type": "cnt:ContentAsText", 
                "chars": "TANT", 
                "format": "text/plain"
            }
        }, 
        {
            "@id": "https://manifests.teklia.com/HIMANIS/FR5291/words_annotations/http_gallica.bnf.fr_iiif_ark:_12148_btv1b9059263p_f17_full_full_0_native.jpg.json/58/line", 
            "@type": "oa:Annotation", 
            "motivation": "oa:painting", 
            "on": "http://gallica.bnf.fr/iiif/ark:/12148/btv1b9059263p/canvas/f17#xywh=2304,3286,52,208", 
            "resource": {
                "@type": "cnt:ContentAsText", 
                "chars": "DE", 
                "format": "text/plain"
            }
        }, 
        {
            "@id": "https://manifests.teklia.com/HIMANIS/FR5291/words_annotations/http_gallica.bnf.fr_iiif_ark:_12148_btv1b9059263p_f17_full_full_0_native.jpg.json/59/line", 
            "@type": "oa:Annotation", 
            "motivation": "oa:painting", 
            "on": "http://gallica.bnf.fr/iiif/ark:/12148/btv1b9059263p/canvas/f17#xywh=3127,855,52,274", 
            "resource": {
                "@type": "cnt:ContentAsText", 
                "chars": "DU", 
                "format": "text/plain"
            }
        }, 
        {
            "@id": "https://manifests.teklia.com/HIMANIS/FR5291/words_annotations/http_gallica.bnf.fr_iiif_ark:_12148_btv1b9059263p_f17_full_full_0_native.jpg.json/60/line", 
            "@type": "oa:Annotation", 
            "motivation": "oa:painting", 
            "on": "http://gallica.bnf.fr/iiif/ark:/12148/btv1b9059263p/canvas/f17#xywh=1644,2228,181,222", 
            "resource": {
                "@type": "cnt:ContentAsText", 
                "chars": "TIENT", 
                "format": "text/plain"
            }
        }, 
        {
            "@id": "https://manifests.teklia.com/HIMANIS/FR5291/words_annotations/http_gallica.bnf.fr_iiif_ark:_12148_btv1b9059263p_f17_full_full_0_native.jpg.json/61/line", 
            "@type": "oa:Annotation", 
            "motivation": "oa:painting", 
            "on": "http://gallica.bnf.fr/iiif/ark:/12148/btv1b9059263p/canvas/f17#xywh=907,2228,181,222", 
            "resource": {
                "@type": "cnt:ContentAsText", 
                "chars": "NALII", 
                "format": "text/plain"
            }
        }, 
        {
            "@id": "https://manifests.teklia.com/HIMANIS/FR5291/words_annotations/http_gallica.bnf.fr_iiif_ark:_12148_btv1b9059263p_f17_full_full_0_native.jpg.json/62/line", 
            "@type": "oa:Annotation", 
            "motivation": "oa:painting", 
            "on": "http://gallica.bnf.fr/iiif/ark:/12148/btv1b9059263p/canvas/f17#xywh=1856,1158,154,205", 
            "resource": {
                "@type": "cnt:ContentAsText", 
                "chars": "TERRE", 
                "format": "text/plain"
            }
        }, 
        {
            "@id": "https://manifests.teklia.com/HIMANIS/FR5291/words_annotations/http_gallica.bnf.fr_iiif_ark:_12148_btv1b9059263p_f17_full_full_0_native.jpg.json/63/line", 
            "@type": "oa:Annotation", 
            "motivation": "oa:painting", 
            "on": "http://gallica.bnf.fr/iiif/ark:/12148/btv1b9059263p/canvas/f17#xywh=2486,3896,222,187", 
            "resource": {
                "@type": "cnt:ContentAsText", 
                "chars": "PLAINNES", 
                "format": "text/plain"
            }
        }, 
        {
            "@id": "https://manifests.teklia.com/HIMANIS/FR5291/words_annotations/http_gallica.bnf.fr_iiif_ark:_12148_btv1b9059263p_f17_full_full_0_native.jpg.json/64/line", 
            "@type": "oa:Annotation", 
            "motivation": "oa:painting", 
            "on": "http://gallica.bnf.fr/iiif/ark:/12148/btv1b9059263p/canvas/f17#xywh=3049,1158,116,205", 
            "resource": {
                "@type": "cnt:ContentAsText", 
                "chars": "DON", 
                "format": "text/plain"
            }
        }, 
        {
            "@id": "https://manifests.teklia.com/HIMANIS/FR5291/words_annotations/http_gallica.bnf.fr_iiif_ark:_12148_btv1b9059263p_f17_full_full_0_native.jpg.json/65/line", 
            "@type": "oa:Annotation", 
            "motivation": "oa:painting", 
            "on": "http://gallica.bnf.fr/iiif/ark:/12148/btv1b9059263p/canvas/f17#xywh=2305,1695,95,190", 
            "resource": {
                "@type": "cnt:ContentAsText", 
                "chars": "ROY", 
                "format": "text/plain"
            }
        }, 
        {
            "@id": "https://manifests.teklia.com/HIMANIS/FR5291/words_annotations/http_gallica.bnf.fr_iiif_ark:_12148_btv1b9059263p_f17_full_full_0_native.jpg.json/66/line", 
            "@type": "oa:Annotation", 
            "motivation": "oa:painting", 
            "on": "http://gallica.bnf.fr/iiif/ark:/12148/btv1b9059263p/canvas/f17#xywh=2665,855,120,274", 
            "resource": {
                "@type": "cnt:ContentAsText", 
                "chars": "PORT", 
                "format": "text/plain"
            }
        }, 
        {
            "@id": "https://manifests.teklia.com/HIMANIS/FR5291/words_annotations/http_gallica.bnf.fr_iiif_ark:_12148_btv1b9059263p_f17_full_full_0_native.jpg.json/67/line", 
            "@type": "oa:Annotation", 
            "motivation": "oa:painting", 
            "on": "http://gallica.bnf.fr/iiif/ark:/12148/btv1b9059263p/canvas/f17#xywh=1991,2910,118,234", 
            "resource": {
                "@type": "cnt:ContentAsText", 
                "chars": "D'EN", 
                "format": "text/plain"
            }
        }, 
        {
            "@id": "https://manifests.teklia.com/HIMANIS/FR5291/words_annotations/http_gallica.bnf.fr_iiif_ark:_12148_btv1b9059263p_f17_full_full_0_native.jpg.json/68/line", 
            "@type": "oa:Annotation", 
            "motivation": "oa:painting", 
            "on": "http://gallica.bnf.fr/iiif/ark:/12148/btv1b9059263p/canvas/f17#xywh=1220,1695,60,190", 
            "resource": {
                "@type": "cnt:ContentAsText", 
                "chars": "DE", 
                "format": "text/plain"
            }
        }, 
        {
            "@id": "https://manifests.teklia.com/HIMANIS/FR5291/words_annotations/http_gallica.bnf.fr_iiif_ark:_12148_btv1b9059263p_f17_full_full_0_native.jpg.json/69/line", 
            "@type": "oa:Annotation", 
            "motivation": "oa:painting", 
            "on": "http://gallica.bnf.fr/iiif/ark:/12148/btv1b9059263p/canvas/f17#xywh=347,351,31,27", 
            "resource": {
                "@type": "cnt:ContentAsText", 
                "chars": "DE", 
                "format": "text/plain"
            }
        }, 
        {
            "@id": "https://manifests.teklia.com/HIMANIS/FR5291/words_annotations/http_gallica.bnf.fr_iiif_ark:_12148_btv1b9059263p_f17_full_full_0_native.jpg.json/70/line", 
            "@type": "oa:Annotation", 
            "motivation": "oa:painting", 
            "on": "http://gallica.bnf.fr/iiif/ark:/12148/btv1b9059263p/canvas/f17#xywh=1138,3896,258,187", 
            "resource": {
                "@type": "cnt:ContentAsText", 
                "chars": "REGNAUT", 
                "format": "text/plain"
            }
        }, 
        {
            "@id": "https://manifests.teklia.com/HIMANIS/FR5291/words_annotations/http_gallica.bnf.fr_iiif_ark:_12148_btv1b9059263p_f17_full_full_0_native.jpg.json/71/line", 
            "@type": "oa:Annotation", 
            "motivation": "oa:painting", 
            "on": "http://gallica.bnf.fr/iiif/ark:/12148/btv1b9059263p/canvas/f17#xywh=907,2228,194,222", 
            "resource": {
                "@type": "cnt:ContentAsText", 
                "chars": "NALIIS", 
                "format": "text/plain"
            }
        }, 
        {
            "@id": "https://manifests.teklia.com/HIMANIS/FR5291/words_annotations/http_gallica.bnf.fr_iiif_ark:_12148_btv1b9059263p_f17_full_full_0_native.jpg.json/72/line", 
            "@type": "oa:Annotation", 
            "motivation": "oa:painting", 
            "on": "http://gallica.bnf.fr/iiif/ark:/12148/btv1b9059263p/canvas/f17#xywh=2198,1695,59,190", 
            "resource": {
                "@type": "cnt:ContentAsText", 
                "chars": "DU", 
                "format": "text/plain"
            }
        }, 
        {
            "@id": "https://manifests.teklia.com/HIMANIS/FR5291/words_annotations/http_gallica.bnf.fr_iiif_ark:_12148_btv1b9059263p_f17_full_full_0_native.jpg.json/73/line", 
            "@type": "oa:Annotation", 
            "motivation": "oa:painting", 
            "on": "http://gallica.bnf.fr/iiif/ark:/12148/btv1b9059263p/canvas/f17#xywh=2613,1158,51,205", 
            "resource": {
                "@type": "cnt:ContentAsText", 
                "chars": "LA", 
                "format": "text/plain"
            }
        }, 
        {
            "@id": "https://manifests.teklia.com/HIMANIS/FR5291/words_annotations/http_gallica.bnf.fr_iiif_ark:_12148_btv1b9059263p_f17_full_full_0_native.jpg.json/74/line", 
            "@type": "oa:Annotation", 
            "motivation": "oa:painting", 
            "on": "http://gallica.bnf.fr/iiif/ark:/12148/btv1b9059263p/canvas/f17#xywh=3190,1158,39,205", 
            "resource": {
                "@type": "cnt:ContentAsText", 
                "chars": "DE", 
                "format": "text/plain"
            }
        }, 
        {
            "@id": "https://manifests.teklia.com/HIMANIS/FR5291/words_annotations/http_gallica.bnf.fr_iiif_ark:_12148_btv1b9059263p_f17_full_full_0_native.jpg.json/75/line", 
            "@type": "oa:Annotation", 
            "motivation": "oa:painting", 
            "on": "http://gallica.bnf.fr/iiif/ark:/12148/btv1b9059263p/canvas/f17#xywh=2427,2910,134,234", 
            "resource": {
                "@type": "cnt:ContentAsText", 
                "chars": "CHERII", 
                "format": "text/plain"
            }
        }, 
        {
            "@id": "https://manifests.teklia.com/HIMANIS/FR5291/words_annotations/http_gallica.bnf.fr_iiif_ark:_12148_btv1b9059263p_f17_full_full_0_native.jpg.json/76/line", 
            "@type": "oa:Annotation", 
            "motivation": "oa:painting", 
            "on": "http://gallica.bnf.fr/iiif/ark:/12148/btv1b9059263p/canvas/f17#xywh=152,4493,342,48", 
            "resource": {
                "@type": "cnt:ContentAsText", 
                "chars": "QUE", 
                "format": "text/plain"
            }
        }, 
        {
            "@id": "https://manifests.teklia.com/HIMANIS/FR5291/words_annotations/http_gallica.bnf.fr_iiif_ark:_12148_btv1b9059263p_f17_full_full_0_native.jpg.json/77/line", 
            "@type": "oa:Annotation", 
            "motivation": "oa:painting", 
            "on": "http://gallica.bnf.fr/iiif/ark:/12148/btv1b9059263p/canvas/f17#xywh=972,607,66,175", 
            "resource": {
                "@type": "cnt:ContentAsText", 
                "chars": "DU", 
                "format": "text/plain"
            }
        }, 
        {
            "@id": "https://manifests.teklia.com/HIMANIS/FR5291/words_annotations/http_gallica.bnf.fr_iiif_ark:_12148_btv1b9059263p_f17_full_full_0_native.jpg.json/78/line", 
            "@type": "oa:Annotation", 
            "motivation": "oa:painting", 
            "on": "http://gallica.bnf.fr/iiif/ark:/12148/btv1b9059263p/canvas/f17#xywh=1230,1414,56,223", 
            "resource": {
                "@type": "cnt:ContentAsText", 
                "chars": "DE", 
                "format": "text/plain"
            }
        }, 
        {
            "@id": "https://manifests.teklia.com/HIMANIS/FR5291/words_annotations/http_gallica.bnf.fr_iiif_ark:_12148_btv1b9059263p_f17_full_full_0_native.jpg.json/79/line", 
            "@type": "oa:Annotation", 
            "motivation": "oa:painting", 
            "on": "http://gallica.bnf.fr/iiif/ark:/12148/btv1b9059263p/canvas/f17#xywh=2427,2910,151,234", 
            "resource": {
                "@type": "cnt:ContentAsText", 
                "chars": "CHERIT", 
                "format": "text/plain"
            }
        }, 
        {
            "@id": "https://manifests.teklia.com/HIMANIS/FR5291/words_annotations/http_gallica.bnf.fr_iiif_ark:_12148_btv1b9059263p_f17_full_full_0_native.jpg.json/80/line", 
            "@type": "oa:Annotation", 
            "motivation": "oa:painting", 
            "on": "http://gallica.bnf.fr/iiif/ark:/12148/btv1b9059263p/canvas/f17#xywh=1884,3585,0,195", 
            "resource": {
                "@type": "cnt:ContentAsText", 
                "chars": "A", 
                "format": "text/plain"
            }
        }, 
        {
            "@id": "https://manifests.teklia.com/HIMANIS/FR5291/words_annotations/http_gallica.bnf.fr_iiif_ark:_12148_btv1b9059263p_f17_full_full_0_native.jpg.json/81/line", 
            "@type": "oa:Annotation", 
            "motivation": "oa:painting", 
            "on": "http://gallica.bnf.fr/iiif/ark:/12148/btv1b9059263p/canvas/f17#xywh=349,4747,175,82", 
            "resource": {
                "@type": "cnt:ContentAsText", 
                "chars": "LETTRES", 
                "format": "text/plain"
            }
        }, 
        {
            "@id": "https://manifests.teklia.com/HIMANIS/FR5291/words_annotations/http_gallica.bnf.fr_iiif_ark:_12148_btv1b9059263p_f17_full_full_0_native.jpg.json/82/line", 
            "@type": "oa:Annotation", 
            "motivation": "oa:painting", 
            "on": "http://gallica.bnf.fr/iiif/ark:/12148/btv1b9059263p/canvas/f17#xywh=2612,2910,0,234", 
            "resource": {
                "@type": "cnt:ContentAsText", 
                "chars": "A", 
                "format": "text/plain"
            }
        }, 
        {
            "@id": "https://manifests.teklia.com/HIMANIS/FR5291/words_annotations/http_gallica.bnf.fr_iiif_ark:_12148_btv1b9059263p_f17_full_full_0_native.jpg.json/83/line", 
            "@type": "oa:Annotation", 
            "motivation": "oa:painting", 
            "on": "http://gallica.bnf.fr/iiif/ark:/12148/btv1b9059263p/canvas/f17#xywh=1989,1978,136,166", 
            "resource": {
                "@type": "cnt:ContentAsText", 
                "chars": "TERRE", 
                "format": "text/plain"
            }
        }, 
        {
            "@id": "https://manifests.teklia.com/HIMANIS/FR5291/words_annotations/http_gallica.bnf.fr_iiif_ark:_12148_btv1b9059263p_f17_full_full_0_native.jpg.json/84/line", 
            "@type": "oa:Annotation", 
            "motivation": "oa:painting", 
            "on": "http://gallica.bnf.fr/iiif/ark:/12148/btv1b9059263p/canvas/f17#xywh=197,4440,241,60", 
            "resource": {
                "@type": "cnt:ContentAsText", 
                "chars": "DE", 
                "format": "text/plain"
            }
        }, 
        {
            "@id": "https://manifests.teklia.com/HIMANIS/FR5291/words_annotations/http_gallica.bnf.fr_iiif_ark:_12148_btv1b9059263p_f17_full_full_0_native.jpg.json/85/line", 
            "@type": "oa:Annotation", 
            "motivation": "oa:painting", 
            "on": "http://gallica.bnf.fr/iiif/ark:/12148/btv1b9059263p/canvas/f17#xywh=403,607,186,175", 
            "resource": {
                "@type": "cnt:ContentAsText", 
                "chars": "PHILIPPUS", 
                "format": "text/plain"
            }
        }, 
        {
            "@id": "https://manifests.teklia.com/HIMANIS/FR5291/words_annotations/http_gallica.bnf.fr_iiif_ark:_12148_btv1b9059263p_f17_full_full_0_native.jpg.json/86/line", 
            "@type": "oa:Annotation", 
            "motivation": "oa:painting", 
            "on": "http://gallica.bnf.fr/iiif/ark:/12148/btv1b9059263p/canvas/f17#xywh=403,607,186,175", 
            "resource": {
                "@type": "cnt:ContentAsText", 
                "chars": "PHILIPPES", 
                "format": "text/plain"
            }
        }, 
        {
            "@id": "https://manifests.teklia.com/HIMANIS/FR5291/words_annotations/http_gallica.bnf.fr_iiif_ark:_12148_btv1b9059263p_f17_full_full_0_native.jpg.json/87/line", 
            "@type": "oa:Annotation", 
            "motivation": "oa:painting", 
            "on": "http://gallica.bnf.fr/iiif/ark:/12148/btv1b9059263p/canvas/f17#xywh=2703,1158,218,205", 
            "resource": {
                "@type": "cnt:ContentAsText", 
                "chars": "REMIERE", 
                "format": "text/plain"
            }
        }, 
        {
            "@id": "https://manifests.teklia.com/HIMANIS/FR5291/words_annotations/http_gallica.bnf.fr_iiif_ark:_12148_btv1b9059263p_f17_full_full_0_native.jpg.json/88/line", 
            "@type": "oa:Annotation", 
            "motivation": "oa:painting", 
            "on": "http://gallica.bnf.fr/iiif/ark:/12148/btv1b9059263p/canvas/f17#xywh=2395,3286,207,208", 
            "resource": {
                "@type": "cnt:ContentAsText", 
                "chars": "ESCHERITA", 
                "format": "text/plain"
            }
        }, 
        {
            "@id": "https://manifests.teklia.com/HIMANIS/FR5291/words_annotations/http_gallica.bnf.fr_iiif_ark:_12148_btv1b9059263p_f17_full_full_0_native.jpg.json/89/line", 
            "@type": "oa:Annotation", 
            "motivation": "oa:painting", 
            "on": "http://gallica.bnf.fr/iiif/ark:/12148/btv1b9059263p/canvas/f17#xywh=2151,855,103,274", 
            "resource": {
                "@type": "cnt:ContentAsText", 
                "chars": "TIENT", 
                "format": "text/plain"
            }
        }, 
        {
            "@id": "https://manifests.teklia.com/HIMANIS/FR5291/words_annotations/http_gallica.bnf.fr_iiif_ark:_12148_btv1b9059263p_f17_full_full_0_native.jpg.json/90/line", 
            "@type": "oa:Annotation", 
            "motivation": "oa:painting", 
            "on": "http://gallica.bnf.fr/iiif/ark:/12148/btv1b9059263p/canvas/f17#xywh=152,4493,318,48", 
            "resource": {
                "@type": "cnt:ContentAsText", 
                "chars": "DE", 
                "format": "text/plain"
            }
        }, 
        {
            "@id": "https://manifests.teklia.com/HIMANIS/FR5291/words_annotations/http_gallica.bnf.fr_iiif_ark:_12148_btv1b9059263p_f17_full_full_0_native.jpg.json/91/line", 
            "@type": "oa:Annotation", 
            "motivation": "oa:painting", 
            "on": "http://gallica.bnf.fr/iiif/ark:/12148/btv1b9059263p/canvas/f17#xywh=1012,3075,223,105", 
            "resource": {
                "@type": "cnt:ContentAsText", 
                "chars": "ESCHOITE", 
                "format": "text/plain"
            }
        }, 
        {
            "@id": "https://manifests.teklia.com/HIMANIS/FR5291/words_annotations/http_gallica.bnf.fr_iiif_ark:_12148_btv1b9059263p_f17_full_full_0_native.jpg.json/92/line", 
            "@type": "oa:Annotation", 
            "motivation": "oa:painting", 
            "on": "http://gallica.bnf.fr/iiif/ark:/12148/btv1b9059263p/canvas/f17#xywh=1513,3896,152,187", 
            "resource": {
                "@type": "cnt:ContentAsText", 
                "chars": "RONS", 
                "format": "text/plain"
            }
        }, 
        {
            "@id": "https://manifests.teklia.com/HIMANIS/FR5291/words_annotations/http_gallica.bnf.fr_iiif_ark:_12148_btv1b9059263p_f17_full_full_0_native.jpg.json/93/line", 
            "@type": "oa:Annotation", 
            "motivation": "oa:painting", 
            "on": "http://gallica.bnf.fr/iiif/ark:/12148/btv1b9059263p/canvas/f17#xywh=2427,3896,0,187", 
            "resource": {
                "@type": "cnt:ContentAsText", 
                "chars": "A", 
                "format": "text/plain"
            }
        }, 
        {
            "@id": "https://manifests.teklia.com/HIMANIS/FR5291/words_annotations/http_gallica.bnf.fr_iiif_ark:_12148_btv1b9059263p_f17_full_full_0_native.jpg.json/94/line", 
            "@type": "oa:Annotation", 
            "motivation": "oa:painting", 
            "on": "http://gallica.bnf.fr/iiif/ark:/12148/btv1b9059263p/canvas/f17#xywh=3255,1158,102,205", 
            "resource": {
                "@type": "cnt:ContentAsText", 
                "chars": "ROY", 
                "format": "text/plain"
            }
        }, 
        {
            "@id": "https://manifests.teklia.com/HIMANIS/FR5291/words_annotations/http_gallica.bnf.fr_iiif_ark:_12148_btv1b9059263p_f17_full_full_0_native.jpg.json/95/line", 
            "@type": "oa:Annotation", 
            "motivation": "oa:painting", 
            "on": "http://gallica.bnf.fr/iiif/ark:/12148/btv1b9059263p/canvas/f17#xywh=1233,2762,0,58", 
            "resource": {
                "@type": "cnt:ContentAsText", 
                "chars": "J", 
                "format": "text/plain"
            }
        }, 
        {
            "@id": "https://manifests.teklia.com/HIMANIS/FR5291/words_annotations/http_gallica.bnf.fr_iiif_ark:_12148_btv1b9059263p_f17_full_full_0_native.jpg.json/96/line", 
            "@type": "oa:Annotation", 
            "motivation": "oa:painting", 
            "on": "http://gallica.bnf.fr/iiif/ark:/12148/btv1b9059263p/canvas/f17#xywh=881,3585,330,195", 
            "resource": {
                "@type": "cnt:ContentAsText", 
                "chars": "GUILLAUME", 
                "format": "text/plain"
            }
        }, 
        {
            "@id": "https://manifests.teklia.com/HIMANIS/FR5291/words_annotations/http_gallica.bnf.fr_iiif_ark:_12148_btv1b9059263p_f17_full_full_0_native.jpg.json/97/line", 
            "@type": "oa:Annotation", 
            "motivation": "oa:painting", 
            "on": "http://gallica.bnf.fr/iiif/ark:/12148/btv1b9059263p/canvas/f17#xywh=1233,2762,0,58", 
            "resource": {
                "@type": "cnt:ContentAsText", 
                "chars": "P", 
                "format": "text/plain"
            }
        }, 
        {
            "@id": "https://manifests.teklia.com/HIMANIS/FR5291/words_annotations/http_gallica.bnf.fr_iiif_ark:_12148_btv1b9059263p_f17_full_full_0_native.jpg.json/98/line", 
            "@type": "oa:Annotation", 
            "motivation": "oa:painting", 
            "on": "http://gallica.bnf.fr/iiif/ark:/12148/btv1b9059263p/canvas/f17#xywh=2100,1158,282,205", 
            "resource": {
                "@type": "cnt:ContentAsText", 
                "chars": "CORONNE", 
                "format": "text/plain"
            }
        }, 
        {
            "@id": "https://manifests.teklia.com/HIMANIS/FR5291/words_annotations/http_gallica.bnf.fr_iiif_ark:_12148_btv1b9059263p_f17_full_full_0_native.jpg.json/99/line", 
            "@type": "oa:Annotation", 
            "motivation": "oa:painting", 
            "on": "http://gallica.bnf.fr/iiif/ark:/12148/btv1b9059263p/canvas/f17#xywh=1498,607,175,175", 
            "resource": {
                "@type": "cnt:ContentAsText", 
                "chars": "AVOIR", 
                "format": "text/plain"
            }
        }, 
        {
            "@id": "https://manifests.teklia.com/HIMANIS/FR5291/words_annotations/http_gallica.bnf.fr_iiif_ark:_12148_btv1b9059263p_f17_full_full_0_native.jpg.json/100/line", 
            "@type": "oa:Annotation", 
            "motivation": "oa:painting", 
            "on": "http://gallica.bnf.fr/iiif/ark:/12148/btv1b9059263p/canvas/f17#xywh=386,1695,203,190", 
            "resource": {
                "@type": "cnt:ContentAsText", 
                "chars": "PHILIPPES", 
                "format": "text/plain"
            }
        }, 
        {
            "@id": "https://manifests.teklia.com/HIMANIS/FR5291/words_annotations/http_gallica.bnf.fr_iiif_ark:_12148_btv1b9059263p_f17_full_full_0_native.jpg.json/101/line", 
            "@type": "oa:Annotation", 
            "motivation": "oa:painting", 
            "on": "http://gallica.bnf.fr/iiif/ark:/12148/btv1b9059263p/canvas/f17#xywh=1311,2700,162,89", 
            "resource": {
                "@type": "cnt:ContentAsText", 
                "chars": "GARDE", 
                "format": "text/plain"
            }
        }, 
        {
            "@id": "https://manifests.teklia.com/HIMANIS/FR5291/words_annotations/http_gallica.bnf.fr_iiif_ark:_12148_btv1b9059263p_f17_full_full_0_native.jpg.json/102/line", 
            "@type": "oa:Annotation", 
            "motivation": "oa:painting", 
            "on": "http://gallica.bnf.fr/iiif/ark:/12148/btv1b9059263p/canvas/f17#xywh=2511,855,51,274", 
            "resource": {
                "@type": "cnt:ContentAsText", 
                "chars": "ET", 
                "format": "text/plain"
            }
        }, 
        {
            "@id": "https://manifests.teklia.com/HIMANIS/FR5291/words_annotations/http_gallica.bnf.fr_iiif_ark:_12148_btv1b9059263p_f17_full_full_0_native.jpg.json/103/line", 
            "@type": "oa:Annotation", 
            "motivation": "oa:painting", 
            "on": "http://gallica.bnf.fr/iiif/ark:/12148/btv1b9059263p/canvas/f17#xywh=2209,2910,84,234", 
            "resource": {
                "@type": "cnt:ContentAsText", 
                "chars": "FIE", 
                "format": "text/plain"
            }
        }, 
        {
            "@id": "https://manifests.teklia.com/HIMANIS/FR5291/words_annotations/http_gallica.bnf.fr_iiif_ark:_12148_btv1b9059263p_f17_full_full_0_native.jpg.json/104/line", 
            "@type": "oa:Annotation", 
            "motivation": "oa:painting", 
            "on": "http://gallica.bnf.fr/iiif/ark:/12148/btv1b9059263p/canvas/f17#xywh=231,2690,298,77", 
            "resource": {
                "@type": "cnt:ContentAsText", 
                "chars": "PHEL", 
                "format": "text/plain"
            }
        }, 
        {
            "@id": "https://manifests.teklia.com/HIMANIS/FR5291/words_annotations/http_gallica.bnf.fr_iiif_ark:_12148_btv1b9059263p_f17_full_full_0_native.jpg.json/105/line", 
            "@type": "oa:Annotation", 
            "motivation": "oa:painting", 
            "on": "http://gallica.bnf.fr/iiif/ark:/12148/btv1b9059263p/canvas/f17#xywh=2048,1158,0,205", 
            "resource": {
                "@type": "cnt:ContentAsText", 
                "chars": "A", 
                "format": "text/plain"
            }
        }, 
        {
            "@id": "https://manifests.teklia.com/HIMANIS/FR5291/words_annotations/http_gallica.bnf.fr_iiif_ark:_12148_btv1b9059263p_f17_full_full_0_native.jpg.json/106/line", 
            "@type": "oa:Annotation", 
            "motivation": "oa:painting", 
            "on": "http://gallica.bnf.fr/iiif/ark:/12148/btv1b9059263p/canvas/f17#xywh=1082,607,98,175", 
            "resource": {
                "@type": "cnt:ContentAsText", 
                "chars": "ROY", 
                "format": "text/plain"
            }
        }, 
        {
            "@id": "https://manifests.teklia.com/HIMANIS/FR5291/words_annotations/http_gallica.bnf.fr_iiif_ark:_12148_btv1b9059263p_f17_full_full_0_native.jpg.json/107/line", 
            "@type": "oa:Annotation", 
            "motivation": "oa:painting", 
            "on": "http://gallica.bnf.fr/iiif/ark:/12148/btv1b9059263p/canvas/f17#xywh=247,1838,873,112", 
            "resource": {
                "@type": "cnt:ContentAsText", 
                "chars": "PHILIPP", 
                "format": "text/plain"
            }
        }, 
        {
            "@id": "https://manifests.teklia.com/HIMANIS/FR5291/words_annotations/http_gallica.bnf.fr_iiif_ark:_12148_btv1b9059263p_f17_full_full_0_native.jpg.json/108/line", 
            "@type": "oa:Annotation", 
            "motivation": "oa:painting", 
            "on": "http://gallica.bnf.fr/iiif/ark:/12148/btv1b9059263p/canvas/f17#xywh=1728,607,88,175", 
            "resource": {
                "@type": "cnt:ContentAsText", 
                "chars": "LES", 
                "format": "text/plain"
            }
        }, 
        {
            "@id": "https://manifests.teklia.com/HIMANIS/FR5291/words_annotations/http_gallica.bnf.fr_iiif_ark:_12148_btv1b9059263p_f17_full_full_0_native.jpg.json/109/line", 
            "@type": "oa:Annotation", 
            "motivation": "oa:painting", 
            "on": "http://gallica.bnf.fr/iiif/ark:/12148/btv1b9059263p/canvas/f17#xywh=1320,2910,67,234", 
            "resource": {
                "@type": "cnt:ContentAsText", 
                "chars": "DE", 
                "format": "text/plain"
            }
        }, 
        {
            "@id": "https://manifests.teklia.com/HIMANIS/FR5291/words_annotations/http_gallica.bnf.fr_iiif_ark:_12148_btv1b9059263p_f17_full_full_0_native.jpg.json/110/line", 
            "@type": "oa:Annotation", 
            "motivation": "oa:painting", 
            "on": "http://gallica.bnf.fr/iiif/ark:/12148/btv1b9059263p/canvas/f17#xywh=336,2763,135,47", 
            "resource": {
                "@type": "cnt:ContentAsText", 
                "chars": "DE", 
                "format": "text/plain"
            }
        }, 
        {
            "@id": "https://manifests.teklia.com/HIMANIS/FR5291/words_annotations/http_gallica.bnf.fr_iiif_ark:_12148_btv1b9059263p_f17_full_full_0_native.jpg.json/111/line", 
            "@type": "oa:Annotation", 
            "motivation": "oa:painting", 
            "on": "http://gallica.bnf.fr/iiif/ark:/12148/btv1b9059263p/canvas/f17#xywh=1935,2503,119,211", 
            "resource": {
                "@type": "cnt:ContentAsText", 
                "chars": "DON", 
                "format": "text/plain"
            }
        }, 
        {
            "@id": "https://manifests.teklia.com/HIMANIS/FR5291/words_annotations/http_gallica.bnf.fr_iiif_ark:_12148_btv1b9059263p_f17_full_full_0_native.jpg.json/112/line", 
            "@type": "oa:Annotation", 
            "motivation": "oa:painting", 
            "on": "http://gallica.bnf.fr/iiif/ark:/12148/btv1b9059263p/canvas/f17#xywh=1772,3286,104,208", 
            "resource": {
                "@type": "cnt:ContentAsText", 
                "chars": "D'EN", 
                "format": "text/plain"
            }
        }, 
        {
            "@id": "https://manifests.teklia.com/HIMANIS/FR5291/words_annotations/http_gallica.bnf.fr_iiif_ark:_12148_btv1b9059263p_f17_full_full_0_native.jpg.json/113/line", 
            "@type": "oa:Annotation", 
            "motivation": "oa:painting", 
            "on": "http://gallica.bnf.fr/iiif/ark:/12148/btv1b9059263p/canvas/f17#xywh=1935,2503,119,211", 
            "resource": {
                "@type": "cnt:ContentAsText", 
                "chars": "DOU", 
                "format": "text/plain"
            }
        }, 
        {
            "@id": "https://manifests.teklia.com/HIMANIS/FR5291/words_annotations/http_gallica.bnf.fr_iiif_ark:_12148_btv1b9059263p_f17_full_full_0_native.jpg.json/114/line", 
            "@type": "oa:Annotation", 
            "motivation": "oa:painting", 
            "on": "http://gallica.bnf.fr/iiif/ark:/12148/btv1b9059263p/canvas/f17#xywh=921,2700,83,89", 
            "resource": {
                "@type": "cnt:ContentAsText", 
                "chars": "LA", 
                "format": "text/plain"
            }
        }, 
        {
            "@id": "https://manifests.teklia.com/HIMANIS/FR5291/words_annotations/http_gallica.bnf.fr_iiif_ark:_12148_btv1b9059263p_f17_full_full_0_native.jpg.json/115/line", 
            "@type": "oa:Annotation", 
            "motivation": "oa:painting", 
            "on": "http://gallica.bnf.fr/iiif/ark:/12148/btv1b9059263p/canvas/f17#xywh=2508,3585,281,195", 
            "resource": {
                "@type": "cnt:ContentAsText", 
                "chars": "FRENORE", 
                "format": "text/plain"
            }
        }, 
        {
            "@id": "https://manifests.teklia.com/HIMANIS/FR5291/words_annotations/http_gallica.bnf.fr_iiif_ark:_12148_btv1b9059263p_f17_full_full_0_native.jpg.json/116/line", 
            "@type": "oa:Annotation", 
            "motivation": "oa:painting", 
            "on": "http://gallica.bnf.fr/iiif/ark:/12148/btv1b9059263p/canvas/f17#xywh=3283,2910,117,234", 
            "resource": {
                "@type": "cnt:ContentAsText", 
                "chars": "DOIT", 
                "format": "text/plain"
            }
        }, 
        {
            "@id": "https://manifests.teklia.com/HIMANIS/FR5291/words_annotations/http_gallica.bnf.fr_iiif_ark:_12148_btv1b9059263p_f17_full_full_0_native.jpg.json/117/line", 
            "@type": "oa:Annotation", 
            "motivation": "oa:painting", 
            "on": "http://gallica.bnf.fr/iiif/ark:/12148/btv1b9059263p/canvas/f17#xywh=1344,3286,195,208", 
            "resource": {
                "@type": "cnt:ContentAsText", 
                "chars": "TOURT", 
                "format": "text/plain"
            }
        }, 
        {
            "@id": "https://manifests.teklia.com/HIMANIS/FR5291/words_annotations/http_gallica.bnf.fr_iiif_ark:_12148_btv1b9059263p_f17_full_full_0_native.jpg.json/118/line", 
            "@type": "oa:Annotation", 
            "motivation": "oa:painting", 
            "on": "http://gallica.bnf.fr/iiif/ark:/12148/btv1b9059263p/canvas/f17#xywh=2523,1158,51,205", 
            "resource": {
                "@type": "cnt:ContentAsText", 
                "chars": "EN", 
                "format": "text/plain"
            }
        }, 
        {
            "@id": "https://manifests.teklia.com/HIMANIS/FR5291/words_annotations/http_gallica.bnf.fr_iiif_ark:_12148_btv1b9059263p_f17_full_full_0_native.jpg.json/119/line", 
            "@type": "oa:Annotation", 
            "motivation": "oa:painting", 
            "on": "http://gallica.bnf.fr/iiif/ark:/12148/btv1b9059263p/canvas/f17#xywh=2421,1158,64,205", 
            "resource": {
                "@type": "cnt:ContentAsText", 
                "chars": "ET", 
                "format": "text/plain"
            }
        }, 
        {
            "@id": "https://manifests.teklia.com/HIMANIS/FR5291/words_annotations/http_gallica.bnf.fr_iiif_ark:_12148_btv1b9059263p_f17_full_full_0_native.jpg.json/120/line", 
            "@type": "oa:Annotation", 
            "motivation": "oa:painting", 
            "on": "http://gallica.bnf.fr/iiif/ark:/12148/btv1b9059263p/canvas/f17#xywh=1246,607,55,175", 
            "resource": {
                "@type": "cnt:ContentAsText", 
                "chars": "ET", 
                "format": "text/plain"
            }
        }, 
        {
            "@id": "https://manifests.teklia.com/HIMANIS/FR5291/words_annotations/http_gallica.bnf.fr_iiif_ark:_12148_btv1b9059263p_f17_full_full_0_native.jpg.json/121/line", 
            "@type": "oa:Annotation", 
            "motivation": "oa:painting", 
            "on": "http://gallica.bnf.fr/iiif/ark:/12148/btv1b9059263p/canvas/f17#xywh=2202,3585,196,195", 
            "resource": {
                "@type": "cnt:ContentAsText", 
                "chars": "ARMES", 
                "format": "text/plain"
            }
        }, 
        {
            "@id": "https://manifests.teklia.com/HIMANIS/FR5291/words_annotations/http_gallica.bnf.fr_iiif_ark:_12148_btv1b9059263p_f17_full_full_0_native.jpg.json/122/line", 
            "@type": "oa:Annotation", 
            "motivation": "oa:painting", 
            "on": "http://gallica.bnf.fr/iiif/ark:/12148/btv1b9059263p/canvas/f17#xywh=3434,2910,201,234", 
            "resource": {
                "@type": "cnt:ContentAsText", 
                "chars": "SERVICE", 
                "format": "text/plain"
            }
        }, 
        {
            "@id": "https://manifests.teklia.com/HIMANIS/FR5291/words_annotations/http_gallica.bnf.fr_iiif_ark:_12148_btv1b9059263p_f17_full_full_0_native.jpg.json/123/line", 
            "@type": "oa:Annotation", 
            "motivation": "oa:painting", 
            "on": "http://gallica.bnf.fr/iiif/ark:/12148/btv1b9059263p/canvas/f17#xywh=907,2228,194,222", 
            "resource": {
                "@type": "cnt:ContentAsText", 
                "chars": "ALIIS", 
                "format": "text/plain"
            }
        }, 
        {
            "@id": "https://manifests.teklia.com/HIMANIS/FR5291/words_annotations/http_gallica.bnf.fr_iiif_ark:_12148_btv1b9059263p_f17_full_full_0_native.jpg.json/124/line", 
            "@type": "oa:Annotation", 
            "motivation": "oa:painting", 
            "on": "http://gallica.bnf.fr/iiif/ark:/12148/btv1b9059263p/canvas/f17#xywh=266,742,239,52", 
            "resource": {
                "@type": "cnt:ContentAsText", 
                "chars": "PHIL", 
                "format": "text/plain"
            }
        }, 
        {
            "@id": "https://manifests.teklia.com/HIMANIS/FR5291/words_annotations/http_gallica.bnf.fr_iiif_ark:_12148_btv1b9059263p_f17_full_full_0_native.jpg.json/125/line", 
            "@type": "oa:Annotation", 
            "motivation": "oa:painting", 
            "on": "http://gallica.bnf.fr/iiif/ark:/12148/btv1b9059263p/canvas/f17#xywh=2905,855,188,274", 
            "resource": {
                "@type": "cnt:ContentAsText", 
                "chars": "COUSTEL", 
                "format": "text/plain"
            }
        }, 
        {
            "@id": "https://manifests.teklia.com/HIMANIS/FR5291/words_annotations/http_gallica.bnf.fr_iiif_ark:_12148_btv1b9059263p_f17_full_full_0_native.jpg.json/126/line", 
            "@type": "oa:Annotation", 
            "motivation": "oa:painting", 
            "on": "http://gallica.bnf.fr/iiif/ark:/12148/btv1b9059263p/canvas/f17#xywh=266,742,249,52", 
            "resource": {
                "@type": "cnt:ContentAsText", 
                "chars": "PHEL", 
                "format": "text/plain"
            }
        }, 
        {
            "@id": "https://manifests.teklia.com/HIMANIS/FR5291/words_annotations/http_gallica.bnf.fr_iiif_ark:_12148_btv1b9059263p_f17_full_full_0_native.jpg.json/127/line", 
            "@type": "oa:Annotation", 
            "motivation": "oa:painting", 
            "on": "http://gallica.bnf.fr/iiif/ark:/12148/btv1b9059263p/canvas/f17#xywh=3213,855,120,274", 
            "resource": {
                "@type": "cnt:ContentAsText", 
                "chars": "ROY", 
                "format": "text/plain"
            }
        }, 
        {
            "@id": "https://manifests.teklia.com/HIMANIS/FR5291/words_annotations/http_gallica.bnf.fr_iiif_ark:_12148_btv1b9059263p_f17_full_full_0_native.jpg.json/128/line", 
            "@type": "oa:Annotation", 
            "motivation": "oa:painting", 
            "on": "http://gallica.bnf.fr/iiif/ark:/12148/btv1b9059263p/canvas/f17#xywh=1523,1414,168,223", 
            "resource": {
                "@type": "cnt:ContentAsText", 
                "chars": "TIENT", 
                "format": "text/plain"
            }
        }, 
        {
            "@id": "https://manifests.teklia.com/HIMANIS/FR5291/words_annotations/http_gallica.bnf.fr_iiif_ark:_12148_btv1b9059263p_f17_full_full_0_native.jpg.json/129/line", 
            "@type": "oa:Annotation", 
            "motivation": "oa:painting", 
            "on": "http://gallica.bnf.fr/iiif/ark:/12148/btv1b9059263p/canvas/f17#xywh=836,3823,175,88", 
            "resource": {
                "@type": "cnt:ContentAsText", 
                "chars": "PHIL", 
                "format": "text/plain"
            }
        }, 
        {
            "@id": "https://manifests.teklia.com/HIMANIS/FR5291/words_annotations/http_gallica.bnf.fr_iiif_ark:_12148_btv1b9059263p_f17_full_full_0_native.jpg.json/130/line", 
            "@type": "oa:Annotation", 
            "motivation": "oa:painting", 
            "on": "http://gallica.bnf.fr/iiif/ark:/12148/btv1b9059263p/canvas/f17#xywh=1304,1695,167,190", 
            "resource": {
                "@type": "cnt:ContentAsText", 
                "chars": "MART", 
                "format": "text/plain"
            }
        }, 
        {
            "@id": "https://manifests.teklia.com/HIMANIS/FR5291/words_annotations/http_gallica.bnf.fr_iiif_ark:_12148_btv1b9059263p_f17_full_full_0_native.jpg.json/131/line", 
            "@type": "oa:Annotation", 
            "motivation": "oa:painting", 
            "on": "http://gallica.bnf.fr/iiif/ark:/12148/btv1b9059263p/canvas/f17#xywh=1867,2228,55,222", 
            "resource": {
                "@type": "cnt:ContentAsText", 
                "chars": "SA", 
                "format": "text/plain"
            }
        }, 
        {
            "@id": "https://manifests.teklia.com/HIMANIS/FR5291/words_annotations/http_gallica.bnf.fr_iiif_ark:_12148_btv1b9059263p_f17_full_full_0_native.jpg.json/132/line", 
            "@type": "oa:Annotation", 
            "motivation": "oa:painting", 
            "on": "http://gallica.bnf.fr/iiif/ark:/12148/btv1b9059263p/canvas/f17#xywh=1906,1978,52,166", 
            "resource": {
                "@type": "cnt:ContentAsText", 
                "chars": "SA", 
                "format": "text/plain"
            }
        }, 
        {
            "@id": "https://manifests.teklia.com/HIMANIS/FR5291/words_annotations/http_gallica.bnf.fr_iiif_ark:_12148_btv1b9059263p_f17_full_full_0_native.jpg.json/133/line", 
            "@type": "oa:Annotation", 
            "motivation": "oa:painting", 
            "on": "http://gallica.bnf.fr/iiif/ark:/12148/btv1b9059263p/canvas/f17#xywh=2427,2910,134,234", 
            "resource": {
                "@type": "cnt:ContentAsText", 
                "chars": "CHEVAL", 
                "format": "text/plain"
            }
        }, 
        {
            "@id": "https://manifests.teklia.com/HIMANIS/FR5291/words_annotations/http_gallica.bnf.fr_iiif_ark:_12148_btv1b9059263p_f17_full_full_0_native.jpg.json/134/line", 
            "@type": "oa:Annotation", 
            "motivation": "oa:painting", 
            "on": "http://gallica.bnf.fr/iiif/ark:/12148/btv1b9059263p/canvas/f17#xywh=2662,2910,285,234", 
            "resource": {
                "@type": "cnt:ContentAsText", 
                "chars": "FRANORE", 
                "format": "text/plain"
            }
        }, 
        {
            "@id": "https://manifests.teklia.com/HIMANIS/FR5291/words_annotations/http_gallica.bnf.fr_iiif_ark:_12148_btv1b9059263p_f17_full_full_0_native.jpg.json/135/line", 
            "@type": "oa:Annotation", 
            "motivation": "oa:painting", 
            "on": "http://gallica.bnf.fr/iiif/ark:/12148/btv1b9059263p/canvas/f17#xywh=152,4493,321,48", 
            "resource": {
                "@type": "cnt:ContentAsText", 
                "chars": "ET", 
                "format": "text/plain"
            }
        }, 
        {
            "@id": "https://manifests.teklia.com/HIMANIS/FR5291/words_annotations/http_gallica.bnf.fr_iiif_ark:_12148_btv1b9059263p_f17_full_full_0_native.jpg.json/136/line", 
            "@type": "oa:Annotation", 
            "motivation": "oa:painting", 
            "on": "http://gallica.bnf.fr/iiif/ark:/12148/btv1b9059263p/canvas/f17#xywh=2135,3286,156,208", 
            "resource": {
                "@type": "cnt:ContentAsText", 
                "chars": "CHEVALIER", 
                "format": "text/plain"
            }
        }, 
        {
            "@id": "https://manifests.teklia.com/HIMANIS/FR5291/words_annotations/http_gallica.bnf.fr_iiif_ark:_12148_btv1b9059263p_f17_full_full_0_native.jpg.json/137/line", 
            "@type": "oa:Annotation", 
            "motivation": "oa:painting", 
            "on": "http://gallica.bnf.fr/iiif/ark:/12148/btv1b9059263p/canvas/f17#xywh=1774,3585,73,195", 
            "resource": {
                "@type": "cnt:ContentAsText", 
                "chars": "FIE", 
                "format": "text/plain"
            }
        }, 
        {
            "@id": "https://manifests.teklia.com/HIMANIS/FR5291/words_annotations/http_gallica.bnf.fr_iiif_ark:_12148_btv1b9059263p_f17_full_full_0_native.jpg.json/138/line", 
            "@type": "oa:Annotation", 
            "motivation": "oa:painting", 
            "on": "http://gallica.bnf.fr/iiif/ark:/12148/btv1b9059263p/canvas/f17#xywh=2187,2503,106,211", 
            "resource": {
                "@type": "cnt:ContentAsText", 
                "chars": "ROY", 
                "format": "text/plain"
            }
        }, 
        {
            "@id": "https://manifests.teklia.com/HIMANIS/FR5291/words_annotations/http_gallica.bnf.fr_iiif_ark:_12148_btv1b9059263p_f17_full_full_0_native.jpg.json/139/line", 
            "@type": "oa:Annotation", 
            "motivation": "oa:painting", 
            "on": "http://gallica.bnf.fr/iiif/ark:/12148/btv1b9059263p/canvas/f17#xywh=1300,2503,146,211", 
            "resource": {
                "@type": "cnt:ContentAsText", 
                "chars": "SALI", 
                "format": "text/plain"
            }
        }, 
        {
            "@id": "https://manifests.teklia.com/HIMANIS/FR5291/words_annotations/http_gallica.bnf.fr_iiif_ark:_12148_btv1b9059263p_f17_full_full_0_native.jpg.json/140/line", 
            "@type": "oa:Annotation", 
            "motivation": "oa:painting", 
            "on": "http://gallica.bnf.fr/iiif/ark:/12148/btv1b9059263p/canvas/f17#xywh=1657,2503,53,211", 
            "resource": {
                "@type": "cnt:ContentAsText", 
                "chars": "SA", 
                "format": "text/plain"
            }
        }, 
        {
            "@id": "https://manifests.teklia.com/HIMANIS/FR5291/words_annotations/http_gallica.bnf.fr_iiif_ark:_12148_btv1b9059263p_f17_full_full_0_native.jpg.json/141/line", 
            "@type": "oa:Annotation", 
            "motivation": "oa:painting", 
            "on": "http://gallica.bnf.fr/iiif/ark:/12148/btv1b9059263p/canvas/f17#xywh=1769,1695,155,190", 
            "resource": {
                "@type": "cnt:ContentAsText", 
                "chars": "TERRE", 
                "format": "text/plain"
            }
        }, 
        {
            "@id": "https://manifests.teklia.com/HIMANIS/FR5291/words_annotations/http_gallica.bnf.fr_iiif_ark:_12148_btv1b9059263p_f17_full_full_0_native.jpg.json/142/line", 
            "@type": "oa:Annotation", 
            "motivation": "oa:painting", 
            "on": "http://gallica.bnf.fr/iiif/ark:/12148/btv1b9059263p/canvas/f17#xywh=1782,3896,211,187", 
            "resource": {
                "@type": "cnt:ContentAsText", 
                "chars": "FRENORE", 
                "format": "text/plain"
            }
        }, 
        {
            "@id": "https://manifests.teklia.com/HIMANIS/FR5291/words_annotations/http_gallica.bnf.fr_iiif_ark:_12148_btv1b9059263p_f17_full_full_0_native.jpg.json/143/line", 
            "@type": "oa:Annotation", 
            "motivation": "oa:painting", 
            "on": "http://gallica.bnf.fr/iiif/ark:/12148/btv1b9059263p/canvas/f17#xywh=1945,3585,220,195", 
            "resource": {
                "@type": "cnt:ContentAsText", 
                "chars": "PLAINES", 
                "format": "text/plain"
            }
        }, 
        {
            "@id": "https://manifests.teklia.com/HIMANIS/FR5291/words_annotations/http_gallica.bnf.fr_iiif_ark:_12148_btv1b9059263p_f17_full_full_0_native.jpg.json/144/line", 
            "@type": "oa:Annotation", 
            "motivation": "oa:painting", 
            "on": "http://gallica.bnf.fr/iiif/ark:/12148/btv1b9059263p/canvas/f17#xywh=2271,1978,93,166", 
            "resource": {
                "@type": "cnt:ContentAsText", 
                "chars": "DON", 
                "format": "text/plain"
            }
        }, 
        {
            "@id": "https://manifests.teklia.com/HIMANIS/FR5291/words_annotations/http_gallica.bnf.fr_iiif_ark:_12148_btv1b9059263p_f17_full_full_0_native.jpg.json/145/line", 
            "@type": "oa:Annotation", 
            "motivation": "oa:painting", 
            "on": "http://gallica.bnf.fr/iiif/ark:/12148/btv1b9059263p/canvas/f17#xywh=1248,3585,49,195", 
            "resource": {
                "@type": "cnt:ContentAsText", 
                "chars": "LE", 
                "format": "text/plain"
            }
        }, 
        {
            "@id": "https://manifests.teklia.com/HIMANIS/FR5291/words_annotations/http_gallica.bnf.fr_iiif_ark:_12148_btv1b9059263p_f17_full_full_0_native.jpg.json/146/line", 
            "@type": "oa:Annotation", 
            "motivation": "oa:painting", 
            "on": "http://gallica.bnf.fr/iiif/ark:/12148/btv1b9059263p/canvas/f17#xywh=932,1158,282,205", 
            "resource": {
                "@type": "cnt:ContentAsText", 
                "chars": "THOMAS", 
                "format": "text/plain"
            }
        }, 
        {
            "@id": "https://manifests.teklia.com/HIMANIS/FR5291/words_annotations/http_gallica.bnf.fr_iiif_ark:_12148_btv1b9059263p_f17_full_full_0_native.jpg.json/147/line", 
            "@type": "oa:Annotation", 
            "motivation": "oa:painting", 
            "on": "http://gallica.bnf.fr/iiif/ark:/12148/btv1b9059263p/canvas/f17#xywh=2809,2503,371,211", 
            "resource": {
                "@type": "cnt:ContentAsText", 
                "chars": "MAINTENANT", 
                "format": "text/plain"
            }
        }, 
        {
            "@id": "https://manifests.teklia.com/HIMANIS/FR5291/words_annotations/http_gallica.bnf.fr_iiif_ark:_12148_btv1b9059263p_f17_full_full_0_native.jpg.json/148/line", 
            "@type": "oa:Annotation", 
            "motivation": "oa:painting", 
            "on": "http://gallica.bnf.fr/iiif/ark:/12148/btv1b9059263p/canvas/f17#xywh=3199,2910,50,234", 
            "resource": {
                "@type": "cnt:ContentAsText", 
                "chars": "IL", 
                "format": "text/plain"
            }
        }, 
        {
            "@id": "https://manifests.teklia.com/HIMANIS/FR5291/words_annotations/http_gallica.bnf.fr_iiif_ark:_12148_btv1b9059263p_f17_full_full_0_native.jpg.json/149/line", 
            "@type": "oa:Annotation", 
            "motivation": "oa:painting", 
            "on": "http://gallica.bnf.fr/iiif/ark:/12148/btv1b9059263p/canvas/f17#xywh=336,2763,129,47", 
            "resource": {
                "@type": "cnt:ContentAsText", 
                "chars": "EN", 
                "format": "text/plain"
            }
        }, 
        {
            "@id": "https://manifests.teklia.com/HIMANIS/FR5291/words_annotations/http_gallica.bnf.fr_iiif_ark:_12148_btv1b9059263p_f17_full_full_0_native.jpg.json/150/line", 
            "@type": "oa:Annotation", 
            "motivation": "oa:painting", 
            "on": "http://gallica.bnf.fr/iiif/ark:/12148/btv1b9059263p/canvas/f17#xywh=1849,607,219,175", 
            "resource": {
                "@type": "cnt:ContentAsText", 
                "chars": "LIVREES", 
                "format": "text/plain"
            }
        }, 
        {
            "@id": "https://manifests.teklia.com/HIMANIS/FR5291/words_annotations/http_gallica.bnf.fr_iiif_ark:_12148_btv1b9059263p_f17_full_full_0_native.jpg.json/151/line", 
            "@type": "oa:Annotation", 
            "motivation": "oa:painting", 
            "on": "http://gallica.bnf.fr/iiif/ark:/12148/btv1b9059263p/canvas/f17#xywh=1345,607,120,175", 
            "resource": {
                "@type": "cnt:ContentAsText", 
                "chars": "DOIT", 
                "format": "text/plain"
            }
        }, 
        {
            "@id": "https://manifests.teklia.com/HIMANIS/FR5291/words_annotations/http_gallica.bnf.fr_iiif_ark:_12148_btv1b9059263p_f17_full_full_0_native.jpg.json/152/line", 
            "@type": "oa:Annotation", 
            "motivation": "oa:painting", 
            "on": "http://gallica.bnf.fr/iiif/ark:/12148/btv1b9059263p/canvas/f17#xywh=1936,2228,167,222", 
            "resource": {
                "@type": "cnt:ContentAsText", 
                "chars": "TERRE", 
                "format": "text/plain"
            }
        }, 
        {
            "@id": "https://manifests.teklia.com/HIMANIS/FR5291/words_annotations/http_gallica.bnf.fr_iiif_ark:_12148_btv1b9059263p_f17_full_full_0_native.jpg.json/153/line", 
            "@type": "oa:Annotation", 
            "motivation": "oa:painting", 
            "on": "http://gallica.bnf.fr/iiif/ark:/12148/btv1b9059263p/canvas/f17#xywh=203,2187,323,42", 
            "resource": {
                "@type": "cnt:ContentAsText", 
                "chars": "PHILIPPES", 
                "format": "text/plain"
            }
        }, 
        {
            "@id": "https://manifests.teklia.com/HIMANIS/FR5291/words_annotations/http_gallica.bnf.fr_iiif_ark:_12148_btv1b9059263p_f17_full_full_0_native.jpg.json/154/line", 
            "@type": "oa:Annotation", 
            "motivation": "oa:painting", 
            "on": "http://gallica.bnf.fr/iiif/ark:/12148/btv1b9059263p/canvas/f17#xywh=2486,3896,222,187", 
            "resource": {
                "@type": "cnt:ContentAsText", 
                "chars": "PLAINES", 
                "format": "text/plain"
            }
        }, 
        {
            "@id": "https://manifests.teklia.com/HIMANIS/FR5291/words_annotations/http_gallica.bnf.fr_iiif_ark:_12148_btv1b9059263p_f17_full_full_0_native.jpg.json/155/line", 
            "@type": "oa:Annotation", 
            "motivation": "oa:painting", 
            "on": "http://gallica.bnf.fr/iiif/ark:/12148/btv1b9059263p/canvas/f17#xywh=2998,2910,151,234", 
            "resource": {
                "@type": "cnt:ContentAsText", 
                "chars": "DONT", 
                "format": "text/plain"
            }
        }, 
        {
            "@id": "https://manifests.teklia.com/HIMANIS/FR5291/words_annotations/http_gallica.bnf.fr_iiif_ark:_12148_btv1b9059263p_f17_full_full_0_native.jpg.json/156/line", 
            "@type": "oa:Annotation", 
            "motivation": "oa:painting", 
            "on": "http://gallica.bnf.fr/iiif/ark:/12148/btv1b9059263p/canvas/f17#xywh=1772,3286,143,208", 
            "resource": {
                "@type": "cnt:ContentAsText", 
                "chars": "D'EUR", 
                "format": "text/plain"
            }
        }, 
        {
            "@id": "https://manifests.teklia.com/HIMANIS/FR5291/words_annotations/http_gallica.bnf.fr_iiif_ark:_12148_btv1b9059263p_f17_full_full_0_native.jpg.json/157/line", 
            "@type": "oa:Annotation", 
            "motivation": "oa:painting", 
            "on": "http://gallica.bnf.fr/iiif/ark:/12148/btv1b9059263p/canvas/f17#xywh=319,855,891,274", 
            "resource": {
                "@type": "cnt:ContentAsText", 
                "chars": "NAUL", 
                "format": "text/plain"
            }
        }, 
        {
            "@id": "https://manifests.teklia.com/HIMANIS/FR5291/words_annotations/http_gallica.bnf.fr_iiif_ark:_12148_btv1b9059263p_f17_full_full_0_native.jpg.json/158/line", 
            "@type": "oa:Annotation", 
            "motivation": "oa:painting", 
            "on": "http://gallica.bnf.fr/iiif/ark:/12148/btv1b9059263p/canvas/f17#xywh=910,1695,263,190", 
            "resource": {
                "@type": "cnt:ContentAsText", 
                "chars": "GRART", 
                "format": "text/plain"
            }
        }, 
        {
            "@id": "https://manifests.teklia.com/HIMANIS/FR5291/words_annotations/http_gallica.bnf.fr_iiif_ark:_12148_btv1b9059263p_f17_full_full_0_native.jpg.json/159/line", 
            "@type": "oa:Annotation", 
            "motivation": "oa:painting", 
            "on": "http://gallica.bnf.fr/iiif/ark:/12148/btv1b9059263p/canvas/f17#xywh=1431,3896,47,187", 
            "resource": {
                "@type": "cnt:ContentAsText", 
                "chars": "LE", 
                "format": "text/plain"
            }
        }, 
        {
            "@id": "https://manifests.teklia.com/HIMANIS/FR5291/words_annotations/http_gallica.bnf.fr_iiif_ark:_12148_btv1b9059263p_f17_full_full_0_native.jpg.json/160/line", 
            "@type": "oa:Annotation", 
            "motivation": "oa:painting", 
            "on": "http://gallica.bnf.fr/iiif/ark:/12148/btv1b9059263p/canvas/f17#xywh=1712,3896,47,187", 
            "resource": {
                "@type": "cnt:ContentAsText", 
                "chars": "DE", 
                "format": "text/plain"
            }
        }, 
        {
            "@id": "https://manifests.teklia.com/HIMANIS/FR5291/words_annotations/http_gallica.bnf.fr_iiif_ark:_12148_btv1b9059263p_f17_full_full_0_native.jpg.json/161/line", 
            "@type": "oa:Annotation", 
            "motivation": "oa:painting", 
            "on": "http://gallica.bnf.fr/iiif/ark:/12148/btv1b9059263p/canvas/f17#xywh=3529,3652,42,101", 
            "resource": {
                "@type": "cnt:ContentAsText", 
                "chars": "LES", 
                "format": "text/plain"
            }
        }, 
        {
            "@id": "https://manifests.teklia.com/HIMANIS/FR5291/words_annotations/http_gallica.bnf.fr_iiif_ark:_12148_btv1b9059263p_f17_full_full_0_native.jpg.json/162/line", 
            "@type": "oa:Annotation", 
            "motivation": "oa:painting", 
            "on": "http://gallica.bnf.fr/iiif/ark:/12148/btv1b9059263p/canvas/f17#xywh=1574,1158,166,205", 
            "resource": {
                "@type": "cnt:ContentAsText", 
                "chars": "TIENT", 
                "format": "text/plain"
            }
        }, 
        {
            "@id": "https://manifests.teklia.com/HIMANIS/FR5291/words_annotations/http_gallica.bnf.fr_iiif_ark:_12148_btv1b9059263p_f17_full_full_0_native.jpg.json/163/line", 
            "@type": "oa:Annotation", 
            "motivation": "oa:painting", 
            "on": "http://gallica.bnf.fr/iiif/ark:/12148/btv1b9059263p/canvas/f17#xywh=2395,3286,207,208", 
            "resource": {
                "@type": "cnt:ContentAsText", 
                "chars": "ESCHEITA", 
                "format": "text/plain"
            }
        }, 
        {
            "@id": "https://manifests.teklia.com/HIMANIS/FR5291/words_annotations/http_gallica.bnf.fr_iiif_ark:_12148_btv1b9059263p_f17_full_full_0_native.jpg.json/164/line", 
            "@type": "oa:Annotation", 
            "motivation": "oa:painting", 
            "on": "http://gallica.bnf.fr/iiif/ark:/12148/btv1b9059263p/canvas/f17#xywh=1199,2228,403,222", 
            "resource": {
                "@type": "cnt:ContentAsText", 
                "chars": "CHAUMONTEL", 
                "format": "text/plain"
            }
        }, 
        {
            "@id": "https://manifests.teklia.com/HIMANIS/FR5291/words_annotations/http_gallica.bnf.fr_iiif_ark:_12148_btv1b9059263p_f17_full_full_0_native.jpg.json/165/line", 
            "@type": "oa:Annotation", 
            "motivation": "oa:painting", 
            "on": "http://gallica.bnf.fr/iiif/ark:/12148/btv1b9059263p/canvas/f17#xywh=1129,2228,42,222", 
            "resource": {
                "@type": "cnt:ContentAsText", 
                "chars": "DE", 
                "format": "text/plain"
            }
        }, 
        {
            "@id": "https://manifests.teklia.com/HIMANIS/FR5291/words_annotations/http_gallica.bnf.fr_iiif_ark:_12148_btv1b9059263p_f17_full_full_0_native.jpg.json/166/line", 
            "@type": "oa:Annotation", 
            "motivation": "oa:painting", 
            "on": "http://gallica.bnf.fr/iiif/ark:/12148/btv1b9059263p/canvas/f17#xywh=2489,1978,94,166", 
            "resource": {
                "@type": "cnt:ContentAsText", 
                "chars": "ROY", 
                "format": "text/plain"
            }
        }, 
        {
            "@id": "https://manifests.teklia.com/HIMANIS/FR5291/words_annotations/http_gallica.bnf.fr_iiif_ark:_12148_btv1b9059263p_f17_full_full_0_native.jpg.json/167/line", 
            "@type": "oa:Annotation", 
            "motivation": "oa:painting", 
            "on": "http://gallica.bnf.fr/iiif/ark:/12148/btv1b9059263p/canvas/f17#xywh=2346,2503,145,211", 
            "resource": {
                "@type": "cnt:ContentAsText", 
                "chars": "MAIS", 
                "format": "text/plain"
            }
        }, 
        {
            "@id": "https://manifests.teklia.com/HIMANIS/FR5291/words_annotations/http_gallica.bnf.fr_iiif_ark:_12148_btv1b9059263p_f17_full_full_0_native.jpg.json/168/line", 
            "@type": "oa:Annotation", 
            "motivation": "oa:painting", 
            "on": "http://gallica.bnf.fr/iiif/ark:/12148/btv1b9059263p/canvas/f17#xywh=2177,1978,52,166", 
            "resource": {
                "@type": "cnt:ContentAsText", 
                "chars": "DE", 
                "format": "text/plain"
            }
        }, 
        {
            "@id": "https://manifests.teklia.com/HIMANIS/FR5291/words_annotations/http_gallica.bnf.fr_iiif_ark:_12148_btv1b9059263p_f17_full_full_0_native.jpg.json/169/line", 
            "@type": "oa:Annotation", 
            "motivation": "oa:painting", 
            "on": "http://gallica.bnf.fr/iiif/ark:/12148/btv1b9059263p/canvas/f17#xywh=907,2228,181,222", 
            "resource": {
                "@type": "cnt:ContentAsText", 
                "chars": "ALII", 
                "format": "text/plain"
            }
        }, 
        {
            "@id": "https://manifests.teklia.com/HIMANIS/FR5291/words_annotations/http_gallica.bnf.fr_iiif_ark:_12148_btv1b9059263p_f17_full_full_0_native.jpg.json/170/line", 
            "@type": "oa:Annotation", 
            "motivation": "oa:painting", 
            "on": "http://gallica.bnf.fr/iiif/ark:/12148/btv1b9059263p/canvas/f17#xywh=1322,3585,244,195", 
            "resource": {
                "@type": "cnt:ContentAsText", 
                "chars": "MONNE", 
                "format": "text/plain"
            }
        }, 
        {
            "@id": "https://manifests.teklia.com/HIMANIS/FR5291/words_annotations/http_gallica.bnf.fr_iiif_ark:_12148_btv1b9059263p_f17_full_full_0_native.jpg.json/171/line", 
            "@type": "oa:Annotation", 
            "motivation": "oa:painting", 
            "on": "http://gallica.bnf.fr/iiif/ark:/12148/btv1b9059263p/canvas/f17#xywh=1707,1978,157,166", 
            "resource": {
                "@type": "cnt:ContentAsText", 
                "chars": "TIENT", 
                "format": "text/plain"
            }
        }, 
        {
            "@id": "https://manifests.teklia.com/HIMANIS/FR5291/words_annotations/http_gallica.bnf.fr_iiif_ark:_12148_btv1b9059263p_f17_full_full_0_native.jpg.json/172/line", 
            "@type": "oa:Annotation", 
            "motivation": "oa:painting", 
            "on": "http://gallica.bnf.fr/iiif/ark:/12148/btv1b9059263p/canvas/f17#xywh=2055,1414,126,223", 
            "resource": {
                "@type": "cnt:ContentAsText", 
                "chars": "DON", 
                "format": "text/plain"
            }
        }
    ]
}