{
    "@context": "http://iiif.io/api/presentation/2/context.json", 
    "@id": "https://manifests.teklia.com/HIMANIS/JJ134/words_annotations/FRAN_0021_14829.json", 
    "@type": "sc:AnnotationList", 
    "resources": [
        {
            "@id": "https://manifests.teklia.com/HIMANIS/JJ134/words_annotations/FRAN_0021_14829.json/0/line", 
            "@type": "oa:Annotation", 
            "motivation": "oa:painting", 
            "on": "http://bvmm.irht.cnrs.fr/iiif/23719/canvas/canvas-2313374#xywh=218,4334,111,23", 
            "resource": {
                "@type": "cnt:ContentAsText", 
                "chars": "PHIL", 
                "format": "text/plain"
            }
        }, 
        {
            "@id": "https://manifests.teklia.com/HIMANIS/JJ134/words_annotations/FRAN_0021_14829.json/1/line", 
            "@type": "oa:Annotation", 
            "motivation": "oa:painting", 
            "on": "http://bvmm.irht.cnrs.fr/iiif/23719/canvas/canvas-2313374#xywh=218,4334,402,23", 
            "resource": {
                "@type": "cnt:ContentAsText", 
                "chars": "PHEL", 
                "format": "text/plain"
            }
        }, 
        {
            "@id": "https://manifests.teklia.com/HIMANIS/JJ134/words_annotations/FRAN_0021_14829.json/2/line", 
            "@type": "oa:Annotation", 
            "motivation": "oa:painting", 
            "on": "http://bvmm.irht.cnrs.fr/iiif/23719/canvas/canvas-2313374#xywh=57,129,3723,229", 
            "resource": {
                "@type": "cnt:ContentAsText", 
                "chars": "LOONS", 
                "format": "text/plain"
            }
        }, 
        {
            "@id": "https://manifests.teklia.com/HIMANIS/JJ134/words_annotations/FRAN_0021_14829.json/3/line", 
            "@type": "oa:Annotation", 
            "motivation": "oa:painting", 
            "on": "http://bvmm.irht.cnrs.fr/iiif/23719/canvas/canvas-2313374#xywh=145,517,438,76", 
            "resource": {
                "@type": "cnt:ContentAsText", 
                "chars": "ASSIS", 
                "format": "text/plain"
            }
        }, 
        {
            "@id": "https://manifests.teklia.com/HIMANIS/JJ134/words_annotations/FRAN_0021_14829.json/4/line", 
            "@type": "oa:Annotation", 
            "motivation": "oa:painting", 
            "on": "http://bvmm.irht.cnrs.fr/iiif/23719/canvas/canvas-2313374#xywh=341,1047,131,30", 
            "resource": {
                "@type": "cnt:ContentAsText", 
                "chars": "QUANQUAM", 
                "format": "text/plain"
            }
        }, 
        {
            "@id": "https://manifests.teklia.com/HIMANIS/JJ134/words_annotations/FRAN_0021_14829.json/5/line", 
            "@type": "oa:Annotation", 
            "motivation": "oa:painting", 
            "on": "http://bvmm.irht.cnrs.fr/iiif/23719/canvas/canvas-2313374#xywh=145,517,438,76", 
            "resource": {
                "@type": "cnt:ContentAsText", 
                "chars": "PASSIS", 
                "format": "text/plain"
            }
        }, 
        {
            "@id": "https://manifests.teklia.com/HIMANIS/JJ134/words_annotations/FRAN_0021_14829.json/6/line", 
            "@type": "oa:Annotation", 
            "motivation": "oa:painting", 
            "on": "http://bvmm.irht.cnrs.fr/iiif/23719/canvas/canvas-2313374#xywh=341,1047,131,30", 
            "resource": {
                "@type": "cnt:ContentAsText", 
                "chars": "QUAM", 
                "format": "text/plain"
            }
        }, 
        {
            "@id": "https://manifests.teklia.com/HIMANIS/JJ134/words_annotations/FRAN_0021_14829.json/7/line", 
            "@type": "oa:Annotation", 
            "motivation": "oa:painting", 
            "on": "http://bvmm.irht.cnrs.fr/iiif/23719/canvas/canvas-2313374#xywh=341,1047,131,30", 
            "resource": {
                "@type": "cnt:ContentAsText", 
                "chars": "QUINQUE", 
                "format": "text/plain"
            }
        }, 
        {
            "@id": "https://manifests.teklia.com/HIMANIS/JJ134/words_annotations/FRAN_0021_14829.json/8/line", 
            "@type": "oa:Annotation", 
            "motivation": "oa:painting", 
            "on": "http://bvmm.irht.cnrs.fr/iiif/23719/canvas/canvas-2313374#xywh=3611,354,201,65", 
            "resource": {
                "@type": "cnt:ContentAsText", 
                "chars": "LES", 
                "format": "text/plain"
            }
        }, 
        {
            "@id": "https://manifests.teklia.com/HIMANIS/JJ134/words_annotations/FRAN_0021_14829.json/9/line", 
            "@type": "oa:Annotation", 
            "motivation": "oa:painting", 
            "on": "http://bvmm.irht.cnrs.fr/iiif/23719/canvas/canvas-2313374#xywh=2192,3917,0,65", 
            "resource": {
                "@type": "cnt:ContentAsText", 
                "chars": "P", 
                "format": "text/plain"
            }
        }, 
        {
            "@id": "https://manifests.teklia.com/HIMANIS/JJ134/words_annotations/FRAN_0021_14829.json/10/line", 
            "@type": "oa:Annotation", 
            "motivation": "oa:painting", 
            "on": "http://bvmm.irht.cnrs.fr/iiif/23719/canvas/canvas-2313374#xywh=2192,3917,0,65", 
            "resource": {
                "@type": "cnt:ContentAsText", 
                "chars": "R", 
                "format": "text/plain"
            }
        }, 
        {
            "@id": "https://manifests.teklia.com/HIMANIS/JJ134/words_annotations/FRAN_0021_14829.json/11/line", 
            "@type": "oa:Annotation", 
            "motivation": "oa:painting", 
            "on": "http://bvmm.irht.cnrs.fr/iiif/23719/canvas/canvas-2313374#xywh=207,3487,256,29", 
            "resource": {
                "@type": "cnt:ContentAsText", 
                "chars": "PHILIPPUS", 
                "format": "text/plain"
            }
        }, 
        {
            "@id": "https://manifests.teklia.com/HIMANIS/JJ134/words_annotations/FRAN_0021_14829.json/12/line", 
            "@type": "oa:Annotation", 
            "motivation": "oa:painting", 
            "on": "http://bvmm.irht.cnrs.fr/iiif/23719/canvas/canvas-2313374#xywh=177,2966,383,56", 
            "resource": {
                "@type": "cnt:ContentAsText", 
                "chars": "DESSUS", 
                "format": "text/plain"
            }
        }, 
        {
            "@id": "https://manifests.teklia.com/HIMANIS/JJ134/words_annotations/FRAN_0021_14829.json/13/line", 
            "@type": "oa:Annotation", 
            "motivation": "oa:painting", 
            "on": "http://bvmm.irht.cnrs.fr/iiif/23719/canvas/canvas-2313374#xywh=3400,2838,382,125", 
            "resource": {
                "@type": "cnt:ContentAsText", 
                "chars": "DE", 
                "format": "text/plain"
            }
        }, 
        {
            "@id": "https://manifests.teklia.com/HIMANIS/JJ134/words_annotations/FRAN_0021_14829.json/14/line", 
            "@type": "oa:Annotation", 
            "motivation": "oa:painting", 
            "on": "http://bvmm.irht.cnrs.fr/iiif/23719/canvas/canvas-2313374#xywh=197,3062,319,70", 
            "resource": {
                "@type": "cnt:ContentAsText", 
                "chars": "DESSUS", 
                "format": "text/plain"
            }
        }, 
        {
            "@id": "https://manifests.teklia.com/HIMANIS/JJ134/words_annotations/FRAN_0021_14829.json/15/line", 
            "@type": "oa:Annotation", 
            "motivation": "oa:painting", 
            "on": "http://bvmm.irht.cnrs.fr/iiif/23719/canvas/canvas-2313374#xywh=189,3514,172,58", 
            "resource": {
                "@type": "cnt:ContentAsText", 
                "chars": "SIS", 
                "format": "text/plain"
            }
        }, 
        {
            "@id": "https://manifests.teklia.com/HIMANIS/JJ134/words_annotations/FRAN_0021_14829.json/16/line", 
            "@type": "oa:Annotation", 
            "motivation": "oa:painting", 
            "on": "http://bvmm.irht.cnrs.fr/iiif/23719/canvas/canvas-2313374#xywh=322,3317,135,21", 
            "resource": {
                "@type": "cnt:ContentAsText", 
                "chars": "ECIALI", 
                "format": "text/plain"
            }
        }, 
        {
            "@id": "https://manifests.teklia.com/HIMANIS/JJ134/words_annotations/FRAN_0021_14829.json/17/line", 
            "@type": "oa:Annotation", 
            "motivation": "oa:painting", 
            "on": "http://bvmm.irht.cnrs.fr/iiif/23719/canvas/canvas-2313374#xywh=322,3317,95,21", 
            "resource": {
                "@type": "cnt:ContentAsText", 
                "chars": "ENVIRO", 
                "format": "text/plain"
            }
        }, 
        {
            "@id": "https://manifests.teklia.com/HIMANIS/JJ134/words_annotations/FRAN_0021_14829.json/18/line", 
            "@type": "oa:Annotation", 
            "motivation": "oa:painting", 
            "on": "http://bvmm.irht.cnrs.fr/iiif/23719/canvas/canvas-2313374#xywh=189,3514,731,58", 
            "resource": {
                "@type": "cnt:ContentAsText", 
                "chars": "SISS", 
                "format": "text/plain"
            }
        }, 
        {
            "@id": "https://manifests.teklia.com/HIMANIS/JJ134/words_annotations/FRAN_0021_14829.json/19/line", 
            "@type": "oa:Annotation", 
            "motivation": "oa:painting", 
            "on": "http://bvmm.irht.cnrs.fr/iiif/23719/canvas/canvas-2313374#xywh=498,4574,1224,121", 
            "resource": {
                "@type": "cnt:ContentAsText", 
                "chars": "LE", 
                "format": "text/plain"
            }
        }, 
        {
            "@id": "https://manifests.teklia.com/HIMANIS/JJ134/words_annotations/FRAN_0021_14829.json/20/line", 
            "@type": "oa:Annotation", 
            "motivation": "oa:painting", 
            "on": "http://bvmm.irht.cnrs.fr/iiif/23719/canvas/canvas-2313374#xywh=498,4574,2473,121", 
            "resource": {
                "@type": "cnt:ContentAsText", 
                "chars": "DE", 
                "format": "text/plain"
            }
        }, 
        {
            "@id": "https://manifests.teklia.com/HIMANIS/JJ134/words_annotations/FRAN_0021_14829.json/21/line", 
            "@type": "oa:Annotation", 
            "motivation": "oa:painting", 
            "on": "http://bvmm.irht.cnrs.fr/iiif/23719/canvas/canvas-2313374#xywh=3611,354,152,65", 
            "resource": {
                "@type": "cnt:ContentAsText", 
                "chars": "DE", 
                "format": "text/plain"
            }
        }, 
        {
            "@id": "https://manifests.teklia.com/HIMANIS/JJ134/words_annotations/FRAN_0021_14829.json/22/line", 
            "@type": "oa:Annotation", 
            "motivation": "oa:painting", 
            "on": "http://bvmm.irht.cnrs.fr/iiif/23719/canvas/canvas-2313374#xywh=186,3565,631,78", 
            "resource": {
                "@type": "cnt:ContentAsText", 
                "chars": "CESSESSION", 
                "format": "text/plain"
            }
        }, 
        {
            "@id": "https://manifests.teklia.com/HIMANIS/JJ134/words_annotations/FRAN_0021_14829.json/23/line", 
            "@type": "oa:Annotation", 
            "motivation": "oa:painting", 
            "on": "http://bvmm.irht.cnrs.fr/iiif/23719/canvas/canvas-2313374#xywh=308,3983,84,31", 
            "resource": {
                "@type": "cnt:ContentAsText", 
                "chars": "STABLISSIS", 
                "format": "text/plain"
            }
        }, 
        {
            "@id": "https://manifests.teklia.com/HIMANIS/JJ134/words_annotations/FRAN_0021_14829.json/24/line", 
            "@type": "oa:Annotation", 
            "motivation": "oa:painting", 
            "on": "http://bvmm.irht.cnrs.fr/iiif/23719/canvas/canvas-2313374#xywh=332,1871,90,51", 
            "resource": {
                "@type": "cnt:ContentAsText", 
                "chars": "SU", 
                "format": "text/plain"
            }
        }, 
        {
            "@id": "https://manifests.teklia.com/HIMANIS/JJ134/words_annotations/FRAN_0021_14829.json/25/line", 
            "@type": "oa:Annotation", 
            "motivation": "oa:painting", 
            "on": "http://bvmm.irht.cnrs.fr/iiif/23719/canvas/canvas-2313374#xywh=140,1491,412,81", 
            "resource": {
                "@type": "cnt:ContentAsText", 
                "chars": "PRESSUS", 
                "format": "text/plain"
            }
        }, 
        {
            "@id": "https://manifests.teklia.com/HIMANIS/JJ134/words_annotations/FRAN_0021_14829.json/26/line", 
            "@type": "oa:Annotation", 
            "motivation": "oa:painting", 
            "on": "http://bvmm.irht.cnrs.fr/iiif/23719/canvas/canvas-2313374#xywh=498,4574,2310,121", 
            "resource": {
                "@type": "cnt:ContentAsText", 
                "chars": "LES", 
                "format": "text/plain"
            }
        }, 
        {
            "@id": "https://manifests.teklia.com/HIMANIS/JJ134/words_annotations/FRAN_0021_14829.json/27/line", 
            "@type": "oa:Annotation", 
            "motivation": "oa:painting", 
            "on": "http://bvmm.irht.cnrs.fr/iiif/23719/canvas/canvas-2313374#xywh=3400,2838,398,125", 
            "resource": {
                "@type": "cnt:ContentAsText", 
                "chars": "ET", 
                "format": "text/plain"
            }
        }, 
        {
            "@id": "https://manifests.teklia.com/HIMANIS/JJ134/words_annotations/FRAN_0021_14829.json/28/line", 
            "@type": "oa:Annotation", 
            "motivation": "oa:painting", 
            "on": "http://bvmm.irht.cnrs.fr/iiif/23719/canvas/canvas-2313374#xywh=209,3634,487,43", 
            "resource": {
                "@type": "cnt:ContentAsText", 
                "chars": "PRESSUS", 
                "format": "text/plain"
            }
        }, 
        {
            "@id": "https://manifests.teklia.com/HIMANIS/JJ134/words_annotations/FRAN_0021_14829.json/29/line", 
            "@type": "oa:Annotation", 
            "motivation": "oa:painting", 
            "on": "http://bvmm.irht.cnrs.fr/iiif/23719/canvas/canvas-2313374#xywh=341,1047,131,30", 
            "resource": {
                "@type": "cnt:ContentAsText", 
                "chars": "QUELQUE", 
                "format": "text/plain"
            }
        }, 
        {
            "@id": "https://manifests.teklia.com/HIMANIS/JJ134/words_annotations/FRAN_0021_14829.json/30/line", 
            "@type": "oa:Annotation", 
            "motivation": "oa:painting", 
            "on": "http://bvmm.irht.cnrs.fr/iiif/23719/canvas/canvas-2313374#xywh=140,1491,412,81", 
            "resource": {
                "@type": "cnt:ContentAsText", 
                "chars": "DESSUS", 
                "format": "text/plain"
            }
        }, 
        {
            "@id": "https://manifests.teklia.com/HIMANIS/JJ134/words_annotations/FRAN_0021_14829.json/31/line", 
            "@type": "oa:Annotation", 
            "motivation": "oa:painting", 
            "on": "http://bvmm.irht.cnrs.fr/iiif/23719/canvas/canvas-2313374#xywh=153,1651,358,81", 
            "resource": {
                "@type": "cnt:ContentAsText", 
                "chars": "PRESSUS", 
                "format": "text/plain"
            }
        }, 
        {
            "@id": "https://manifests.teklia.com/HIMANIS/JJ134/words_annotations/FRAN_0021_14829.json/32/line", 
            "@type": "oa:Annotation", 
            "motivation": "oa:painting", 
            "on": "http://bvmm.irht.cnrs.fr/iiif/23719/canvas/canvas-2313374#xywh=325,3340,35,39", 
            "resource": {
                "@type": "cnt:ContentAsText", 
                "chars": "LES", 
                "format": "text/plain"
            }
        }, 
        {
            "@id": "https://manifests.teklia.com/HIMANIS/JJ134/words_annotations/FRAN_0021_14829.json/33/line", 
            "@type": "oa:Annotation", 
            "motivation": "oa:painting", 
            "on": "http://bvmm.irht.cnrs.fr/iiif/23719/canvas/canvas-2313374#xywh=153,1651,358,81", 
            "resource": {
                "@type": "cnt:ContentAsText", 
                "chars": "DESSUS", 
                "format": "text/plain"
            }
        }, 
        {
            "@id": "https://manifests.teklia.com/HIMANIS/JJ134/words_annotations/FRAN_0021_14829.json/34/line", 
            "@type": "oa:Annotation", 
            "motivation": "oa:painting", 
            "on": "http://bvmm.irht.cnrs.fr/iiif/23719/canvas/canvas-2313374#xywh=308,3983,84,31", 
            "resource": {
                "@type": "cnt:ContentAsText", 
                "chars": "SESSISSIS", 
                "format": "text/plain"
            }
        }, 
        {
            "@id": "https://manifests.teklia.com/HIMANIS/JJ134/words_annotations/FRAN_0021_14829.json/35/line", 
            "@type": "oa:Annotation", 
            "motivation": "oa:painting", 
            "on": "http://bvmm.irht.cnrs.fr/iiif/23719/canvas/canvas-2313374#xywh=308,3983,203,31", 
            "resource": {
                "@type": "cnt:ContentAsText", 
                "chars": "SESSISSET", 
                "format": "text/plain"
            }
        }, 
        {
            "@id": "https://manifests.teklia.com/HIMANIS/JJ134/words_annotations/FRAN_0021_14829.json/36/line", 
            "@type": "oa:Annotation", 
            "motivation": "oa:painting", 
            "on": "http://bvmm.irht.cnrs.fr/iiif/23719/canvas/canvas-2313374#xywh=498,4574,2334,121", 
            "resource": {
                "@type": "cnt:ContentAsText", 
                "chars": "ET", 
                "format": "text/plain"
            }
        }, 
        {
            "@id": "https://manifests.teklia.com/HIMANIS/JJ134/words_annotations/FRAN_0021_14829.json/37/line", 
            "@type": "oa:Annotation", 
            "motivation": "oa:painting", 
            "on": "http://bvmm.irht.cnrs.fr/iiif/23719/canvas/canvas-2313374#xywh=849,4574,163,121", 
            "resource": {
                "@type": "cnt:ContentAsText", 
                "chars": "AV", 
                "format": "text/plain"
            }
        }, 
        {
            "@id": "https://manifests.teklia.com/HIMANIS/JJ134/words_annotations/FRAN_0021_14829.json/38/line", 
            "@type": "oa:Annotation", 
            "motivation": "oa:painting", 
            "on": "http://bvmm.irht.cnrs.fr/iiif/23719/canvas/canvas-2313374#xywh=206,3376,182,43", 
            "resource": {
                "@type": "cnt:ContentAsText", 
                "chars": "PHILIPPUS", 
                "format": "text/plain"
            }
        }, 
        {
            "@id": "https://manifests.teklia.com/HIMANIS/JJ134/words_annotations/FRAN_0021_14829.json/39/line", 
            "@type": "oa:Annotation", 
            "motivation": "oa:painting", 
            "on": "http://bvmm.irht.cnrs.fr/iiif/23719/canvas/canvas-2313374#xywh=3611,354,169,65", 
            "resource": {
                "@type": "cnt:ContentAsText", 
                "chars": "ET", 
                "format": "text/plain"
            }
        }, 
        {
            "@id": "https://manifests.teklia.com/HIMANIS/JJ134/words_annotations/FRAN_0021_14829.json/40/line", 
            "@type": "oa:Annotation", 
            "motivation": "oa:painting", 
            "on": "http://bvmm.irht.cnrs.fr/iiif/23719/canvas/canvas-2313374#xywh=206,3376,182,43", 
            "resource": {
                "@type": "cnt:ContentAsText", 
                "chars": "PHILIPPES", 
                "format": "text/plain"
            }
        }, 
        {
            "@id": "https://manifests.teklia.com/HIMANIS/JJ134/words_annotations/FRAN_0021_14829.json/41/line", 
            "@type": "oa:Annotation", 
            "motivation": "oa:painting", 
            "on": "http://bvmm.irht.cnrs.fr/iiif/23719/canvas/canvas-2313374#xywh=189,3514,720,58", 
            "resource": {
                "@type": "cnt:ContentAsText", 
                "chars": "DESSU", 
                "format": "text/plain"
            }
        }, 
        {
            "@id": "https://manifests.teklia.com/HIMANIS/JJ134/words_annotations/FRAN_0021_14829.json/42/line", 
            "@type": "oa:Annotation", 
            "motivation": "oa:painting", 
            "on": "http://bvmm.irht.cnrs.fr/iiif/23719/canvas/canvas-2313374#xywh=130,871,276,71", 
            "resource": {
                "@type": "cnt:ContentAsText", 
                "chars": "PHILIPPUS", 
                "format": "text/plain"
            }
        }, 
        {
            "@id": "https://manifests.teklia.com/HIMANIS/JJ134/words_annotations/FRAN_0021_14829.json/43/line", 
            "@type": "oa:Annotation", 
            "motivation": "oa:painting", 
            "on": "http://bvmm.irht.cnrs.fr/iiif/23719/canvas/canvas-2313374#xywh=130,871,276,71", 
            "resource": {
                "@type": "cnt:ContentAsText", 
                "chars": "PHILIPPES", 
                "format": "text/plain"
            }
        }, 
        {
            "@id": "https://manifests.teklia.com/HIMANIS/JJ134/words_annotations/FRAN_0021_14829.json/44/line", 
            "@type": "oa:Annotation", 
            "motivation": "oa:painting", 
            "on": "http://bvmm.irht.cnrs.fr/iiif/23719/canvas/canvas-2313374#xywh=325,3340,214,39", 
            "resource": {
                "@type": "cnt:ContentAsText", 
                "chars": "ASSIS", 
                "format": "text/plain"
            }
        }, 
        {
            "@id": "https://manifests.teklia.com/HIMANIS/JJ134/words_annotations/FRAN_0021_14829.json/45/line", 
            "@type": "oa:Annotation", 
            "motivation": "oa:painting", 
            "on": "http://bvmm.irht.cnrs.fr/iiif/23719/canvas/canvas-2313374#xywh=322,3317,54,21", 
            "resource": {
                "@type": "cnt:ContentAsText", 
                "chars": "ECIAL", 
                "format": "text/plain"
            }
        }, 
        {
            "@id": "https://manifests.teklia.com/HIMANIS/JJ134/words_annotations/FRAN_0021_14829.json/46/line", 
            "@type": "oa:Annotation", 
            "motivation": "oa:painting", 
            "on": "http://bvmm.irht.cnrs.fr/iiif/23719/canvas/canvas-2313374#xywh=186,3565,695,78", 
            "resource": {
                "@type": "cnt:ContentAsText", 
                "chars": "ESSESSIONE", 
                "format": "text/plain"
            }
        }, 
        {
            "@id": "https://manifests.teklia.com/HIMANIS/JJ134/words_annotations/FRAN_0021_14829.json/47/line", 
            "@type": "oa:Annotation", 
            "motivation": "oa:painting", 
            "on": "http://bvmm.irht.cnrs.fr/iiif/23719/canvas/canvas-2313374#xywh=197,3062,319,70", 
            "resource": {
                "@type": "cnt:ContentAsText", 
                "chars": "PRESSUS", 
                "format": "text/plain"
            }
        }, 
        {
            "@id": "https://manifests.teklia.com/HIMANIS/JJ134/words_annotations/FRAN_0021_14829.json/48/line", 
            "@type": "oa:Annotation", 
            "motivation": "oa:painting", 
            "on": "http://bvmm.irht.cnrs.fr/iiif/23719/canvas/canvas-2313374#xywh=186,3565,631,78", 
            "resource": {
                "@type": "cnt:ContentAsText", 
                "chars": "ESSESSION", 
                "format": "text/plain"
            }
        }, 
        {
            "@id": "https://manifests.teklia.com/HIMANIS/JJ134/words_annotations/FRAN_0021_14829.json/49/line", 
            "@type": "oa:Annotation", 
            "motivation": "oa:painting", 
            "on": "http://bvmm.irht.cnrs.fr/iiif/23719/canvas/canvas-2313374#xywh=322,3317,216,21", 
            "resource": {
                "@type": "cnt:ContentAsText", 
                "chars": "ECCLESI", 
                "format": "text/plain"
            }
        }, 
        {
            "@id": "https://manifests.teklia.com/HIMANIS/JJ134/words_annotations/FRAN_0021_14829.json/50/line", 
            "@type": "oa:Annotation", 
            "motivation": "oa:painting", 
            "on": "http://bvmm.irht.cnrs.fr/iiif/23719/canvas/canvas-2313374#xywh=240,3011,332,52", 
            "resource": {
                "@type": "cnt:ContentAsText", 
                "chars": "DESSUS", 
                "format": "text/plain"
            }
        }, 
        {
            "@id": "https://manifests.teklia.com/HIMANIS/JJ134/words_annotations/FRAN_0021_14829.json/51/line", 
            "@type": "oa:Annotation", 
            "motivation": "oa:painting", 
            "on": "http://bvmm.irht.cnrs.fr/iiif/23719/canvas/canvas-2313374#xywh=171,1871,251,51", 
            "resource": {
                "@type": "cnt:ContentAsText", 
                "chars": "DESSUS", 
                "format": "text/plain"
            }
        }, 
        {
            "@id": "https://manifests.teklia.com/HIMANIS/JJ134/words_annotations/FRAN_0021_14829.json/52/line", 
            "@type": "oa:Annotation", 
            "motivation": "oa:painting", 
            "on": "http://bvmm.irht.cnrs.fr/iiif/23719/canvas/canvas-2313374#xywh=198,3420,0,26", 
            "resource": {
                "@type": "cnt:ContentAsText", 
                "chars": "P", 
                "format": "text/plain"
            }
        }, 
        {
            "@id": "https://manifests.teklia.com/HIMANIS/JJ134/words_annotations/FRAN_0021_14829.json/53/line", 
            "@type": "oa:Annotation", 
            "motivation": "oa:painting", 
            "on": "http://bvmm.irht.cnrs.fr/iiif/23719/canvas/canvas-2313374#xywh=171,1871,145,51", 
            "resource": {
                "@type": "cnt:ContentAsText", 
                "chars": "ET", 
                "format": "text/plain"
            }
        }, 
        {
            "@id": "https://manifests.teklia.com/HIMANIS/JJ134/words_annotations/FRAN_0021_14829.json/54/line", 
            "@type": "oa:Annotation", 
            "motivation": "oa:painting", 
            "on": "http://bvmm.irht.cnrs.fr/iiif/23719/canvas/canvas-2313374#xywh=180,2934,215,38", 
            "resource": {
                "@type": "cnt:ContentAsText", 
                "chars": "PHILIPPUS", 
                "format": "text/plain"
            }
        }, 
        {
            "@id": "https://manifests.teklia.com/HIMANIS/JJ134/words_annotations/FRAN_0021_14829.json/55/line", 
            "@type": "oa:Annotation", 
            "motivation": "oa:painting", 
            "on": "http://bvmm.irht.cnrs.fr/iiif/23719/canvas/canvas-2313374#xywh=180,2934,215,38", 
            "resource": {
                "@type": "cnt:ContentAsText", 
                "chars": "PHILIPPES", 
                "format": "text/plain"
            }
        }, 
        {
            "@id": "https://manifests.teklia.com/HIMANIS/JJ134/words_annotations/FRAN_0021_14829.json/56/line", 
            "@type": "oa:Annotation", 
            "motivation": "oa:painting", 
            "on": "http://bvmm.irht.cnrs.fr/iiif/23719/canvas/canvas-2313374#xywh=189,3514,713,58", 
            "resource": {
                "@type": "cnt:ContentAsText", 
                "chars": "ESSE", 
                "format": "text/plain"
            }
        }, 
        {
            "@id": "https://manifests.teklia.com/HIMANIS/JJ134/words_annotations/FRAN_0021_14829.json/57/line", 
            "@type": "oa:Annotation", 
            "motivation": "oa:painting", 
            "on": "http://bvmm.irht.cnrs.fr/iiif/23719/canvas/canvas-2313374#xywh=198,3420,32,26", 
            "resource": {
                "@type": "cnt:ContentAsText", 
                "chars": "PHIL", 
                "format": "text/plain"
            }
        }
    ]
}