{
    "@context": "http://iiif.io/api/presentation/2/context.json", 
    "@id": "https://manifests.teklia.com/HIMANIS/LAT9778/words_annotations/http_gallica.bnf.fr_iiif_ark:_12148_btv1b90683044_f180_full_full_0_native.jpg.json", 
    "@type": "sc:AnnotationList", 
    "resources": [
        {
            "@id": "https://manifests.teklia.com/HIMANIS/LAT9778/words_annotations/http_gallica.bnf.fr_iiif_ark:_12148_btv1b90683044_f180_full_full_0_native.jpg.json/0/line", 
            "@type": "oa:Annotation", 
            "motivation": "oa:painting", 
            "on": "http://gallica.bnf.fr/iiif/ark:/12148/btv1b90683044/canvas/f180#xywh=536,493,1375,72", 
            "resource": {
                "@type": "cnt:ContentAsText", 
                "chars": "PAR", 
                "format": "text/plain"
            }
        }, 
        {
            "@id": "https://manifests.teklia.com/HIMANIS/LAT9778/words_annotations/http_gallica.bnf.fr_iiif_ark:_12148_btv1b90683044_f180_full_full_0_native.jpg.json/1/line", 
            "@type": "oa:Annotation", 
            "motivation": "oa:painting", 
            "on": "http://gallica.bnf.fr/iiif/ark:/12148/btv1b90683044/canvas/f180#xywh=3352,5741,132,150", 
            "resource": {
                "@type": "cnt:ContentAsText", 
                "chars": "AUS", 
                "format": "text/plain"
            }
        }, 
        {
            "@id": "https://manifests.teklia.com/HIMANIS/LAT9778/words_annotations/http_gallica.bnf.fr_iiif_ark:_12148_btv1b90683044_f180_full_full_0_native.jpg.json/2/line", 
            "@type": "oa:Annotation", 
            "motivation": "oa:painting", 
            "on": "http://gallica.bnf.fr/iiif/ark:/12148/btv1b90683044/canvas/f180#xywh=1915,493,37,72", 
            "resource": {
                "@type": "cnt:ContentAsText", 
                "chars": "LES", 
                "format": "text/plain"
            }
        }, 
        {
            "@id": "https://manifests.teklia.com/HIMANIS/LAT9778/words_annotations/http_gallica.bnf.fr_iiif_ark:_12148_btv1b90683044_f180_full_full_0_native.jpg.json/3/line", 
            "@type": "oa:Annotation", 
            "motivation": "oa:painting", 
            "on": "http://gallica.bnf.fr/iiif/ark:/12148/btv1b90683044/canvas/f180#xywh=536,493,1411,72", 
            "resource": {
                "@type": "cnt:ContentAsText", 
                "chars": "AUTRES", 
                "format": "text/plain"
            }
        }, 
        {
            "@id": "https://manifests.teklia.com/HIMANIS/LAT9778/words_annotations/http_gallica.bnf.fr_iiif_ark:_12148_btv1b90683044_f180_full_full_0_native.jpg.json/4/line", 
            "@type": "oa:Annotation", 
            "motivation": "oa:painting", 
            "on": "http://gallica.bnf.fr/iiif/ark:/12148/btv1b90683044/canvas/f180#xywh=4579,3442,60,35", 
            "resource": {
                "@type": "cnt:ContentAsText", 
                "chars": "LES", 
                "format": "text/plain"
            }
        }, 
        {
            "@id": "https://manifests.teklia.com/HIMANIS/LAT9778/words_annotations/http_gallica.bnf.fr_iiif_ark:_12148_btv1b90683044_f180_full_full_0_native.jpg.json/5/line", 
            "@type": "oa:Annotation", 
            "motivation": "oa:painting", 
            "on": "http://gallica.bnf.fr/iiif/ark:/12148/btv1b90683044/canvas/f180#xywh=1939,1233,269,56", 
            "resource": {
                "@type": "cnt:ContentAsText", 
                "chars": "DENDA", 
                "format": "text/plain"
            }
        }, 
        {
            "@id": "https://manifests.teklia.com/HIMANIS/LAT9778/words_annotations/http_gallica.bnf.fr_iiif_ark:_12148_btv1b90683044_f180_full_full_0_native.jpg.json/6/line", 
            "@type": "oa:Annotation", 
            "motivation": "oa:painting", 
            "on": "http://gallica.bnf.fr/iiif/ark:/12148/btv1b90683044/canvas/f180#xywh=1594,2399,0,40", 
            "resource": {
                "@type": "cnt:ContentAsText", 
                "chars": "J", 
                "format": "text/plain"
            }
        }, 
        {
            "@id": "https://manifests.teklia.com/HIMANIS/LAT9778/words_annotations/http_gallica.bnf.fr_iiif_ark:_12148_btv1b90683044_f180_full_full_0_native.jpg.json/7/line", 
            "@type": "oa:Annotation", 
            "motivation": "oa:painting", 
            "on": "http://gallica.bnf.fr/iiif/ark:/12148/btv1b90683044/canvas/f180#xywh=2577,5697,189,44", 
            "resource": {
                "@type": "cnt:ContentAsText", 
                "chars": "POITIER", 
                "format": "text/plain"
            }
        }, 
        {
            "@id": "https://manifests.teklia.com/HIMANIS/LAT9778/words_annotations/http_gallica.bnf.fr_iiif_ark:_12148_btv1b90683044_f180_full_full_0_native.jpg.json/8/line", 
            "@type": "oa:Annotation", 
            "motivation": "oa:painting", 
            "on": "http://gallica.bnf.fr/iiif/ark:/12148/btv1b90683044/canvas/f180#xywh=2939,5741,207,150", 
            "resource": {
                "@type": "cnt:ContentAsText", 
                "chars": "RORDIER", 
                "format": "text/plain"
            }
        }, 
        {
            "@id": "https://manifests.teklia.com/HIMANIS/LAT9778/words_annotations/http_gallica.bnf.fr_iiif_ark:_12148_btv1b90683044_f180_full_full_0_native.jpg.json/9/line", 
            "@type": "oa:Annotation", 
            "motivation": "oa:painting", 
            "on": "http://gallica.bnf.fr/iiif/ark:/12148/btv1b90683044/canvas/f180#xywh=2939,5741,207,150", 
            "resource": {
                "@type": "cnt:ContentAsText", 
                "chars": "CORDIER", 
                "format": "text/plain"
            }
        }, 
        {
            "@id": "https://manifests.teklia.com/HIMANIS/LAT9778/words_annotations/http_gallica.bnf.fr_iiif_ark:_12148_btv1b90683044_f180_full_full_0_native.jpg.json/10/line", 
            "@type": "oa:Annotation", 
            "motivation": "oa:painting", 
            "on": "http://gallica.bnf.fr/iiif/ark:/12148/btv1b90683044/canvas/f180#xywh=2939,5741,254,150", 
            "resource": {
                "@type": "cnt:ContentAsText", 
                "chars": "FORDIERS", 
                "format": "text/plain"
            }
        }, 
        {
            "@id": "https://manifests.teklia.com/HIMANIS/LAT9778/words_annotations/http_gallica.bnf.fr_iiif_ark:_12148_btv1b90683044_f180_full_full_0_native.jpg.json/11/line", 
            "@type": "oa:Annotation", 
            "motivation": "oa:painting", 
            "on": "http://gallica.bnf.fr/iiif/ark:/12148/btv1b90683044/canvas/f180#xywh=536,493,1379,72", 
            "resource": {
                "@type": "cnt:ContentAsText", 
                "chars": "AUTRE", 
                "format": "text/plain"
            }
        }, 
        {
            "@id": "https://manifests.teklia.com/HIMANIS/LAT9778/words_annotations/http_gallica.bnf.fr_iiif_ark:_12148_btv1b90683044_f180_full_full_0_native.jpg.json/12/line", 
            "@type": "oa:Annotation", 
            "motivation": "oa:painting", 
            "on": "http://gallica.bnf.fr/iiif/ark:/12148/btv1b90683044/canvas/f180#xywh=2554,5741,0,150", 
            "resource": {
                "@type": "cnt:ContentAsText", 
                "chars": "J", 
                "format": "text/plain"
            }
        }, 
        {
            "@id": "https://manifests.teklia.com/HIMANIS/LAT9778/words_annotations/http_gallica.bnf.fr_iiif_ark:_12148_btv1b90683044_f180_full_full_0_native.jpg.json/13/line", 
            "@type": "oa:Annotation", 
            "motivation": "oa:painting", 
            "on": "http://gallica.bnf.fr/iiif/ark:/12148/btv1b90683044/canvas/f180#xywh=2554,5741,0,150", 
            "resource": {
                "@type": "cnt:ContentAsText", 
                "chars": "P", 
                "format": "text/plain"
            }
        }, 
        {
            "@id": "https://manifests.teklia.com/HIMANIS/LAT9778/words_annotations/http_gallica.bnf.fr_iiif_ark:_12148_btv1b90683044_f180_full_full_0_native.jpg.json/14/line", 
            "@type": "oa:Annotation", 
            "motivation": "oa:painting", 
            "on": "http://gallica.bnf.fr/iiif/ark:/12148/btv1b90683044/canvas/f180#xywh=1915,493,37,72", 
            "resource": {
                "@type": "cnt:ContentAsText", 
                "chars": "LE", 
                "format": "text/plain"
            }
        }, 
        {
            "@id": "https://manifests.teklia.com/HIMANIS/LAT9778/words_annotations/http_gallica.bnf.fr_iiif_ark:_12148_btv1b90683044_f180_full_full_0_native.jpg.json/15/line", 
            "@type": "oa:Annotation", 
            "motivation": "oa:painting", 
            "on": "http://gallica.bnf.fr/iiif/ark:/12148/btv1b90683044/canvas/f180#xywh=2577,5697,173,44", 
            "resource": {
                "@type": "cnt:ContentAsText", 
                "chars": "PHILIPP", 
                "format": "text/plain"
            }
        }, 
        {
            "@id": "https://manifests.teklia.com/HIMANIS/LAT9778/words_annotations/http_gallica.bnf.fr_iiif_ark:_12148_btv1b90683044_f180_full_full_0_native.jpg.json/16/line", 
            "@type": "oa:Annotation", 
            "motivation": "oa:painting", 
            "on": "http://gallica.bnf.fr/iiif/ark:/12148/btv1b90683044/canvas/f180#xywh=3495,5861,0,95", 
            "resource": {
                "@type": "cnt:ContentAsText", 
                "chars": "H", 
                "format": "text/plain"
            }
        }, 
        {
            "@id": "https://manifests.teklia.com/HIMANIS/LAT9778/words_annotations/http_gallica.bnf.fr_iiif_ark:_12148_btv1b90683044_f180_full_full_0_native.jpg.json/17/line", 
            "@type": "oa:Annotation", 
            "motivation": "oa:painting", 
            "on": "http://gallica.bnf.fr/iiif/ark:/12148/btv1b90683044/canvas/f180#xywh=3495,5861,0,95", 
            "resource": {
                "@type": "cnt:ContentAsText", 
                "chars": "J", 
                "format": "text/plain"
            }
        }, 
        {
            "@id": "https://manifests.teklia.com/HIMANIS/LAT9778/words_annotations/http_gallica.bnf.fr_iiif_ark:_12148_btv1b90683044_f180_full_full_0_native.jpg.json/18/line", 
            "@type": "oa:Annotation", 
            "motivation": "oa:painting", 
            "on": "http://gallica.bnf.fr/iiif/ark:/12148/btv1b90683044/canvas/f180#xywh=3495,5861,0,95", 
            "resource": {
                "@type": "cnt:ContentAsText", 
                "chars": "P", 
                "format": "text/plain"
            }
        }, 
        {
            "@id": "https://manifests.teklia.com/HIMANIS/LAT9778/words_annotations/http_gallica.bnf.fr_iiif_ark:_12148_btv1b90683044_f180_full_full_0_native.jpg.json/19/line", 
            "@type": "oa:Annotation", 
            "motivation": "oa:painting", 
            "on": "http://gallica.bnf.fr/iiif/ark:/12148/btv1b90683044/canvas/f180#xywh=2939,5741,207,150", 
            "resource": {
                "@type": "cnt:ContentAsText", 
                "chars": "FORDIER", 
                "format": "text/plain"
            }
        }
    ]
}