{
    "@context": "http://iiif.io/api/presentation/2/context.json", 
    "@id": "https://manifests.teklia.com/HIMANIS/LAT9778/words_annotations/http_gallica.bnf.fr_iiif_ark:_12148_btv1b90683044_f100_full_full_0_native.jpg.json", 
    "@type": "sc:AnnotationList", 
    "resources": [
        {
            "@id": "https://manifests.teklia.com/HIMANIS/LAT9778/words_annotations/http_gallica.bnf.fr_iiif_ark:_12148_btv1b90683044_f100_full_full_0_native.jpg.json/0/line", 
            "@type": "oa:Annotation", 
            "motivation": "oa:painting", 
            "on": "http://gallica.bnf.fr/iiif/ark:/12148/btv1b90683044/canvas/f100#xywh=1624,5113,235,121", 
            "resource": {
                "@type": "cnt:ContentAsText", 
                "chars": "AVOIR", 
                "format": "text/plain"
            }
        }, 
        {
            "@id": "https://manifests.teklia.com/HIMANIS/LAT9778/words_annotations/http_gallica.bnf.fr_iiif_ark:_12148_btv1b90683044_f100_full_full_0_native.jpg.json/1/line", 
            "@type": "oa:Annotation", 
            "motivation": "oa:painting", 
            "on": "http://gallica.bnf.fr/iiif/ark:/12148/btv1b90683044/canvas/f100#xywh=1624,5113,235,121", 
            "resource": {
                "@type": "cnt:ContentAsText", 
                "chars": "AVOIT", 
                "format": "text/plain"
            }
        }, 
        {
            "@id": "https://manifests.teklia.com/HIMANIS/LAT9778/words_annotations/http_gallica.bnf.fr_iiif_ark:_12148_btv1b90683044_f100_full_full_0_native.jpg.json/2/line", 
            "@type": "oa:Annotation", 
            "motivation": "oa:painting", 
            "on": "http://gallica.bnf.fr/iiif/ark:/12148/btv1b90683044/canvas/f100#xywh=1247,5227,160,98", 
            "resource": {
                "@type": "cnt:ContentAsText", 
                "chars": "VERSIS", 
                "format": "text/plain"
            }
        }, 
        {
            "@id": "https://manifests.teklia.com/HIMANIS/LAT9778/words_annotations/http_gallica.bnf.fr_iiif_ark:_12148_btv1b90683044_f100_full_full_0_native.jpg.json/3/line", 
            "@type": "oa:Annotation", 
            "motivation": "oa:painting", 
            "on": "http://gallica.bnf.fr/iiif/ark:/12148/btv1b90683044/canvas/f100#xywh=1990,1875,282,50", 
            "resource": {
                "@type": "cnt:ContentAsText", 
                "chars": "DENIERE", 
                "format": "text/plain"
            }
        }, 
        {
            "@id": "https://manifests.teklia.com/HIMANIS/LAT9778/words_annotations/http_gallica.bnf.fr_iiif_ark:_12148_btv1b90683044_f100_full_full_0_native.jpg.json/4/line", 
            "@type": "oa:Annotation", 
            "motivation": "oa:painting", 
            "on": "http://gallica.bnf.fr/iiif/ark:/12148/btv1b90683044/canvas/f100#xywh=3648,5602,156,92", 
            "resource": {
                "@type": "cnt:ContentAsText", 
                "chars": "SIGNIE", 
                "format": "text/plain"
            }
        }, 
        {
            "@id": "https://manifests.teklia.com/HIMANIS/LAT9778/words_annotations/http_gallica.bnf.fr_iiif_ark:_12148_btv1b90683044_f100_full_full_0_native.jpg.json/5/line", 
            "@type": "oa:Annotation", 
            "motivation": "oa:painting", 
            "on": "http://gallica.bnf.fr/iiif/ark:/12148/btv1b90683044/canvas/f100#xywh=1228,5750,940,211", 
            "resource": {
                "@type": "cnt:ContentAsText", 
                "chars": "JORDIERE", 
                "format": "text/plain"
            }
        }, 
        {
            "@id": "https://manifests.teklia.com/HIMANIS/LAT9778/words_annotations/http_gallica.bnf.fr_iiif_ark:_12148_btv1b90683044_f100_full_full_0_native.jpg.json/6/line", 
            "@type": "oa:Annotation", 
            "motivation": "oa:painting", 
            "on": "http://gallica.bnf.fr/iiif/ark:/12148/btv1b90683044/canvas/f100#xywh=3575,5250,94,88", 
            "resource": {
                "@type": "cnt:ContentAsText", 
                "chars": "ET", 
                "format": "text/plain"
            }
        }, 
        {
            "@id": "https://manifests.teklia.com/HIMANIS/LAT9778/words_annotations/http_gallica.bnf.fr_iiif_ark:_12148_btv1b90683044_f100_full_full_0_native.jpg.json/7/line", 
            "@type": "oa:Annotation", 
            "motivation": "oa:painting", 
            "on": "http://gallica.bnf.fr/iiif/ark:/12148/btv1b90683044/canvas/f100#xywh=1202,5750,490,211", 
            "resource": {
                "@type": "cnt:ContentAsText", 
                "chars": "LA", 
                "format": "text/plain"
            }
        }, 
        {
            "@id": "https://manifests.teklia.com/HIMANIS/LAT9778/words_annotations/http_gallica.bnf.fr_iiif_ark:_12148_btv1b90683044_f100_full_full_0_native.jpg.json/8/line", 
            "@type": "oa:Annotation", 
            "motivation": "oa:painting", 
            "on": "http://gallica.bnf.fr/iiif/ark:/12148/btv1b90683044/canvas/f100#xywh=1202,5750,490,211", 
            "resource": {
                "@type": "cnt:ContentAsText", 
                "chars": "LE", 
                "format": "text/plain"
            }
        }, 
        {
            "@id": "https://manifests.teklia.com/HIMANIS/LAT9778/words_annotations/http_gallica.bnf.fr_iiif_ark:_12148_btv1b90683044_f100_full_full_0_native.jpg.json/9/line", 
            "@type": "oa:Annotation", 
            "motivation": "oa:painting", 
            "on": "http://gallica.bnf.fr/iiif/ark:/12148/btv1b90683044/canvas/f100#xywh=1202,5750,490,211", 
            "resource": {
                "@type": "cnt:ContentAsText", 
                "chars": "DE", 
                "format": "text/plain"
            }
        }, 
        {
            "@id": "https://manifests.teklia.com/HIMANIS/LAT9778/words_annotations/http_gallica.bnf.fr_iiif_ark:_12148_btv1b90683044_f100_full_full_0_native.jpg.json/10/line", 
            "@type": "oa:Annotation", 
            "motivation": "oa:painting", 
            "on": "http://gallica.bnf.fr/iiif/ark:/12148/btv1b90683044/canvas/f100#xywh=2287,5750,133,211", 
            "resource": {
                "@type": "cnt:ContentAsText", 
                "chars": "XL", 
                "format": "text/plain"
            }
        }, 
        {
            "@id": "https://manifests.teklia.com/HIMANIS/LAT9778/words_annotations/http_gallica.bnf.fr_iiif_ark:_12148_btv1b90683044_f100_full_full_0_native.jpg.json/11/line", 
            "@type": "oa:Annotation", 
            "motivation": "oa:painting", 
            "on": "http://gallica.bnf.fr/iiif/ark:/12148/btv1b90683044/canvas/f100#xywh=1888,1875,216,50", 
            "resource": {
                "@type": "cnt:ContentAsText", 
                "chars": "CE", 
                "format": "text/plain"
            }
        }, 
        {
            "@id": "https://manifests.teklia.com/HIMANIS/LAT9778/words_annotations/http_gallica.bnf.fr_iiif_ark:_12148_btv1b90683044_f100_full_full_0_native.jpg.json/12/line", 
            "@type": "oa:Annotation", 
            "motivation": "oa:painting", 
            "on": "http://gallica.bnf.fr/iiif/ark:/12148/btv1b90683044/canvas/f100#xywh=1202,5750,649,211", 
            "resource": {
                "@type": "cnt:ContentAsText", 
                "chars": "DICTI", 
                "format": "text/plain"
            }
        }, 
        {
            "@id": "https://manifests.teklia.com/HIMANIS/LAT9778/words_annotations/http_gallica.bnf.fr_iiif_ark:_12148_btv1b90683044_f100_full_full_0_native.jpg.json/13/line", 
            "@type": "oa:Annotation", 
            "motivation": "oa:painting", 
            "on": "http://gallica.bnf.fr/iiif/ark:/12148/btv1b90683044/canvas/f100#xywh=2498,5436,146,100", 
            "resource": {
                "@type": "cnt:ContentAsText", 
                "chars": "PASCA", 
                "format": "text/plain"
            }
        }, 
        {
            "@id": "https://manifests.teklia.com/HIMANIS/LAT9778/words_annotations/http_gallica.bnf.fr_iiif_ark:_12148_btv1b90683044_f100_full_full_0_native.jpg.json/14/line", 
            "@type": "oa:Annotation", 
            "motivation": "oa:painting", 
            "on": "http://gallica.bnf.fr/iiif/ark:/12148/btv1b90683044/canvas/f100#xywh=1744,5227,50,98", 
            "resource": {
                "@type": "cnt:ContentAsText", 
                "chars": "UN", 
                "format": "text/plain"
            }
        }, 
        {
            "@id": "https://manifests.teklia.com/HIMANIS/LAT9778/words_annotations/http_gallica.bnf.fr_iiif_ark:_12148_btv1b90683044_f100_full_full_0_native.jpg.json/15/line", 
            "@type": "oa:Annotation", 
            "motivation": "oa:painting", 
            "on": "http://gallica.bnf.fr/iiif/ark:/12148/btv1b90683044/canvas/f100#xywh=3251,5807,52,168", 
            "resource": {
                "@type": "cnt:ContentAsText", 
                "chars": "DU", 
                "format": "text/plain"
            }
        }, 
        {
            "@id": "https://manifests.teklia.com/HIMANIS/LAT9778/words_annotations/http_gallica.bnf.fr_iiif_ark:_12148_btv1b90683044_f100_full_full_0_native.jpg.json/16/line", 
            "@type": "oa:Annotation", 
            "motivation": "oa:painting", 
            "on": "http://gallica.bnf.fr/iiif/ark:/12148/btv1b90683044/canvas/f100#xywh=1520,4916,177,88", 
            "resource": {
                "@type": "cnt:ContentAsText", 
                "chars": "ELLE", 
                "format": "text/plain"
            }
        }, 
        {
            "@id": "https://manifests.teklia.com/HIMANIS/LAT9778/words_annotations/http_gallica.bnf.fr_iiif_ark:_12148_btv1b90683044_f100_full_full_0_native.jpg.json/17/line", 
            "@type": "oa:Annotation", 
            "motivation": "oa:painting", 
            "on": "http://gallica.bnf.fr/iiif/ark:/12148/btv1b90683044/canvas/f100#xywh=1129,4554,103,45", 
            "resource": {
                "@type": "cnt:ContentAsText", 
                "chars": "LE", 
                "format": "text/plain"
            }
        }, 
        {
            "@id": "https://manifests.teklia.com/HIMANIS/LAT9778/words_annotations/http_gallica.bnf.fr_iiif_ark:_12148_btv1b90683044_f100_full_full_0_native.jpg.json/18/line", 
            "@type": "oa:Annotation", 
            "motivation": "oa:painting", 
            "on": "http://gallica.bnf.fr/iiif/ark:/12148/btv1b90683044/canvas/f100#xywh=1129,4554,378,45", 
            "resource": {
                "@type": "cnt:ContentAsText", 
                "chars": "DE", 
                "format": "text/plain"
            }
        }, 
        {
            "@id": "https://manifests.teklia.com/HIMANIS/LAT9778/words_annotations/http_gallica.bnf.fr_iiif_ark:_12148_btv1b90683044_f100_full_full_0_native.jpg.json/19/line", 
            "@type": "oa:Annotation", 
            "motivation": "oa:painting", 
            "on": "http://gallica.bnf.fr/iiif/ark:/12148/btv1b90683044/canvas/f100#xywh=1247,5227,184,98", 
            "resource": {
                "@type": "cnt:ContentAsText", 
                "chars": "VESTICE", 
                "format": "text/plain"
            }
        }, 
        {
            "@id": "https://manifests.teklia.com/HIMANIS/LAT9778/words_annotations/http_gallica.bnf.fr_iiif_ark:_12148_btv1b90683044_f100_full_full_0_native.jpg.json/20/line", 
            "@type": "oa:Annotation", 
            "motivation": "oa:painting", 
            "on": "http://gallica.bnf.fr/iiif/ark:/12148/btv1b90683044/canvas/f100#xywh=1129,4554,63,45", 
            "resource": {
                "@type": "cnt:ContentAsText", 
                "chars": "LI", 
                "format": "text/plain"
            }
        }, 
        {
            "@id": "https://manifests.teklia.com/HIMANIS/LAT9778/words_annotations/http_gallica.bnf.fr_iiif_ark:_12148_btv1b90683044_f100_full_full_0_native.jpg.json/21/line", 
            "@type": "oa:Annotation", 
            "motivation": "oa:painting", 
            "on": "http://gallica.bnf.fr/iiif/ark:/12148/btv1b90683044/canvas/f100#xywh=3095,500,1271,108", 
            "resource": {
                "@type": "cnt:ContentAsText", 
                "chars": "PHILIPPES", 
                "format": "text/plain"
            }
        }, 
        {
            "@id": "https://manifests.teklia.com/HIMANIS/LAT9778/words_annotations/http_gallica.bnf.fr_iiif_ark:_12148_btv1b90683044_f100_full_full_0_native.jpg.json/22/line", 
            "@type": "oa:Annotation", 
            "motivation": "oa:painting", 
            "on": "http://gallica.bnf.fr/iiif/ark:/12148/btv1b90683044/canvas/f100#xywh=2242,5390,93,54", 
            "resource": {
                "@type": "cnt:ContentAsText", 
                "chars": "SI", 
                "format": "text/plain"
            }
        }, 
        {
            "@id": "https://manifests.teklia.com/HIMANIS/LAT9778/words_annotations/http_gallica.bnf.fr_iiif_ark:_12148_btv1b90683044_f100_full_full_0_native.jpg.json/23/line", 
            "@type": "oa:Annotation", 
            "motivation": "oa:painting", 
            "on": "http://gallica.bnf.fr/iiif/ark:/12148/btv1b90683044/canvas/f100#xywh=177,3105,72,53", 
            "resource": {
                "@type": "cnt:ContentAsText", 
                "chars": "LES", 
                "format": "text/plain"
            }
        }, 
        {
            "@id": "https://manifests.teklia.com/HIMANIS/LAT9778/words_annotations/http_gallica.bnf.fr_iiif_ark:_12148_btv1b90683044_f100_full_full_0_native.jpg.json/24/line", 
            "@type": "oa:Annotation", 
            "motivation": "oa:painting", 
            "on": "http://gallica.bnf.fr/iiif/ark:/12148/btv1b90683044/canvas/f100#xywh=1282,3209,99,87", 
            "resource": {
                "@type": "cnt:ContentAsText", 
                "chars": "LETTRES", 
                "format": "text/plain"
            }
        }, 
        {
            "@id": "https://manifests.teklia.com/HIMANIS/LAT9778/words_annotations/http_gallica.bnf.fr_iiif_ark:_12148_btv1b90683044_f100_full_full_0_native.jpg.json/25/line", 
            "@type": "oa:Annotation", 
            "motivation": "oa:painting", 
            "on": "http://gallica.bnf.fr/iiif/ark:/12148/btv1b90683044/canvas/f100#xywh=628,3209,55,87", 
            "resource": {
                "@type": "cnt:ContentAsText", 
                "chars": "QUE", 
                "format": "text/plain"
            }
        }, 
        {
            "@id": "https://manifests.teklia.com/HIMANIS/LAT9778/words_annotations/http_gallica.bnf.fr_iiif_ark:_12148_btv1b90683044_f100_full_full_0_native.jpg.json/26/line", 
            "@type": "oa:Annotation", 
            "motivation": "oa:painting", 
            "on": "http://gallica.bnf.fr/iiif/ark:/12148/btv1b90683044/canvas/f100#xywh=1228,5750,848,211", 
            "resource": {
                "@type": "cnt:ContentAsText", 
                "chars": "JORDIE", 
                "format": "text/plain"
            }
        }, 
        {
            "@id": "https://manifests.teklia.com/HIMANIS/LAT9778/words_annotations/http_gallica.bnf.fr_iiif_ark:_12148_btv1b90683044_f100_full_full_0_native.jpg.json/27/line", 
            "@type": "oa:Annotation", 
            "motivation": "oa:painting", 
            "on": "http://gallica.bnf.fr/iiif/ark:/12148/btv1b90683044/canvas/f100#xywh=2906,4972,315,122", 
            "resource": {
                "@type": "cnt:ContentAsText", 
                "chars": "DE", 
                "format": "text/plain"
            }
        }, 
        {
            "@id": "https://manifests.teklia.com/HIMANIS/LAT9778/words_annotations/http_gallica.bnf.fr_iiif_ark:_12148_btv1b90683044_f100_full_full_0_native.jpg.json/28/line", 
            "@type": "oa:Annotation", 
            "motivation": "oa:painting", 
            "on": "http://gallica.bnf.fr/iiif/ark:/12148/btv1b90683044/canvas/f100#xywh=1043,4607,18,96", 
            "resource": {
                "@type": "cnt:ContentAsText", 
                "chars": "DE", 
                "format": "text/plain"
            }
        }, 
        {
            "@id": "https://manifests.teklia.com/HIMANIS/LAT9778/words_annotations/http_gallica.bnf.fr_iiif_ark:_12148_btv1b90683044_f100_full_full_0_native.jpg.json/29/line", 
            "@type": "oa:Annotation", 
            "motivation": "oa:painting", 
            "on": "http://gallica.bnf.fr/iiif/ark:/12148/btv1b90683044/canvas/f100#xywh=1202,5750,490,211", 
            "resource": {
                "@type": "cnt:ContentAsText", 
                "chars": "PIERRE", 
                "format": "text/plain"
            }
        }, 
        {
            "@id": "https://manifests.teklia.com/HIMANIS/LAT9778/words_annotations/http_gallica.bnf.fr_iiif_ark:_12148_btv1b90683044_f100_full_full_0_native.jpg.json/30/line", 
            "@type": "oa:Annotation", 
            "motivation": "oa:painting", 
            "on": "http://gallica.bnf.fr/iiif/ark:/12148/btv1b90683044/canvas/f100#xywh=2242,5390,148,54", 
            "resource": {
                "@type": "cnt:ContentAsText", 
                "chars": "QUE", 
                "format": "text/plain"
            }
        }, 
        {
            "@id": "https://manifests.teklia.com/HIMANIS/LAT9778/words_annotations/http_gallica.bnf.fr_iiif_ark:_12148_btv1b90683044_f100_full_full_0_native.jpg.json/31/line", 
            "@type": "oa:Annotation", 
            "motivation": "oa:painting", 
            "on": "http://gallica.bnf.fr/iiif/ark:/12148/btv1b90683044/canvas/f100#xywh=1246,4992,201,140", 
            "resource": {
                "@type": "cnt:ContentAsText", 
                "chars": "ACHETEE", 
                "format": "text/plain"
            }
        }, 
        {
            "@id": "https://manifests.teklia.com/HIMANIS/LAT9778/words_annotations/http_gallica.bnf.fr_iiif_ark:_12148_btv1b90683044_f100_full_full_0_native.jpg.json/32/line", 
            "@type": "oa:Annotation", 
            "motivation": "oa:painting", 
            "on": "http://gallica.bnf.fr/iiif/ark:/12148/btv1b90683044/canvas/f100#xywh=2261,5750,159,211", 
            "resource": {
                "@type": "cnt:ContentAsText", 
                "chars": "EXL", 
                "format": "text/plain"
            }
        }, 
        {
            "@id": "https://manifests.teklia.com/HIMANIS/LAT9778/words_annotations/http_gallica.bnf.fr_iiif_ark:_12148_btv1b90683044_f100_full_full_0_native.jpg.json/33/line", 
            "@type": "oa:Annotation", 
            "motivation": "oa:painting", 
            "on": "http://gallica.bnf.fr/iiif/ark:/12148/btv1b90683044/canvas/f100#xywh=643,4837,137,201", 
            "resource": {
                "@type": "cnt:ContentAsText", 
                "chars": "D'ONT", 
                "format": "text/plain"
            }
        }, 
        {
            "@id": "https://manifests.teklia.com/HIMANIS/LAT9778/words_annotations/http_gallica.bnf.fr_iiif_ark:_12148_btv1b90683044_f100_full_full_0_native.jpg.json/34/line", 
            "@type": "oa:Annotation", 
            "motivation": "oa:painting", 
            "on": "http://gallica.bnf.fr/iiif/ark:/12148/btv1b90683044/canvas/f100#xywh=183,5270,150,71", 
            "resource": {
                "@type": "cnt:ContentAsText", 
                "chars": "PHILI", 
                "format": "text/plain"
            }
        }, 
        {
            "@id": "https://manifests.teklia.com/HIMANIS/LAT9778/words_annotations/http_gallica.bnf.fr_iiif_ark:_12148_btv1b90683044_f100_full_full_0_native.jpg.json/35/line", 
            "@type": "oa:Annotation", 
            "motivation": "oa:painting", 
            "on": "http://gallica.bnf.fr/iiif/ark:/12148/btv1b90683044/canvas/f100#xywh=1888,1875,108,50", 
            "resource": {
                "@type": "cnt:ContentAsText", 
                "chars": "DE", 
                "format": "text/plain"
            }
        }, 
        {
            "@id": "https://manifests.teklia.com/HIMANIS/LAT9778/words_annotations/http_gallica.bnf.fr_iiif_ark:_12148_btv1b90683044_f100_full_full_0_native.jpg.json/36/line", 
            "@type": "oa:Annotation", 
            "motivation": "oa:painting", 
            "on": "http://gallica.bnf.fr/iiif/ark:/12148/btv1b90683044/canvas/f100#xywh=2609,5390,354,54", 
            "resource": {
                "@type": "cnt:ContentAsText", 
                "chars": "LETTRES", 
                "format": "text/plain"
            }
        }, 
        {
            "@id": "https://manifests.teklia.com/HIMANIS/LAT9778/words_annotations/http_gallica.bnf.fr_iiif_ark:_12148_btv1b90683044_f100_full_full_0_native.jpg.json/37/line", 
            "@type": "oa:Annotation", 
            "motivation": "oa:painting", 
            "on": "http://gallica.bnf.fr/iiif/ark:/12148/btv1b90683044/canvas/f100#xywh=1974,4916,160,88", 
            "resource": {
                "@type": "cnt:ContentAsText", 
                "chars": "PRINS", 
                "format": "text/plain"
            }
        }, 
        {
            "@id": "https://manifests.teklia.com/HIMANIS/LAT9778/words_annotations/http_gallica.bnf.fr_iiif_ark:_12148_btv1b90683044_f100_full_full_0_native.jpg.json/38/line", 
            "@type": "oa:Annotation", 
            "motivation": "oa:painting", 
            "on": "http://gallica.bnf.fr/iiif/ark:/12148/btv1b90683044/canvas/f100#xywh=1202,5750,490,211", 
            "resource": {
                "@type": "cnt:ContentAsText", 
                "chars": "ET", 
                "format": "text/plain"
            }
        }, 
        {
            "@id": "https://manifests.teklia.com/HIMANIS/LAT9778/words_annotations/http_gallica.bnf.fr_iiif_ark:_12148_btv1b90683044_f100_full_full_0_native.jpg.json/39/line", 
            "@type": "oa:Annotation", 
            "motivation": "oa:painting", 
            "on": "http://gallica.bnf.fr/iiif/ark:/12148/btv1b90683044/canvas/f100#xywh=1080,4519,60,51", 
            "resource": {
                "@type": "cnt:ContentAsText", 
                "chars": "SA", 
                "format": "text/plain"
            }
        }, 
        {
            "@id": "https://manifests.teklia.com/HIMANIS/LAT9778/words_annotations/http_gallica.bnf.fr_iiif_ark:_12148_btv1b90683044_f100_full_full_0_native.jpg.json/40/line", 
            "@type": "oa:Annotation", 
            "motivation": "oa:painting", 
            "on": "http://gallica.bnf.fr/iiif/ark:/12148/btv1b90683044/canvas/f100#xywh=1566,5227,56,98", 
            "resource": {
                "@type": "cnt:ContentAsText", 
                "chars": "VE", 
                "format": "text/plain"
            }
        }, 
        {
            "@id": "https://manifests.teklia.com/HIMANIS/LAT9778/words_annotations/http_gallica.bnf.fr_iiif_ark:_12148_btv1b90683044_f100_full_full_0_native.jpg.json/41/line", 
            "@type": "oa:Annotation", 
            "motivation": "oa:painting", 
            "on": "http://gallica.bnf.fr/iiif/ark:/12148/btv1b90683044/canvas/f100#xywh=1493,5227,37,98", 
            "resource": {
                "@type": "cnt:ContentAsText", 
                "chars": "JE", 
                "format": "text/plain"
            }
        }, 
        {
            "@id": "https://manifests.teklia.com/HIMANIS/LAT9778/words_annotations/http_gallica.bnf.fr_iiif_ark:_12148_btv1b90683044_f100_full_full_0_native.jpg.json/42/line", 
            "@type": "oa:Annotation", 
            "motivation": "oa:painting", 
            "on": "http://gallica.bnf.fr/iiif/ark:/12148/btv1b90683044/canvas/f100#xywh=3287,5250,199,88", 
            "resource": {
                "@type": "cnt:ContentAsText", 
                "chars": "PARTERRE", 
                "format": "text/plain"
            }
        }, 
        {
            "@id": "https://manifests.teklia.com/HIMANIS/LAT9778/words_annotations/http_gallica.bnf.fr_iiif_ark:_12148_btv1b90683044_f100_full_full_0_native.jpg.json/43/line", 
            "@type": "oa:Annotation", 
            "motivation": "oa:painting", 
            "on": "http://gallica.bnf.fr/iiif/ark:/12148/btv1b90683044/canvas/f100#xywh=183,5270,124,71", 
            "resource": {
                "@type": "cnt:ContentAsText", 
                "chars": "LES", 
                "format": "text/plain"
            }
        }, 
        {
            "@id": "https://manifests.teklia.com/HIMANIS/LAT9778/words_annotations/http_gallica.bnf.fr_iiif_ark:_12148_btv1b90683044_f100_full_full_0_native.jpg.json/44/line", 
            "@type": "oa:Annotation", 
            "motivation": "oa:painting", 
            "on": "http://gallica.bnf.fr/iiif/ark:/12148/btv1b90683044/canvas/f100#xywh=106,4837,474,201", 
            "resource": {
                "@type": "cnt:ContentAsText", 
                "chars": "NOIE", 
                "format": "text/plain"
            }
        }, 
        {
            "@id": "https://manifests.teklia.com/HIMANIS/LAT9778/words_annotations/http_gallica.bnf.fr_iiif_ark:_12148_btv1b90683044_f100_full_full_0_native.jpg.json/45/line", 
            "@type": "oa:Annotation", 
            "motivation": "oa:painting", 
            "on": "http://gallica.bnf.fr/iiif/ark:/12148/btv1b90683044/canvas/f100#xywh=2482,5390,172,54", 
            "resource": {
                "@type": "cnt:ContentAsText", 
                "chars": "DITES", 
                "format": "text/plain"
            }
        }, 
        {
            "@id": "https://manifests.teklia.com/HIMANIS/LAT9778/words_annotations/http_gallica.bnf.fr_iiif_ark:_12148_btv1b90683044_f100_full_full_0_native.jpg.json/46/line", 
            "@type": "oa:Annotation", 
            "motivation": "oa:painting", 
            "on": "http://gallica.bnf.fr/iiif/ark:/12148/btv1b90683044/canvas/f100#xywh=1921,4992,307,140", 
            "resource": {
                "@type": "cnt:ContentAsText", 
                "chars": "DEMANDA", 
                "format": "text/plain"
            }
        }, 
        {
            "@id": "https://manifests.teklia.com/HIMANIS/LAT9778/words_annotations/http_gallica.bnf.fr_iiif_ark:_12148_btv1b90683044_f100_full_full_0_native.jpg.json/47/line", 
            "@type": "oa:Annotation", 
            "motivation": "oa:painting", 
            "on": "http://gallica.bnf.fr/iiif/ark:/12148/btv1b90683044/canvas/f100#xywh=711,4992,105,140", 
            "resource": {
                "@type": "cnt:ContentAsText", 
                "chars": "ELLE", 
                "format": "text/plain"
            }
        }, 
        {
            "@id": "https://manifests.teklia.com/HIMANIS/LAT9778/words_annotations/http_gallica.bnf.fr_iiif_ark:_12148_btv1b90683044_f100_full_full_0_native.jpg.json/48/line", 
            "@type": "oa:Annotation", 
            "motivation": "oa:painting", 
            "on": "http://gallica.bnf.fr/iiif/ark:/12148/btv1b90683044/canvas/f100#xywh=158,6780,35,51", 
            "resource": {
                "@type": "cnt:ContentAsText", 
                "chars": "DES", 
                "format": "text/plain"
            }
        }, 
        {
            "@id": "https://manifests.teklia.com/HIMANIS/LAT9778/words_annotations/http_gallica.bnf.fr_iiif_ark:_12148_btv1b90683044_f100_full_full_0_native.jpg.json/49/line", 
            "@type": "oa:Annotation", 
            "motivation": "oa:painting", 
            "on": "http://gallica.bnf.fr/iiif/ark:/12148/btv1b90683044/canvas/f100#xywh=3225,5602,324,92", 
            "resource": {
                "@type": "cnt:ContentAsText", 
                "chars": "FOISSE", 
                "format": "text/plain"
            }
        }, 
        {
            "@id": "https://manifests.teklia.com/HIMANIS/LAT9778/words_annotations/http_gallica.bnf.fr_iiif_ark:_12148_btv1b90683044_f100_full_full_0_native.jpg.json/50/line", 
            "@type": "oa:Annotation", 
            "motivation": "oa:painting", 
            "on": "http://gallica.bnf.fr/iiif/ark:/12148/btv1b90683044/canvas/f100#xywh=177,3105,46,53", 
            "resource": {
                "@type": "cnt:ContentAsText", 
                "chars": "DE", 
                "format": "text/plain"
            }
        }, 
        {
            "@id": "https://manifests.teklia.com/HIMANIS/LAT9778/words_annotations/http_gallica.bnf.fr_iiif_ark:_12148_btv1b90683044_f100_full_full_0_native.jpg.json/51/line", 
            "@type": "oa:Annotation", 
            "motivation": "oa:painting", 
            "on": "http://gallica.bnf.fr/iiif/ark:/12148/btv1b90683044/canvas/f100#xywh=1129,4554,578,45", 
            "resource": {
                "@type": "cnt:ContentAsText", 
                "chars": "ET", 
                "format": "text/plain"
            }
        }, 
        {
            "@id": "https://manifests.teklia.com/HIMANIS/LAT9778/words_annotations/http_gallica.bnf.fr_iiif_ark:_12148_btv1b90683044_f100_full_full_0_native.jpg.json/52/line", 
            "@type": "oa:Annotation", 
            "motivation": "oa:painting", 
            "on": "http://gallica.bnf.fr/iiif/ark:/12148/btv1b90683044/canvas/f100#xywh=946,5464,79,99", 
            "resource": {
                "@type": "cnt:ContentAsText", 
                "chars": "DE", 
                "format": "text/plain"
            }
        }, 
        {
            "@id": "https://manifests.teklia.com/HIMANIS/LAT9778/words_annotations/http_gallica.bnf.fr_iiif_ark:_12148_btv1b90683044_f100_full_full_0_native.jpg.json/53/line", 
            "@type": "oa:Annotation", 
            "motivation": "oa:painting", 
            "on": "http://gallica.bnf.fr/iiif/ark:/12148/btv1b90683044/canvas/f100#xywh=1535,4992,140,140", 
            "resource": {
                "@type": "cnt:ContentAsText", 
                "chars": "ARRAZ", 
                "format": "text/plain"
            }
        }, 
        {
            "@id": "https://manifests.teklia.com/HIMANIS/LAT9778/words_annotations/http_gallica.bnf.fr_iiif_ark:_12148_btv1b90683044_f100_full_full_0_native.jpg.json/54/line", 
            "@type": "oa:Annotation", 
            "motivation": "oa:painting", 
            "on": "http://gallica.bnf.fr/iiif/ark:/12148/btv1b90683044/canvas/f100#xywh=946,5464,79,99", 
            "resource": {
                "@type": "cnt:ContentAsText", 
                "chars": "DO", 
                "format": "text/plain"
            }
        }, 
        {
            "@id": "https://manifests.teklia.com/HIMANIS/LAT9778/words_annotations/http_gallica.bnf.fr_iiif_ark:_12148_btv1b90683044_f100_full_full_0_native.jpg.json/55/line", 
            "@type": "oa:Annotation", 
            "motivation": "oa:painting", 
            "on": "http://gallica.bnf.fr/iiif/ark:/12148/btv1b90683044/canvas/f100#xywh=1491,4992,0,140", 
            "resource": {
                "@type": "cnt:ContentAsText", 
                "chars": "A", 
                "format": "text/plain"
            }
        }, 
        {
            "@id": "https://manifests.teklia.com/HIMANIS/LAT9778/words_annotations/http_gallica.bnf.fr_iiif_ark:_12148_btv1b90683044_f100_full_full_0_native.jpg.json/56/line", 
            "@type": "oa:Annotation", 
            "motivation": "oa:painting", 
            "on": "http://gallica.bnf.fr/iiif/ark:/12148/btv1b90683044/canvas/f100#xywh=963,3209,154,87", 
            "resource": {
                "@type": "cnt:ContentAsText", 
                "chars": "FACIEZ", 
                "format": "text/plain"
            }
        }, 
        {
            "@id": "https://manifests.teklia.com/HIMANIS/LAT9778/words_annotations/http_gallica.bnf.fr_iiif_ark:_12148_btv1b90683044_f100_full_full_0_native.jpg.json/57/line", 
            "@type": "oa:Annotation", 
            "motivation": "oa:painting", 
            "on": "http://gallica.bnf.fr/iiif/ark:/12148/btv1b90683044/canvas/f100#xywh=1228,5750,848,211", 
            "resource": {
                "@type": "cnt:ContentAsText", 
                "chars": "JORDIER", 
                "format": "text/plain"
            }
        }, 
        {
            "@id": "https://manifests.teklia.com/HIMANIS/LAT9778/words_annotations/http_gallica.bnf.fr_iiif_ark:_12148_btv1b90683044_f100_full_full_0_native.jpg.json/58/line", 
            "@type": "oa:Annotation", 
            "motivation": "oa:painting", 
            "on": "http://gallica.bnf.fr/iiif/ark:/12148/btv1b90683044/canvas/f100#xywh=1752,4916,144,88", 
            "resource": {
                "@type": "cnt:ContentAsText", 
                "chars": "AVANT", 
                "format": "text/plain"
            }
        }, 
        {
            "@id": "https://manifests.teklia.com/HIMANIS/LAT9778/words_annotations/http_gallica.bnf.fr_iiif_ark:_12148_btv1b90683044_f100_full_full_0_native.jpg.json/59/line", 
            "@type": "oa:Annotation", 
            "motivation": "oa:painting", 
            "on": "http://gallica.bnf.fr/iiif/ark:/12148/btv1b90683044/canvas/f100#xywh=3324,5807,250,168", 
            "resource": {
                "@type": "cnt:ContentAsText", 
                "chars": "BOIS", 
                "format": "text/plain"
            }
        }, 
        {
            "@id": "https://manifests.teklia.com/HIMANIS/LAT9778/words_annotations/http_gallica.bnf.fr_iiif_ark:_12148_btv1b90683044_f100_full_full_0_native.jpg.json/60/line", 
            "@type": "oa:Annotation", 
            "motivation": "oa:painting", 
            "on": "http://gallica.bnf.fr/iiif/ark:/12148/btv1b90683044/canvas/f100#xywh=868,4607,132,96", 
            "resource": {
                "@type": "cnt:ContentAsText", 
                "chars": "FAIT", 
                "format": "text/plain"
            }
        }, 
        {
            "@id": "https://manifests.teklia.com/HIMANIS/LAT9778/words_annotations/http_gallica.bnf.fr_iiif_ark:_12148_btv1b90683044_f100_full_full_0_native.jpg.json/61/line", 
            "@type": "oa:Annotation", 
            "motivation": "oa:painting", 
            "on": "http://gallica.bnf.fr/iiif/ark:/12148/btv1b90683044/canvas/f100#xywh=3225,5602,46,92", 
            "resource": {
                "@type": "cnt:ContentAsText", 
                "chars": "LE", 
                "format": "text/plain"
            }
        }, 
        {
            "@id": "https://manifests.teklia.com/HIMANIS/LAT9778/words_annotations/http_gallica.bnf.fr_iiif_ark:_12148_btv1b90683044_f100_full_full_0_native.jpg.json/62/line", 
            "@type": "oa:Annotation", 
            "motivation": "oa:painting", 
            "on": "http://gallica.bnf.fr/iiif/ark:/12148/btv1b90683044/canvas/f100#xywh=3155,5406,244,119", 
            "resource": {
                "@type": "cnt:ContentAsText", 
                "chars": "TERISMES", 
                "format": "text/plain"
            }
        }, 
        {
            "@id": "https://manifests.teklia.com/HIMANIS/LAT9778/words_annotations/http_gallica.bnf.fr_iiif_ark:_12148_btv1b90683044_f100_full_full_0_native.jpg.json/63/line", 
            "@type": "oa:Annotation", 
            "motivation": "oa:painting", 
            "on": "http://gallica.bnf.fr/iiif/ark:/12148/btv1b90683044/canvas/f100#xywh=3156,1047,268,52", 
            "resource": {
                "@type": "cnt:ContentAsText", 
                "chars": "DICTES", 
                "format": "text/plain"
            }
        }, 
        {
            "@id": "https://manifests.teklia.com/HIMANIS/LAT9778/words_annotations/http_gallica.bnf.fr_iiif_ark:_12148_btv1b90683044_f100_full_full_0_native.jpg.json/64/line", 
            "@type": "oa:Annotation", 
            "motivation": "oa:painting", 
            "on": "http://gallica.bnf.fr/iiif/ark:/12148/btv1b90683044/canvas/f100#xywh=4510,4213,67,37", 
            "resource": {
                "@type": "cnt:ContentAsText", 
                "chars": "DE", 
                "format": "text/plain"
            }
        }, 
        {
            "@id": "https://manifests.teklia.com/HIMANIS/LAT9778/words_annotations/http_gallica.bnf.fr_iiif_ark:_12148_btv1b90683044_f100_full_full_0_native.jpg.json/65/line", 
            "@type": "oa:Annotation", 
            "motivation": "oa:painting", 
            "on": "http://gallica.bnf.fr/iiif/ark:/12148/btv1b90683044/canvas/f100#xywh=190,5340,96,51", 
            "resource": {
                "@type": "cnt:ContentAsText", 
                "chars": "LES", 
                "format": "text/plain"
            }
        }, 
        {
            "@id": "https://manifests.teklia.com/HIMANIS/LAT9778/words_annotations/http_gallica.bnf.fr_iiif_ark:_12148_btv1b90683044_f100_full_full_0_native.jpg.json/66/line", 
            "@type": "oa:Annotation", 
            "motivation": "oa:painting", 
            "on": "http://gallica.bnf.fr/iiif/ark:/12148/btv1b90683044/canvas/f100#xywh=3115,5807,42,168", 
            "resource": {
                "@type": "cnt:ContentAsText", 
                "chars": "PER", 
                "format": "text/plain"
            }
        }, 
        {
            "@id": "https://manifests.teklia.com/HIMANIS/LAT9778/words_annotations/http_gallica.bnf.fr_iiif_ark:_12148_btv1b90683044_f100_full_full_0_native.jpg.json/67/line", 
            "@type": "oa:Annotation", 
            "motivation": "oa:painting", 
            "on": "http://gallica.bnf.fr/iiif/ark:/12148/btv1b90683044/canvas/f100#xywh=3173,5602,23,92", 
            "resource": {
                "@type": "cnt:ContentAsText", 
                "chars": "QUE", 
                "format": "text/plain"
            }
        }, 
        {
            "@id": "https://manifests.teklia.com/HIMANIS/LAT9778/words_annotations/http_gallica.bnf.fr_iiif_ark:_12148_btv1b90683044_f100_full_full_0_native.jpg.json/68/line", 
            "@type": "oa:Annotation", 
            "motivation": "oa:painting", 
            "on": "http://gallica.bnf.fr/iiif/ark:/12148/btv1b90683044/canvas/f100#xywh=2498,5436,152,100", 
            "resource": {
                "@type": "cnt:ContentAsText", 
                "chars": "PASTER", 
                "format": "text/plain"
            }
        }, 
        {
            "@id": "https://manifests.teklia.com/HIMANIS/LAT9778/words_annotations/http_gallica.bnf.fr_iiif_ark:_12148_btv1b90683044_f100_full_full_0_native.jpg.json/69/line", 
            "@type": "oa:Annotation", 
            "motivation": "oa:painting", 
            "on": "http://gallica.bnf.fr/iiif/ark:/12148/btv1b90683044/canvas/f100#xywh=643,4837,137,201", 
            "resource": {
                "@type": "cnt:ContentAsText", 
                "chars": "DONT", 
                "format": "text/plain"
            }
        }, 
        {
            "@id": "https://manifests.teklia.com/HIMANIS/LAT9778/words_annotations/http_gallica.bnf.fr_iiif_ark:_12148_btv1b90683044_f100_full_full_0_native.jpg.json/70/line", 
            "@type": "oa:Annotation", 
            "motivation": "oa:painting", 
            "on": "http://gallica.bnf.fr/iiif/ark:/12148/btv1b90683044/canvas/f100#xywh=1711,4992,131,140", 
            "resource": {
                "@type": "cnt:ContentAsText", 
                "chars": "CORS", 
                "format": "text/plain"
            }
        }, 
        {
            "@id": "https://manifests.teklia.com/HIMANIS/LAT9778/words_annotations/http_gallica.bnf.fr_iiif_ark:_12148_btv1b90683044_f100_full_full_0_native.jpg.json/71/line", 
            "@type": "oa:Annotation", 
            "motivation": "oa:painting", 
            "on": "http://gallica.bnf.fr/iiif/ark:/12148/btv1b90683044/canvas/f100#xywh=1062,4992,149,140", 
            "resource": {
                "@type": "cnt:ContentAsText", 
                "chars": "AINSSI", 
                "format": "text/plain"
            }
        }, 
        {
            "@id": "https://manifests.teklia.com/HIMANIS/LAT9778/words_annotations/http_gallica.bnf.fr_iiif_ark:_12148_btv1b90683044_f100_full_full_0_native.jpg.json/72/line", 
            "@type": "oa:Annotation", 
            "motivation": "oa:painting", 
            "on": "http://gallica.bnf.fr/iiif/ark:/12148/btv1b90683044/canvas/f100#xywh=579,3948,42,60", 
            "resource": {
                "@type": "cnt:ContentAsText", 
                "chars": "PER", 
                "format": "text/plain"
            }
        }, 
        {
            "@id": "https://manifests.teklia.com/HIMANIS/LAT9778/words_annotations/http_gallica.bnf.fr_iiif_ark:_12148_btv1b90683044_f100_full_full_0_native.jpg.json/73/line", 
            "@type": "oa:Annotation", 
            "motivation": "oa:painting", 
            "on": "http://gallica.bnf.fr/iiif/ark:/12148/btv1b90683044/canvas/f100#xywh=1247,5227,160,98", 
            "resource": {
                "@type": "cnt:ContentAsText", 
                "chars": "VESTIE", 
                "format": "text/plain"
            }
        }, 
        {
            "@id": "https://manifests.teklia.com/HIMANIS/LAT9778/words_annotations/http_gallica.bnf.fr_iiif_ark:_12148_btv1b90683044_f100_full_full_0_native.jpg.json/74/line", 
            "@type": "oa:Annotation", 
            "motivation": "oa:painting", 
            "on": "http://gallica.bnf.fr/iiif/ark:/12148/btv1b90683044/canvas/f100#xywh=1247,5227,160,98", 
            "resource": {
                "@type": "cnt:ContentAsText", 
                "chars": "VESTIT", 
                "format": "text/plain"
            }
        }, 
        {
            "@id": "https://manifests.teklia.com/HIMANIS/LAT9778/words_annotations/http_gallica.bnf.fr_iiif_ark:_12148_btv1b90683044_f100_full_full_0_native.jpg.json/75/line", 
            "@type": "oa:Annotation", 
            "motivation": "oa:painting", 
            "on": "http://gallica.bnf.fr/iiif/ark:/12148/btv1b90683044/canvas/f100#xywh=386,3209,176,87", 
            "resource": {
                "@type": "cnt:ContentAsText", 
                "chars": "AVISEZ", 
                "format": "text/plain"
            }
        }, 
        {
            "@id": "https://manifests.teklia.com/HIMANIS/LAT9778/words_annotations/http_gallica.bnf.fr_iiif_ark:_12148_btv1b90683044_f100_full_full_0_native.jpg.json/76/line", 
            "@type": "oa:Annotation", 
            "motivation": "oa:painting", 
            "on": "http://gallica.bnf.fr/iiif/ark:/12148/btv1b90683044/canvas/f100#xywh=1161,3209,72,87", 
            "resource": {
                "@type": "cnt:ContentAsText", 
                "chars": "DES", 
                "format": "text/plain"
            }
        }, 
        {
            "@id": "https://manifests.teklia.com/HIMANIS/LAT9778/words_annotations/http_gallica.bnf.fr_iiif_ark:_12148_btv1b90683044_f100_full_full_0_native.jpg.json/77/line", 
            "@type": "oa:Annotation", 
            "motivation": "oa:painting", 
            "on": "http://gallica.bnf.fr/iiif/ark:/12148/btv1b90683044/canvas/f100#xywh=3156,1047,268,52", 
            "resource": {
                "@type": "cnt:ContentAsText", 
                "chars": "DICTE", 
                "format": "text/plain"
            }
        }, 
        {
            "@id": "https://manifests.teklia.com/HIMANIS/LAT9778/words_annotations/http_gallica.bnf.fr_iiif_ark:_12148_btv1b90683044_f100_full_full_0_native.jpg.json/78/line", 
            "@type": "oa:Annotation", 
            "motivation": "oa:painting", 
            "on": "http://gallica.bnf.fr/iiif/ark:/12148/btv1b90683044/canvas/f100#xywh=4373,559,135,52", 
            "resource": {
                "@type": "cnt:ContentAsText", 
                "chars": "ET", 
                "format": "text/plain"
            }
        }, 
        {
            "@id": "https://manifests.teklia.com/HIMANIS/LAT9778/words_annotations/http_gallica.bnf.fr_iiif_ark:_12148_btv1b90683044_f100_full_full_0_native.jpg.json/79/line", 
            "@type": "oa:Annotation", 
            "motivation": "oa:painting", 
            "on": "http://gallica.bnf.fr/iiif/ark:/12148/btv1b90683044/canvas/f100#xywh=2261,5750,225,211", 
            "resource": {
                "@type": "cnt:ContentAsText", 
                "chars": "EXLE", 
                "format": "text/plain"
            }
        }, 
        {
            "@id": "https://manifests.teklia.com/HIMANIS/LAT9778/words_annotations/http_gallica.bnf.fr_iiif_ark:_12148_btv1b90683044_f100_full_full_0_native.jpg.json/80/line", 
            "@type": "oa:Annotation", 
            "motivation": "oa:painting", 
            "on": "http://gallica.bnf.fr/iiif/ark:/12148/btv1b90683044/canvas/f100#xywh=158,6780,6,51", 
            "resource": {
                "@type": "cnt:ContentAsText", 
                "chars": "DE", 
                "format": "text/plain"
            }
        }, 
        {
            "@id": "https://manifests.teklia.com/HIMANIS/LAT9778/words_annotations/http_gallica.bnf.fr_iiif_ark:_12148_btv1b90683044_f100_full_full_0_native.jpg.json/81/line", 
            "@type": "oa:Annotation", 
            "motivation": "oa:painting", 
            "on": "http://gallica.bnf.fr/iiif/ark:/12148/btv1b90683044/canvas/f100#xywh=3287,5250,171,88", 
            "resource": {
                "@type": "cnt:ContentAsText", 
                "chars": "PARTE", 
                "format": "text/plain"
            }
        }, 
        {
            "@id": "https://manifests.teklia.com/HIMANIS/LAT9778/words_annotations/http_gallica.bnf.fr_iiif_ark:_12148_btv1b90683044_f100_full_full_0_native.jpg.json/82/line", 
            "@type": "oa:Annotation", 
            "motivation": "oa:painting", 
            "on": "http://gallica.bnf.fr/iiif/ark:/12148/btv1b90683044/canvas/f100#xywh=2438,3800,180,43", 
            "resource": {
                "@type": "cnt:ContentAsText", 
                "chars": "CE", 
                "format": "text/plain"
            }
        }, 
        {
            "@id": "https://manifests.teklia.com/HIMANIS/LAT9778/words_annotations/http_gallica.bnf.fr_iiif_ark:_12148_btv1b90683044_f100_full_full_0_native.jpg.json/83/line", 
            "@type": "oa:Annotation", 
            "motivation": "oa:painting", 
            "on": "http://gallica.bnf.fr/iiif/ark:/12148/btv1b90683044/canvas/f100#xywh=842,4992,158,140", 
            "resource": {
                "@type": "cnt:ContentAsText", 
                "chars": "AVOIT", 
                "format": "text/plain"
            }
        }, 
        {
            "@id": "https://manifests.teklia.com/HIMANIS/LAT9778/words_annotations/http_gallica.bnf.fr_iiif_ark:_12148_btv1b90683044_f100_full_full_0_native.jpg.json/84/line", 
            "@type": "oa:Annotation", 
            "motivation": "oa:painting", 
            "on": "http://gallica.bnf.fr/iiif/ark:/12148/btv1b90683044/canvas/f100#xywh=1711,4992,131,140", 
            "resource": {
                "@type": "cnt:ContentAsText", 
                "chars": "NORS", 
                "format": "text/plain"
            }
        }, 
        {
            "@id": "https://manifests.teklia.com/HIMANIS/LAT9778/words_annotations/http_gallica.bnf.fr_iiif_ark:_12148_btv1b90683044_f100_full_full_0_native.jpg.json/85/line", 
            "@type": "oa:Annotation", 
            "motivation": "oa:painting", 
            "on": "http://gallica.bnf.fr/iiif/ark:/12148/btv1b90683044/canvas/f100#xywh=1520,4916,177,88", 
            "resource": {
                "@type": "cnt:ContentAsText", 
                "chars": "UELLE", 
                "format": "text/plain"
            }
        }, 
        {
            "@id": "https://manifests.teklia.com/HIMANIS/LAT9778/words_annotations/http_gallica.bnf.fr_iiif_ark:_12148_btv1b90683044_f100_full_full_0_native.jpg.json/86/line", 
            "@type": "oa:Annotation", 
            "motivation": "oa:painting", 
            "on": "http://gallica.bnf.fr/iiif/ark:/12148/btv1b90683044/canvas/f100#xywh=3496,5406,296,119", 
            "resource": {
                "@type": "cnt:ContentAsText", 
                "chars": "DEVISME", 
                "format": "text/plain"
            }
        }, 
        {
            "@id": "https://manifests.teklia.com/HIMANIS/LAT9778/words_annotations/http_gallica.bnf.fr_iiif_ark:_12148_btv1b90683044_f100_full_full_0_native.jpg.json/87/line", 
            "@type": "oa:Annotation", 
            "motivation": "oa:painting", 
            "on": "http://gallica.bnf.fr/iiif/ark:/12148/btv1b90683044/canvas/f100#xywh=3648,5602,156,92", 
            "resource": {
                "@type": "cnt:ContentAsText", 
                "chars": "LIGNIE", 
                "format": "text/plain"
            }
        }, 
        {
            "@id": "https://manifests.teklia.com/HIMANIS/LAT9778/words_annotations/http_gallica.bnf.fr_iiif_ark:_12148_btv1b90683044_f100_full_full_0_native.jpg.json/88/line", 
            "@type": "oa:Annotation", 
            "motivation": "oa:painting", 
            "on": "http://gallica.bnf.fr/iiif/ark:/12148/btv1b90683044/canvas/f100#xywh=2194,5390,127,54", 
            "resource": {
                "@type": "cnt:ContentAsText", 
                "chars": "ARISSI", 
                "format": "text/plain"
            }
        }, 
        {
            "@id": "https://manifests.teklia.com/HIMANIS/LAT9778/words_annotations/http_gallica.bnf.fr_iiif_ark:_12148_btv1b90683044_f100_full_full_0_native.jpg.json/89/line", 
            "@type": "oa:Annotation", 
            "motivation": "oa:painting", 
            "on": "http://gallica.bnf.fr/iiif/ark:/12148/btv1b90683044/canvas/f100#xywh=805,4837,112,201", 
            "resource": {
                "@type": "cnt:ContentAsText", 
                "chars": "NE", 
                "format": "text/plain"
            }
        }, 
        {
            "@id": "https://manifests.teklia.com/HIMANIS/LAT9778/words_annotations/http_gallica.bnf.fr_iiif_ark:_12148_btv1b90683044_f100_full_full_0_native.jpg.json/90/line", 
            "@type": "oa:Annotation", 
            "motivation": "oa:painting", 
            "on": "http://gallica.bnf.fr/iiif/ark:/12148/btv1b90683044/canvas/f100#xywh=1711,4992,166,140", 
            "resource": {
                "@type": "cnt:ContentAsText", 
                "chars": "PORS", 
                "format": "text/plain"
            }
        }, 
        {
            "@id": "https://manifests.teklia.com/HIMANIS/LAT9778/words_annotations/http_gallica.bnf.fr_iiif_ark:_12148_btv1b90683044_f100_full_full_0_native.jpg.json/91/line", 
            "@type": "oa:Annotation", 
            "motivation": "oa:painting", 
            "on": "http://gallica.bnf.fr/iiif/ark:/12148/btv1b90683044/canvas/f100#xywh=3444,5406,22,119", 
            "resource": {
                "@type": "cnt:ContentAsText", 
                "chars": "ET", 
                "format": "text/plain"
            }
        }, 
        {
            "@id": "https://manifests.teklia.com/HIMANIS/LAT9778/words_annotations/http_gallica.bnf.fr_iiif_ark:_12148_btv1b90683044_f100_full_full_0_native.jpg.json/92/line", 
            "@type": "oa:Annotation", 
            "motivation": "oa:painting", 
            "on": "http://gallica.bnf.fr/iiif/ark:/12148/btv1b90683044/canvas/f100#xywh=3496,5406,296,119", 
            "resource": {
                "@type": "cnt:ContentAsText", 
                "chars": "REVISME", 
                "format": "text/plain"
            }
        }, 
        {
            "@id": "https://manifests.teklia.com/HIMANIS/LAT9778/words_annotations/http_gallica.bnf.fr_iiif_ark:_12148_btv1b90683044_f100_full_full_0_native.jpg.json/93/line", 
            "@type": "oa:Annotation", 
            "motivation": "oa:painting", 
            "on": "http://gallica.bnf.fr/iiif/ark:/12148/btv1b90683044/canvas/f100#xywh=1080,4519,50,51", 
            "resource": {
                "@type": "cnt:ContentAsText", 
                "chars": "SIN", 
                "format": "text/plain"
            }
        }, 
        {
            "@id": "https://manifests.teklia.com/HIMANIS/LAT9778/words_annotations/http_gallica.bnf.fr_iiif_ark:_12148_btv1b90683044_f100_full_full_0_native.jpg.json/94/line", 
            "@type": "oa:Annotation", 
            "motivation": "oa:painting", 
            "on": "http://gallica.bnf.fr/iiif/ark:/12148/btv1b90683044/canvas/f100#xywh=3080,5602,52,92", 
            "resource": {
                "@type": "cnt:ContentAsText", 
                "chars": "ET", 
                "format": "text/plain"
            }
        }, 
        {
            "@id": "https://manifests.teklia.com/HIMANIS/LAT9778/words_annotations/http_gallica.bnf.fr_iiif_ark:_12148_btv1b90683044_f100_full_full_0_native.jpg.json/95/line", 
            "@type": "oa:Annotation", 
            "motivation": "oa:painting", 
            "on": "http://gallica.bnf.fr/iiif/ark:/12148/btv1b90683044/canvas/f100#xywh=868,4607,132,96", 
            "resource": {
                "@type": "cnt:ContentAsText", 
                "chars": "SOIT", 
                "format": "text/plain"
            }
        }, 
        {
            "@id": "https://manifests.teklia.com/HIMANIS/LAT9778/words_annotations/http_gallica.bnf.fr_iiif_ark:_12148_btv1b90683044_f100_full_full_0_native.jpg.json/96/line", 
            "@type": "oa:Annotation", 
            "motivation": "oa:painting", 
            "on": "http://gallica.bnf.fr/iiif/ark:/12148/btv1b90683044/canvas/f100#xywh=2254,5706,142,53", 
            "resource": {
                "@type": "cnt:ContentAsText", 
                "chars": "CE", 
                "format": "text/plain"
            }
        }, 
        {
            "@id": "https://manifests.teklia.com/HIMANIS/LAT9778/words_annotations/http_gallica.bnf.fr_iiif_ark:_12148_btv1b90683044_f100_full_full_0_native.jpg.json/97/line", 
            "@type": "oa:Annotation", 
            "motivation": "oa:painting", 
            "on": "http://gallica.bnf.fr/iiif/ark:/12148/btv1b90683044/canvas/f100#xywh=2498,5436,152,100", 
            "resource": {
                "@type": "cnt:ContentAsText", 
                "chars": "PARTE", 
                "format": "text/plain"
            }
        }, 
        {
            "@id": "https://manifests.teklia.com/HIMANIS/LAT9778/words_annotations/http_gallica.bnf.fr_iiif_ark:_12148_btv1b90683044_f100_full_full_0_native.jpg.json/98/line", 
            "@type": "oa:Annotation", 
            "motivation": "oa:painting", 
            "on": "http://gallica.bnf.fr/iiif/ark:/12148/btv1b90683044/canvas/f100#xywh=1472,5113,114,121", 
            "resource": {
                "@type": "cnt:ContentAsText", 
                "chars": "LI", 
                "format": "text/plain"
            }
        }, 
        {
            "@id": "https://manifests.teklia.com/HIMANIS/LAT9778/words_annotations/http_gallica.bnf.fr_iiif_ark:_12148_btv1b90683044_f100_full_full_0_native.jpg.json/99/line", 
            "@type": "oa:Annotation", 
            "motivation": "oa:painting", 
            "on": "http://gallica.bnf.fr/iiif/ark:/12148/btv1b90683044/canvas/f100#xywh=2498,5436,152,100", 
            "resource": {
                "@type": "cnt:ContentAsText", 
                "chars": "PASCUN", 
                "format": "text/plain"
            }
        }, 
        {
            "@id": "https://manifests.teklia.com/HIMANIS/LAT9778/words_annotations/http_gallica.bnf.fr_iiif_ark:_12148_btv1b90683044_f100_full_full_0_native.jpg.json/100/line", 
            "@type": "oa:Annotation", 
            "motivation": "oa:painting", 
            "on": "http://gallica.bnf.fr/iiif/ark:/12148/btv1b90683044/canvas/f100#xywh=3696,5250,50,88", 
            "resource": {
                "@type": "cnt:ContentAsText", 
                "chars": "PO", 
                "format": "text/plain"
            }
        }, 
        {
            "@id": "https://manifests.teklia.com/HIMANIS/LAT9778/words_annotations/http_gallica.bnf.fr_iiif_ark:_12148_btv1b90683044_f100_full_full_0_native.jpg.json/101/line", 
            "@type": "oa:Annotation", 
            "motivation": "oa:painting", 
            "on": "http://gallica.bnf.fr/iiif/ark:/12148/btv1b90683044/canvas/f100#xywh=1472,5113,0,121", 
            "resource": {
                "@type": "cnt:ContentAsText", 
                "chars": "E", 
                "format": "text/plain"
            }
        }, 
        {
            "@id": "https://manifests.teklia.com/HIMANIS/LAT9778/words_annotations/http_gallica.bnf.fr_iiif_ark:_12148_btv1b90683044_f100_full_full_0_native.jpg.json/102/line", 
            "@type": "oa:Annotation", 
            "motivation": "oa:painting", 
            "on": "http://gallica.bnf.fr/iiif/ark:/12148/btv1b90683044/canvas/f100#xywh=57,5188,233,95", 
            "resource": {
                "@type": "cnt:ContentAsText", 
                "chars": "DE", 
                "format": "text/plain"
            }
        }, 
        {
            "@id": "https://manifests.teklia.com/HIMANIS/LAT9778/words_annotations/http_gallica.bnf.fr_iiif_ark:_12148_btv1b90683044_f100_full_full_0_native.jpg.json/103/line", 
            "@type": "oa:Annotation", 
            "motivation": "oa:painting", 
            "on": "http://gallica.bnf.fr/iiif/ark:/12148/btv1b90683044/canvas/f100#xywh=2194,5390,48,54", 
            "resource": {
                "@type": "cnt:ContentAsText", 
                "chars": "RIS", 
                "format": "text/plain"
            }
        }, 
        {
            "@id": "https://manifests.teklia.com/HIMANIS/LAT9778/words_annotations/http_gallica.bnf.fr_iiif_ark:_12148_btv1b90683044_f100_full_full_0_native.jpg.json/104/line", 
            "@type": "oa:Annotation", 
            "motivation": "oa:painting", 
            "on": "http://gallica.bnf.fr/iiif/ark:/12148/btv1b90683044/canvas/f100#xywh=1043,4607,204,96", 
            "resource": {
                "@type": "cnt:ContentAsText", 
                "chars": "MONSEIL", 
                "format": "text/plain"
            }
        }, 
        {
            "@id": "https://manifests.teklia.com/HIMANIS/LAT9778/words_annotations/http_gallica.bnf.fr_iiif_ark:_12148_btv1b90683044_f100_full_full_0_native.jpg.json/105/line", 
            "@type": "oa:Annotation", 
            "motivation": "oa:painting", 
            "on": "http://gallica.bnf.fr/iiif/ark:/12148/btv1b90683044/canvas/f100#xywh=4418,6159,0,53", 
            "resource": {
                "@type": "cnt:ContentAsText", 
                "chars": "P", 
                "format": "text/plain"
            }
        }, 
        {
            "@id": "https://manifests.teklia.com/HIMANIS/LAT9778/words_annotations/http_gallica.bnf.fr_iiif_ark:_12148_btv1b90683044_f100_full_full_0_native.jpg.json/106/line", 
            "@type": "oa:Annotation", 
            "motivation": "oa:painting", 
            "on": "http://gallica.bnf.fr/iiif/ark:/12148/btv1b90683044/canvas/f100#xywh=2906,4972,430,122", 
            "resource": {
                "@type": "cnt:ContentAsText", 
                "chars": "PARIS", 
                "format": "text/plain"
            }
        }, 
        {
            "@id": "https://manifests.teklia.com/HIMANIS/LAT9778/words_annotations/http_gallica.bnf.fr_iiif_ark:_12148_btv1b90683044_f100_full_full_0_native.jpg.json/107/line", 
            "@type": "oa:Annotation", 
            "motivation": "oa:painting", 
            "on": "http://gallica.bnf.fr/iiif/ark:/12148/btv1b90683044/canvas/f100#xywh=1683,5227,37,98", 
            "resource": {
                "@type": "cnt:ContentAsText", 
                "chars": "LE", 
                "format": "text/plain"
            }
        }, 
        {
            "@id": "https://manifests.teklia.com/HIMANIS/LAT9778/words_annotations/http_gallica.bnf.fr_iiif_ark:_12148_btv1b90683044_f100_full_full_0_native.jpg.json/108/line", 
            "@type": "oa:Annotation", 
            "motivation": "oa:painting", 
            "on": "http://gallica.bnf.fr/iiif/ark:/12148/btv1b90683044/canvas/f100#xywh=1043,4607,204,96", 
            "resource": {
                "@type": "cnt:ContentAsText", 
                "chars": "CONSEIL", 
                "format": "text/plain"
            }
        }, 
        {
            "@id": "https://manifests.teklia.com/HIMANIS/LAT9778/words_annotations/http_gallica.bnf.fr_iiif_ark:_12148_btv1b90683044_f100_full_full_0_native.jpg.json/109/line", 
            "@type": "oa:Annotation", 
            "motivation": "oa:painting", 
            "on": "http://gallica.bnf.fr/iiif/ark:/12148/btv1b90683044/canvas/f100#xywh=2906,4972,0,122", 
            "resource": {
                "@type": "cnt:ContentAsText", 
                "chars": "P", 
                "format": "text/plain"
            }
        }, 
        {
            "@id": "https://manifests.teklia.com/HIMANIS/LAT9778/words_annotations/http_gallica.bnf.fr_iiif_ark:_12148_btv1b90683044_f100_full_full_0_native.jpg.json/110/line", 
            "@type": "oa:Annotation", 
            "motivation": "oa:painting", 
            "on": "http://gallica.bnf.fr/iiif/ark:/12148/btv1b90683044/canvas/f100#xywh=190,5340,76,51", 
            "resource": {
                "@type": "cnt:ContentAsText", 
                "chars": "DE", 
                "format": "text/plain"
            }
        }, 
        {
            "@id": "https://manifests.teklia.com/HIMANIS/LAT9778/words_annotations/http_gallica.bnf.fr_iiif_ark:_12148_btv1b90683044_f100_full_full_0_native.jpg.json/111/line", 
            "@type": "oa:Annotation", 
            "motivation": "oa:painting", 
            "on": "http://gallica.bnf.fr/iiif/ark:/12148/btv1b90683044/canvas/f100#xywh=3155,5406,244,119", 
            "resource": {
                "@type": "cnt:ContentAsText", 
                "chars": "TISMES", 
                "format": "text/plain"
            }
        }, 
        {
            "@id": "https://manifests.teklia.com/HIMANIS/LAT9778/words_annotations/http_gallica.bnf.fr_iiif_ark:_12148_btv1b90683044_f100_full_full_0_native.jpg.json/112/line", 
            "@type": "oa:Annotation", 
            "motivation": "oa:painting", 
            "on": "http://gallica.bnf.fr/iiif/ark:/12148/btv1b90683044/canvas/f100#xywh=3095,500,1013,108", 
            "resource": {
                "@type": "cnt:ContentAsText", 
                "chars": "PHILIPPE", 
                "format": "text/plain"
            }
        }, 
        {
            "@id": "https://manifests.teklia.com/HIMANIS/LAT9778/words_annotations/http_gallica.bnf.fr_iiif_ark:_12148_btv1b90683044_f100_full_full_0_native.jpg.json/113/line", 
            "@type": "oa:Annotation", 
            "motivation": "oa:painting", 
            "on": "http://gallica.bnf.fr/iiif/ark:/12148/btv1b90683044/canvas/f100#xywh=2327,5274,0,80", 
            "resource": {
                "@type": "cnt:ContentAsText", 
                "chars": "G", 
                "format": "text/plain"
            }
        }, 
        {
            "@id": "https://manifests.teklia.com/HIMANIS/LAT9778/words_annotations/http_gallica.bnf.fr_iiif_ark:_12148_btv1b90683044_f100_full_full_0_native.jpg.json/114/line", 
            "@type": "oa:Annotation", 
            "motivation": "oa:painting", 
            "on": "http://gallica.bnf.fr/iiif/ark:/12148/btv1b90683044/canvas/f100#xywh=2327,5274,0,80", 
            "resource": {
                "@type": "cnt:ContentAsText", 
                "chars": "J", 
                "format": "text/plain"
            }
        }, 
        {
            "@id": "https://manifests.teklia.com/HIMANIS/LAT9778/words_annotations/http_gallica.bnf.fr_iiif_ark:_12148_btv1b90683044_f100_full_full_0_native.jpg.json/115/line", 
            "@type": "oa:Annotation", 
            "motivation": "oa:painting", 
            "on": "http://gallica.bnf.fr/iiif/ark:/12148/btv1b90683044/canvas/f100#xywh=805,4837,237,201", 
            "resource": {
                "@type": "cnt:ContentAsText", 
                "chars": "MES", 
                "format": "text/plain"
            }
        }, 
        {
            "@id": "https://manifests.teklia.com/HIMANIS/LAT9778/words_annotations/http_gallica.bnf.fr_iiif_ark:_12148_btv1b90683044_f100_full_full_0_native.jpg.json/116/line", 
            "@type": "oa:Annotation", 
            "motivation": "oa:painting", 
            "on": "http://gallica.bnf.fr/iiif/ark:/12148/btv1b90683044/canvas/f100#xywh=805,4837,187,201", 
            "resource": {
                "@type": "cnt:ContentAsText", 
                "chars": "MET", 
                "format": "text/plain"
            }
        }, 
        {
            "@id": "https://manifests.teklia.com/HIMANIS/LAT9778/words_annotations/http_gallica.bnf.fr_iiif_ark:_12148_btv1b90683044_f100_full_full_0_native.jpg.json/117/line", 
            "@type": "oa:Annotation", 
            "motivation": "oa:painting", 
            "on": "http://gallica.bnf.fr/iiif/ark:/12148/btv1b90683044/canvas/f100#xywh=1990,1875,272,50", 
            "resource": {
                "@type": "cnt:ContentAsText", 
                "chars": "DENIER", 
                "format": "text/plain"
            }
        }, 
        {
            "@id": "https://manifests.teklia.com/HIMANIS/LAT9778/words_annotations/http_gallica.bnf.fr_iiif_ark:_12148_btv1b90683044_f100_full_full_0_native.jpg.json/118/line", 
            "@type": "oa:Annotation", 
            "motivation": "oa:painting", 
            "on": "http://gallica.bnf.fr/iiif/ark:/12148/btv1b90683044/canvas/f100#xywh=1247,5227,184,98", 
            "resource": {
                "@type": "cnt:ContentAsText", 
                "chars": "VEISTICE", 
                "format": "text/plain"
            }
        }, 
        {
            "@id": "https://manifests.teklia.com/HIMANIS/LAT9778/words_annotations/http_gallica.bnf.fr_iiif_ark:_12148_btv1b90683044_f100_full_full_0_native.jpg.json/119/line", 
            "@type": "oa:Annotation", 
            "motivation": "oa:painting", 
            "on": "http://gallica.bnf.fr/iiif/ark:/12148/btv1b90683044/canvas/f100#xywh=1212,4554,484,45", 
            "resource": {
                "@type": "cnt:ContentAsText", 
                "chars": "CE", 
                "format": "text/plain"
            }
        }, 
        {
            "@id": "https://manifests.teklia.com/HIMANIS/LAT9778/words_annotations/http_gallica.bnf.fr_iiif_ark:_12148_btv1b90683044_f100_full_full_0_native.jpg.json/120/line", 
            "@type": "oa:Annotation", 
            "motivation": "oa:painting", 
            "on": "http://gallica.bnf.fr/iiif/ark:/12148/btv1b90683044/canvas/f100#xywh=2327,5274,0,80", 
            "resource": {
                "@type": "cnt:ContentAsText", 
                "chars": "S", 
                "format": "text/plain"
            }
        }, 
        {
            "@id": "https://manifests.teklia.com/HIMANIS/LAT9778/words_annotations/http_gallica.bnf.fr_iiif_ark:_12148_btv1b90683044_f100_full_full_0_native.jpg.json/121/line", 
            "@type": "oa:Annotation", 
            "motivation": "oa:painting", 
            "on": "http://gallica.bnf.fr/iiif/ark:/12148/btv1b90683044/canvas/f100#xywh=766,3209,148,87", 
            "resource": {
                "@type": "cnt:ContentAsText", 
                "chars": "VOUS", 
                "format": "text/plain"
            }
        }, 
        {
            "@id": "https://manifests.teklia.com/HIMANIS/LAT9778/words_annotations/http_gallica.bnf.fr_iiif_ark:_12148_btv1b90683044_f100_full_full_0_native.jpg.json/122/line", 
            "@type": "oa:Annotation", 
            "motivation": "oa:painting", 
            "on": "http://gallica.bnf.fr/iiif/ark:/12148/btv1b90683044/canvas/f100#xywh=2254,5706,0,53", 
            "resource": {
                "@type": "cnt:ContentAsText", 
                "chars": "C", 
                "format": "text/plain"
            }
        }, 
        {
            "@id": "https://manifests.teklia.com/HIMANIS/LAT9778/words_annotations/http_gallica.bnf.fr_iiif_ark:_12148_btv1b90683044_f100_full_full_0_native.jpg.json/123/line", 
            "@type": "oa:Annotation", 
            "motivation": "oa:painting", 
            "on": "http://gallica.bnf.fr/iiif/ark:/12148/btv1b90683044/canvas/f100#xywh=2300,4916,233,88", 
            "resource": {
                "@type": "cnt:ContentAsText", 
                "chars": "SEAULS", 
                "format": "text/plain"
            }
        }, 
        {
            "@id": "https://manifests.teklia.com/HIMANIS/LAT9778/words_annotations/http_gallica.bnf.fr_iiif_ark:_12148_btv1b90683044_f100_full_full_0_native.jpg.json/124/line", 
            "@type": "oa:Annotation", 
            "motivation": "oa:painting", 
            "on": "http://gallica.bnf.fr/iiif/ark:/12148/btv1b90683044/canvas/f100#xywh=1202,5750,649,211", 
            "resource": {
                "@type": "cnt:ContentAsText", 
                "chars": "DIT", 
                "format": "text/plain"
            }
        }, 
        {
            "@id": "https://manifests.teklia.com/HIMANIS/LAT9778/words_annotations/http_gallica.bnf.fr_iiif_ark:_12148_btv1b90683044_f100_full_full_0_native.jpg.json/125/line", 
            "@type": "oa:Annotation", 
            "motivation": "oa:painting", 
            "on": "http://gallica.bnf.fr/iiif/ark:/12148/btv1b90683044/canvas/f100#xywh=579,3948,258,60", 
            "resource": {
                "@type": "cnt:ContentAsText", 
                "chars": "PIERRE", 
                "format": "text/plain"
            }
        }, 
        {
            "@id": "https://manifests.teklia.com/HIMANIS/LAT9778/words_annotations/http_gallica.bnf.fr_iiif_ark:_12148_btv1b90683044_f100_full_full_0_native.jpg.json/126/line", 
            "@type": "oa:Annotation", 
            "motivation": "oa:painting", 
            "on": "http://gallica.bnf.fr/iiif/ark:/12148/btv1b90683044/canvas/f100#xywh=3287,5250,182,88", 
            "resource": {
                "@type": "cnt:ContentAsText", 
                "chars": "PARTER", 
                "format": "text/plain"
            }
        }, 
        {
            "@id": "https://manifests.teklia.com/HIMANIS/LAT9778/words_annotations/http_gallica.bnf.fr_iiif_ark:_12148_btv1b90683044_f100_full_full_0_native.jpg.json/127/line", 
            "@type": "oa:Annotation", 
            "motivation": "oa:painting", 
            "on": "http://gallica.bnf.fr/iiif/ark:/12148/btv1b90683044/canvas/f100#xywh=2871,4573,0,96", 
            "resource": {
                "@type": "cnt:ContentAsText", 
                "chars": "P", 
                "format": "text/plain"
            }
        }, 
        {
            "@id": "https://manifests.teklia.com/HIMANIS/LAT9778/words_annotations/http_gallica.bnf.fr_iiif_ark:_12148_btv1b90683044_f100_full_full_0_native.jpg.json/128/line", 
            "@type": "oa:Annotation", 
            "motivation": "oa:painting", 
            "on": "http://gallica.bnf.fr/iiif/ark:/12148/btv1b90683044/canvas/f100#xywh=2195,4916,61,88", 
            "resource": {
                "@type": "cnt:ContentAsText", 
                "chars": "LES", 
                "format": "text/plain"
            }
        }, 
        {
            "@id": "https://manifests.teklia.com/HIMANIS/LAT9778/words_annotations/http_gallica.bnf.fr_iiif_ark:_12148_btv1b90683044_f100_full_full_0_native.jpg.json/129/line", 
            "@type": "oa:Annotation", 
            "motivation": "oa:painting", 
            "on": "http://gallica.bnf.fr/iiif/ark:/12148/btv1b90683044/canvas/f100#xywh=1129,4554,309,45", 
            "resource": {
                "@type": "cnt:ContentAsText", 
                "chars": "REGIA", 
                "format": "text/plain"
            }
        }, 
        {
            "@id": "https://manifests.teklia.com/HIMANIS/LAT9778/words_annotations/http_gallica.bnf.fr_iiif_ark:_12148_btv1b90683044_f100_full_full_0_native.jpg.json/130/line", 
            "@type": "oa:Annotation", 
            "motivation": "oa:painting", 
            "on": "http://gallica.bnf.fr/iiif/ark:/12148/btv1b90683044/canvas/f100#xywh=1129,4554,306,45", 
            "resource": {
                "@type": "cnt:ContentAsText", 
                "chars": "REGIE", 
                "format": "text/plain"
            }
        }, 
        {
            "@id": "https://manifests.teklia.com/HIMANIS/LAT9778/words_annotations/http_gallica.bnf.fr_iiif_ark:_12148_btv1b90683044_f100_full_full_0_native.jpg.json/131/line", 
            "@type": "oa:Annotation", 
            "motivation": "oa:painting", 
            "on": "http://gallica.bnf.fr/iiif/ark:/12148/btv1b90683044/canvas/f100#xywh=2194,5390,127,54", 
            "resource": {
                "@type": "cnt:ContentAsText", 
                "chars": "RISSI", 
                "format": "text/plain"
            }
        }, 
        {
            "@id": "https://manifests.teklia.com/HIMANIS/LAT9778/words_annotations/http_gallica.bnf.fr_iiif_ark:_12148_btv1b90683044_f100_full_full_0_native.jpg.json/132/line", 
            "@type": "oa:Annotation", 
            "motivation": "oa:painting", 
            "on": "http://gallica.bnf.fr/iiif/ark:/12148/btv1b90683044/canvas/f100#xywh=4439,3370,138,63", 
            "resource": {
                "@type": "cnt:ContentAsText", 
                "chars": "LE", 
                "format": "text/plain"
            }
        }
    ]
}