{
    "@context": "http://iiif.io/api/presentation/2/context.json", 
    "@id": "https://manifests.teklia.com/HIMANIS/LAT9778/words_annotations/http_gallica.bnf.fr_iiif_ark:_12148_btv1b90683044_f88_full_full_0_native.jpg.json", 
    "@type": "sc:AnnotationList", 
    "resources": [
        {
            "@id": "https://manifests.teklia.com/HIMANIS/LAT9778/words_annotations/http_gallica.bnf.fr_iiif_ark:_12148_btv1b90683044_f88_full_full_0_native.jpg.json/0/line", 
            "@type": "oa:Annotation", 
            "motivation": "oa:painting", 
            "on": "http://gallica.bnf.fr/iiif/ark:/12148/btv1b90683044/canvas/f88#xywh=402,4626,102,38", 
            "resource": {
                "@type": "cnt:ContentAsText", 
                "chars": "ET", 
                "format": "text/plain"
            }
        }, 
        {
            "@id": "https://manifests.teklia.com/HIMANIS/LAT9778/words_annotations/http_gallica.bnf.fr_iiif_ark:_12148_btv1b90683044_f88_full_full_0_native.jpg.json/1/line", 
            "@type": "oa:Annotation", 
            "motivation": "oa:painting", 
            "on": "http://gallica.bnf.fr/iiif/ark:/12148/btv1b90683044/canvas/f88#xywh=377,2268,243,41", 
            "resource": {
                "@type": "cnt:ContentAsText", 
                "chars": "PHILI", 
                "format": "text/plain"
            }
        }, 
        {
            "@id": "https://manifests.teklia.com/HIMANIS/LAT9778/words_annotations/http_gallica.bnf.fr_iiif_ark:_12148_btv1b90683044_f88_full_full_0_native.jpg.json/2/line", 
            "@type": "oa:Annotation", 
            "motivation": "oa:painting", 
            "on": "http://gallica.bnf.fr/iiif/ark:/12148/btv1b90683044/canvas/f88#xywh=1265,4665,2577,173", 
            "resource": {
                "@type": "cnt:ContentAsText", 
                "chars": "SALUT", 
                "format": "text/plain"
            }
        }, 
        {
            "@id": "https://manifests.teklia.com/HIMANIS/LAT9778/words_annotations/http_gallica.bnf.fr_iiif_ark:_12148_btv1b90683044_f88_full_full_0_native.jpg.json/3/line", 
            "@type": "oa:Annotation", 
            "motivation": "oa:painting", 
            "on": "http://gallica.bnf.fr/iiif/ark:/12148/btv1b90683044/canvas/f88#xywh=401,2106,0,54", 
            "resource": {
                "@type": "cnt:ContentAsText", 
                "chars": "J", 
                "format": "text/plain"
            }
        }, 
        {
            "@id": "https://manifests.teklia.com/HIMANIS/LAT9778/words_annotations/http_gallica.bnf.fr_iiif_ark:_12148_btv1b90683044_f88_full_full_0_native.jpg.json/4/line", 
            "@type": "oa:Annotation", 
            "motivation": "oa:painting", 
            "on": "http://gallica.bnf.fr/iiif/ark:/12148/btv1b90683044/canvas/f88#xywh=4896,1828,84,76", 
            "resource": {
                "@type": "cnt:ContentAsText", 
                "chars": "RE", 
                "format": "text/plain"
            }
        }, 
        {
            "@id": "https://manifests.teklia.com/HIMANIS/LAT9778/words_annotations/http_gallica.bnf.fr_iiif_ark:_12148_btv1b90683044_f88_full_full_0_native.jpg.json/5/line", 
            "@type": "oa:Annotation", 
            "motivation": "oa:painting", 
            "on": "http://gallica.bnf.fr/iiif/ark:/12148/btv1b90683044/canvas/f88#xywh=509,5221,141,76", 
            "resource": {
                "@type": "cnt:ContentAsText", 
                "chars": "DE", 
                "format": "text/plain"
            }
        }, 
        {
            "@id": "https://manifests.teklia.com/HIMANIS/LAT9778/words_annotations/http_gallica.bnf.fr_iiif_ark:_12148_btv1b90683044_f88_full_full_0_native.jpg.json/6/line", 
            "@type": "oa:Annotation", 
            "motivation": "oa:painting", 
            "on": "http://gallica.bnf.fr/iiif/ark:/12148/btv1b90683044/canvas/f88#xywh=1901,5716,642,198", 
            "resource": {
                "@type": "cnt:ContentAsText", 
                "chars": "DE", 
                "format": "text/plain"
            }
        }, 
        {
            "@id": "https://manifests.teklia.com/HIMANIS/LAT9778/words_annotations/http_gallica.bnf.fr_iiif_ark:_12148_btv1b90683044_f88_full_full_0_native.jpg.json/7/line", 
            "@type": "oa:Annotation", 
            "motivation": "oa:painting", 
            "on": "http://gallica.bnf.fr/iiif/ark:/12148/btv1b90683044/canvas/f88#xywh=1553,5457,47,30", 
            "resource": {
                "@type": "cnt:ContentAsText", 
                "chars": "DE", 
                "format": "text/plain"
            }
        }, 
        {
            "@id": "https://manifests.teklia.com/HIMANIS/LAT9778/words_annotations/http_gallica.bnf.fr_iiif_ark:_12148_btv1b90683044_f88_full_full_0_native.jpg.json/8/line", 
            "@type": "oa:Annotation", 
            "motivation": "oa:painting", 
            "on": "http://gallica.bnf.fr/iiif/ark:/12148/btv1b90683044/canvas/f88#xywh=1208,4437,386,48", 
            "resource": {
                "@type": "cnt:ContentAsText", 
                "chars": "LE", 
                "format": "text/plain"
            }
        }, 
        {
            "@id": "https://manifests.teklia.com/HIMANIS/LAT9778/words_annotations/http_gallica.bnf.fr_iiif_ark:_12148_btv1b90683044_f88_full_full_0_native.jpg.json/9/line", 
            "@type": "oa:Annotation", 
            "motivation": "oa:painting", 
            "on": "http://gallica.bnf.fr/iiif/ark:/12148/btv1b90683044/canvas/f88#xywh=1208,4437,386,48", 
            "resource": {
                "@type": "cnt:ContentAsText", 
                "chars": "DE", 
                "format": "text/plain"
            }
        }, 
        {
            "@id": "https://manifests.teklia.com/HIMANIS/LAT9778/words_annotations/http_gallica.bnf.fr_iiif_ark:_12148_btv1b90683044_f88_full_full_0_native.jpg.json/10/line", 
            "@type": "oa:Annotation", 
            "motivation": "oa:painting", 
            "on": "http://gallica.bnf.fr/iiif/ark:/12148/btv1b90683044/canvas/f88#xywh=1901,5716,12,198", 
            "resource": {
                "@type": "cnt:ContentAsText", 
                "chars": "DU", 
                "format": "text/plain"
            }
        }, 
        {
            "@id": "https://manifests.teklia.com/HIMANIS/LAT9778/words_annotations/http_gallica.bnf.fr_iiif_ark:_12148_btv1b90683044_f88_full_full_0_native.jpg.json/11/line", 
            "@type": "oa:Annotation", 
            "motivation": "oa:painting", 
            "on": "http://gallica.bnf.fr/iiif/ark:/12148/btv1b90683044/canvas/f88#xywh=1901,5716,259,198", 
            "resource": {
                "@type": "cnt:ContentAsText", 
                "chars": "DIT", 
                "format": "text/plain"
            }
        }, 
        {
            "@id": "https://manifests.teklia.com/HIMANIS/LAT9778/words_annotations/http_gallica.bnf.fr_iiif_ark:_12148_btv1b90683044_f88_full_full_0_native.jpg.json/12/line", 
            "@type": "oa:Annotation", 
            "motivation": "oa:painting", 
            "on": "http://gallica.bnf.fr/iiif/ark:/12148/btv1b90683044/canvas/f88#xywh=396,430,1215,217", 
            "resource": {
                "@type": "cnt:ContentAsText", 
                "chars": "SI", 
                "format": "text/plain"
            }
        }, 
        {
            "@id": "https://manifests.teklia.com/HIMANIS/LAT9778/words_annotations/http_gallica.bnf.fr_iiif_ark:_12148_btv1b90683044_f88_full_full_0_native.jpg.json/13/line", 
            "@type": "oa:Annotation", 
            "motivation": "oa:painting", 
            "on": "http://gallica.bnf.fr/iiif/ark:/12148/btv1b90683044/canvas/f88#xywh=3519,3539,221,113", 
            "resource": {
                "@type": "cnt:ContentAsText", 
                "chars": "GRANT", 
                "format": "text/plain"
            }
        }, 
        {
            "@id": "https://manifests.teklia.com/HIMANIS/LAT9778/words_annotations/http_gallica.bnf.fr_iiif_ark:_12148_btv1b90683044_f88_full_full_0_native.jpg.json/14/line", 
            "@type": "oa:Annotation", 
            "motivation": "oa:painting", 
            "on": "http://gallica.bnf.fr/iiif/ark:/12148/btv1b90683044/canvas/f88#xywh=301,4187,395,109", 
            "resource": {
                "@type": "cnt:ContentAsText", 
                "chars": "PHILIPP", 
                "format": "text/plain"
            }
        }, 
        {
            "@id": "https://manifests.teklia.com/HIMANIS/LAT9778/words_annotations/http_gallica.bnf.fr_iiif_ark:_12148_btv1b90683044_f88_full_full_0_native.jpg.json/15/line", 
            "@type": "oa:Annotation", 
            "motivation": "oa:painting", 
            "on": "http://gallica.bnf.fr/iiif/ark:/12148/btv1b90683044/canvas/f88#xywh=2216,5176,51,91", 
            "resource": {
                "@type": "cnt:ContentAsText", 
                "chars": "QUI", 
                "format": "text/plain"
            }
        }, 
        {
            "@id": "https://manifests.teklia.com/HIMANIS/LAT9778/words_annotations/http_gallica.bnf.fr_iiif_ark:_12148_btv1b90683044_f88_full_full_0_native.jpg.json/16/line", 
            "@type": "oa:Annotation", 
            "motivation": "oa:painting", 
            "on": "http://gallica.bnf.fr/iiif/ark:/12148/btv1b90683044/canvas/f88#xywh=396,430,1215,217", 
            "resource": {
                "@type": "cnt:ContentAsText", 
                "chars": "SS", 
                "format": "text/plain"
            }
        }, 
        {
            "@id": "https://manifests.teklia.com/HIMANIS/LAT9778/words_annotations/http_gallica.bnf.fr_iiif_ark:_12148_btv1b90683044_f88_full_full_0_native.jpg.json/17/line", 
            "@type": "oa:Annotation", 
            "motivation": "oa:painting", 
            "on": "http://gallica.bnf.fr/iiif/ark:/12148/btv1b90683044/canvas/f88#xywh=374,4405,134,50", 
            "resource": {
                "@type": "cnt:ContentAsText", 
                "chars": "DE", 
                "format": "text/plain"
            }
        }, 
        {
            "@id": "https://manifests.teklia.com/HIMANIS/LAT9778/words_annotations/http_gallica.bnf.fr_iiif_ark:_12148_btv1b90683044_f88_full_full_0_native.jpg.json/18/line", 
            "@type": "oa:Annotation", 
            "motivation": "oa:painting", 
            "on": "http://gallica.bnf.fr/iiif/ark:/12148/btv1b90683044/canvas/f88#xywh=1178,3621,562,102", 
            "resource": {
                "@type": "cnt:ContentAsText", 
                "chars": "PHEL", 
                "format": "text/plain"
            }
        }, 
        {
            "@id": "https://manifests.teklia.com/HIMANIS/LAT9778/words_annotations/http_gallica.bnf.fr_iiif_ark:_12148_btv1b90683044_f88_full_full_0_native.jpg.json/19/line", 
            "@type": "oa:Annotation", 
            "motivation": "oa:painting", 
            "on": "http://gallica.bnf.fr/iiif/ark:/12148/btv1b90683044/canvas/f88#xywh=4925,2194,42,167", 
            "resource": {
                "@type": "cnt:ContentAsText", 
                "chars": "LE", 
                "format": "text/plain"
            }
        }, 
        {
            "@id": "https://manifests.teklia.com/HIMANIS/LAT9778/words_annotations/http_gallica.bnf.fr_iiif_ark:_12148_btv1b90683044_f88_full_full_0_native.jpg.json/20/line", 
            "@type": "oa:Annotation", 
            "motivation": "oa:painting", 
            "on": "http://gallica.bnf.fr/iiif/ark:/12148/btv1b90683044/canvas/f88#xywh=4925,2194,42,167", 
            "resource": {
                "@type": "cnt:ContentAsText", 
                "chars": "DE", 
                "format": "text/plain"
            }
        }, 
        {
            "@id": "https://manifests.teklia.com/HIMANIS/LAT9778/words_annotations/http_gallica.bnf.fr_iiif_ark:_12148_btv1b90683044_f88_full_full_0_native.jpg.json/21/line", 
            "@type": "oa:Annotation", 
            "motivation": "oa:painting", 
            "on": "http://gallica.bnf.fr/iiif/ark:/12148/btv1b90683044/canvas/f88#xywh=1528,1522,304,102", 
            "resource": {
                "@type": "cnt:ContentAsText", 
                "chars": "CELL", 
                "format": "text/plain"
            }
        }, 
        {
            "@id": "https://manifests.teklia.com/HIMANIS/LAT9778/words_annotations/http_gallica.bnf.fr_iiif_ark:_12148_btv1b90683044_f88_full_full_0_native.jpg.json/22/line", 
            "@type": "oa:Annotation", 
            "motivation": "oa:painting", 
            "on": "http://gallica.bnf.fr/iiif/ark:/12148/btv1b90683044/canvas/f88#xywh=1861,5176,69,91", 
            "resource": {
                "@type": "cnt:ContentAsText", 
                "chars": "LES", 
                "format": "text/plain"
            }
        }, 
        {
            "@id": "https://manifests.teklia.com/HIMANIS/LAT9778/words_annotations/http_gallica.bnf.fr_iiif_ark:_12148_btv1b90683044_f88_full_full_0_native.jpg.json/23/line", 
            "@type": "oa:Annotation", 
            "motivation": "oa:painting", 
            "on": "http://gallica.bnf.fr/iiif/ark:/12148/btv1b90683044/canvas/f88#xywh=1769,1522,0,102", 
            "resource": {
                "@type": "cnt:ContentAsText", 
                "chars": "E", 
                "format": "text/plain"
            }
        }, 
        {
            "@id": "https://manifests.teklia.com/HIMANIS/LAT9778/words_annotations/http_gallica.bnf.fr_iiif_ark:_12148_btv1b90683044_f88_full_full_0_native.jpg.json/24/line", 
            "@type": "oa:Annotation", 
            "motivation": "oa:painting", 
            "on": "http://gallica.bnf.fr/iiif/ark:/12148/btv1b90683044/canvas/f88#xywh=543,2156,87,49", 
            "resource": {
                "@type": "cnt:ContentAsText", 
                "chars": "DE", 
                "format": "text/plain"
            }
        }, 
        {
            "@id": "https://manifests.teklia.com/HIMANIS/LAT9778/words_annotations/http_gallica.bnf.fr_iiif_ark:_12148_btv1b90683044_f88_full_full_0_native.jpg.json/25/line", 
            "@type": "oa:Annotation", 
            "motivation": "oa:painting", 
            "on": "http://gallica.bnf.fr/iiif/ark:/12148/btv1b90683044/canvas/f88#xywh=1769,1522,0,102", 
            "resource": {
                "@type": "cnt:ContentAsText", 
                "chars": "L", 
                "format": "text/plain"
            }
        }, 
        {
            "@id": "https://manifests.teklia.com/HIMANIS/LAT9778/words_annotations/http_gallica.bnf.fr_iiif_ark:_12148_btv1b90683044_f88_full_full_0_native.jpg.json/26/line", 
            "@type": "oa:Annotation", 
            "motivation": "oa:painting", 
            "on": "http://gallica.bnf.fr/iiif/ark:/12148/btv1b90683044/canvas/f88#xywh=4465,0,58,93", 
            "resource": {
                "@type": "cnt:ContentAsText", 
                "chars": "LES", 
                "format": "text/plain"
            }
        }, 
        {
            "@id": "https://manifests.teklia.com/HIMANIS/LAT9778/words_annotations/http_gallica.bnf.fr_iiif_ark:_12148_btv1b90683044_f88_full_full_0_native.jpg.json/27/line", 
            "@type": "oa:Annotation", 
            "motivation": "oa:painting", 
            "on": "http://gallica.bnf.fr/iiif/ark:/12148/btv1b90683044/canvas/f88#xywh=348,5472,202,49", 
            "resource": {
                "@type": "cnt:ContentAsText", 
                "chars": "PER", 
                "format": "text/plain"
            }
        }, 
        {
            "@id": "https://manifests.teklia.com/HIMANIS/LAT9778/words_annotations/http_gallica.bnf.fr_iiif_ark:_12148_btv1b90683044_f88_full_full_0_native.jpg.json/28/line", 
            "@type": "oa:Annotation", 
            "motivation": "oa:painting", 
            "on": "http://gallica.bnf.fr/iiif/ark:/12148/btv1b90683044/canvas/f88#xywh=1528,1522,216,102", 
            "resource": {
                "@type": "cnt:ContentAsText", 
                "chars": "ET", 
                "format": "text/plain"
            }
        }, 
        {
            "@id": "https://manifests.teklia.com/HIMANIS/LAT9778/words_annotations/http_gallica.bnf.fr_iiif_ark:_12148_btv1b90683044_f88_full_full_0_native.jpg.json/29/line", 
            "@type": "oa:Annotation", 
            "motivation": "oa:painting", 
            "on": "http://gallica.bnf.fr/iiif/ark:/12148/btv1b90683044/canvas/f88#xywh=1453,1775,189,65", 
            "resource": {
                "@type": "cnt:ContentAsText", 
                "chars": "QUE", 
                "format": "text/plain"
            }
        }, 
        {
            "@id": "https://manifests.teklia.com/HIMANIS/LAT9778/words_annotations/http_gallica.bnf.fr_iiif_ark:_12148_btv1b90683044_f88_full_full_0_native.jpg.json/30/line", 
            "@type": "oa:Annotation", 
            "motivation": "oa:painting", 
            "on": "http://gallica.bnf.fr/iiif/ark:/12148/btv1b90683044/canvas/f88#xywh=1842,5095,374,89", 
            "resource": {
                "@type": "cnt:ContentAsText", 
                "chars": "ADMISSELLE", 
                "format": "text/plain"
            }
        }, 
        {
            "@id": "https://manifests.teklia.com/HIMANIS/LAT9778/words_annotations/http_gallica.bnf.fr_iiif_ark:_12148_btv1b90683044_f88_full_full_0_native.jpg.json/31/line", 
            "@type": "oa:Annotation", 
            "motivation": "oa:painting", 
            "on": "http://gallica.bnf.fr/iiif/ark:/12148/btv1b90683044/canvas/f88#xywh=1159,4838,259,112", 
            "resource": {
                "@type": "cnt:ContentAsText", 
                "chars": "PE", 
                "format": "text/plain"
            }
        }, 
        {
            "@id": "https://manifests.teklia.com/HIMANIS/LAT9778/words_annotations/http_gallica.bnf.fr_iiif_ark:_12148_btv1b90683044_f88_full_full_0_native.jpg.json/32/line", 
            "@type": "oa:Annotation", 
            "motivation": "oa:painting", 
            "on": "http://gallica.bnf.fr/iiif/ark:/12148/btv1b90683044/canvas/f88#xywh=401,2106,222,54", 
            "resource": {
                "@type": "cnt:ContentAsText", 
                "chars": "PHIL", 
                "format": "text/plain"
            }
        }, 
        {
            "@id": "https://manifests.teklia.com/HIMANIS/LAT9778/words_annotations/http_gallica.bnf.fr_iiif_ark:_12148_btv1b90683044_f88_full_full_0_native.jpg.json/33/line", 
            "@type": "oa:Annotation", 
            "motivation": "oa:painting", 
            "on": "http://gallica.bnf.fr/iiif/ark:/12148/btv1b90683044/canvas/f88#xywh=4605,2269,408,73", 
            "resource": {
                "@type": "cnt:ContentAsText", 
                "chars": "PER", 
                "format": "text/plain"
            }
        }, 
        {
            "@id": "https://manifests.teklia.com/HIMANIS/LAT9778/words_annotations/http_gallica.bnf.fr_iiif_ark:_12148_btv1b90683044_f88_full_full_0_native.jpg.json/34/line", 
            "@type": "oa:Annotation", 
            "motivation": "oa:painting", 
            "on": "http://gallica.bnf.fr/iiif/ark:/12148/btv1b90683044/canvas/f88#xywh=2359,5176,234,91", 
            "resource": {
                "@type": "cnt:ContentAsText", 
                "chars": "ENSUIT", 
                "format": "text/plain"
            }
        }, 
        {
            "@id": "https://manifests.teklia.com/HIMANIS/LAT9778/words_annotations/http_gallica.bnf.fr_iiif_ark:_12148_btv1b90683044_f88_full_full_0_native.jpg.json/35/line", 
            "@type": "oa:Annotation", 
            "motivation": "oa:painting", 
            "on": "http://gallica.bnf.fr/iiif/ark:/12148/btv1b90683044/canvas/f88#xywh=4748,3520,274,78", 
            "resource": {
                "@type": "cnt:ContentAsText", 
                "chars": "PER", 
                "format": "text/plain"
            }
        }, 
        {
            "@id": "https://manifests.teklia.com/HIMANIS/LAT9778/words_annotations/http_gallica.bnf.fr_iiif_ark:_12148_btv1b90683044_f88_full_full_0_native.jpg.json/36/line", 
            "@type": "oa:Annotation", 
            "motivation": "oa:painting", 
            "on": "http://gallica.bnf.fr/iiif/ark:/12148/btv1b90683044/canvas/f88#xywh=2238,5095,45,89", 
            "resource": {
                "@type": "cnt:ContentAsText", 
                "chars": "DE", 
                "format": "text/plain"
            }
        }, 
        {
            "@id": "https://manifests.teklia.com/HIMANIS/LAT9778/words_annotations/http_gallica.bnf.fr_iiif_ark:_12148_btv1b90683044_f88_full_full_0_native.jpg.json/37/line", 
            "@type": "oa:Annotation", 
            "motivation": "oa:painting", 
            "on": "http://gallica.bnf.fr/iiif/ark:/12148/btv1b90683044/canvas/f88#xywh=509,5221,132,76", 
            "resource": {
                "@type": "cnt:ContentAsText", 
                "chars": "EN", 
                "format": "text/plain"
            }
        }, 
        {
            "@id": "https://manifests.teklia.com/HIMANIS/LAT9778/words_annotations/http_gallica.bnf.fr_iiif_ark:_12148_btv1b90683044_f88_full_full_0_native.jpg.json/38/line", 
            "@type": "oa:Annotation", 
            "motivation": "oa:painting", 
            "on": "http://gallica.bnf.fr/iiif/ark:/12148/btv1b90683044/canvas/f88#xywh=1842,5095,374,89", 
            "resource": {
                "@type": "cnt:ContentAsText", 
                "chars": "LANDAMISSELLE", 
                "format": "text/plain"
            }
        }, 
        {
            "@id": "https://manifests.teklia.com/HIMANIS/LAT9778/words_annotations/http_gallica.bnf.fr_iiif_ark:_12148_btv1b90683044_f88_full_full_0_native.jpg.json/39/line", 
            "@type": "oa:Annotation", 
            "motivation": "oa:painting", 
            "on": "http://gallica.bnf.fr/iiif/ark:/12148/btv1b90683044/canvas/f88#xywh=4760,1142,182,64", 
            "resource": {
                "@type": "cnt:ContentAsText", 
                "chars": "DE", 
                "format": "text/plain"
            }
        }, 
        {
            "@id": "https://manifests.teklia.com/HIMANIS/LAT9778/words_annotations/http_gallica.bnf.fr_iiif_ark:_12148_btv1b90683044_f88_full_full_0_native.jpg.json/40/line", 
            "@type": "oa:Annotation", 
            "motivation": "oa:painting", 
            "on": "http://gallica.bnf.fr/iiif/ark:/12148/btv1b90683044/canvas/f88#xywh=1208,4437,389,48", 
            "resource": {
                "@type": "cnt:ContentAsText", 
                "chars": "EN", 
                "format": "text/plain"
            }
        }, 
        {
            "@id": "https://manifests.teklia.com/HIMANIS/LAT9778/words_annotations/http_gallica.bnf.fr_iiif_ark:_12148_btv1b90683044_f88_full_full_0_native.jpg.json/41/line", 
            "@type": "oa:Annotation", 
            "motivation": "oa:painting", 
            "on": "http://gallica.bnf.fr/iiif/ark:/12148/btv1b90683044/canvas/f88#xywh=1208,4437,389,48", 
            "resource": {
                "@type": "cnt:ContentAsText", 
                "chars": "ET", 
                "format": "text/plain"
            }
        }, 
        {
            "@id": "https://manifests.teklia.com/HIMANIS/LAT9778/words_annotations/http_gallica.bnf.fr_iiif_ark:_12148_btv1b90683044_f88_full_full_0_native.jpg.json/42/line", 
            "@type": "oa:Annotation", 
            "motivation": "oa:painting", 
            "on": "http://gallica.bnf.fr/iiif/ark:/12148/btv1b90683044/canvas/f88#xywh=338,3963,306,57", 
            "resource": {
                "@type": "cnt:ContentAsText", 
                "chars": "ET", 
                "format": "text/plain"
            }
        }, 
        {
            "@id": "https://manifests.teklia.com/HIMANIS/LAT9778/words_annotations/http_gallica.bnf.fr_iiif_ark:_12148_btv1b90683044_f88_full_full_0_native.jpg.json/43/line", 
            "@type": "oa:Annotation", 
            "motivation": "oa:painting", 
            "on": "http://gallica.bnf.fr/iiif/ark:/12148/btv1b90683044/canvas/f88#xywh=3145,5161,137,77", 
            "resource": {
                "@type": "cnt:ContentAsText", 
                "chars": "NEUR", 
                "format": "text/plain"
            }
        }, 
        {
            "@id": "https://manifests.teklia.com/HIMANIS/LAT9778/words_annotations/http_gallica.bnf.fr_iiif_ark:_12148_btv1b90683044_f88_full_full_0_native.jpg.json/44/line", 
            "@type": "oa:Annotation", 
            "motivation": "oa:painting", 
            "on": "http://gallica.bnf.fr/iiif/ark:/12148/btv1b90683044/canvas/f88#xywh=2311,5095,151,89", 
            "resource": {
                "@type": "cnt:ContentAsText", 
                "chars": "DIEU", 
                "format": "text/plain"
            }
        }, 
        {
            "@id": "https://manifests.teklia.com/HIMANIS/LAT9778/words_annotations/http_gallica.bnf.fr_iiif_ark:_12148_btv1b90683044_f88_full_full_0_native.jpg.json/45/line", 
            "@type": "oa:Annotation", 
            "motivation": "oa:painting", 
            "on": "http://gallica.bnf.fr/iiif/ark:/12148/btv1b90683044/canvas/f88#xywh=408,4458,198,46", 
            "resource": {
                "@type": "cnt:ContentAsText", 
                "chars": "ET", 
                "format": "text/plain"
            }
        }, 
        {
            "@id": "https://manifests.teklia.com/HIMANIS/LAT9778/words_annotations/http_gallica.bnf.fr_iiif_ark:_12148_btv1b90683044_f88_full_full_0_native.jpg.json/46/line", 
            "@type": "oa:Annotation", 
            "motivation": "oa:painting", 
            "on": "http://gallica.bnf.fr/iiif/ark:/12148/btv1b90683044/canvas/f88#xywh=2790,5716,296,198", 
            "resource": {
                "@type": "cnt:ContentAsText", 
                "chars": "FORDIERS", 
                "format": "text/plain"
            }
        }, 
        {
            "@id": "https://manifests.teklia.com/HIMANIS/LAT9778/words_annotations/http_gallica.bnf.fr_iiif_ark:_12148_btv1b90683044_f88_full_full_0_native.jpg.json/47/line", 
            "@type": "oa:Annotation", 
            "motivation": "oa:painting", 
            "on": "http://gallica.bnf.fr/iiif/ark:/12148/btv1b90683044/canvas/f88#xywh=3866,5131,145,100", 
            "resource": {
                "@type": "cnt:ContentAsText", 
                "chars": "DE", 
                "format": "text/plain"
            }
        }, 
        {
            "@id": "https://manifests.teklia.com/HIMANIS/LAT9778/words_annotations/http_gallica.bnf.fr_iiif_ark:_12148_btv1b90683044_f88_full_full_0_native.jpg.json/48/line", 
            "@type": "oa:Annotation", 
            "motivation": "oa:painting", 
            "on": "http://gallica.bnf.fr/iiif/ark:/12148/btv1b90683044/canvas/f88#xywh=400,1057,72,26", 
            "resource": {
                "@type": "cnt:ContentAsText", 
                "chars": "DE", 
                "format": "text/plain"
            }
        }, 
        {
            "@id": "https://manifests.teklia.com/HIMANIS/LAT9778/words_annotations/http_gallica.bnf.fr_iiif_ark:_12148_btv1b90683044_f88_full_full_0_native.jpg.json/49/line", 
            "@type": "oa:Annotation", 
            "motivation": "oa:painting", 
            "on": "http://gallica.bnf.fr/iiif/ark:/12148/btv1b90683044/canvas/f88#xywh=4465,0,12,93", 
            "resource": {
                "@type": "cnt:ContentAsText", 
                "chars": "DE", 
                "format": "text/plain"
            }
        }, 
        {
            "@id": "https://manifests.teklia.com/HIMANIS/LAT9778/words_annotations/http_gallica.bnf.fr_iiif_ark:_12148_btv1b90683044_f88_full_full_0_native.jpg.json/50/line", 
            "@type": "oa:Annotation", 
            "motivation": "oa:painting", 
            "on": "http://gallica.bnf.fr/iiif/ark:/12148/btv1b90683044/canvas/f88#xywh=374,4405,140,50", 
            "resource": {
                "@type": "cnt:ContentAsText", 
                "chars": "ET", 
                "format": "text/plain"
            }
        }, 
        {
            "@id": "https://manifests.teklia.com/HIMANIS/LAT9778/words_annotations/http_gallica.bnf.fr_iiif_ark:_12148_btv1b90683044_f88_full_full_0_native.jpg.json/51/line", 
            "@type": "oa:Annotation", 
            "motivation": "oa:painting", 
            "on": "http://gallica.bnf.fr/iiif/ark:/12148/btv1b90683044/canvas/f88#xywh=361,664,224,145", 
            "resource": {
                "@type": "cnt:ContentAsText", 
                "chars": "PHILIPPUS", 
                "format": "text/plain"
            }
        }, 
        {
            "@id": "https://manifests.teklia.com/HIMANIS/LAT9778/words_annotations/http_gallica.bnf.fr_iiif_ark:_12148_btv1b90683044_f88_full_full_0_native.jpg.json/52/line", 
            "@type": "oa:Annotation", 
            "motivation": "oa:painting", 
            "on": "http://gallica.bnf.fr/iiif/ark:/12148/btv1b90683044/canvas/f88#xywh=450,5397,0,69", 
            "resource": {
                "@type": "cnt:ContentAsText", 
                "chars": "J", 
                "format": "text/plain"
            }
        }, 
        {
            "@id": "https://manifests.teklia.com/HIMANIS/LAT9778/words_annotations/http_gallica.bnf.fr_iiif_ark:_12148_btv1b90683044_f88_full_full_0_native.jpg.json/53/line", 
            "@type": "oa:Annotation", 
            "motivation": "oa:painting", 
            "on": "http://gallica.bnf.fr/iiif/ark:/12148/btv1b90683044/canvas/f88#xywh=361,664,215,145", 
            "resource": {
                "@type": "cnt:ContentAsText", 
                "chars": "PHILIPPES", 
                "format": "text/plain"
            }
        }, 
        {
            "@id": "https://manifests.teklia.com/HIMANIS/LAT9778/words_annotations/http_gallica.bnf.fr_iiif_ark:_12148_btv1b90683044_f88_full_full_0_native.jpg.json/54/line", 
            "@type": "oa:Annotation", 
            "motivation": "oa:painting", 
            "on": "http://gallica.bnf.fr/iiif/ark:/12148/btv1b90683044/canvas/f88#xywh=1431,1903,203,83", 
            "resource": {
                "@type": "cnt:ContentAsText", 
                "chars": "MAII", 
                "format": "text/plain"
            }
        }, 
        {
            "@id": "https://manifests.teklia.com/HIMANIS/LAT9778/words_annotations/http_gallica.bnf.fr_iiif_ark:_12148_btv1b90683044_f88_full_full_0_native.jpg.json/55/line", 
            "@type": "oa:Annotation", 
            "motivation": "oa:painting", 
            "on": "http://gallica.bnf.fr/iiif/ark:/12148/btv1b90683044/canvas/f88#xywh=1265,4665,2577,173", 
            "resource": {
                "@type": "cnt:ContentAsText", 
                "chars": "ASSALUT", 
                "format": "text/plain"
            }
        }, 
        {
            "@id": "https://manifests.teklia.com/HIMANIS/LAT9778/words_annotations/http_gallica.bnf.fr_iiif_ark:_12148_btv1b90683044_f88_full_full_0_native.jpg.json/56/line", 
            "@type": "oa:Annotation", 
            "motivation": "oa:painting", 
            "on": "http://gallica.bnf.fr/iiif/ark:/12148/btv1b90683044/canvas/f88#xywh=3200,3539,184,113", 
            "resource": {
                "@type": "cnt:ContentAsText", 
                "chars": "LA", 
                "format": "text/plain"
            }
        }, 
        {
            "@id": "https://manifests.teklia.com/HIMANIS/LAT9778/words_annotations/http_gallica.bnf.fr_iiif_ark:_12148_btv1b90683044_f88_full_full_0_native.jpg.json/57/line", 
            "@type": "oa:Annotation", 
            "motivation": "oa:painting", 
            "on": "http://gallica.bnf.fr/iiif/ark:/12148/btv1b90683044/canvas/f88#xywh=391,2156,242,49", 
            "resource": {
                "@type": "cnt:ContentAsText", 
                "chars": "ET", 
                "format": "text/plain"
            }
        }, 
        {
            "@id": "https://manifests.teklia.com/HIMANIS/LAT9778/words_annotations/http_gallica.bnf.fr_iiif_ark:_12148_btv1b90683044_f88_full_full_0_native.jpg.json/58/line", 
            "@type": "oa:Annotation", 
            "motivation": "oa:painting", 
            "on": "http://gallica.bnf.fr/iiif/ark:/12148/btv1b90683044/canvas/f88#xywh=1178,3621,530,102", 
            "resource": {
                "@type": "cnt:ContentAsText", 
                "chars": "PER", 
                "format": "text/plain"
            }
        }, 
        {
            "@id": "https://manifests.teklia.com/HIMANIS/LAT9778/words_annotations/http_gallica.bnf.fr_iiif_ark:_12148_btv1b90683044_f88_full_full_0_native.jpg.json/59/line", 
            "@type": "oa:Annotation", 
            "motivation": "oa:painting", 
            "on": "http://gallica.bnf.fr/iiif/ark:/12148/btv1b90683044/canvas/f88#xywh=3837,4188,1131,93", 
            "resource": {
                "@type": "cnt:ContentAsText", 
                "chars": "NE", 
                "format": "text/plain"
            }
        }, 
        {
            "@id": "https://manifests.teklia.com/HIMANIS/LAT9778/words_annotations/http_gallica.bnf.fr_iiif_ark:_12148_btv1b90683044_f88_full_full_0_native.jpg.json/60/line", 
            "@type": "oa:Annotation", 
            "motivation": "oa:painting", 
            "on": "http://gallica.bnf.fr/iiif/ark:/12148/btv1b90683044/canvas/f88#xywh=4605,2269,394,73", 
            "resource": {
                "@type": "cnt:ContentAsText", 
                "chars": "ET", 
                "format": "text/plain"
            }
        }, 
        {
            "@id": "https://manifests.teklia.com/HIMANIS/LAT9778/words_annotations/http_gallica.bnf.fr_iiif_ark:_12148_btv1b90683044_f88_full_full_0_native.jpg.json/61/line", 
            "@type": "oa:Annotation", 
            "motivation": "oa:painting", 
            "on": "http://gallica.bnf.fr/iiif/ark:/12148/btv1b90683044/canvas/f88#xywh=391,2156,242,49", 
            "resource": {
                "@type": "cnt:ContentAsText", 
                "chars": "EORUM", 
                "format": "text/plain"
            }
        }, 
        {
            "@id": "https://manifests.teklia.com/HIMANIS/LAT9778/words_annotations/http_gallica.bnf.fr_iiif_ark:_12148_btv1b90683044_f88_full_full_0_native.jpg.json/62/line", 
            "@type": "oa:Annotation", 
            "motivation": "oa:painting", 
            "on": "http://gallica.bnf.fr/iiif/ark:/12148/btv1b90683044/canvas/f88#xywh=4896,1828,0,76", 
            "resource": {
                "@type": "cnt:ContentAsText", 
                "chars": "R", 
                "format": "text/plain"
            }
        }, 
        {
            "@id": "https://manifests.teklia.com/HIMANIS/LAT9778/words_annotations/http_gallica.bnf.fr_iiif_ark:_12148_btv1b90683044_f88_full_full_0_native.jpg.json/63/line", 
            "@type": "oa:Annotation", 
            "motivation": "oa:painting", 
            "on": "http://gallica.bnf.fr/iiif/ark:/12148/btv1b90683044/canvas/f88#xywh=4760,1142,214,64", 
            "resource": {
                "@type": "cnt:ContentAsText", 
                "chars": "DOMI", 
                "format": "text/plain"
            }
        }, 
        {
            "@id": "https://manifests.teklia.com/HIMANIS/LAT9778/words_annotations/http_gallica.bnf.fr_iiif_ark:_12148_btv1b90683044_f88_full_full_0_native.jpg.json/64/line", 
            "@type": "oa:Annotation", 
            "motivation": "oa:painting", 
            "on": "http://gallica.bnf.fr/iiif/ark:/12148/btv1b90683044/canvas/f88#xywh=320,3767,330,83", 
            "resource": {
                "@type": "cnt:ContentAsText", 
                "chars": "DE", 
                "format": "text/plain"
            }
        }, 
        {
            "@id": "https://manifests.teklia.com/HIMANIS/LAT9778/words_annotations/http_gallica.bnf.fr_iiif_ark:_12148_btv1b90683044_f88_full_full_0_native.jpg.json/65/line", 
            "@type": "oa:Annotation", 
            "motivation": "oa:painting", 
            "on": "http://gallica.bnf.fr/iiif/ark:/12148/btv1b90683044/canvas/f88#xywh=4765,562,132,79", 
            "resource": {
                "@type": "cnt:ContentAsText", 
                "chars": "PHILIPPUS", 
                "format": "text/plain"
            }
        }, 
        {
            "@id": "https://manifests.teklia.com/HIMANIS/LAT9778/words_annotations/http_gallica.bnf.fr_iiif_ark:_12148_btv1b90683044_f88_full_full_0_native.jpg.json/66/line", 
            "@type": "oa:Annotation", 
            "motivation": "oa:painting", 
            "on": "http://gallica.bnf.fr/iiif/ark:/12148/btv1b90683044/canvas/f88#xywh=4765,562,127,79", 
            "resource": {
                "@type": "cnt:ContentAsText", 
                "chars": "PHILIPPES", 
                "format": "text/plain"
            }
        }, 
        {
            "@id": "https://manifests.teklia.com/HIMANIS/LAT9778/words_annotations/http_gallica.bnf.fr_iiif_ark:_12148_btv1b90683044_f88_full_full_0_native.jpg.json/67/line", 
            "@type": "oa:Annotation", 
            "motivation": "oa:painting", 
            "on": "http://gallica.bnf.fr/iiif/ark:/12148/btv1b90683044/canvas/f88#xywh=348,5472,604,49", 
            "resource": {
                "@type": "cnt:ContentAsText", 
                "chars": "PHELIP", 
                "format": "text/plain"
            }
        }, 
        {
            "@id": "https://manifests.teklia.com/HIMANIS/LAT9778/words_annotations/http_gallica.bnf.fr_iiif_ark:_12148_btv1b90683044_f88_full_full_0_native.jpg.json/68/line", 
            "@type": "oa:Annotation", 
            "motivation": "oa:painting", 
            "on": "http://gallica.bnf.fr/iiif/ark:/12148/btv1b90683044/canvas/f88#xywh=1286,1903,57,83", 
            "resource": {
                "@type": "cnt:ContentAsText", 
                "chars": "LA", 
                "format": "text/plain"
            }
        }, 
        {
            "@id": "https://manifests.teklia.com/HIMANIS/LAT9778/words_annotations/http_gallica.bnf.fr_iiif_ark:_12148_btv1b90683044_f88_full_full_0_native.jpg.json/69/line", 
            "@type": "oa:Annotation", 
            "motivation": "oa:painting", 
            "on": "http://gallica.bnf.fr/iiif/ark:/12148/btv1b90683044/canvas/f88#xywh=1286,1903,57,83", 
            "resource": {
                "@type": "cnt:ContentAsText", 
                "chars": "LE", 
                "format": "text/plain"
            }
        }, 
        {
            "@id": "https://manifests.teklia.com/HIMANIS/LAT9778/words_annotations/http_gallica.bnf.fr_iiif_ark:_12148_btv1b90683044_f88_full_full_0_native.jpg.json/70/line", 
            "@type": "oa:Annotation", 
            "motivation": "oa:painting", 
            "on": "http://gallica.bnf.fr/iiif/ark:/12148/btv1b90683044/canvas/f88#xywh=3145,5161,137,77", 
            "resource": {
                "@type": "cnt:ContentAsText", 
                "chars": "RENT", 
                "format": "text/plain"
            }
        }, 
        {
            "@id": "https://manifests.teklia.com/HIMANIS/LAT9778/words_annotations/http_gallica.bnf.fr_iiif_ark:_12148_btv1b90683044_f88_full_full_0_native.jpg.json/71/line", 
            "@type": "oa:Annotation", 
            "motivation": "oa:painting", 
            "on": "http://gallica.bnf.fr/iiif/ark:/12148/btv1b90683044/canvas/f88#xywh=450,5397,224,69", 
            "resource": {
                "@type": "cnt:ContentAsText", 
                "chars": "JE", 
                "format": "text/plain"
            }
        }, 
        {
            "@id": "https://manifests.teklia.com/HIMANIS/LAT9778/words_annotations/http_gallica.bnf.fr_iiif_ark:_12148_btv1b90683044_f88_full_full_0_native.jpg.json/72/line", 
            "@type": "oa:Annotation", 
            "motivation": "oa:painting", 
            "on": "http://gallica.bnf.fr/iiif/ark:/12148/btv1b90683044/canvas/f88#xywh=1178,3621,556,102", 
            "resource": {
                "@type": "cnt:ContentAsText", 
                "chars": "PHILI", 
                "format": "text/plain"
            }
        }, 
        {
            "@id": "https://manifests.teklia.com/HIMANIS/LAT9778/words_annotations/http_gallica.bnf.fr_iiif_ark:_12148_btv1b90683044_f88_full_full_0_native.jpg.json/73/line", 
            "@type": "oa:Annotation", 
            "motivation": "oa:painting", 
            "on": "http://gallica.bnf.fr/iiif/ark:/12148/btv1b90683044/canvas/f88#xywh=4376,5131,669,100", 
            "resource": {
                "@type": "cnt:ContentAsText", 
                "chars": "ET", 
                "format": "text/plain"
            }
        }, 
        {
            "@id": "https://manifests.teklia.com/HIMANIS/LAT9778/words_annotations/http_gallica.bnf.fr_iiif_ark:_12148_btv1b90683044_f88_full_full_0_native.jpg.json/74/line", 
            "@type": "oa:Annotation", 
            "motivation": "oa:painting", 
            "on": "http://gallica.bnf.fr/iiif/ark:/12148/btv1b90683044/canvas/f88#xywh=400,1057,78,26", 
            "resource": {
                "@type": "cnt:ContentAsText", 
                "chars": "ET", 
                "format": "text/plain"
            }
        }, 
        {
            "@id": "https://manifests.teklia.com/HIMANIS/LAT9778/words_annotations/http_gallica.bnf.fr_iiif_ark:_12148_btv1b90683044_f88_full_full_0_native.jpg.json/75/line", 
            "@type": "oa:Annotation", 
            "motivation": "oa:painting", 
            "on": "http://gallica.bnf.fr/iiif/ark:/12148/btv1b90683044/canvas/f88#xywh=4835,854,172,100", 
            "resource": {
                "@type": "cnt:ContentAsText", 
                "chars": "AD", 
                "format": "text/plain"
            }
        }, 
        {
            "@id": "https://manifests.teklia.com/HIMANIS/LAT9778/words_annotations/http_gallica.bnf.fr_iiif_ark:_12148_btv1b90683044_f88_full_full_0_native.jpg.json/76/line", 
            "@type": "oa:Annotation", 
            "motivation": "oa:painting", 
            "on": "http://gallica.bnf.fr/iiif/ark:/12148/btv1b90683044/canvas/f88#xywh=4835,854,68,100", 
            "resource": {
                "@type": "cnt:ContentAsText", 
                "chars": "QU", 
                "format": "text/plain"
            }
        }, 
        {
            "@id": "https://manifests.teklia.com/HIMANIS/LAT9778/words_annotations/http_gallica.bnf.fr_iiif_ark:_12148_btv1b90683044_f88_full_full_0_native.jpg.json/77/line", 
            "@type": "oa:Annotation", 
            "motivation": "oa:painting", 
            "on": "http://gallica.bnf.fr/iiif/ark:/12148/btv1b90683044/canvas/f88#xywh=3519,3539,263,113", 
            "resource": {
                "@type": "cnt:ContentAsText", 
                "chars": "GRACIANT", 
                "format": "text/plain"
            }
        }, 
        {
            "@id": "https://manifests.teklia.com/HIMANIS/LAT9778/words_annotations/http_gallica.bnf.fr_iiif_ark:_12148_btv1b90683044_f88_full_full_0_native.jpg.json/78/line", 
            "@type": "oa:Annotation", 
            "motivation": "oa:painting", 
            "on": "http://gallica.bnf.fr/iiif/ark:/12148/btv1b90683044/canvas/f88#xywh=4804,6101,99,72", 
            "resource": {
                "@type": "cnt:ContentAsText", 
                "chars": "DE", 
                "format": "text/plain"
            }
        }, 
        {
            "@id": "https://manifests.teklia.com/HIMANIS/LAT9778/words_annotations/http_gallica.bnf.fr_iiif_ark:_12148_btv1b90683044_f88_full_full_0_native.jpg.json/79/line", 
            "@type": "oa:Annotation", 
            "motivation": "oa:painting", 
            "on": "http://gallica.bnf.fr/iiif/ark:/12148/btv1b90683044/canvas/f88#xywh=4255,4665,76,173", 
            "resource": {
                "@type": "cnt:ContentAsText", 
                "chars": "LE", 
                "format": "text/plain"
            }
        }, 
        {
            "@id": "https://manifests.teklia.com/HIMANIS/LAT9778/words_annotations/http_gallica.bnf.fr_iiif_ark:_12148_btv1b90683044_f88_full_full_0_native.jpg.json/80/line", 
            "@type": "oa:Annotation", 
            "motivation": "oa:painting", 
            "on": "http://gallica.bnf.fr/iiif/ark:/12148/btv1b90683044/canvas/f88#xywh=374,4405,181,50", 
            "resource": {
                "@type": "cnt:ContentAsText", 
                "chars": "PHILI", 
                "format": "text/plain"
            }
        }, 
        {
            "@id": "https://manifests.teklia.com/HIMANIS/LAT9778/words_annotations/http_gallica.bnf.fr_iiif_ark:_12148_btv1b90683044_f88_full_full_0_native.jpg.json/81/line", 
            "@type": "oa:Annotation", 
            "motivation": "oa:painting", 
            "on": "http://gallica.bnf.fr/iiif/ark:/12148/btv1b90683044/canvas/f88#xywh=1329,1775,62,65", 
            "resource": {
                "@type": "cnt:ContentAsText", 
                "chars": "DIT", 
                "format": "text/plain"
            }
        }, 
        {
            "@id": "https://manifests.teklia.com/HIMANIS/LAT9778/words_annotations/http_gallica.bnf.fr_iiif_ark:_12148_btv1b90683044_f88_full_full_0_native.jpg.json/82/line", 
            "@type": "oa:Annotation", 
            "motivation": "oa:painting", 
            "on": "http://gallica.bnf.fr/iiif/ark:/12148/btv1b90683044/canvas/f88#xywh=4605,2269,0,73", 
            "resource": {
                "@type": "cnt:ContentAsText", 
                "chars": "P", 
                "format": "text/plain"
            }
        }, 
        {
            "@id": "https://manifests.teklia.com/HIMANIS/LAT9778/words_annotations/http_gallica.bnf.fr_iiif_ark:_12148_btv1b90683044_f88_full_full_0_native.jpg.json/83/line", 
            "@type": "oa:Annotation", 
            "motivation": "oa:painting", 
            "on": "http://gallica.bnf.fr/iiif/ark:/12148/btv1b90683044/canvas/f88#xywh=4748,3520,260,78", 
            "resource": {
                "@type": "cnt:ContentAsText", 
                "chars": "ET", 
                "format": "text/plain"
            }
        }, 
        {
            "@id": "https://manifests.teklia.com/HIMANIS/LAT9778/words_annotations/http_gallica.bnf.fr_iiif_ark:_12148_btv1b90683044_f88_full_full_0_native.jpg.json/84/line", 
            "@type": "oa:Annotation", 
            "motivation": "oa:painting", 
            "on": "http://gallica.bnf.fr/iiif/ark:/12148/btv1b90683044/canvas/f88#xywh=240,5834,426,153", 
            "resource": {
                "@type": "cnt:ContentAsText", 
                "chars": "DE", 
                "format": "text/plain"
            }
        }, 
        {
            "@id": "https://manifests.teklia.com/HIMANIS/LAT9778/words_annotations/http_gallica.bnf.fr_iiif_ark:_12148_btv1b90683044_f88_full_full_0_native.jpg.json/85/line", 
            "@type": "oa:Annotation", 
            "motivation": "oa:painting", 
            "on": "http://gallica.bnf.fr/iiif/ark:/12148/btv1b90683044/canvas/f88#xywh=402,4626,100,38", 
            "resource": {
                "@type": "cnt:ContentAsText", 
                "chars": "DE", 
                "format": "text/plain"
            }
        }, 
        {
            "@id": "https://manifests.teklia.com/HIMANIS/LAT9778/words_annotations/http_gallica.bnf.fr_iiif_ark:_12148_btv1b90683044_f88_full_full_0_native.jpg.json/86/line", 
            "@type": "oa:Annotation", 
            "motivation": "oa:painting", 
            "on": "http://gallica.bnf.fr/iiif/ark:/12148/btv1b90683044/canvas/f88#xywh=408,4458,227,46", 
            "resource": {
                "@type": "cnt:ContentAsText", 
                "chars": "LES", 
                "format": "text/plain"
            }
        }, 
        {
            "@id": "https://manifests.teklia.com/HIMANIS/LAT9778/words_annotations/http_gallica.bnf.fr_iiif_ark:_12148_btv1b90683044_f88_full_full_0_native.jpg.json/87/line", 
            "@type": "oa:Annotation", 
            "motivation": "oa:painting", 
            "on": "http://gallica.bnf.fr/iiif/ark:/12148/btv1b90683044/canvas/f88#xywh=1901,5716,309,198", 
            "resource": {
                "@type": "cnt:ContentAsText", 
                "chars": "LES", 
                "format": "text/plain"
            }
        }, 
        {
            "@id": "https://manifests.teklia.com/HIMANIS/LAT9778/words_annotations/http_gallica.bnf.fr_iiif_ark:_12148_btv1b90683044_f88_full_full_0_native.jpg.json/88/line", 
            "@type": "oa:Annotation", 
            "motivation": "oa:painting", 
            "on": "http://gallica.bnf.fr/iiif/ark:/12148/btv1b90683044/canvas/f88#xywh=338,3963,328,57", 
            "resource": {
                "@type": "cnt:ContentAsText", 
                "chars": "PHEL", 
                "format": "text/plain"
            }
        }, 
        {
            "@id": "https://manifests.teklia.com/HIMANIS/LAT9778/words_annotations/http_gallica.bnf.fr_iiif_ark:_12148_btv1b90683044_f88_full_full_0_native.jpg.json/89/line", 
            "@type": "oa:Annotation", 
            "motivation": "oa:painting", 
            "on": "http://gallica.bnf.fr/iiif/ark:/12148/btv1b90683044/canvas/f88#xywh=3837,4188,1131,93", 
            "resource": {
                "@type": "cnt:ContentAsText", 
                "chars": "SE", 
                "format": "text/plain"
            }
        }, 
        {
            "@id": "https://manifests.teklia.com/HIMANIS/LAT9778/words_annotations/http_gallica.bnf.fr_iiif_ark:_12148_btv1b90683044_f88_full_full_0_native.jpg.json/90/line", 
            "@type": "oa:Annotation", 
            "motivation": "oa:painting", 
            "on": "http://gallica.bnf.fr/iiif/ark:/12148/btv1b90683044/canvas/f88#xywh=1431,1903,208,83", 
            "resource": {
                "@type": "cnt:ContentAsText", 
                "chars": "DITE", 
                "format": "text/plain"
            }
        }, 
        {
            "@id": "https://manifests.teklia.com/HIMANIS/LAT9778/words_annotations/http_gallica.bnf.fr_iiif_ark:_12148_btv1b90683044_f88_full_full_0_native.jpg.json/91/line", 
            "@type": "oa:Annotation", 
            "motivation": "oa:painting", 
            "on": "http://gallica.bnf.fr/iiif/ark:/12148/btv1b90683044/canvas/f88#xywh=837,891,0,73", 
            "resource": {
                "@type": "cnt:ContentAsText", 
                "chars": "C", 
                "format": "text/plain"
            }
        }, 
        {
            "@id": "https://manifests.teklia.com/HIMANIS/LAT9778/words_annotations/http_gallica.bnf.fr_iiif_ark:_12148_btv1b90683044_f88_full_full_0_native.jpg.json/92/line", 
            "@type": "oa:Annotation", 
            "motivation": "oa:painting", 
            "on": "http://gallica.bnf.fr/iiif/ark:/12148/btv1b90683044/canvas/f88#xywh=2016,5176,154,91", 
            "resource": {
                "@type": "cnt:ContentAsText", 
                "chars": "CHOSES", 
                "format": "text/plain"
            }
        }, 
        {
            "@id": "https://manifests.teklia.com/HIMANIS/LAT9778/words_annotations/http_gallica.bnf.fr_iiif_ark:_12148_btv1b90683044_f88_full_full_0_native.jpg.json/93/line", 
            "@type": "oa:Annotation", 
            "motivation": "oa:painting", 
            "on": "http://gallica.bnf.fr/iiif/ark:/12148/btv1b90683044/canvas/f88#xywh=1159,4838,0,112", 
            "resource": {
                "@type": "cnt:ContentAsText", 
                "chars": "P", 
                "format": "text/plain"
            }
        }, 
        {
            "@id": "https://manifests.teklia.com/HIMANIS/LAT9778/words_annotations/http_gallica.bnf.fr_iiif_ark:_12148_btv1b90683044_f88_full_full_0_native.jpg.json/94/line", 
            "@type": "oa:Annotation", 
            "motivation": "oa:painting", 
            "on": "http://gallica.bnf.fr/iiif/ark:/12148/btv1b90683044/canvas/f88#xywh=1286,1903,88,83", 
            "resource": {
                "@type": "cnt:ContentAsText", 
                "chars": "ET", 
                "format": "text/plain"
            }
        }, 
        {
            "@id": "https://manifests.teklia.com/HIMANIS/LAT9778/words_annotations/http_gallica.bnf.fr_iiif_ark:_12148_btv1b90683044_f88_full_full_0_native.jpg.json/95/line", 
            "@type": "oa:Annotation", 
            "motivation": "oa:painting", 
            "on": "http://gallica.bnf.fr/iiif/ark:/12148/btv1b90683044/canvas/f88#xywh=4997,4413,0,52", 
            "resource": {
                "@type": "cnt:ContentAsText", 
                "chars": "R", 
                "format": "text/plain"
            }
        }, 
        {
            "@id": "https://manifests.teklia.com/HIMANIS/LAT9778/words_annotations/http_gallica.bnf.fr_iiif_ark:_12148_btv1b90683044_f88_full_full_0_native.jpg.json/96/line", 
            "@type": "oa:Annotation", 
            "motivation": "oa:painting", 
            "on": "http://gallica.bnf.fr/iiif/ark:/12148/btv1b90683044/canvas/f88#xywh=1135,3251,139,86", 
            "resource": {
                "@type": "cnt:ContentAsText", 
                "chars": "DE", 
                "format": "text/plain"
            }
        }, 
        {
            "@id": "https://manifests.teklia.com/HIMANIS/LAT9778/words_annotations/http_gallica.bnf.fr_iiif_ark:_12148_btv1b90683044_f88_full_full_0_native.jpg.json/97/line", 
            "@type": "oa:Annotation", 
            "motivation": "oa:painting", 
            "on": "http://gallica.bnf.fr/iiif/ark:/12148/btv1b90683044/canvas/f88#xywh=363,4518,227,51", 
            "resource": {
                "@type": "cnt:ContentAsText", 
                "chars": "PHILIPP", 
                "format": "text/plain"
            }
        }, 
        {
            "@id": "https://manifests.teklia.com/HIMANIS/LAT9778/words_annotations/http_gallica.bnf.fr_iiif_ark:_12148_btv1b90683044_f88_full_full_0_native.jpg.json/98/line", 
            "@type": "oa:Annotation", 
            "motivation": "oa:painting", 
            "on": "http://gallica.bnf.fr/iiif/ark:/12148/btv1b90683044/canvas/f88#xywh=1135,3251,161,86", 
            "resource": {
                "@type": "cnt:ContentAsText", 
                "chars": "DO", 
                "format": "text/plain"
            }
        }, 
        {
            "@id": "https://manifests.teklia.com/HIMANIS/LAT9778/words_annotations/http_gallica.bnf.fr_iiif_ark:_12148_btv1b90683044_f88_full_full_0_native.jpg.json/99/line", 
            "@type": "oa:Annotation", 
            "motivation": "oa:painting", 
            "on": "http://gallica.bnf.fr/iiif/ark:/12148/btv1b90683044/canvas/f88#xywh=348,5472,582,49", 
            "resource": {
                "@type": "cnt:ContentAsText", 
                "chars": "PHILI", 
                "format": "text/plain"
            }
        }, 
        {
            "@id": "https://manifests.teklia.com/HIMANIS/LAT9778/words_annotations/http_gallica.bnf.fr_iiif_ark:_12148_btv1b90683044_f88_full_full_0_native.jpg.json/100/line", 
            "@type": "oa:Annotation", 
            "motivation": "oa:painting", 
            "on": "http://gallica.bnf.fr/iiif/ark:/12148/btv1b90683044/canvas/f88#xywh=2654,2194,2334,167", 
            "resource": {
                "@type": "cnt:ContentAsText", 
                "chars": "TOUTE", 
                "format": "text/plain"
            }
        }, 
        {
            "@id": "https://manifests.teklia.com/HIMANIS/LAT9778/words_annotations/http_gallica.bnf.fr_iiif_ark:_12148_btv1b90683044_f88_full_full_0_native.jpg.json/101/line", 
            "@type": "oa:Annotation", 
            "motivation": "oa:painting", 
            "on": "http://gallica.bnf.fr/iiif/ark:/12148/btv1b90683044/canvas/f88#xywh=1214,1775,62,65", 
            "resource": {
                "@type": "cnt:ContentAsText", 
                "chars": "ET", 
                "format": "text/plain"
            }
        }, 
        {
            "@id": "https://manifests.teklia.com/HIMANIS/LAT9778/words_annotations/http_gallica.bnf.fr_iiif_ark:_12148_btv1b90683044_f88_full_full_0_native.jpg.json/102/line", 
            "@type": "oa:Annotation", 
            "motivation": "oa:painting", 
            "on": "http://gallica.bnf.fr/iiif/ark:/12148/btv1b90683044/canvas/f88#xywh=1135,3251,0,86", 
            "resource": {
                "@type": "cnt:ContentAsText", 
                "chars": "O", 
                "format": "text/plain"
            }
        }, 
        {
            "@id": "https://manifests.teklia.com/HIMANIS/LAT9778/words_annotations/http_gallica.bnf.fr_iiif_ark:_12148_btv1b90683044_f88_full_full_0_native.jpg.json/103/line", 
            "@type": "oa:Annotation", 
            "motivation": "oa:painting", 
            "on": "http://gallica.bnf.fr/iiif/ark:/12148/btv1b90683044/canvas/f88#xywh=303,5930,411,165", 
            "resource": {
                "@type": "cnt:ContentAsText", 
                "chars": "ET", 
                "format": "text/plain"
            }
        }, 
        {
            "@id": "https://manifests.teklia.com/HIMANIS/LAT9778/words_annotations/http_gallica.bnf.fr_iiif_ark:_12148_btv1b90683044_f88_full_full_0_native.jpg.json/104/line", 
            "@type": "oa:Annotation", 
            "motivation": "oa:painting", 
            "on": "http://gallica.bnf.fr/iiif/ark:/12148/btv1b90683044/canvas/f88#xywh=2444,5716,0,198", 
            "resource": {
                "@type": "cnt:ContentAsText", 
                "chars": "P", 
                "format": "text/plain"
            }
        }, 
        {
            "@id": "https://manifests.teklia.com/HIMANIS/LAT9778/words_annotations/http_gallica.bnf.fr_iiif_ark:_12148_btv1b90683044_f88_full_full_0_native.jpg.json/105/line", 
            "@type": "oa:Annotation", 
            "motivation": "oa:painting", 
            "on": "http://gallica.bnf.fr/iiif/ark:/12148/btv1b90683044/canvas/f88#xywh=3837,4188,0,93", 
            "resource": {
                "@type": "cnt:ContentAsText", 
                "chars": "E", 
                "format": "text/plain"
            }
        }, 
        {
            "@id": "https://manifests.teklia.com/HIMANIS/LAT9778/words_annotations/http_gallica.bnf.fr_iiif_ark:_12148_btv1b90683044_f88_full_full_0_native.jpg.json/106/line", 
            "@type": "oa:Annotation", 
            "motivation": "oa:painting", 
            "on": "http://gallica.bnf.fr/iiif/ark:/12148/btv1b90683044/canvas/f88#xywh=2654,2194,1016,167", 
            "resource": {
                "@type": "cnt:ContentAsText", 
                "chars": "OU", 
                "format": "text/plain"
            }
        }, 
        {
            "@id": "https://manifests.teklia.com/HIMANIS/LAT9778/words_annotations/http_gallica.bnf.fr_iiif_ark:_12148_btv1b90683044_f88_full_full_0_native.jpg.json/107/line", 
            "@type": "oa:Annotation", 
            "motivation": "oa:painting", 
            "on": "http://gallica.bnf.fr/iiif/ark:/12148/btv1b90683044/canvas/f88#xywh=338,3963,321,57", 
            "resource": {
                "@type": "cnt:ContentAsText", 
                "chars": "PHILI", 
                "format": "text/plain"
            }
        }, 
        {
            "@id": "https://manifests.teklia.com/HIMANIS/LAT9778/words_annotations/http_gallica.bnf.fr_iiif_ark:_12148_btv1b90683044_f88_full_full_0_native.jpg.json/108/line", 
            "@type": "oa:Annotation", 
            "motivation": "oa:painting", 
            "on": "http://gallica.bnf.fr/iiif/ark:/12148/btv1b90683044/canvas/f88#xywh=396,430,0,217", 
            "resource": {
                "@type": "cnt:ContentAsText", 
                "chars": "L", 
                "format": "text/plain"
            }
        }, 
        {
            "@id": "https://manifests.teklia.com/HIMANIS/LAT9778/words_annotations/http_gallica.bnf.fr_iiif_ark:_12148_btv1b90683044_f88_full_full_0_native.jpg.json/109/line", 
            "@type": "oa:Annotation", 
            "motivation": "oa:painting", 
            "on": "http://gallica.bnf.fr/iiif/ark:/12148/btv1b90683044/canvas/f88#xywh=396,430,0,217", 
            "resource": {
                "@type": "cnt:ContentAsText", 
                "chars": "P", 
                "format": "text/plain"
            }
        }, 
        {
            "@id": "https://manifests.teklia.com/HIMANIS/LAT9778/words_annotations/http_gallica.bnf.fr_iiif_ark:_12148_btv1b90683044_f88_full_full_0_native.jpg.json/110/line", 
            "@type": "oa:Annotation", 
            "motivation": "oa:painting", 
            "on": "http://gallica.bnf.fr/iiif/ark:/12148/btv1b90683044/canvas/f88#xywh=4804,6101,108,72", 
            "resource": {
                "@type": "cnt:ContentAsText", 
                "chars": "ET", 
                "format": "text/plain"
            }
        }, 
        {
            "@id": "https://manifests.teklia.com/HIMANIS/LAT9778/words_annotations/http_gallica.bnf.fr_iiif_ark:_12148_btv1b90683044_f88_full_full_0_native.jpg.json/111/line", 
            "@type": "oa:Annotation", 
            "motivation": "oa:painting", 
            "on": "http://gallica.bnf.fr/iiif/ark:/12148/btv1b90683044/canvas/f88#xywh=2915,3539,285,113", 
            "resource": {
                "@type": "cnt:ContentAsText", 
                "chars": "PAR", 
                "format": "text/plain"
            }
        }
    ]
}