{
    "@context": "http://iiif.io/api/presentation/2/context.json", 
    "@id": "https://manifests.teklia.com/HIMANIS/LAT9778/words_annotations/http_gallica.bnf.fr_iiif_ark:_12148_btv1b90683044_f249_full_full_0_native.jpg.json", 
    "@type": "sc:AnnotationList", 
    "resources": [
        {
            "@id": "https://manifests.teklia.com/HIMANIS/LAT9778/words_annotations/http_gallica.bnf.fr_iiif_ark:_12148_btv1b90683044_f249_full_full_0_native.jpg.json/0/line", 
            "@type": "oa:Annotation", 
            "motivation": "oa:painting", 
            "on": "http://gallica.bnf.fr/iiif/ark:/12148/btv1b90683044/canvas/f249#xywh=4589,5927,148,42", 
            "resource": {
                "@type": "cnt:ContentAsText", 
                "chars": "ET", 
                "format": "text/plain"
            }
        }, 
        {
            "@id": "https://manifests.teklia.com/HIMANIS/LAT9778/words_annotations/http_gallica.bnf.fr_iiif_ark:_12148_btv1b90683044_f249_full_full_0_native.jpg.json/1/line", 
            "@type": "oa:Annotation", 
            "motivation": "oa:painting", 
            "on": "http://gallica.bnf.fr/iiif/ark:/12148/btv1b90683044/canvas/f249#xywh=3120,5365,216,86", 
            "resource": {
                "@type": "cnt:ContentAsText", 
                "chars": "AUCUNES", 
                "format": "text/plain"
            }
        }, 
        {
            "@id": "https://manifests.teklia.com/HIMANIS/LAT9778/words_annotations/http_gallica.bnf.fr_iiif_ark:_12148_btv1b90683044_f249_full_full_0_native.jpg.json/2/line", 
            "@type": "oa:Annotation", 
            "motivation": "oa:painting", 
            "on": "http://gallica.bnf.fr/iiif/ark:/12148/btv1b90683044/canvas/f249#xywh=4730,1405,52,41", 
            "resource": {
                "@type": "cnt:ContentAsText", 
                "chars": "DE", 
                "format": "text/plain"
            }
        }, 
        {
            "@id": "https://manifests.teklia.com/HIMANIS/LAT9778/words_annotations/http_gallica.bnf.fr_iiif_ark:_12148_btv1b90683044_f249_full_full_0_native.jpg.json/3/line", 
            "@type": "oa:Annotation", 
            "motivation": "oa:painting", 
            "on": "http://gallica.bnf.fr/iiif/ark:/12148/btv1b90683044/canvas/f249#xywh=4567,6024,180,55", 
            "resource": {
                "@type": "cnt:ContentAsText", 
                "chars": "JE", 
                "format": "text/plain"
            }
        }, 
        {
            "@id": "https://manifests.teklia.com/HIMANIS/LAT9778/words_annotations/http_gallica.bnf.fr_iiif_ark:_12148_btv1b90683044_f249_full_full_0_native.jpg.json/4/line", 
            "@type": "oa:Annotation", 
            "motivation": "oa:painting", 
            "on": "http://gallica.bnf.fr/iiif/ark:/12148/btv1b90683044/canvas/f249#xywh=4525,6079,223,99", 
            "resource": {
                "@type": "cnt:ContentAsText", 
                "chars": "JE", 
                "format": "text/plain"
            }
        }, 
        {
            "@id": "https://manifests.teklia.com/HIMANIS/LAT9778/words_annotations/http_gallica.bnf.fr_iiif_ark:_12148_btv1b90683044_f249_full_full_0_native.jpg.json/5/line", 
            "@type": "oa:Annotation", 
            "motivation": "oa:painting", 
            "on": "http://gallica.bnf.fr/iiif/ark:/12148/btv1b90683044/canvas/f249#xywh=3390,5365,102,86", 
            "resource": {
                "@type": "cnt:ContentAsText", 
                "chars": "POLI", 
                "format": "text/plain"
            }
        }, 
        {
            "@id": "https://manifests.teklia.com/HIMANIS/LAT9778/words_annotations/http_gallica.bnf.fr_iiif_ark:_12148_btv1b90683044_f249_full_full_0_native.jpg.json/6/line", 
            "@type": "oa:Annotation", 
            "motivation": "oa:painting", 
            "on": "http://gallica.bnf.fr/iiif/ark:/12148/btv1b90683044/canvas/f249#xywh=2975,5365,108,86", 
            "resource": {
                "@type": "cnt:ContentAsText", 
                "chars": "PRES", 
                "format": "text/plain"
            }
        }, 
        {
            "@id": "https://manifests.teklia.com/HIMANIS/LAT9778/words_annotations/http_gallica.bnf.fr_iiif_ark:_12148_btv1b90683044_f249_full_full_0_native.jpg.json/7/line", 
            "@type": "oa:Annotation", 
            "motivation": "oa:painting", 
            "on": "http://gallica.bnf.fr/iiif/ark:/12148/btv1b90683044/canvas/f249#xywh=4582,1405,138,41", 
            "resource": {
                "@type": "cnt:ContentAsText", 
                "chars": "ET", 
                "format": "text/plain"
            }
        }, 
        {
            "@id": "https://manifests.teklia.com/HIMANIS/LAT9778/words_annotations/http_gallica.bnf.fr_iiif_ark:_12148_btv1b90683044_f249_full_full_0_native.jpg.json/8/line", 
            "@type": "oa:Annotation", 
            "motivation": "oa:painting", 
            "on": "http://gallica.bnf.fr/iiif/ark:/12148/btv1b90683044/canvas/f249#xywh=337,4254,60,38", 
            "resource": {
                "@type": "cnt:ContentAsText", 
                "chars": "DE", 
                "format": "text/plain"
            }
        }, 
        {
            "@id": "https://manifests.teklia.com/HIMANIS/LAT9778/words_annotations/http_gallica.bnf.fr_iiif_ark:_12148_btv1b90683044_f249_full_full_0_native.jpg.json/9/line", 
            "@type": "oa:Annotation", 
            "motivation": "oa:painting", 
            "on": "http://gallica.bnf.fr/iiif/ark:/12148/btv1b90683044/canvas/f249#xywh=2688,1670,0,58", 
            "resource": {
                "@type": "cnt:ContentAsText", 
                "chars": "P", 
                "format": "text/plain"
            }
        }, 
        {
            "@id": "https://manifests.teklia.com/HIMANIS/LAT9778/words_annotations/http_gallica.bnf.fr_iiif_ark:_12148_btv1b90683044_f249_full_full_0_native.jpg.json/10/line", 
            "@type": "oa:Annotation", 
            "motivation": "oa:painting", 
            "on": "http://gallica.bnf.fr/iiif/ark:/12148/btv1b90683044/canvas/f249#xywh=326,4892,66,42", 
            "resource": {
                "@type": "cnt:ContentAsText", 
                "chars": "DE", 
                "format": "text/plain"
            }
        }, 
        {
            "@id": "https://manifests.teklia.com/HIMANIS/LAT9778/words_annotations/http_gallica.bnf.fr_iiif_ark:_12148_btv1b90683044_f249_full_full_0_native.jpg.json/11/line", 
            "@type": "oa:Annotation", 
            "motivation": "oa:painting", 
            "on": "http://gallica.bnf.fr/iiif/ark:/12148/btv1b90683044/canvas/f249#xywh=3390,5365,102,86", 
            "resource": {
                "@type": "cnt:ContentAsText", 
                "chars": "POL", 
                "format": "text/plain"
            }
        }, 
        {
            "@id": "https://manifests.teklia.com/HIMANIS/LAT9778/words_annotations/http_gallica.bnf.fr_iiif_ark:_12148_btv1b90683044_f249_full_full_0_native.jpg.json/12/line", 
            "@type": "oa:Annotation", 
            "motivation": "oa:painting", 
            "on": "http://gallica.bnf.fr/iiif/ark:/12148/btv1b90683044/canvas/f249#xywh=3390,5365,59,86", 
            "resource": {
                "@type": "cnt:ContentAsText", 
                "chars": "POU", 
                "format": "text/plain"
            }
        }, 
        {
            "@id": "https://manifests.teklia.com/HIMANIS/LAT9778/words_annotations/http_gallica.bnf.fr_iiif_ark:_12148_btv1b90683044_f249_full_full_0_native.jpg.json/13/line", 
            "@type": "oa:Annotation", 
            "motivation": "oa:painting", 
            "on": "http://gallica.bnf.fr/iiif/ark:/12148/btv1b90683044/canvas/f249#xywh=4570,2152,196,46", 
            "resource": {
                "@type": "cnt:ContentAsText", 
                "chars": "DESSU", 
                "format": "text/plain"
            }
        }, 
        {
            "@id": "https://manifests.teklia.com/HIMANIS/LAT9778/words_annotations/http_gallica.bnf.fr_iiif_ark:_12148_btv1b90683044_f249_full_full_0_native.jpg.json/14/line", 
            "@type": "oa:Annotation", 
            "motivation": "oa:painting", 
            "on": "http://gallica.bnf.fr/iiif/ark:/12148/btv1b90683044/canvas/f249#xywh=4525,6079,235,99", 
            "resource": {
                "@type": "cnt:ContentAsText", 
                "chars": "PHIL", 
                "format": "text/plain"
            }
        }, 
        {
            "@id": "https://manifests.teklia.com/HIMANIS/LAT9778/words_annotations/http_gallica.bnf.fr_iiif_ark:_12148_btv1b90683044_f249_full_full_0_native.jpg.json/15/line", 
            "@type": "oa:Annotation", 
            "motivation": "oa:painting", 
            "on": "http://gallica.bnf.fr/iiif/ark:/12148/btv1b90683044/canvas/f249#xywh=4525,6079,235,99", 
            "resource": {
                "@type": "cnt:ContentAsText", 
                "chars": "PHEL", 
                "format": "text/plain"
            }
        }, 
        {
            "@id": "https://manifests.teklia.com/HIMANIS/LAT9778/words_annotations/http_gallica.bnf.fr_iiif_ark:_12148_btv1b90683044_f249_full_full_0_native.jpg.json/16/line", 
            "@type": "oa:Annotation", 
            "motivation": "oa:painting", 
            "on": "http://gallica.bnf.fr/iiif/ark:/12148/btv1b90683044/canvas/f249#xywh=4253,673,260,122", 
            "resource": {
                "@type": "cnt:ContentAsText", 
                "chars": "PHIL", 
                "format": "text/plain"
            }
        }, 
        {
            "@id": "https://manifests.teklia.com/HIMANIS/LAT9778/words_annotations/http_gallica.bnf.fr_iiif_ark:_12148_btv1b90683044_f249_full_full_0_native.jpg.json/17/line", 
            "@type": "oa:Annotation", 
            "motivation": "oa:painting", 
            "on": "http://gallica.bnf.fr/iiif/ark:/12148/btv1b90683044/canvas/f249#xywh=4567,6024,0,55", 
            "resource": {
                "@type": "cnt:ContentAsText", 
                "chars": "J", 
                "format": "text/plain"
            }
        }, 
        {
            "@id": "https://manifests.teklia.com/HIMANIS/LAT9778/words_annotations/http_gallica.bnf.fr_iiif_ark:_12148_btv1b90683044_f249_full_full_0_native.jpg.json/18/line", 
            "@type": "oa:Annotation", 
            "motivation": "oa:painting", 
            "on": "http://gallica.bnf.fr/iiif/ark:/12148/btv1b90683044/canvas/f249#xywh=3120,5365,216,86", 
            "resource": {
                "@type": "cnt:ContentAsText", 
                "chars": "AUCUNNES", 
                "format": "text/plain"
            }
        }, 
        {
            "@id": "https://manifests.teklia.com/HIMANIS/LAT9778/words_annotations/http_gallica.bnf.fr_iiif_ark:_12148_btv1b90683044_f249_full_full_0_native.jpg.json/19/line", 
            "@type": "oa:Annotation", 
            "motivation": "oa:painting", 
            "on": "http://gallica.bnf.fr/iiif/ark:/12148/btv1b90683044/canvas/f249#xywh=4589,5927,153,42", 
            "resource": {
                "@type": "cnt:ContentAsText", 
                "chars": "DE", 
                "format": "text/plain"
            }
        }, 
        {
            "@id": "https://manifests.teklia.com/HIMANIS/LAT9778/words_annotations/http_gallica.bnf.fr_iiif_ark:_12148_btv1b90683044_f249_full_full_0_native.jpg.json/20/line", 
            "@type": "oa:Annotation", 
            "motivation": "oa:painting", 
            "on": "http://gallica.bnf.fr/iiif/ark:/12148/btv1b90683044/canvas/f249#xywh=25,368,1279,208", 
            "resource": {
                "@type": "cnt:ContentAsText", 
                "chars": "LES", 
                "format": "text/plain"
            }
        }, 
        {
            "@id": "https://manifests.teklia.com/HIMANIS/LAT9778/words_annotations/http_gallica.bnf.fr_iiif_ark:_12148_btv1b90683044_f249_full_full_0_native.jpg.json/21/line", 
            "@type": "oa:Annotation", 
            "motivation": "oa:painting", 
            "on": "http://gallica.bnf.fr/iiif/ark:/12148/btv1b90683044/canvas/f249#xywh=4567,6024,187,55", 
            "resource": {
                "@type": "cnt:ContentAsText", 
                "chars": "PHIL", 
                "format": "text/plain"
            }
        }, 
        {
            "@id": "https://manifests.teklia.com/HIMANIS/LAT9778/words_annotations/http_gallica.bnf.fr_iiif_ark:_12148_btv1b90683044_f249_full_full_0_native.jpg.json/22/line", 
            "@type": "oa:Annotation", 
            "motivation": "oa:painting", 
            "on": "http://gallica.bnf.fr/iiif/ark:/12148/btv1b90683044/canvas/f249#xywh=25,368,1540,208", 
            "resource": {
                "@type": "cnt:ContentAsText", 
                "chars": "TENE", 
                "format": "text/plain"
            }
        }, 
        {
            "@id": "https://manifests.teklia.com/HIMANIS/LAT9778/words_annotations/http_gallica.bnf.fr_iiif_ark:_12148_btv1b90683044_f249_full_full_0_native.jpg.json/23/line", 
            "@type": "oa:Annotation", 
            "motivation": "oa:painting", 
            "on": "http://gallica.bnf.fr/iiif/ark:/12148/btv1b90683044/canvas/f249#xywh=2271,5629,266,139", 
            "resource": {
                "@type": "cnt:ContentAsText", 
                "chars": "PIERRE", 
                "format": "text/plain"
            }
        }
    ]
}