{
    "@context": "http://iiif.io/api/presentation/2/context.json", 
    "@id": "https://manifests.teklia.com/HIMANIS/LAT9778/words_annotations/http_gallica.bnf.fr_iiif_ark:_12148_btv1b90683044_f1_full_full_0_native.jpg.json", 
    "@type": "sc:AnnotationList", 
    "resources": [
        {
            "@id": "https://manifests.teklia.com/HIMANIS/LAT9778/words_annotations/http_gallica.bnf.fr_iiif_ark:_12148_btv1b90683044_f1_full_full_0_native.jpg.json/0/line", 
            "@type": "oa:Annotation", 
            "motivation": "oa:painting", 
            "on": "http://gallica.bnf.fr/iiif/ark:/12148/btv1b90683044/canvas/f1#xywh=463,6042,154,207", 
            "resource": {
                "@type": "cnt:ContentAsText", 
                "chars": "LA", 
                "format": "text/plain"
            }
        }, 
        {
            "@id": "https://manifests.teklia.com/HIMANIS/LAT9778/words_annotations/http_gallica.bnf.fr_iiif_ark:_12148_btv1b90683044_f1_full_full_0_native.jpg.json/1/line", 
            "@type": "oa:Annotation", 
            "motivation": "oa:painting", 
            "on": "http://gallica.bnf.fr/iiif/ark:/12148/btv1b90683044/canvas/f1#xywh=463,6042,205,207", 
            "resource": {
                "@type": "cnt:ContentAsText", 
                "chars": "LE", 
                "format": "text/plain"
            }
        }, 
        {
            "@id": "https://manifests.teklia.com/HIMANIS/LAT9778/words_annotations/http_gallica.bnf.fr_iiif_ark:_12148_btv1b90683044_f1_full_full_0_native.jpg.json/2/line", 
            "@type": "oa:Annotation", 
            "motivation": "oa:painting", 
            "on": "http://gallica.bnf.fr/iiif/ark:/12148/btv1b90683044/canvas/f1#xywh=206,6042,116,207", 
            "resource": {
                "@type": "cnt:ContentAsText", 
                "chars": "DE", 
                "format": "text/plain"
            }
        }, 
        {
            "@id": "https://manifests.teklia.com/HIMANIS/LAT9778/words_annotations/http_gallica.bnf.fr_iiif_ark:_12148_btv1b90683044_f1_full_full_0_native.jpg.json/3/line", 
            "@type": "oa:Annotation", 
            "motivation": "oa:painting", 
            "on": "http://gallica.bnf.fr/iiif/ark:/12148/btv1b90683044/canvas/f1#xywh=2251,2737,238,158", 
            "resource": {
                "@type": "cnt:ContentAsText", 
                "chars": "DE", 
                "format": "text/plain"
            }
        }, 
        {
            "@id": "https://manifests.teklia.com/HIMANIS/LAT9778/words_annotations/http_gallica.bnf.fr_iiif_ark:_12148_btv1b90683044_f1_full_full_0_native.jpg.json/4/line", 
            "@type": "oa:Annotation", 
            "motivation": "oa:painting", 
            "on": "http://gallica.bnf.fr/iiif/ark:/12148/btv1b90683044/canvas/f1#xywh=2191,2924,96,171", 
            "resource": {
                "@type": "cnt:ContentAsText", 
                "chars": "PA", 
                "format": "text/plain"
            }
        }, 
        {
            "@id": "https://manifests.teklia.com/HIMANIS/LAT9778/words_annotations/http_gallica.bnf.fr_iiif_ark:_12148_btv1b90683044_f1_full_full_0_native.jpg.json/5/line", 
            "@type": "oa:Annotation", 
            "motivation": "oa:painting", 
            "on": "http://gallica.bnf.fr/iiif/ark:/12148/btv1b90683044/canvas/f1#xywh=206,6042,462,207", 
            "resource": {
                "@type": "cnt:ContentAsText", 
                "chars": "DILEC", 
                "format": "text/plain"
            }
        }, 
        {
            "@id": "https://manifests.teklia.com/HIMANIS/LAT9778/words_annotations/http_gallica.bnf.fr_iiif_ark:_12148_btv1b90683044_f1_full_full_0_native.jpg.json/6/line", 
            "@type": "oa:Annotation", 
            "motivation": "oa:painting", 
            "on": "http://gallica.bnf.fr/iiif/ark:/12148/btv1b90683044/canvas/f1#xywh=2251,2737,614,158", 
            "resource": {
                "@type": "cnt:ContentAsText", 
                "chars": "DICTES", 
                "format": "text/plain"
            }
        }, 
        {
            "@id": "https://manifests.teklia.com/HIMANIS/LAT9778/words_annotations/http_gallica.bnf.fr_iiif_ark:_12148_btv1b90683044_f1_full_full_0_native.jpg.json/7/line", 
            "@type": "oa:Annotation", 
            "motivation": "oa:painting", 
            "on": "http://gallica.bnf.fr/iiif/ark:/12148/btv1b90683044/canvas/f1#xywh=2250,3282,1064,174", 
            "resource": {
                "@type": "cnt:ContentAsText", 
                "chars": "SINE", 
                "format": "text/plain"
            }
        }, 
        {
            "@id": "https://manifests.teklia.com/HIMANIS/LAT9778/words_annotations/http_gallica.bnf.fr_iiif_ark:_12148_btv1b90683044_f1_full_full_0_native.jpg.json/8/line", 
            "@type": "oa:Annotation", 
            "motivation": "oa:painting", 
            "on": "http://gallica.bnf.fr/iiif/ark:/12148/btv1b90683044/canvas/f1#xywh=2191,2924,0,171", 
            "resource": {
                "@type": "cnt:ContentAsText", 
                "chars": "P", 
                "format": "text/plain"
            }
        }, 
        {
            "@id": "https://manifests.teklia.com/HIMANIS/LAT9778/words_annotations/http_gallica.bnf.fr_iiif_ark:_12148_btv1b90683044_f1_full_full_0_native.jpg.json/9/line", 
            "@type": "oa:Annotation", 
            "motivation": "oa:painting", 
            "on": "http://gallica.bnf.fr/iiif/ark:/12148/btv1b90683044/canvas/f1#xywh=2266,3525,0,152", 
            "resource": {
                "@type": "cnt:ContentAsText", 
                "chars": "G", 
                "format": "text/plain"
            }
        }, 
        {
            "@id": "https://manifests.teklia.com/HIMANIS/LAT9778/words_annotations/http_gallica.bnf.fr_iiif_ark:_12148_btv1b90683044_f1_full_full_0_native.jpg.json/10/line", 
            "@type": "oa:Annotation", 
            "motivation": "oa:painting", 
            "on": "http://gallica.bnf.fr/iiif/ark:/12148/btv1b90683044/canvas/f1#xywh=2266,3525,0,152", 
            "resource": {
                "@type": "cnt:ContentAsText", 
                "chars": "J", 
                "format": "text/plain"
            }
        }, 
        {
            "@id": "https://manifests.teklia.com/HIMANIS/LAT9778/words_annotations/http_gallica.bnf.fr_iiif_ark:_12148_btv1b90683044_f1_full_full_0_native.jpg.json/11/line", 
            "@type": "oa:Annotation", 
            "motivation": "oa:painting", 
            "on": "http://gallica.bnf.fr/iiif/ark:/12148/btv1b90683044/canvas/f1#xywh=2266,3525,0,152", 
            "resource": {
                "@type": "cnt:ContentAsText", 
                "chars": "P", 
                "format": "text/plain"
            }
        }, 
        {
            "@id": "https://manifests.teklia.com/HIMANIS/LAT9778/words_annotations/http_gallica.bnf.fr_iiif_ark:_12148_btv1b90683044_f1_full_full_0_native.jpg.json/12/line", 
            "@type": "oa:Annotation", 
            "motivation": "oa:painting", 
            "on": "http://gallica.bnf.fr/iiif/ark:/12148/btv1b90683044/canvas/f1#xywh=2225,3022,1095,341", 
            "resource": {
                "@type": "cnt:ContentAsText", 
                "chars": "PHILIPP", 
                "format": "text/plain"
            }
        }, 
        {
            "@id": "https://manifests.teklia.com/HIMANIS/LAT9778/words_annotations/http_gallica.bnf.fr_iiif_ark:_12148_btv1b90683044_f1_full_full_0_native.jpg.json/13/line", 
            "@type": "oa:Annotation", 
            "motivation": "oa:painting", 
            "on": "http://gallica.bnf.fr/iiif/ark:/12148/btv1b90683044/canvas/f1#xywh=2538,2737,733,158", 
            "resource": {
                "@type": "cnt:ContentAsText", 
                "chars": "LIEU", 
                "format": "text/plain"
            }
        }, 
        {
            "@id": "https://manifests.teklia.com/HIMANIS/LAT9778/words_annotations/http_gallica.bnf.fr_iiif_ark:_12148_btv1b90683044_f1_full_full_0_native.jpg.json/14/line", 
            "@type": "oa:Annotation", 
            "motivation": "oa:painting", 
            "on": "http://gallica.bnf.fr/iiif/ark:/12148/btv1b90683044/canvas/f1#xywh=2538,2737,694,158", 
            "resource": {
                "@type": "cnt:ContentAsText", 
                "chars": "SALE", 
                "format": "text/plain"
            }
        }, 
        {
            "@id": "https://manifests.teklia.com/HIMANIS/LAT9778/words_annotations/http_gallica.bnf.fr_iiif_ark:_12148_btv1b90683044_f1_full_full_0_native.jpg.json/15/line", 
            "@type": "oa:Annotation", 
            "motivation": "oa:painting", 
            "on": "http://gallica.bnf.fr/iiif/ark:/12148/btv1b90683044/canvas/f1#xywh=2191,2924,1177,171", 
            "resource": {
                "@type": "cnt:ContentAsText", 
                "chars": "PHIL", 
                "format": "text/plain"
            }
        }, 
        {
            "@id": "https://manifests.teklia.com/HIMANIS/LAT9778/words_annotations/http_gallica.bnf.fr_iiif_ark:_12148_btv1b90683044_f1_full_full_0_native.jpg.json/16/line", 
            "@type": "oa:Annotation", 
            "motivation": "oa:painting", 
            "on": "http://gallica.bnf.fr/iiif/ark:/12148/btv1b90683044/canvas/f1#xywh=2251,2737,515,158", 
            "resource": {
                "@type": "cnt:ContentAsText", 
                "chars": "DICTE", 
                "format": "text/plain"
            }
        }
    ]
}