{
    "@context": "http://iiif.io/api/presentation/2/context.json", 
    "@id": "https://manifests.teklia.com/HIMANIS/JJ144/words_annotations/FRAN_0021_18428.json", 
    "@type": "sc:AnnotationList", 
    "resources": [
        {
            "@id": "https://manifests.teklia.com/HIMANIS/JJ144/words_annotations/FRAN_0021_18428.json/0/line", 
            "@type": "oa:Annotation", 
            "motivation": "oa:painting", 
            "on": "http://bvmm.irht.cnrs.fr/iiif/23734/canvas/canvas-2318357#xywh=3505,1382,484,42", 
            "resource": {
                "@type": "cnt:ContentAsText", 
                "chars": "PHEL", 
                "format": "text/plain"
            }
        }, 
        {
            "@id": "https://manifests.teklia.com/HIMANIS/JJ144/words_annotations/FRAN_0021_18428.json/1/line", 
            "@type": "oa:Annotation", 
            "motivation": "oa:painting", 
            "on": "http://bvmm.irht.cnrs.fr/iiif/23734/canvas/canvas-2318357#xywh=1616,671,275,209", 
            "resource": {
                "@type": "cnt:ContentAsText", 
                "chars": "FUISSEMUS", 
                "format": "text/plain"
            }
        }, 
        {
            "@id": "https://manifests.teklia.com/HIMANIS/JJ144/words_annotations/FRAN_0021_18428.json/2/line", 
            "@type": "oa:Annotation", 
            "motivation": "oa:painting", 
            "on": "http://bvmm.irht.cnrs.fr/iiif/23734/canvas/canvas-2318357#xywh=1616,671,275,209", 
            "resource": {
                "@type": "cnt:ContentAsText", 
                "chars": "FUISSIMUS", 
                "format": "text/plain"
            }
        }, 
        {
            "@id": "https://manifests.teklia.com/HIMANIS/JJ144/words_annotations/FRAN_0021_18428.json/3/line", 
            "@type": "oa:Annotation", 
            "motivation": "oa:painting", 
            "on": "http://bvmm.irht.cnrs.fr/iiif/23734/canvas/canvas-2318357#xywh=49,4692,1107,46", 
            "resource": {
                "@type": "cnt:ContentAsText", 
                "chars": "LOONS", 
                "format": "text/plain"
            }
        }, 
        {
            "@id": "https://manifests.teklia.com/HIMANIS/JJ144/words_annotations/FRAN_0021_18428.json/4/line", 
            "@type": "oa:Annotation", 
            "motivation": "oa:painting", 
            "on": "http://bvmm.irht.cnrs.fr/iiif/23734/canvas/canvas-2318357#xywh=3505,1382,80,42", 
            "resource": {
                "@type": "cnt:ContentAsText", 
                "chars": "PHILI", 
                "format": "text/plain"
            }
        }, 
        {
            "@id": "https://manifests.teklia.com/HIMANIS/JJ144/words_annotations/FRAN_0021_18428.json/5/line", 
            "@type": "oa:Annotation", 
            "motivation": "oa:painting", 
            "on": "http://bvmm.irht.cnrs.fr/iiif/23734/canvas/canvas-2318357#xywh=3867,859,58,65", 
            "resource": {
                "@type": "cnt:ContentAsText", 
                "chars": "PHILIPPE", 
                "format": "text/plain"
            }
        }, 
        {
            "@id": "https://manifests.teklia.com/HIMANIS/JJ144/words_annotations/FRAN_0021_18428.json/6/line", 
            "@type": "oa:Annotation", 
            "motivation": "oa:painting", 
            "on": "http://bvmm.irht.cnrs.fr/iiif/23734/canvas/canvas-2318357#xywh=1971,1094,162,185", 
            "resource": {
                "@type": "cnt:ContentAsText", 
                "chars": "PERRON", 
                "format": "text/plain"
            }
        }, 
        {
            "@id": "https://manifests.teklia.com/HIMANIS/JJ144/words_annotations/FRAN_0021_18428.json/7/line", 
            "@type": "oa:Annotation", 
            "motivation": "oa:painting", 
            "on": "http://bvmm.irht.cnrs.fr/iiif/23734/canvas/canvas-2318357#xywh=1101,1094,313,185", 
            "resource": {
                "@type": "cnt:ContentAsText", 
                "chars": "CONSILIUM", 
                "format": "text/plain"
            }
        }, 
        {
            "@id": "https://manifests.teklia.com/HIMANIS/JJ144/words_annotations/FRAN_0021_18428.json/8/line", 
            "@type": "oa:Annotation", 
            "motivation": "oa:painting", 
            "on": "http://bvmm.irht.cnrs.fr/iiif/23734/canvas/canvas-2318357#xywh=806,671,65,209", 
            "resource": {
                "@type": "cnt:ContentAsText", 
                "chars": "NOUS", 
                "format": "text/plain"
            }
        }, 
        {
            "@id": "https://manifests.teklia.com/HIMANIS/JJ144/words_annotations/FRAN_0021_18428.json/9/line", 
            "@type": "oa:Annotation", 
            "motivation": "oa:painting", 
            "on": "http://bvmm.irht.cnrs.fr/iiif/23734/canvas/canvas-2318357#xywh=1430,776,372,270", 
            "resource": {
                "@type": "cnt:ContentAsText", 
                "chars": "DOMINI", 
                "format": "text/plain"
            }
        }, 
        {
            "@id": "https://manifests.teklia.com/HIMANIS/JJ144/words_annotations/FRAN_0021_18428.json/10/line", 
            "@type": "oa:Annotation", 
            "motivation": "oa:painting", 
            "on": "http://bvmm.irht.cnrs.fr/iiif/23734/canvas/canvas-2318357#xywh=2466,671,314,209", 
            "resource": {
                "@type": "cnt:ContentAsText", 
                "chars": "RETERET", 
                "format": "text/plain"
            }
        }, 
        {
            "@id": "https://manifests.teklia.com/HIMANIS/JJ144/words_annotations/FRAN_0021_18428.json/11/line", 
            "@type": "oa:Annotation", 
            "motivation": "oa:painting", 
            "on": "http://bvmm.irht.cnrs.fr/iiif/23734/canvas/canvas-2318357#xywh=742,1094,208,185", 
            "resource": {
                "@type": "cnt:ContentAsText", 
                "chars": "PER", 
                "format": "text/plain"
            }
        }, 
        {
            "@id": "https://manifests.teklia.com/HIMANIS/JJ144/words_annotations/FRAN_0021_18428.json/12/line", 
            "@type": "oa:Annotation", 
            "motivation": "oa:painting", 
            "on": "http://bvmm.irht.cnrs.fr/iiif/23734/canvas/canvas-2318357#xywh=772,776,135,270", 
            "resource": {
                "@type": "cnt:ContentAsText", 
                "chars": "COMME", 
                "format": "text/plain"
            }
        }, 
        {
            "@id": "https://manifests.teklia.com/HIMANIS/JJ144/words_annotations/FRAN_0021_18428.json/13/line", 
            "@type": "oa:Annotation", 
            "motivation": "oa:painting", 
            "on": "http://bvmm.irht.cnrs.fr/iiif/23734/canvas/canvas-2318357#xywh=63,776,540,270", 
            "resource": {
                "@type": "cnt:ContentAsText", 
                "chars": "OMNIA", 
                "format": "text/plain"
            }
        }, 
        {
            "@id": "https://manifests.teklia.com/HIMANIS/JJ144/words_annotations/FRAN_0021_18428.json/14/line", 
            "@type": "oa:Annotation", 
            "motivation": "oa:painting", 
            "on": "http://bvmm.irht.cnrs.fr/iiif/23734/canvas/canvas-2318357#xywh=545,671,235,209", 
            "resource": {
                "@type": "cnt:ContentAsText", 
                "chars": "ASSENTIA", 
                "format": "text/plain"
            }
        }, 
        {
            "@id": "https://manifests.teklia.com/HIMANIS/JJ144/words_annotations/FRAN_0021_18428.json/15/line", 
            "@type": "oa:Annotation", 
            "motivation": "oa:painting", 
            "on": "http://bvmm.irht.cnrs.fr/iiif/23734/canvas/canvas-2318357#xywh=1028,671,262,209", 
            "resource": {
                "@type": "cnt:ContentAsText", 
                "chars": "ORDIATUM", 
                "format": "text/plain"
            }
        }, 
        {
            "@id": "https://manifests.teklia.com/HIMANIS/JJ144/words_annotations/FRAN_0021_18428.json/16/line", 
            "@type": "oa:Annotation", 
            "motivation": "oa:painting", 
            "on": "http://bvmm.irht.cnrs.fr/iiif/23734/canvas/canvas-2318357#xywh=1616,671,275,209", 
            "resource": {
                "@type": "cnt:ContentAsText", 
                "chars": "PUISSEMUS", 
                "format": "text/plain"
            }
        }, 
        {
            "@id": "https://manifests.teklia.com/HIMANIS/JJ144/words_annotations/FRAN_0021_18428.json/17/line", 
            "@type": "oa:Annotation", 
            "motivation": "oa:painting", 
            "on": "http://bvmm.irht.cnrs.fr/iiif/23734/canvas/canvas-2318357#xywh=1180,261,231,54", 
            "resource": {
                "@type": "cnt:ContentAsText", 
                "chars": "DITES", 
                "format": "text/plain"
            }
        }, 
        {
            "@id": "https://manifests.teklia.com/HIMANIS/JJ144/words_annotations/FRAN_0021_18428.json/18/line", 
            "@type": "oa:Annotation", 
            "motivation": "oa:painting", 
            "on": "http://bvmm.irht.cnrs.fr/iiif/23734/canvas/canvas-2318357#xywh=2460,776,540,270", 
            "resource": {
                "@type": "cnt:ContentAsText", 
                "chars": "REGITIM", 
                "format": "text/plain"
            }
        }, 
        {
            "@id": "https://manifests.teklia.com/HIMANIS/JJ144/words_annotations/FRAN_0021_18428.json/19/line", 
            "@type": "oa:Annotation", 
            "motivation": "oa:painting", 
            "on": "http://bvmm.irht.cnrs.fr/iiif/23734/canvas/canvas-2318357#xywh=3512,122,563,179", 
            "resource": {
                "@type": "cnt:ContentAsText", 
                "chars": "ESSE", 
                "format": "text/plain"
            }
        }, 
        {
            "@id": "https://manifests.teklia.com/HIMANIS/JJ144/words_annotations/FRAN_0021_18428.json/20/line", 
            "@type": "oa:Annotation", 
            "motivation": "oa:painting", 
            "on": "http://bvmm.irht.cnrs.fr/iiif/23734/canvas/canvas-2318357#xywh=2466,671,314,209", 
            "resource": {
                "@type": "cnt:ContentAsText", 
                "chars": "PRETERET", 
                "format": "text/plain"
            }
        }, 
        {
            "@id": "https://manifests.teklia.com/HIMANIS/JJ144/words_annotations/FRAN_0021_18428.json/21/line", 
            "@type": "oa:Annotation", 
            "motivation": "oa:painting", 
            "on": "http://bvmm.irht.cnrs.fr/iiif/23734/canvas/canvas-2318357#xywh=1708,671,340,209", 
            "resource": {
                "@type": "cnt:ContentAsText", 
                "chars": "RAPPONI", 
                "format": "text/plain"
            }
        }, 
        {
            "@id": "https://manifests.teklia.com/HIMANIS/JJ144/words_annotations/FRAN_0021_18428.json/22/line", 
            "@type": "oa:Annotation", 
            "motivation": "oa:painting", 
            "on": "http://bvmm.irht.cnrs.fr/iiif/23734/canvas/canvas-2318357#xywh=1430,776,270,270", 
            "resource": {
                "@type": "cnt:ContentAsText", 
                "chars": "ILLUM", 
                "format": "text/plain"
            }
        }, 
        {
            "@id": "https://manifests.teklia.com/HIMANIS/JJ144/words_annotations/FRAN_0021_18428.json/23/line", 
            "@type": "oa:Annotation", 
            "motivation": "oa:painting", 
            "on": "http://bvmm.irht.cnrs.fr/iiif/23734/canvas/canvas-2318357#xywh=1363,776,185,270", 
            "resource": {
                "@type": "cnt:ContentAsText", 
                "chars": "PREJUS", 
                "format": "text/plain"
            }
        }, 
        {
            "@id": "https://manifests.teklia.com/HIMANIS/JJ144/words_annotations/FRAN_0021_18428.json/24/line", 
            "@type": "oa:Annotation", 
            "motivation": "oa:painting", 
            "on": "http://bvmm.irht.cnrs.fr/iiif/23734/canvas/canvas-2318357#xywh=502,776,253,270", 
            "resource": {
                "@type": "cnt:ContentAsText", 
                "chars": "DE", 
                "format": "text/plain"
            }
        }, 
        {
            "@id": "https://manifests.teklia.com/HIMANIS/JJ144/words_annotations/FRAN_0021_18428.json/25/line", 
            "@type": "oa:Annotation", 
            "motivation": "oa:painting", 
            "on": "http://bvmm.irht.cnrs.fr/iiif/23734/canvas/canvas-2318357#xywh=1343,261,65,54", 
            "resource": {
                "@type": "cnt:ContentAsText", 
                "chars": "DE", 
                "format": "text/plain"
            }
        }, 
        {
            "@id": "https://manifests.teklia.com/HIMANIS/JJ144/words_annotations/FRAN_0021_18428.json/26/line", 
            "@type": "oa:Annotation", 
            "motivation": "oa:painting", 
            "on": "http://bvmm.irht.cnrs.fr/iiif/23734/canvas/canvas-2318357#xywh=2477,776,135,270", 
            "resource": {
                "@type": "cnt:ContentAsText", 
                "chars": "FAIS", 
                "format": "text/plain"
            }
        }, 
        {
            "@id": "https://manifests.teklia.com/HIMANIS/JJ144/words_annotations/FRAN_0021_18428.json/27/line", 
            "@type": "oa:Annotation", 
            "motivation": "oa:painting", 
            "on": "http://bvmm.irht.cnrs.fr/iiif/23734/canvas/canvas-2318357#xywh=49,4692,88,46", 
            "resource": {
                "@type": "cnt:ContentAsText", 
                "chars": "LE", 
                "format": "text/plain"
            }
        }, 
        {
            "@id": "https://manifests.teklia.com/HIMANIS/JJ144/words_annotations/FRAN_0021_18428.json/28/line", 
            "@type": "oa:Annotation", 
            "motivation": "oa:painting", 
            "on": "http://bvmm.irht.cnrs.fr/iiif/23734/canvas/canvas-2318357#xywh=2477,776,101,270", 
            "resource": {
                "@type": "cnt:ContentAsText", 
                "chars": "FAIT", 
                "format": "text/plain"
            }
        }, 
        {
            "@id": "https://manifests.teklia.com/HIMANIS/JJ144/words_annotations/FRAN_0021_18428.json/29/line", 
            "@type": "oa:Annotation", 
            "motivation": "oa:painting", 
            "on": "http://bvmm.irht.cnrs.fr/iiif/23734/canvas/canvas-2318357#xywh=2035,671,235,209", 
            "resource": {
                "@type": "cnt:ContentAsText", 
                "chars": "SIGILLUM", 
                "format": "text/plain"
            }
        }, 
        {
            "@id": "https://manifests.teklia.com/HIMANIS/JJ144/words_annotations/FRAN_0021_18428.json/30/line", 
            "@type": "oa:Annotation", 
            "motivation": "oa:painting", 
            "on": "http://bvmm.irht.cnrs.fr/iiif/23734/canvas/canvas-2318357#xywh=1447,671,156,209", 
            "resource": {
                "@type": "cnt:ContentAsText", 
                "chars": "POITOU", 
                "format": "text/plain"
            }
        }, 
        {
            "@id": "https://manifests.teklia.com/HIMANIS/JJ144/words_annotations/FRAN_0021_18428.json/31/line", 
            "@type": "oa:Annotation", 
            "motivation": "oa:painting", 
            "on": "http://bvmm.irht.cnrs.fr/iiif/23734/canvas/canvas-2318357#xywh=1363,776,84,270", 
            "resource": {
                "@type": "cnt:ContentAsText", 
                "chars": "PRISIUS", 
                "format": "text/plain"
            }
        }, 
        {
            "@id": "https://manifests.teklia.com/HIMANIS/JJ144/words_annotations/FRAN_0021_18428.json/32/line", 
            "@type": "oa:Annotation", 
            "motivation": "oa:painting", 
            "on": "http://bvmm.irht.cnrs.fr/iiif/23734/canvas/canvas-2318357#xywh=1363,776,320,270", 
            "resource": {
                "@type": "cnt:ContentAsText", 
                "chars": "PREMISSIMI", 
                "format": "text/plain"
            }
        }, 
        {
            "@id": "https://manifests.teklia.com/HIMANIS/JJ144/words_annotations/FRAN_0021_18428.json/33/line", 
            "@type": "oa:Annotation", 
            "motivation": "oa:painting", 
            "on": "http://bvmm.irht.cnrs.fr/iiif/23734/canvas/canvas-2318357#xywh=3535,859,267,65", 
            "resource": {
                "@type": "cnt:ContentAsText", 
                "chars": "PHILIPPUS", 
                "format": "text/plain"
            }
        }, 
        {
            "@id": "https://manifests.teklia.com/HIMANIS/JJ144/words_annotations/FRAN_0021_18428.json/34/line", 
            "@type": "oa:Annotation", 
            "motivation": "oa:painting", 
            "on": "http://bvmm.irht.cnrs.fr/iiif/23734/canvas/canvas-2318357#xywh=1071,4692,97,46", 
            "resource": {
                "@type": "cnt:ContentAsText", 
                "chars": "DITE", 
                "format": "text/plain"
            }
        }, 
        {
            "@id": "https://manifests.teklia.com/HIMANIS/JJ144/words_annotations/FRAN_0021_18428.json/35/line", 
            "@type": "oa:Annotation", 
            "motivation": "oa:painting", 
            "on": "http://bvmm.irht.cnrs.fr/iiif/23734/canvas/canvas-2318357#xywh=1708,671,327,209", 
            "resource": {
                "@type": "cnt:ContentAsText", 
                "chars": "IMPON", 
                "format": "text/plain"
            }
        }, 
        {
            "@id": "https://manifests.teklia.com/HIMANIS/JJ144/words_annotations/FRAN_0021_18428.json/36/line", 
            "@type": "oa:Annotation", 
            "motivation": "oa:painting", 
            "on": "http://bvmm.irht.cnrs.fr/iiif/23734/canvas/canvas-2318357#xywh=2880,4522,1033,147", 
            "resource": {
                "@type": "cnt:ContentAsText", 
                "chars": "HILIPPUS", 
                "format": "text/plain"
            }
        }, 
        {
            "@id": "https://manifests.teklia.com/HIMANIS/JJ144/words_annotations/FRAN_0021_18428.json/37/line", 
            "@type": "oa:Annotation", 
            "motivation": "oa:painting", 
            "on": "http://bvmm.irht.cnrs.fr/iiif/23734/canvas/canvas-2318357#xywh=2880,4522,1033,147", 
            "resource": {
                "@type": "cnt:ContentAsText", 
                "chars": "HILIPPES", 
                "format": "text/plain"
            }
        }, 
        {
            "@id": "https://manifests.teklia.com/HIMANIS/JJ144/words_annotations/FRAN_0021_18428.json/38/line", 
            "@type": "oa:Annotation", 
            "motivation": "oa:painting", 
            "on": "http://bvmm.irht.cnrs.fr/iiif/23734/canvas/canvas-2318357#xywh=806,671,170,209", 
            "resource": {
                "@type": "cnt:ContentAsText", 
                "chars": "ACQUI", 
                "format": "text/plain"
            }
        }, 
        {
            "@id": "https://manifests.teklia.com/HIMANIS/JJ144/words_annotations/FRAN_0021_18428.json/39/line", 
            "@type": "oa:Annotation", 
            "motivation": "oa:painting", 
            "on": "http://bvmm.irht.cnrs.fr/iiif/23734/canvas/canvas-2318357#xywh=1180,261,231,54", 
            "resource": {
                "@type": "cnt:ContentAsText", 
                "chars": "DILEC", 
                "format": "text/plain"
            }
        }, 
        {
            "@id": "https://manifests.teklia.com/HIMANIS/JJ144/words_annotations/FRAN_0021_18428.json/40/line", 
            "@type": "oa:Annotation", 
            "motivation": "oa:painting", 
            "on": "http://bvmm.irht.cnrs.fr/iiif/23734/canvas/canvas-2318357#xywh=2460,776,321,270", 
            "resource": {
                "@type": "cnt:ContentAsText", 
                "chars": "RENTIS", 
                "format": "text/plain"
            }
        }, 
        {
            "@id": "https://manifests.teklia.com/HIMANIS/JJ144/words_annotations/FRAN_0021_18428.json/41/line", 
            "@type": "oa:Annotation", 
            "motivation": "oa:painting", 
            "on": "http://bvmm.irht.cnrs.fr/iiif/23734/canvas/canvas-2318357#xywh=1430,776,270,270", 
            "resource": {
                "@type": "cnt:ContentAsText", 
                "chars": "ALIUM", 
                "format": "text/plain"
            }
        }, 
        {
            "@id": "https://manifests.teklia.com/HIMANIS/JJ144/words_annotations/FRAN_0021_18428.json/42/line", 
            "@type": "oa:Annotation", 
            "motivation": "oa:painting", 
            "on": "http://bvmm.irht.cnrs.fr/iiif/23734/canvas/canvas-2318357#xywh=873,776,118,270", 
            "resource": {
                "@type": "cnt:ContentAsText", 
                "chars": "ALIIS", 
                "format": "text/plain"
            }
        }, 
        {
            "@id": "https://manifests.teklia.com/HIMANIS/JJ144/words_annotations/FRAN_0021_18428.json/43/line", 
            "@type": "oa:Annotation", 
            "motivation": "oa:painting", 
            "on": "http://bvmm.irht.cnrs.fr/iiif/23734/canvas/canvas-2318357#xywh=2021,776,169,270", 
            "resource": {
                "@type": "cnt:ContentAsText", 
                "chars": "TANTUR", 
                "format": "text/plain"
            }
        }, 
        {
            "@id": "https://manifests.teklia.com/HIMANIS/JJ144/words_annotations/FRAN_0021_18428.json/44/line", 
            "@type": "oa:Annotation", 
            "motivation": "oa:painting", 
            "on": "http://bvmm.irht.cnrs.fr/iiif/23734/canvas/canvas-2318357#xywh=2021,776,169,270", 
            "resource": {
                "@type": "cnt:ContentAsText", 
                "chars": "TANTES", 
                "format": "text/plain"
            }
        }, 
        {
            "@id": "https://manifests.teklia.com/HIMANIS/JJ144/words_annotations/FRAN_0021_18428.json/45/line", 
            "@type": "oa:Annotation", 
            "motivation": "oa:painting", 
            "on": "http://bvmm.irht.cnrs.fr/iiif/23734/canvas/canvas-2318357#xywh=2466,671,314,209", 
            "resource": {
                "@type": "cnt:ContentAsText", 
                "chars": "PETERET", 
                "format": "text/plain"
            }
        }, 
        {
            "@id": "https://manifests.teklia.com/HIMANIS/JJ144/words_annotations/FRAN_0021_18428.json/46/line", 
            "@type": "oa:Annotation", 
            "motivation": "oa:painting", 
            "on": "http://bvmm.irht.cnrs.fr/iiif/23734/canvas/canvas-2318357#xywh=1028,671,262,209", 
            "resource": {
                "@type": "cnt:ContentAsText", 
                "chars": "ORDINATUM", 
                "format": "text/plain"
            }
        }, 
        {
            "@id": "https://manifests.teklia.com/HIMANIS/JJ144/words_annotations/FRAN_0021_18428.json/47/line", 
            "@type": "oa:Annotation", 
            "motivation": "oa:painting", 
            "on": "http://bvmm.irht.cnrs.fr/iiif/23734/canvas/canvas-2318357#xywh=2466,671,314,209", 
            "resource": {
                "@type": "cnt:ContentAsText", 
                "chars": "RECERET", 
                "format": "text/plain"
            }
        }, 
        {
            "@id": "https://manifests.teklia.com/HIMANIS/JJ144/words_annotations/FRAN_0021_18428.json/48/line", 
            "@type": "oa:Annotation", 
            "motivation": "oa:painting", 
            "on": "http://bvmm.irht.cnrs.fr/iiif/23734/canvas/canvas-2318357#xywh=873,776,473,270", 
            "resource": {
                "@type": "cnt:ContentAsText", 
                "chars": "MONSTRUM", 
                "format": "text/plain"
            }
        }, 
        {
            "@id": "https://manifests.teklia.com/HIMANIS/JJ144/words_annotations/FRAN_0021_18428.json/49/line", 
            "@type": "oa:Annotation", 
            "motivation": "oa:painting", 
            "on": "http://bvmm.irht.cnrs.fr/iiif/23734/canvas/canvas-2318357#xywh=502,776,371,270", 
            "resource": {
                "@type": "cnt:ContentAsText", 
                "chars": "DECIMUS", 
                "format": "text/plain"
            }
        }, 
        {
            "@id": "https://manifests.teklia.com/HIMANIS/JJ144/words_annotations/FRAN_0021_18428.json/50/line", 
            "@type": "oa:Annotation", 
            "motivation": "oa:painting", 
            "on": "http://bvmm.irht.cnrs.fr/iiif/23734/canvas/canvas-2318357#xywh=63,776,321,270", 
            "resource": {
                "@type": "cnt:ContentAsText", 
                "chars": "IN", 
                "format": "text/plain"
            }
        }, 
        {
            "@id": "https://manifests.teklia.com/HIMANIS/JJ144/words_annotations/FRAN_0021_18428.json/51/line", 
            "@type": "oa:Annotation", 
            "motivation": "oa:painting", 
            "on": "http://bvmm.irht.cnrs.fr/iiif/23734/canvas/canvas-2318357#xywh=586,776,118,270", 
            "resource": {
                "@type": "cnt:ContentAsText", 
                "chars": "ET", 
                "format": "text/plain"
            }
        }, 
        {
            "@id": "https://manifests.teklia.com/HIMANIS/JJ144/words_annotations/FRAN_0021_18428.json/52/line", 
            "@type": "oa:Annotation", 
            "motivation": "oa:painting", 
            "on": "http://bvmm.irht.cnrs.fr/iiif/23734/canvas/canvas-2318357#xywh=1180,261,146,54", 
            "resource": {
                "@type": "cnt:ContentAsText", 
                "chars": "ET", 
                "format": "text/plain"
            }
        }, 
        {
            "@id": "https://manifests.teklia.com/HIMANIS/JJ144/words_annotations/FRAN_0021_18428.json/53/line", 
            "@type": "oa:Annotation", 
            "motivation": "oa:painting", 
            "on": "http://bvmm.irht.cnrs.fr/iiif/23734/canvas/canvas-2318357#xywh=3662,4147,62,61", 
            "resource": {
                "@type": "cnt:ContentAsText", 
                "chars": "PHILIPPUS", 
                "format": "text/plain"
            }
        }, 
        {
            "@id": "https://manifests.teklia.com/HIMANIS/JJ144/words_annotations/FRAN_0021_18428.json/54/line", 
            "@type": "oa:Annotation", 
            "motivation": "oa:painting", 
            "on": "http://bvmm.irht.cnrs.fr/iiif/23734/canvas/canvas-2318357#xywh=502,776,405,270", 
            "resource": {
                "@type": "cnt:ContentAsText", 
                "chars": "DECIMO", 
                "format": "text/plain"
            }
        }, 
        {
            "@id": "https://manifests.teklia.com/HIMANIS/JJ144/words_annotations/FRAN_0021_18428.json/55/line", 
            "@type": "oa:Annotation", 
            "motivation": "oa:painting", 
            "on": "http://bvmm.irht.cnrs.fr/iiif/23734/canvas/canvas-2318357#xywh=3662,4147,62,61", 
            "resource": {
                "@type": "cnt:ContentAsText", 
                "chars": "PHILIPPES", 
                "format": "text/plain"
            }
        }, 
        {
            "@id": "https://manifests.teklia.com/HIMANIS/JJ144/words_annotations/FRAN_0021_18428.json/56/line", 
            "@type": "oa:Annotation", 
            "motivation": "oa:painting", 
            "on": "http://bvmm.irht.cnrs.fr/iiif/23734/canvas/canvas-2318357#xywh=1869,776,118,270", 
            "resource": {
                "@type": "cnt:ContentAsText", 
                "chars": "MILLES", 
                "format": "text/plain"
            }
        }, 
        {
            "@id": "https://manifests.teklia.com/HIMANIS/JJ144/words_annotations/FRAN_0021_18428.json/57/line", 
            "@type": "oa:Annotation", 
            "motivation": "oa:painting", 
            "on": "http://bvmm.irht.cnrs.fr/iiif/23734/canvas/canvas-2318357#xywh=1635,1094,127,185", 
            "resource": {
                "@type": "cnt:ContentAsText", 
                "chars": "EXCIO", 
                "format": "text/plain"
            }
        }, 
        {
            "@id": "https://manifests.teklia.com/HIMANIS/JJ144/words_annotations/FRAN_0021_18428.json/58/line", 
            "@type": "oa:Annotation", 
            "motivation": "oa:painting", 
            "on": "http://bvmm.irht.cnrs.fr/iiif/23734/canvas/canvas-2318357#xywh=100,671,418,209", 
            "resource": {
                "@type": "cnt:ContentAsText", 
                "chars": "IN", 
                "format": "text/plain"
            }
        }, 
        {
            "@id": "https://manifests.teklia.com/HIMANIS/JJ144/words_annotations/FRAN_0021_18428.json/59/line", 
            "@type": "oa:Annotation", 
            "motivation": "oa:painting", 
            "on": "http://bvmm.irht.cnrs.fr/iiif/23734/canvas/canvas-2318357#xywh=2309,671,144,209", 
            "resource": {
                "@type": "cnt:ContentAsText", 
                "chars": "ET", 
                "format": "text/plain"
            }
        }, 
        {
            "@id": "https://manifests.teklia.com/HIMANIS/JJ144/words_annotations/FRAN_0021_18428.json/60/line", 
            "@type": "oa:Annotation", 
            "motivation": "oa:painting", 
            "on": "http://bvmm.irht.cnrs.fr/iiif/23734/canvas/canvas-2318357#xywh=1316,671,91,209", 
            "resource": {
                "@type": "cnt:ContentAsText", 
                "chars": "FEU", 
                "format": "text/plain"
            }
        }, 
        {
            "@id": "https://manifests.teklia.com/HIMANIS/JJ144/words_annotations/FRAN_0021_18428.json/61/line", 
            "@type": "oa:Annotation", 
            "motivation": "oa:painting", 
            "on": "http://bvmm.irht.cnrs.fr/iiif/23734/canvas/canvas-2318357#xywh=1316,671,314,209", 
            "resource": {
                "@type": "cnt:ContentAsText", 
                "chars": "POTUI", 
                "format": "text/plain"
            }
        }, 
        {
            "@id": "https://manifests.teklia.com/HIMANIS/JJ144/words_annotations/FRAN_0021_18428.json/62/line", 
            "@type": "oa:Annotation", 
            "motivation": "oa:painting", 
            "on": "http://bvmm.irht.cnrs.fr/iiif/23734/canvas/canvas-2318357#xywh=1869,776,118,270", 
            "resource": {
                "@type": "cnt:ContentAsText", 
                "chars": "MILES", 
                "format": "text/plain"
            }
        }, 
        {
            "@id": "https://manifests.teklia.com/HIMANIS/JJ144/words_annotations/FRAN_0021_18428.json/63/line", 
            "@type": "oa:Annotation", 
            "motivation": "oa:painting", 
            "on": "http://bvmm.irht.cnrs.fr/iiif/23734/canvas/canvas-2318357#xywh=2880,4522,1033,147", 
            "resource": {
                "@type": "cnt:ContentAsText", 
                "chars": "PHILIPPUS", 
                "format": "text/plain"
            }
        }, 
        {
            "@id": "https://manifests.teklia.com/HIMANIS/JJ144/words_annotations/FRAN_0021_18428.json/64/line", 
            "@type": "oa:Annotation", 
            "motivation": "oa:painting", 
            "on": "http://bvmm.irht.cnrs.fr/iiif/23734/canvas/canvas-2318357#xywh=2880,4522,1033,147", 
            "resource": {
                "@type": "cnt:ContentAsText", 
                "chars": "PHILIPPES", 
                "format": "text/plain"
            }
        }, 
        {
            "@id": "https://manifests.teklia.com/HIMANIS/JJ144/words_annotations/FRAN_0021_18428.json/65/line", 
            "@type": "oa:Annotation", 
            "motivation": "oa:painting", 
            "on": "http://bvmm.irht.cnrs.fr/iiif/23734/canvas/canvas-2318357#xywh=3379,4410,508,195", 
            "resource": {
                "@type": "cnt:ContentAsText", 
                "chars": "PHILIPPUS", 
                "format": "text/plain"
            }
        }, 
        {
            "@id": "https://manifests.teklia.com/HIMANIS/JJ144/words_annotations/FRAN_0021_18428.json/66/line", 
            "@type": "oa:Annotation", 
            "motivation": "oa:painting", 
            "on": "http://bvmm.irht.cnrs.fr/iiif/23734/canvas/canvas-2318357#xywh=49,4692,1116,46", 
            "resource": {
                "@type": "cnt:ContentAsText", 
                "chars": "LETTRES", 
                "format": "text/plain"
            }
        }, 
        {
            "@id": "https://manifests.teklia.com/HIMANIS/JJ144/words_annotations/FRAN_0021_18428.json/67/line", 
            "@type": "oa:Annotation", 
            "motivation": "oa:painting", 
            "on": "http://bvmm.irht.cnrs.fr/iiif/23734/canvas/canvas-2318357#xywh=3379,4410,508,195", 
            "resource": {
                "@type": "cnt:ContentAsText", 
                "chars": "PHILIPPES", 
                "format": "text/plain"
            }
        }, 
        {
            "@id": "https://manifests.teklia.com/HIMANIS/JJ144/words_annotations/FRAN_0021_18428.json/68/line", 
            "@type": "oa:Annotation", 
            "motivation": "oa:painting", 
            "on": "http://bvmm.irht.cnrs.fr/iiif/23734/canvas/canvas-2318357#xywh=1971,1094,197,185", 
            "resource": {
                "@type": "cnt:ContentAsText", 
                "chars": "PERRONT", 
                "format": "text/plain"
            }
        }, 
        {
            "@id": "https://manifests.teklia.com/HIMANIS/JJ144/words_annotations/FRAN_0021_18428.json/69/line", 
            "@type": "oa:Annotation", 
            "motivation": "oa:painting", 
            "on": "http://bvmm.irht.cnrs.fr/iiif/23734/canvas/canvas-2318357#xywh=63,776,490,270", 
            "resource": {
                "@type": "cnt:ContentAsText", 
                "chars": "OMNIBUS", 
                "format": "text/plain"
            }
        }, 
        {
            "@id": "https://manifests.teklia.com/HIMANIS/JJ144/words_annotations/FRAN_0021_18428.json/70/line", 
            "@type": "oa:Annotation", 
            "motivation": "oa:painting", 
            "on": "http://bvmm.irht.cnrs.fr/iiif/23734/canvas/canvas-2318357#xywh=2021,776,135,270", 
            "resource": {
                "@type": "cnt:ContentAsText", 
                "chars": "TANT", 
                "format": "text/plain"
            }
        }, 
        {
            "@id": "https://manifests.teklia.com/HIMANIS/JJ144/words_annotations/FRAN_0021_18428.json/71/line", 
            "@type": "oa:Annotation", 
            "motivation": "oa:painting", 
            "on": "http://bvmm.irht.cnrs.fr/iiif/23734/canvas/canvas-2318357#xywh=545,671,222,209", 
            "resource": {
                "@type": "cnt:ContentAsText", 
                "chars": "ABSENCIA", 
                "format": "text/plain"
            }
        }, 
        {
            "@id": "https://manifests.teklia.com/HIMANIS/JJ144/words_annotations/FRAN_0021_18428.json/72/line", 
            "@type": "oa:Annotation", 
            "motivation": "oa:painting", 
            "on": "http://bvmm.irht.cnrs.fr/iiif/23734/canvas/canvas-2318357#xywh=1708,671,340,209", 
            "resource": {
                "@type": "cnt:ContentAsText", 
                "chars": "IMPONI", 
                "format": "text/plain"
            }
        }, 
        {
            "@id": "https://manifests.teklia.com/HIMANIS/JJ144/words_annotations/FRAN_0021_18428.json/73/line", 
            "@type": "oa:Annotation", 
            "motivation": "oa:painting", 
            "on": "http://bvmm.irht.cnrs.fr/iiif/23734/canvas/canvas-2318357#xywh=1472,1094,151,185", 
            "resource": {
                "@type": "cnt:ContentAsText", 
                "chars": "PARISSIS", 
                "format": "text/plain"
            }
        }, 
        {
            "@id": "https://manifests.teklia.com/HIMANIS/JJ144/words_annotations/FRAN_0021_18428.json/74/line", 
            "@type": "oa:Annotation", 
            "motivation": "oa:painting", 
            "on": "http://bvmm.irht.cnrs.fr/iiif/23734/canvas/canvas-2318357#xywh=806,671,52,209", 
            "resource": {
                "@type": "cnt:ContentAsText", 
                "chars": "NOS", 
                "format": "text/plain"
            }
        }, 
        {
            "@id": "https://manifests.teklia.com/HIMANIS/JJ144/words_annotations/FRAN_0021_18428.json/75/line", 
            "@type": "oa:Annotation", 
            "motivation": "oa:painting", 
            "on": "http://bvmm.irht.cnrs.fr/iiif/23734/canvas/canvas-2318357#xywh=2460,776,523,270", 
            "resource": {
                "@type": "cnt:ContentAsText", 
                "chars": "REGII", 
                "format": "text/plain"
            }
        }, 
        {
            "@id": "https://manifests.teklia.com/HIMANIS/JJ144/words_annotations/FRAN_0021_18428.json/76/line", 
            "@type": "oa:Annotation", 
            "motivation": "oa:painting", 
            "on": "http://bvmm.irht.cnrs.fr/iiif/23734/canvas/canvas-2318357#xywh=2224,776,253,270", 
            "resource": {
                "@type": "cnt:ContentAsText", 
                "chars": "PREDICTE", 
                "format": "text/plain"
            }
        }, 
        {
            "@id": "https://manifests.teklia.com/HIMANIS/JJ144/words_annotations/FRAN_0021_18428.json/77/line", 
            "@type": "oa:Annotation", 
            "motivation": "oa:painting", 
            "on": "http://bvmm.irht.cnrs.fr/iiif/23734/canvas/canvas-2318357#xywh=1635,1094,150,185", 
            "resource": {
                "@type": "cnt:ContentAsText", 
                "chars": "EXTERIO", 
                "format": "text/plain"
            }
        }, 
        {
            "@id": "https://manifests.teklia.com/HIMANIS/JJ144/words_annotations/FRAN_0021_18428.json/78/line", 
            "@type": "oa:Annotation", 
            "motivation": "oa:painting", 
            "on": "http://bvmm.irht.cnrs.fr/iiif/23734/canvas/canvas-2318357#xywh=2780,671,196,209", 
            "resource": {
                "@type": "cnt:ContentAsText", 
                "chars": "NOSTRUM", 
                "format": "text/plain"
            }
        }, 
        {
            "@id": "https://manifests.teklia.com/HIMANIS/JJ144/words_annotations/FRAN_0021_18428.json/79/line", 
            "@type": "oa:Annotation", 
            "motivation": "oa:painting", 
            "on": "http://bvmm.irht.cnrs.fr/iiif/23734/canvas/canvas-2318357#xywh=937,671,78,209", 
            "resource": {
                "@type": "cnt:ContentAsText", 
                "chars": "QUI", 
                "format": "text/plain"
            }
        }, 
        {
            "@id": "https://manifests.teklia.com/HIMANIS/JJ144/words_annotations/FRAN_0021_18428.json/80/line", 
            "@type": "oa:Annotation", 
            "motivation": "oa:painting", 
            "on": "http://bvmm.irht.cnrs.fr/iiif/23734/canvas/canvas-2318357#xywh=2824,4591,0,168", 
            "resource": {
                "@type": "cnt:ContentAsText", 
                "chars": "H", 
                "format": "text/plain"
            }
        }, 
        {
            "@id": "https://manifests.teklia.com/HIMANIS/JJ144/words_annotations/FRAN_0021_18428.json/81/line", 
            "@type": "oa:Annotation", 
            "motivation": "oa:painting", 
            "on": "http://bvmm.irht.cnrs.fr/iiif/23734/canvas/canvas-2318357#xywh=2824,4591,0,168", 
            "resource": {
                "@type": "cnt:ContentAsText", 
                "chars": "J", 
                "format": "text/plain"
            }
        }, 
        {
            "@id": "https://manifests.teklia.com/HIMANIS/JJ144/words_annotations/FRAN_0021_18428.json/82/line", 
            "@type": "oa:Annotation", 
            "motivation": "oa:painting", 
            "on": "http://bvmm.irht.cnrs.fr/iiif/23734/canvas/canvas-2318357#xywh=2824,4591,0,168", 
            "resource": {
                "@type": "cnt:ContentAsText", 
                "chars": "L", 
                "format": "text/plain"
            }
        }, 
        {
            "@id": "https://manifests.teklia.com/HIMANIS/JJ144/words_annotations/FRAN_0021_18428.json/83/line", 
            "@type": "oa:Annotation", 
            "motivation": "oa:painting", 
            "on": "http://bvmm.irht.cnrs.fr/iiif/23734/canvas/canvas-2318357#xywh=3512,122,331,179", 
            "resource": {
                "@type": "cnt:ContentAsText", 
                "chars": "SUS", 
                "format": "text/plain"
            }
        }, 
        {
            "@id": "https://manifests.teklia.com/HIMANIS/JJ144/words_annotations/FRAN_0021_18428.json/84/line", 
            "@type": "oa:Annotation", 
            "motivation": "oa:painting", 
            "on": "http://bvmm.irht.cnrs.fr/iiif/23734/canvas/canvas-2318357#xywh=3512,122,331,179", 
            "resource": {
                "@type": "cnt:ContentAsText", 
                "chars": "SES", 
                "format": "text/plain"
            }
        }, 
        {
            "@id": "https://manifests.teklia.com/HIMANIS/JJ144/words_annotations/FRAN_0021_18428.json/85/line", 
            "@type": "oa:Annotation", 
            "motivation": "oa:painting", 
            "on": "http://bvmm.irht.cnrs.fr/iiif/23734/canvas/canvas-2318357#xywh=1472,1094,151,185", 
            "resource": {
                "@type": "cnt:ContentAsText", 
                "chars": "PARISIUS", 
                "format": "text/plain"
            }
        }
    ]
}