{
    "@context": "http://iiif.io/api/presentation/2/context.json", 
    "@id": "https://manifests.teklia.com/HIMANIS/FR14371/words_annotations/http_gallica.bnf.fr_iiif_ark:_12148_btv1b9007185x_f355_full_full_0_native.jpg.json", 
    "@type": "sc:AnnotationList", 
    "resources": [
        {
            "@id": "https://manifests.teklia.com/HIMANIS/FR14371/words_annotations/http_gallica.bnf.fr_iiif_ark:_12148_btv1b9007185x_f355_full_full_0_native.jpg.json/0/line", 
            "@type": "oa:Annotation", 
            "motivation": "oa:painting", 
            "on": "http://gallica.bnf.fr/iiif/ark:/12148/btv1b9007185x/canvas/f355#xywh=1764,1575,101,42", 
            "resource": {
                "@type": "cnt:ContentAsText", 
                "chars": "CE", 
                "format": "text/plain"
            }
        }, 
        {
            "@id": "https://manifests.teklia.com/HIMANIS/FR14371/words_annotations/http_gallica.bnf.fr_iiif_ark:_12148_btv1b9007185x_f355_full_full_0_native.jpg.json/1/line", 
            "@type": "oa:Annotation", 
            "motivation": "oa:painting", 
            "on": "http://gallica.bnf.fr/iiif/ark:/12148/btv1b9007185x/canvas/f355#xywh=1652,653,242,77", 
            "resource": {
                "@type": "cnt:ContentAsText", 
                "chars": "JEHAN", 
                "format": "text/plain"
            }
        }, 
        {
            "@id": "https://manifests.teklia.com/HIMANIS/FR14371/words_annotations/http_gallica.bnf.fr_iiif_ark:_12148_btv1b9007185x_f355_full_full_0_native.jpg.json/2/line", 
            "@type": "oa:Annotation", 
            "motivation": "oa:painting", 
            "on": "http://gallica.bnf.fr/iiif/ark:/12148/btv1b9007185x/canvas/f355#xywh=1633,728,25,57", 
            "resource": {
                "@type": "cnt:ContentAsText", 
                "chars": "DE", 
                "format": "text/plain"
            }
        }, 
        {
            "@id": "https://manifests.teklia.com/HIMANIS/FR14371/words_annotations/http_gallica.bnf.fr_iiif_ark:_12148_btv1b9007185x_f355_full_full_0_native.jpg.json/3/line", 
            "@type": "oa:Annotation", 
            "motivation": "oa:painting", 
            "on": "http://gallica.bnf.fr/iiif/ark:/12148/btv1b9007185x/canvas/f355#xywh=1785,1386,0,30", 
            "resource": {
                "@type": "cnt:ContentAsText", 
                "chars": "J", 
                "format": "text/plain"
            }
        }, 
        {
            "@id": "https://manifests.teklia.com/HIMANIS/FR14371/words_annotations/http_gallica.bnf.fr_iiif_ark:_12148_btv1b9007185x_f355_full_full_0_native.jpg.json/4/line", 
            "@type": "oa:Annotation", 
            "motivation": "oa:painting", 
            "on": "http://gallica.bnf.fr/iiif/ark:/12148/btv1b9007185x/canvas/f355#xywh=1651,1503,224,71", 
            "resource": {
                "@type": "cnt:ContentAsText", 
                "chars": "CANT", 
                "format": "text/plain"
            }
        }, 
        {
            "@id": "https://manifests.teklia.com/HIMANIS/FR14371/words_annotations/http_gallica.bnf.fr_iiif_ark:_12148_btv1b9007185x_f355_full_full_0_native.jpg.json/5/line", 
            "@type": "oa:Annotation", 
            "motivation": "oa:painting", 
            "on": "http://gallica.bnf.fr/iiif/ark:/12148/btv1b9007185x/canvas/f355#xywh=1645,768,0,41", 
            "resource": {
                "@type": "cnt:ContentAsText", 
                "chars": "P", 
                "format": "text/plain"
            }
        }, 
        {
            "@id": "https://manifests.teklia.com/HIMANIS/FR14371/words_annotations/http_gallica.bnf.fr_iiif_ark:_12148_btv1b9007185x_f355_full_full_0_native.jpg.json/6/line", 
            "@type": "oa:Annotation", 
            "motivation": "oa:painting", 
            "on": "http://gallica.bnf.fr/iiif/ark:/12148/btv1b9007185x/canvas/f355#xywh=1880,474,0,88", 
            "resource": {
                "@type": "cnt:ContentAsText", 
                "chars": "A", 
                "format": "text/plain"
            }
        }, 
        {
            "@id": "https://manifests.teklia.com/HIMANIS/FR14371/words_annotations/http_gallica.bnf.fr_iiif_ark:_12148_btv1b9007185x_f355_full_full_0_native.jpg.json/7/line", 
            "@type": "oa:Annotation", 
            "motivation": "oa:painting", 
            "on": "http://gallica.bnf.fr/iiif/ark:/12148/btv1b9007185x/canvas/f355#xywh=1651,1503,237,71", 
            "resource": {
                "@type": "cnt:ContentAsText", 
                "chars": "CARI", 
                "format": "text/plain"
            }
        }, 
        {
            "@id": "https://manifests.teklia.com/HIMANIS/FR14371/words_annotations/http_gallica.bnf.fr_iiif_ark:_12148_btv1b9007185x_f355_full_full_0_native.jpg.json/8/line", 
            "@type": "oa:Annotation", 
            "motivation": "oa:painting", 
            "on": "http://gallica.bnf.fr/iiif/ark:/12148/btv1b9007185x/canvas/f355#xywh=1658,1982,85,43", 
            "resource": {
                "@type": "cnt:ContentAsText", 
                "chars": "LIEU", 
                "format": "text/plain"
            }
        }, 
        {
            "@id": "https://manifests.teklia.com/HIMANIS/FR14371/words_annotations/http_gallica.bnf.fr_iiif_ark:_12148_btv1b9007185x_f355_full_full_0_native.jpg.json/9/line", 
            "@type": "oa:Annotation", 
            "motivation": "oa:painting", 
            "on": "http://gallica.bnf.fr/iiif/ark:/12148/btv1b9007185x/canvas/f355#xywh=1785,1386,0,30", 
            "resource": {
                "@type": "cnt:ContentAsText", 
                "chars": "P", 
                "format": "text/plain"
            }
        }, 
        {
            "@id": "https://manifests.teklia.com/HIMANIS/FR14371/words_annotations/http_gallica.bnf.fr_iiif_ark:_12148_btv1b9007185x_f355_full_full_0_native.jpg.json/10/line", 
            "@type": "oa:Annotation", 
            "motivation": "oa:painting", 
            "on": "http://gallica.bnf.fr/iiif/ark:/12148/btv1b9007185x/canvas/f355#xywh=1649,474,160,88", 
            "resource": {
                "@type": "cnt:ContentAsText", 
                "chars": "ET", 
                "format": "text/plain"
            }
        }, 
        {
            "@id": "https://manifests.teklia.com/HIMANIS/FR14371/words_annotations/http_gallica.bnf.fr_iiif_ark:_12148_btv1b9007185x_f355_full_full_0_native.jpg.json/11/line", 
            "@type": "oa:Annotation", 
            "motivation": "oa:painting", 
            "on": "http://gallica.bnf.fr/iiif/ark:/12148/btv1b9007185x/canvas/f355#xywh=72,2629,1643,161", 
            "resource": {
                "@type": "cnt:ContentAsText", 
                "chars": "TOUTES", 
                "format": "text/plain"
            }
        }, 
        {
            "@id": "https://manifests.teklia.com/HIMANIS/FR14371/words_annotations/http_gallica.bnf.fr_iiif_ark:_12148_btv1b9007185x_f355_full_full_0_native.jpg.json/12/line", 
            "@type": "oa:Annotation", 
            "motivation": "oa:painting", 
            "on": "http://gallica.bnf.fr/iiif/ark:/12148/btv1b9007185x/canvas/f355#xywh=1663,1575,248,42", 
            "resource": {
                "@type": "cnt:ContentAsText", 
                "chars": "ET", 
                "format": "text/plain"
            }
        }, 
        {
            "@id": "https://manifests.teklia.com/HIMANIS/FR14371/words_annotations/http_gallica.bnf.fr_iiif_ark:_12148_btv1b9007185x_f355_full_full_0_native.jpg.json/13/line", 
            "@type": "oa:Annotation", 
            "motivation": "oa:painting", 
            "on": "http://gallica.bnf.fr/iiif/ark:/12148/btv1b9007185x/canvas/f355#xywh=1664,1415,257,40", 
            "resource": {
                "@type": "cnt:ContentAsText", 
                "chars": "LITTER", 
                "format": "text/plain"
            }
        }, 
        {
            "@id": "https://manifests.teklia.com/HIMANIS/FR14371/words_annotations/http_gallica.bnf.fr_iiif_ark:_12148_btv1b9007185x_f355_full_full_0_native.jpg.json/14/line", 
            "@type": "oa:Annotation", 
            "motivation": "oa:painting", 
            "on": "http://gallica.bnf.fr/iiif/ark:/12148/btv1b9007185x/canvas/f355#xywh=72,2629,1743,161", 
            "resource": {
                "@type": "cnt:ContentAsText", 
                "chars": "TENENT", 
                "format": "text/plain"
            }
        }, 
        {
            "@id": "https://manifests.teklia.com/HIMANIS/FR14371/words_annotations/http_gallica.bnf.fr_iiif_ark:_12148_btv1b9007185x_f355_full_full_0_native.jpg.json/15/line", 
            "@type": "oa:Annotation", 
            "motivation": "oa:painting", 
            "on": "http://gallica.bnf.fr/iiif/ark:/12148/btv1b9007185x/canvas/f355#xywh=1826,1220,0,67", 
            "resource": {
                "@type": "cnt:ContentAsText", 
                "chars": "J", 
                "format": "text/plain"
            }
        }, 
        {
            "@id": "https://manifests.teklia.com/HIMANIS/FR14371/words_annotations/http_gallica.bnf.fr_iiif_ark:_12148_btv1b9007185x_f355_full_full_0_native.jpg.json/16/line", 
            "@type": "oa:Annotation", 
            "motivation": "oa:painting", 
            "on": "http://gallica.bnf.fr/iiif/ark:/12148/btv1b9007185x/canvas/f355#xywh=1633,728,140,57", 
            "resource": {
                "@type": "cnt:ContentAsText", 
                "chars": "LA", 
                "format": "text/plain"
            }
        }, 
        {
            "@id": "https://manifests.teklia.com/HIMANIS/FR14371/words_annotations/http_gallica.bnf.fr_iiif_ark:_12148_btv1b9007185x_f355_full_full_0_native.jpg.json/17/line", 
            "@type": "oa:Annotation", 
            "motivation": "oa:painting", 
            "on": "http://gallica.bnf.fr/iiif/ark:/12148/btv1b9007185x/canvas/f355#xywh=1656,590,267,53", 
            "resource": {
                "@type": "cnt:ContentAsText", 
                "chars": "DILEC", 
                "format": "text/plain"
            }
        }, 
        {
            "@id": "https://manifests.teklia.com/HIMANIS/FR14371/words_annotations/http_gallica.bnf.fr_iiif_ark:_12148_btv1b9007185x_f355_full_full_0_native.jpg.json/18/line", 
            "@type": "oa:Annotation", 
            "motivation": "oa:painting", 
            "on": "http://gallica.bnf.fr/iiif/ark:/12148/btv1b9007185x/canvas/f355#xywh=1826,1220,0,67", 
            "resource": {
                "@type": "cnt:ContentAsText", 
                "chars": "P", 
                "format": "text/plain"
            }
        }, 
        {
            "@id": "https://manifests.teklia.com/HIMANIS/FR14371/words_annotations/http_gallica.bnf.fr_iiif_ark:_12148_btv1b9007185x_f355_full_full_0_native.jpg.json/19/line", 
            "@type": "oa:Annotation", 
            "motivation": "oa:painting", 
            "on": "http://gallica.bnf.fr/iiif/ark:/12148/btv1b9007185x/canvas/f355#xywh=1644,2215,76,58", 
            "resource": {
                "@type": "cnt:ContentAsText", 
                "chars": "DE", 
                "format": "text/plain"
            }
        }, 
        {
            "@id": "https://manifests.teklia.com/HIMANIS/FR14371/words_annotations/http_gallica.bnf.fr_iiif_ark:_12148_btv1b9007185x_f355_full_full_0_native.jpg.json/20/line", 
            "@type": "oa:Annotation", 
            "motivation": "oa:painting", 
            "on": "http://gallica.bnf.fr/iiif/ark:/12148/btv1b9007185x/canvas/f355#xywh=1633,728,140,57", 
            "resource": {
                "@type": "cnt:ContentAsText", 
                "chars": "PAR", 
                "format": "text/plain"
            }
        }, 
        {
            "@id": "https://manifests.teklia.com/HIMANIS/FR14371/words_annotations/http_gallica.bnf.fr_iiif_ark:_12148_btv1b9007185x_f355_full_full_0_native.jpg.json/21/line", 
            "@type": "oa:Annotation", 
            "motivation": "oa:painting", 
            "on": "http://gallica.bnf.fr/iiif/ark:/12148/btv1b9007185x/canvas/f355#xywh=1656,590,247,53", 
            "resource": {
                "@type": "cnt:ContentAsText", 
                "chars": "LES", 
                "format": "text/plain"
            }
        }, 
        {
            "@id": "https://manifests.teklia.com/HIMANIS/FR14371/words_annotations/http_gallica.bnf.fr_iiif_ark:_12148_btv1b9007185x_f355_full_full_0_native.jpg.json/22/line", 
            "@type": "oa:Annotation", 
            "motivation": "oa:painting", 
            "on": "http://gallica.bnf.fr/iiif/ark:/12148/btv1b9007185x/canvas/f355#xywh=1664,1415,260,40", 
            "resource": {
                "@type": "cnt:ContentAsText", 
                "chars": "LETTRE", 
                "format": "text/plain"
            }
        }, 
        {
            "@id": "https://manifests.teklia.com/HIMANIS/FR14371/words_annotations/http_gallica.bnf.fr_iiif_ark:_12148_btv1b9007185x_f355_full_full_0_native.jpg.json/23/line", 
            "@type": "oa:Annotation", 
            "motivation": "oa:painting", 
            "on": "http://gallica.bnf.fr/iiif/ark:/12148/btv1b9007185x/canvas/f355#xywh=1651,1503,251,71", 
            "resource": {
                "@type": "cnt:ContentAsText", 
                "chars": "CAUSE", 
                "format": "text/plain"
            }
        }, 
        {
            "@id": "https://manifests.teklia.com/HIMANIS/FR14371/words_annotations/http_gallica.bnf.fr_iiif_ark:_12148_btv1b9007185x_f355_full_full_0_native.jpg.json/24/line", 
            "@type": "oa:Annotation", 
            "motivation": "oa:painting", 
            "on": "http://gallica.bnf.fr/iiif/ark:/12148/btv1b9007185x/canvas/f355#xywh=1663,1575,80,42", 
            "resource": {
                "@type": "cnt:ContentAsText", 
                "chars": "DE", 
                "format": "text/plain"
            }
        }, 
        {
            "@id": "https://manifests.teklia.com/HIMANIS/FR14371/words_annotations/http_gallica.bnf.fr_iiif_ark:_12148_btv1b9007185x_f355_full_full_0_native.jpg.json/25/line", 
            "@type": "oa:Annotation", 
            "motivation": "oa:painting", 
            "on": "http://gallica.bnf.fr/iiif/ark:/12148/btv1b9007185x/canvas/f355#xywh=1633,728,266,57", 
            "resource": {
                "@type": "cnt:ContentAsText", 
                "chars": "DICTORUM", 
                "format": "text/plain"
            }
        }, 
        {
            "@id": "https://manifests.teklia.com/HIMANIS/FR14371/words_annotations/http_gallica.bnf.fr_iiif_ark:_12148_btv1b9007185x_f355_full_full_0_native.jpg.json/26/line", 
            "@type": "oa:Annotation", 
            "motivation": "oa:painting", 
            "on": "http://gallica.bnf.fr/iiif/ark:/12148/btv1b9007185x/canvas/f355#xywh=1650,422,267,39", 
            "resource": {
                "@type": "cnt:ContentAsText", 
                "chars": "LARC", 
                "format": "text/plain"
            }
        }, 
        {
            "@id": "https://manifests.teklia.com/HIMANIS/FR14371/words_annotations/http_gallica.bnf.fr_iiif_ark:_12148_btv1b9007185x_f355_full_full_0_native.jpg.json/27/line", 
            "@type": "oa:Annotation", 
            "motivation": "oa:painting", 
            "on": "http://gallica.bnf.fr/iiif/ark:/12148/btv1b9007185x/canvas/f355#xywh=1658,1982,56,43", 
            "resource": {
                "@type": "cnt:ContentAsText", 
                "chars": "LES", 
                "format": "text/plain"
            }
        }, 
        {
            "@id": "https://manifests.teklia.com/HIMANIS/FR14371/words_annotations/http_gallica.bnf.fr_iiif_ark:_12148_btv1b9007185x_f355_full_full_0_native.jpg.json/28/line", 
            "@type": "oa:Annotation", 
            "motivation": "oa:painting", 
            "on": "http://gallica.bnf.fr/iiif/ark:/12148/btv1b9007185x/canvas/f355#xywh=1661,1615,221,42", 
            "resource": {
                "@type": "cnt:ContentAsText", 
                "chars": "NULLO", 
                "format": "text/plain"
            }
        }, 
        {
            "@id": "https://manifests.teklia.com/HIMANIS/FR14371/words_annotations/http_gallica.bnf.fr_iiif_ark:_12148_btv1b9007185x_f355_full_full_0_native.jpg.json/29/line", 
            "@type": "oa:Annotation", 
            "motivation": "oa:painting", 
            "on": "http://gallica.bnf.fr/iiif/ark:/12148/btv1b9007185x/canvas/f355#xywh=1645,768,187,41", 
            "resource": {
                "@type": "cnt:ContentAsText", 
                "chars": "HAN", 
                "format": "text/plain"
            }
        }, 
        {
            "@id": "https://manifests.teklia.com/HIMANIS/FR14371/words_annotations/http_gallica.bnf.fr_iiif_ark:_12148_btv1b9007185x_f355_full_full_0_native.jpg.json/30/line", 
            "@type": "oa:Annotation", 
            "motivation": "oa:painting", 
            "on": "http://gallica.bnf.fr/iiif/ark:/12148/btv1b9007185x/canvas/f355#xywh=72,2629,1813,161", 
            "resource": {
                "@type": "cnt:ContentAsText", 
                "chars": "AUTRES", 
                "format": "text/plain"
            }
        }, 
        {
            "@id": "https://manifests.teklia.com/HIMANIS/FR14371/words_annotations/http_gallica.bnf.fr_iiif_ark:_12148_btv1b9007185x_f355_full_full_0_native.jpg.json/31/line", 
            "@type": "oa:Annotation", 
            "motivation": "oa:painting", 
            "on": "http://gallica.bnf.fr/iiif/ark:/12148/btv1b9007185x/canvas/f355#xywh=1658,1655,135,129", 
            "resource": {
                "@type": "cnt:ContentAsText", 
                "chars": "TE", 
                "format": "text/plain"
            }
        }, 
        {
            "@id": "https://manifests.teklia.com/HIMANIS/FR14371/words_annotations/http_gallica.bnf.fr_iiif_ark:_12148_btv1b9007185x_f355_full_full_0_native.jpg.json/32/line", 
            "@type": "oa:Annotation", 
            "motivation": "oa:painting", 
            "on": "http://gallica.bnf.fr/iiif/ark:/12148/btv1b9007185x/canvas/f355#xywh=1658,1655,128,129", 
            "resource": {
                "@type": "cnt:ContentAsText", 
                "chars": "CE", 
                "format": "text/plain"
            }
        }, 
        {
            "@id": "https://manifests.teklia.com/HIMANIS/FR14371/words_annotations/http_gallica.bnf.fr_iiif_ark:_12148_btv1b9007185x_f355_full_full_0_native.jpg.json/33/line", 
            "@type": "oa:Annotation", 
            "motivation": "oa:painting", 
            "on": "http://gallica.bnf.fr/iiif/ark:/12148/btv1b9007185x/canvas/f355#xywh=1661,1615,239,42", 
            "resource": {
                "@type": "cnt:ContentAsText", 
                "chars": "NULLON", 
                "format": "text/plain"
            }
        }, 
        {
            "@id": "https://manifests.teklia.com/HIMANIS/FR14371/words_annotations/http_gallica.bnf.fr_iiif_ark:_12148_btv1b9007185x_f355_full_full_0_native.jpg.json/34/line", 
            "@type": "oa:Annotation", 
            "motivation": "oa:painting", 
            "on": "http://gallica.bnf.fr/iiif/ark:/12148/btv1b9007185x/canvas/f355#xywh=1733,1328,0,43", 
            "resource": {
                "@type": "cnt:ContentAsText", 
                "chars": "J", 
                "format": "text/plain"
            }
        }, 
        {
            "@id": "https://manifests.teklia.com/HIMANIS/FR14371/words_annotations/http_gallica.bnf.fr_iiif_ark:_12148_btv1b9007185x_f355_full_full_0_native.jpg.json/35/line", 
            "@type": "oa:Annotation", 
            "motivation": "oa:painting", 
            "on": "http://gallica.bnf.fr/iiif/ark:/12148/btv1b9007185x/canvas/f355#xywh=1664,1415,250,40", 
            "resource": {
                "@type": "cnt:ContentAsText", 
                "chars": "LES", 
                "format": "text/plain"
            }
        }, 
        {
            "@id": "https://manifests.teklia.com/HIMANIS/FR14371/words_annotations/http_gallica.bnf.fr_iiif_ark:_12148_btv1b9007185x_f355_full_full_0_native.jpg.json/36/line", 
            "@type": "oa:Annotation", 
            "motivation": "oa:painting", 
            "on": "http://gallica.bnf.fr/iiif/ark:/12148/btv1b9007185x/canvas/f355#xywh=1833,1459,78,36", 
            "resource": {
                "@type": "cnt:ContentAsText", 
                "chars": "DE", 
                "format": "text/plain"
            }
        }, 
        {
            "@id": "https://manifests.teklia.com/HIMANIS/FR14371/words_annotations/http_gallica.bnf.fr_iiif_ark:_12148_btv1b9007185x_f355_full_full_0_native.jpg.json/37/line", 
            "@type": "oa:Annotation", 
            "motivation": "oa:painting", 
            "on": "http://gallica.bnf.fr/iiif/ark:/12148/btv1b9007185x/canvas/f355#xywh=72,2629,1613,161", 
            "resource": {
                "@type": "cnt:ContentAsText", 
                "chars": "TENEUR", 
                "format": "text/plain"
            }
        }, 
        {
            "@id": "https://manifests.teklia.com/HIMANIS/FR14371/words_annotations/http_gallica.bnf.fr_iiif_ark:_12148_btv1b9007185x_f355_full_full_0_native.jpg.json/38/line", 
            "@type": "oa:Annotation", 
            "motivation": "oa:painting", 
            "on": "http://gallica.bnf.fr/iiif/ark:/12148/btv1b9007185x/canvas/f355#xywh=1739,1459,46,36", 
            "resource": {
                "@type": "cnt:ContentAsText", 
                "chars": "PER", 
                "format": "text/plain"
            }
        }, 
        {
            "@id": "https://manifests.teklia.com/HIMANIS/FR14371/words_annotations/http_gallica.bnf.fr_iiif_ark:_12148_btv1b9007185x_f355_full_full_0_native.jpg.json/39/line", 
            "@type": "oa:Annotation", 
            "motivation": "oa:painting", 
            "on": "http://gallica.bnf.fr/iiif/ark:/12148/btv1b9007185x/canvas/f355#xywh=1764,1575,152,42", 
            "resource": {
                "@type": "cnt:ContentAsText", 
                "chars": "NO", 
                "format": "text/plain"
            }
        }, 
        {
            "@id": "https://manifests.teklia.com/HIMANIS/FR14371/words_annotations/http_gallica.bnf.fr_iiif_ark:_12148_btv1b9007185x_f355_full_full_0_native.jpg.json/40/line", 
            "@type": "oa:Annotation", 
            "motivation": "oa:painting", 
            "on": "http://gallica.bnf.fr/iiif/ark:/12148/btv1b9007185x/canvas/f355#xywh=1651,1503,224,71", 
            "resource": {
                "@type": "cnt:ContentAsText", 
                "chars": "DANT", 
                "format": "text/plain"
            }
        }, 
        {
            "@id": "https://manifests.teklia.com/HIMANIS/FR14371/words_annotations/http_gallica.bnf.fr_iiif_ark:_12148_btv1b9007185x_f355_full_full_0_native.jpg.json/41/line", 
            "@type": "oa:Annotation", 
            "motivation": "oa:painting", 
            "on": "http://gallica.bnf.fr/iiif/ark:/12148/btv1b9007185x/canvas/f355#xywh=1785,1386,0,30", 
            "resource": {
                "@type": "cnt:ContentAsText", 
                "chars": "C", 
                "format": "text/plain"
            }
        }
    ]
}