{
    "@context": "http://iiif.io/api/presentation/2/context.json", 
    "@id": "https://manifests.teklia.com/HIMANIS/FR14371/words_annotations/http_gallica.bnf.fr_iiif_ark:_12148_btv1b9007185x_f352_full_full_0_native.jpg.json", 
    "@type": "sc:AnnotationList", 
    "resources": [
        {
            "@id": "https://manifests.teklia.com/HIMANIS/FR14371/words_annotations/http_gallica.bnf.fr_iiif_ark:_12148_btv1b9007185x_f352_full_full_0_native.jpg.json/0/line", 
            "@type": "oa:Annotation", 
            "motivation": "oa:painting", 
            "on": "http://gallica.bnf.fr/iiif/ark:/12148/btv1b9007185x/canvas/f352#xywh=76,2634,0,85", 
            "resource": {
                "@type": "cnt:ContentAsText", 
                "chars": "C", 
                "format": "text/plain"
            }
        }, 
        {
            "@id": "https://manifests.teklia.com/HIMANIS/FR14371/words_annotations/http_gallica.bnf.fr_iiif_ark:_12148_btv1b9007185x_f352_full_full_0_native.jpg.json/1/line", 
            "@type": "oa:Annotation", 
            "motivation": "oa:painting", 
            "on": "http://gallica.bnf.fr/iiif/ark:/12148/btv1b9007185x/canvas/f352#xywh=90,365,103,69", 
            "resource": {
                "@type": "cnt:ContentAsText", 
                "chars": "SUPER", 
                "format": "text/plain"
            }
        }
    ]
}