{
    "@context": "http://iiif.io/api/presentation/2/context.json", 
    "@id": "https://manifests.teklia.com/HIMANIS/JJ085/words_annotations/FRCHANJJ_JJ085_0006R.json", 
    "@type": "sc:AnnotationList", 
    "resources": [
        {
            "@id": "https://manifests.teklia.com/HIMANIS/JJ085/words_annotations/FRCHANJJ_JJ085_0006R.json/0/line", 
            "@type": "oa:Annotation", 
            "motivation": "oa:painting", 
            "on": "http://bvmm.irht.cnrs.fr/iiif/23673/canvas/canvas-2296191#xywh=1193,235,117,80", 
            "resource": {
                "@type": "cnt:ContentAsText", 
                "chars": "BAR", 
                "format": "text/plain"
            }
        }, 
        {
            "@id": "https://manifests.teklia.com/HIMANIS/JJ085/words_annotations/FRCHANJJ_JJ085_0006R.json/1/line", 
            "@type": "oa:Annotation", 
            "motivation": "oa:painting", 
            "on": "http://bvmm.irht.cnrs.fr/iiif/23673/canvas/canvas-2296191#xywh=320,310,123,65", 
            "resource": {
                "@type": "cnt:ContentAsText", 
                "chars": "ALUSQUE", 
                "format": "text/plain"
            }
        }, 
        {
            "@id": "https://manifests.teklia.com/HIMANIS/JJ085/words_annotations/FRCHANJJ_JJ085_0006R.json/2/line", 
            "@type": "oa:Annotation", 
            "motivation": "oa:painting", 
            "on": "http://bvmm.irht.cnrs.fr/iiif/23673/canvas/canvas-2296191#xywh=1715,300,123,75", 
            "resource": {
                "@type": "cnt:ContentAsText", 
                "chars": "DICTUM", 
                "format": "text/plain"
            }
        }, 
        {
            "@id": "https://manifests.teklia.com/HIMANIS/JJ085/words_annotations/FRCHANJJ_JJ085_0006R.json/3/line", 
            "@type": "oa:Annotation", 
            "motivation": "oa:painting", 
            "on": "http://bvmm.irht.cnrs.fr/iiif/23673/canvas/canvas-2296191#xywh=438,380,127,85", 
            "resource": {
                "@type": "cnt:ContentAsText", 
                "chars": "SCOLARE", 
                "format": "text/plain"
            }
        }, 
        {
            "@id": "https://manifests.teklia.com/HIMANIS/JJ085/words_annotations/FRCHANJJ_JJ085_0006R.json/4/line", 
            "@type": "oa:Annotation", 
            "motivation": "oa:painting", 
            "on": "http://bvmm.irht.cnrs.fr/iiif/23673/canvas/canvas-2296191#xywh=1881,300,132,75", 
            "resource": {
                "@type": "cnt:ContentAsText", 
                "chars": "EXISTATE", 
                "format": "text/plain"
            }
        }, 
        {
            "@id": "https://manifests.teklia.com/HIMANIS/JJ085/words_annotations/FRCHANJJ_JJ085_0006R.json/5/line", 
            "@type": "oa:Annotation", 
            "motivation": "oa:painting", 
            "on": "http://bvmm.irht.cnrs.fr/iiif/23673/canvas/canvas-2296191#xywh=156,310,115,65", 
            "resource": {
                "@type": "cnt:ContentAsText", 
                "chars": "PARIS", 
                "format": "text/plain"
            }
        }, 
        {
            "@id": "https://manifests.teklia.com/HIMANIS/JJ085/words_annotations/FRCHANJJ_JJ085_0006R.json/6/line", 
            "@type": "oa:Annotation", 
            "motivation": "oa:painting", 
            "on": "http://bvmm.irht.cnrs.fr/iiif/23673/canvas/canvas-2296191#xywh=1087,3756,132,42", 
            "resource": {
                "@type": "cnt:ContentAsText", 
                "chars": "LES", 
                "format": "text/plain"
            }
        }, 
        {
            "@id": "https://manifests.teklia.com/HIMANIS/JJ085/words_annotations/FRCHANJJ_JJ085_0006R.json/7/line", 
            "@type": "oa:Annotation", 
            "motivation": "oa:painting", 
            "on": "http://bvmm.irht.cnrs.fr/iiif/23673/canvas/canvas-2296191#xywh=2355,300,166,75", 
            "resource": {
                "@type": "cnt:ContentAsText", 
                "chars": "GUERARUM", 
                "format": "text/plain"
            }
        }, 
        {
            "@id": "https://manifests.teklia.com/HIMANIS/JJ085/words_annotations/FRCHANJJ_JJ085_0006R.json/8/line", 
            "@type": "oa:Annotation", 
            "motivation": "oa:painting", 
            "on": "http://bvmm.irht.cnrs.fr/iiif/23673/canvas/canvas-2296191#xywh=1881,300,123,75", 
            "resource": {
                "@type": "cnt:ContentAsText", 
                "chars": "EXISTAT", 
                "format": "text/plain"
            }
        }, 
        {
            "@id": "https://manifests.teklia.com/HIMANIS/JJ085/words_annotations/FRCHANJJ_JJ085_0006R.json/9/line", 
            "@type": "oa:Annotation", 
            "motivation": "oa:painting", 
            "on": "http://bvmm.irht.cnrs.fr/iiif/23673/canvas/canvas-2296191#xywh=171,380,128,85", 
            "resource": {
                "@type": "cnt:ContentAsText", 
                "chars": "PUERI", 
                "format": "text/plain"
            }
        }, 
        {
            "@id": "https://manifests.teklia.com/HIMANIS/JJ085/words_annotations/FRCHANJJ_JJ085_0006R.json/10/line", 
            "@type": "oa:Annotation", 
            "motivation": "oa:painting", 
            "on": "http://bvmm.irht.cnrs.fr/iiif/23673/canvas/canvas-2296191#xywh=1087,3756,56,42", 
            "resource": {
                "@type": "cnt:ContentAsText", 
                "chars": "ET", 
                "format": "text/plain"
            }
        }, 
        {
            "@id": "https://manifests.teklia.com/HIMANIS/JJ085/words_annotations/FRCHANJJ_JJ085_0006R.json/11/line", 
            "@type": "oa:Annotation", 
            "motivation": "oa:painting", 
            "on": "http://bvmm.irht.cnrs.fr/iiif/23673/canvas/canvas-2296191#xywh=1008,385,177,80", 
            "resource": {
                "@type": "cnt:ContentAsText", 
                "chars": "ACCUS", 
                "format": "text/plain"
            }
        }, 
        {
            "@id": "https://manifests.teklia.com/HIMANIS/JJ085/words_annotations/FRCHANJJ_JJ085_0006R.json/12/line", 
            "@type": "oa:Annotation", 
            "motivation": "oa:painting", 
            "on": "http://bvmm.irht.cnrs.fr/iiif/23673/canvas/canvas-2296191#xywh=205,235,121,80", 
            "resource": {
                "@type": "cnt:ContentAsText", 
                "chars": "COMME", 
                "format": "text/plain"
            }
        }, 
        {
            "@id": "https://manifests.teklia.com/HIMANIS/JJ085/words_annotations/FRCHANJJ_JJ085_0006R.json/13/line", 
            "@type": "oa:Annotation", 
            "motivation": "oa:painting", 
            "on": "http://bvmm.irht.cnrs.fr/iiif/23673/canvas/canvas-2296191#xywh=2051,300,38,75", 
            "resource": {
                "@type": "cnt:ContentAsText", 
                "chars": "AC", 
                "format": "text/plain"
            }
        }, 
        {
            "@id": "https://manifests.teklia.com/HIMANIS/JJ085/words_annotations/FRCHANJJ_JJ085_0006R.json/14/line", 
            "@type": "oa:Annotation", 
            "motivation": "oa:painting", 
            "on": "http://bvmm.irht.cnrs.fr/iiif/23673/canvas/canvas-2296191#xywh=156,310,152,65", 
            "resource": {
                "@type": "cnt:ContentAsText", 
                "chars": "CARISIUS", 
                "format": "text/plain"
            }
        }, 
        {
            "@id": "https://manifests.teklia.com/HIMANIS/JJ085/words_annotations/FRCHANJJ_JJ085_0006R.json/15/line", 
            "@type": "oa:Annotation", 
            "motivation": "oa:painting", 
            "on": "http://bvmm.irht.cnrs.fr/iiif/23673/canvas/canvas-2296191#xywh=1477,300,76,75", 
            "resource": {
                "@type": "cnt:ContentAsText", 
                "chars": "DEVANT", 
                "format": "text/plain"
            }
        }, 
        {
            "@id": "https://manifests.teklia.com/HIMANIS/JJ085/words_annotations/FRCHANJJ_JJ085_0006R.json/16/line", 
            "@type": "oa:Annotation", 
            "motivation": "oa:painting", 
            "on": "http://bvmm.irht.cnrs.fr/iiif/23673/canvas/canvas-2296191#xywh=156,310,115,65", 
            "resource": {
                "@type": "cnt:ContentAsText", 
                "chars": "CARIS", 
                "format": "text/plain"
            }
        }, 
        {
            "@id": "https://manifests.teklia.com/HIMANIS/JJ085/words_annotations/FRCHANJJ_JJ085_0006R.json/17/line", 
            "@type": "oa:Annotation", 
            "motivation": "oa:painting", 
            "on": "http://bvmm.irht.cnrs.fr/iiif/23673/canvas/canvas-2296191#xywh=1715,300,123,75", 
            "resource": {
                "@type": "cnt:ContentAsText", 
                "chars": "DATUM", 
                "format": "text/plain"
            }
        }, 
        {
            "@id": "https://manifests.teklia.com/HIMANIS/JJ085/words_annotations/FRCHANJJ_JJ085_0006R.json/18/line", 
            "@type": "oa:Annotation", 
            "motivation": "oa:painting", 
            "on": "http://bvmm.irht.cnrs.fr/iiif/23673/canvas/canvas-2296191#xywh=156,310,152,65", 
            "resource": {
                "@type": "cnt:ContentAsText", 
                "chars": "PARISIUS", 
                "format": "text/plain"
            }
        }, 
        {
            "@id": "https://manifests.teklia.com/HIMANIS/JJ085/words_annotations/FRCHANJJ_JJ085_0006R.json/19/line", 
            "@type": "oa:Annotation", 
            "motivation": "oa:painting", 
            "on": "http://bvmm.irht.cnrs.fr/iiif/23673/canvas/canvas-2296191#xywh=438,380,122,85", 
            "resource": {
                "@type": "cnt:ContentAsText", 
                "chars": "SCOLARUM", 
                "format": "text/plain"
            }
        }, 
        {
            "@id": "https://manifests.teklia.com/HIMANIS/JJ085/words_annotations/FRCHANJJ_JJ085_0006R.json/20/line", 
            "@type": "oa:Annotation", 
            "motivation": "oa:painting", 
            "on": "http://bvmm.irht.cnrs.fr/iiif/23673/canvas/canvas-2296191#xywh=1087,3756,50,42", 
            "resource": {
                "@type": "cnt:ContentAsText", 
                "chars": "DE", 
                "format": "text/plain"
            }
        }, 
        {
            "@id": "https://manifests.teklia.com/HIMANIS/JJ085/words_annotations/FRCHANJJ_JJ085_0006R.json/21/line", 
            "@type": "oa:Annotation", 
            "motivation": "oa:painting", 
            "on": "http://bvmm.irht.cnrs.fr/iiif/23673/canvas/canvas-2296191#xywh=663,235,116,80", 
            "resource": {
                "@type": "cnt:ContentAsText", 
                "chars": "NOSTRORUM", 
                "format": "text/plain"
            }
        }, 
        {
            "@id": "https://manifests.teklia.com/HIMANIS/JJ085/words_annotations/FRCHANJJ_JJ085_0006R.json/22/line", 
            "@type": "oa:Annotation", 
            "motivation": "oa:painting", 
            "on": "http://bvmm.irht.cnrs.fr/iiif/23673/canvas/canvas-2296191#xywh=1193,235,107,80", 
            "resource": {
                "@type": "cnt:ContentAsText", 
                "chars": "PA", 
                "format": "text/plain"
            }
        }, 
        {
            "@id": "https://manifests.teklia.com/HIMANIS/JJ085/words_annotations/FRCHANJJ_JJ085_0006R.json/23/line", 
            "@type": "oa:Annotation", 
            "motivation": "oa:painting", 
            "on": "http://bvmm.irht.cnrs.fr/iiif/23673/canvas/canvas-2296191#xywh=2549,300,43,75", 
            "resource": {
                "@type": "cnt:ContentAsText", 
                "chars": "ET", 
                "format": "text/plain"
            }
        }, 
        {
            "@id": "https://manifests.teklia.com/HIMANIS/JJ085/words_annotations/FRCHANJJ_JJ085_0006R.json/24/line", 
            "@type": "oa:Annotation", 
            "motivation": "oa:painting", 
            "on": "http://bvmm.irht.cnrs.fr/iiif/23673/canvas/canvas-2296191#xywh=315,380,85,85", 
            "resource": {
                "@type": "cnt:ContentAsText", 
                "chars": "CLERICI", 
                "format": "text/plain"
            }
        }, 
        {
            "@id": "https://manifests.teklia.com/HIMANIS/JJ085/words_annotations/FRCHANJJ_JJ085_0006R.json/25/line", 
            "@type": "oa:Annotation", 
            "motivation": "oa:painting", 
            "on": "http://bvmm.irht.cnrs.fr/iiif/23673/canvas/canvas-2296191#xywh=315,380,101,85", 
            "resource": {
                "@type": "cnt:ContentAsText", 
                "chars": "CLERICII", 
                "format": "text/plain"
            }
        }, 
        {
            "@id": "https://manifests.teklia.com/HIMANIS/JJ085/words_annotations/FRCHANJJ_JJ085_0006R.json/26/line", 
            "@type": "oa:Annotation", 
            "motivation": "oa:painting", 
            "on": "http://bvmm.irht.cnrs.fr/iiif/23673/canvas/canvas-2296191#xywh=1193,235,78,80", 
            "resource": {
                "@type": "cnt:ContentAsText", 
                "chars": "RA", 
                "format": "text/plain"
            }
        }, 
        {
            "@id": "https://manifests.teklia.com/HIMANIS/JJ085/words_annotations/FRCHANJJ_JJ085_0006R.json/27/line", 
            "@type": "oa:Annotation", 
            "motivation": "oa:painting", 
            "on": "http://bvmm.irht.cnrs.fr/iiif/23673/canvas/canvas-2296191#xywh=468,310,168,65", 
            "resource": {
                "@type": "cnt:ContentAsText", 
                "chars": "PRELARIBUS", 
                "format": "text/plain"
            }
        }, 
        {
            "@id": "https://manifests.teklia.com/HIMANIS/JJ085/words_annotations/FRCHANJJ_JJ085_0006R.json/28/line", 
            "@type": "oa:Annotation", 
            "motivation": "oa:painting", 
            "on": "http://bvmm.irht.cnrs.fr/iiif/23673/canvas/canvas-2296191#xywh=468,310,168,65", 
            "resource": {
                "@type": "cnt:ContentAsText", 
                "chars": "PLURIBUS", 
                "format": "text/plain"
            }
        }, 
        {
            "@id": "https://manifests.teklia.com/HIMANIS/JJ085/words_annotations/FRCHANJJ_JJ085_0006R.json/29/line", 
            "@type": "oa:Annotation", 
            "motivation": "oa:painting", 
            "on": "http://bvmm.irht.cnrs.fr/iiif/23673/canvas/canvas-2296191#xywh=1302,300,147,75", 
            "resource": {
                "@type": "cnt:ContentAsText", 
                "chars": "DICTIS", 
                "format": "text/plain"
            }
        }, 
        {
            "@id": "https://manifests.teklia.com/HIMANIS/JJ085/words_annotations/FRCHANJJ_JJ085_0006R.json/30/line", 
            "@type": "oa:Annotation", 
            "motivation": "oa:painting", 
            "on": "http://bvmm.irht.cnrs.fr/iiif/23673/canvas/canvas-2296191#xywh=810,235,40,80", 
            "resource": {
                "@type": "cnt:ContentAsText", 
                "chars": "RE", 
                "format": "text/plain"
            }
        }, 
        {
            "@id": "https://manifests.teklia.com/HIMANIS/JJ085/words_annotations/FRCHANJJ_JJ085_0006R.json/31/line", 
            "@type": "oa:Annotation", 
            "motivation": "oa:painting", 
            "on": "http://bvmm.irht.cnrs.fr/iiif/23673/canvas/canvas-2296191#xywh=1715,300,123,75", 
            "resource": {
                "@type": "cnt:ContentAsText", 
                "chars": "NOTUM", 
                "format": "text/plain"
            }
        }, 
        {
            "@id": "https://manifests.teklia.com/HIMANIS/JJ085/words_annotations/FRCHANJJ_JJ085_0006R.json/32/line", 
            "@type": "oa:Annotation", 
            "motivation": "oa:painting", 
            "on": "http://bvmm.irht.cnrs.fr/iiif/23673/canvas/canvas-2296191#xywh=361,235,272,80", 
            "resource": {
                "@type": "cnt:ContentAsText", 
                "chars": "PREDECESSORUM", 
                "format": "text/plain"
            }
        }, 
        {
            "@id": "https://manifests.teklia.com/HIMANIS/JJ085/words_annotations/FRCHANJJ_JJ085_0006R.json/33/line", 
            "@type": "oa:Annotation", 
            "motivation": "oa:painting", 
            "on": "http://bvmm.irht.cnrs.fr/iiif/23673/canvas/canvas-2296191#xywh=2132,300,185,75", 
            "resource": {
                "@type": "cnt:ContentAsText", 
                "chars": "ECCASIONE", 
                "format": "text/plain"
            }
        }
    ]
}