{
    "@context": "http://iiif.io/api/presentation/2/context.json", 
    "@id": "https://manifests.teklia.com/HIMANIS/JJ066/words_annotations/FRCHANJJ_JJ066_0324R.json", 
    "@type": "sc:AnnotationList", 
    "resources": [
        {
            "@id": "https://manifests.teklia.com/HIMANIS/JJ066/words_annotations/FRCHANJJ_JJ066_0324R.json/0/line", 
            "@type": "oa:Annotation", 
            "motivation": "oa:painting", 
            "on": "http://bvmm.irht.cnrs.fr/iiif/23650/canvas/canvas-2284653#xywh=38,4494,303,25", 
            "resource": {
                "@type": "cnt:ContentAsText", 
                "chars": "CCC", 
                "format": "text/plain"
            }
        }, 
        {
            "@id": "https://manifests.teklia.com/HIMANIS/JJ066/words_annotations/FRCHANJJ_JJ066_0324R.json/1/line", 
            "@type": "oa:Annotation", 
            "motivation": "oa:painting", 
            "on": "http://bvmm.irht.cnrs.fr/iiif/23650/canvas/canvas-2284653#xywh=1241,120,372,144", 
            "resource": {
                "@type": "cnt:ContentAsText", 
                "chars": "CONFIRMACION", 
                "format": "text/plain"
            }
        }, 
        {
            "@id": "https://manifests.teklia.com/HIMANIS/JJ066/words_annotations/FRCHANJJ_JJ066_0324R.json/2/line", 
            "@type": "oa:Annotation", 
            "motivation": "oa:painting", 
            "on": "http://bvmm.irht.cnrs.fr/iiif/23650/canvas/canvas-2284653#xywh=2002,120,227,144", 
            "resource": {
                "@type": "cnt:ContentAsText", 
                "chars": "BALDUNI", 
                "format": "text/plain"
            }
        }, 
        {
            "@id": "https://manifests.teklia.com/HIMANIS/JJ066/words_annotations/FRCHANJJ_JJ066_0324R.json/3/line", 
            "@type": "oa:Annotation", 
            "motivation": "oa:painting", 
            "on": "http://bvmm.irht.cnrs.fr/iiif/23650/canvas/canvas-2284653#xywh=19,4644,3696,298", 
            "resource": {
                "@type": "cnt:ContentAsText", 
                "chars": "TOUTES", 
                "format": "text/plain"
            }
        }, 
        {
            "@id": "https://manifests.teklia.com/HIMANIS/JJ066/words_annotations/FRCHANJJ_JJ066_0324R.json/4/line", 
            "@type": "oa:Annotation", 
            "motivation": "oa:painting", 
            "on": "http://bvmm.irht.cnrs.fr/iiif/23650/canvas/canvas-2284653#xywh=3356,516,55,68", 
            "resource": {
                "@type": "cnt:ContentAsText", 
                "chars": "QUI", 
                "format": "text/plain"
            }
        }, 
        {
            "@id": "https://manifests.teklia.com/HIMANIS/JJ066/words_annotations/FRCHANJJ_JJ066_0324R.json/5/line", 
            "@type": "oa:Annotation", 
            "motivation": "oa:painting", 
            "on": "http://bvmm.irht.cnrs.fr/iiif/23650/canvas/canvas-2284653#xywh=2847,0,504,116", 
            "resource": {
                "@type": "cnt:ContentAsText", 
                "chars": "DES", 
                "format": "text/plain"
            }
        }, 
        {
            "@id": "https://manifests.teklia.com/HIMANIS/JJ066/words_annotations/FRCHANJJ_JJ066_0324R.json/6/line", 
            "@type": "oa:Annotation", 
            "motivation": "oa:painting", 
            "on": "http://bvmm.irht.cnrs.fr/iiif/23650/canvas/canvas-2284653#xywh=1510,4369,53,85", 
            "resource": {
                "@type": "cnt:ContentAsText", 
                "chars": "CE", 
                "format": "text/plain"
            }
        }, 
        {
            "@id": "https://manifests.teklia.com/HIMANIS/JJ066/words_annotations/FRCHANJJ_JJ066_0324R.json/7/line", 
            "@type": "oa:Annotation", 
            "motivation": "oa:painting", 
            "on": "http://bvmm.irht.cnrs.fr/iiif/23650/canvas/canvas-2284653#xywh=0,4189,249,85", 
            "resource": {
                "@type": "cnt:ContentAsText", 
                "chars": "PHILI", 
                "format": "text/plain"
            }
        }, 
        {
            "@id": "https://manifests.teklia.com/HIMANIS/JJ066/words_annotations/FRCHANJJ_JJ066_0324R.json/8/line", 
            "@type": "oa:Annotation", 
            "motivation": "oa:painting", 
            "on": "http://bvmm.irht.cnrs.fr/iiif/23650/canvas/canvas-2284653#xywh=3026,120,163,144", 
            "resource": {
                "@type": "cnt:ContentAsText", 
                "chars": "MARTE", 
                "format": "text/plain"
            }
        }, 
        {
            "@id": "https://manifests.teklia.com/HIMANIS/JJ066/words_annotations/FRCHANJJ_JJ066_0324R.json/9/line", 
            "@type": "oa:Annotation", 
            "motivation": "oa:painting", 
            "on": "http://bvmm.irht.cnrs.fr/iiif/23650/canvas/canvas-2284653#xywh=1640,120,326,144", 
            "resource": {
                "@type": "cnt:ContentAsText", 
                "chars": "ABSOLUCIONIS", 
                "format": "text/plain"
            }
        }, 
        {
            "@id": "https://manifests.teklia.com/HIMANIS/JJ066/words_annotations/FRCHANJJ_JJ066_0324R.json/10/line", 
            "@type": "oa:Annotation", 
            "motivation": "oa:painting", 
            "on": "http://bvmm.irht.cnrs.fr/iiif/23650/canvas/canvas-2284653#xywh=1085,4449,92,45", 
            "resource": {
                "@type": "cnt:ContentAsText", 
                "chars": "FEUST", 
                "format": "text/plain"
            }
        }, 
        {
            "@id": "https://manifests.teklia.com/HIMANIS/JJ066/words_annotations/FRCHANJJ_JJ066_0324R.json/11/line", 
            "@type": "oa:Annotation", 
            "motivation": "oa:painting", 
            "on": "http://bvmm.irht.cnrs.fr/iiif/23650/canvas/canvas-2284653#xywh=424,4044,0,95", 
            "resource": {
                "@type": "cnt:ContentAsText", 
                "chars": "J", 
                "format": "text/plain"
            }
        }, 
        {
            "@id": "https://manifests.teklia.com/HIMANIS/JJ066/words_annotations/FRCHANJJ_JJ066_0324R.json/12/line", 
            "@type": "oa:Annotation", 
            "motivation": "oa:painting", 
            "on": "http://bvmm.irht.cnrs.fr/iiif/23650/canvas/canvas-2284653#xywh=499,4449,26,45", 
            "resource": {
                "@type": "cnt:ContentAsText", 
                "chars": "CE", 
                "format": "text/plain"
            }
        }, 
        {
            "@id": "https://manifests.teklia.com/HIMANIS/JJ066/words_annotations/FRCHANJJ_JJ066_0324R.json/13/line", 
            "@type": "oa:Annotation", 
            "motivation": "oa:painting", 
            "on": "http://bvmm.irht.cnrs.fr/iiif/23650/canvas/canvas-2284653#xywh=3358,448,176,68", 
            "resource": {
                "@type": "cnt:ContentAsText", 
                "chars": "EXX", 
                "format": "text/plain"
            }
        }, 
        {
            "@id": "https://manifests.teklia.com/HIMANIS/JJ066/words_annotations/FRCHANJJ_JJ066_0324R.json/14/line", 
            "@type": "oa:Annotation", 
            "motivation": "oa:painting", 
            "on": "http://bvmm.irht.cnrs.fr/iiif/23650/canvas/canvas-2284653#xywh=864,4449,187,45", 
            "resource": {
                "@type": "cnt:ContentAsText", 
                "chars": "LIGENCION", 
                "format": "text/plain"
            }
        }, 
        {
            "@id": "https://manifests.teklia.com/HIMANIS/JJ066/words_annotations/FRCHANJJ_JJ066_0324R.json/15/line", 
            "@type": "oa:Annotation", 
            "motivation": "oa:painting", 
            "on": "http://bvmm.irht.cnrs.fr/iiif/23650/canvas/canvas-2284653#xywh=19,4644,3677,298", 
            "resource": {
                "@type": "cnt:ContentAsText", 
                "chars": "NOSTRE", 
                "format": "text/plain"
            }
        }, 
        {
            "@id": "https://manifests.teklia.com/HIMANIS/JJ066/words_annotations/FRCHANJJ_JJ066_0324R.json/16/line", 
            "@type": "oa:Annotation", 
            "motivation": "oa:painting", 
            "on": "http://bvmm.irht.cnrs.fr/iiif/23650/canvas/canvas-2284653#xywh=666,4449,123,45", 
            "resource": {
                "@type": "cnt:ContentAsText", 
                "chars": "CONSEL", 
                "format": "text/plain"
            }
        }, 
        {
            "@id": "https://manifests.teklia.com/HIMANIS/JJ066/words_annotations/FRCHANJJ_JJ066_0324R.json/17/line", 
            "@type": "oa:Annotation", 
            "motivation": "oa:painting", 
            "on": "http://bvmm.irht.cnrs.fr/iiif/23650/canvas/canvas-2284653#xywh=0,4189,366,85", 
            "resource": {
                "@type": "cnt:ContentAsText", 
                "chars": "PHEL", 
                "format": "text/plain"
            }
        }, 
        {
            "@id": "https://manifests.teklia.com/HIMANIS/JJ066/words_annotations/FRCHANJJ_JJ066_0324R.json/18/line", 
            "@type": "oa:Annotation", 
            "motivation": "oa:painting", 
            "on": "http://bvmm.irht.cnrs.fr/iiif/23650/canvas/canvas-2284653#xywh=31,4449,327,45", 
            "resource": {
                "@type": "cnt:ContentAsText", 
                "chars": "LEUR", 
                "format": "text/plain"
            }
        }, 
        {
            "@id": "https://manifests.teklia.com/HIMANIS/JJ066/words_annotations/FRCHANJJ_JJ066_0324R.json/19/line", 
            "@type": "oa:Annotation", 
            "motivation": "oa:painting", 
            "on": "http://bvmm.irht.cnrs.fr/iiif/23650/canvas/canvas-2284653#xywh=2790,120,118,144", 
            "resource": {
                "@type": "cnt:ContentAsText", 
                "chars": "REM", 
                "format": "text/plain"
            }
        }, 
        {
            "@id": "https://manifests.teklia.com/HIMANIS/JJ066/words_annotations/FRCHANJJ_JJ066_0324R.json/20/line", 
            "@type": "oa:Annotation", 
            "motivation": "oa:painting", 
            "on": "http://bvmm.irht.cnrs.fr/iiif/23650/canvas/canvas-2284653#xywh=1585,4369,37,85", 
            "resource": {
                "@type": "cnt:ContentAsText", 
                "chars": "QUI", 
                "format": "text/plain"
            }
        }, 
        {
            "@id": "https://manifests.teklia.com/HIMANIS/JJ066/words_annotations/FRCHANJJ_JJ066_0324R.json/21/line", 
            "@type": "oa:Annotation", 
            "motivation": "oa:painting", 
            "on": "http://bvmm.irht.cnrs.fr/iiif/23650/canvas/canvas-2284653#xywh=0,4369,386,80", 
            "resource": {
                "@type": "cnt:ContentAsText", 
                "chars": "EORUM", 
                "format": "text/plain"
            }
        }, 
        {
            "@id": "https://manifests.teklia.com/HIMANIS/JJ066/words_annotations/FRCHANJJ_JJ066_0324R.json/22/line", 
            "@type": "oa:Annotation", 
            "motivation": "oa:painting", 
            "on": "http://bvmm.irht.cnrs.fr/iiif/23650/canvas/canvas-2284653#xywh=3154,0,0,116", 
            "resource": {
                "@type": "cnt:ContentAsText", 
                "chars": "ET", 
                "format": "text/plain"
            }
        }, 
        {
            "@id": "https://manifests.teklia.com/HIMANIS/JJ066/words_annotations/FRCHANJJ_JJ066_0324R.json/23/line", 
            "@type": "oa:Annotation", 
            "motivation": "oa:painting", 
            "on": "http://bvmm.irht.cnrs.fr/iiif/23650/canvas/canvas-2284653#xywh=44,668,0,40", 
            "resource": {
                "@type": "cnt:ContentAsText", 
                "chars": "C", 
                "format": "text/plain"
            }
        }, 
        {
            "@id": "https://manifests.teklia.com/HIMANIS/JJ066/words_annotations/FRCHANJJ_JJ066_0324R.json/24/line", 
            "@type": "oa:Annotation", 
            "motivation": "oa:painting", 
            "on": "http://bvmm.irht.cnrs.fr/iiif/23650/canvas/canvas-2284653#xywh=818,4449,23,45", 
            "resource": {
                "@type": "cnt:ContentAsText", 
                "chars": "ET", 
                "format": "text/plain"
            }
        }, 
        {
            "@id": "https://manifests.teklia.com/HIMANIS/JJ066/words_annotations/FRCHANJJ_JJ066_0324R.json/25/line", 
            "@type": "oa:Annotation", 
            "motivation": "oa:painting", 
            "on": "http://bvmm.irht.cnrs.fr/iiif/23650/canvas/canvas-2284653#xywh=0,4369,251,80", 
            "resource": {
                "@type": "cnt:ContentAsText", 
                "chars": "ET", 
                "format": "text/plain"
            }
        }, 
        {
            "@id": "https://manifests.teklia.com/HIMANIS/JJ066/words_annotations/FRCHANJJ_JJ066_0324R.json/26/line", 
            "@type": "oa:Annotation", 
            "motivation": "oa:painting", 
            "on": "http://bvmm.irht.cnrs.fr/iiif/23650/canvas/canvas-2284653#xywh=3225,120,489,144", 
            "resource": {
                "@type": "cnt:ContentAsText", 
                "chars": "DOMINI", 
                "format": "text/plain"
            }
        }, 
        {
            "@id": "https://manifests.teklia.com/HIMANIS/JJ066/words_annotations/FRCHANJJ_JJ066_0324R.json/27/line", 
            "@type": "oa:Annotation", 
            "motivation": "oa:painting", 
            "on": "http://bvmm.irht.cnrs.fr/iiif/23650/canvas/canvas-2284653#xywh=44,668,0,40", 
            "resource": {
                "@type": "cnt:ContentAsText", 
                "chars": "G", 
                "format": "text/plain"
            }
        }, 
        {
            "@id": "https://manifests.teklia.com/HIMANIS/JJ066/words_annotations/FRCHANJJ_JJ066_0324R.json/28/line", 
            "@type": "oa:Annotation", 
            "motivation": "oa:painting", 
            "on": "http://bvmm.irht.cnrs.fr/iiif/23650/canvas/canvas-2284653#xywh=864,4449,187,45", 
            "resource": {
                "@type": "cnt:ContentAsText", 
                "chars": "ALIENCION", 
                "format": "text/plain"
            }
        }, 
        {
            "@id": "https://manifests.teklia.com/HIMANIS/JJ066/words_annotations/FRCHANJJ_JJ066_0324R.json/29/line", 
            "@type": "oa:Annotation", 
            "motivation": "oa:painting", 
            "on": "http://bvmm.irht.cnrs.fr/iiif/23650/canvas/canvas-2284653#xywh=2464,120,154,144", 
            "resource": {
                "@type": "cnt:ContentAsText", 
                "chars": "L'ARGE", 
                "format": "text/plain"
            }
        }, 
        {
            "@id": "https://manifests.teklia.com/HIMANIS/JJ066/words_annotations/FRCHANJJ_JJ066_0324R.json/30/line", 
            "@type": "oa:Annotation", 
            "motivation": "oa:painting", 
            "on": "http://bvmm.irht.cnrs.fr/iiif/23650/canvas/canvas-2284653#xywh=2177,1548,119,28", 
            "resource": {
                "@type": "cnt:ContentAsText", 
                "chars": "CCC", 
                "format": "text/plain"
            }
        }, 
        {
            "@id": "https://manifests.teklia.com/HIMANIS/JJ066/words_annotations/FRCHANJJ_JJ066_0324R.json/31/line", 
            "@type": "oa:Annotation", 
            "motivation": "oa:painting", 
            "on": "http://bvmm.irht.cnrs.fr/iiif/23650/canvas/canvas-2284653#xywh=2343,0,563,116", 
            "resource": {
                "@type": "cnt:ContentAsText", 
                "chars": "LETTRES", 
                "format": "text/plain"
            }
        }, 
        {
            "@id": "https://manifests.teklia.com/HIMANIS/JJ066/words_annotations/FRCHANJJ_JJ066_0324R.json/32/line", 
            "@type": "oa:Annotation", 
            "motivation": "oa:painting", 
            "on": "http://bvmm.irht.cnrs.fr/iiif/23650/canvas/canvas-2284653#xywh=559,4449,75,45", 
            "resource": {
                "@type": "cnt:ContentAsText", 
                "chars": "EST", 
                "format": "text/plain"
            }
        }, 
        {
            "@id": "https://manifests.teklia.com/HIMANIS/JJ066/words_annotations/FRCHANJJ_JJ066_0324R.json/33/line", 
            "@type": "oa:Annotation", 
            "motivation": "oa:painting", 
            "on": "http://bvmm.irht.cnrs.fr/iiif/23650/canvas/canvas-2284653#xywh=2654,120,73,144", 
            "resource": {
                "@type": "cnt:ContentAsText", 
                "chars": "QUI", 
                "format": "text/plain"
            }
        }, 
        {
            "@id": "https://manifests.teklia.com/HIMANIS/JJ066/words_annotations/FRCHANJJ_JJ066_0324R.json/34/line", 
            "@type": "oa:Annotation", 
            "motivation": "oa:painting", 
            "on": "http://bvmm.irht.cnrs.fr/iiif/23650/canvas/canvas-2284653#xywh=3458,516,251,68", 
            "resource": {
                "@type": "cnt:ContentAsText", 
                "chars": "AUG", 
                "format": "text/plain"
            }
        }, 
        {
            "@id": "https://manifests.teklia.com/HIMANIS/JJ066/words_annotations/FRCHANJJ_JJ066_0324R.json/35/line", 
            "@type": "oa:Annotation", 
            "motivation": "oa:painting", 
            "on": "http://bvmm.irht.cnrs.fr/iiif/23650/canvas/canvas-2284653#xywh=390,4449,69,45", 
            "resource": {
                "@type": "cnt:ContentAsText", 
                "chars": "TOUT", 
                "format": "text/plain"
            }
        }, 
        {
            "@id": "https://manifests.teklia.com/HIMANIS/JJ066/words_annotations/FRCHANJJ_JJ066_0324R.json/36/line", 
            "@type": "oa:Annotation", 
            "motivation": "oa:painting", 
            "on": "http://bvmm.irht.cnrs.fr/iiif/23650/canvas/canvas-2284653#xywh=0,4369,356,80", 
            "resource": {
                "@type": "cnt:ContentAsText", 
                "chars": "PER", 
                "format": "text/plain"
            }
        }, 
        {
            "@id": "https://manifests.teklia.com/HIMANIS/JJ066/words_annotations/FRCHANJJ_JJ066_0324R.json/37/line", 
            "@type": "oa:Annotation", 
            "motivation": "oa:painting", 
            "on": "http://bvmm.irht.cnrs.fr/iiif/23650/canvas/canvas-2284653#xywh=3458,516,251,68", 
            "resource": {
                "@type": "cnt:ContentAsText", 
                "chars": "AUN", 
                "format": "text/plain"
            }
        }, 
        {
            "@id": "https://manifests.teklia.com/HIMANIS/JJ066/words_annotations/FRCHANJJ_JJ066_0324R.json/38/line", 
            "@type": "oa:Annotation", 
            "motivation": "oa:painting", 
            "on": "http://bvmm.irht.cnrs.fr/iiif/23650/canvas/canvas-2284653#xywh=2953,120,46,144", 
            "resource": {
                "@type": "cnt:ContentAsText", 
                "chars": "DE", 
                "format": "text/plain"
            }
        }, 
        {
            "@id": "https://manifests.teklia.com/HIMANIS/JJ066/words_annotations/FRCHANJJ_JJ066_0324R.json/39/line", 
            "@type": "oa:Annotation", 
            "motivation": "oa:painting", 
            "on": "http://bvmm.irht.cnrs.fr/iiif/23650/canvas/canvas-2284653#xywh=3458,516,43,68", 
            "resource": {
                "@type": "cnt:ContentAsText", 
                "chars": "AN", 
                "format": "text/plain"
            }
        }, 
        {
            "@id": "https://manifests.teklia.com/HIMANIS/JJ066/words_annotations/FRCHANJJ_JJ066_0324R.json/40/line", 
            "@type": "oa:Annotation", 
            "motivation": "oa:painting", 
            "on": "http://bvmm.irht.cnrs.fr/iiif/23650/canvas/canvas-2284653#xywh=2111,1548,70,28", 
            "resource": {
                "@type": "cnt:ContentAsText", 
                "chars": "CA", 
                "format": "text/plain"
            }
        }, 
        {
            "@id": "https://manifests.teklia.com/HIMANIS/JJ066/words_annotations/FRCHANJJ_JJ066_0324R.json/41/line", 
            "@type": "oa:Annotation", 
            "motivation": "oa:painting", 
            "on": "http://bvmm.irht.cnrs.fr/iiif/23650/canvas/canvas-2284653#xywh=3458,516,251,68", 
            "resource": {
                "@type": "cnt:ContentAsText", 
                "chars": "AUT", 
                "format": "text/plain"
            }
        }, 
        {
            "@id": "https://manifests.teklia.com/HIMANIS/JJ066/words_annotations/FRCHANJJ_JJ066_0324R.json/42/line", 
            "@type": "oa:Annotation", 
            "motivation": "oa:painting", 
            "on": "http://bvmm.irht.cnrs.fr/iiif/23650/canvas/canvas-2284653#xywh=1200,4449,204,45", 
            "resource": {
                "@type": "cnt:ContentAsText", 
                "chars": "SINT", 
                "format": "text/plain"
            }
        }, 
        {
            "@id": "https://manifests.teklia.com/HIMANIS/JJ066/words_annotations/FRCHANJJ_JJ066_0324R.json/43/line", 
            "@type": "oa:Annotation", 
            "motivation": "oa:painting", 
            "on": "http://bvmm.irht.cnrs.fr/iiif/23650/canvas/canvas-2284653#xywh=2111,1548,56,28", 
            "resource": {
                "@type": "cnt:ContentAsText", 
                "chars": "CE", 
                "format": "text/plain"
            }
        }, 
        {
            "@id": "https://manifests.teklia.com/HIMANIS/JJ066/words_annotations/FRCHANJJ_JJ066_0324R.json/44/line", 
            "@type": "oa:Annotation", 
            "motivation": "oa:painting", 
            "on": "http://bvmm.irht.cnrs.fr/iiif/23650/canvas/canvas-2284653#xywh=3356,516,13,68", 
            "resource": {
                "@type": "cnt:ContentAsText", 
                "chars": "AU", 
                "format": "text/plain"
            }
        }, 
        {
            "@id": "https://manifests.teklia.com/HIMANIS/JJ066/words_annotations/FRCHANJJ_JJ066_0324R.json/45/line", 
            "@type": "oa:Annotation", 
            "motivation": "oa:painting", 
            "on": "http://bvmm.irht.cnrs.fr/iiif/23650/canvas/canvas-2284653#xywh=0,4369,386,80", 
            "resource": {
                "@type": "cnt:ContentAsText", 
                "chars": "ESTRE", 
                "format": "text/plain"
            }
        }, 
        {
            "@id": "https://manifests.teklia.com/HIMANIS/JJ066/words_annotations/FRCHANJJ_JJ066_0324R.json/46/line", 
            "@type": "oa:Annotation", 
            "motivation": "oa:painting", 
            "on": "http://bvmm.irht.cnrs.fr/iiif/23650/canvas/canvas-2284653#xywh=3198,0,511,116", 
            "resource": {
                "@type": "cnt:ContentAsText", 
                "chars": "DE", 
                "format": "text/plain"
            }
        }, 
        {
            "@id": "https://manifests.teklia.com/HIMANIS/JJ066/words_annotations/FRCHANJJ_JJ066_0324R.json/47/line", 
            "@type": "oa:Annotation", 
            "motivation": "oa:painting", 
            "on": "http://bvmm.irht.cnrs.fr/iiif/23650/canvas/canvas-2284653#xywh=2283,120,91,144", 
            "resource": {
                "@type": "cnt:ContentAsText", 
                "chars": "DICTI", 
                "format": "text/plain"
            }
        }, 
        {
            "@id": "https://manifests.teklia.com/HIMANIS/JJ066/words_annotations/FRCHANJJ_JJ066_0324R.json/48/line", 
            "@type": "oa:Annotation", 
            "motivation": "oa:painting", 
            "on": "http://bvmm.irht.cnrs.fr/iiif/23650/canvas/canvas-2284653#xywh=2111,1548,70,28", 
            "resource": {
                "@type": "cnt:ContentAsText", 
                "chars": "CO", 
                "format": "text/plain"
            }
        }, 
        {
            "@id": "https://manifests.teklia.com/HIMANIS/JJ066/words_annotations/FRCHANJJ_JJ066_0324R.json/49/line", 
            "@type": "oa:Annotation", 
            "motivation": "oa:painting", 
            "on": "http://bvmm.irht.cnrs.fr/iiif/23650/canvas/canvas-2284653#xywh=19,4644,2912,298", 
            "resource": {
                "@type": "cnt:ContentAsText", 
                "chars": "ET", 
                "format": "text/plain"
            }
        }, 
        {
            "@id": "https://manifests.teklia.com/HIMANIS/JJ066/words_annotations/FRCHANJJ_JJ066_0324R.json/50/line", 
            "@type": "oa:Annotation", 
            "motivation": "oa:painting", 
            "on": "http://bvmm.irht.cnrs.fr/iiif/23650/canvas/canvas-2284653#xywh=3358,448,184,68", 
            "resource": {
                "@type": "cnt:ContentAsText", 
                "chars": "EXXX", 
                "format": "text/plain"
            }
        }, 
        {
            "@id": "https://manifests.teklia.com/HIMANIS/JJ066/words_annotations/FRCHANJJ_JJ066_0324R.json/51/line", 
            "@type": "oa:Annotation", 
            "motivation": "oa:painting", 
            "on": "http://bvmm.irht.cnrs.fr/iiif/23650/canvas/canvas-2284653#xywh=2401,120,217,144", 
            "resource": {
                "@type": "cnt:ContentAsText", 
                "chars": "LELARGE", 
                "format": "text/plain"
            }
        }, 
        {
            "@id": "https://manifests.teklia.com/HIMANIS/JJ066/words_annotations/FRCHANJJ_JJ066_0324R.json/52/line", 
            "@type": "oa:Annotation", 
            "motivation": "oa:painting", 
            "on": "http://bvmm.irht.cnrs.fr/iiif/23650/canvas/canvas-2284653#xywh=2240,1548,6,28", 
            "resource": {
                "@type": "cnt:ContentAsText", 
                "chars": "ET", 
                "format": "text/plain"
            }
        }, 
        {
            "@id": "https://manifests.teklia.com/HIMANIS/JJ066/words_annotations/FRCHANJJ_JJ066_0324R.json/53/line", 
            "@type": "oa:Annotation", 
            "motivation": "oa:painting", 
            "on": "http://bvmm.irht.cnrs.fr/iiif/23650/canvas/canvas-2284653#xywh=261,4369,0,80", 
            "resource": {
                "@type": "cnt:ContentAsText", 
                "chars": "E", 
                "format": "text/plain"
            }
        }, 
        {
            "@id": "https://manifests.teklia.com/HIMANIS/JJ066/words_annotations/FRCHANJJ_JJ066_0324R.json/54/line", 
            "@type": "oa:Annotation", 
            "motivation": "oa:painting", 
            "on": "http://bvmm.irht.cnrs.fr/iiif/23650/canvas/canvas-2284653#xywh=2401,120,45,144", 
            "resource": {
                "@type": "cnt:ContentAsText", 
                "chars": "LE", 
                "format": "text/plain"
            }
        }, 
        {
            "@id": "https://manifests.teklia.com/HIMANIS/JJ066/words_annotations/FRCHANJJ_JJ066_0324R.json/55/line", 
            "@type": "oa:Annotation", 
            "motivation": "oa:painting", 
            "on": "http://bvmm.irht.cnrs.fr/iiif/23650/canvas/canvas-2284653#xywh=3356,516,55,68", 
            "resource": {
                "@type": "cnt:ContentAsText", 
                "chars": "IN", 
                "format": "text/plain"
            }
        }, 
        {
            "@id": "https://manifests.teklia.com/HIMANIS/JJ066/words_annotations/FRCHANJJ_JJ066_0324R.json/56/line", 
            "@type": "oa:Annotation", 
            "motivation": "oa:painting", 
            "on": "http://bvmm.irht.cnrs.fr/iiif/23650/canvas/canvas-2284653#xywh=1675,4369,85,85", 
            "resource": {
                "@type": "cnt:ContentAsText", 
                "chars": "LE", 
                "format": "text/plain"
            }
        }, 
        {
            "@id": "https://manifests.teklia.com/HIMANIS/JJ066/words_annotations/FRCHANJJ_JJ066_0324R.json/57/line", 
            "@type": "oa:Annotation", 
            "motivation": "oa:painting", 
            "on": "http://bvmm.irht.cnrs.fr/iiif/23650/canvas/canvas-2284653#xywh=2111,1548,171,28", 
            "resource": {
                "@type": "cnt:ContentAsText", 
                "chars": "ETC", 
                "format": "text/plain"
            }
        }, 
        {
            "@id": "https://manifests.teklia.com/HIMANIS/JJ066/words_annotations/FRCHANJJ_JJ066_0324R.json/58/line", 
            "@type": "oa:Annotation", 
            "motivation": "oa:painting", 
            "on": "http://bvmm.irht.cnrs.fr/iiif/23650/canvas/canvas-2284653#xywh=2847,0,497,116", 
            "resource": {
                "@type": "cnt:ContentAsText", 
                "chars": "LES", 
                "format": "text/plain"
            }
        }, 
        {
            "@id": "https://manifests.teklia.com/HIMANIS/JJ066/words_annotations/FRCHANJJ_JJ066_0324R.json/59/line", 
            "@type": "oa:Annotation", 
            "motivation": "oa:painting", 
            "on": "http://bvmm.irht.cnrs.fr/iiif/23650/canvas/canvas-2284653#xywh=2343,0,402,116", 
            "resource": {
                "@type": "cnt:ContentAsText", 
                "chars": "LE", 
                "format": "text/plain"
            }
        }, 
        {
            "@id": "https://manifests.teklia.com/HIMANIS/JJ066/words_annotations/FRCHANJJ_JJ066_0324R.json/60/line", 
            "@type": "oa:Annotation", 
            "motivation": "oa:painting", 
            "on": "http://bvmm.irht.cnrs.fr/iiif/23650/canvas/canvas-2284653#xywh=12,0,1718,116", 
            "resource": {
                "@type": "cnt:ContentAsText", 
                "chars": "DE", 
                "format": "text/plain"
            }
        }, 
        {
            "@id": "https://manifests.teklia.com/HIMANIS/JJ066/words_annotations/FRCHANJJ_JJ066_0324R.json/61/line", 
            "@type": "oa:Annotation", 
            "motivation": "oa:painting", 
            "on": "http://bvmm.irht.cnrs.fr/iiif/23650/canvas/canvas-2284653#xywh=31,4449,327,45", 
            "resource": {
                "@type": "cnt:ContentAsText", 
                "chars": "POUR", 
                "format": "text/plain"
            }
        }
    ]
}