{
    "@context": "http://iiif.io/api/presentation/2/context.json", 
    "@id": "https://manifests.teklia.com/HIMANIS/JJ044/words_annotations/FRCHANJJ_JJ044_0004R.json", 
    "@type": "sc:AnnotationList", 
    "resources": [
        {
            "@id": "https://manifests.teklia.com/HIMANIS/JJ044/words_annotations/FRCHANJJ_JJ044_0004R.json/0/line", 
            "@type": "oa:Annotation", 
            "motivation": "oa:painting", 
            "on": "http://bvmm.irht.cnrs.fr/iiif/23632/canvas/canvas-2278345#xywh=1380,475,39,153", 
            "resource": {
                "@type": "cnt:ContentAsText", 
                "chars": "DE", 
                "format": "text/plain"
            }
        }, 
        {
            "@id": "https://manifests.teklia.com/HIMANIS/JJ044/words_annotations/FRCHANJJ_JJ044_0004R.json/1/line", 
            "@type": "oa:Annotation", 
            "motivation": "oa:painting", 
            "on": "http://bvmm.irht.cnrs.fr/iiif/23632/canvas/canvas-2278345#xywh=2506,380,450,110", 
            "resource": {
                "@type": "cnt:ContentAsText", 
                "chars": "MON", 
                "format": "text/plain"
            }
        }, 
        {
            "@id": "https://manifests.teklia.com/HIMANIS/JJ044/words_annotations/FRCHANJJ_JJ044_0004R.json/2/line", 
            "@type": "oa:Annotation", 
            "motivation": "oa:painting", 
            "on": "http://bvmm.irht.cnrs.fr/iiif/23632/canvas/canvas-2278345#xywh=1122,660,113,120", 
            "resource": {
                "@type": "cnt:ContentAsText", 
                "chars": "DEDIT", 
                "format": "text/plain"
            }
        }, 
        {
            "@id": "https://manifests.teklia.com/HIMANIS/JJ044/words_annotations/FRCHANJJ_JJ044_0004R.json/3/line", 
            "@type": "oa:Annotation", 
            "motivation": "oa:painting", 
            "on": "http://bvmm.irht.cnrs.fr/iiif/23632/canvas/canvas-2278345#xywh=468,475,125,153", 
            "resource": {
                "@type": "cnt:ContentAsText", 
                "chars": "ARETO", 
                "format": "text/plain"
            }
        }, 
        {
            "@id": "https://manifests.teklia.com/HIMANIS/JJ044/words_annotations/FRCHANJJ_JJ044_0004R.json/4/line", 
            "@type": "oa:Annotation", 
            "motivation": "oa:painting", 
            "on": "http://bvmm.irht.cnrs.fr/iiif/23632/canvas/canvas-2278345#xywh=631,475,115,153", 
            "resource": {
                "@type": "cnt:ContentAsText", 
                "chars": "MILITI", 
                "format": "text/plain"
            }
        }, 
        {
            "@id": "https://manifests.teklia.com/HIMANIS/JJ044/words_annotations/FRCHANJJ_JJ044_0004R.json/5/line", 
            "@type": "oa:Annotation", 
            "motivation": "oa:painting", 
            "on": "http://bvmm.irht.cnrs.fr/iiif/23632/canvas/canvas-2278345#xywh=2506,380,464,110", 
            "resource": {
                "@type": "cnt:ContentAsText", 
                "chars": "RON", 
                "format": "text/plain"
            }
        }, 
        {
            "@id": "https://manifests.teklia.com/HIMANIS/JJ044/words_annotations/FRCHANJJ_JJ044_0004R.json/6/line", 
            "@type": "oa:Annotation", 
            "motivation": "oa:painting", 
            "on": "http://bvmm.irht.cnrs.fr/iiif/23632/canvas/canvas-2278345#xywh=2126,660,0,120", 
            "resource": {
                "@type": "cnt:ContentAsText", 
                "chars": "A", 
                "format": "text/plain"
            }
        }, 
        {
            "@id": "https://manifests.teklia.com/HIMANIS/JJ044/words_annotations/FRCHANJJ_JJ044_0004R.json/7/line", 
            "@type": "oa:Annotation", 
            "motivation": "oa:painting", 
            "on": "http://bvmm.irht.cnrs.fr/iiif/23632/canvas/canvas-2278345#xywh=1181,380,69,110", 
            "resource": {
                "@type": "cnt:ContentAsText", 
                "chars": "NOSTRE", 
                "format": "text/plain"
            }
        }, 
        {
            "@id": "https://manifests.teklia.com/HIMANIS/JJ044/words_annotations/FRCHANJJ_JJ044_0004R.json/8/line", 
            "@type": "oa:Annotation", 
            "motivation": "oa:painting", 
            "on": "http://bvmm.irht.cnrs.fr/iiif/23632/canvas/canvas-2278345#xywh=2322,660,75,120", 
            "resource": {
                "@type": "cnt:ContentAsText", 
                "chars": "DIE", 
                "format": "text/plain"
            }
        }, 
        {
            "@id": "https://manifests.teklia.com/HIMANIS/JJ044/words_annotations/FRCHANJJ_JJ044_0004R.json/9/line", 
            "@type": "oa:Annotation", 
            "motivation": "oa:painting", 
            "on": "http://bvmm.irht.cnrs.fr/iiif/23632/canvas/canvas-2278345#xywh=1514,660,151,120", 
            "resource": {
                "@type": "cnt:ContentAsText", 
                "chars": "AIDENDUM", 
                "format": "text/plain"
            }
        }, 
        {
            "@id": "https://manifests.teklia.com/HIMANIS/JJ044/words_annotations/FRCHANJJ_JJ044_0004R.json/10/line", 
            "@type": "oa:Annotation", 
            "motivation": "oa:painting", 
            "on": "http://bvmm.irht.cnrs.fr/iiif/23632/canvas/canvas-2278345#xywh=737,380,139,110", 
            "resource": {
                "@type": "cnt:ContentAsText", 
                "chars": "REGALI", 
                "format": "text/plain"
            }
        }, 
        {
            "@id": "https://manifests.teklia.com/HIMANIS/JJ044/words_annotations/FRCHANJJ_JJ044_0004R.json/11/line", 
            "@type": "oa:Annotation", 
            "motivation": "oa:painting", 
            "on": "http://bvmm.irht.cnrs.fr/iiif/23632/canvas/canvas-2278345#xywh=2506,380,41,110", 
            "resource": {
                "@type": "cnt:ContentAsText", 
                "chars": "ROU", 
                "format": "text/plain"
            }
        }, 
        {
            "@id": "https://manifests.teklia.com/HIMANIS/JJ044/words_annotations/FRCHANJJ_JJ044_0004R.json/12/line", 
            "@type": "oa:Annotation", 
            "motivation": "oa:painting", 
            "on": "http://bvmm.irht.cnrs.fr/iiif/23632/canvas/canvas-2278345#xywh=431,220,232,195", 
            "resource": {
                "@type": "cnt:ContentAsText", 
                "chars": "MO", 
                "format": "text/plain"
            }
        }, 
        {
            "@id": "https://manifests.teklia.com/HIMANIS/JJ044/words_annotations/FRCHANJJ_JJ044_0004R.json/13/line", 
            "@type": "oa:Annotation", 
            "motivation": "oa:painting", 
            "on": "http://bvmm.irht.cnrs.fr/iiif/23632/canvas/canvas-2278345#xywh=1945,220,232,195", 
            "resource": {
                "@type": "cnt:ContentAsText", 
                "chars": "BACIANTIBUS", 
                "format": "text/plain"
            }
        }, 
        {
            "@id": "https://manifests.teklia.com/HIMANIS/JJ044/words_annotations/FRCHANJJ_JJ044_0004R.json/14/line", 
            "@type": "oa:Annotation", 
            "motivation": "oa:painting", 
            "on": "http://bvmm.irht.cnrs.fr/iiif/23632/canvas/canvas-2278345#xywh=1181,380,69,110", 
            "resource": {
                "@type": "cnt:ContentAsText", 
                "chars": "NOSTRO", 
                "format": "text/plain"
            }
        }, 
        {
            "@id": "https://manifests.teklia.com/HIMANIS/JJ044/words_annotations/FRCHANJJ_JJ044_0004R.json/15/line", 
            "@type": "oa:Annotation", 
            "motivation": "oa:painting", 
            "on": "http://bvmm.irht.cnrs.fr/iiif/23632/canvas/canvas-2278345#xywh=1446,660,46,120", 
            "resource": {
                "@type": "cnt:ContentAsText", 
                "chars": "AD", 
                "format": "text/plain"
            }
        }, 
        {
            "@id": "https://manifests.teklia.com/HIMANIS/JJ044/words_annotations/FRCHANJJ_JJ044_0004R.json/16/line", 
            "@type": "oa:Annotation", 
            "motivation": "oa:painting", 
            "on": "http://bvmm.irht.cnrs.fr/iiif/23632/canvas/canvas-2278345#xywh=1916,380,180,110", 
            "resource": {
                "@type": "cnt:ContentAsText", 
                "chars": "SIGILLUM", 
                "format": "text/plain"
            }
        }, 
        {
            "@id": "https://manifests.teklia.com/HIMANIS/JJ044/words_annotations/FRCHANJJ_JJ044_0004R.json/17/line", 
            "@type": "oa:Annotation", 
            "motivation": "oa:painting", 
            "on": "http://bvmm.irht.cnrs.fr/iiif/23632/canvas/canvas-2278345#xywh=2506,380,464,110", 
            "resource": {
                "@type": "cnt:ContentAsText", 
                "chars": "NON", 
                "format": "text/plain"
            }
        }, 
        {
            "@id": "https://manifests.teklia.com/HIMANIS/JJ044/words_annotations/FRCHANJJ_JJ044_0004R.json/18/line", 
            "@type": "oa:Annotation", 
            "motivation": "oa:painting", 
            "on": "http://bvmm.irht.cnrs.fr/iiif/23632/canvas/canvas-2278345#xywh=1054,220,98,195", 
            "resource": {
                "@type": "cnt:ContentAsText", 
                "chars": "CCC", 
                "format": "text/plain"
            }
        }, 
        {
            "@id": "https://manifests.teklia.com/HIMANIS/JJ044/words_annotations/FRCHANJJ_JJ044_0004R.json/19/line", 
            "@type": "oa:Annotation", 
            "motivation": "oa:painting", 
            "on": "http://bvmm.irht.cnrs.fr/iiif/23632/canvas/canvas-2278345#xywh=858,660,136,120", 
            "resource": {
                "@type": "cnt:ContentAsText", 
                "chars": "QUIBUS", 
                "format": "text/plain"
            }
        }, 
        {
            "@id": "https://manifests.teklia.com/HIMANIS/JJ044/words_annotations/FRCHANJJ_JJ044_0004R.json/20/line", 
            "@type": "oa:Annotation", 
            "motivation": "oa:painting", 
            "on": "http://bvmm.irht.cnrs.fr/iiif/23632/canvas/canvas-2278345#xywh=1514,660,151,120", 
            "resource": {
                "@type": "cnt:ContentAsText", 
                "chars": "ARDENDUM", 
                "format": "text/plain"
            }
        }, 
        {
            "@id": "https://manifests.teklia.com/HIMANIS/JJ044/words_annotations/FRCHANJJ_JJ044_0004R.json/21/line", 
            "@type": "oa:Annotation", 
            "motivation": "oa:painting", 
            "on": "http://bvmm.irht.cnrs.fr/iiif/23632/canvas/canvas-2278345#xywh=775,475,192,153", 
            "resource": {
                "@type": "cnt:ContentAsText", 
                "chars": "UBITUNT", 
                "format": "text/plain"
            }
        }, 
        {
            "@id": "https://manifests.teklia.com/HIMANIS/JJ044/words_annotations/FRCHANJJ_JJ044_0004R.json/22/line", 
            "@type": "oa:Annotation", 
            "motivation": "oa:painting", 
            "on": "http://bvmm.irht.cnrs.fr/iiif/23632/canvas/canvas-2278345#xywh=1028,380,132,110", 
            "resource": {
                "@type": "cnt:ContentAsText", 
                "chars": "MARIE", 
                "format": "text/plain"
            }
        }, 
        {
            "@id": "https://manifests.teklia.com/HIMANIS/JJ044/words_annotations/FRCHANJJ_JJ044_0004R.json/23/line", 
            "@type": "oa:Annotation", 
            "motivation": "oa:painting", 
            "on": "http://bvmm.irht.cnrs.fr/iiif/23632/canvas/canvas-2278345#xywh=2443,380,42,110", 
            "resource": {
                "@type": "cnt:ContentAsText", 
                "chars": "DE", 
                "format": "text/plain"
            }
        }, 
        {
            "@id": "https://manifests.teklia.com/HIMANIS/JJ044/words_annotations/FRCHANJJ_JJ044_0004R.json/24/line", 
            "@type": "oa:Annotation", 
            "motivation": "oa:painting", 
            "on": "http://bvmm.irht.cnrs.fr/iiif/23632/canvas/canvas-2278345#xywh=1774,220,147,195", 
            "resource": {
                "@type": "cnt:ContentAsText", 
                "chars": "FESTUM", 
                "format": "text/plain"
            }
        }, 
        {
            "@id": "https://manifests.teklia.com/HIMANIS/JJ044/words_annotations/FRCHANJJ_JJ044_0004R.json/25/line", 
            "@type": "oa:Annotation", 
            "motivation": "oa:painting", 
            "on": "http://bvmm.irht.cnrs.fr/iiif/23632/canvas/canvas-2278345#xywh=1024,660,68,120", 
            "resource": {
                "@type": "cnt:ContentAsText", 
                "chars": "REX", 
                "format": "text/plain"
            }
        }, 
        {
            "@id": "https://manifests.teklia.com/HIMANIS/JJ044/words_annotations/FRCHANJJ_JJ044_0004R.json/26/line", 
            "@type": "oa:Annotation", 
            "motivation": "oa:painting", 
            "on": "http://bvmm.irht.cnrs.fr/iiif/23632/canvas/canvas-2278345#xywh=871,475,96,153", 
            "resource": {
                "@type": "cnt:ContentAsText", 
                "chars": "TUNT", 
                "format": "text/plain"
            }
        }, 
        {
            "@id": "https://manifests.teklia.com/HIMANIS/JJ044/words_annotations/FRCHANJJ_JJ044_0004R.json/27/line", 
            "@type": "oa:Annotation", 
            "motivation": "oa:painting", 
            "on": "http://bvmm.irht.cnrs.fr/iiif/23632/canvas/canvas-2278345#xywh=1447,475,125,153", 
            "resource": {
                "@type": "cnt:ContentAsText", 
                "chars": "CAPCIONE", 
                "format": "text/plain"
            }
        }, 
        {
            "@id": "https://manifests.teklia.com/HIMANIS/JJ044/words_annotations/FRCHANJJ_JJ044_0004R.json/28/line", 
            "@type": "oa:Annotation", 
            "motivation": "oa:painting", 
            "on": "http://bvmm.irht.cnrs.fr/iiif/23632/canvas/canvas-2278345#xywh=2506,380,464,110", 
            "resource": {
                "@type": "cnt:ContentAsText", 
                "chars": "NOU", 
                "format": "text/plain"
            }
        }, 
        {
            "@id": "https://manifests.teklia.com/HIMANIS/JJ044/words_annotations/FRCHANJJ_JJ044_0004R.json/29/line", 
            "@type": "oa:Annotation", 
            "motivation": "oa:painting", 
            "on": "http://bvmm.irht.cnrs.fr/iiif/23632/canvas/canvas-2278345#xywh=688,220,158,195", 
            "resource": {
                "@type": "cnt:ContentAsText", 
                "chars": "DOMINII", 
                "format": "text/plain"
            }
        }, 
        {
            "@id": "https://manifests.teklia.com/HIMANIS/JJ044/words_annotations/FRCHANJJ_JJ044_0004R.json/30/line", 
            "@type": "oa:Annotation", 
            "motivation": "oa:painting", 
            "on": "http://bvmm.irht.cnrs.fr/iiif/23632/canvas/canvas-2278345#xywh=997,886,0,64", 
            "resource": {
                "@type": "cnt:ContentAsText", 
                "chars": "P", 
                "format": "text/plain"
            }
        }, 
        {
            "@id": "https://manifests.teklia.com/HIMANIS/JJ044/words_annotations/FRCHANJJ_JJ044_0004R.json/31/line", 
            "@type": "oa:Annotation", 
            "motivation": "oa:painting", 
            "on": "http://bvmm.irht.cnrs.fr/iiif/23632/canvas/canvas-2278345#xywh=1246,475,86,153", 
            "resource": {
                "@type": "cnt:ContentAsText", 
                "chars": "FUIT", 
                "format": "text/plain"
            }
        }, 
        {
            "@id": "https://manifests.teklia.com/HIMANIS/JJ044/words_annotations/FRCHANJJ_JJ044_0004R.json/32/line", 
            "@type": "oa:Annotation", 
            "motivation": "oa:painting", 
            "on": "http://bvmm.irht.cnrs.fr/iiif/23632/canvas/canvas-2278345#xywh=1576,380,181,110", 
            "resource": {
                "@type": "cnt:ContentAsText", 
                "chars": "CADITUM", 
                "format": "text/plain"
            }
        }, 
        {
            "@id": "https://manifests.teklia.com/HIMANIS/JJ044/words_annotations/FRCHANJJ_JJ044_0004R.json/33/line", 
            "@type": "oa:Annotation", 
            "motivation": "oa:painting", 
            "on": "http://bvmm.irht.cnrs.fr/iiif/23632/canvas/canvas-2278345#xywh=2186,660,106,120", 
            "resource": {
                "@type": "cnt:ContentAsText", 
                "chars": "SITA", 
                "format": "text/plain"
            }
        }, 
        {
            "@id": "https://manifests.teklia.com/HIMANIS/JJ044/words_annotations/FRCHANJJ_JJ044_0004R.json/34/line", 
            "@type": "oa:Annotation", 
            "motivation": "oa:painting", 
            "on": "http://bvmm.irht.cnrs.fr/iiif/23632/canvas/canvas-2278345#xywh=450,660,219,120", 
            "resource": {
                "@type": "cnt:ContentAsText", 
                "chars": "NOMINA", 
                "format": "text/plain"
            }
        }, 
        {
            "@id": "https://manifests.teklia.com/HIMANIS/JJ044/words_annotations/FRCHANJJ_JJ044_0004R.json/35/line", 
            "@type": "oa:Annotation", 
            "motivation": "oa:painting", 
            "on": "http://bvmm.irht.cnrs.fr/iiif/23632/canvas/canvas-2278345#xywh=1213,220,183,195", 
            "resource": {
                "@type": "cnt:ContentAsText", 
                "chars": "SEPTIMO", 
                "format": "text/plain"
            }
        }, 
        {
            "@id": "https://manifests.teklia.com/HIMANIS/JJ044/words_annotations/FRCHANJJ_JJ044_0004R.json/36/line", 
            "@type": "oa:Annotation", 
            "motivation": "oa:painting", 
            "on": "http://bvmm.irht.cnrs.fr/iiif/23632/canvas/canvas-2278345#xywh=1530,220,110,195", 
            "resource": {
                "@type": "cnt:ContentAsText", 
                "chars": "VENIRS", 
                "format": "text/plain"
            }
        }, 
        {
            "@id": "https://manifests.teklia.com/HIMANIS/JJ044/words_annotations/FRCHANJJ_JJ044_0004R.json/37/line", 
            "@type": "oa:Annotation", 
            "motivation": "oa:painting", 
            "on": "http://bvmm.irht.cnrs.fr/iiif/23632/canvas/canvas-2278345#xywh=1664,220,86,195", 
            "resource": {
                "@type": "cnt:ContentAsText", 
                "chars": "POST", 
                "format": "text/plain"
            }
        }, 
        {
            "@id": "https://manifests.teklia.com/HIMANIS/JJ044/words_annotations/FRCHANJJ_JJ044_0004R.json/38/line", 
            "@type": "oa:Annotation", 
            "motivation": "oa:painting", 
            "on": "http://bvmm.irht.cnrs.fr/iiif/23632/canvas/canvas-2278345#xywh=910,380,84,110", 
            "resource": {
                "@type": "cnt:ContentAsText", 
                "chars": "BEATE", 
                "format": "text/plain"
            }
        }, 
        {
            "@id": "https://manifests.teklia.com/HIMANIS/JJ044/words_annotations/FRCHANJJ_JJ044_0004R.json/39/line", 
            "@type": "oa:Annotation", 
            "motivation": "oa:painting", 
            "on": "http://bvmm.irht.cnrs.fr/iiif/23632/canvas/canvas-2278345#xywh=1839,660,241,120", 
            "resource": {
                "@type": "cnt:ContentAsText", 
                "chars": "EDIFFICANDER", 
                "format": "text/plain"
            }
        }, 
        {
            "@id": "https://manifests.teklia.com/HIMANIS/JJ044/words_annotations/FRCHANJJ_JJ044_0004R.json/40/line", 
            "@type": "oa:Annotation", 
            "motivation": "oa:painting", 
            "on": "http://bvmm.irht.cnrs.fr/iiif/23632/canvas/canvas-2278345#xywh=2336,220,256,195", 
            "resource": {
                "@type": "cnt:ContentAsText", 
                "chars": "REGECENTEM", 
                "format": "text/plain"
            }
        }, 
        {
            "@id": "https://manifests.teklia.com/HIMANIS/JJ044/words_annotations/FRCHANJJ_JJ044_0004R.json/41/line", 
            "@type": "oa:Annotation", 
            "motivation": "oa:painting", 
            "on": "http://bvmm.irht.cnrs.fr/iiif/23632/canvas/canvas-2278345#xywh=1839,660,249,120", 
            "resource": {
                "@type": "cnt:ContentAsText", 
                "chars": "EDIFFICANDIER", 
                "format": "text/plain"
            }
        }, 
        {
            "@id": "https://manifests.teklia.com/HIMANIS/JJ044/words_annotations/FRCHANJJ_JJ044_0004R.json/42/line", 
            "@type": "oa:Annotation", 
            "motivation": "oa:painting", 
            "on": "http://bvmm.irht.cnrs.fr/iiif/23632/canvas/canvas-2278345#xywh=688,220,97,195", 
            "resource": {
                "@type": "cnt:ContentAsText", 
                "chars": "DOMINI", 
                "format": "text/plain"
            }
        }, 
        {
            "@id": "https://manifests.teklia.com/HIMANIS/JJ044/words_annotations/FRCHANJJ_JJ044_0004R.json/43/line", 
            "@type": "oa:Annotation", 
            "motivation": "oa:painting", 
            "on": "http://bvmm.irht.cnrs.fr/iiif/23632/canvas/canvas-2278345#xywh=1673,660,68,120", 
            "resource": {
                "@type": "cnt:ContentAsText", 
                "chars": "SEU", 
                "format": "text/plain"
            }
        }, 
        {
            "@id": "https://manifests.teklia.com/HIMANIS/JJ044/words_annotations/FRCHANJJ_JJ044_0004R.json/44/line", 
            "@type": "oa:Annotation", 
            "motivation": "oa:painting", 
            "on": "http://bvmm.irht.cnrs.fr/iiif/23632/canvas/canvas-2278345#xywh=1015,950,0,65", 
            "resource": {
                "@type": "cnt:ContentAsText", 
                "chars": "J", 
                "format": "text/plain"
            }
        }, 
        {
            "@id": "https://manifests.teklia.com/HIMANIS/JJ044/words_annotations/FRCHANJJ_JJ044_0004R.json/45/line", 
            "@type": "oa:Annotation", 
            "motivation": "oa:painting", 
            "on": "http://bvmm.irht.cnrs.fr/iiif/23632/canvas/canvas-2278345#xywh=1945,220,232,195", 
            "resource": {
                "@type": "cnt:ContentAsText", 
                "chars": "BRACIANTIBUS", 
                "format": "text/plain"
            }
        }, 
        {
            "@id": "https://manifests.teklia.com/HIMANIS/JJ044/words_annotations/FRCHANJJ_JJ044_0004R.json/46/line", 
            "@type": "oa:Annotation", 
            "motivation": "oa:painting", 
            "on": "http://bvmm.irht.cnrs.fr/iiif/23632/canvas/canvas-2278345#xywh=996,475,211,153", 
            "resource": {
                "@type": "cnt:ContentAsText", 
                "chars": "TRACTATUM", 
                "format": "text/plain"
            }
        }, 
        {
            "@id": "https://manifests.teklia.com/HIMANIS/JJ044/words_annotations/FRCHANJJ_JJ044_0004R.json/47/line", 
            "@type": "oa:Annotation", 
            "motivation": "oa:painting", 
            "on": "http://bvmm.irht.cnrs.fr/iiif/23632/canvas/canvas-2278345#xywh=684,660,136,120", 
            "resource": {
                "@type": "cnt:ContentAsText", 
                "chars": "ILLORUM", 
                "format": "text/plain"
            }
        }, 
        {
            "@id": "https://manifests.teklia.com/HIMANIS/JJ044/words_annotations/FRCHANJJ_JJ044_0004R.json/48/line", 
            "@type": "oa:Annotation", 
            "motivation": "oa:painting", 
            "on": "http://bvmm.irht.cnrs.fr/iiif/23632/canvas/canvas-2278345#xywh=1805,380,76,110", 
            "resource": {
                "@type": "cnt:ContentAsText", 
                "chars": "FUIT", 
                "format": "text/plain"
            }
        }, 
        {
            "@id": "https://manifests.teklia.com/HIMANIS/JJ044/words_annotations/FRCHANJJ_JJ044_0004R.json/49/line", 
            "@type": "oa:Annotation", 
            "motivation": "oa:painting", 
            "on": "http://bvmm.irht.cnrs.fr/iiif/23632/canvas/canvas-2278345#xywh=1015,950,0,65", 
            "resource": {
                "@type": "cnt:ContentAsText", 
                "chars": "R", 
                "format": "text/plain"
            }
        }, 
        {
            "@id": "https://manifests.teklia.com/HIMANIS/JJ044/words_annotations/FRCHANJJ_JJ044_0004R.json/50/line", 
            "@type": "oa:Annotation", 
            "motivation": "oa:painting", 
            "on": "http://bvmm.irht.cnrs.fr/iiif/23632/canvas/canvas-2278345#xywh=883,220,134,195", 
            "resource": {
                "@type": "cnt:ContentAsText", 
                "chars": "AILLIO", 
                "format": "text/plain"
            }
        }, 
        {
            "@id": "https://manifests.teklia.com/HIMANIS/JJ044/words_annotations/FRCHANJJ_JJ044_0004R.json/51/line", 
            "@type": "oa:Annotation", 
            "motivation": "oa:painting", 
            "on": "http://bvmm.irht.cnrs.fr/iiif/23632/canvas/canvas-2278345#xywh=2214,220,85,195", 
            "resource": {
                "@type": "cnt:ContentAsText", 
                "chars": "APPLI", 
                "format": "text/plain"
            }
        }, 
        {
            "@id": "https://manifests.teklia.com/HIMANIS/JJ044/words_annotations/FRCHANJJ_JJ044_0004R.json/52/line", 
            "@type": "oa:Annotation", 
            "motivation": "oa:painting", 
            "on": "http://bvmm.irht.cnrs.fr/iiif/23632/canvas/canvas-2278345#xywh=411,380,291,110", 
            "resource": {
                "@type": "cnt:ContentAsText", 
                "chars": "MONASTERIO", 
                "format": "text/plain"
            }
        }, 
        {
            "@id": "https://manifests.teklia.com/HIMANIS/JJ044/words_annotations/FRCHANJJ_JJ044_0004R.json/53/line", 
            "@type": "oa:Annotation", 
            "motivation": "oa:painting", 
            "on": "http://bvmm.irht.cnrs.fr/iiif/23632/canvas/canvas-2278345#xywh=2152,380,90,110", 
            "resource": {
                "@type": "cnt:ContentAsText", 
                "chars": "DOMINO", 
                "format": "text/plain"
            }
        }, 
        {
            "@id": "https://manifests.teklia.com/HIMANIS/JJ044/words_annotations/FRCHANJJ_JJ044_0004R.json/54/line", 
            "@type": "oa:Annotation", 
            "motivation": "oa:painting", 
            "on": "http://bvmm.irht.cnrs.fr/iiif/23632/canvas/canvas-2278345#xywh=1514,660,151,120", 
            "resource": {
                "@type": "cnt:ContentAsText", 
                "chars": "AIDENDAM", 
                "format": "text/plain"
            }
        }, 
        {
            "@id": "https://manifests.teklia.com/HIMANIS/JJ044/words_annotations/FRCHANJJ_JJ044_0004R.json/55/line", 
            "@type": "oa:Annotation", 
            "motivation": "oa:painting", 
            "on": "http://bvmm.irht.cnrs.fr/iiif/23632/canvas/canvas-2278345#xywh=1285,380,222,110", 
            "resource": {
                "@type": "cnt:ContentAsText", 
                "chars": "PONTISARAM", 
                "format": "text/plain"
            }
        }, 
        {
            "@id": "https://manifests.teklia.com/HIMANIS/JJ044/words_annotations/FRCHANJJ_JJ044_0004R.json/56/line", 
            "@type": "oa:Annotation", 
            "motivation": "oa:painting", 
            "on": "http://bvmm.irht.cnrs.fr/iiif/23632/canvas/canvas-2278345#xywh=1432,220,61,195", 
            "resource": {
                "@type": "cnt:ContentAsText", 
                "chars": "DIE", 
                "format": "text/plain"
            }
        }, 
        {
            "@id": "https://manifests.teklia.com/HIMANIS/JJ044/words_annotations/FRCHANJJ_JJ044_0004R.json/57/line", 
            "@type": "oa:Annotation", 
            "motivation": "oa:painting", 
            "on": "http://bvmm.irht.cnrs.fr/iiif/23632/canvas/canvas-2278345#xywh=1265,660,151,120", 
            "resource": {
                "@type": "cnt:ContentAsText", 
                "chars": "NEMUS", 
                "format": "text/plain"
            }
        }, 
        {
            "@id": "https://manifests.teklia.com/HIMANIS/JJ044/words_annotations/FRCHANJJ_JJ044_0004R.json/58/line", 
            "@type": "oa:Annotation", 
            "motivation": "oa:painting", 
            "on": "http://bvmm.irht.cnrs.fr/iiif/23632/canvas/canvas-2278345#xywh=1530,220,98,195", 
            "resource": {
                "@type": "cnt:ContentAsText", 
                "chars": "VENIR", 
                "format": "text/plain"
            }
        }, 
        {
            "@id": "https://manifests.teklia.com/HIMANIS/JJ044/words_annotations/FRCHANJJ_JJ044_0004R.json/59/line", 
            "@type": "oa:Annotation", 
            "motivation": "oa:painting", 
            "on": "http://bvmm.irht.cnrs.fr/iiif/23632/canvas/canvas-2278345#xywh=2186,660,106,120", 
            "resource": {
                "@type": "cnt:ContentAsText", 
                "chars": "SA", 
                "format": "text/plain"
            }
        }, 
        {
            "@id": "https://manifests.teklia.com/HIMANIS/JJ044/words_annotations/FRCHANJJ_JJ044_0004R.json/60/line", 
            "@type": "oa:Annotation", 
            "motivation": "oa:painting", 
            "on": "http://bvmm.irht.cnrs.fr/iiif/23632/canvas/canvas-2278345#xywh=1514,660,151,120", 
            "resource": {
                "@type": "cnt:ContentAsText", 
                "chars": "ARDENDAM", 
                "format": "text/plain"
            }
        }, 
        {
            "@id": "https://manifests.teklia.com/HIMANIS/JJ044/words_annotations/FRCHANJJ_JJ044_0004R.json/61/line", 
            "@type": "oa:Annotation", 
            "motivation": "oa:painting", 
            "on": "http://bvmm.irht.cnrs.fr/iiif/23632/canvas/canvas-2278345#xywh=431,220,244,195", 
            "resource": {
                "@type": "cnt:ContentAsText", 
                "chars": "NO", 
                "format": "text/plain"
            }
        }, 
        {
            "@id": "https://manifests.teklia.com/HIMANIS/JJ044/words_annotations/FRCHANJJ_JJ044_0004R.json/62/line", 
            "@type": "oa:Annotation", 
            "motivation": "oa:painting", 
            "on": "http://bvmm.irht.cnrs.fr/iiif/23632/canvas/canvas-2278345#xywh=2270,380,145,110", 
            "resource": {
                "@type": "cnt:ContentAsText", 
                "chars": "GUILLELMO", 
                "format": "text/plain"
            }
        }, 
        {
            "@id": "https://manifests.teklia.com/HIMANIS/JJ044/words_annotations/FRCHANJJ_JJ044_0004R.json/63/line", 
            "@type": "oa:Annotation", 
            "motivation": "oa:painting", 
            "on": "http://bvmm.irht.cnrs.fr/iiif/23632/canvas/canvas-2278345#xywh=392,110,264,110", 
            "resource": {
                "@type": "cnt:ContentAsText", 
                "chars": "SOLI", 
                "format": "text/plain"
            }
        }, 
        {
            "@id": "https://manifests.teklia.com/HIMANIS/JJ044/words_annotations/FRCHANJJ_JJ044_0004R.json/64/line", 
            "@type": "oa:Annotation", 
            "motivation": "oa:painting", 
            "on": "http://bvmm.irht.cnrs.fr/iiif/23632/canvas/canvas-2278345#xywh=2336,220,256,195", 
            "resource": {
                "@type": "cnt:ContentAsText", 
                "chars": "REGECONTEM", 
                "format": "text/plain"
            }
        }, 
        {
            "@id": "https://manifests.teklia.com/HIMANIS/JJ044/words_annotations/FRCHANJJ_JJ044_0004R.json/65/line", 
            "@type": "oa:Annotation", 
            "motivation": "oa:painting", 
            "on": "http://bvmm.irht.cnrs.fr/iiif/23632/canvas/canvas-2278345#xywh=1447,475,154,153", 
            "resource": {
                "@type": "cnt:ContentAsText", 
                "chars": "CAPCIONEM", 
                "format": "text/plain"
            }
        }, 
        {
            "@id": "https://manifests.teklia.com/HIMANIS/JJ044/words_annotations/FRCHANJJ_JJ044_0004R.json/66/line", 
            "@type": "oa:Annotation", 
            "motivation": "oa:painting", 
            "on": "http://bvmm.irht.cnrs.fr/iiif/23632/canvas/canvas-2278345#xywh=1175,886,105,64", 
            "resource": {
                "@type": "cnt:ContentAsText", 
                "chars": "DENIER", 
                "format": "text/plain"
            }
        }, 
        {
            "@id": "https://manifests.teklia.com/HIMANIS/JJ044/words_annotations/FRCHANJJ_JJ044_0004R.json/67/line", 
            "@type": "oa:Annotation", 
            "motivation": "oa:painting", 
            "on": "http://bvmm.irht.cnrs.fr/iiif/23632/canvas/canvas-2278345#xywh=1945,220,232,195", 
            "resource": {
                "@type": "cnt:ContentAsText", 
                "chars": "FACIANTIBUS", 
                "format": "text/plain"
            }
        }, 
        {
            "@id": "https://manifests.teklia.com/HIMANIS/JJ044/words_annotations/FRCHANJJ_JJ044_0004R.json/68/line", 
            "@type": "oa:Annotation", 
            "motivation": "oa:painting", 
            "on": "http://bvmm.irht.cnrs.fr/iiif/23632/canvas/canvas-2278345#xywh=767,780,0,40", 
            "resource": {
                "@type": "cnt:ContentAsText", 
                "chars": "J", 
                "format": "text/plain"
            }
        }, 
        {
            "@id": "https://manifests.teklia.com/HIMANIS/JJ044/words_annotations/FRCHANJJ_JJ044_0004R.json/69/line", 
            "@type": "oa:Annotation", 
            "motivation": "oa:painting", 
            "on": "http://bvmm.irht.cnrs.fr/iiif/23632/canvas/canvas-2278345#xywh=1839,660,249,120", 
            "resource": {
                "@type": "cnt:ContentAsText", 
                "chars": "EDIFFICANDUM", 
                "format": "text/plain"
            }
        }, 
        {
            "@id": "https://manifests.teklia.com/HIMANIS/JJ044/words_annotations/FRCHANJJ_JJ044_0004R.json/70/line", 
            "@type": "oa:Annotation", 
            "motivation": "oa:painting", 
            "on": "http://bvmm.irht.cnrs.fr/iiif/23632/canvas/canvas-2278345#xywh=392,110,258,110", 
            "resource": {
                "@type": "cnt:ContentAsText", 
                "chars": "SONN", 
                "format": "text/plain"
            }
        }, 
        {
            "@id": "https://manifests.teklia.com/HIMANIS/JJ044/words_annotations/FRCHANJJ_JJ044_0004R.json/71/line", 
            "@type": "oa:Annotation", 
            "motivation": "oa:painting", 
            "on": "http://bvmm.irht.cnrs.fr/iiif/23632/canvas/canvas-2278345#xywh=767,780,0,40", 
            "resource": {
                "@type": "cnt:ContentAsText", 
                "chars": "P", 
                "format": "text/plain"
            }
        }, 
        {
            "@id": "https://manifests.teklia.com/HIMANIS/JJ044/words_annotations/FRCHANJJ_JJ044_0004R.json/72/line", 
            "@type": "oa:Annotation", 
            "motivation": "oa:painting", 
            "on": "http://bvmm.irht.cnrs.fr/iiif/23632/canvas/canvas-2278345#xywh=392,110,258,110", 
            "resource": {
                "@type": "cnt:ContentAsText", 
                "chars": "SONS", 
                "format": "text/plain"
            }
        }, 
        {
            "@id": "https://manifests.teklia.com/HIMANIS/JJ044/words_annotations/FRCHANJJ_JJ044_0004R.json/73/line", 
            "@type": "oa:Annotation", 
            "motivation": "oa:painting", 
            "on": "http://bvmm.irht.cnrs.fr/iiif/23632/canvas/canvas-2278345#xywh=737,380,139,110", 
            "resource": {
                "@type": "cnt:ContentAsText", 
                "chars": "REGIALI", 
                "format": "text/plain"
            }
        }, 
        {
            "@id": "https://manifests.teklia.com/HIMANIS/JJ044/words_annotations/FRCHANJJ_JJ044_0004R.json/74/line", 
            "@type": "oa:Annotation", 
            "motivation": "oa:painting", 
            "on": "http://bvmm.irht.cnrs.fr/iiif/23632/canvas/canvas-2278345#xywh=392,110,244,110", 
            "resource": {
                "@type": "cnt:ContentAsText", 
                "chars": "SON", 
                "format": "text/plain"
            }
        }, 
        {
            "@id": "https://manifests.teklia.com/HIMANIS/JJ044/words_annotations/FRCHANJJ_JJ044_0004R.json/75/line", 
            "@type": "oa:Annotation", 
            "motivation": "oa:painting", 
            "on": "http://bvmm.irht.cnrs.fr/iiif/23632/canvas/canvas-2278345#xywh=1213,220,183,195", 
            "resource": {
                "@type": "cnt:ContentAsText", 
                "chars": "SEPTINO", 
                "format": "text/plain"
            }
        }, 
        {
            "@id": "https://manifests.teklia.com/HIMANIS/JJ044/words_annotations/FRCHANJJ_JJ044_0004R.json/76/line", 
            "@type": "oa:Annotation", 
            "motivation": "oa:painting", 
            "on": "http://bvmm.irht.cnrs.fr/iiif/23632/canvas/canvas-2278345#xywh=468,475,125,153", 
            "resource": {
                "@type": "cnt:ContentAsText", 
                "chars": "GARETO", 
                "format": "text/plain"
            }
        }, 
        {
            "@id": "https://manifests.teklia.com/HIMANIS/JJ044/words_annotations/FRCHANJJ_JJ044_0004R.json/77/line", 
            "@type": "oa:Annotation", 
            "motivation": "oa:painting", 
            "on": "http://bvmm.irht.cnrs.fr/iiif/23632/canvas/canvas-2278345#xywh=2336,220,256,195", 
            "resource": {
                "@type": "cnt:ContentAsText", 
                "chars": "REGISTENTEM", 
                "format": "text/plain"
            }
        }, 
        {
            "@id": "https://manifests.teklia.com/HIMANIS/JJ044/words_annotations/FRCHANJJ_JJ044_0004R.json/78/line", 
            "@type": "oa:Annotation", 
            "motivation": "oa:painting", 
            "on": "http://bvmm.irht.cnrs.fr/iiif/23632/canvas/canvas-2278345#xywh=392,110,258,110", 
            "resource": {
                "@type": "cnt:ContentAsText", 
                "chars": "SOR", 
                "format": "text/plain"
            }
        }, 
        {
            "@id": "https://manifests.teklia.com/HIMANIS/JJ044/words_annotations/FRCHANJJ_JJ044_0004R.json/79/line", 
            "@type": "oa:Annotation", 
            "motivation": "oa:painting", 
            "on": "http://bvmm.irht.cnrs.fr/iiif/23632/canvas/canvas-2278345#xywh=775,475,77,153", 
            "resource": {
                "@type": "cnt:ContentAsText", 
                "chars": "UBI", 
                "format": "text/plain"
            }
        }, 
        {
            "@id": "https://manifests.teklia.com/HIMANIS/JJ044/words_annotations/FRCHANJJ_JJ044_0004R.json/80/line", 
            "@type": "oa:Annotation", 
            "motivation": "oa:painting", 
            "on": "http://bvmm.irht.cnrs.fr/iiif/23632/canvas/canvas-2278345#xywh=1620,475,307,153", 
            "resource": {
                "@type": "cnt:ContentAsText", 
                "chars": "TEMPLARIORUM", 
                "format": "text/plain"
            }
        }, 
        {
            "@id": "https://manifests.teklia.com/HIMANIS/JJ044/words_annotations/FRCHANJJ_JJ044_0004R.json/81/line", 
            "@type": "oa:Annotation", 
            "motivation": "oa:painting", 
            "on": "http://bvmm.irht.cnrs.fr/iiif/23632/canvas/canvas-2278345#xywh=1530,220,110,195", 
            "resource": {
                "@type": "cnt:ContentAsText", 
                "chars": "VENUS", 
                "format": "text/plain"
            }
        }
    ]
}