{
    "@context": "http://iiif.io/api/presentation/2/context.json", 
    "@id": "https://manifests.teklia.com/HIMANIS/JJ099/words_annotations/FRAN_0021_1896.json", 
    "@type": "sc:AnnotationList", 
    "resources": [
        {
            "@id": "https://manifests.teklia.com/HIMANIS/JJ099/words_annotations/FRAN_0021_1896.json/0/line", 
            "@type": "oa:Annotation", 
            "motivation": "oa:painting", 
            "on": "http://bvmm.irht.cnrs.fr/iiif/23686/canvas/canvas-2300833#xywh=67,2562,226,54", 
            "resource": {
                "@type": "cnt:ContentAsText", 
                "chars": "ASS", 
                "format": "text/plain"
            }
        }, 
        {
            "@id": "https://manifests.teklia.com/HIMANIS/JJ099/words_annotations/FRAN_0021_1896.json/1/line", 
            "@type": "oa:Annotation", 
            "motivation": "oa:painting", 
            "on": "http://bvmm.irht.cnrs.fr/iiif/23686/canvas/canvas-2300833#xywh=557,5524,1079,48", 
            "resource": {
                "@type": "cnt:ContentAsText", 
                "chars": "TENENT", 
                "format": "text/plain"
            }
        }, 
        {
            "@id": "https://manifests.teklia.com/HIMANIS/JJ099/words_annotations/FRAN_0021_1896.json/2/line", 
            "@type": "oa:Annotation", 
            "motivation": "oa:painting", 
            "on": "http://bvmm.irht.cnrs.fr/iiif/23686/canvas/canvas-2300833#xywh=74,3004,404,32", 
            "resource": {
                "@type": "cnt:ContentAsText", 
                "chars": "CONTENEN", 
                "format": "text/plain"
            }
        }, 
        {
            "@id": "https://manifests.teklia.com/HIMANIS/JJ099/words_annotations/FRAN_0021_1896.json/3/line", 
            "@type": "oa:Annotation", 
            "motivation": "oa:painting", 
            "on": "http://bvmm.irht.cnrs.fr/iiif/23686/canvas/canvas-2300833#xywh=3431,2977,150,18", 
            "resource": {
                "@type": "cnt:ContentAsText", 
                "chars": "LES", 
                "format": "text/plain"
            }
        }, 
        {
            "@id": "https://manifests.teklia.com/HIMANIS/JJ099/words_annotations/FRAN_0021_1896.json/4/line", 
            "@type": "oa:Annotation", 
            "motivation": "oa:painting", 
            "on": "http://bvmm.irht.cnrs.fr/iiif/23686/canvas/canvas-2300833#xywh=79,3908,280,57", 
            "resource": {
                "@type": "cnt:ContentAsText", 
                "chars": "DE", 
                "format": "text/plain"
            }
        }, 
        {
            "@id": "https://manifests.teklia.com/HIMANIS/JJ099/words_annotations/FRAN_0021_1896.json/5/line", 
            "@type": "oa:Annotation", 
            "motivation": "oa:painting", 
            "on": "http://bvmm.irht.cnrs.fr/iiif/23686/canvas/canvas-2300833#xywh=74,3004,162,32", 
            "resource": {
                "@type": "cnt:ContentAsText", 
                "chars": "DE", 
                "format": "text/plain"
            }
        }, 
        {
            "@id": "https://manifests.teklia.com/HIMANIS/JJ099/words_annotations/FRAN_0021_1896.json/6/line", 
            "@type": "oa:Annotation", 
            "motivation": "oa:painting", 
            "on": "http://bvmm.irht.cnrs.fr/iiif/23686/canvas/canvas-2300833#xywh=3431,2977,130,18", 
            "resource": {
                "@type": "cnt:ContentAsText", 
                "chars": "DE", 
                "format": "text/plain"
            }
        }, 
        {
            "@id": "https://manifests.teklia.com/HIMANIS/JJ099/words_annotations/FRAN_0021_1896.json/7/line", 
            "@type": "oa:Annotation", 
            "motivation": "oa:painting", 
            "on": "http://bvmm.irht.cnrs.fr/iiif/23686/canvas/canvas-2300833#xywh=0,117,2279,201", 
            "resource": {
                "@type": "cnt:ContentAsText", 
                "chars": "PHIL", 
                "format": "text/plain"
            }
        }, 
        {
            "@id": "https://manifests.teklia.com/HIMANIS/JJ099/words_annotations/FRAN_0021_1896.json/8/line", 
            "@type": "oa:Annotation", 
            "motivation": "oa:painting", 
            "on": "http://bvmm.irht.cnrs.fr/iiif/23686/canvas/canvas-2300833#xywh=67,2562,284,54", 
            "resource": {
                "@type": "cnt:ContentAsText", 
                "chars": "QU", 
                "format": "text/plain"
            }
        }, 
        {
            "@id": "https://manifests.teklia.com/HIMANIS/JJ099/words_annotations/FRAN_0021_1896.json/9/line", 
            "@type": "oa:Annotation", 
            "motivation": "oa:painting", 
            "on": "http://bvmm.irht.cnrs.fr/iiif/23686/canvas/canvas-2300833#xywh=557,5524,538,48", 
            "resource": {
                "@type": "cnt:ContentAsText", 
                "chars": "ENVENT", 
                "format": "text/plain"
            }
        }, 
        {
            "@id": "https://manifests.teklia.com/HIMANIS/JJ099/words_annotations/FRAN_0021_1896.json/10/line", 
            "@type": "oa:Annotation", 
            "motivation": "oa:painting", 
            "on": "http://bvmm.irht.cnrs.fr/iiif/23686/canvas/canvas-2300833#xywh=74,3004,404,32", 
            "resource": {
                "@type": "cnt:ContentAsText", 
                "chars": "CONTINEN", 
                "format": "text/plain"
            }
        }, 
        {
            "@id": "https://manifests.teklia.com/HIMANIS/JJ099/words_annotations/FRAN_0021_1896.json/11/line", 
            "@type": "oa:Annotation", 
            "motivation": "oa:painting", 
            "on": "http://bvmm.irht.cnrs.fr/iiif/23686/canvas/canvas-2300833#xywh=79,3908,280,57", 
            "resource": {
                "@type": "cnt:ContentAsText", 
                "chars": "DES", 
                "format": "text/plain"
            }
        }, 
        {
            "@id": "https://manifests.teklia.com/HIMANIS/JJ099/words_annotations/FRAN_0021_1896.json/12/line", 
            "@type": "oa:Annotation", 
            "motivation": "oa:painting", 
            "on": "http://bvmm.irht.cnrs.fr/iiif/23686/canvas/canvas-2300833#xywh=74,3004,172,32", 
            "resource": {
                "@type": "cnt:ContentAsText", 
                "chars": "ET", 
                "format": "text/plain"
            }
        }, 
        {
            "@id": "https://manifests.teklia.com/HIMANIS/JJ099/words_annotations/FRAN_0021_1896.json/13/line", 
            "@type": "oa:Annotation", 
            "motivation": "oa:painting", 
            "on": "http://bvmm.irht.cnrs.fr/iiif/23686/canvas/canvas-2300833#xywh=557,5524,1632,48", 
            "resource": {
                "@type": "cnt:ContentAsText", 
                "chars": "ENVENTU", 
                "format": "text/plain"
            }
        }
    ]
}