{
    "@context": "http://iiif.io/api/presentation/2/context.json", 
    "@id": "https://manifests.teklia.com/HIMANIS/JJ065A/words_annotations/FRCHANJJ_JJ065A_0001V.json", 
    "@type": "sc:AnnotationList", 
    "resources": [
        {
            "@id": "https://manifests.teklia.com/HIMANIS/JJ065A/words_annotations/FRCHANJJ_JJ065A_0001V.json/0/line", 
            "@type": "oa:Annotation", 
            "motivation": "oa:painting", 
            "on": "http://bvmm.irht.cnrs.fr/iiif/23648/canvas/canvas-2283339#xywh=1926,2597,67,97", 
            "resource": {
                "@type": "cnt:ContentAsText", 
                "chars": "NUL", 
                "format": "text/plain"
            }
        }, 
        {
            "@id": "https://manifests.teklia.com/HIMANIS/JJ065A/words_annotations/FRCHANJJ_JJ065A_0001V.json/1/line", 
            "@type": "oa:Annotation", 
            "motivation": "oa:painting", 
            "on": "http://bvmm.irht.cnrs.fr/iiif/23648/canvas/canvas-2283339#xywh=2665,2688,90,95", 
            "resource": {
                "@type": "cnt:ContentAsText", 
                "chars": "SI", 
                "format": "text/plain"
            }
        }, 
        {
            "@id": "https://manifests.teklia.com/HIMANIS/JJ065A/words_annotations/FRCHANJJ_JJ065A_0001V.json/2/line", 
            "@type": "oa:Annotation", 
            "motivation": "oa:painting", 
            "on": "http://bvmm.irht.cnrs.fr/iiif/23648/canvas/canvas-2283339#xywh=2214,0,1244,107", 
            "resource": {
                "@type": "cnt:ContentAsText", 
                "chars": "LETTRES", 
                "format": "text/plain"
            }
        }, 
        {
            "@id": "https://manifests.teklia.com/HIMANIS/JJ065A/words_annotations/FRCHANJJ_JJ065A_0001V.json/3/line", 
            "@type": "oa:Annotation", 
            "motivation": "oa:painting", 
            "on": "http://bvmm.irht.cnrs.fr/iiif/23648/canvas/canvas-2283339#xywh=1504,2597,171,97", 
            "resource": {
                "@type": "cnt:ContentAsText", 
                "chars": "MONDRE", 
                "format": "text/plain"
            }
        }, 
        {
            "@id": "https://manifests.teklia.com/HIMANIS/JJ065A/words_annotations/FRCHANJJ_JJ065A_0001V.json/4/line", 
            "@type": "oa:Annotation", 
            "motivation": "oa:painting", 
            "on": "http://bvmm.irht.cnrs.fr/iiif/23648/canvas/canvas-2283339#xywh=3370,2225,79,14", 
            "resource": {
                "@type": "cnt:ContentAsText", 
                "chars": "COMM", 
                "format": "text/plain"
            }
        }, 
        {
            "@id": "https://manifests.teklia.com/HIMANIS/JJ065A/words_annotations/FRCHANJJ_JJ065A_0001V.json/5/line", 
            "@type": "oa:Annotation", 
            "motivation": "oa:painting", 
            "on": "http://bvmm.irht.cnrs.fr/iiif/23648/canvas/canvas-2283339#xywh=2383,2597,184,97", 
            "resource": {
                "@type": "cnt:ContentAsText", 
                "chars": "DOMINE", 
                "format": "text/plain"
            }
        }, 
        {
            "@id": "https://manifests.teklia.com/HIMANIS/JJ065A/words_annotations/FRCHANJJ_JJ065A_0001V.json/6/line", 
            "@type": "oa:Annotation", 
            "motivation": "oa:painting", 
            "on": "http://bvmm.irht.cnrs.fr/iiif/23648/canvas/canvas-2283339#xywh=7,0,1775,108", 
            "resource": {
                "@type": "cnt:ContentAsText", 
                "chars": "LETTRE", 
                "format": "text/plain"
            }
        }, 
        {
            "@id": "https://manifests.teklia.com/HIMANIS/JJ065A/words_annotations/FRCHANJJ_JJ065A_0001V.json/7/line", 
            "@type": "oa:Annotation", 
            "motivation": "oa:painting", 
            "on": "http://bvmm.irht.cnrs.fr/iiif/23648/canvas/canvas-2283339#xywh=1444,2688,1209,95", 
            "resource": {
                "@type": "cnt:ContentAsText", 
                "chars": "ARGE", 
                "format": "text/plain"
            }
        }, 
        {
            "@id": "https://manifests.teklia.com/HIMANIS/JJ065A/words_annotations/FRCHANJJ_JJ065A_0001V.json/8/line", 
            "@type": "oa:Annotation", 
            "motivation": "oa:painting", 
            "on": "http://bvmm.irht.cnrs.fr/iiif/23648/canvas/canvas-2283339#xywh=1926,2597,262,97", 
            "resource": {
                "@type": "cnt:ContentAsText", 
                "chars": "DICATIS", 
                "format": "text/plain"
            }
        }, 
        {
            "@id": "https://manifests.teklia.com/HIMANIS/JJ065A/words_annotations/FRCHANJJ_JJ065A_0001V.json/9/line", 
            "@type": "oa:Annotation", 
            "motivation": "oa:painting", 
            "on": "http://bvmm.irht.cnrs.fr/iiif/23648/canvas/canvas-2283339#xywh=3374,3389,46,34", 
            "resource": {
                "@type": "cnt:ContentAsText", 
                "chars": "DE", 
                "format": "text/plain"
            }
        }, 
        {
            "@id": "https://manifests.teklia.com/HIMANIS/JJ065A/words_annotations/FRCHANJJ_JJ065A_0001V.json/10/line", 
            "@type": "oa:Annotation", 
            "motivation": "oa:painting", 
            "on": "http://bvmm.irht.cnrs.fr/iiif/23648/canvas/canvas-2283339#xywh=2584,0,343,107", 
            "resource": {
                "@type": "cnt:ContentAsText", 
                "chars": "LE", 
                "format": "text/plain"
            }
        }, 
        {
            "@id": "https://manifests.teklia.com/HIMANIS/JJ065A/words_annotations/FRCHANJJ_JJ065A_0001V.json/11/line", 
            "@type": "oa:Annotation", 
            "motivation": "oa:painting", 
            "on": "http://bvmm.irht.cnrs.fr/iiif/23648/canvas/canvas-2283339#xywh=2490,0,262,107", 
            "resource": {
                "@type": "cnt:ContentAsText", 
                "chars": "DE", 
                "format": "text/plain"
            }
        }, 
        {
            "@id": "https://manifests.teklia.com/HIMANIS/JJ065A/words_annotations/FRCHANJJ_JJ065A_0001V.json/12/line", 
            "@type": "oa:Annotation", 
            "motivation": "oa:painting", 
            "on": "http://bvmm.irht.cnrs.fr/iiif/23648/canvas/canvas-2283339#xywh=0,3970,407,88", 
            "resource": {
                "@type": "cnt:ContentAsText", 
                "chars": "PHILIPP", 
                "format": "text/plain"
            }
        }, 
        {
            "@id": "https://manifests.teklia.com/HIMANIS/JJ065A/words_annotations/FRCHANJJ_JJ065A_0001V.json/13/line", 
            "@type": "oa:Annotation", 
            "motivation": "oa:painting", 
            "on": "http://bvmm.irht.cnrs.fr/iiif/23648/canvas/canvas-2283339#xywh=1926,2597,91,97", 
            "resource": {
                "@type": "cnt:ContentAsText", 
                "chars": "UBI", 
                "format": "text/plain"
            }
        }, 
        {
            "@id": "https://manifests.teklia.com/HIMANIS/JJ065A/words_annotations/FRCHANJJ_JJ065A_0001V.json/14/line", 
            "@type": "oa:Annotation", 
            "motivation": "oa:painting", 
            "on": "http://bvmm.irht.cnrs.fr/iiif/23648/canvas/canvas-2283339#xywh=1706,2597,177,97", 
            "resource": {
                "@type": "cnt:ContentAsText", 
                "chars": "MUMUS", 
                "format": "text/plain"
            }
        }, 
        {
            "@id": "https://manifests.teklia.com/HIMANIS/JJ065A/words_annotations/FRCHANJJ_JJ065A_0001V.json/15/line", 
            "@type": "oa:Annotation", 
            "motivation": "oa:painting", 
            "on": "http://bvmm.irht.cnrs.fr/iiif/23648/canvas/canvas-2283339#xywh=2597,2597,49,97", 
            "resource": {
                "@type": "cnt:ContentAsText", 
                "chars": "DE", 
                "format": "text/plain"
            }
        }, 
        {
            "@id": "https://manifests.teklia.com/HIMANIS/JJ065A/words_annotations/FRCHANJJ_JJ065A_0001V.json/16/line", 
            "@type": "oa:Annotation", 
            "motivation": "oa:painting", 
            "on": "http://bvmm.irht.cnrs.fr/iiif/23648/canvas/canvas-2283339#xywh=2219,2597,0,97", 
            "resource": {
                "@type": "cnt:ContentAsText", 
                "chars": "A", 
                "format": "text/plain"
            }
        }, 
        {
            "@id": "https://manifests.teklia.com/HIMANIS/JJ065A/words_annotations/FRCHANJJ_JJ065A_0001V.json/17/line", 
            "@type": "oa:Annotation", 
            "motivation": "oa:painting", 
            "on": "http://bvmm.irht.cnrs.fr/iiif/23648/canvas/canvas-2283339#xywh=3370,2225,37,14", 
            "resource": {
                "@type": "cnt:ContentAsText", 
                "chars": "DE", 
                "format": "text/plain"
            }
        }, 
        {
            "@id": "https://manifests.teklia.com/HIMANIS/JJ065A/words_annotations/FRCHANJJ_JJ065A_0001V.json/18/line", 
            "@type": "oa:Annotation", 
            "motivation": "oa:painting", 
            "on": "http://bvmm.irht.cnrs.fr/iiif/23648/canvas/canvas-2283339#xywh=2597,2597,49,97", 
            "resource": {
                "@type": "cnt:ContentAsText", 
                "chars": "PRO", 
                "format": "text/plain"
            }
        }, 
        {
            "@id": "https://manifests.teklia.com/HIMANIS/JJ065A/words_annotations/FRCHANJJ_JJ065A_0001V.json/19/line", 
            "@type": "oa:Annotation", 
            "motivation": "oa:painting", 
            "on": "http://bvmm.irht.cnrs.fr/iiif/23648/canvas/canvas-2283339#xywh=1444,2688,1209,95", 
            "resource": {
                "@type": "cnt:ContentAsText", 
                "chars": "AORGE", 
                "format": "text/plain"
            }
        }, 
        {
            "@id": "https://manifests.teklia.com/HIMANIS/JJ065A/words_annotations/FRCHANJJ_JJ065A_0001V.json/20/line", 
            "@type": "oa:Annotation", 
            "motivation": "oa:painting", 
            "on": "http://bvmm.irht.cnrs.fr/iiif/23648/canvas/canvas-2283339#xywh=2851,2688,83,95", 
            "resource": {
                "@type": "cnt:ContentAsText", 
                "chars": "DON", 
                "format": "text/plain"
            }
        }, 
        {
            "@id": "https://manifests.teklia.com/HIMANIS/JJ065A/words_annotations/FRCHANJJ_JJ065A_0001V.json/21/line", 
            "@type": "oa:Annotation", 
            "motivation": "oa:painting", 
            "on": "http://bvmm.irht.cnrs.fr/iiif/23648/canvas/canvas-2283339#xywh=1327,2597,128,97", 
            "resource": {
                "@type": "cnt:ContentAsText", 
                "chars": "LARUM", 
                "format": "text/plain"
            }
        }, 
        {
            "@id": "https://manifests.teklia.com/HIMANIS/JJ065A/words_annotations/FRCHANJJ_JJ065A_0001V.json/22/line", 
            "@type": "oa:Annotation", 
            "motivation": "oa:painting", 
            "on": "http://bvmm.irht.cnrs.fr/iiif/23648/canvas/canvas-2283339#xywh=1176,1520,0,53", 
            "resource": {
                "@type": "cnt:ContentAsText", 
                "chars": "P", 
                "format": "text/plain"
            }
        }, 
        {
            "@id": "https://manifests.teklia.com/HIMANIS/JJ065A/words_annotations/FRCHANJJ_JJ065A_0001V.json/23/line", 
            "@type": "oa:Annotation", 
            "motivation": "oa:painting", 
            "on": "http://bvmm.irht.cnrs.fr/iiif/23648/canvas/canvas-2283339#xywh=2219,2597,140,97", 
            "resource": {
                "@type": "cnt:ContentAsText", 
                "chars": "CANO", 
                "format": "text/plain"
            }
        }, 
        {
            "@id": "https://manifests.teklia.com/HIMANIS/JJ065A/words_annotations/FRCHANJJ_JJ065A_0001V.json/24/line", 
            "@type": "oa:Annotation", 
            "motivation": "oa:painting", 
            "on": "http://bvmm.irht.cnrs.fr/iiif/23648/canvas/canvas-2283339#xywh=3374,3389,54,34", 
            "resource": {
                "@type": "cnt:ContentAsText", 
                "chars": "ET", 
                "format": "text/plain"
            }
        }, 
        {
            "@id": "https://manifests.teklia.com/HIMANIS/JJ065A/words_annotations/FRCHANJJ_JJ065A_0001V.json/25/line", 
            "@type": "oa:Annotation", 
            "motivation": "oa:painting", 
            "on": "http://bvmm.irht.cnrs.fr/iiif/23648/canvas/canvas-2283339#xywh=2490,0,517,107", 
            "resource": {
                "@type": "cnt:ContentAsText", 
                "chars": "ET", 
                "format": "text/plain"
            }
        }, 
        {
            "@id": "https://manifests.teklia.com/HIMANIS/JJ065A/words_annotations/FRCHANJJ_JJ065A_0001V.json/26/line", 
            "@type": "oa:Annotation", 
            "motivation": "oa:painting", 
            "on": "http://bvmm.irht.cnrs.fr/iiif/23648/canvas/canvas-2283339#xywh=1926,2597,262,97", 
            "resource": {
                "@type": "cnt:ContentAsText", 
                "chars": "DONATIS", 
                "format": "text/plain"
            }
        }, 
        {
            "@id": "https://manifests.teklia.com/HIMANIS/JJ065A/words_annotations/FRCHANJJ_JJ065A_0001V.json/27/line", 
            "@type": "oa:Annotation", 
            "motivation": "oa:painting", 
            "on": "http://bvmm.irht.cnrs.fr/iiif/23648/canvas/canvas-2283339#xywh=0,3970,407,88", 
            "resource": {
                "@type": "cnt:ContentAsText", 
                "chars": "LITTER", 
                "format": "text/plain"
            }
        }, 
        {
            "@id": "https://manifests.teklia.com/HIMANIS/JJ065A/words_annotations/FRCHANJJ_JJ065A_0001V.json/28/line", 
            "@type": "oa:Annotation", 
            "motivation": "oa:painting", 
            "on": "http://bvmm.irht.cnrs.fr/iiif/23648/canvas/canvas-2283339#xywh=7,0,1347,108", 
            "resource": {
                "@type": "cnt:ContentAsText", 
                "chars": "ET", 
                "format": "text/plain"
            }
        }, 
        {
            "@id": "https://manifests.teklia.com/HIMANIS/JJ065A/words_annotations/FRCHANJJ_JJ065A_0001V.json/29/line", 
            "@type": "oa:Annotation", 
            "motivation": "oa:painting", 
            "on": "http://bvmm.irht.cnrs.fr/iiif/23648/canvas/canvas-2283339#xywh=1926,2597,67,97", 
            "resource": {
                "@type": "cnt:ContentAsText", 
                "chars": "AB", 
                "format": "text/plain"
            }
        }, 
        {
            "@id": "https://manifests.teklia.com/HIMANIS/JJ065A/words_annotations/FRCHANJJ_JJ065A_0001V.json/30/line", 
            "@type": "oa:Annotation", 
            "motivation": "oa:painting", 
            "on": "http://bvmm.irht.cnrs.fr/iiif/23648/canvas/canvas-2283339#xywh=3374,3389,63,34", 
            "resource": {
                "@type": "cnt:ContentAsText", 
                "chars": "LES", 
                "format": "text/plain"
            }
        }, 
        {
            "@id": "https://manifests.teklia.com/HIMANIS/JJ065A/words_annotations/FRCHANJJ_JJ065A_0001V.json/31/line", 
            "@type": "oa:Annotation", 
            "motivation": "oa:painting", 
            "on": "http://bvmm.irht.cnrs.fr/iiif/23648/canvas/canvas-2283339#xywh=2670,2597,275,97", 
            "resource": {
                "@type": "cnt:ContentAsText", 
                "chars": "PROPRILIPPUS", 
                "format": "text/plain"
            }
        }, 
        {
            "@id": "https://manifests.teklia.com/HIMANIS/JJ065A/words_annotations/FRCHANJJ_JJ065A_0001V.json/32/line", 
            "@type": "oa:Annotation", 
            "motivation": "oa:painting", 
            "on": "http://bvmm.irht.cnrs.fr/iiif/23648/canvas/canvas-2283339#xywh=2670,2597,275,97", 
            "resource": {
                "@type": "cnt:ContentAsText", 
                "chars": "PROPRILIPPES", 
                "format": "text/plain"
            }
        }, 
        {
            "@id": "https://manifests.teklia.com/HIMANIS/JJ065A/words_annotations/FRCHANJJ_JJ065A_0001V.json/33/line", 
            "@type": "oa:Annotation", 
            "motivation": "oa:painting", 
            "on": "http://bvmm.irht.cnrs.fr/iiif/23648/canvas/canvas-2283339#xywh=1139,2688,96,95", 
            "resource": {
                "@type": "cnt:ContentAsText", 
                "chars": "PHILIPPUS", 
                "format": "text/plain"
            }
        }, 
        {
            "@id": "https://manifests.teklia.com/HIMANIS/JJ065A/words_annotations/FRCHANJJ_JJ065A_0001V.json/34/line", 
            "@type": "oa:Annotation", 
            "motivation": "oa:painting", 
            "on": "http://bvmm.irht.cnrs.fr/iiif/23648/canvas/canvas-2283339#xywh=1139,2688,96,95", 
            "resource": {
                "@type": "cnt:ContentAsText", 
                "chars": "PHILIPPES", 
                "format": "text/plain"
            }
        }, 
        {
            "@id": "https://manifests.teklia.com/HIMANIS/JJ065A/words_annotations/FRCHANJJ_JJ065A_0001V.json/35/line", 
            "@type": "oa:Annotation", 
            "motivation": "oa:painting", 
            "on": "http://bvmm.irht.cnrs.fr/iiif/23648/canvas/canvas-2283339#xywh=1504,2597,171,97", 
            "resource": {
                "@type": "cnt:ContentAsText", 
                "chars": "MONDIS", 
                "format": "text/plain"
            }
        }, 
        {
            "@id": "https://manifests.teklia.com/HIMANIS/JJ065A/words_annotations/FRCHANJJ_JJ065A_0001V.json/36/line", 
            "@type": "oa:Annotation", 
            "motivation": "oa:painting", 
            "on": "http://bvmm.irht.cnrs.fr/iiif/23648/canvas/canvas-2283339#xywh=2214,0,1123,107", 
            "resource": {
                "@type": "cnt:ContentAsText", 
                "chars": "LETTRE", 
                "format": "text/plain"
            }
        }, 
        {
            "@id": "https://manifests.teklia.com/HIMANIS/JJ065A/words_annotations/FRCHANJJ_JJ065A_0001V.json/37/line", 
            "@type": "oa:Annotation", 
            "motivation": "oa:painting", 
            "on": "http://bvmm.irht.cnrs.fr/iiif/23648/canvas/canvas-2283339#xywh=1504,2597,171,97", 
            "resource": {
                "@type": "cnt:ContentAsText", 
                "chars": "VOUDRE", 
                "format": "text/plain"
            }
        }, 
        {
            "@id": "https://manifests.teklia.com/HIMANIS/JJ065A/words_annotations/FRCHANJJ_JJ065A_0001V.json/38/line", 
            "@type": "oa:Annotation", 
            "motivation": "oa:painting", 
            "on": "http://bvmm.irht.cnrs.fr/iiif/23648/canvas/canvas-2283339#xywh=1150,2597,159,97", 
            "resource": {
                "@type": "cnt:ContentAsText", 
                "chars": "GAN", 
                "format": "text/plain"
            }
        }, 
        {
            "@id": "https://manifests.teklia.com/HIMANIS/JJ065A/words_annotations/FRCHANJJ_JJ065A_0001V.json/39/line", 
            "@type": "oa:Annotation", 
            "motivation": "oa:painting", 
            "on": "http://bvmm.irht.cnrs.fr/iiif/23648/canvas/canvas-2283339#xywh=77,3970,105,88", 
            "resource": {
                "@type": "cnt:ContentAsText", 
                "chars": "LA", 
                "format": "text/plain"
            }
        }, 
        {
            "@id": "https://manifests.teklia.com/HIMANIS/JJ065A/words_annotations/FRCHANJJ_JJ065A_0001V.json/40/line", 
            "@type": "oa:Annotation", 
            "motivation": "oa:painting", 
            "on": "http://bvmm.irht.cnrs.fr/iiif/23648/canvas/canvas-2283339#xywh=0,3970,0,88", 
            "resource": {
                "@type": "cnt:ContentAsText", 
                "chars": "DE", 
                "format": "text/plain"
            }
        }
    ]
}