{
    "@context": "http://iiif.io/api/presentation/2/context.json", 
    "@id": "https://manifests.teklia.com/HIMANIS/JJ065A/words_annotations/FRCHANJJ_JJ065A_0211R.json", 
    "@type": "sc:AnnotationList", 
    "resources": [
        {
            "@id": "https://manifests.teklia.com/HIMANIS/JJ065A/words_annotations/FRCHANJJ_JJ065A_0211R.json/0/line", 
            "@type": "oa:Annotation", 
            "motivation": "oa:painting", 
            "on": "http://bvmm.irht.cnrs.fr/iiif/23648/canvas/canvas-2283757#xywh=2165,530,82,145", 
            "resource": {
                "@type": "cnt:ContentAsText", 
                "chars": "LITTERIS", 
                "format": "text/plain"
            }
        }, 
        {
            "@id": "https://manifests.teklia.com/HIMANIS/JJ065A/words_annotations/FRCHANJJ_JJ065A_0211R.json/1/line", 
            "@type": "oa:Annotation", 
            "motivation": "oa:painting", 
            "on": "http://bvmm.irht.cnrs.fr/iiif/23648/canvas/canvas-2283757#xywh=619,740,68,120", 
            "resource": {
                "@type": "cnt:ContentAsText", 
                "chars": "NOSTRO", 
                "format": "text/plain"
            }
        }, 
        {
            "@id": "https://manifests.teklia.com/HIMANIS/JJ065A/words_annotations/FRCHANJJ_JJ065A_0211R.json/2/line", 
            "@type": "oa:Annotation", 
            "motivation": "oa:painting", 
            "on": "http://bvmm.irht.cnrs.fr/iiif/23648/canvas/canvas-2283757#xywh=1118,1395,237,80", 
            "resource": {
                "@type": "cnt:ContentAsText", 
                "chars": "REBRICHIERS", 
                "format": "text/plain"
            }
        }, 
        {
            "@id": "https://manifests.teklia.com/HIMANIS/JJ065A/words_annotations/FRCHANJJ_JJ065A_0211R.json/3/line", 
            "@type": "oa:Annotation", 
            "motivation": "oa:painting", 
            "on": "http://bvmm.irht.cnrs.fr/iiif/23648/canvas/canvas-2283757#xywh=2035,945,171,105", 
            "resource": {
                "@type": "cnt:ContentAsText", 
                "chars": "THAVERO", 
                "format": "text/plain"
            }
        }, 
        {
            "@id": "https://manifests.teklia.com/HIMANIS/JJ065A/words_annotations/FRCHANJJ_JJ065A_0211R.json/4/line", 
            "@type": "oa:Annotation", 
            "motivation": "oa:painting", 
            "on": "http://bvmm.irht.cnrs.fr/iiif/23648/canvas/canvas-2283757#xywh=2414,420,97,155", 
            "resource": {
                "@type": "cnt:ContentAsText", 
                "chars": "LIBRAS", 
                "format": "text/plain"
            }
        }, 
        {
            "@id": "https://manifests.teklia.com/HIMANIS/JJ065A/words_annotations/FRCHANJJ_JJ065A_0211R.json/5/line", 
            "@type": "oa:Annotation", 
            "motivation": "oa:painting", 
            "on": "http://bvmm.irht.cnrs.fr/iiif/23648/canvas/canvas-2283757#xywh=367,850,90,130", 
            "resource": {
                "@type": "cnt:ContentAsText", 
                "chars": "NOSTRUM", 
                "format": "text/plain"
            }
        }, 
        {
            "@id": "https://manifests.teklia.com/HIMANIS/JJ065A/words_annotations/FRCHANJJ_JJ065A_0211R.json/6/line", 
            "@type": "oa:Annotation", 
            "motivation": "oa:painting", 
            "on": "http://bvmm.irht.cnrs.fr/iiif/23648/canvas/canvas-2283757#xywh=670,625,135,135", 
            "resource": {
                "@type": "cnt:ContentAsText", 
                "chars": "VOLUMUS", 
                "format": "text/plain"
            }
        }, 
        {
            "@id": "https://manifests.teklia.com/HIMANIS/JJ065A/words_annotations/FRCHANJJ_JJ065A_0211R.json/7/line", 
            "@type": "oa:Annotation", 
            "motivation": "oa:painting", 
            "on": "http://bvmm.irht.cnrs.fr/iiif/23648/canvas/canvas-2283757#xywh=2483,325,68,135", 
            "resource": {
                "@type": "cnt:ContentAsText", 
                "chars": "PROPTER", 
                "format": "text/plain"
            }
        }, 
        {
            "@id": "https://manifests.teklia.com/HIMANIS/JJ065A/words_annotations/FRCHANJJ_JJ065A_0211R.json/8/line", 
            "@type": "oa:Annotation", 
            "motivation": "oa:painting", 
            "on": "http://bvmm.irht.cnrs.fr/iiif/23648/canvas/canvas-2283757#xywh=513,740,91,120", 
            "resource": {
                "@type": "cnt:ContentAsText", 
                "chars": "JURE", 
                "format": "text/plain"
            }
        }, 
        {
            "@id": "https://manifests.teklia.com/HIMANIS/JJ065A/words_annotations/FRCHANJJ_JJ065A_0211R.json/9/line", 
            "@type": "oa:Annotation", 
            "motivation": "oa:painting", 
            "on": "http://bvmm.irht.cnrs.fr/iiif/23648/canvas/canvas-2283757#xywh=1722,850,195,130", 
            "resource": {
                "@type": "cnt:ContentAsText", 
                "chars": "VICESIMO", 
                "format": "text/plain"
            }
        }, 
        {
            "@id": "https://manifests.teklia.com/HIMANIS/JJ065A/words_annotations/FRCHANJJ_JJ065A_0211R.json/10/line", 
            "@type": "oa:Annotation", 
            "motivation": "oa:painting", 
            "on": "http://bvmm.irht.cnrs.fr/iiif/23648/canvas/canvas-2283757#xywh=311,420,98,155", 
            "resource": {
                "@type": "cnt:ContentAsText", 
                "chars": "DARE", 
                "format": "text/plain"
            }
        }, 
        {
            "@id": "https://manifests.teklia.com/HIMANIS/JJ065A/words_annotations/FRCHANJJ_JJ065A_0211R.json/11/line", 
            "@type": "oa:Annotation", 
            "motivation": "oa:painting", 
            "on": "http://bvmm.irht.cnrs.fr/iiif/23648/canvas/canvas-2283757#xywh=567,1395,318,80", 
            "resource": {
                "@type": "cnt:ContentAsText", 
                "chars": "IIIJ", 
                "format": "text/plain"
            }
        }, 
        {
            "@id": "https://manifests.teklia.com/HIMANIS/JJ065A/words_annotations/FRCHANJJ_JJ065A_0211R.json/12/line", 
            "@type": "oa:Annotation", 
            "motivation": "oa:painting", 
            "on": "http://bvmm.irht.cnrs.fr/iiif/23648/canvas/canvas-2283757#xywh=0,1175,0,90", 
            "resource": {
                "@type": "cnt:ContentAsText", 
                "chars": "A", 
                "format": "text/plain"
            }
        }, 
        {
            "@id": "https://manifests.teklia.com/HIMANIS/JJ065A/words_annotations/FRCHANJJ_JJ065A_0211R.json/13/line", 
            "@type": "oa:Annotation", 
            "motivation": "oa:painting", 
            "on": "http://bvmm.irht.cnrs.fr/iiif/23648/canvas/canvas-2283757#xywh=0,1175,0,90", 
            "resource": {
                "@type": "cnt:ContentAsText", 
                "chars": "C", 
                "format": "text/plain"
            }
        }, 
        {
            "@id": "https://manifests.teklia.com/HIMANIS/JJ065A/words_annotations/FRCHANJJ_JJ065A_0211R.json/14/line", 
            "@type": "oa:Annotation", 
            "motivation": "oa:painting", 
            "on": "http://bvmm.irht.cnrs.fr/iiif/23648/canvas/canvas-2283757#xywh=1837,945,165,105", 
            "resource": {
                "@type": "cnt:ContentAsText", 
                "chars": "REDDATUR", 
                "format": "text/plain"
            }
        }, 
        {
            "@id": "https://manifests.teklia.com/HIMANIS/JJ065A/words_annotations/FRCHANJJ_JJ065A_0211R.json/15/line", 
            "@type": "oa:Annotation", 
            "motivation": "oa:painting", 
            "on": "http://bvmm.irht.cnrs.fr/iiif/23648/canvas/canvas-2283757#xywh=1837,945,165,105", 
            "resource": {
                "@type": "cnt:ContentAsText", 
                "chars": "REDDITUR", 
                "format": "text/plain"
            }
        }, 
        {
            "@id": "https://manifests.teklia.com/HIMANIS/JJ065A/words_annotations/FRCHANJJ_JJ065A_0211R.json/16/line", 
            "@type": "oa:Annotation", 
            "motivation": "oa:painting", 
            "on": "http://bvmm.irht.cnrs.fr/iiif/23648/canvas/canvas-2283757#xywh=0,1175,0,90", 
            "resource": {
                "@type": "cnt:ContentAsText", 
                "chars": "T", 
                "format": "text/plain"
            }
        }, 
        {
            "@id": "https://manifests.teklia.com/HIMANIS/JJ065A/words_annotations/FRCHANJJ_JJ065A_0211R.json/17/line", 
            "@type": "oa:Annotation", 
            "motivation": "oa:painting", 
            "on": "http://bvmm.irht.cnrs.fr/iiif/23648/canvas/canvas-2283757#xywh=931,1395,60,80", 
            "resource": {
                "@type": "cnt:ContentAsText", 
                "chars": "VI", 
                "format": "text/plain"
            }
        }, 
        {
            "@id": "https://manifests.teklia.com/HIMANIS/JJ065A/words_annotations/FRCHANJJ_JJ065A_0211R.json/18/line", 
            "@type": "oa:Annotation", 
            "motivation": "oa:painting", 
            "on": "http://bvmm.irht.cnrs.fr/iiif/23648/canvas/canvas-2283757#xywh=1777,125,127,145", 
            "resource": {
                "@type": "cnt:ContentAsText", 
                "chars": "VIGILLA", 
                "format": "text/plain"
            }
        }, 
        {
            "@id": "https://manifests.teklia.com/HIMANIS/JJ065A/words_annotations/FRCHANJJ_JJ065A_0211R.json/19/line", 
            "@type": "oa:Annotation", 
            "motivation": "oa:painting", 
            "on": "http://bvmm.irht.cnrs.fr/iiif/23648/canvas/canvas-2283757#xywh=793,125,118,145", 
            "resource": {
                "@type": "cnt:ContentAsText", 
                "chars": "ANNO", 
                "format": "text/plain"
            }
        }, 
        {
            "@id": "https://manifests.teklia.com/HIMANIS/JJ065A/words_annotations/FRCHANJJ_JJ065A_0211R.json/20/line", 
            "@type": "oa:Annotation", 
            "motivation": "oa:painting", 
            "on": "http://bvmm.irht.cnrs.fr/iiif/23648/canvas/canvas-2283757#xywh=2211,245,196,125", 
            "resource": {
                "@type": "cnt:ContentAsText", 
                "chars": "RELIGIOSIS", 
                "format": "text/plain"
            }
        }, 
        {
            "@id": "https://manifests.teklia.com/HIMANIS/JJ065A/words_annotations/FRCHANJJ_JJ065A_0211R.json/21/line", 
            "@type": "oa:Annotation", 
            "motivation": "oa:painting", 
            "on": "http://bvmm.irht.cnrs.fr/iiif/23648/canvas/canvas-2283757#xywh=407,740,84,120", 
            "resource": {
                "@type": "cnt:ContentAsText", 
                "chars": "ALIIS", 
                "format": "text/plain"
            }
        }, 
        {
            "@id": "https://manifests.teklia.com/HIMANIS/JJ065A/words_annotations/FRCHANJJ_JJ065A_0211R.json/22/line", 
            "@type": "oa:Annotation", 
            "motivation": "oa:painting", 
            "on": "http://bvmm.irht.cnrs.fr/iiif/23648/canvas/canvas-2283757#xywh=1772,625,169,135", 
            "resource": {
                "@type": "cnt:ContentAsText", 
                "chars": "SCIENCIA", 
                "format": "text/plain"
            }
        }, 
        {
            "@id": "https://manifests.teklia.com/HIMANIS/JJ065A/words_annotations/FRCHANJJ_JJ065A_0211R.json/23/line", 
            "@type": "oa:Annotation", 
            "motivation": "oa:painting", 
            "on": "http://bvmm.irht.cnrs.fr/iiif/23648/canvas/canvas-2283757#xywh=585,625,59,135", 
            "resource": {
                "@type": "cnt:ContentAsText", 
                "chars": "EAS", 
                "format": "text/plain"
            }
        }, 
        {
            "@id": "https://manifests.teklia.com/HIMANIS/JJ065A/words_annotations/FRCHANJJ_JJ065A_0211R.json/24/line", 
            "@type": "oa:Annotation", 
            "motivation": "oa:painting", 
            "on": "http://bvmm.irht.cnrs.fr/iiif/23648/canvas/canvas-2283757#xywh=1363,420,136,155", 
            "resource": {
                "@type": "cnt:ContentAsText", 
                "chars": "ANNUERE", 
                "format": "text/plain"
            }
        }, 
        {
            "@id": "https://manifests.teklia.com/HIMANIS/JJ065A/words_annotations/FRCHANJJ_JJ065A_0211R.json/25/line", 
            "@type": "oa:Annotation", 
            "motivation": "oa:painting", 
            "on": "http://bvmm.irht.cnrs.fr/iiif/23648/canvas/canvas-2283757#xywh=282,530,191,145", 
            "resource": {
                "@type": "cnt:ContentAsText", 
                "chars": "CHESAURO", 
                "format": "text/plain"
            }
        }, 
        {
            "@id": "https://manifests.teklia.com/HIMANIS/JJ065A/words_annotations/FRCHANJJ_JJ065A_0211R.json/26/line", 
            "@type": "oa:Annotation", 
            "motivation": "oa:painting", 
            "on": "http://bvmm.irht.cnrs.fr/iiif/23648/canvas/canvas-2283757#xywh=2005,420,87,155", 
            "resource": {
                "@type": "cnt:ContentAsText", 
                "chars": "DICTIS", 
                "format": "text/plain"
            }
        }, 
        {
            "@id": "https://manifests.teklia.com/HIMANIS/JJ065A/words_annotations/FRCHANJJ_JJ065A_0211R.json/27/line", 
            "@type": "oa:Annotation", 
            "motivation": "oa:painting", 
            "on": "http://bvmm.irht.cnrs.fr/iiif/23648/canvas/canvas-2283757#xywh=1221,125,45,145", 
            "resource": {
                "@type": "cnt:ContentAsText", 
                "chars": "CCC", 
                "format": "text/plain"
            }
        }, 
        {
            "@id": "https://manifests.teklia.com/HIMANIS/JJ065A/words_annotations/FRCHANJJ_JJ065A_0211R.json/28/line", 
            "@type": "oa:Annotation", 
            "motivation": "oa:painting", 
            "on": "http://bvmm.irht.cnrs.fr/iiif/23648/canvas/canvas-2283757#xywh=2166,0,1079,120", 
            "resource": {
                "@type": "cnt:ContentAsText", 
                "chars": "CE", 
                "format": "text/plain"
            }
        }, 
        {
            "@id": "https://manifests.teklia.com/HIMANIS/JJ065A/words_annotations/FRCHANJJ_JJ065A_0211R.json/29/line", 
            "@type": "oa:Annotation", 
            "motivation": "oa:painting", 
            "on": "http://bvmm.irht.cnrs.fr/iiif/23648/canvas/canvas-2283757#xywh=490,850,122,130", 
            "resource": {
                "@type": "cnt:ContentAsText", 
                "chars": "FECIMUS", 
                "format": "text/plain"
            }
        }, 
        {
            "@id": "https://manifests.teklia.com/HIMANIS/JJ065A/words_annotations/FRCHANJJ_JJ065A_0211R.json/30/line", 
            "@type": "oa:Annotation", 
            "motivation": "oa:painting", 
            "on": "http://bvmm.irht.cnrs.fr/iiif/23648/canvas/canvas-2283757#xywh=2122,420,262,155", 
            "resource": {
                "@type": "cnt:ContentAsText", 
                "chars": "QUINQUAGINTA", 
                "format": "text/plain"
            }
        }, 
        {
            "@id": "https://manifests.teklia.com/HIMANIS/JJ065A/words_annotations/FRCHANJJ_JJ065A_0211R.json/31/line", 
            "@type": "oa:Annotation", 
            "motivation": "oa:painting", 
            "on": "http://bvmm.irht.cnrs.fr/iiif/23648/canvas/canvas-2283757#xywh=491,530,82,145", 
            "resource": {
                "@type": "cnt:ContentAsText", 
                "chars": "NOSTRO", 
                "format": "text/plain"
            }
        }, 
        {
            "@id": "https://manifests.teklia.com/HIMANIS/JJ065A/words_annotations/FRCHANJJ_JJ065A_0211R.json/32/line", 
            "@type": "oa:Annotation", 
            "motivation": "oa:painting", 
            "on": "http://bvmm.irht.cnrs.fr/iiif/23648/canvas/canvas-2283757#xywh=1883,530,255,145", 
            "resource": {
                "@type": "cnt:ContentAsText", 
                "chars": "SUPRASCRIPTIS", 
                "format": "text/plain"
            }
        }, 
        {
            "@id": "https://manifests.teklia.com/HIMANIS/JJ065A/words_annotations/FRCHANJJ_JJ065A_0211R.json/33/line", 
            "@type": "oa:Annotation", 
            "motivation": "oa:painting", 
            "on": "http://bvmm.irht.cnrs.fr/iiif/23648/canvas/canvas-2283757#xywh=1715,245,173,125", 
            "resource": {
                "@type": "cnt:ContentAsText", 
                "chars": "LIBERTATEM", 
                "format": "text/plain"
            }
        }, 
        {
            "@id": "https://manifests.teklia.com/HIMANIS/JJ065A/words_annotations/FRCHANJJ_JJ065A_0211R.json/34/line", 
            "@type": "oa:Annotation", 
            "motivation": "oa:painting", 
            "on": "http://bvmm.irht.cnrs.fr/iiif/23648/canvas/canvas-2283757#xywh=0,1175,82,90", 
            "resource": {
                "@type": "cnt:ContentAsText", 
                "chars": "AC", 
                "format": "text/plain"
            }
        }, 
        {
            "@id": "https://manifests.teklia.com/HIMANIS/JJ065A/words_annotations/FRCHANJJ_JJ065A_0211R.json/35/line", 
            "@type": "oa:Annotation", 
            "motivation": "oa:painting", 
            "on": "http://bvmm.irht.cnrs.fr/iiif/23648/canvas/canvas-2283757#xywh=1820,420,88,155", 
            "resource": {
                "@type": "cnt:ContentAsText", 
                "chars": "FACTA", 
                "format": "text/plain"
            }
        }, 
        {
            "@id": "https://manifests.teklia.com/HIMANIS/JJ065A/words_annotations/FRCHANJJ_JJ065A_0211R.json/36/line", 
            "@type": "oa:Annotation", 
            "motivation": "oa:painting", 
            "on": "http://bvmm.irht.cnrs.fr/iiif/23648/canvas/canvas-2283757#xywh=1363,420,136,155", 
            "resource": {
                "@type": "cnt:ContentAsText", 
                "chars": "ANNUERRE", 
                "format": "text/plain"
            }
        }, 
        {
            "@id": "https://manifests.teklia.com/HIMANIS/JJ065A/words_annotations/FRCHANJJ_JJ065A_0211R.json/37/line", 
            "@type": "oa:Annotation", 
            "motivation": "oa:painting", 
            "on": "http://bvmm.irht.cnrs.fr/iiif/23648/canvas/canvas-2283757#xywh=196,740,136,120", 
            "resource": {
                "@type": "cnt:ContentAsText", 
                "chars": "SALVO", 
                "format": "text/plain"
            }
        }, 
        {
            "@id": "https://manifests.teklia.com/HIMANIS/JJ065A/words_annotations/FRCHANJJ_JJ065A_0211R.json/38/line", 
            "@type": "oa:Annotation", 
            "motivation": "oa:painting", 
            "on": "http://bvmm.irht.cnrs.fr/iiif/23648/canvas/canvas-2283757#xywh=9,125,346,145", 
            "resource": {
                "@type": "cnt:ContentAsText", 
                "chars": "DUXIMUS", 
                "format": "text/plain"
            }
        }, 
        {
            "@id": "https://manifests.teklia.com/HIMANIS/JJ065A/words_annotations/FRCHANJJ_JJ065A_0211R.json/39/line", 
            "@type": "oa:Annotation", 
            "motivation": "oa:painting", 
            "on": "http://bvmm.irht.cnrs.fr/iiif/23648/canvas/canvas-2283757#xywh=791,850,164,130", 
            "resource": {
                "@type": "cnt:ContentAsText", 
                "chars": "SIGILLUM", 
                "format": "text/plain"
            }
        }, 
        {
            "@id": "https://manifests.teklia.com/HIMANIS/JJ065A/words_annotations/FRCHANJJ_JJ065A_0211R.json/40/line", 
            "@type": "oa:Annotation", 
            "motivation": "oa:painting", 
            "on": "http://bvmm.irht.cnrs.fr/iiif/23648/canvas/canvas-2283757#xywh=2331,625,263,135", 
            "resource": {
                "@type": "cnt:ContentAsText", 
                "chars": "CONFIRMAMUS", 
                "format": "text/plain"
            }
        }, 
        {
            "@id": "https://manifests.teklia.com/HIMANIS/JJ065A/words_annotations/FRCHANJJ_JJ065A_0211R.json/41/line", 
            "@type": "oa:Annotation", 
            "motivation": "oa:painting", 
            "on": "http://bvmm.irht.cnrs.fr/iiif/23648/canvas/canvas-2283757#xywh=3176,860,69,85", 
            "resource": {
                "@type": "cnt:ContentAsText", 
                "chars": "NOSTR", 
                "format": "text/plain"
            }
        }, 
        {
            "@id": "https://manifests.teklia.com/HIMANIS/JJ065A/words_annotations/FRCHANJJ_JJ065A_0211R.json/42/line", 
            "@type": "oa:Annotation", 
            "motivation": "oa:painting", 
            "on": "http://bvmm.irht.cnrs.fr/iiif/23648/canvas/canvas-2283757#xywh=975,325,246,135", 
            "resource": {
                "@type": "cnt:ContentAsText", 
                "chars": "BENIGNITATE", 
                "format": "text/plain"
            }
        }, 
        {
            "@id": "https://manifests.teklia.com/HIMANIS/JJ065A/words_annotations/FRCHANJJ_JJ065A_0211R.json/43/line", 
            "@type": "oa:Annotation", 
            "motivation": "oa:painting", 
            "on": "http://bvmm.irht.cnrs.fr/iiif/23648/canvas/canvas-2283757#xywh=1430,125,82,145", 
            "resource": {
                "@type": "cnt:ContentAsText", 
                "chars": "DIE", 
                "format": "text/plain"
            }
        }, 
        {
            "@id": "https://manifests.teklia.com/HIMANIS/JJ065A/words_annotations/FRCHANJJ_JJ065A_0211R.json/44/line", 
            "@type": "oa:Annotation", 
            "motivation": "oa:painting", 
            "on": "http://bvmm.irht.cnrs.fr/iiif/23648/canvas/canvas-2283757#xywh=472,245,149,125", 
            "resource": {
                "@type": "cnt:ContentAsText", 
                "chars": "GREMER", 
                "format": "text/plain"
            }
        }, 
        {
            "@id": "https://manifests.teklia.com/HIMANIS/JJ065A/words_annotations/FRCHANJJ_JJ065A_0211R.json/45/line", 
            "@type": "oa:Annotation", 
            "motivation": "oa:painting", 
            "on": "http://bvmm.irht.cnrs.fr/iiif/23648/canvas/canvas-2283757#xywh=2293,850,147,130", 
            "resource": {
                "@type": "cnt:ContentAsText", 
                "chars": "OCTOBRE", 
                "format": "text/plain"
            }
        }, 
        {
            "@id": "https://manifests.teklia.com/HIMANIS/JJ065A/words_annotations/FRCHANJJ_JJ065A_0211R.json/46/line", 
            "@type": "oa:Annotation", 
            "motivation": "oa:painting", 
            "on": "http://bvmm.irht.cnrs.fr/iiif/23648/canvas/canvas-2283757#xywh=487,420,77,155", 
            "resource": {
                "@type": "cnt:ContentAsText", 
                "chars": "NOS", 
                "format": "text/plain"
            }
        }, 
        {
            "@id": "https://manifests.teklia.com/HIMANIS/JJ065A/words_annotations/FRCHANJJ_JJ065A_0211R.json/47/line", 
            "@type": "oa:Annotation", 
            "motivation": "oa:painting", 
            "on": "http://bvmm.irht.cnrs.fr/iiif/23648/canvas/canvas-2283757#xywh=1328,740,113,120", 
            "resource": {
                "@type": "cnt:ContentAsText", 
                "chars": "QUOD", 
                "format": "text/plain"
            }
        }, 
        {
            "@id": "https://manifests.teklia.com/HIMANIS/JJ065A/words_annotations/FRCHANJJ_JJ065A_0211R.json/48/line", 
            "@type": "oa:Annotation", 
            "motivation": "oa:painting", 
            "on": "http://bvmm.irht.cnrs.fr/iiif/23648/canvas/canvas-2283757#xywh=1039,125,145,145", 
            "resource": {
                "@type": "cnt:ContentAsText", 
                "chars": "MILLESIMO", 
                "format": "text/plain"
            }
        }, 
        {
            "@id": "https://manifests.teklia.com/HIMANIS/JJ065A/words_annotations/FRCHANJJ_JJ065A_0211R.json/49/line", 
            "@type": "oa:Annotation", 
            "motivation": "oa:painting", 
            "on": "http://bvmm.irht.cnrs.fr/iiif/23648/canvas/canvas-2283757#xywh=636,850,139,130", 
            "resource": {
                "@type": "cnt:ContentAsText", 
                "chars": "APPONI", 
                "format": "text/plain"
            }
        }, 
        {
            "@id": "https://manifests.teklia.com/HIMANIS/JJ065A/words_annotations/FRCHANJJ_JJ065A_0211R.json/50/line", 
            "@type": "oa:Annotation", 
            "motivation": "oa:painting", 
            "on": "http://bvmm.irht.cnrs.fr/iiif/23648/canvas/canvas-2283757#xywh=1924,325,288,135", 
            "resource": {
                "@type": "cnt:ContentAsText", 
                "chars": "QUINQUAGINTA", 
                "format": "text/plain"
            }
        }, 
        {
            "@id": "https://manifests.teklia.com/HIMANIS/JJ065A/words_annotations/FRCHANJJ_JJ065A_0211R.json/51/line", 
            "@type": "oa:Annotation", 
            "motivation": "oa:painting", 
            "on": "http://bvmm.irht.cnrs.fr/iiif/23648/canvas/canvas-2283757#xywh=1174,530,172,145", 
            "resource": {
                "@type": "cnt:ContentAsText", 
                "chars": "LIBERTATEM", 
                "format": "text/plain"
            }
        }, 
        {
            "@id": "https://manifests.teklia.com/HIMANIS/JJ065A/words_annotations/FRCHANJJ_JJ065A_0211R.json/52/line", 
            "@type": "oa:Annotation", 
            "motivation": "oa:painting", 
            "on": "http://bvmm.irht.cnrs.fr/iiif/23648/canvas/canvas-2283757#xywh=2378,945,92,105", 
            "resource": {
                "@type": "cnt:ContentAsText", 
                "chars": "ALIBUS", 
                "format": "text/plain"
            }
        }, 
        {
            "@id": "https://manifests.teklia.com/HIMANIS/JJ065A/words_annotations/FRCHANJJ_JJ065A_0211R.json/53/line", 
            "@type": "oa:Annotation", 
            "motivation": "oa:painting", 
            "on": "http://bvmm.irht.cnrs.fr/iiif/23648/canvas/canvas-2283757#xywh=2378,945,85,105", 
            "resource": {
                "@type": "cnt:ContentAsText", 
                "chars": "ALIIS", 
                "format": "text/plain"
            }
        }, 
        {
            "@id": "https://manifests.teklia.com/HIMANIS/JJ065A/words_annotations/FRCHANJJ_JJ065A_0211R.json/54/line", 
            "@type": "oa:Annotation", 
            "motivation": "oa:painting", 
            "on": "http://bvmm.irht.cnrs.fr/iiif/23648/canvas/canvas-2283757#xywh=0,0,860,120", 
            "resource": {
                "@type": "cnt:ContentAsText", 
                "chars": "JEHAN", 
                "format": "text/plain"
            }
        }, 
        {
            "@id": "https://manifests.teklia.com/HIMANIS/JJ065A/words_annotations/FRCHANJJ_JJ065A_0211R.json/55/line", 
            "@type": "oa:Annotation", 
            "motivation": "oa:painting", 
            "on": "http://bvmm.irht.cnrs.fr/iiif/23648/canvas/canvas-2283757#xywh=1159,850,114,130", 
            "resource": {
                "@type": "cnt:ContentAsText", 
                "chars": "PARISIUS", 
                "format": "text/plain"
            }
        }, 
        {
            "@id": "https://manifests.teklia.com/HIMANIS/JJ065A/words_annotations/FRCHANJJ_JJ065A_0211R.json/56/line", 
            "@type": "oa:Annotation", 
            "motivation": "oa:painting", 
            "on": "http://bvmm.irht.cnrs.fr/iiif/23648/canvas/canvas-2283757#xywh=1777,125,127,145", 
            "resource": {
                "@type": "cnt:ContentAsText", 
                "chars": "VIGILIA", 
                "format": "text/plain"
            }
        }, 
        {
            "@id": "https://manifests.teklia.com/HIMANIS/JJ065A/words_annotations/FRCHANJJ_JJ065A_0211R.json/57/line", 
            "@type": "oa:Annotation", 
            "motivation": "oa:painting", 
            "on": "http://bvmm.irht.cnrs.fr/iiif/23648/canvas/canvas-2283757#xywh=1383,530,155,145", 
            "resource": {
                "@type": "cnt:ContentAsText", 
                "chars": "PREDICTAS", 
                "format": "text/plain"
            }
        }, 
        {
            "@id": "https://manifests.teklia.com/HIMANIS/JJ065A/words_annotations/FRCHANJJ_JJ065A_0211R.json/58/line", 
            "@type": "oa:Annotation", 
            "motivation": "oa:painting", 
            "on": "http://bvmm.irht.cnrs.fr/iiif/23648/canvas/canvas-2283757#xywh=3176,860,11,85", 
            "resource": {
                "@type": "cnt:ContentAsText", 
                "chars": "LES", 
                "format": "text/plain"
            }
        }, 
        {
            "@id": "https://manifests.teklia.com/HIMANIS/JJ065A/words_annotations/FRCHANJJ_JJ065A_0211R.json/59/line", 
            "@type": "oa:Annotation", 
            "motivation": "oa:painting", 
            "on": "http://bvmm.irht.cnrs.fr/iiif/23648/canvas/canvas-2283757#xywh=2035,945,158,105", 
            "resource": {
                "@type": "cnt:ContentAsText", 
                "chars": "THAURO", 
                "format": "text/plain"
            }
        }, 
        {
            "@id": "https://manifests.teklia.com/HIMANIS/JJ065A/words_annotations/FRCHANJJ_JJ065A_0211R.json/60/line", 
            "@type": "oa:Annotation", 
            "motivation": "oa:painting", 
            "on": "http://bvmm.irht.cnrs.fr/iiif/23648/canvas/canvas-2283757#xywh=873,325,76,135", 
            "resource": {
                "@type": "cnt:ContentAsText", 
                "chars": "NOSTRA", 
                "format": "text/plain"
            }
        }, 
        {
            "@id": "https://manifests.teklia.com/HIMANIS/JJ065A/words_annotations/FRCHANJJ_JJ065A_0211R.json/61/line", 
            "@type": "oa:Annotation", 
            "motivation": "oa:painting", 
            "on": "http://bvmm.irht.cnrs.fr/iiif/23648/canvas/canvas-2283757#xywh=1305,850,106,130", 
            "resource": {
                "@type": "cnt:ContentAsText", 
                "chars": "ANNO", 
                "format": "text/plain"
            }
        }, 
        {
            "@id": "https://manifests.teklia.com/HIMANIS/JJ065A/words_annotations/FRCHANJJ_JJ065A_0211R.json/62/line", 
            "@type": "oa:Annotation", 
            "motivation": "oa:painting", 
            "on": "http://bvmm.irht.cnrs.fr/iiif/23648/canvas/canvas-2283757#xywh=1946,420,39,155", 
            "resource": {
                "@type": "cnt:ContentAsText", 
                "chars": "DE", 
                "format": "text/plain"
            }
        }, 
        {
            "@id": "https://manifests.teklia.com/HIMANIS/JJ065A/words_annotations/FRCHANJJ_JJ065A_0211R.json/63/line", 
            "@type": "oa:Annotation", 
            "motivation": "oa:painting", 
            "on": "http://bvmm.irht.cnrs.fr/iiif/23648/canvas/canvas-2283757#xywh=253,850,90,130", 
            "resource": {
                "@type": "cnt:ContentAsText", 
                "chars": "LITTERIS", 
                "format": "text/plain"
            }
        }, 
        {
            "@id": "https://manifests.teklia.com/HIMANIS/JJ065A/words_annotations/FRCHANJJ_JJ065A_0211R.json/64/line", 
            "@type": "oa:Annotation", 
            "motivation": "oa:painting", 
            "on": "http://bvmm.irht.cnrs.fr/iiif/23648/canvas/canvas-2283757#xywh=954,420,185,155", 
            "resource": {
                "@type": "cnt:ContentAsText", 
                "chars": "BENIGUEIT", 
                "format": "text/plain"
            }
        }, 
        {
            "@id": "https://manifests.teklia.com/HIMANIS/JJ065A/words_annotations/FRCHANJJ_JJ065A_0211R.json/65/line", 
            "@type": "oa:Annotation", 
            "motivation": "oa:painting", 
            "on": "http://bvmm.irht.cnrs.fr/iiif/23648/canvas/canvas-2283757#xywh=683,125,82,145", 
            "resource": {
                "@type": "cnt:ContentAsText", 
                "chars": "DATUM", 
                "format": "text/plain"
            }
        }, 
        {
            "@id": "https://manifests.teklia.com/HIMANIS/JJ065A/words_annotations/FRCHANJJ_JJ065A_0211R.json/66/line", 
            "@type": "oa:Annotation", 
            "motivation": "oa:painting", 
            "on": "http://bvmm.irht.cnrs.fr/iiif/23648/canvas/canvas-2283757#xywh=958,0,1042,120", 
            "resource": {
                "@type": "cnt:ContentAsText", 
                "chars": "HOC", 
                "format": "text/plain"
            }
        }, 
        {
            "@id": "https://manifests.teklia.com/HIMANIS/JJ065A/words_annotations/FRCHANJJ_JJ065A_0211R.json/67/line", 
            "@type": "oa:Annotation", 
            "motivation": "oa:painting", 
            "on": "http://bvmm.irht.cnrs.fr/iiif/23648/canvas/canvas-2283757#xywh=906,0,30,120", 
            "resource": {
                "@type": "cnt:ContentAsText", 
                "chars": "DE", 
                "format": "text/plain"
            }
        }, 
        {
            "@id": "https://manifests.teklia.com/HIMANIS/JJ065A/words_annotations/FRCHANJJ_JJ065A_0211R.json/68/line", 
            "@type": "oa:Annotation", 
            "motivation": "oa:painting", 
            "on": "http://bvmm.irht.cnrs.fr/iiif/23648/canvas/canvas-2283757#xywh=652,1365,0,45", 
            "resource": {
                "@type": "cnt:ContentAsText", 
                "chars": "J", 
                "format": "text/plain"
            }
        }, 
        {
            "@id": "https://manifests.teklia.com/HIMANIS/JJ065A/words_annotations/FRCHANJJ_JJ065A_0211R.json/69/line", 
            "@type": "oa:Annotation", 
            "motivation": "oa:painting", 
            "on": "http://bvmm.irht.cnrs.fr/iiif/23648/canvas/canvas-2283757#xywh=1540,125,164,145", 
            "resource": {
                "@type": "cnt:ContentAsText", 
                "chars": "MERCURII", 
                "format": "text/plain"
            }
        }, 
        {
            "@id": "https://manifests.teklia.com/HIMANIS/JJ065A/words_annotations/FRCHANJJ_JJ065A_0211R.json/70/line", 
            "@type": "oa:Annotation", 
            "motivation": "oa:painting", 
            "on": "http://bvmm.irht.cnrs.fr/iiif/23648/canvas/canvas-2283757#xywh=968,245,220,125", 
            "resource": {
                "@type": "cnt:ContentAsText", 
                "chars": "SUPPLICAVERIT", 
                "format": "text/plain"
            }
        }, 
        {
            "@id": "https://manifests.teklia.com/HIMANIS/JJ065A/words_annotations/FRCHANJJ_JJ065A_0211R.json/71/line", 
            "@type": "oa:Annotation", 
            "motivation": "oa:painting", 
            "on": "http://bvmm.irht.cnrs.fr/iiif/23648/canvas/canvas-2283757#xywh=814,325,42,135", 
            "resource": {
                "@type": "cnt:ContentAsText", 
                "chars": "DE", 
                "format": "text/plain"
            }
        }, 
        {
            "@id": "https://manifests.teklia.com/HIMANIS/JJ065A/words_annotations/FRCHANJJ_JJ065A_0211R.json/72/line", 
            "@type": "oa:Annotation", 
            "motivation": "oa:painting", 
            "on": "http://bvmm.irht.cnrs.fr/iiif/23648/canvas/canvas-2283757#xywh=584,420,243,155", 
            "resource": {
                "@type": "cnt:ContentAsText", 
                "chars": "SUPPLICATIONI", 
                "format": "text/plain"
            }
        }, 
        {
            "@id": "https://manifests.teklia.com/HIMANIS/JJ065A/words_annotations/FRCHANJJ_JJ065A_0211R.json/73/line", 
            "@type": "oa:Annotation", 
            "motivation": "oa:painting", 
            "on": "http://bvmm.irht.cnrs.fr/iiif/23648/canvas/canvas-2283757#xywh=370,245,86,125", 
            "resource": {
                "@type": "cnt:ContentAsText", 
                "chars": "DICTUS", 
                "format": "text/plain"
            }
        }, 
        {
            "@id": "https://manifests.teklia.com/HIMANIS/JJ065A/words_annotations/FRCHANJJ_JJ065A_0211R.json/74/line", 
            "@type": "oa:Annotation", 
            "motivation": "oa:painting", 
            "on": "http://bvmm.irht.cnrs.fr/iiif/23648/canvas/canvas-2283757#xywh=2108,245,79,125", 
            "resource": {
                "@type": "cnt:ContentAsText", 
                "chars": "DICTIS", 
                "format": "text/plain"
            }
        }, 
        {
            "@id": "https://manifests.teklia.com/HIMANIS/JJ065A/words_annotations/FRCHANJJ_JJ065A_0211R.json/75/line", 
            "@type": "oa:Annotation", 
            "motivation": "oa:painting", 
            "on": "http://bvmm.irht.cnrs.fr/iiif/23648/canvas/canvas-2283757#xywh=1665,530,136,145", 
            "resource": {
                "@type": "cnt:ContentAsText", 
                "chars": "OMNIBUS", 
                "format": "text/plain"
            }
        }, 
        {
            "@id": "https://manifests.teklia.com/HIMANIS/JJ065A/words_annotations/FRCHANJJ_JJ065A_0211R.json/76/line", 
            "@type": "oa:Annotation", 
            "motivation": "oa:painting", 
            "on": "http://bvmm.irht.cnrs.fr/iiif/23648/canvas/canvas-2283757#xywh=1428,850,98,130", 
            "resource": {
                "@type": "cnt:ContentAsText", 
                "chars": "DOMINI", 
                "format": "text/plain"
            }
        }, 
        {
            "@id": "https://manifests.teklia.com/HIMANIS/JJ065A/words_annotations/FRCHANJJ_JJ065A_0211R.json/77/line", 
            "@type": "oa:Annotation", 
            "motivation": "oa:painting", 
            "on": "http://bvmm.irht.cnrs.fr/iiif/23648/canvas/canvas-2283757#xywh=2378,945,66,105", 
            "resource": {
                "@type": "cnt:ContentAsText", 
                "chars": "ALIA", 
                "format": "text/plain"
            }
        }, 
        {
            "@id": "https://manifests.teklia.com/HIMANIS/JJ065A/words_annotations/FRCHANJJ_JJ065A_0211R.json/78/line", 
            "@type": "oa:Annotation", 
            "motivation": "oa:painting", 
            "on": "http://bvmm.irht.cnrs.fr/iiif/23648/canvas/canvas-2283757#xywh=2064,1059,89,75", 
            "resource": {
                "@type": "cnt:ContentAsText", 
                "chars": "CELLE", 
                "format": "text/plain"
            }
        }, 
        {
            "@id": "https://manifests.teklia.com/HIMANIS/JJ065A/words_annotations/FRCHANJJ_JJ065A_0211R.json/79/line", 
            "@type": "oa:Annotation", 
            "motivation": "oa:painting", 
            "on": "http://bvmm.irht.cnrs.fr/iiif/23648/canvas/canvas-2283757#xywh=2064,1059,85,75", 
            "resource": {
                "@type": "cnt:ContentAsText", 
                "chars": "CALLO", 
                "format": "text/plain"
            }
        }, 
        {
            "@id": "https://manifests.teklia.com/HIMANIS/JJ065A/words_annotations/FRCHANJJ_JJ065A_0211R.json/80/line", 
            "@type": "oa:Annotation", 
            "motivation": "oa:painting", 
            "on": "http://bvmm.irht.cnrs.fr/iiif/23648/canvas/canvas-2283757#xywh=1118,1395,237,80", 
            "resource": {
                "@type": "cnt:ContentAsText", 
                "chars": "REBRICIERS", 
                "format": "text/plain"
            }
        }, 
        {
            "@id": "https://manifests.teklia.com/HIMANIS/JJ065A/words_annotations/FRCHANJJ_JJ065A_0211R.json/81/line", 
            "@type": "oa:Annotation", 
            "motivation": "oa:painting", 
            "on": "http://bvmm.irht.cnrs.fr/iiif/23648/canvas/canvas-2283757#xywh=383,125,209,145", 
            "resource": {
                "@type": "cnt:ContentAsText", 
                "chars": "APPONENDA", 
                "format": "text/plain"
            }
        }, 
        {
            "@id": "https://manifests.teklia.com/HIMANIS/JJ065A/words_annotations/FRCHANJJ_JJ065A_0211R.json/82/line", 
            "@type": "oa:Annotation", 
            "motivation": "oa:painting", 
            "on": "http://bvmm.irht.cnrs.fr/iiif/23648/canvas/canvas-2283757#xywh=996,1395,81,80", 
            "resource": {
                "@type": "cnt:ContentAsText", 
                "chars": "LITTERES", 
                "format": "text/plain"
            }
        }, 
        {
            "@id": "https://manifests.teklia.com/HIMANIS/JJ065A/words_annotations/FRCHANJJ_JJ065A_0211R.json/83/line", 
            "@type": "oa:Annotation", 
            "motivation": "oa:painting", 
            "on": "http://bvmm.irht.cnrs.fr/iiif/23648/canvas/canvas-2283757#xywh=2064,1059,80,75", 
            "resource": {
                "@type": "cnt:ContentAsText", 
                "chars": "COLLA", 
                "format": "text/plain"
            }
        }, 
        {
            "@id": "https://manifests.teklia.com/HIMANIS/JJ065A/words_annotations/FRCHANJJ_JJ065A_0211R.json/84/line", 
            "@type": "oa:Annotation", 
            "motivation": "oa:painting", 
            "on": "http://bvmm.irht.cnrs.fr/iiif/23648/canvas/canvas-2283757#xywh=855,960,28,90", 
            "resource": {
                "@type": "cnt:ContentAsText", 
                "chars": "PER", 
                "format": "text/plain"
            }
        }, 
        {
            "@id": "https://manifests.teklia.com/HIMANIS/JJ065A/words_annotations/FRCHANJJ_JJ065A_0211R.json/85/line", 
            "@type": "oa:Annotation", 
            "motivation": "oa:painting", 
            "on": "http://bvmm.irht.cnrs.fr/iiif/23648/canvas/canvas-2283757#xywh=2035,945,171,105", 
            "resource": {
                "@type": "cnt:ContentAsText", 
                "chars": "CHAVERO", 
                "format": "text/plain"
            }
        }, 
        {
            "@id": "https://manifests.teklia.com/HIMANIS/JJ065A/words_annotations/FRCHANJJ_JJ065A_0211R.json/86/line", 
            "@type": "oa:Annotation", 
            "motivation": "oa:painting", 
            "on": "http://bvmm.irht.cnrs.fr/iiif/23648/canvas/canvas-2283757#xywh=1118,1395,247,80", 
            "resource": {
                "@type": "cnt:ContentAsText", 
                "chars": "REBRICHIES", 
                "format": "text/plain"
            }
        }, 
        {
            "@id": "https://manifests.teklia.com/HIMANIS/JJ065A/words_annotations/FRCHANJJ_JJ065A_0211R.json/87/line", 
            "@type": "oa:Annotation", 
            "motivation": "oa:painting", 
            "on": "http://bvmm.irht.cnrs.fr/iiif/23648/canvas/canvas-2283757#xywh=1704,325,152,135", 
            "resource": {
                "@type": "cnt:ContentAsText", 
                "chars": "OFFERENS", 
                "format": "text/plain"
            }
        }, 
        {
            "@id": "https://manifests.teklia.com/HIMANIS/JJ065A/words_annotations/FRCHANJJ_JJ065A_0211R.json/88/line", 
            "@type": "oa:Annotation", 
            "motivation": "oa:painting", 
            "on": "http://bvmm.irht.cnrs.fr/iiif/23648/canvas/canvas-2283757#xywh=2568,325,51,135", 
            "resource": {
                "@type": "cnt:ContentAsText", 
                "chars": "HOC", 
                "format": "text/plain"
            }
        }, 
        {
            "@id": "https://manifests.teklia.com/HIMANIS/JJ065A/words_annotations/FRCHANJJ_JJ065A_0211R.json/89/line", 
            "@type": "oa:Annotation", 
            "motivation": "oa:painting", 
            "on": "http://bvmm.irht.cnrs.fr/iiif/23648/canvas/canvas-2283757#xywh=2293,850,138,130", 
            "resource": {
                "@type": "cnt:ContentAsText", 
                "chars": "OCTOBRIS", 
                "format": "text/plain"
            }
        }, 
        {
            "@id": "https://manifests.teklia.com/HIMANIS/JJ065A/words_annotations/FRCHANJJ_JJ065A_0211R.json/90/line", 
            "@type": "oa:Annotation", 
            "motivation": "oa:painting", 
            "on": "http://bvmm.irht.cnrs.fr/iiif/23648/canvas/canvas-2283757#xywh=2378,945,85,105", 
            "resource": {
                "@type": "cnt:ContentAsText", 
                "chars": "ALIBI", 
                "format": "text/plain"
            }
        }, 
        {
            "@id": "https://manifests.teklia.com/HIMANIS/JJ065A/words_annotations/FRCHANJJ_JJ065A_0211R.json/91/line", 
            "@type": "oa:Annotation", 
            "motivation": "oa:painting", 
            "on": "http://bvmm.irht.cnrs.fr/iiif/23648/canvas/canvas-2283757#xywh=779,245,173,125", 
            "resource": {
                "@type": "cnt:ContentAsText", 
                "chars": "HUMILITER", 
                "format": "text/plain"
            }
        }, 
        {
            "@id": "https://manifests.teklia.com/HIMANIS/JJ065A/words_annotations/FRCHANJJ_JJ065A_0211R.json/92/line", 
            "@type": "oa:Annotation", 
            "motivation": "oa:painting", 
            "on": "http://bvmm.irht.cnrs.fr/iiif/23648/canvas/canvas-2283757#xywh=2138,850,138,130", 
            "resource": {
                "@type": "cnt:ContentAsText", 
                "chars": "MENSE", 
                "format": "text/plain"
            }
        }, 
        {
            "@id": "https://manifests.teklia.com/HIMANIS/JJ065A/words_annotations/FRCHANJJ_JJ065A_0211R.json/93/line", 
            "@type": "oa:Annotation", 
            "motivation": "oa:painting", 
            "on": "http://bvmm.irht.cnrs.fr/iiif/23648/canvas/canvas-2283757#xywh=1722,125,36,145", 
            "resource": {
                "@type": "cnt:ContentAsText", 
                "chars": "IN", 
                "format": "text/plain"
            }
        }, 
        {
            "@id": "https://manifests.teklia.com/HIMANIS/JJ065A/words_annotations/FRCHANJJ_JJ065A_0211R.json/94/line", 
            "@type": "oa:Annotation", 
            "motivation": "oa:painting", 
            "on": "http://bvmm.irht.cnrs.fr/iiif/23648/canvas/canvas-2283757#xywh=1568,625,34,135", 
            "resource": {
                "@type": "cnt:ContentAsText", 
                "chars": "ET", 
                "format": "text/plain"
            }
        }, 
        {
            "@id": "https://manifests.teklia.com/HIMANIS/JJ065A/words_annotations/FRCHANJJ_JJ065A_0211R.json/95/line", 
            "@type": "oa:Annotation", 
            "motivation": "oa:painting", 
            "on": "http://bvmm.irht.cnrs.fr/iiif/23648/canvas/canvas-2283757#xywh=1628,625,42,135", 
            "resource": {
                "@type": "cnt:ContentAsText", 
                "chars": "EX", 
                "format": "text/plain"
            }
        }, 
        {
            "@id": "https://manifests.teklia.com/HIMANIS/JJ065A/words_annotations/FRCHANJJ_JJ065A_0211R.json/96/line", 
            "@type": "oa:Annotation", 
            "motivation": "oa:painting", 
            "on": "http://bvmm.irht.cnrs.fr/iiif/23648/canvas/canvas-2283757#xywh=2223,125,18,145", 
            "resource": {
                "@type": "cnt:ContentAsText", 
                "chars": "ET", 
                "format": "text/plain"
            }
        }, 
        {
            "@id": "https://manifests.teklia.com/HIMANIS/JJ065A/words_annotations/FRCHANJJ_JJ065A_0211R.json/97/line", 
            "@type": "oa:Annotation", 
            "motivation": "oa:painting", 
            "on": "http://bvmm.irht.cnrs.fr/iiif/23648/canvas/canvas-2283757#xywh=1363,420,136,155", 
            "resource": {
                "@type": "cnt:ContentAsText", 
                "chars": "ANNERE", 
                "format": "text/plain"
            }
        }, 
        {
            "@id": "https://manifests.teklia.com/HIMANIS/JJ065A/words_annotations/FRCHANJJ_JJ065A_0211R.json/98/line", 
            "@type": "oa:Annotation", 
            "motivation": "oa:painting", 
            "on": "http://bvmm.irht.cnrs.fr/iiif/23648/canvas/canvas-2283757#xywh=2102,625,77,135", 
            "resource": {
                "@type": "cnt:ContentAsText", 
                "chars": "NOSTRA", 
                "format": "text/plain"
            }
        }, 
        {
            "@id": "https://manifests.teklia.com/HIMANIS/JJ065A/words_annotations/FRCHANJJ_JJ065A_0211R.json/99/line", 
            "@type": "oa:Annotation", 
            "motivation": "oa:painting", 
            "on": "http://bvmm.irht.cnrs.fr/iiif/23648/canvas/canvas-2283757#xywh=1390,625,153,135", 
            "resource": {
                "@type": "cnt:ContentAsText", 
                "chars": "PRESENTIUM", 
                "format": "text/plain"
            }
        }, 
        {
            "@id": "https://manifests.teklia.com/HIMANIS/JJ065A/words_annotations/FRCHANJJ_JJ065A_0211R.json/100/line", 
            "@type": "oa:Annotation", 
            "motivation": "oa:painting", 
            "on": "http://bvmm.irht.cnrs.fr/iiif/23648/canvas/canvas-2283757#xywh=383,125,209,145", 
            "resource": {
                "@type": "cnt:ContentAsText", 
                "chars": "APPROVENDA", 
                "format": "text/plain"
            }
        }, 
        {
            "@id": "https://manifests.teklia.com/HIMANIS/JJ065A/words_annotations/FRCHANJJ_JJ065A_0211R.json/101/line", 
            "@type": "oa:Annotation", 
            "motivation": "oa:painting", 
            "on": "http://bvmm.irht.cnrs.fr/iiif/23648/canvas/canvas-2283757#xywh=3176,860,5,85", 
            "resource": {
                "@type": "cnt:ContentAsText", 
                "chars": "ET", 
                "format": "text/plain"
            }
        }, 
        {
            "@id": "https://manifests.teklia.com/HIMANIS/JJ065A/words_annotations/FRCHANJJ_JJ065A_0211R.json/102/line", 
            "@type": "oa:Annotation", 
            "motivation": "oa:painting", 
            "on": "http://bvmm.irht.cnrs.fr/iiif/23648/canvas/canvas-2283757#xywh=1132,740,136,120", 
            "resource": {
                "@type": "cnt:ContentAsText", 
                "chars": "ALIENO", 
                "format": "text/plain"
            }
        }, 
        {
            "@id": "https://manifests.teklia.com/HIMANIS/JJ065A/words_annotations/FRCHANJJ_JJ065A_0211R.json/103/line", 
            "@type": "oa:Annotation", 
            "motivation": "oa:painting", 
            "on": "http://bvmm.irht.cnrs.fr/iiif/23648/canvas/canvas-2283757#xywh=195,625,127,135", 
            "resource": {
                "@type": "cnt:ContentAsText", 
                "chars": "HABENTES", 
                "format": "text/plain"
            }
        }, 
        {
            "@id": "https://manifests.teklia.com/HIMANIS/JJ065A/words_annotations/FRCHANJJ_JJ065A_0211R.json/104/line", 
            "@type": "oa:Annotation", 
            "motivation": "oa:painting", 
            "on": "http://bvmm.irht.cnrs.fr/iiif/23648/canvas/canvas-2283757#xywh=1947,740,211,120", 
            "resource": {
                "@type": "cnt:ContentAsText", 
                "chars": "PERMANEAT", 
                "format": "text/plain"
            }
        }, 
        {
            "@id": "https://manifests.teklia.com/HIMANIS/JJ065A/words_annotations/FRCHANJJ_JJ065A_0211R.json/105/line", 
            "@type": "oa:Annotation", 
            "motivation": "oa:painting", 
            "on": "http://bvmm.irht.cnrs.fr/iiif/23648/canvas/canvas-2283757#xywh=1491,1045,210,140", 
            "resource": {
                "@type": "cnt:ContentAsText", 
                "chars": "NOS", 
                "format": "text/plain"
            }
        }, 
        {
            "@id": "https://manifests.teklia.com/HIMANIS/JJ065A/words_annotations/FRCHANJJ_JJ065A_0211R.json/106/line", 
            "@type": "oa:Annotation", 
            "motivation": "oa:painting", 
            "on": "http://bvmm.irht.cnrs.fr/iiif/23648/canvas/canvas-2283757#xywh=2181,740,45,120", 
            "resource": {
                "@type": "cnt:ContentAsText", 
                "chars": "IN", 
                "format": "text/plain"
            }
        }, 
        {
            "@id": "https://manifests.teklia.com/HIMANIS/JJ065A/words_annotations/FRCHANJJ_JJ065A_0211R.json/107/line", 
            "@type": "oa:Annotation", 
            "motivation": "oa:painting", 
            "on": "http://bvmm.irht.cnrs.fr/iiif/23648/canvas/canvas-2283757#xywh=2255,325,93,135", 
            "resource": {
                "@type": "cnt:ContentAsText", 
                "chars": "LIBRAS", 
                "format": "text/plain"
            }
        }, 
        {
            "@id": "https://manifests.teklia.com/HIMANIS/JJ065A/words_annotations/FRCHANJJ_JJ065A_0211R.json/108/line", 
            "@type": "oa:Annotation", 
            "motivation": "oa:painting", 
            "on": "http://bvmm.irht.cnrs.fr/iiif/23648/canvas/canvas-2283757#xywh=1464,740,45,120", 
            "resource": {
                "@type": "cnt:ContentAsText", 
                "chars": "UT", 
                "format": "text/plain"
            }
        }, 
        {
            "@id": "https://manifests.teklia.com/HIMANIS/JJ065A/words_annotations/FRCHANJJ_JJ065A_0211R.json/109/line", 
            "@type": "oa:Annotation", 
            "motivation": "oa:painting", 
            "on": "http://bvmm.irht.cnrs.fr/iiif/23648/canvas/canvas-2283757#xywh=1932,125,145,145", 
            "resource": {
                "@type": "cnt:ContentAsText", 
                "chars": "BEATORUM", 
                "format": "text/plain"
            }
        }, 
        {
            "@id": "https://manifests.teklia.com/HIMANIS/JJ065A/words_annotations/FRCHANJJ_JJ065A_0211R.json/110/line", 
            "@type": "oa:Annotation", 
            "motivation": "oa:painting", 
            "on": "http://bvmm.irht.cnrs.fr/iiif/23648/canvas/canvas-2283757#xywh=1728,740,38,120", 
            "resource": {
                "@type": "cnt:ContentAsText", 
                "chars": "ET", 
                "format": "text/plain"
            }
        }, 
        {
            "@id": "https://manifests.teklia.com/HIMANIS/JJ065A/words_annotations/FRCHANJJ_JJ065A_0211R.json/111/line", 
            "@type": "oa:Annotation", 
            "motivation": "oa:painting", 
            "on": "http://bvmm.irht.cnrs.fr/iiif/23648/canvas/canvas-2283757#xywh=2259,945,26,105", 
            "resource": {
                "@type": "cnt:ContentAsText", 
                "chars": "ET", 
                "format": "text/plain"
            }
        }, 
        {
            "@id": "https://manifests.teklia.com/HIMANIS/JJ065A/words_annotations/FRCHANJJ_JJ065A_0211R.json/112/line", 
            "@type": "oa:Annotation", 
            "motivation": "oa:painting", 
            "on": "http://bvmm.irht.cnrs.fr/iiif/23648/canvas/canvas-2283757#xywh=2439,245,55,125", 
            "resource": {
                "@type": "cnt:ContentAsText", 
                "chars": "UT", 
                "format": "text/plain"
            }
        }, 
        {
            "@id": "https://manifests.teklia.com/HIMANIS/JJ065A/words_annotations/FRCHANJJ_JJ065A_0211R.json/113/line", 
            "@type": "oa:Annotation", 
            "motivation": "oa:painting", 
            "on": "http://bvmm.irht.cnrs.fr/iiif/23648/canvas/canvas-2283757#xywh=1660,245,39,125", 
            "resource": {
                "@type": "cnt:ContentAsText", 
                "chars": "ET", 
                "format": "text/plain"
            }
        }, 
        {
            "@id": "https://manifests.teklia.com/HIMANIS/JJ065A/words_annotations/FRCHANJJ_JJ065A_0211R.json/114/line", 
            "@type": "oa:Annotation", 
            "motivation": "oa:painting", 
            "on": "http://bvmm.irht.cnrs.fr/iiif/23648/canvas/canvas-2283757#xywh=1583,530,64,145", 
            "resource": {
                "@type": "cnt:ContentAsText", 
                "chars": "CUM", 
                "format": "text/plain"
            }
        }, 
        {
            "@id": "https://manifests.teklia.com/HIMANIS/JJ065A/words_annotations/FRCHANJJ_JJ065A_0211R.json/115/line", 
            "@type": "oa:Annotation", 
            "motivation": "oa:painting", 
            "on": "http://bvmm.irht.cnrs.fr/iiif/23648/canvas/canvas-2283757#xywh=2569,125,55,145", 
            "resource": {
                "@type": "cnt:ContentAsText", 
                "chars": "CUM", 
                "format": "text/plain"
            }
        }, 
        {
            "@id": "https://manifests.teklia.com/HIMANIS/JJ065A/words_annotations/FRCHANJJ_JJ065A_0211R.json/116/line", 
            "@type": "oa:Annotation", 
            "motivation": "oa:painting", 
            "on": "http://bvmm.irht.cnrs.fr/iiif/23648/canvas/canvas-2283757#xywh=2494,245,102,125", 
            "resource": {
                "@type": "cnt:ContentAsText", 
                "chars": "PRE", 
                "format": "text/plain"
            }
        }, 
        {
            "@id": "https://manifests.teklia.com/HIMANIS/JJ065A/words_annotations/FRCHANJJ_JJ065A_0211R.json/117/line", 
            "@type": "oa:Annotation", 
            "motivation": "oa:painting", 
            "on": "http://bvmm.irht.cnrs.fr/iiif/23648/canvas/canvas-2283757#xywh=2305,945,46,105", 
            "resource": {
                "@type": "cnt:ContentAsText", 
                "chars": "NON", 
                "format": "text/plain"
            }
        }, 
        {
            "@id": "https://manifests.teklia.com/HIMANIS/JJ065A/words_annotations/FRCHANJJ_JJ065A_0211R.json/118/line", 
            "@type": "oa:Annotation", 
            "motivation": "oa:painting", 
            "on": "http://bvmm.irht.cnrs.fr/iiif/23648/canvas/canvas-2283757#xywh=1942,850,114,130", 
            "resource": {
                "@type": "cnt:ContentAsText", 
                "chars": "OCTAVO", 
                "format": "text/plain"
            }
        }, 
        {
            "@id": "https://manifests.teklia.com/HIMANIS/JJ065A/words_annotations/FRCHANJJ_JJ065A_0211R.json/119/line", 
            "@type": "oa:Annotation", 
            "motivation": "oa:painting", 
            "on": "http://bvmm.irht.cnrs.fr/iiif/23648/canvas/canvas-2283757#xywh=906,0,105,120", 
            "resource": {
                "@type": "cnt:ContentAsText", 
                "chars": "ET", 
                "format": "text/plain"
            }
        }, 
        {
            "@id": "https://manifests.teklia.com/HIMANIS/JJ065A/words_annotations/FRCHANJJ_JJ065A_0211R.json/120/line", 
            "@type": "oa:Annotation", 
            "motivation": "oa:painting", 
            "on": "http://bvmm.irht.cnrs.fr/iiif/23648/canvas/canvas-2283757#xywh=1820,530,36,145", 
            "resource": {
                "@type": "cnt:ContentAsText", 
                "chars": "IN", 
                "format": "text/plain"
            }
        }, 
        {
            "@id": "https://manifests.teklia.com/HIMANIS/JJ065A/words_annotations/FRCHANJJ_JJ065A_0211R.json/121/line", 
            "@type": "oa:Annotation", 
            "motivation": "oa:painting", 
            "on": "http://bvmm.irht.cnrs.fr/iiif/23648/canvas/canvas-2283757#xywh=1110,530,36,145", 
            "resource": {
                "@type": "cnt:ContentAsText", 
                "chars": "ET", 
                "format": "text/plain"
            }
        }, 
        {
            "@id": "https://manifests.teklia.com/HIMANIS/JJ065A/words_annotations/FRCHANJJ_JJ065A_0211R.json/122/line", 
            "@type": "oa:Annotation", 
            "motivation": "oa:painting", 
            "on": "http://bvmm.irht.cnrs.fr/iiif/23648/canvas/canvas-2283757#xywh=1246,325,102,135", 
            "resource": {
                "@type": "cnt:ContentAsText", 
                "chars": "REGIA", 
                "format": "text/plain"
            }
        }, 
        {
            "@id": "https://manifests.teklia.com/HIMANIS/JJ065A/words_annotations/FRCHANJJ_JJ065A_0211R.json/123/line", 
            "@type": "oa:Annotation", 
            "motivation": "oa:painting", 
            "on": "http://bvmm.irht.cnrs.fr/iiif/23648/canvas/canvas-2283757#xywh=862,1045,271,140", 
            "resource": {
                "@type": "cnt:ContentAsText", 
                "chars": "JULIANUS", 
                "format": "text/plain"
            }
        }, 
        {
            "@id": "https://manifests.teklia.com/HIMANIS/JJ065A/words_annotations/FRCHANJJ_JJ065A_0211R.json/124/line", 
            "@type": "oa:Annotation", 
            "motivation": "oa:painting", 
            "on": "http://bvmm.irht.cnrs.fr/iiif/23648/canvas/canvas-2283757#xywh=929,125,91,145", 
            "resource": {
                "@type": "cnt:ContentAsText", 
                "chars": "DOMINI", 
                "format": "text/plain"
            }
        }, 
        {
            "@id": "https://manifests.teklia.com/HIMANIS/JJ065A/words_annotations/FRCHANJJ_JJ065A_0211R.json/125/line", 
            "@type": "oa:Annotation", 
            "motivation": "oa:painting", 
            "on": "http://bvmm.irht.cnrs.fr/iiif/23648/canvas/canvas-2283757#xywh=373,325,169,135", 
            "resource": {
                "@type": "cnt:ContentAsText", 
                "chars": "CONCESSORUM", 
                "format": "text/plain"
            }
        }, 
        {
            "@id": "https://manifests.teklia.com/HIMANIS/JJ065A/words_annotations/FRCHANJJ_JJ065A_0211R.json/126/line", 
            "@type": "oa:Annotation", 
            "motivation": "oa:painting", 
            "on": "http://bvmm.irht.cnrs.fr/iiif/23648/canvas/canvas-2283757#xywh=1542,850,0,130", 
            "resource": {
                "@type": "cnt:ContentAsText", 
                "chars": "M", 
                "format": "text/plain"
            }
        }, 
        {
            "@id": "https://manifests.teklia.com/HIMANIS/JJ065A/words_annotations/FRCHANJJ_JJ065A_0211R.json/127/line", 
            "@type": "oa:Annotation", 
            "motivation": "oa:painting", 
            "on": "http://bvmm.irht.cnrs.fr/iiif/23648/canvas/canvas-2283757#xywh=1099,960,198,90", 
            "resource": {
                "@type": "cnt:ContentAsText", 
                "chars": "COMPOTORUM", 
                "format": "text/plain"
            }
        }, 
        {
            "@id": "https://manifests.teklia.com/HIMANIS/JJ065A/words_annotations/FRCHANJJ_JJ065A_0211R.json/128/line", 
            "@type": "oa:Annotation", 
            "motivation": "oa:painting", 
            "on": "http://bvmm.irht.cnrs.fr/iiif/23648/canvas/canvas-2283757#xywh=373,325,178,135", 
            "resource": {
                "@type": "cnt:ContentAsText", 
                "chars": "CONCESSORES", 
                "format": "text/plain"
            }
        }, 
        {
            "@id": "https://manifests.teklia.com/HIMANIS/JJ065A/words_annotations/FRCHANJJ_JJ065A_0211R.json/129/line", 
            "@type": "oa:Annotation", 
            "motivation": "oa:painting", 
            "on": "http://bvmm.irht.cnrs.fr/iiif/23648/canvas/canvas-2283757#xywh=1687,625,68,135", 
            "resource": {
                "@type": "cnt:ContentAsText", 
                "chars": "CERTA", 
                "format": "text/plain"
            }
        }, 
        {
            "@id": "https://manifests.teklia.com/HIMANIS/JJ065A/words_annotations/FRCHANJJ_JJ065A_0211R.json/130/line", 
            "@type": "oa:Annotation", 
            "motivation": "oa:painting", 
            "on": "http://bvmm.irht.cnrs.fr/iiif/23648/canvas/canvas-2283757#xywh=2483,740,128,120", 
            "resource": {
                "@type": "cnt:ContentAsText", 
                "chars": "PRESENT", 
                "format": "text/plain"
            }
        }, 
        {
            "@id": "https://manifests.teklia.com/HIMANIS/JJ065A/words_annotations/FRCHANJJ_JJ065A_0211R.json/131/line", 
            "@type": "oa:Annotation", 
            "motivation": "oa:painting", 
            "on": "http://bvmm.irht.cnrs.fr/iiif/23648/canvas/canvas-2283757#xywh=2256,740,181,120", 
            "resource": {
                "@type": "cnt:ContentAsText", 
                "chars": "FUTURUM", 
                "format": "text/plain"
            }
        }, 
        {
            "@id": "https://manifests.teklia.com/HIMANIS/JJ065A/words_annotations/FRCHANJJ_JJ065A_0211R.json/132/line", 
            "@type": "oa:Annotation", 
            "motivation": "oa:painting", 
            "on": "http://bvmm.irht.cnrs.fr/iiif/23648/canvas/canvas-2283757#xywh=1951,245,87,125", 
            "resource": {
                "@type": "cnt:ContentAsText", 
                "chars": "SIBI", 
                "format": "text/plain"
            }
        }, 
        {
            "@id": "https://manifests.teklia.com/HIMANIS/JJ065A/words_annotations/FRCHANJJ_JJ065A_0211R.json/133/line", 
            "@type": "oa:Annotation", 
            "motivation": "oa:painting", 
            "on": "http://bvmm.irht.cnrs.fr/iiif/23648/canvas/canvas-2283757#xywh=2265,530,182,145", 
            "resource": {
                "@type": "cnt:ContentAsText", 
                "chars": "CONTENTIS", 
                "format": "text/plain"
            }
        }, 
        {
            "@id": "https://manifests.teklia.com/HIMANIS/JJ065A/words_annotations/FRCHANJJ_JJ065A_0211R.json/134/line", 
            "@type": "oa:Annotation", 
            "motivation": "oa:painting", 
            "on": "http://bvmm.irht.cnrs.fr/iiif/23648/canvas/canvas-2283757#xywh=2153,1059,57,75", 
            "resource": {
                "@type": "cnt:ContentAsText", 
                "chars": "FIR", 
                "format": "text/plain"
            }
        }, 
        {
            "@id": "https://manifests.teklia.com/HIMANIS/JJ065A/words_annotations/FRCHANJJ_JJ065A_0211R.json/135/line", 
            "@type": "oa:Annotation", 
            "motivation": "oa:painting", 
            "on": "http://bvmm.irht.cnrs.fr/iiif/23648/canvas/canvas-2283757#xywh=815,740,121,120", 
            "resource": {
                "@type": "cnt:ContentAsText", 
                "chars": "OMNIBUS", 
                "format": "text/plain"
            }
        }, 
        {
            "@id": "https://manifests.teklia.com/HIMANIS/JJ065A/words_annotations/FRCHANJJ_JJ065A_0211R.json/136/line", 
            "@type": "oa:Annotation", 
            "motivation": "oa:painting", 
            "on": "http://bvmm.irht.cnrs.fr/iiif/23648/canvas/canvas-2283757#xywh=1557,420,234,155", 
            "resource": {
                "@type": "cnt:ContentAsText", 
                "chars": "SATISFACIONEQUE", 
                "format": "text/plain"
            }
        }, 
        {
            "@id": "https://manifests.teklia.com/HIMANIS/JJ065A/words_annotations/FRCHANJJ_JJ065A_0211R.json/137/line", 
            "@type": "oa:Annotation", 
            "motivation": "oa:painting", 
            "on": "http://bvmm.irht.cnrs.fr/iiif/23648/canvas/canvas-2283757#xywh=8,325,340,135", 
            "resource": {
                "@type": "cnt:ContentAsText", 
                "chars": "MITTITUR", 
                "format": "text/plain"
            }
        }, 
        {
            "@id": "https://manifests.teklia.com/HIMANIS/JJ065A/words_annotations/FRCHANJJ_JJ065A_0211R.json/138/line", 
            "@type": "oa:Annotation", 
            "motivation": "oa:painting", 
            "on": "http://bvmm.irht.cnrs.fr/iiif/23648/canvas/canvas-2283757#xywh=282,530,191,145", 
            "resource": {
                "@type": "cnt:ContentAsText", 
                "chars": "THESAURO", 
                "format": "text/plain"
            }
        }, 
        {
            "@id": "https://manifests.teklia.com/HIMANIS/JJ065A/words_annotations/FRCHANJJ_JJ065A_0211R.json/139/line", 
            "@type": "oa:Annotation", 
            "motivation": "oa:painting", 
            "on": "http://bvmm.irht.cnrs.fr/iiif/23648/canvas/canvas-2283757#xywh=2096,125,109,145", 
            "resource": {
                "@type": "cnt:ContentAsText", 
                "chars": "PHILIPPUS", 
                "format": "text/plain"
            }
        }, 
        {
            "@id": "https://manifests.teklia.com/HIMANIS/JJ065A/words_annotations/FRCHANJJ_JJ065A_0211R.json/140/line", 
            "@type": "oa:Annotation", 
            "motivation": "oa:painting", 
            "on": "http://bvmm.irht.cnrs.fr/iiif/23648/canvas/canvas-2283757#xywh=2096,125,109,145", 
            "resource": {
                "@type": "cnt:ContentAsText", 
                "chars": "PHILIPPES", 
                "format": "text/plain"
            }
        }, 
        {
            "@id": "https://manifests.teklia.com/HIMANIS/JJ065A/words_annotations/FRCHANJJ_JJ065A_0211R.json/141/line", 
            "@type": "oa:Annotation", 
            "motivation": "oa:painting", 
            "on": "http://bvmm.irht.cnrs.fr/iiif/23648/canvas/canvas-2283757#xywh=2414,125,128,145", 
            "resource": {
                "@type": "cnt:ContentAsText", 
                "chars": "PLARUM", 
                "format": "text/plain"
            }
        }, 
        {
            "@id": "https://manifests.teklia.com/HIMANIS/JJ065A/words_annotations/FRCHANJJ_JJ065A_0211R.json/142/line", 
            "@type": "oa:Annotation", 
            "motivation": "oa:painting", 
            "on": "http://bvmm.irht.cnrs.fr/iiif/23648/canvas/canvas-2283757#xywh=2414,125,137,145", 
            "resource": {
                "@type": "cnt:ContentAsText", 
                "chars": "PLERUM", 
                "format": "text/plain"
            }
        }, 
        {
            "@id": "https://manifests.teklia.com/HIMANIS/JJ065A/words_annotations/FRCHANJJ_JJ065A_0211R.json/143/line", 
            "@type": "oa:Annotation", 
            "motivation": "oa:painting", 
            "on": "http://bvmm.irht.cnrs.fr/iiif/23648/canvas/canvas-2283757#xywh=2414,125,0,145", 
            "resource": {
                "@type": "cnt:ContentAsText", 
                "chars": "A", 
                "format": "text/plain"
            }
        }, 
        {
            "@id": "https://manifests.teklia.com/HIMANIS/JJ065A/words_annotations/FRCHANJJ_JJ065A_0211R.json/144/line", 
            "@type": "oa:Annotation", 
            "motivation": "oa:painting", 
            "on": "http://bvmm.irht.cnrs.fr/iiif/23648/canvas/canvas-2283757#xywh=958,740,159,120", 
            "resource": {
                "@type": "cnt:ContentAsText", 
                "chars": "QUOLIBET", 
                "format": "text/plain"
            }
        }, 
        {
            "@id": "https://manifests.teklia.com/HIMANIS/JJ065A/words_annotations/FRCHANJJ_JJ065A_0211R.json/145/line", 
            "@type": "oa:Annotation", 
            "motivation": "oa:painting", 
            "on": "http://bvmm.irht.cnrs.fr/iiif/23648/canvas/canvas-2283757#xywh=1274,245,339,125", 
            "resource": {
                "@type": "cnt:ContentAsText", 
                "chars": "MANUMENEM", 
                "format": "text/plain"
            }
        }, 
        {
            "@id": "https://manifests.teklia.com/HIMANIS/JJ065A/words_annotations/FRCHANJJ_JJ065A_0211R.json/146/line", 
            "@type": "oa:Annotation", 
            "motivation": "oa:painting", 
            "on": "http://bvmm.irht.cnrs.fr/iiif/23648/canvas/canvas-2283757#xywh=584,420,243,155", 
            "resource": {
                "@type": "cnt:ContentAsText", 
                "chars": "SUPPLICACIONI", 
                "format": "text/plain"
            }
        }, 
        {
            "@id": "https://manifests.teklia.com/HIMANIS/JJ065A/words_annotations/FRCHANJJ_JJ065A_0211R.json/147/line", 
            "@type": "oa:Annotation", 
            "motivation": "oa:painting", 
            "on": "http://bvmm.irht.cnrs.fr/iiif/23648/canvas/canvas-2283757#xywh=2382,325,84,135", 
            "resource": {
                "@type": "cnt:ContentAsText", 
                "chars": "PARISIUS", 
                "format": "text/plain"
            }
        }, 
        {
            "@id": "https://manifests.teklia.com/HIMANIS/JJ065A/words_annotations/FRCHANJJ_JJ065A_0211R.json/148/line", 
            "@type": "oa:Annotation", 
            "motivation": "oa:painting", 
            "on": "http://bvmm.irht.cnrs.fr/iiif/23648/canvas/canvas-2283757#xywh=1285,125,109,145", 
            "resource": {
                "@type": "cnt:ContentAsText", 
                "chars": "VONS", 
                "format": "text/plain"
            }
        }, 
        {
            "@id": "https://manifests.teklia.com/HIMANIS/JJ065A/words_annotations/FRCHANJJ_JJ065A_0211R.json/149/line", 
            "@type": "oa:Annotation", 
            "motivation": "oa:painting", 
            "on": "http://bvmm.irht.cnrs.fr/iiif/23648/canvas/canvas-2283757#xywh=964,530,110,145", 
            "resource": {
                "@type": "cnt:ContentAsText", 
                "chars": "INEM", 
                "format": "text/plain"
            }
        }, 
        {
            "@id": "https://manifests.teklia.com/HIMANIS/JJ065A/words_annotations/FRCHANJJ_JJ065A_0211R.json/150/line", 
            "@type": "oa:Annotation", 
            "motivation": "oa:painting", 
            "on": "http://bvmm.irht.cnrs.fr/iiif/23648/canvas/canvas-2283757#xywh=653,245,94,125", 
            "resource": {
                "@type": "cnt:ContentAsText", 
                "chars": "NOBIS", 
                "format": "text/plain"
            }
        }, 
        {
            "@id": "https://manifests.teklia.com/HIMANIS/JJ065A/words_annotations/FRCHANJJ_JJ065A_0211R.json/151/line", 
            "@type": "oa:Annotation", 
            "motivation": "oa:painting", 
            "on": "http://bvmm.irht.cnrs.fr/iiif/23648/canvas/canvas-2283757#xywh=2414,125,137,145", 
            "resource": {
                "@type": "cnt:ContentAsText", 
                "chars": "PLURIUM", 
                "format": "text/plain"
            }
        }, 
        {
            "@id": "https://manifests.teklia.com/HIMANIS/JJ065A/words_annotations/FRCHANJJ_JJ065A_0211R.json/152/line", 
            "@type": "oa:Annotation", 
            "motivation": "oa:painting", 
            "on": "http://bvmm.irht.cnrs.fr/iiif/23648/canvas/canvas-2283757#xywh=1984,625,110,135", 
            "resource": {
                "@type": "cnt:ContentAsText", 
                "chars": "AUCTORITAS", 
                "format": "text/plain"
            }
        }, 
        {
            "@id": "https://manifests.teklia.com/HIMANIS/JJ065A/words_annotations/FRCHANJJ_JJ065A_0211R.json/153/line", 
            "@type": "oa:Annotation", 
            "motivation": "oa:painting", 
            "on": "http://bvmm.irht.cnrs.fr/iiif/23648/canvas/canvas-2283757#xywh=390,625,153,135", 
            "resource": {
                "@type": "cnt:ContentAsText", 
                "chars": "GRATAS", 
                "format": "text/plain"
            }
        }, 
        {
            "@id": "https://manifests.teklia.com/HIMANIS/JJ065A/words_annotations/FRCHANJJ_JJ065A_0211R.json/154/line", 
            "@type": "oa:Annotation", 
            "motivation": "oa:painting", 
            "on": "http://bvmm.irht.cnrs.fr/iiif/23648/canvas/canvas-2283757#xywh=610,530,81,145", 
            "resource": {
                "@type": "cnt:ContentAsText", 
                "chars": "PARISIUS", 
                "format": "text/plain"
            }
        }, 
        {
            "@id": "https://manifests.teklia.com/HIMANIS/JJ065A/words_annotations/FRCHANJJ_JJ065A_0211R.json/155/line", 
            "@type": "oa:Annotation", 
            "motivation": "oa:painting", 
            "on": "http://bvmm.irht.cnrs.fr/iiif/23648/canvas/canvas-2283757#xywh=728,530,164,145", 
            "resource": {
                "@type": "cnt:ContentAsText", 
                "chars": "MANUM", 
                "format": "text/plain"
            }
        }, 
        {
            "@id": "https://manifests.teklia.com/HIMANIS/JJ065A/words_annotations/FRCHANJJ_JJ065A_0211R.json/156/line", 
            "@type": "oa:Annotation", 
            "motivation": "oa:painting", 
            "on": "http://bvmm.irht.cnrs.fr/iiif/23648/canvas/canvas-2283757#xywh=1385,1395,15,80", 
            "resource": {
                "@type": "cnt:ContentAsText", 
                "chars": "ET", 
                "format": "text/plain"
            }
        }, 
        {
            "@id": "https://manifests.teklia.com/HIMANIS/JJ065A/words_annotations/FRCHANJJ_JJ065A_0211R.json/157/line", 
            "@type": "oa:Annotation", 
            "motivation": "oa:painting", 
            "on": "http://bvmm.irht.cnrs.fr/iiif/23648/canvas/canvas-2283757#xywh=2153,1059,66,75", 
            "resource": {
                "@type": "cnt:ContentAsText", 
                "chars": "FRERE", 
                "format": "text/plain"
            }
        }, 
        {
            "@id": "https://manifests.teklia.com/HIMANIS/JJ065A/words_annotations/FRCHANJJ_JJ065A_0211R.json/158/line", 
            "@type": "oa:Annotation", 
            "motivation": "oa:painting", 
            "on": "http://bvmm.irht.cnrs.fr/iiif/23648/canvas/canvas-2283757#xywh=1426,1395,212,80", 
            "resource": {
                "@type": "cnt:ContentAsText", 
                "chars": "ENTABLEES", 
                "format": "text/plain"
            }
        }, 
        {
            "@id": "https://manifests.teklia.com/HIMANIS/JJ065A/words_annotations/FRCHANJJ_JJ065A_0211R.json/159/line", 
            "@type": "oa:Annotation", 
            "motivation": "oa:painting", 
            "on": "http://bvmm.irht.cnrs.fr/iiif/23648/canvas/canvas-2283757#xywh=196,850,41,130", 
            "resource": {
                "@type": "cnt:ContentAsText", 
                "chars": "BUS", 
                "format": "text/plain"
            }
        }, 
        {
            "@id": "https://manifests.teklia.com/HIMANIS/JJ065A/words_annotations/FRCHANJJ_JJ065A_0211R.json/160/line", 
            "@type": "oa:Annotation", 
            "motivation": "oa:painting", 
            "on": "http://bvmm.irht.cnrs.fr/iiif/23648/canvas/canvas-2283757#xywh=1796,740,128,120", 
            "resource": {
                "@type": "cnt:ContentAsText", 
                "chars": "STABILE", 
                "format": "text/plain"
            }
        }, 
        {
            "@id": "https://manifests.teklia.com/HIMANIS/JJ065A/words_annotations/FRCHANJJ_JJ065A_0211R.json/161/line", 
            "@type": "oa:Annotation", 
            "motivation": "oa:painting", 
            "on": "http://bvmm.irht.cnrs.fr/iiif/23648/canvas/canvas-2283757#xywh=954,420,185,155", 
            "resource": {
                "@type": "cnt:ContentAsText", 
                "chars": "BENIGUERIT", 
                "format": "text/plain"
            }
        }, 
        {
            "@id": "https://manifests.teklia.com/HIMANIS/JJ065A/words_annotations/FRCHANJJ_JJ065A_0211R.json/162/line", 
            "@type": "oa:Annotation", 
            "motivation": "oa:painting", 
            "on": "http://bvmm.irht.cnrs.fr/iiif/23648/canvas/canvas-2283757#xywh=831,625,186,135", 
            "resource": {
                "@type": "cnt:ContentAsText", 
                "chars": "LAUDAMUS", 
                "format": "text/plain"
            }
        }, 
        {
            "@id": "https://manifests.teklia.com/HIMANIS/JJ065A/words_annotations/FRCHANJJ_JJ065A_0211R.json/163/line", 
            "@type": "oa:Annotation", 
            "motivation": "oa:painting", 
            "on": "http://bvmm.irht.cnrs.fr/iiif/23648/canvas/canvas-2283757#xywh=2530,420,88,155", 
            "resource": {
                "@type": "cnt:ContentAsText", 
                "chars": "PAR", 
                "format": "text/plain"
            }
        }, 
        {
            "@id": "https://manifests.teklia.com/HIMANIS/JJ065A/words_annotations/FRCHANJJ_JJ065A_0211R.json/164/line", 
            "@type": "oa:Annotation", 
            "motivation": "oa:painting", 
            "on": "http://bvmm.irht.cnrs.fr/iiif/23648/canvas/canvas-2283757#xywh=1212,245,39,125", 
            "resource": {
                "@type": "cnt:ContentAsText", 
                "chars": "QUOD", 
                "format": "text/plain"
            }
        }, 
        {
            "@id": "https://manifests.teklia.com/HIMANIS/JJ065A/words_annotations/FRCHANJJ_JJ065A_0211R.json/165/line", 
            "@type": "oa:Annotation", 
            "motivation": "oa:painting", 
            "on": "http://bvmm.irht.cnrs.fr/iiif/23648/canvas/canvas-2283757#xywh=10,420,282,155", 
            "resource": {
                "@type": "cnt:ContentAsText", 
                "chars": "NOBIS", 
                "format": "text/plain"
            }
        }, 
        {
            "@id": "https://manifests.teklia.com/HIMANIS/JJ065A/words_annotations/FRCHANJJ_JJ065A_0211R.json/166/line", 
            "@type": "oa:Annotation", 
            "motivation": "oa:painting", 
            "on": "http://bvmm.irht.cnrs.fr/iiif/23648/canvas/canvas-2283757#xywh=1044,850,98,130", 
            "resource": {
                "@type": "cnt:ContentAsText", 
                "chars": "DATUM", 
                "format": "text/plain"
            }
        }, 
        {
            "@id": "https://manifests.teklia.com/HIMANIS/JJ065A/words_annotations/FRCHANJJ_JJ065A_0211R.json/167/line", 
            "@type": "oa:Annotation", 
            "motivation": "oa:painting", 
            "on": "http://bvmm.irht.cnrs.fr/iiif/23648/canvas/canvas-2283757#xywh=2204,625,93,135", 
            "resource": {
                "@type": "cnt:ContentAsText", 
                "chars": "REGIA", 
                "format": "text/plain"
            }
        }, 
        {
            "@id": "https://manifests.teklia.com/HIMANIS/JJ065A/words_annotations/FRCHANJJ_JJ065A_0211R.json/168/line", 
            "@type": "oa:Annotation", 
            "motivation": "oa:painting", 
            "on": "http://bvmm.irht.cnrs.fr/iiif/23648/canvas/canvas-2283757#xywh=1246,625,127,135", 
            "resource": {
                "@type": "cnt:ContentAsText", 
                "chars": "TENORE", 
                "format": "text/plain"
            }
        }, 
        {
            "@id": "https://manifests.teklia.com/HIMANIS/JJ065A/words_annotations/FRCHANJJ_JJ065A_0211R.json/169/line", 
            "@type": "oa:Annotation", 
            "motivation": "oa:painting", 
            "on": "http://bvmm.irht.cnrs.fr/iiif/23648/canvas/canvas-2283757#xywh=2260,125,136,145", 
            "resource": {
                "@type": "cnt:ContentAsText", 
                "chars": "JACOBI", 
                "format": "text/plain"
            }
        }, 
        {
            "@id": "https://manifests.teklia.com/HIMANIS/JJ065A/words_annotations/FRCHANJJ_JJ065A_0211R.json/170/line", 
            "@type": "oa:Annotation", 
            "motivation": "oa:painting", 
            "on": "http://bvmm.irht.cnrs.fr/iiif/23648/canvas/canvas-2283757#xywh=1624,850,49,130", 
            "resource": {
                "@type": "cnt:ContentAsText", 
                "chars": "CCC", 
                "format": "text/plain"
            }
        }, 
        {
            "@id": "https://manifests.teklia.com/HIMANIS/JJ065A/words_annotations/FRCHANJJ_JJ065A_0211R.json/171/line", 
            "@type": "oa:Annotation", 
            "motivation": "oa:painting", 
            "on": "http://bvmm.irht.cnrs.fr/iiif/23648/canvas/canvas-2283757#xywh=2061,245,0,125", 
            "resource": {
                "@type": "cnt:ContentAsText", 
                "chars": "A", 
                "format": "text/plain"
            }
        }, 
        {
            "@id": "https://manifests.teklia.com/HIMANIS/JJ065A/words_annotations/FRCHANJJ_JJ065A_0211R.json/172/line", 
            "@type": "oa:Annotation", 
            "motivation": "oa:painting", 
            "on": "http://bvmm.irht.cnrs.fr/iiif/23648/canvas/canvas-2283757#xywh=2153,1059,61,75", 
            "resource": {
                "@type": "cnt:ContentAsText", 
                "chars": "FAIT", 
                "format": "text/plain"
            }
        }, 
        {
            "@id": "https://manifests.teklia.com/HIMANIS/JJ065A/words_annotations/FRCHANJJ_JJ065A_0211R.json/173/line", 
            "@type": "oa:Annotation", 
            "motivation": "oa:painting", 
            "on": "http://bvmm.irht.cnrs.fr/iiif/23648/canvas/canvas-2283757#xywh=1390,625,136,135", 
            "resource": {
                "@type": "cnt:ContentAsText", 
                "chars": "PRESENTER", 
                "format": "text/plain"
            }
        }, 
        {
            "@id": "https://manifests.teklia.com/HIMANIS/JJ065A/words_annotations/FRCHANJJ_JJ065A_0211R.json/174/line", 
            "@type": "oa:Annotation", 
            "motivation": "oa:painting", 
            "on": "http://bvmm.irht.cnrs.fr/iiif/23648/canvas/canvas-2283757#xywh=1390,625,127,135", 
            "resource": {
                "@type": "cnt:ContentAsText", 
                "chars": "PRESENTES", 
                "format": "text/plain"
            }
        }, 
        {
            "@id": "https://manifests.teklia.com/HIMANIS/JJ065A/words_annotations/FRCHANJJ_JJ065A_0211R.json/175/line", 
            "@type": "oa:Annotation", 
            "motivation": "oa:painting", 
            "on": "http://bvmm.irht.cnrs.fr/iiif/23648/canvas/canvas-2283757#xywh=1373,325,280,135", 
            "resource": {
                "@type": "cnt:ContentAsText", 
                "chars": "DIGNAREMUR", 
                "format": "text/plain"
            }
        }, 
        {
            "@id": "https://manifests.teklia.com/HIMANIS/JJ065A/words_annotations/FRCHANJJ_JJ065A_0211R.json/176/line", 
            "@type": "oa:Annotation", 
            "motivation": "oa:painting", 
            "on": "http://bvmm.irht.cnrs.fr/iiif/23648/canvas/canvas-2283757#xywh=559,325,221,135", 
            "resource": {
                "@type": "cnt:ContentAsText", 
                "chars": "CONFIRMARE", 
                "format": "text/plain"
            }
        }, 
        {
            "@id": "https://manifests.teklia.com/HIMANIS/JJ065A/words_annotations/FRCHANJJ_JJ065A_0211R.json/177/line", 
            "@type": "oa:Annotation", 
            "motivation": "oa:painting", 
            "on": "http://bvmm.irht.cnrs.fr/iiif/23648/canvas/canvas-2283757#xywh=923,960,130,90", 
            "resource": {
                "@type": "cnt:ContentAsText", 
                "chars": "CAMERAM", 
                "format": "text/plain"
            }
        }, 
        {
            "@id": "https://manifests.teklia.com/HIMANIS/JJ065A/words_annotations/FRCHANJJ_JJ065A_0211R.json/178/line", 
            "@type": "oa:Annotation", 
            "motivation": "oa:painting", 
            "on": "http://bvmm.irht.cnrs.fr/iiif/23648/canvas/canvas-2283757#xywh=1168,420,165,155", 
            "resource": {
                "@type": "cnt:ContentAsText", 
                "chars": "VOLENTES", 
                "format": "text/plain"
            }
        }, 
        {
            "@id": "https://manifests.teklia.com/HIMANIS/JJ065A/words_annotations/FRCHANJJ_JJ065A_0211R.json/179/line", 
            "@type": "oa:Annotation", 
            "motivation": "oa:painting", 
            "on": "http://bvmm.irht.cnrs.fr/iiif/23648/canvas/canvas-2283757#xywh=847,420,78,155", 
            "resource": {
                "@type": "cnt:ContentAsText", 
                "chars": "IPSIUS", 
                "format": "text/plain"
            }
        }, 
        {
            "@id": "https://manifests.teklia.com/HIMANIS/JJ065A/words_annotations/FRCHANJJ_JJ065A_0211R.json/180/line", 
            "@type": "oa:Annotation", 
            "motivation": "oa:painting", 
            "on": "http://bvmm.irht.cnrs.fr/iiif/23648/canvas/canvas-2283757#xywh=1043,625,178,135", 
            "resource": {
                "@type": "cnt:ContentAsText", 
                "chars": "APPROBAMUS", 
                "format": "text/plain"
            }
        }, 
        {
            "@id": "https://manifests.teklia.com/HIMANIS/JJ065A/words_annotations/FRCHANJJ_JJ065A_0211R.json/181/line", 
            "@type": "oa:Annotation", 
            "motivation": "oa:painting", 
            "on": "http://bvmm.irht.cnrs.fr/iiif/23648/canvas/canvas-2283757#xywh=8,245,322,125", 
            "resource": {
                "@type": "cnt:ContentAsText", 
                "chars": "IGITUR", 
                "format": "text/plain"
            }
        }, 
        {
            "@id": "https://manifests.teklia.com/HIMANIS/JJ065A/words_annotations/FRCHANJJ_JJ065A_0211R.json/182/line", 
            "@type": "oa:Annotation", 
            "motivation": "oa:painting", 
            "on": "http://bvmm.irht.cnrs.fr/iiif/23648/canvas/canvas-2283757#xywh=1539,740,159,120", 
            "resource": {
                "@type": "cnt:ContentAsText", 
                "chars": "FIRMUM", 
                "format": "text/plain"
            }
        }
    ]
}