{
    "@context": "http://iiif.io/api/presentation/2/context.json", 
    "@id": "https://manifests.teklia.com/HIMANIS/JJ073/words_annotations/FRCHANJJ_JJ073_0187R.json", 
    "@type": "sc:AnnotationList", 
    "resources": [
        {
            "@id": "https://manifests.teklia.com/HIMANIS/JJ073/words_annotations/FRCHANJJ_JJ073_0187R.json/0/line", 
            "@type": "oa:Annotation", 
            "motivation": "oa:painting", 
            "on": "http://bvmm.irht.cnrs.fr/iiif/23662/canvas/canvas-2291531#xywh=1397,252,150,100", 
            "resource": {
                "@type": "cnt:ContentAsText", 
                "chars": "UXORE", 
                "format": "text/plain"
            }
        }, 
        {
            "@id": "https://manifests.teklia.com/HIMANIS/JJ073/words_annotations/FRCHANJJ_JJ073_0187R.json/1/line", 
            "@type": "oa:Annotation", 
            "motivation": "oa:painting", 
            "on": "http://bvmm.irht.cnrs.fr/iiif/23662/canvas/canvas-2291531#xywh=2511,251,0,81", 
            "resource": {
                "@type": "cnt:ContentAsText", 
                "chars": "G", 
                "format": "text/plain"
            }
        }, 
        {
            "@id": "https://manifests.teklia.com/HIMANIS/JJ073/words_annotations/FRCHANJJ_JJ073_0187R.json/2/line", 
            "@type": "oa:Annotation", 
            "motivation": "oa:painting", 
            "on": "http://bvmm.irht.cnrs.fr/iiif/23662/canvas/canvas-2291531#xywh=2511,251,186,81", 
            "resource": {
                "@type": "cnt:ContentAsText", 
                "chars": "CCC", 
                "format": "text/plain"
            }
        }, 
        {
            "@id": "https://manifests.teklia.com/HIMANIS/JJ073/words_annotations/FRCHANJJ_JJ073_0187R.json/3/line", 
            "@type": "oa:Annotation", 
            "motivation": "oa:painting", 
            "on": "http://bvmm.irht.cnrs.fr/iiif/23662/canvas/canvas-2291531#xywh=2749,100,88,73", 
            "resource": {
                "@type": "cnt:ContentAsText", 
                "chars": "BRUI", 
                "format": "text/plain"
            }
        }, 
        {
            "@id": "https://manifests.teklia.com/HIMANIS/JJ073/words_annotations/FRCHANJJ_JJ073_0187R.json/4/line", 
            "@type": "oa:Annotation", 
            "motivation": "oa:painting", 
            "on": "http://bvmm.irht.cnrs.fr/iiif/23662/canvas/canvas-2291531#xywh=1397,252,156,100", 
            "resource": {
                "@type": "cnt:ContentAsText", 
                "chars": "VINTER", 
                "format": "text/plain"
            }
        }, 
        {
            "@id": "https://manifests.teklia.com/HIMANIS/JJ073/words_annotations/FRCHANJJ_JJ073_0187R.json/5/line", 
            "@type": "oa:Annotation", 
            "motivation": "oa:painting", 
            "on": "http://bvmm.irht.cnrs.fr/iiif/23662/canvas/canvas-2291531#xywh=2749,100,88,73", 
            "resource": {
                "@type": "cnt:ContentAsText", 
                "chars": "XVI", 
                "format": "text/plain"
            }
        }, 
        {
            "@id": "https://manifests.teklia.com/HIMANIS/JJ073/words_annotations/FRCHANJJ_JJ073_0187R.json/6/line", 
            "@type": "oa:Annotation", 
            "motivation": "oa:painting", 
            "on": "http://bvmm.irht.cnrs.fr/iiif/23662/canvas/canvas-2291531#xywh=1397,252,119,100", 
            "resource": {
                "@type": "cnt:ContentAsText", 
                "chars": "UXOR", 
                "format": "text/plain"
            }
        }, 
        {
            "@id": "https://manifests.teklia.com/HIMANIS/JJ073/words_annotations/FRCHANJJ_JJ073_0187R.json/7/line", 
            "@type": "oa:Annotation", 
            "motivation": "oa:painting", 
            "on": "http://bvmm.irht.cnrs.fr/iiif/23662/canvas/canvas-2291531#xywh=2630,100,0,73", 
            "resource": {
                "@type": "cnt:ContentAsText", 
                "chars": "P", 
                "format": "text/plain"
            }
        }, 
        {
            "@id": "https://manifests.teklia.com/HIMANIS/JJ073/words_annotations/FRCHANJJ_JJ073_0187R.json/8/line", 
            "@type": "oa:Annotation", 
            "motivation": "oa:painting", 
            "on": "http://bvmm.irht.cnrs.fr/iiif/23662/canvas/canvas-2291531#xywh=1578,252,106,100", 
            "resource": {
                "@type": "cnt:ContentAsText", 
                "chars": "VIII", 
                "format": "text/plain"
            }
        }, 
        {
            "@id": "https://manifests.teklia.com/HIMANIS/JJ073/words_annotations/FRCHANJJ_JJ073_0187R.json/9/line", 
            "@type": "oa:Annotation", 
            "motivation": "oa:painting", 
            "on": "http://bvmm.irht.cnrs.fr/iiif/23662/canvas/canvas-2291531#xywh=1578,252,106,100", 
            "resource": {
                "@type": "cnt:ContentAsText", 
                "chars": "VIIJ", 
                "format": "text/plain"
            }
        }
    ]
}